Init: (lift-at fast0 n0) (lift-at slow0-0 n2) (lift-at slow1-0 n4) (passenger-at p0 n8) (passenger-at p1 n3) (passenger-at p2 n2) (passengers fast0 n0) (passengers slow0-0 n0)
Unreachable facts [12/61]:
  (boarded p0 slow1-0)
  (boarded p1 slow1-0)
  (boarded p2 slow1-0)
  (passenger-at p0 n5)
  (passenger-at p0 n7)
  (passenger-at p1 n5)
  (passenger-at p1 n7)
  (passenger-at p2 n5)
  (passenger-at p2 n7)
  (passengers slow1-0 n0)
  (passengers slow1-0 n1)
  (passengers slow1-0 n2)
Unreachable ops [60/270]:
  (board p0 slow1-0 n4 n0 n1)
  (board p0 slow1-0 n4 n1 n2)
  (board p0 slow1-0 n5 n0 n1)
  (board p0 slow1-0 n5 n1 n2)
  (board p0 slow1-0 n6 n0 n1)
  (board p0 slow1-0 n6 n1 n2)
  (board p0 slow1-0 n7 n0 n1)
  (board p0 slow1-0 n7 n1 n2)
  (board p0 slow1-0 n8 n0 n1)
  (board p0 slow1-0 n8 n1 n2)
  (board p1 slow1-0 n4 n0 n1)
  (board p1 slow1-0 n4 n1 n2)
  (board p1 slow1-0 n5 n0 n1)
  (board p1 slow1-0 n5 n1 n2)
  (board p1 slow1-0 n6 n0 n1)
  (board p1 slow1-0 n6 n1 n2)
  (board p1 slow1-0 n7 n0 n1)
  (board p1 slow1-0 n7 n1 n2)
  (board p1 slow1-0 n8 n0 n1)
  (board p1 slow1-0 n8 n1 n2)
  (board p2 slow1-0 n4 n0 n1)
  (board p2 slow1-0 n4 n1 n2)
  (board p2 slow1-0 n5 n0 n1)
  (board p2 slow1-0 n5 n1 n2)
  (board p2 slow1-0 n6 n0 n1)
  (board p2 slow1-0 n6 n1 n2)
  (board p2 slow1-0 n7 n0 n1)
  (board p2 slow1-0 n7 n1 n2)
  (board p2 slow1-0 n8 n0 n1)
  (board p2 slow1-0 n8 n1 n2)
  (leave p0 slow1-0 n4 n1 n0)
  (leave p0 slow1-0 n4 n2 n1)
  (leave p0 slow1-0 n5 n1 n0)
  (leave p0 slow1-0 n5 n2 n1)
  (leave p0 slow1-0 n6 n1 n0)
  (leave p0 slow1-0 n6 n2 n1)
  (leave p0 slow1-0 n7 n1 n0)
  (leave p0 slow1-0 n7 n2 n1)
  (leave p0 slow1-0 n8 n1 n0)
  (leave p0 slow1-0 n8 n2 n1)
  (leave p1 slow1-0 n4 n1 n0)
  (leave p1 slow1-0 n4 n2 n1)
  (leave p1 slow1-0 n5 n1 n0)
  (leave p1 slow1-0 n5 n2 n1)
  (leave p1 slow1-0 n6 n1 n0)
  (leave p1 slow1-0 n6 n2 n1)
  (leave p1 slow1-0 n7 n1 n0)
  (leave p1 slow1-0 n7 n2 n1)
  (leave p1 slow1-0 n8 n1 n0)
  (leave p1 slow1-0 n8 n2 n1)
  (leave p2 slow1-0 n4 n1 n0)
  (leave p2 slow1-0 n4 n2 n1)
  (leave p2 slow1-0 n5 n1 n0)
  (leave p2 slow1-0 n5 n2 n1)
  (leave p2 slow1-0 n6 n1 n0)
  (leave p2 slow1-0 n6 n2 n1)
  (leave p2 slow1-0 n7 n1 n0)
  (leave p2 slow1-0 n7 n2 n1)
  (leave p2 slow1-0 n8 n1 n0)
  (leave p2 slow1-0 n8 n2 n1)
