Non-Maximal 30:
 (at_square square0 f0-3f) (at_square square1 f0-3f) (at_square square2 f0-3f) (at_square square3 f0-3f) (at_two straight0 f0-2f f0-3f) (at_two straight0 f0-3f f0-2f) (at_two straight0 f0-3f f1-3f) (at_two straight0 f1-3f f0-3f) (clear f0-3f):=1:fam:G
 (at_right_l rightl0 f0-0f f1-0f f1-1f) (at_square square0 f0-0f) (at_square square1 f0-0f) (at_square square2 f0-0f) (at_square square3 f0-0f) (at_two straight0 f0-0f f0-1f) (at_two straight0 f0-0f f1-0f) (at_two straight0 f0-1f f0-0f) (at_two straight0 f1-0f f0-0f) (clear f0-0f):=1:fam:G
 (at_right_l rightl0 f4-0f f5-0f f5-1f) (at_square square0 f5-0f) (at_square square1 f5-0f) (at_square square2 f5-0f) (at_square square3 f5-0f) (at_two straight0 f4-0f f5-0f) (at_two straight0 f5-0f f4-0f) (at_two straight0 f5-0f f5-1f) (at_two straight0 f5-1f f5-0f) (clear f5-0f):=1:fam
 (at_right_l rightl0 f4-2f f5-2f f5-3f) (at_square square0 f5-3f) (at_square square1 f5-3f) (at_square square2 f5-3f) (at_square square3 f5-3f) (at_two straight0 f4-3f f5-3f) (at_two straight0 f5-2f f5-3f) (at_two straight0 f5-3f f4-3f) (at_two straight0 f5-3f f5-2f) (clear f5-3f):=1:fam
 (at_right_l rightl0 f0-1f f1-1f f1-2f) (at_square square0 f0-1f) (at_square square1 f0-1f) (at_square square2 f0-1f) (at_square square3 f0-1f) (at_two straight0 f0-0f f0-1f) (at_two straight0 f0-1f f0-0f) (at_two straight0 f0-1f f0-2f) (at_two straight0 f0-1f f1-1f) (at_two straight0 f0-2f f0-1f) (at_two straight0 f1-1f f0-1f) (clear f0-1f):=1:fam:G
 (at_right_l rightl0 f0-2f f1-2f f1-3f) (at_square square0 f0-2f) (at_square square1 f0-2f) (at_square square2 f0-2f) (at_square square3 f0-2f) (at_two straight0 f0-1f f0-2f) (at_two straight0 f0-2f f0-1f) (at_two straight0 f0-2f f0-3f) (at_two straight0 f0-2f f1-2f) (at_two straight0 f0-3f f0-2f) (at_two straight0 f1-2f f0-2f) (clear f0-2f):=1:fam:G
 (at_right_l rightl0 f0-2f f1-2f f1-3f) (at_square square0 f1-3f) (at_square square1 f1-3f) (at_square square2 f1-3f) (at_square square3 f1-3f) (at_two straight0 f0-3f f1-3f) (at_two straight0 f1-2f f1-3f) (at_two straight0 f1-3f f0-3f) (at_two straight0 f1-3f f1-2f) (at_two straight0 f1-3f f2-3f) (at_two straight0 f2-3f f1-3f) (clear f1-3f):=1:fam:G
 (at_right_l rightl0 f1-2f f2-2f f2-3f) (at_square square0 f2-3f) (at_square square1 f2-3f) (at_square square2 f2-3f) (at_square square3 f2-3f) (at_two straight0 f1-3f f2-3f) (at_two straight0 f2-2f f2-3f) (at_two straight0 f2-3f f1-3f) (at_two straight0 f2-3f f2-2f) (at_two straight0 f2-3f f3-3f) (at_two straight0 f3-3f f2-3f) (clear f2-3f):=1:fam:G
 (at_right_l rightl0 f2-2f f3-2f f3-3f) (at_square square0 f3-3f) (at_square square1 f3-3f) (at_square square2 f3-3f) (at_square square3 f3-3f) (at_two straight0 f2-3f f3-3f) (at_two straight0 f3-2f f3-3f) (at_two straight0 f3-3f f2-3f) (at_two straight0 f3-3f f3-2f) (at_two straight0 f3-3f f4-3f) (at_two straight0 f4-3f f3-3f) (clear f3-3f):=1:fam
 (at_right_l rightl0 f3-2f f4-2f f4-3f) (at_square square0 f4-3f) (at_square square1 f4-3f) (at_square square2 f4-3f) (at_square square3 f4-3f) (at_two straight0 f3-3f f4-3f) (at_two straight0 f4-2f f4-3f) (at_two straight0 f4-3f f3-3f) (at_two straight0 f4-3f f4-2f) (at_two straight0 f4-3f f5-3f) (at_two straight0 f5-3f f4-3f) (clear f4-3f):=1:fam
 (at_right_l rightl0 f0-0f f1-0f f1-1f) (at_right_l rightl0 f1-0f f2-0f f2-1f) (at_square square0 f1-0f) (at_square square1 f1-0f) (at_square square2 f1-0f) (at_square square3 f1-0f) (at_two straight0 f0-0f f1-0f) (at_two straight0 f1-0f f0-0f) (at_two straight0 f1-0f f1-1f) (at_two straight0 f1-0f f2-0f) (at_two straight0 f1-1f f1-0f) (at_two straight0 f2-0f f1-0f) (clear f1-0f):=1:fam:G
 (at_right_l rightl0 f1-0f f2-0f f2-1f) (at_right_l rightl0 f2-0f f3-0f f3-1f) (at_square square0 f2-0f) (at_square square1 f2-0f) (at_square square2 f2-0f) (at_square square3 f2-0f) (at_two straight0 f1-0f f2-0f) (at_two straight0 f2-0f f1-0f) (at_two straight0 f2-0f f2-1f) (at_two straight0 f2-0f f3-0f) (at_two straight0 f2-1f f2-0f) (at_two straight0 f3-0f f2-0f) (clear f2-0f):=1:fam:G
 (at_right_l rightl0 f2-0f f3-0f f3-1f) (at_right_l rightl0 f3-0f f4-0f f4-1f) (at_square square0 f3-0f) (at_square square1 f3-0f) (at_square square2 f3-0f) (at_square square3 f3-0f) (at_two straight0 f2-0f f3-0f) (at_two straight0 f3-0f f2-0f) (at_two straight0 f3-0f f3-1f) (at_two straight0 f3-0f f4-0f) (at_two straight0 f3-1f f3-0f) (at_two straight0 f4-0f f3-0f) (clear f3-0f):=1:fam
 (at_right_l rightl0 f3-0f f4-0f f4-1f) (at_right_l rightl0 f4-0f f5-0f f5-1f) (at_square square0 f4-0f) (at_square square1 f4-0f) (at_square square2 f4-0f) (at_square square3 f4-0f) (at_two straight0 f3-0f f4-0f) (at_two straight0 f4-0f f3-0f) (at_two straight0 f4-0f f4-1f) (at_two straight0 f4-0f f5-0f) (at_two straight0 f4-1f f4-0f) (at_two straight0 f5-0f f4-0f) (clear f4-0f):=1:fam
 (at_right_l rightl0 f4-0f f5-0f f5-1f) (at_right_l rightl0 f4-1f f5-1f f5-2f) (at_square square0 f5-1f) (at_square square1 f5-1f) (at_square square2 f5-1f) (at_square square3 f5-1f) (at_two straight0 f4-1f f5-1f) (at_two straight0 f5-0f f5-1f) (at_two straight0 f5-1f f4-1f) (at_two straight0 f5-1f f5-0f) (at_two straight0 f5-1f f5-2f) (at_two straight0 f5-2f f5-1f) (clear f5-1f):=1:fam
 (at_right_l rightl0 f4-1f f5-1f f5-2f) (at_right_l rightl0 f4-2f f5-2f f5-3f) (at_square square0 f5-2f) (at_square square1 f5-2f) (at_square square2 f5-2f) (at_square square3 f5-2f) (at_two straight0 f4-2f f5-2f) (at_two straight0 f5-1f f5-2f) (at_two straight0 f5-2f f4-2f) (at_two straight0 f5-2f f5-1f) (at_two straight0 f5-2f f5-3f) (at_two straight0 f5-3f f5-2f) (clear f5-2f):=1:fam
 (at_right_l rightl0 f0-0f f1-0f f1-1f) (at_right_l rightl0 f0-1f f1-1f f1-2f) (at_right_l rightl0 f0-2f f1-2f f1-3f) (at_right_l rightl0 f1-0f f2-0f f2-1f) (at_right_l rightl0 f1-1f f2-1f f2-2f) (at_right_l rightl0 f1-2f f2-2f f2-3f) (at_right_l rightl0 f2-0f f3-0f f3-1f) (at_right_l rightl0 f2-1f f3-1f f3-2f) (at_right_l rightl0 f2-2f f3-2f f3-3f) (at_right_l rightl0 f3-0f f4-0f f4-1f) (at_right_l rightl0 f3-1f f4-1f f4-2f) (at_right_l rightl0 f3-2f f4-2f f4-3f) (at_right_l rightl0 f4-0f f5-0f f5-1f) (at_right_l rightl0 f4-1f f5-1f f5-2f) (at_right_l rightl0 f4-2f f5-2f f5-3f):=1:fam
 (at_right_l rightl0 f0-0f f1-0f f1-1f) (at_right_l rightl0 f0-1f f1-1f f1-2f) (at_right_l rightl0 f1-1f f2-1f f2-2f) (at_square square0 f1-1f) (at_square square1 f1-1f) (at_square square2 f1-1f) (at_square square3 f1-1f) (at_two straight0 f0-1f f1-1f) (at_two straight0 f1-0f f1-1f) (at_two straight0 f1-1f f0-1f) (at_two straight0 f1-1f f1-0f) (at_two straight0 f1-1f f1-2f) (at_two straight0 f1-1f f2-1f) (at_two straight0 f1-2f f1-1f) (at_two straight0 f2-1f f1-1f) (clear f1-1f):=1:fam:G
 (at_right_l rightl0 f0-1f f1-1f f1-2f) (at_right_l rightl0 f0-2f f1-2f f1-3f) (at_right_l rightl0 f1-2f f2-2f f2-3f) (at_square square0 f1-2f) (at_square square1 f1-2f) (at_square square2 f1-2f) (at_square square3 f1-2f) (at_two straight0 f0-2f f1-2f) (at_two straight0 f1-1f f1-2f) (at_two straight0 f1-2f f0-2f) (at_two straight0 f1-2f f1-1f) (at_two straight0 f1-2f f1-3f) (at_two straight0 f1-2f f2-2f) (at_two straight0 f1-3f f1-2f) (at_two straight0 f2-2f f1-2f) (clear f1-2f):=1:fam:G
 (at_right_l rightl0 f1-0f f2-0f f2-1f) (at_right_l rightl0 f1-1f f2-1f f2-2f) (at_right_l rightl0 f2-1f f3-1f f3-2f) (at_square square0 f2-1f) (at_square square1 f2-1f) (at_square square2 f2-1f) (at_square square3 f2-1f) (at_two straight0 f1-1f f2-1f) (at_two straight0 f2-0f f2-1f) (at_two straight0 f2-1f f1-1f) (at_two straight0 f2-1f f2-0f) (at_two straight0 f2-1f f2-2f) (at_two straight0 f2-1f f3-1f) (at_two straight0 f2-2f f2-1f) (at_two straight0 f3-1f f2-1f) (clear f2-1f):=1:fam:G
 (at_right_l rightl0 f1-1f f2-1f f2-2f) (at_right_l rightl0 f1-2f f2-2f f2-3f) (at_right_l rightl0 f2-2f f3-2f f3-3f) (at_square square0 f2-2f) (at_square square1 f2-2f) (at_square square2 f2-2f) (at_square square3 f2-2f) (at_two straight0 f1-2f f2-2f) (at_two straight0 f2-1f f2-2f) (at_two straight0 f2-2f f1-2f) (at_two straight0 f2-2f f2-1f) (at_two straight0 f2-2f f2-3f) (at_two straight0 f2-2f f3-2f) (at_two straight0 f2-3f f2-2f) (at_two straight0 f3-2f f2-2f) (clear f2-2f):=1:fam:G
 (at_right_l rightl0 f2-0f f3-0f f3-1f) (at_right_l rightl0 f2-1f f3-1f f3-2f) (at_right_l rightl0 f3-1f f4-1f f4-2f) (at_square square0 f3-1f) (at_square square1 f3-1f) (at_square square2 f3-1f) (at_square square3 f3-1f) (at_two straight0 f2-1f f3-1f) (at_two straight0 f3-0f f3-1f) (at_two straight0 f3-1f f2-1f) (at_two straight0 f3-1f f3-0f) (at_two straight0 f3-1f f3-2f) (at_two straight0 f3-1f f4-1f) (at_two straight0 f3-2f f3-1f) (at_two straight0 f4-1f f3-1f) (clear f3-1f):=1:fam
 (at_right_l rightl0 f2-1f f3-1f f3-2f) (at_right_l rightl0 f2-2f f3-2f f3-3f) (at_right_l rightl0 f3-2f f4-2f f4-3f) (at_square square0 f3-2f) (at_square square1 f3-2f) (at_square square2 f3-2f) (at_square square3 f3-2f) (at_two straight0 f2-2f f3-2f) (at_two straight0 f3-1f f3-2f) (at_two straight0 f3-2f f2-2f) (at_two straight0 f3-2f f3-1f) (at_two straight0 f3-2f f3-3f) (at_two straight0 f3-2f f4-2f) (at_two straight0 f3-3f f3-2f) (at_two straight0 f4-2f f3-2f) (clear f3-2f):=1:fam
 (at_right_l rightl0 f3-0f f4-0f f4-1f) (at_right_l rightl0 f3-1f f4-1f f4-2f) (at_right_l rightl0 f4-1f f5-1f f5-2f) (at_square square0 f4-1f) (at_square square1 f4-1f) (at_square square2 f4-1f) (at_square square3 f4-1f) (at_two straight0 f3-1f f4-1f) (at_two straight0 f4-0f f4-1f) (at_two straight0 f4-1f f3-1f) (at_two straight0 f4-1f f4-0f) (at_two straight0 f4-1f f4-2f) (at_two straight0 f4-1f f5-1f) (at_two straight0 f4-2f f4-1f) (at_two straight0 f5-1f f4-1f) (clear f4-1f):=1:fam
 (at_right_l rightl0 f3-1f f4-1f f4-2f) (at_right_l rightl0 f3-2f f4-2f f4-3f) (at_right_l rightl0 f4-2f f5-2f f5-3f) (at_square square0 f4-2f) (at_square square1 f4-2f) (at_square square2 f4-2f) (at_square square3 f4-2f) (at_two straight0 f3-2f f4-2f) (at_two straight0 f4-1f f4-2f) (at_two straight0 f4-2f f3-2f) (at_two straight0 f4-2f f4-1f) (at_two straight0 f4-2f f4-3f) (at_two straight0 f4-2f f5-2f) (at_two straight0 f4-3f f4-2f) (at_two straight0 f5-2f f4-2f) (clear f4-2f):=1:fam
 (at_square square0 f0-0f) (at_square square0 f0-1f) (at_square square0 f0-2f) (at_square square0 f0-3f) (at_square square0 f1-0f) (at_square square0 f1-1f) (at_square square0 f1-2f) (at_square square0 f1-3f) (at_square square0 f2-0f) (at_square square0 f2-1f) (at_square square0 f2-2f) (at_square square0 f2-3f) (at_square square0 f3-0f) (at_square square0 f3-1f) (at_square square0 f3-2f) (at_square square0 f3-3f) (at_square square0 f4-0f) (at_square square0 f4-1f) (at_square square0 f4-2f) (at_square square0 f4-3f) (at_square square0 f5-0f) (at_square square0 f5-1f) (at_square square0 f5-2f) (at_square square0 f5-3f):=1:fam
 (at_square square1 f0-0f) (at_square square1 f0-1f) (at_square square1 f0-2f) (at_square square1 f0-3f) (at_square square1 f1-0f) (at_square square1 f1-1f) (at_square square1 f1-2f) (at_square square1 f1-3f) (at_square square1 f2-0f) (at_square square1 f2-1f) (at_square square1 f2-2f) (at_square square1 f2-3f) (at_square square1 f3-0f) (at_square square1 f3-1f) (at_square square1 f3-2f) (at_square square1 f3-3f) (at_square square1 f4-0f) (at_square square1 f4-1f) (at_square square1 f4-2f) (at_square square1 f4-3f) (at_square square1 f5-0f) (at_square square1 f5-1f) (at_square square1 f5-2f) (at_square square1 f5-3f):=1:fam
 (at_square square2 f0-0f) (at_square square2 f0-1f) (at_square square2 f0-2f) (at_square square2 f0-3f) (at_square square2 f1-0f) (at_square square2 f1-1f) (at_square square2 f1-2f) (at_square square2 f1-3f) (at_square square2 f2-0f) (at_square square2 f2-1f) (at_square square2 f2-2f) (at_square square2 f2-3f) (at_square square2 f3-0f) (at_square square2 f3-1f) (at_square square2 f3-2f) (at_square square2 f3-3f) (at_square square2 f4-0f) (at_square square2 f4-1f) (at_square square2 f4-2f) (at_square square2 f4-3f) (at_square square2 f5-0f) (at_square square2 f5-1f) (at_square square2 f5-2f) (at_square square2 f5-3f):=1:fam
 (at_square square3 f0-0f) (at_square square3 f0-1f) (at_square square3 f0-2f) (at_square square3 f0-3f) (at_square square3 f1-0f) (at_square square3 f1-1f) (at_square square3 f1-2f) (at_square square3 f1-3f) (at_square square3 f2-0f) (at_square square3 f2-1f) (at_square square3 f2-2f) (at_square square3 f2-3f) (at_square square3 f3-0f) (at_square square3 f3-1f) (at_square square3 f3-2f) (at_square square3 f3-3f) (at_square square3 f4-0f) (at_square square3 f4-1f) (at_square square3 f4-2f) (at_square square3 f4-3f) (at_square square3 f5-0f) (at_square square3 f5-1f) (at_square square3 f5-2f) (at_square square3 f5-3f):=1:fam
 (at_two straight0 f0-0f f0-1f) (at_two straight0 f0-0f f1-0f) (at_two straight0 f0-1f f0-0f) (at_two straight0 f0-1f f0-2f) (at_two straight0 f0-1f f1-1f) (at_two straight0 f0-2f f0-1f) (at_two straight0 f0-2f f0-3f) (at_two straight0 f0-2f f1-2f) (at_two straight0 f0-3f f0-2f) (at_two straight0 f0-3f f1-3f) (at_two straight0 f1-0f f0-0f) (at_two straight0 f1-0f f1-1f) (at_two straight0 f1-0f f2-0f) (at_two straight0 f1-1f f0-1f) (at_two straight0 f1-1f f1-0f) (at_two straight0 f1-1f f1-2f) (at_two straight0 f1-1f f2-1f) (at_two straight0 f1-2f f0-2f) (at_two straight0 f1-2f f1-1f) (at_two straight0 f1-2f f1-3f) (at_two straight0 f1-2f f2-2f) (at_two straight0 f1-3f f0-3f) (at_two straight0 f1-3f f1-2f) (at_two straight0 f1-3f f2-3f) (at_two straight0 f2-0f f1-0f) (at_two straight0 f2-0f f2-1f) (at_two straight0 f2-0f f3-0f) (at_two straight0 f2-1f f1-1f) (at_two straight0 f2-1f f2-0f) (at_two straight0 f2-1f f2-2f) (at_two straight0 f2-1f f3-1f) (at_two straight0 f2-2f f1-2f) (at_two straight0 f2-2f f2-1f) (at_two straight0 f2-2f f2-3f) (at_two straight0 f2-2f f3-2f) (at_two straight0 f2-3f f1-3f) (at_two straight0 f2-3f f2-2f) (at_two straight0 f2-3f f3-3f) (at_two straight0 f3-0f f2-0f) (at_two straight0 f3-0f f3-1f) (at_two straight0 f3-0f f4-0f) (at_two straight0 f3-1f f2-1f) (at_two straight0 f3-1f f3-0f) (at_two straight0 f3-1f f3-2f) (at_two straight0 f3-1f f4-1f) (at_two straight0 f3-2f f2-2f) (at_two straight0 f3-2f f3-1f) (at_two straight0 f3-2f f3-3f) (at_two straight0 f3-2f f4-2f) (at_two straight0 f3-3f f2-3f) (at_two straight0 f3-3f f3-2f) (at_two straight0 f3-3f f4-3f) (at_two straight0 f4-0f f3-0f) (at_two straight0 f4-0f f4-1f) (at_two straight0 f4-0f f5-0f) (at_two straight0 f4-1f f3-1f) (at_two straight0 f4-1f f4-0f) (at_two straight0 f4-1f f4-2f) (at_two straight0 f4-1f f5-1f) (at_two straight0 f4-2f f3-2f) (at_two straight0 f4-2f f4-1f) (at_two straight0 f4-2f f4-3f) (at_two straight0 f4-2f f5-2f) (at_two straight0 f4-3f f3-3f) (at_two straight0 f4-3f f4-2f) (at_two straight0 f4-3f f5-3f) (at_two straight0 f5-0f f4-0f) (at_two straight0 f5-0f f5-1f) (at_two straight0 f5-1f f4-1f) (at_two straight0 f5-1f f5-0f) (at_two straight0 f5-1f f5-2f) (at_two straight0 f5-2f f4-2f) (at_two straight0 f5-2f f5-1f) (at_two straight0 f5-2f f5-3f) (at_two straight0 f5-3f f4-3f) (at_two straight0 f5-3f f5-2f):=1:fam


Mutex Group Cover Number: 24
