Irrelevant facts [29/37, static: 3]:
  (NOT-base-obstacle x0 y0)
  (NOT-base-obstacle x1 y0)
  (NOT-base-obstacle x2 y0)
  (NOT-base-obstacle x3 y0)
  (NOT-base-obstacle x4 y0)
  (NOT-gripper-obstacle x0 y0)
  (NOT-gripper-obstacle x0 y1)
  (NOT-gripper-obstacle x1 y0)
  (NOT-gripper-obstacle x2 y0)
  (NOT-gripper-obstacle x3 y0)
  (NOT-gripper-obstacle x4 y0)
  (NOT-parked pr2)
  (base-pos pr2 x0 y0)
  (base-pos pr2 x1 y0)
  (base-pos pr2 x2 y0)
  (base-pos pr2 x3 y0)
  (base-pos pr2 x4 y0)
  S:(gripper-empty pr2)
  (gripper-rel pr2 xrel-1 yrel0)
  (gripper-rel pr2 xrel-1 yrel1)
  (gripper-rel pr2 xrel0 yrel0)
  (gripper-rel pr2 xrel0 yrel1)
  (gripper-rel pr2 xrel1 yrel0)
  (not-pushed cart)
  (not-pushing pr2)
  S:(object-pos object0 x2 y2)
  S:(object-pos object2 x3 y2)
  (parked pr2)
  (pushing pr2 cart)
Irrelevant ops [32/36]:
  (base-left pr2 x1 x0 y0)
  (base-left pr2 x2 x1 y0)
  (base-left pr2 x3 x2 y0)
  (base-left pr2 x4 x3 y0)
  (base-right pr2 x0 x1 y0)
  (base-right pr2 x1 x2 y0)
  (base-right pr2 x2 x3 y0)
  (base-right pr2 x3 x4 y0)
  (grasp-cart-below pr2 cart x0 y0 y1)
  (gripper-down pr2 x0 y0 xrel0 x0 yrel0 yrel1 y0 y1)
  (gripper-down pr2 x1 y0 xrel-1 x0 yrel0 yrel1 y0 y1)
  (gripper-left pr2 x0 y0 xrel1 xrel0 x1 x0 yrel0 y0)
  (gripper-left pr2 x1 y0 xrel0 xrel-1 x1 x0 yrel0 y0)
  (gripper-left pr2 x1 y0 xrel1 xrel0 x2 x1 yrel0 y0)
  (gripper-left pr2 x2 y0 xrel0 xrel-1 x2 x1 yrel0 y0)
  (gripper-left pr2 x2 y0 xrel1 xrel0 x3 x2 yrel0 y0)
  (gripper-left pr2 x3 y0 xrel0 xrel-1 x3 x2 yrel0 y0)
  (gripper-left pr2 x3 y0 xrel1 xrel0 x4 x3 yrel0 y0)
  (gripper-left pr2 x4 y0 xrel0 xrel-1 x4 x3 yrel0 y0)
  (gripper-right pr2 x0 y0 xrel0 xrel1 x0 x1 yrel0 y0)
  (gripper-right pr2 x1 y0 xrel-1 xrel0 x0 x1 yrel0 y0)
  (gripper-right pr2 x1 y0 xrel0 xrel1 x1 x2 yrel0 y0)
  (gripper-right pr2 x2 y0 xrel-1 xrel0 x1 x2 yrel0 y0)
  (gripper-right pr2 x2 y0 xrel0 xrel1 x2 x3 yrel0 y0)
  (gripper-right pr2 x3 y0 xrel-1 xrel0 x2 x3 yrel0 y0)
  (gripper-right pr2 x3 y0 xrel0 xrel1 x3 x4 yrel0 y0)
  (gripper-right pr2 x4 y0 xrel-1 xrel0 x3 x4 yrel0 y0)
  (gripper-up pr2 x0 y0 xrel0 x0 yrel1 yrel0 y1 y0)
  (gripper-up pr2 x1 y0 xrel-1 x0 yrel1 yrel0 y1 y0)
  (park pr2)
  (ungrasp-cart pr2 cart)
  (unpark pr2 xrel0 yrel0)
