 (at player-01 pos-2-3) (clear pos-2-3)
 (at player-01 pos-2-5) (clear pos-2-5)
 (at player-01 pos-3-2) (clear pos-3-2)
 (at player-01 pos-3-6) (clear pos-3-6)
 (at player-01 pos-4-2) (clear pos-4-2)
 (at player-01 pos-4-6) (clear pos-4-6)
 (at player-01 pos-6-3) (clear pos-6-3)
 (at player-01 pos-6-4) (clear pos-6-4)
 (at player-01 pos-2-4) (at stone-01 pos-2-4) (at stone-02 pos-2-4) (at stone-03 pos-2-4) (clear pos-2-4):=1
 (at player-01 pos-3-3) (at stone-01 pos-3-3) (at stone-02 pos-3-3) (at stone-03 pos-3-3) (clear pos-3-3):=1
 (at player-01 pos-3-4) (at stone-01 pos-3-4) (at stone-02 pos-3-4) (at stone-03 pos-3-4) (clear pos-3-4):=1
 (at player-01 pos-3-5) (at stone-01 pos-3-5) (at stone-02 pos-3-5) (at stone-03 pos-3-5) (clear pos-3-5):=1
 (at player-01 pos-4-3) (at stone-01 pos-4-3) (at stone-02 pos-4-3) (at stone-03 pos-4-3) (clear pos-4-3):=1
 (at player-01 pos-4-4) (at stone-01 pos-4-4) (at stone-02 pos-4-4) (at stone-03 pos-4-4) (clear pos-4-4):=1
 (at player-01 pos-4-5) (at stone-01 pos-4-5) (at stone-02 pos-4-5) (at stone-03 pos-4-5) (clear pos-4-5):=1
 (at player-01 pos-5-3) (at stone-01 pos-5-3) (at stone-02 pos-5-3) (at stone-03 pos-5-3) (clear pos-5-3):=1
 (at player-01 pos-5-4) (at stone-01 pos-5-4) (at stone-02 pos-5-4) (at stone-03 pos-5-4) (clear pos-5-4):=1
 (at stone-01 pos-3-3) (at stone-01 pos-3-5) (at stone-01 pos-4-3) (at stone-01 pos-4-5) (at stone-01 pos-5-3) (at stone-01 pos-5-4) (at-goal stone-01):G
 (at stone-02 pos-3-3) (at stone-02 pos-3-5) (at stone-02 pos-4-3) (at stone-02 pos-4-5) (at stone-02 pos-5-3) (at stone-02 pos-5-4) (at-goal stone-02):G
 (at stone-03 pos-3-3) (at stone-03 pos-3-5) (at stone-03 pos-4-3) (at stone-03 pos-4-5) (at stone-03 pos-5-3) (at stone-03 pos-5-4) (at-goal stone-03):G
 (at stone-01 pos-2-4) (at stone-01 pos-3-3) (at stone-01 pos-3-4) (at stone-01 pos-3-5) (at stone-01 pos-4-3) (at stone-01 pos-4-4) (at stone-01 pos-4-5) (at stone-01 pos-5-3) (at stone-01 pos-5-4)
 (at stone-02 pos-2-4) (at stone-02 pos-3-3) (at stone-02 pos-3-4) (at stone-02 pos-3-5) (at stone-02 pos-4-3) (at stone-02 pos-4-4) (at stone-02 pos-4-5) (at stone-02 pos-5-3) (at stone-02 pos-5-4)
 (at stone-03 pos-2-4) (at stone-03 pos-3-3) (at stone-03 pos-3-4) (at stone-03 pos-3-5) (at stone-03 pos-4-3) (at stone-03 pos-4-4) (at stone-03 pos-4-5) (at stone-03 pos-5-3) (at stone-03 pos-5-4)
 (at player-01 pos-2-3) (at player-01 pos-2-4) (at player-01 pos-2-5) (at player-01 pos-3-2) (at player-01 pos-3-3) (at player-01 pos-3-4) (at player-01 pos-3-5) (at player-01 pos-3-6) (at player-01 pos-4-2) (at player-01 pos-4-3) (at player-01 pos-4-4) (at player-01 pos-4-5) (at player-01 pos-4-6) (at player-01 pos-5-3) (at player-01 pos-5-4) (at player-01 pos-6-3) (at player-01 pos-6-4):=1

