Compile-in LMG: actions: 2, lifted mgroups: 3
Compile-in LMG: Found mutex condition for action 'pop-unitarypipe' and mgroup {first V0:batch-atom C1:pipe, on V0:batch-atom C2:area, first V0:batch-atom C3:pipe, on V0:batch-atom C4:area}:=1: (= ?batch-atom-in ?first-batch-atom)
Compile-in LMG: Found mutex condition for action 'pop-unitarypipe' and mgroup {occupied V0:tank-slot, not-occupied V0:tank-slot}:=1: (= ?from-tank-slot ?to-tank-slot)
Compile-in LMG: Precondition of action 'pop-unitarypipe' extended with (and (not (= ?batch-atom-in ?first-batch-atom)) (not (= ?from-tank-slot ?to-tank-slot)))
Compile-in LMG: Found mutex condition for action 'push-unitarypipe' and mgroup {first V0:batch-atom C1:pipe, on V0:batch-atom C2:area, first V0:batch-atom C3:pipe, on V0:batch-atom C4:area}:=1: (= ?batch-atom-in ?first-batch-atom)
Compile-in LMG: Found mutex condition for action 'push-unitarypipe' and mgroup {occupied V0:tank-slot, not-occupied V0:tank-slot}:=1: (= ?from-tank-slot ?to-tank-slot)
Compile-in LMG: Precondition of action 'push-unitarypipe' extended with (and (not (= ?batch-atom-in ?first-batch-atom)) (not (= ?from-tank-slot ?to-tank-slot)))
Compile-in LMG: DONE. actions: 2
Domain: pipesworld_strips
Problem: p01-net1-b6-g2_rt0_instance
Require: ff
Type[6]:
    [0]: object, parent: -1
    [1]: pipe, parent: 0
    [2]: area, parent: 0
    [3]: product, parent: 0
    [4]: batch-atom, parent: 0
    [5]: tank-slot, parent: 0
Obj-by-Type:
    [0]: 0 1 2 3 4 5 6 7 8 9 10 11 12 13 14 15 16 17 18 19 20 21 22 23 24 25 26 27 28 29 30
    [1]: 14 15
    [2]: 11 12 13
    [3]: 0 1 2 3 4
    [4]: 5 6 7 8 9 10
    [5]: 16 17 18 19 20 21 22 23 24 25 26 27 28 29 30
Obj[31]:
    [0]: lco, type: 3, is-constant: 1, is-private: 0, owner: -1, is-agent: 0
    [1]: gasoleo, type: 3, is-constant: 1, is-private: 0, owner: -1, is-agent: 0
    [2]: rat-a, type: 3, is-constant: 1, is-private: 0, owner: -1, is-agent: 0
    [3]: oca1, type: 3, is-constant: 1, is-private: 0, owner: -1, is-agent: 0
    [4]: oc1b, type: 3, is-constant: 1, is-private: 0, owner: -1, is-agent: 0
    [5]: b0, type: 4, is-constant: 0, is-private: 0, owner: -1, is-agent: 0
    [6]: b3, type: 4, is-constant: 0, is-private: 0, owner: -1, is-agent: 0
    [7]: b1, type: 4, is-constant: 0, is-private: 0, owner: -1, is-agent: 0
    [8]: b4, type: 4, is-constant: 0, is-private: 0, owner: -1, is-agent: 0
    [9]: b2, type: 4, is-constant: 0, is-private: 0, owner: -1, is-agent: 0
    [10]: b5, type: 4, is-constant: 0, is-private: 0, owner: -1, is-agent: 0
    [11]: a1, type: 2, is-constant: 0, is-private: 0, owner: -1, is-agent: 0
    [12]: a2, type: 2, is-constant: 0, is-private: 0, owner: -1, is-agent: 0
    [13]: a3, type: 2, is-constant: 0, is-private: 0, owner: -1, is-agent: 0
    [14]: s12, type: 1, is-constant: 0, is-private: 0, owner: -1, is-agent: 0
    [15]: s13, type: 1, is-constant: 0, is-private: 0, owner: -1, is-agent: 0
    [16]: ta1-1-lco, type: 5, is-constant: 0, is-private: 0, owner: -1, is-agent: 0
    [17]: ta1-1-gasoleo, type: 5, is-constant: 0, is-private: 0, owner: -1, is-agent: 0
    [18]: ta1-1-rat-a, type: 5, is-constant: 0, is-private: 0, owner: -1, is-agent: 0
    [19]: ta1-1-oca1, type: 5, is-constant: 0, is-private: 0, owner: -1, is-agent: 0
    [20]: ta1-1-oc1b, type: 5, is-constant: 0, is-private: 0, owner: -1, is-agent: 0
    [21]: ta2-1-lco, type: 5, is-constant: 0, is-private: 0, owner: -1, is-agent: 0
    [22]: ta2-1-gasoleo, type: 5, is-constant: 0, is-private: 0, owner: -1, is-agent: 0
    [23]: ta2-1-rat-a, type: 5, is-constant: 0, is-private: 0, owner: -1, is-agent: 0
    [24]: ta2-1-oca1, type: 5, is-constant: 0, is-private: 0, owner: -1, is-agent: 0
    [25]: ta2-1-oc1b, type: 5, is-constant: 0, is-private: 0, owner: -1, is-agent: 0
    [26]: ta3-1-lco, type: 5, is-constant: 0, is-private: 0, owner: -1, is-agent: 0
    [27]: ta3-1-gasoleo, type: 5, is-constant: 0, is-private: 0, owner: -1, is-agent: 0
    [28]: ta3-1-rat-a, type: 5, is-constant: 0, is-private: 0, owner: -1, is-agent: 0
    [29]: ta3-1-oca1, type: 5, is-constant: 0, is-private: 0, owner: -1, is-agent: 0
    [30]: ta3-1-oc1b, type: 5, is-constant: 0, is-private: 0, owner: -1, is-agent: 0
Predicate[16]:
    =: 0 0 :: is-private: 0, owner-param: -1, read: 1, write: 0
    connect: 2 2 1 :: is-private: 0, owner-param: -1, read: 1, write: 0
    unitary: 1 :: is-private: 0, owner-param: -1, read: 1, write: 0
    not-unitary: 1 :: is-private: 0, owner-param: -1, read: 0, write: 0
    last: 4 1 :: is-private: 0, owner-param: -1, read: 0, write: 1
    first: 4 1 :: is-private: 0, owner-param: -1, read: 1, write: 1
    follow: 4 4 :: is-private: 0, owner-param: -1, read: 0, write: 0
    is-product: 4 3 :: is-private: 0, owner-param: -1, read: 1, write: 0
    on: 4 2 :: is-private: 0, owner-param: -1, read: 1, write: 1
    may-interface: 3 3 :: is-private: 0, owner-param: -1, read: 1, write: 0
    normal: 1 :: is-private: 0, owner-param: -1, read: 0, write: 0
    push-updating: 1 :: is-private: 0, owner-param: -1, read: 0, write: 0
    pop-updating: 1 :: is-private: 0, owner-param: -1, read: 0, write: 0
    tank-slot-product-location: 5 3 2 :: is-private: 0, owner-param: -1, read: 1, write: 0
    occupied: 5 :: is-private: 0, owner-param: -1, read: 1, write: 1
    not-occupied: 5 :: is-private: 0, owner-param: -1, read: 1, write: 1
Function[0]:
Action[2]:
    pop-unitarypipe: ?pipe:1 ?batch-atom-in:4 ?from-area:2 ?to-area:2 ?first-batch-atom:4 ?product-batch-atom-in:3 ?product-first-batch:3 ?from-tank-slot:5 ?to-tank-slot:5
        pre: (and (RW:first ?first-batch-atom ?pipe) (R:connect ?from-area ?to-area ?pipe) (RW:on ?batch-atom-in ?to-area) (R:unitary ?pipe) (R:is-product ?batch-atom-in ?product-batch-atom-in) (R:is-product ?first-batch-atom ?product-first-batch) (R:may-interface ?product-batch-atom-in ?product-first-batch) (R:tank-slot-product-location ?to-tank-slot ?product-batch-atom-in ?to-area) (RW:occupied ?to-tank-slot) (R:tank-slot-product-location ?from-tank-slot ?product-first-batch ?from-area) (RW:not-occupied ?from-tank-slot) (N:R:= ?batch-atom-in ?first-batch-atom) (N:R:= ?from-tank-slot ?to-tank-slot))
        eff: (and (W:last ?batch-atom-in ?pipe) (N:W:last ?first-batch-atom ?pipe) (RW:first ?batch-atom-in ?pipe) (N:RW:first ?first-batch-atom ?pipe) (N:RW:on ?batch-atom-in ?to-area) (N:RW:occupied ?to-tank-slot) (RW:not-occupied ?to-tank-slot) (RW:on ?first-batch-atom ?from-area) (RW:occupied ?from-tank-slot) (N:RW:not-occupied ?from-tank-slot))
    push-unitarypipe: ?pipe:1 ?batch-atom-in:4 ?from-area:2 ?to-area:2 ?first-batch-atom:4 ?product-batch-atom-in:3 ?product-first-batch:3 ?from-tank-slot:5 ?to-tank-slot:5
        pre: (and (RW:first ?first-batch-atom ?pipe) (R:connect ?from-area ?to-area ?pipe) (RW:on ?batch-atom-in ?from-area) (R:unitary ?pipe) (R:is-product ?batch-atom-in ?product-batch-atom-in) (R:is-product ?first-batch-atom ?product-first-batch) (R:may-interface ?product-batch-atom-in ?product-first-batch) (R:tank-slot-product-location ?from-tank-slot ?product-batch-atom-in ?from-area) (RW:occupied ?from-tank-slot) (R:tank-slot-product-location ?to-tank-slot ?product-first-batch ?to-area) (RW:not-occupied ?to-tank-slot) (N:R:= ?batch-atom-in ?first-batch-atom) (N:R:= ?from-tank-slot ?to-tank-slot))
        eff: (and (RW:first ?batch-atom-in ?pipe) (N:RW:first ?first-batch-atom ?pipe) (W:last ?batch-atom-in ?pipe) (N:W:last ?first-batch-atom ?pipe) (N:RW:on ?batch-atom-in ?from-area) (N:RW:occupied ?from-tank-slot) (RW:not-occupied ?from-tank-slot) (RW:on ?first-batch-atom ?to-area) (RW:occupied ?to-tank-slot) (N:RW:not-occupied ?to-tank-slot))
Init[71]:
  S:(normal s12)
  S:(normal s13)
  S:(may-interface lco lco)
  S:(may-interface gasoleo gasoleo)
  S:(may-interface rat-a rat-a)
  S:(may-interface oca1 oca1)
  S:(may-interface oc1b oc1b)
  S:(may-interface lco gasoleo)
  S:(may-interface gasoleo lco)
  S:(may-interface lco oca1)
  S:(may-interface oca1 lco)
  S:(may-interface lco oc1b)
  S:(may-interface oc1b lco)
  S:(may-interface lco rat-a)
  S:(may-interface rat-a lco)
  S:(may-interface gasoleo rat-a)
  S:(may-interface rat-a gasoleo)
  S:(may-interface gasoleo oca1)
  S:(may-interface oca1 gasoleo)
  S:(may-interface gasoleo oc1b)
  S:(may-interface oc1b gasoleo)
  S:(may-interface oca1 oc1b)
  S:(may-interface oc1b oca1)
  S:(connect a1 a2 s12)
  S:(connect a1 a3 s13)
  S:(tank-slot-product-location ta1-1-lco lco a1)
  S:(tank-slot-product-location ta1-1-gasoleo gasoleo a1)
  S:(tank-slot-product-location ta1-1-rat-a rat-a a1)
  S:(tank-slot-product-location ta1-1-oca1 oca1 a1)
  S:(tank-slot-product-location ta1-1-oc1b oc1b a1)
  S:(tank-slot-product-location ta2-1-lco lco a2)
  S:(tank-slot-product-location ta2-1-gasoleo gasoleo a2)
  S:(tank-slot-product-location ta2-1-rat-a rat-a a2)
  S:(tank-slot-product-location ta2-1-oca1 oca1 a2)
  S:(tank-slot-product-location ta2-1-oc1b oc1b a2)
  S:(tank-slot-product-location ta3-1-lco lco a3)
  S:(tank-slot-product-location ta3-1-gasoleo gasoleo a3)
  S:(tank-slot-product-location ta3-1-rat-a rat-a a3)
  S:(tank-slot-product-location ta3-1-oca1 oca1 a3)
  S:(tank-slot-product-location ta3-1-oc1b oc1b a3)
  S:(is-product b0 oc1b)
  S:(is-product b3 rat-a)
  S:(is-product b1 lco)
  S:(is-product b4 lco)
  S:(is-product b2 gasoleo)
  S:(is-product b5 oca1)
  (on b0 a1)
  (occupied ta1-1-oc1b)
  (on b3 a1)
  (occupied ta1-1-rat-a)
  (on b1 a3)
  (occupied ta3-1-lco)
  (on b2 a1)
  (occupied ta1-1-gasoleo)
  (not-occupied ta1-1-lco)
  (not-occupied ta1-1-oca1)
  (not-occupied ta2-1-lco)
  (not-occupied ta2-1-gasoleo)
  (not-occupied ta2-1-rat-a)
  (not-occupied ta2-1-oca1)
  (not-occupied ta2-1-oc1b)
  (not-occupied ta3-1-gasoleo)
  (not-occupied ta3-1-rat-a)
  (not-occupied ta3-1-oca1)
  (not-occupied ta3-1-oc1b)
  (first b4 s12)
  (last b4 s12)
  (first b5 s13)
  (last b5 s13)
  S:(unitary s12)
  S:(unitary s13)
Init[0]:
Goal: (and (RW:on b2 a3) (RW:on b5 a2))
Metric: 0
