Reduced 21 -> 11
Domain: mystery-strips
Problem: strips-mysty-x-1
Require: ff
Type[1]:
    [0]: object, parent: -1
Obj-by-Type:
    [0]: 0 1 2 3 4 5 6 7 8 9 10
Obj[11]:
    [0]: rice, type: 0, is-constant: 0, is-private: 0, owner: -1, is-agent: 0
    [1]: flounder, type: 0, is-constant: 0, is-private: 0, owner: -1, is-agent: 0
    [2]: okra, type: 0, is-constant: 0, is-private: 0, owner: -1, is-agent: 0
    [3]: pork, type: 0, is-constant: 0, is-private: 0, owner: -1, is-agent: 0
    [4]: lamb, type: 0, is-constant: 0, is-private: 0, owner: -1, is-agent: 0
    [5]: rest, type: 0, is-constant: 0, is-private: 0, owner: -1, is-agent: 0
    [6]: hangover, type: 0, is-constant: 0, is-private: 0, owner: -1, is-agent: 0
    [7]: depression, type: 0, is-constant: 0, is-private: 0, owner: -1, is-agent: 0
    [8]: abrasion, type: 0, is-constant: 0, is-private: 0, owner: -1, is-agent: 0
    [9]: kentucky, type: 0, is-constant: 0, is-private: 0, owner: -1, is-agent: 0
    [10]: mars, type: 0, is-constant: 0, is-private: 0, owner: -1, is-agent: 0
Predicate[13]:
    =: 0 0 :: is-private: 0, owner-param: -1, read: 0, write: 0
    province: 0 :: is-private: 0, owner-param: -1, read: 0, write: 0
    planet: 0 :: is-private: 0, owner-param: -1, read: 1, write: 0
    food: 0 :: is-private: 0, owner-param: -1, read: 1, write: 0
    pleasure: 0 :: is-private: 0, owner-param: -1, read: 1, write: 0
    pain: 0 :: is-private: 0, owner-param: -1, read: 1, write: 0
    eats: 0 0 :: is-private: 0, owner-param: -1, read: 1, write: 0
    craves: 0 0 :: is-private: 0, owner-param: -1, read: 1, write: 1
    fears: 0 0 :: is-private: 0, owner-param: -1, read: 1, write: 1
    locale: 0 0 :: is-private: 0, owner-param: -1, read: 1, write: 1
    harmony: 0 0 :: is-private: 0, owner-param: -1, read: 1, write: 1
    attacks: 0 0 :: is-private: 0, owner-param: -1, read: 1, write: 0
    orbits: 0 0 :: is-private: 0, owner-param: -1, read: 1, write: 0
Function[0]:
Action[3]:
    overcome: ?c:0 ?v:0 ?n:0 ?s1:0 ?s2:0
        pre: (and (R:pain ?c) (R:pleasure ?v) (RW:craves ?c ?n) (RW:craves ?v ?n) (R:food ?n) (RW:harmony ?v ?s2) (R:planet ?s2) (R:orbits ?s1 ?s2) (R:planet ?s1))
        eff: (and (RW:fears ?c ?v) (RW:harmony ?v ?s1))
    feast: ?v:0 ?n1:0 ?n2:0 ?l1:0 ?l2:0
        pre: (and (RW:craves ?v ?n1) (R:food ?n1) (R:pleasure ?v) (R:eats ?n1 ?n2) (R:food ?n2) (RW:locale ?n1 ?l2) (R:attacks ?l1 ?l2))
        eff: (and (RW:craves ?v ?n2) (RW:locale ?n1 ?l1))
    succumb: ?c:0 ?v:0 ?n:0 ?s1:0 ?s2:0
        pre: (and (RW:fears ?c ?v) (R:pain ?c) (R:pleasure ?v) (RW:craves ?v ?n) (R:food ?n) (RW:harmony ?v ?s1) (R:orbits ?s1 ?s2))
        eff: (and (RW:craves ?c ?n) (RW:harmony ?v ?s2))
Init[54]:
  S:(food rice)
  S:(food rice)
  S:(food flounder)
  S:(food okra)
  S:(food pork)
  S:(food lamb)
  S:(pleasure rest)
  S:(pain hangover)
  S:(pain depression)
  S:(pain abrasion)
  S:(province kentucky)
  S:(province kentucky)
  S:(province kentucky)
  S:(province kentucky)
  S:(province kentucky)
  S:(province kentucky)
  S:(province kentucky)
  S:(planet mars)
  S:(planet mars)
  S:(planet mars)
  S:(planet mars)
  S:(eats lamb pork)
  S:(eats pork okra)
  (locale okra kentucky)
  (locale pork kentucky)
  S:(eats pork lamb)
  (harmony rest mars)
  S:(eats lamb flounder)
  (craves depression flounder)
  S:(eats okra rice)
  S:(eats rice rice)
  S:(eats rice flounder)
  S:(attacks kentucky kentucky)
  S:(attacks kentucky kentucky)
  S:(attacks kentucky kentucky)
  (craves abrasion pork)
  (locale rice kentucky)
  S:(orbits mars mars)
  S:(eats flounder lamb)
  (craves rest pork)
  S:(orbits mars mars)
  (locale rice kentucky)
  (craves hangover rice)
  S:(attacks kentucky kentucky)
  S:(attacks kentucky kentucky)
  (locale lamb kentucky)
  S:(eats flounder rice)
  S:(eats rice rice)
  S:(attacks kentucky kentucky)
  S:(eats rice okra)
  S:(eats rice rice)
  S:(eats okra pork)
  S:(orbits mars mars)
  (locale flounder kentucky)
Init[0]:
Goal: (RW:craves abrasion rice)
Metric: 0
