Maximal 6:
 (at truck-1 city-loc-1) (at truck-1 city-loc-2) (at truck-1 city-loc-3):=1:fam
 (at truck-2 city-loc-1) (at truck-2 city-loc-2) (at truck-2 city-loc-3):=1:fam
 (at package-1 city-loc-1) (at package-1 city-loc-2) (at package-1 city-loc-3) (in package-1 truck-1) (in package-1 truck-2):=1:fam:G
 (at package-2 city-loc-1) (at package-2 city-loc-2) (at package-2 city-loc-3) (in package-2 truck-1) (in package-2 truck-2):=1:fam:G
 (capacity truck-1 capacity-0) (capacity truck-1 capacity-1) (capacity truck-1 capacity-2) (capacity truck-1 capacity-3) (capacity truck-1 capacity-4):=1:fam
 (capacity truck-2 capacity-0) (capacity truck-2 capacity-1) (capacity truck-2 capacity-2) (capacity truck-2 capacity-3) (capacity truck-2 capacity-4):=1:fam


Mutex Group Cover Number: 6
