(at player-01 pos-04-16), layer: 0
(at stone-01 pos-03-15), layer: 0
(clear pos-01-01), layer: 0
(clear pos-01-02), layer: 0
(clear pos-01-03), layer: 0
(clear pos-01-04), layer: 0
(clear pos-01-05), layer: 0
(clear pos-01-06), layer: 0
(clear pos-01-07), layer: 0
(clear pos-01-08), layer: 0
(clear pos-01-09), layer: 0
(clear pos-01-10), layer: 0
(clear pos-01-11), layer: 0
(clear pos-01-12), layer: 0
(clear pos-01-13), layer: 0
(clear pos-01-14), layer: 0
(clear pos-02-16), layer: 0
(clear pos-03-02), layer: 0
(clear pos-03-03), layer: 0
(clear pos-03-04), layer: 0
(clear pos-03-05), layer: 0
(clear pos-03-06), layer: 0
(clear pos-03-07), layer: 0
(clear pos-03-08), layer: 0
(clear pos-03-09), layer: 0
(clear pos-03-10), layer: 0
(clear pos-03-11), layer: 0
(clear pos-03-12), layer: 0
(clear pos-03-13), layer: 0
(clear pos-03-14), layer: 0
(clear pos-03-16), layer: 0
(clear pos-04-02), layer: 0
(clear pos-05-02), layer: 0
(clear pos-05-04), layer: 0
(clear pos-05-05), layer: 0
(clear pos-05-06), layer: 0
(clear pos-05-07), layer: 0
(clear pos-05-08), layer: 0
(clear pos-05-09), layer: 0
(clear pos-05-10), layer: 0
(clear pos-05-11), layer: 0
(clear pos-05-12), layer: 0
(clear pos-05-13), layer: 0
(clear pos-05-14), layer: 0
(clear pos-05-15), layer: 0
(clear pos-05-16), layer: 0
(clear pos-06-02), layer: 0
(clear pos-06-04), layer: 0
(clear pos-07-02), layer: 0
(clear pos-07-04), layer: 0
(clear pos-07-06), layer: 0
(clear pos-07-07), layer: 0
(clear pos-07-08), layer: 0
(clear pos-07-09), layer: 0
(clear pos-07-10), layer: 0
(clear pos-07-11), layer: 0
(clear pos-07-12), layer: 0
(clear pos-07-13), layer: 0
(clear pos-07-14), layer: 0
(clear pos-07-15), layer: 0
(clear pos-07-16), layer: 0
(clear pos-08-02), layer: 0
(clear pos-08-04), layer: 0
(clear pos-08-06), layer: 0
(clear pos-08-16), layer: 0
(clear pos-09-02), layer: 0
(clear pos-09-04), layer: 0
(clear pos-09-06), layer: 0
(clear pos-09-08), layer: 0
(clear pos-09-09), layer: 0
(clear pos-09-10), layer: 0
(clear pos-09-11), layer: 0
(clear pos-09-12), layer: 0
(clear pos-09-13), layer: 0
(clear pos-09-14), layer: 0
(clear pos-09-16), layer: 0
(clear pos-10-02), layer: 0
(clear pos-10-04), layer: 0
(clear pos-10-06), layer: 0
(clear pos-10-08), layer: 0
(clear pos-10-14), layer: 0
(clear pos-10-16), layer: 0
(clear pos-11-02), layer: 0
(clear pos-11-04), layer: 0
(clear pos-11-06), layer: 0
(clear pos-11-08), layer: 0
(clear pos-11-10), layer: 0
(clear pos-11-11), layer: 0
(clear pos-11-12), layer: 0
(clear pos-11-14), layer: 0
(clear pos-11-16), layer: 0
(clear pos-12-02), layer: 0
(clear pos-12-04), layer: 0
(clear pos-12-06), layer: 0
(clear pos-12-08), layer: 0
(clear pos-12-10), layer: 0
(clear pos-12-12), layer: 0
(clear pos-12-14), layer: 0
(clear pos-12-16), layer: 0
(clear pos-13-02), layer: 0
(clear pos-13-04), layer: 0
(clear pos-13-06), layer: 0
(clear pos-13-08), layer: 0
(clear pos-13-10), layer: 0
(clear pos-13-12), layer: 0
(clear pos-13-14), layer: 0
(clear pos-13-16), layer: 0
(clear pos-14-02), layer: 0
(clear pos-14-04), layer: 0
(clear pos-14-06), layer: 0
(clear pos-14-08), layer: 0
(clear pos-14-10), layer: 0
(clear pos-14-12), layer: 0
(clear pos-14-14), layer: 0
(clear pos-14-16), layer: 0
(clear pos-15-02), layer: 0
(clear pos-15-04), layer: 0
(clear pos-15-06), layer: 0
(clear pos-15-08), layer: 0
(clear pos-15-10), layer: 0
(clear pos-15-12), layer: 0
(clear pos-15-14), layer: 0
(clear pos-15-16), layer: 0
(clear pos-16-02), layer: 0
(clear pos-16-04), layer: 0
(clear pos-16-06), layer: 0
(clear pos-16-08), layer: 0
(clear pos-16-10), layer: 0
(clear pos-16-12), layer: 0
(clear pos-16-14), layer: 0
(clear pos-16-16), layer: 0
(clear pos-17-02), layer: 0
(clear pos-17-04), layer: 0
(clear pos-17-06), layer: 0
(clear pos-17-08), layer: 0
(clear pos-17-10), layer: 0
(clear pos-17-12), layer: 0
(clear pos-17-14), layer: 0
(clear pos-17-16), layer: 0
(clear pos-18-02), layer: 0
(clear pos-18-04), layer: 0
(clear pos-18-06), layer: 0
(clear pos-18-08), layer: 0
(clear pos-18-10), layer: 0
(clear pos-18-12), layer: 0
(clear pos-18-14), layer: 0
(clear pos-18-16), layer: 0
(clear pos-19-02), layer: 0
(clear pos-19-04), layer: 0
(clear pos-19-06), layer: 0
(clear pos-19-08), layer: 0
(clear pos-19-10), layer: 0
(clear pos-19-12), layer: 0
(clear pos-19-14), layer: 0
(clear pos-19-16), layer: 0
(clear pos-20-02), layer: 0
(clear pos-20-04), layer: 0
(clear pos-20-06), layer: 0
(clear pos-20-08), layer: 0
(clear pos-20-10), layer: 0
(clear pos-20-12), layer: 0
(clear pos-20-14), layer: 0
(clear pos-20-16), layer: 0
(clear pos-21-02), layer: 0
(clear pos-21-04), layer: 0
(clear pos-21-06), layer: 0
(clear pos-21-08), layer: 0
(clear pos-21-10), layer: 0
(clear pos-21-12), layer: 0
(clear pos-21-14), layer: 0
(clear pos-21-16), layer: 0
(clear pos-22-02), layer: 0
(clear pos-22-04), layer: 0
(clear pos-22-06), layer: 0
(clear pos-22-08), layer: 0
(clear pos-22-09), layer: 0
(clear pos-22-10), layer: 0
(clear pos-22-12), layer: 0
(clear pos-22-14), layer: 0
(clear pos-22-16), layer: 0
(clear pos-23-02), layer: 0
(clear pos-23-04), layer: 0
(clear pos-23-06), layer: 0
(clear pos-23-12), layer: 0
(clear pos-23-14), layer: 0
(clear pos-23-16), layer: 0
(clear pos-24-02), layer: 0
(clear pos-24-04), layer: 0
(clear pos-24-06), layer: 0
(clear pos-24-07), layer: 0
(clear pos-24-08), layer: 0
(clear pos-24-09), layer: 0
(clear pos-24-10), layer: 0
(clear pos-24-11), layer: 0
(clear pos-24-12), layer: 0
(clear pos-24-14), layer: 0
(clear pos-24-16), layer: 0
(clear pos-25-02), layer: 0
(clear pos-25-04), layer: 0
(clear pos-25-14), layer: 0
(clear pos-25-16), layer: 0
(clear pos-26-02), layer: 0
(clear pos-26-04), layer: 0
(clear pos-26-05), layer: 0
(clear pos-26-06), layer: 0
(clear pos-26-07), layer: 0
(clear pos-26-08), layer: 0
(clear pos-26-09), layer: 0
(clear pos-26-10), layer: 0
(clear pos-26-11), layer: 0
(clear pos-26-12), layer: 0
(clear pos-26-13), layer: 0
(clear pos-26-14), layer: 0
(clear pos-26-16), layer: 0
(clear pos-27-02), layer: 0
(clear pos-27-16), layer: 0
(clear pos-28-02), layer: 0
(clear pos-28-03), layer: 0
(clear pos-28-04), layer: 0
(clear pos-28-05), layer: 0
(clear pos-28-06), layer: 0
(clear pos-28-07), layer: 0
(clear pos-28-08), layer: 0
(clear pos-28-09), layer: 0
(clear pos-28-10), layer: 0
(clear pos-28-11), layer: 0
(clear pos-28-12), layer: 0
(clear pos-28-13), layer: 0
(clear pos-28-14), layer: 0
(clear pos-28-15), layer: 0
(clear pos-28-16), layer: 0
(at player-01 pos-03-16), layer: 1
(clear pos-04-16), layer: 1
(at player-01 pos-05-16), layer: 1
(at player-01 pos-02-16), layer: 2
(at player-01 pos-05-15), layer: 2
(at player-01 pos-03-15), layer: 2
(at stone-01 pos-03-14), layer: 2
(is-goal pos-02-16), layer: 0
(is-nongoal pos-01-01), layer: 0
(is-nongoal pos-01-02), layer: 0
(is-nongoal pos-01-03), layer: 0
(is-nongoal pos-01-04), layer: 0
(is-nongoal pos-01-05), layer: 0
(is-nongoal pos-01-06), layer: 0
(is-nongoal pos-01-07), layer: 0
(is-nongoal pos-01-08), layer: 0
(is-nongoal pos-01-09), layer: 0
(is-nongoal pos-01-10), layer: 0
(is-nongoal pos-01-11), layer: 0
(is-nongoal pos-01-12), layer: 0
(is-nongoal pos-01-13), layer: 0
(is-nongoal pos-01-14), layer: 0
(is-nongoal pos-01-15), layer: 0
(is-nongoal pos-01-16), layer: 0
(is-nongoal pos-01-17), layer: 0
(is-nongoal pos-02-01), layer: 0
(is-nongoal pos-02-02), layer: 0
(is-nongoal pos-02-03), layer: 0
(is-nongoal pos-02-04), layer: 0
(is-nongoal pos-02-05), layer: 0
(is-nongoal pos-02-06), layer: 0
(is-nongoal pos-02-07), layer: 0
(is-nongoal pos-02-08), layer: 0
(is-nongoal pos-02-09), layer: 0
(is-nongoal pos-02-10), layer: 0
(is-nongoal pos-02-11), layer: 0
(is-nongoal pos-02-12), layer: 0
(is-nongoal pos-02-13), layer: 0
(is-nongoal pos-02-14), layer: 0
(is-nongoal pos-02-15), layer: 0
(is-nongoal pos-02-17), layer: 0
(is-nongoal pos-03-01), layer: 0
(is-nongoal pos-03-02), layer: 0
(is-nongoal pos-03-03), layer: 0
(is-nongoal pos-03-04), layer: 0
(is-nongoal pos-03-05), layer: 0
(is-nongoal pos-03-06), layer: 0
(is-nongoal pos-03-07), layer: 0
(is-nongoal pos-03-08), layer: 0
(is-nongoal pos-03-09), layer: 0
(is-nongoal pos-03-10), layer: 0
(is-nongoal pos-03-11), layer: 0
(is-nongoal pos-03-12), layer: 0
(is-nongoal pos-03-13), layer: 0
(is-nongoal pos-03-14), layer: 0
(is-nongoal pos-03-15), layer: 0
(is-nongoal pos-03-16), layer: 0
(is-nongoal pos-03-17), layer: 0
(is-nongoal pos-04-01), layer: 0
(is-nongoal pos-04-02), layer: 0
(is-nongoal pos-04-03), layer: 0
(is-nongoal pos-04-04), layer: 0
(is-nongoal pos-04-05), layer: 0
(is-nongoal pos-04-06), layer: 0
(is-nongoal pos-04-07), layer: 0
(is-nongoal pos-04-08), layer: 0
(is-nongoal pos-04-09), layer: 0
(is-nongoal pos-04-10), layer: 0
(is-nongoal pos-04-11), layer: 0
(is-nongoal pos-04-12), layer: 0
(is-nongoal pos-04-13), layer: 0
(is-nongoal pos-04-14), layer: 0
(is-nongoal pos-04-15), layer: 0
(is-nongoal pos-04-16), layer: 0
(is-nongoal pos-04-17), layer: 0
(is-nongoal pos-05-01), layer: 0
(is-nongoal pos-05-02), layer: 0
(is-nongoal pos-05-03), layer: 0
(is-nongoal pos-05-04), layer: 0
(is-nongoal pos-05-05), layer: 0
(is-nongoal pos-05-06), layer: 0
(is-nongoal pos-05-07), layer: 0
(is-nongoal pos-05-08), layer: 0
(is-nongoal pos-05-09), layer: 0
(is-nongoal pos-05-10), layer: 0
(is-nongoal pos-05-11), layer: 0
(is-nongoal pos-05-12), layer: 0
(is-nongoal pos-05-13), layer: 0
(is-nongoal pos-05-14), layer: 0
(is-nongoal pos-05-15), layer: 0
(is-nongoal pos-05-16), layer: 0
(is-nongoal pos-05-17), layer: 0
(is-nongoal pos-06-01), layer: 0
(is-nongoal pos-06-02), layer: 0
(is-nongoal pos-06-03), layer: 0
(is-nongoal pos-06-04), layer: 0
(is-nongoal pos-06-05), layer: 0
(is-nongoal pos-06-06), layer: 0
(is-nongoal pos-06-07), layer: 0
(is-nongoal pos-06-08), layer: 0
(is-nongoal pos-06-09), layer: 0
(is-nongoal pos-06-10), layer: 0
(is-nongoal pos-06-11), layer: 0
(is-nongoal pos-06-12), layer: 0
(is-nongoal pos-06-13), layer: 0
(is-nongoal pos-06-14), layer: 0
(is-nongoal pos-06-15), layer: 0
(is-nongoal pos-06-16), layer: 0
(is-nongoal pos-06-17), layer: 0
(is-nongoal pos-07-01), layer: 0
(is-nongoal pos-07-02), layer: 0
(is-nongoal pos-07-03), layer: 0
(is-nongoal pos-07-04), layer: 0
(is-nongoal pos-07-05), layer: 0
(is-nongoal pos-07-06), layer: 0
(is-nongoal pos-07-07), layer: 0
(is-nongoal pos-07-08), layer: 0
(is-nongoal pos-07-09), layer: 0
(is-nongoal pos-07-10), layer: 0
(is-nongoal pos-07-11), layer: 0
(is-nongoal pos-07-12), layer: 0
(is-nongoal pos-07-13), layer: 0
(is-nongoal pos-07-14), layer: 0
(is-nongoal pos-07-15), layer: 0
(is-nongoal pos-07-16), layer: 0
(is-nongoal pos-07-17), layer: 0
(is-nongoal pos-08-01), layer: 0
(is-nongoal pos-08-02), layer: 0
(is-nongoal pos-08-03), layer: 0
(is-nongoal pos-08-04), layer: 0
(is-nongoal pos-08-05), layer: 0
(is-nongoal pos-08-06), layer: 0
(is-nongoal pos-08-07), layer: 0
(is-nongoal pos-08-08), layer: 0
(is-nongoal pos-08-09), layer: 0
(is-nongoal pos-08-10), layer: 0
(is-nongoal pos-08-11), layer: 0
(is-nongoal pos-08-12), layer: 0
(is-nongoal pos-08-13), layer: 0
(is-nongoal pos-08-14), layer: 0
(is-nongoal pos-08-15), layer: 0
(is-nongoal pos-08-16), layer: 0
(is-nongoal pos-08-17), layer: 0
(is-nongoal pos-09-01), layer: 0
(is-nongoal pos-09-02), layer: 0
(is-nongoal pos-09-03), layer: 0
(is-nongoal pos-09-04), layer: 0
(is-nongoal pos-09-05), layer: 0
(is-nongoal pos-09-06), layer: 0
(is-nongoal pos-09-07), layer: 0
(is-nongoal pos-09-08), layer: 0
(is-nongoal pos-09-09), layer: 0
(is-nongoal pos-09-10), layer: 0
(is-nongoal pos-09-11), layer: 0
(is-nongoal pos-09-12), layer: 0
(is-nongoal pos-09-13), layer: 0
(is-nongoal pos-09-14), layer: 0
(is-nongoal pos-09-15), layer: 0
(is-nongoal pos-09-16), layer: 0
(is-nongoal pos-09-17), layer: 0
(is-nongoal pos-10-01), layer: 0
(is-nongoal pos-10-02), layer: 0
(is-nongoal pos-10-03), layer: 0
(is-nongoal pos-10-04), layer: 0
(is-nongoal pos-10-05), layer: 0
(is-nongoal pos-10-06), layer: 0
(is-nongoal pos-10-07), layer: 0
(is-nongoal pos-10-08), layer: 0
(is-nongoal pos-10-09), layer: 0
(is-nongoal pos-10-10), layer: 0
(is-nongoal pos-10-11), layer: 0
(is-nongoal pos-10-12), layer: 0
(is-nongoal pos-10-13), layer: 0
(is-nongoal pos-10-14), layer: 0
(is-nongoal pos-10-15), layer: 0
(is-nongoal pos-10-16), layer: 0
(is-nongoal pos-10-17), layer: 0
(is-nongoal pos-11-01), layer: 0
(is-nongoal pos-11-02), layer: 0
(is-nongoal pos-11-03), layer: 0
(is-nongoal pos-11-04), layer: 0
(is-nongoal pos-11-05), layer: 0
(is-nongoal pos-11-06), layer: 0
(is-nongoal pos-11-07), layer: 0
(is-nongoal pos-11-08), layer: 0
(is-nongoal pos-11-09), layer: 0
(is-nongoal pos-11-10), layer: 0
(is-nongoal pos-11-11), layer: 0
(is-nongoal pos-11-12), layer: 0
(is-nongoal pos-11-13), layer: 0
(is-nongoal pos-11-14), layer: 0
(is-nongoal pos-11-15), layer: 0
(is-nongoal pos-11-16), layer: 0
(is-nongoal pos-11-17), layer: 0
(is-nongoal pos-12-01), layer: 0
(is-nongoal pos-12-02), layer: 0
(is-nongoal pos-12-03), layer: 0
(is-nongoal pos-12-04), layer: 0
(is-nongoal pos-12-05), layer: 0
(is-nongoal pos-12-06), layer: 0
(is-nongoal pos-12-07), layer: 0
(is-nongoal pos-12-08), layer: 0
(is-nongoal pos-12-09), layer: 0
(is-nongoal pos-12-10), layer: 0
(is-nongoal pos-12-11), layer: 0
(is-nongoal pos-12-12), layer: 0
(is-nongoal pos-12-13), layer: 0
(is-nongoal pos-12-14), layer: 0
(is-nongoal pos-12-15), layer: 0
(is-nongoal pos-12-16), layer: 0
(is-nongoal pos-12-17), layer: 0
(is-nongoal pos-13-01), layer: 0
(is-nongoal pos-13-02), layer: 0
(is-nongoal pos-13-03), layer: 0
(is-nongoal pos-13-04), layer: 0
(is-nongoal pos-13-05), layer: 0
(is-nongoal pos-13-06), layer: 0
(is-nongoal pos-13-07), layer: 0
(is-nongoal pos-13-08), layer: 0
(is-nongoal pos-13-09), layer: 0
(is-nongoal pos-13-10), layer: 0
(is-nongoal pos-13-11), layer: 0
(is-nongoal pos-13-12), layer: 0
(is-nongoal pos-13-13), layer: 0
(is-nongoal pos-13-14), layer: 0
(is-nongoal pos-13-15), layer: 0
(is-nongoal pos-13-16), layer: 0
(is-nongoal pos-13-17), layer: 0
(is-nongoal pos-14-01), layer: 0
(is-nongoal pos-14-02), layer: 0
(is-nongoal pos-14-03), layer: 0
(is-nongoal pos-14-04), layer: 0
(is-nongoal pos-14-05), layer: 0
(is-nongoal pos-14-06), layer: 0
(is-nongoal pos-14-07), layer: 0
(is-nongoal pos-14-08), layer: 0
(is-nongoal pos-14-09), layer: 0
(is-nongoal pos-14-10), layer: 0
(is-nongoal pos-14-11), layer: 0
(is-nongoal pos-14-12), layer: 0
(is-nongoal pos-14-13), layer: 0
(is-nongoal pos-14-14), layer: 0
(is-nongoal pos-14-15), layer: 0
(is-nongoal pos-14-16), layer: 0
(is-nongoal pos-14-17), layer: 0
(is-nongoal pos-15-01), layer: 0
(is-nongoal pos-15-02), layer: 0
(is-nongoal pos-15-03), layer: 0
(is-nongoal pos-15-04), layer: 0
(is-nongoal pos-15-05), layer: 0
(is-nongoal pos-15-06), layer: 0
(is-nongoal pos-15-07), layer: 0
(is-nongoal pos-15-08), layer: 0
(is-nongoal pos-15-09), layer: 0
(is-nongoal pos-15-10), layer: 0
(is-nongoal pos-15-11), layer: 0
(is-nongoal pos-15-12), layer: 0
(is-nongoal pos-15-13), layer: 0
(is-nongoal pos-15-14), layer: 0
(is-nongoal pos-15-15), layer: 0
(is-nongoal pos-15-16), layer: 0
(is-nongoal pos-15-17), layer: 0
(is-nongoal pos-16-01), layer: 0
(is-nongoal pos-16-02), layer: 0
(is-nongoal pos-16-03), layer: 0
(is-nongoal pos-16-04), layer: 0
(is-nongoal pos-16-05), layer: 0
(is-nongoal pos-16-06), layer: 0
(is-nongoal pos-16-07), layer: 0
(is-nongoal pos-16-08), layer: 0
(is-nongoal pos-16-09), layer: 0
(is-nongoal pos-16-10), layer: 0
(is-nongoal pos-16-11), layer: 0
(is-nongoal pos-16-12), layer: 0
(is-nongoal pos-16-13), layer: 0
(is-nongoal pos-16-14), layer: 0
(is-nongoal pos-16-15), layer: 0
(is-nongoal pos-16-16), layer: 0
(is-nongoal pos-16-17), layer: 0
(is-nongoal pos-17-01), layer: 0
(is-nongoal pos-17-02), layer: 0
(is-nongoal pos-17-03), layer: 0
(is-nongoal pos-17-04), layer: 0
(is-nongoal pos-17-05), layer: 0
(is-nongoal pos-17-06), layer: 0
(is-nongoal pos-17-07), layer: 0
(is-nongoal pos-17-08), layer: 0
(is-nongoal pos-17-09), layer: 0
(is-nongoal pos-17-10), layer: 0
(is-nongoal pos-17-11), layer: 0
(is-nongoal pos-17-12), layer: 0
(is-nongoal pos-17-13), layer: 0
(is-nongoal pos-17-14), layer: 0
(is-nongoal pos-17-15), layer: 0
(is-nongoal pos-17-16), layer: 0
(is-nongoal pos-17-17), layer: 0
(is-nongoal pos-18-01), layer: 0
(is-nongoal pos-18-02), layer: 0
(is-nongoal pos-18-03), layer: 0
(is-nongoal pos-18-04), layer: 0
(is-nongoal pos-18-05), layer: 0
(is-nongoal pos-18-06), layer: 0
(is-nongoal pos-18-07), layer: 0
(is-nongoal pos-18-08), layer: 0
(is-nongoal pos-18-09), layer: 0
(is-nongoal pos-18-10), layer: 0
(is-nongoal pos-18-11), layer: 0
(is-nongoal pos-18-12), layer: 0
(is-nongoal pos-18-13), layer: 0
(is-nongoal pos-18-14), layer: 0
(is-nongoal pos-18-15), layer: 0
(is-nongoal pos-18-16), layer: 0
(is-nongoal pos-18-17), layer: 0
(is-nongoal pos-19-01), layer: 0
(is-nongoal pos-19-02), layer: 0
(is-nongoal pos-19-03), layer: 0
(is-nongoal pos-19-04), layer: 0
(is-nongoal pos-19-05), layer: 0
(is-nongoal pos-19-06), layer: 0
(is-nongoal pos-19-07), layer: 0
(is-nongoal pos-19-08), layer: 0
(is-nongoal pos-19-09), layer: 0
(is-nongoal pos-19-10), layer: 0
(is-nongoal pos-19-11), layer: 0
(is-nongoal pos-19-12), layer: 0
(is-nongoal pos-19-13), layer: 0
(is-nongoal pos-19-14), layer: 0
(is-nongoal pos-19-15), layer: 0
(is-nongoal pos-19-16), layer: 0
(is-nongoal pos-19-17), layer: 0
(is-nongoal pos-20-01), layer: 0
(is-nongoal pos-20-02), layer: 0
(is-nongoal pos-20-03), layer: 0
(is-nongoal pos-20-04), layer: 0
(is-nongoal pos-20-05), layer: 0
(is-nongoal pos-20-06), layer: 0
(is-nongoal pos-20-07), layer: 0
(is-nongoal pos-20-08), layer: 0
(is-nongoal pos-20-09), layer: 0
(is-nongoal pos-20-10), layer: 0
(is-nongoal pos-20-11), layer: 0
(is-nongoal pos-20-12), layer: 0
(is-nongoal pos-20-13), layer: 0
(is-nongoal pos-20-14), layer: 0
(is-nongoal pos-20-15), layer: 0
(is-nongoal pos-20-16), layer: 0
(is-nongoal pos-20-17), layer: 0
(is-nongoal pos-21-01), layer: 0
(is-nongoal pos-21-02), layer: 0
(is-nongoal pos-21-03), layer: 0
(is-nongoal pos-21-04), layer: 0
(is-nongoal pos-21-05), layer: 0
(is-nongoal pos-21-06), layer: 0
(is-nongoal pos-21-07), layer: 0
(is-nongoal pos-21-08), layer: 0
(is-nongoal pos-21-09), layer: 0
(is-nongoal pos-21-10), layer: 0
(is-nongoal pos-21-11), layer: 0
(is-nongoal pos-21-12), layer: 0
(is-nongoal pos-21-13), layer: 0
(is-nongoal pos-21-14), layer: 0
(is-nongoal pos-21-15), layer: 0
(is-nongoal pos-21-16), layer: 0
(is-nongoal pos-21-17), layer: 0
(is-nongoal pos-22-01), layer: 0
(is-nongoal pos-22-02), layer: 0
(is-nongoal pos-22-03), layer: 0
(is-nongoal pos-22-04), layer: 0
(is-nongoal pos-22-05), layer: 0
(is-nongoal pos-22-06), layer: 0
(is-nongoal pos-22-07), layer: 0
(is-nongoal pos-22-08), layer: 0
(is-nongoal pos-22-09), layer: 0
(is-nongoal pos-22-10), layer: 0
(is-nongoal pos-22-11), layer: 0
(is-nongoal pos-22-12), layer: 0
(is-nongoal pos-22-13), layer: 0
(is-nongoal pos-22-14), layer: 0
(is-nongoal pos-22-15), layer: 0
(is-nongoal pos-22-16), layer: 0
(is-nongoal pos-22-17), layer: 0
(is-nongoal pos-23-01), layer: 0
(is-nongoal pos-23-02), layer: 0
(is-nongoal pos-23-03), layer: 0
(is-nongoal pos-23-04), layer: 0
(is-nongoal pos-23-05), layer: 0
(is-nongoal pos-23-06), layer: 0
(is-nongoal pos-23-07), layer: 0
(is-nongoal pos-23-08), layer: 0
(is-nongoal pos-23-09), layer: 0
(is-nongoal pos-23-10), layer: 0
(is-nongoal pos-23-11), layer: 0
(is-nongoal pos-23-12), layer: 0
(is-nongoal pos-23-13), layer: 0
(is-nongoal pos-23-14), layer: 0
(is-nongoal pos-23-15), layer: 0
(is-nongoal pos-23-16), layer: 0
(is-nongoal pos-23-17), layer: 0
(is-nongoal pos-24-01), layer: 0
(is-nongoal pos-24-02), layer: 0
(is-nongoal pos-24-03), layer: 0
(is-nongoal pos-24-04), layer: 0
(is-nongoal pos-24-05), layer: 0
(is-nongoal pos-24-06), layer: 0
(is-nongoal pos-24-07), layer: 0
(is-nongoal pos-24-08), layer: 0
(is-nongoal pos-24-09), layer: 0
(is-nongoal pos-24-10), layer: 0
(is-nongoal pos-24-11), layer: 0
(is-nongoal pos-24-12), layer: 0
(is-nongoal pos-24-13), layer: 0
(is-nongoal pos-24-14), layer: 0
(is-nongoal pos-24-15), layer: 0
(is-nongoal pos-24-16), layer: 0
(is-nongoal pos-24-17), layer: 0
(is-nongoal pos-25-01), layer: 0
(is-nongoal pos-25-02), layer: 0
(is-nongoal pos-25-03), layer: 0
(is-nongoal pos-25-04), layer: 0
(is-nongoal pos-25-05), layer: 0
(is-nongoal pos-25-06), layer: 0
(is-nongoal pos-25-07), layer: 0
(is-nongoal pos-25-08), layer: 0
(is-nongoal pos-25-09), layer: 0
(is-nongoal pos-25-10), layer: 0
(is-nongoal pos-25-11), layer: 0
(is-nongoal pos-25-12), layer: 0
(is-nongoal pos-25-13), layer: 0
(is-nongoal pos-25-14), layer: 0
(is-nongoal pos-25-15), layer: 0
(is-nongoal pos-25-16), layer: 0
(is-nongoal pos-25-17), layer: 0
(is-nongoal pos-26-01), layer: 0
(is-nongoal pos-26-02), layer: 0
(is-nongoal pos-26-03), layer: 0
(is-nongoal pos-26-04), layer: 0
(is-nongoal pos-26-05), layer: 0
(is-nongoal pos-26-06), layer: 0
(is-nongoal pos-26-07), layer: 0
(is-nongoal pos-26-08), layer: 0
(is-nongoal pos-26-09), layer: 0
(is-nongoal pos-26-10), layer: 0
(is-nongoal pos-26-11), layer: 0
(is-nongoal pos-26-12), layer: 0
(is-nongoal pos-26-13), layer: 0
(is-nongoal pos-26-14), layer: 0
(is-nongoal pos-26-15), layer: 0
(is-nongoal pos-26-16), layer: 0
(is-nongoal pos-26-17), layer: 0
(is-nongoal pos-27-01), layer: 0
(is-nongoal pos-27-02), layer: 0
(is-nongoal pos-27-03), layer: 0
(is-nongoal pos-27-04), layer: 0
(is-nongoal pos-27-05), layer: 0
(is-nongoal pos-27-06), layer: 0
(is-nongoal pos-27-07), layer: 0
(is-nongoal pos-27-08), layer: 0
(is-nongoal pos-27-09), layer: 0
(is-nongoal pos-27-10), layer: 0
(is-nongoal pos-27-11), layer: 0
(is-nongoal pos-27-12), layer: 0
(is-nongoal pos-27-13), layer: 0
(is-nongoal pos-27-14), layer: 0
(is-nongoal pos-27-15), layer: 0
(is-nongoal pos-27-16), layer: 0
(is-nongoal pos-27-17), layer: 0
(is-nongoal pos-28-01), layer: 0
(is-nongoal pos-28-02), layer: 0
(is-nongoal pos-28-03), layer: 0
(is-nongoal pos-28-04), layer: 0
(is-nongoal pos-28-05), layer: 0
(is-nongoal pos-28-06), layer: 0
(is-nongoal pos-28-07), layer: 0
(is-nongoal pos-28-08), layer: 0
(is-nongoal pos-28-09), layer: 0
(is-nongoal pos-28-10), layer: 0
(is-nongoal pos-28-11), layer: 0
(is-nongoal pos-28-12), layer: 0
(is-nongoal pos-28-13), layer: 0
(is-nongoal pos-28-14), layer: 0
(is-nongoal pos-28-15), layer: 0
(is-nongoal pos-28-16), layer: 0
(is-nongoal pos-28-17), layer: 0
(is-nongoal pos-29-01), layer: 0
(is-nongoal pos-29-02), layer: 0
(is-nongoal pos-29-03), layer: 0
(is-nongoal pos-29-04), layer: 0
(is-nongoal pos-29-05), layer: 0
(is-nongoal pos-29-06), layer: 0
(is-nongoal pos-29-07), layer: 0
(is-nongoal pos-29-08), layer: 0
(is-nongoal pos-29-09), layer: 0
(is-nongoal pos-29-10), layer: 0
(is-nongoal pos-29-11), layer: 0
(is-nongoal pos-29-12), layer: 0
(is-nongoal pos-29-13), layer: 0
(is-nongoal pos-29-14), layer: 0
(is-nongoal pos-29-15), layer: 0
(is-nongoal pos-29-16), layer: 0
(is-nongoal pos-29-17), layer: 0
(move-dir pos-01-01 pos-01-02 dir-down), layer: 0
(move-dir pos-01-02 pos-01-01 dir-up), layer: 0
(move-dir pos-01-02 pos-01-03 dir-down), layer: 0
(move-dir pos-01-03 pos-01-02 dir-up), layer: 0
(move-dir pos-01-03 pos-01-04 dir-down), layer: 0
(move-dir pos-01-04 pos-01-03 dir-up), layer: 0
(move-dir pos-01-04 pos-01-05 dir-down), layer: 0
(move-dir pos-01-05 pos-01-04 dir-up), layer: 0
(move-dir pos-01-05 pos-01-06 dir-down), layer: 0
(move-dir pos-01-06 pos-01-05 dir-up), layer: 0
(move-dir pos-01-06 pos-01-07 dir-down), layer: 0
(move-dir pos-01-07 pos-01-06 dir-up), layer: 0
(move-dir pos-01-07 pos-01-08 dir-down), layer: 0
(move-dir pos-01-08 pos-01-07 dir-up), layer: 0
(move-dir pos-01-08 pos-01-09 dir-down), layer: 0
(move-dir pos-01-09 pos-01-08 dir-up), layer: 0
(move-dir pos-01-09 pos-01-10 dir-down), layer: 0
(move-dir pos-01-10 pos-01-09 dir-up), layer: 0
(move-dir pos-01-10 pos-01-11 dir-down), layer: 0
(move-dir pos-01-11 pos-01-10 dir-up), layer: 0
(move-dir pos-01-11 pos-01-12 dir-down), layer: 0
(move-dir pos-01-12 pos-01-11 dir-up), layer: 0
(move-dir pos-01-12 pos-01-13 dir-down), layer: 0
(move-dir pos-01-13 pos-01-12 dir-up), layer: 0
(move-dir pos-01-13 pos-01-14 dir-down), layer: 0
(move-dir pos-01-14 pos-01-13 dir-up), layer: 0
(move-dir pos-02-16 pos-03-16 dir-right), layer: 0
(move-dir pos-03-02 pos-03-03 dir-down), layer: 0
(move-dir pos-03-02 pos-04-02 dir-right), layer: 0
(move-dir pos-03-03 pos-03-02 dir-up), layer: 0
(move-dir pos-03-03 pos-03-04 dir-down), layer: 0
(move-dir pos-03-04 pos-03-03 dir-up), layer: 0
(move-dir pos-03-04 pos-03-05 dir-down), layer: 0
(move-dir pos-03-05 pos-03-04 dir-up), layer: 0
(move-dir pos-03-05 pos-03-06 dir-down), layer: 0
(move-dir pos-03-06 pos-03-05 dir-up), layer: 0
(move-dir pos-03-06 pos-03-07 dir-down), layer: 0
(move-dir pos-03-07 pos-03-06 dir-up), layer: 0
(move-dir pos-03-07 pos-03-08 dir-down), layer: 0
(move-dir pos-03-08 pos-03-07 dir-up), layer: 0
(move-dir pos-03-08 pos-03-09 dir-down), layer: 0
(move-dir pos-03-09 pos-03-08 dir-up), layer: 0
(move-dir pos-03-09 pos-03-10 dir-down), layer: 0
(move-dir pos-03-10 pos-03-09 dir-up), layer: 0
(move-dir pos-03-10 pos-03-11 dir-down), layer: 0
(move-dir pos-03-11 pos-03-10 dir-up), layer: 0
(move-dir pos-03-11 pos-03-12 dir-down), layer: 0
(move-dir pos-03-12 pos-03-11 dir-up), layer: 0
(move-dir pos-03-12 pos-03-13 dir-down), layer: 0
(move-dir pos-03-13 pos-03-12 dir-up), layer: 0
(move-dir pos-03-13 pos-03-14 dir-down), layer: 0
(move-dir pos-03-14 pos-03-13 dir-up), layer: 0
(move-dir pos-03-14 pos-03-15 dir-down), layer: 0
(move-dir pos-03-15 pos-03-14 dir-up), layer: 0
(move-dir pos-03-15 pos-03-16 dir-down), layer: 0
(move-dir pos-03-16 pos-02-16 dir-left), layer: 0
(move-dir pos-03-16 pos-03-15 dir-up), layer: 0
(move-dir pos-03-16 pos-04-16 dir-right), layer: 0
(move-dir pos-04-02 pos-03-02 dir-left), layer: 0
(move-dir pos-04-02 pos-05-02 dir-right), layer: 0
(move-dir pos-04-16 pos-03-16 dir-left), layer: 0
(move-dir pos-04-16 pos-05-16 dir-right), layer: 0
(move-dir pos-05-02 pos-04-02 dir-left), layer: 0
(move-dir pos-05-02 pos-06-02 dir-right), layer: 0
(move-dir pos-05-04 pos-05-05 dir-down), layer: 0
(move-dir pos-05-04 pos-06-04 dir-right), layer: 0
(move-dir pos-05-05 pos-05-04 dir-up), layer: 0
(move-dir pos-05-05 pos-05-06 dir-down), layer: 0
(move-dir pos-05-06 pos-05-05 dir-up), layer: 0
(move-dir pos-05-06 pos-05-07 dir-down), layer: 0
(move-dir pos-05-07 pos-05-06 dir-up), layer: 0
(move-dir pos-05-07 pos-05-08 dir-down), layer: 0
(move-dir pos-05-08 pos-05-07 dir-up), layer: 0
(move-dir pos-05-08 pos-05-09 dir-down), layer: 0
(move-dir pos-05-09 pos-05-08 dir-up), layer: 0
(move-dir pos-05-09 pos-05-10 dir-down), layer: 0
(move-dir pos-05-10 pos-05-09 dir-up), layer: 0
(move-dir pos-05-10 pos-05-11 dir-down), layer: 0
(move-dir pos-05-11 pos-05-10 dir-up), layer: 0
(move-dir pos-05-11 pos-05-12 dir-down), layer: 0
(move-dir pos-05-12 pos-05-11 dir-up), layer: 0
(move-dir pos-05-12 pos-05-13 dir-down), layer: 0
(move-dir pos-05-13 pos-05-12 dir-up), layer: 0
(move-dir pos-05-13 pos-05-14 dir-down), layer: 0
(move-dir pos-05-14 pos-05-13 dir-up), layer: 0
(move-dir pos-05-14 pos-05-15 dir-down), layer: 0
(move-dir pos-05-15 pos-05-14 dir-up), layer: 0
(move-dir pos-05-15 pos-05-16 dir-down), layer: 0
(move-dir pos-05-16 pos-04-16 dir-left), layer: 0
(move-dir pos-05-16 pos-05-15 dir-up), layer: 0
(move-dir pos-06-02 pos-05-02 dir-left), layer: 0
(move-dir pos-06-02 pos-07-02 dir-right), layer: 0
(move-dir pos-06-04 pos-05-04 dir-left), layer: 0
(move-dir pos-06-04 pos-07-04 dir-right), layer: 0
(move-dir pos-07-02 pos-06-02 dir-left), layer: 0
(move-dir pos-07-02 pos-08-02 dir-right), layer: 0
(move-dir pos-07-04 pos-06-04 dir-left), layer: 0
(move-dir pos-07-04 pos-08-04 dir-right), layer: 0
(move-dir pos-07-06 pos-07-07 dir-down), layer: 0
(move-dir pos-07-06 pos-08-06 dir-right), layer: 0
(move-dir pos-07-07 pos-07-06 dir-up), layer: 0
(move-dir pos-07-07 pos-07-08 dir-down), layer: 0
(move-dir pos-07-08 pos-07-07 dir-up), layer: 0
(move-dir pos-07-08 pos-07-09 dir-down), layer: 0
(move-dir pos-07-09 pos-07-08 dir-up), layer: 0
(move-dir pos-07-09 pos-07-10 dir-down), layer: 0
(move-dir pos-07-10 pos-07-09 dir-up), layer: 0
(move-dir pos-07-10 pos-07-11 dir-down), layer: 0
(move-dir pos-07-11 pos-07-10 dir-up), layer: 0
(move-dir pos-07-11 pos-07-12 dir-down), layer: 0
(move-dir pos-07-12 pos-07-11 dir-up), layer: 0
(move-dir pos-07-12 pos-07-13 dir-down), layer: 0
(move-dir pos-07-13 pos-07-12 dir-up), layer: 0
(move-dir pos-07-13 pos-07-14 dir-down), layer: 0
(move-dir pos-07-14 pos-07-13 dir-up), layer: 0
(move-dir pos-07-14 pos-07-15 dir-down), layer: 0
(move-dir pos-07-15 pos-07-14 dir-up), layer: 0
(move-dir pos-07-15 pos-07-16 dir-down), layer: 0
(move-dir pos-07-16 pos-07-15 dir-up), layer: 0
(move-dir pos-07-16 pos-08-16 dir-right), layer: 0
(move-dir pos-08-02 pos-07-02 dir-left), layer: 0
(move-dir pos-08-02 pos-09-02 dir-right), layer: 0
(move-dir pos-08-04 pos-07-04 dir-left), layer: 0
(move-dir pos-08-04 pos-09-04 dir-right), layer: 0
(move-dir pos-08-06 pos-07-06 dir-left), layer: 0
(move-dir pos-08-06 pos-09-06 dir-right), layer: 0
(move-dir pos-08-16 pos-07-16 dir-left), layer: 0
(move-dir pos-08-16 pos-09-16 dir-right), layer: 0
(move-dir pos-09-02 pos-08-02 dir-left), layer: 0
(move-dir pos-09-02 pos-10-02 dir-right), layer: 0
(move-dir pos-09-04 pos-08-04 dir-left), layer: 0
(move-dir pos-09-04 pos-10-04 dir-right), layer: 0
(move-dir pos-09-06 pos-08-06 dir-left), layer: 0
(move-dir pos-09-06 pos-10-06 dir-right), layer: 0
(move-dir pos-09-08 pos-09-09 dir-down), layer: 0
(move-dir pos-09-08 pos-10-08 dir-right), layer: 0
(move-dir pos-09-09 pos-09-08 dir-up), layer: 0
(move-dir pos-09-09 pos-09-10 dir-down), layer: 0
(move-dir pos-09-10 pos-09-09 dir-up), layer: 0
(move-dir pos-09-10 pos-09-11 dir-down), layer: 0
(move-dir pos-09-11 pos-09-10 dir-up), layer: 0
(move-dir pos-09-11 pos-09-12 dir-down), layer: 0
(move-dir pos-09-12 pos-09-11 dir-up), layer: 0
(move-dir pos-09-12 pos-09-13 dir-down), layer: 0
(move-dir pos-09-13 pos-09-12 dir-up), layer: 0
(move-dir pos-09-13 pos-09-14 dir-down), layer: 0
(move-dir pos-09-14 pos-09-13 dir-up), layer: 0
(move-dir pos-09-14 pos-10-14 dir-right), layer: 0
(move-dir pos-09-16 pos-08-16 dir-left), layer: 0
(move-dir pos-09-16 pos-10-16 dir-right), layer: 0
(move-dir pos-10-02 pos-09-02 dir-left), layer: 0
(move-dir pos-10-02 pos-11-02 dir-right), layer: 0
(move-dir pos-10-04 pos-09-04 dir-left), layer: 0
(move-dir pos-10-04 pos-11-04 dir-right), layer: 0
(move-dir pos-10-06 pos-09-06 dir-left), layer: 0
(move-dir pos-10-06 pos-11-06 dir-right), layer: 0
(move-dir pos-10-08 pos-09-08 dir-left), layer: 0
(move-dir pos-10-08 pos-11-08 dir-right), layer: 0
(move-dir pos-10-14 pos-09-14 dir-left), layer: 0
(move-dir pos-10-14 pos-11-14 dir-right), layer: 0
(move-dir pos-10-16 pos-09-16 dir-left), layer: 0
(move-dir pos-10-16 pos-11-16 dir-right), layer: 0
(move-dir pos-11-02 pos-10-02 dir-left), layer: 0
(move-dir pos-11-02 pos-12-02 dir-right), layer: 0
(move-dir pos-11-04 pos-10-04 dir-left), layer: 0
(move-dir pos-11-04 pos-12-04 dir-right), layer: 0
(move-dir pos-11-06 pos-10-06 dir-left), layer: 0
(move-dir pos-11-06 pos-12-06 dir-right), layer: 0
(move-dir pos-11-08 pos-10-08 dir-left), layer: 0
(move-dir pos-11-08 pos-12-08 dir-right), layer: 0
(move-dir pos-11-10 pos-11-11 dir-down), layer: 0
(move-dir pos-11-10 pos-12-10 dir-right), layer: 0
(move-dir pos-11-11 pos-11-10 dir-up), layer: 0
(move-dir pos-11-11 pos-11-12 dir-down), layer: 0
(move-dir pos-11-12 pos-11-11 dir-up), layer: 0
(move-dir pos-11-12 pos-12-12 dir-right), layer: 0
(move-dir pos-11-14 pos-10-14 dir-left), layer: 0
(move-dir pos-11-14 pos-12-14 dir-right), layer: 0
(move-dir pos-11-16 pos-10-16 dir-left), layer: 0
(move-dir pos-11-16 pos-12-16 dir-right), layer: 0
(move-dir pos-12-02 pos-11-02 dir-left), layer: 0
(move-dir pos-12-02 pos-13-02 dir-right), layer: 0
(move-dir pos-12-04 pos-11-04 dir-left), layer: 0
(move-dir pos-12-04 pos-13-04 dir-right), layer: 0
(move-dir pos-12-06 pos-11-06 dir-left), layer: 0
(move-dir pos-12-06 pos-13-06 dir-right), layer: 0
(move-dir pos-12-08 pos-11-08 dir-left), layer: 0
(move-dir pos-12-08 pos-13-08 dir-right), layer: 0
(move-dir pos-12-10 pos-11-10 dir-left), layer: 0
(move-dir pos-12-10 pos-13-10 dir-right), layer: 0
(move-dir pos-12-12 pos-11-12 dir-left), layer: 0
(move-dir pos-12-12 pos-13-12 dir-right), layer: 0
(move-dir pos-12-14 pos-11-14 dir-left), layer: 0
(move-dir pos-12-14 pos-13-14 dir-right), layer: 0
(move-dir pos-12-16 pos-11-16 dir-left), layer: 0
(move-dir pos-12-16 pos-13-16 dir-right), layer: 0
(move-dir pos-13-02 pos-12-02 dir-left), layer: 0
(move-dir pos-13-02 pos-14-02 dir-right), layer: 0
(move-dir pos-13-04 pos-12-04 dir-left), layer: 0
(move-dir pos-13-04 pos-14-04 dir-right), layer: 0
(move-dir pos-13-06 pos-12-06 dir-left), layer: 0
(move-dir pos-13-06 pos-14-06 dir-right), layer: 0
(move-dir pos-13-08 pos-12-08 dir-left), layer: 0
(move-dir pos-13-08 pos-14-08 dir-right), layer: 0
(move-dir pos-13-10 pos-12-10 dir-left), layer: 0
(move-dir pos-13-10 pos-14-10 dir-right), layer: 0
(move-dir pos-13-12 pos-12-12 dir-left), layer: 0
(move-dir pos-13-12 pos-14-12 dir-right), layer: 0
(move-dir pos-13-14 pos-12-14 dir-left), layer: 0
(move-dir pos-13-14 pos-14-14 dir-right), layer: 0
(move-dir pos-13-16 pos-12-16 dir-left), layer: 0
(move-dir pos-13-16 pos-14-16 dir-right), layer: 0
(move-dir pos-14-02 pos-13-02 dir-left), layer: 0
(move-dir pos-14-02 pos-15-02 dir-right), layer: 0
(move-dir pos-14-04 pos-13-04 dir-left), layer: 0
(move-dir pos-14-04 pos-15-04 dir-right), layer: 0
(move-dir pos-14-06 pos-13-06 dir-left), layer: 0
(move-dir pos-14-06 pos-15-06 dir-right), layer: 0
(move-dir pos-14-08 pos-13-08 dir-left), layer: 0
(move-dir pos-14-08 pos-15-08 dir-right), layer: 0
(move-dir pos-14-10 pos-13-10 dir-left), layer: 0
(move-dir pos-14-10 pos-15-10 dir-right), layer: 0
(move-dir pos-14-12 pos-13-12 dir-left), layer: 0
(move-dir pos-14-12 pos-15-12 dir-right), layer: 0
(move-dir pos-14-14 pos-13-14 dir-left), layer: 0
(move-dir pos-14-14 pos-15-14 dir-right), layer: 0
(move-dir pos-14-16 pos-13-16 dir-left), layer: 0
(move-dir pos-14-16 pos-15-16 dir-right), layer: 0
(move-dir pos-15-02 pos-14-02 dir-left), layer: 0
(move-dir pos-15-02 pos-16-02 dir-right), layer: 0
(move-dir pos-15-04 pos-14-04 dir-left), layer: 0
(move-dir pos-15-04 pos-16-04 dir-right), layer: 0
(move-dir pos-15-06 pos-14-06 dir-left), layer: 0
(move-dir pos-15-06 pos-16-06 dir-right), layer: 0
(move-dir pos-15-08 pos-14-08 dir-left), layer: 0
(move-dir pos-15-08 pos-16-08 dir-right), layer: 0
(move-dir pos-15-10 pos-14-10 dir-left), layer: 0
(move-dir pos-15-10 pos-16-10 dir-right), layer: 0
(move-dir pos-15-12 pos-14-12 dir-left), layer: 0
(move-dir pos-15-12 pos-16-12 dir-right), layer: 0
(move-dir pos-15-14 pos-14-14 dir-left), layer: 0
(move-dir pos-15-14 pos-16-14 dir-right), layer: 0
(move-dir pos-15-16 pos-14-16 dir-left), layer: 0
(move-dir pos-15-16 pos-16-16 dir-right), layer: 0
(move-dir pos-16-02 pos-15-02 dir-left), layer: 0
(move-dir pos-16-02 pos-17-02 dir-right), layer: 0
(move-dir pos-16-04 pos-15-04 dir-left), layer: 0
(move-dir pos-16-04 pos-17-04 dir-right), layer: 0
(move-dir pos-16-06 pos-15-06 dir-left), layer: 0
(move-dir pos-16-06 pos-17-06 dir-right), layer: 0
(move-dir pos-16-08 pos-15-08 dir-left), layer: 0
(move-dir pos-16-08 pos-17-08 dir-right), layer: 0
(move-dir pos-16-10 pos-15-10 dir-left), layer: 0
(move-dir pos-16-10 pos-17-10 dir-right), layer: 0
(move-dir pos-16-12 pos-15-12 dir-left), layer: 0
(move-dir pos-16-12 pos-17-12 dir-right), layer: 0
(move-dir pos-16-14 pos-15-14 dir-left), layer: 0
(move-dir pos-16-14 pos-17-14 dir-right), layer: 0
(move-dir pos-16-16 pos-15-16 dir-left), layer: 0
(move-dir pos-16-16 pos-17-16 dir-right), layer: 0
(move-dir pos-17-02 pos-16-02 dir-left), layer: 0
(move-dir pos-17-02 pos-18-02 dir-right), layer: 0
(move-dir pos-17-04 pos-16-04 dir-left), layer: 0
(move-dir pos-17-04 pos-18-04 dir-right), layer: 0
(move-dir pos-17-06 pos-16-06 dir-left), layer: 0
(move-dir pos-17-06 pos-18-06 dir-right), layer: 0
(move-dir pos-17-08 pos-16-08 dir-left), layer: 0
(move-dir pos-17-08 pos-18-08 dir-right), layer: 0
(move-dir pos-17-10 pos-16-10 dir-left), layer: 0
(move-dir pos-17-10 pos-18-10 dir-right), layer: 0
(move-dir pos-17-12 pos-16-12 dir-left), layer: 0
(move-dir pos-17-12 pos-18-12 dir-right), layer: 0
(move-dir pos-17-14 pos-16-14 dir-left), layer: 0
(move-dir pos-17-14 pos-18-14 dir-right), layer: 0
(move-dir pos-17-16 pos-16-16 dir-left), layer: 0
(move-dir pos-17-16 pos-18-16 dir-right), layer: 0
(move-dir pos-18-02 pos-17-02 dir-left), layer: 0
(move-dir pos-18-02 pos-19-02 dir-right), layer: 0
(move-dir pos-18-04 pos-17-04 dir-left), layer: 0
(move-dir pos-18-04 pos-19-04 dir-right), layer: 0
(move-dir pos-18-06 pos-17-06 dir-left), layer: 0
(move-dir pos-18-06 pos-19-06 dir-right), layer: 0
(move-dir pos-18-08 pos-17-08 dir-left), layer: 0
(move-dir pos-18-08 pos-19-08 dir-right), layer: 0
(move-dir pos-18-10 pos-17-10 dir-left), layer: 0
(move-dir pos-18-10 pos-19-10 dir-right), layer: 0
(move-dir pos-18-12 pos-17-12 dir-left), layer: 0
(move-dir pos-18-12 pos-19-12 dir-right), layer: 0
(move-dir pos-18-14 pos-17-14 dir-left), layer: 0
(move-dir pos-18-14 pos-19-14 dir-right), layer: 0
(move-dir pos-18-16 pos-17-16 dir-left), layer: 0
(move-dir pos-18-16 pos-19-16 dir-right), layer: 0
(move-dir pos-19-02 pos-18-02 dir-left), layer: 0
(move-dir pos-19-02 pos-20-02 dir-right), layer: 0
(move-dir pos-19-04 pos-18-04 dir-left), layer: 0
(move-dir pos-19-04 pos-20-04 dir-right), layer: 0
(move-dir pos-19-06 pos-18-06 dir-left), layer: 0
(move-dir pos-19-06 pos-20-06 dir-right), layer: 0
(move-dir pos-19-08 pos-18-08 dir-left), layer: 0
(move-dir pos-19-08 pos-20-08 dir-right), layer: 0
(move-dir pos-19-10 pos-18-10 dir-left), layer: 0
(move-dir pos-19-10 pos-20-10 dir-right), layer: 0
(move-dir pos-19-12 pos-18-12 dir-left), layer: 0
(move-dir pos-19-12 pos-20-12 dir-right), layer: 0
(move-dir pos-19-14 pos-18-14 dir-left), layer: 0
(move-dir pos-19-14 pos-20-14 dir-right), layer: 0
(move-dir pos-19-16 pos-18-16 dir-left), layer: 0
(move-dir pos-19-16 pos-20-16 dir-right), layer: 0
(move-dir pos-20-02 pos-19-02 dir-left), layer: 0
(move-dir pos-20-02 pos-21-02 dir-right), layer: 0
(move-dir pos-20-04 pos-19-04 dir-left), layer: 0
(move-dir pos-20-04 pos-21-04 dir-right), layer: 0
(move-dir pos-20-06 pos-19-06 dir-left), layer: 0
(move-dir pos-20-06 pos-21-06 dir-right), layer: 0
(move-dir pos-20-08 pos-19-08 dir-left), layer: 0
(move-dir pos-20-08 pos-21-08 dir-right), layer: 0
(move-dir pos-20-10 pos-19-10 dir-left), layer: 0
(move-dir pos-20-10 pos-21-10 dir-right), layer: 0
(move-dir pos-20-12 pos-19-12 dir-left), layer: 0
(move-dir pos-20-12 pos-21-12 dir-right), layer: 0
(move-dir pos-20-14 pos-19-14 dir-left), layer: 0
(move-dir pos-20-14 pos-21-14 dir-right), layer: 0
(move-dir pos-20-16 pos-19-16 dir-left), layer: 0
(move-dir pos-20-16 pos-21-16 dir-right), layer: 0
(move-dir pos-21-02 pos-20-02 dir-left), layer: 0
(move-dir pos-21-02 pos-22-02 dir-right), layer: 0
(move-dir pos-21-04 pos-20-04 dir-left), layer: 0
(move-dir pos-21-04 pos-22-04 dir-right), layer: 0
(move-dir pos-21-06 pos-20-06 dir-left), layer: 0
(move-dir pos-21-06 pos-22-06 dir-right), layer: 0
(move-dir pos-21-08 pos-20-08 dir-left), layer: 0
(move-dir pos-21-08 pos-22-08 dir-right), layer: 0
(move-dir pos-21-10 pos-20-10 dir-left), layer: 0
(move-dir pos-21-10 pos-22-10 dir-right), layer: 0
(move-dir pos-21-12 pos-20-12 dir-left), layer: 0
(move-dir pos-21-12 pos-22-12 dir-right), layer: 0
(move-dir pos-21-14 pos-20-14 dir-left), layer: 0
(move-dir pos-21-14 pos-22-14 dir-right), layer: 0
(move-dir pos-21-16 pos-20-16 dir-left), layer: 0
(move-dir pos-21-16 pos-22-16 dir-right), layer: 0
(move-dir pos-22-02 pos-21-02 dir-left), layer: 0
(move-dir pos-22-02 pos-23-02 dir-right), layer: 0
(move-dir pos-22-04 pos-21-04 dir-left), layer: 0
(move-dir pos-22-04 pos-23-04 dir-right), layer: 0
(move-dir pos-22-06 pos-21-06 dir-left), layer: 0
(move-dir pos-22-06 pos-23-06 dir-right), layer: 0
(move-dir pos-22-08 pos-21-08 dir-left), layer: 0
(move-dir pos-22-08 pos-22-09 dir-down), layer: 0
(move-dir pos-22-09 pos-22-08 dir-up), layer: 0
(move-dir pos-22-09 pos-22-10 dir-down), layer: 0
(move-dir pos-22-10 pos-21-10 dir-left), layer: 0
(move-dir pos-22-10 pos-22-09 dir-up), layer: 0
(move-dir pos-22-12 pos-21-12 dir-left), layer: 0
(move-dir pos-22-12 pos-23-12 dir-right), layer: 0
(move-dir pos-22-14 pos-21-14 dir-left), layer: 0
(move-dir pos-22-14 pos-23-14 dir-right), layer: 0
(move-dir pos-22-16 pos-21-16 dir-left), layer: 0
(move-dir pos-22-16 pos-23-16 dir-right), layer: 0
(move-dir pos-23-02 pos-22-02 dir-left), layer: 0
(move-dir pos-23-02 pos-24-02 dir-right), layer: 0
(move-dir pos-23-04 pos-22-04 dir-left), layer: 0
(move-dir pos-23-04 pos-24-04 dir-right), layer: 0
(move-dir pos-23-06 pos-22-06 dir-left), layer: 0
(move-dir pos-23-06 pos-24-06 dir-right), layer: 0
(move-dir pos-23-12 pos-22-12 dir-left), layer: 0
(move-dir pos-23-12 pos-24-12 dir-right), layer: 0
(move-dir pos-23-14 pos-22-14 dir-left), layer: 0
(move-dir pos-23-14 pos-24-14 dir-right), layer: 0
(move-dir pos-23-16 pos-22-16 dir-left), layer: 0
(move-dir pos-23-16 pos-24-16 dir-right), layer: 0
(move-dir pos-24-02 pos-23-02 dir-left), layer: 0
(move-dir pos-24-02 pos-25-02 dir-right), layer: 0
(move-dir pos-24-04 pos-23-04 dir-left), layer: 0
(move-dir pos-24-04 pos-25-04 dir-right), layer: 0
(move-dir pos-24-06 pos-23-06 dir-left), layer: 0
(move-dir pos-24-06 pos-24-07 dir-down), layer: 0
(move-dir pos-24-07 pos-24-06 dir-up), layer: 0
(move-dir pos-24-07 pos-24-08 dir-down), layer: 0
(move-dir pos-24-08 pos-24-07 dir-up), layer: 0
(move-dir pos-24-08 pos-24-09 dir-down), layer: 0
(move-dir pos-24-09 pos-24-08 dir-up), layer: 0
(move-dir pos-24-09 pos-24-10 dir-down), layer: 0
(move-dir pos-24-10 pos-24-09 dir-up), layer: 0
(move-dir pos-24-10 pos-24-11 dir-down), layer: 0
(move-dir pos-24-11 pos-24-10 dir-up), layer: 0
(move-dir pos-24-11 pos-24-12 dir-down), layer: 0
(move-dir pos-24-12 pos-23-12 dir-left), layer: 0
(move-dir pos-24-12 pos-24-11 dir-up), layer: 0
(move-dir pos-24-14 pos-23-14 dir-left), layer: 0
(move-dir pos-24-14 pos-25-14 dir-right), layer: 0
(move-dir pos-24-16 pos-23-16 dir-left), layer: 0
(move-dir pos-24-16 pos-25-16 dir-right), layer: 0
(move-dir pos-25-02 pos-24-02 dir-left), layer: 0
(move-dir pos-25-02 pos-26-02 dir-right), layer: 0
(move-dir pos-25-04 pos-24-04 dir-left), layer: 0
(move-dir pos-25-04 pos-26-04 dir-right), layer: 0
(move-dir pos-25-14 pos-24-14 dir-left), layer: 0
(move-dir pos-25-14 pos-26-14 dir-right), layer: 0
(move-dir pos-25-16 pos-24-16 dir-left), layer: 0
(move-dir pos-25-16 pos-26-16 dir-right), layer: 0
(move-dir pos-26-02 pos-25-02 dir-left), layer: 0
(move-dir pos-26-02 pos-27-02 dir-right), layer: 0
(move-dir pos-26-04 pos-25-04 dir-left), layer: 0
(move-dir pos-26-04 pos-26-05 dir-down), layer: 0
(move-dir pos-26-05 pos-26-04 dir-up), layer: 0
(move-dir pos-26-05 pos-26-06 dir-down), layer: 0
(move-dir pos-26-06 pos-26-05 dir-up), layer: 0
(move-dir pos-26-06 pos-26-07 dir-down), layer: 0
(move-dir pos-26-07 pos-26-06 dir-up), layer: 0
(move-dir pos-26-07 pos-26-08 dir-down), layer: 0
(move-dir pos-26-08 pos-26-07 dir-up), layer: 0
(move-dir pos-26-08 pos-26-09 dir-down), layer: 0
(move-dir pos-26-09 pos-26-08 dir-up), layer: 0
(move-dir pos-26-09 pos-26-10 dir-down), layer: 0
(move-dir pos-26-10 pos-26-09 dir-up), layer: 0
(move-dir pos-26-10 pos-26-11 dir-down), layer: 0
(move-dir pos-26-11 pos-26-10 dir-up), layer: 0
(move-dir pos-26-11 pos-26-12 dir-down), layer: 0
(move-dir pos-26-12 pos-26-11 dir-up), layer: 0
(move-dir pos-26-12 pos-26-13 dir-down), layer: 0
(move-dir pos-26-13 pos-26-12 dir-up), layer: 0
(move-dir pos-26-13 pos-26-14 dir-down), layer: 0
(move-dir pos-26-14 pos-25-14 dir-left), layer: 0
(move-dir pos-26-14 pos-26-13 dir-up), layer: 0
(move-dir pos-26-16 pos-25-16 dir-left), layer: 0
(move-dir pos-26-16 pos-27-16 dir-right), layer: 0
(move-dir pos-27-02 pos-26-02 dir-left), layer: 0
(move-dir pos-27-02 pos-28-02 dir-right), layer: 0
(move-dir pos-27-16 pos-26-16 dir-left), layer: 0
(move-dir pos-27-16 pos-28-16 dir-right), layer: 0
(move-dir pos-28-02 pos-27-02 dir-left), layer: 0
(move-dir pos-28-02 pos-28-03 dir-down), layer: 0
(move-dir pos-28-03 pos-28-02 dir-up), layer: 0
(move-dir pos-28-03 pos-28-04 dir-down), layer: 0
(move-dir pos-28-04 pos-28-03 dir-up), layer: 0
(move-dir pos-28-04 pos-28-05 dir-down), layer: 0
(move-dir pos-28-05 pos-28-04 dir-up), layer: 0
(move-dir pos-28-05 pos-28-06 dir-down), layer: 0
(move-dir pos-28-06 pos-28-05 dir-up), layer: 0
(move-dir pos-28-06 pos-28-07 dir-down), layer: 0
(move-dir pos-28-07 pos-28-06 dir-up), layer: 0
(move-dir pos-28-07 pos-28-08 dir-down), layer: 0
(move-dir pos-28-08 pos-28-07 dir-up), layer: 0
(move-dir pos-28-08 pos-28-09 dir-down), layer: 0
(move-dir pos-28-09 pos-28-08 dir-up), layer: 0
(move-dir pos-28-09 pos-28-10 dir-down), layer: 0
(move-dir pos-28-10 pos-28-09 dir-up), layer: 0
(move-dir pos-28-10 pos-28-11 dir-down), layer: 0
(move-dir pos-28-11 pos-28-10 dir-up), layer: 0
(move-dir pos-28-11 pos-28-12 dir-down), layer: 0
(move-dir pos-28-12 pos-28-11 dir-up), layer: 0
(move-dir pos-28-12 pos-28-13 dir-down), layer: 0
(move-dir pos-28-13 pos-28-12 dir-up), layer: 0
(move-dir pos-28-13 pos-28-14 dir-down), layer: 0
(move-dir pos-28-14 pos-28-13 dir-up), layer: 0
(move-dir pos-28-14 pos-28-15 dir-down), layer: 0
(move-dir pos-28-15 pos-28-14 dir-up), layer: 0
(move-dir pos-28-15 pos-28-16 dir-down), layer: 0
(move-dir pos-28-16 pos-27-16 dir-left), layer: 0
(move-dir pos-28-16 pos-28-15 dir-up), layer: 0
