Fact[17]:
  (bond c016 o066)
  (bond c016 o178)
  (bond c032 o066)
  (bond c032 o178)
  (bond cl073 s072)
  (bond h061 o066)
  (bond h061 o178)
  (bond h180 o066)
  (bond h180 o178)
  (bond o066 c016)
  (bond o066 c032)
  (bond o066 h061)
  (bond o066 h180)
  (bond o066 s072)
  (bond o178 h061)
  (bond o178 h180)
  (bond o178 s072)
Op[24]:
  (etherformationbysulfonatedisplacement h061 o066 c016 o178 o068 s072 h106 c021 o069 h106 h107 c016), cost: 1
    pre: (bond c016 o066) (bond c016 o178) (bond h061 o066) (bond o178 s072)
    add: (bond h061 o178) (bond o066 c016) (bond o178 h061)
    del: (bond c016 o178) (bond h061 o066) (bond o066 h061)
  (etherformationbysulfonatedisplacement h061 o066 c016 o178 o068 s072 h106 c021 o069 h106 h107 c032), cost: 1
    pre: (bond c016 o178) (bond c032 o066) (bond h061 o066) (bond o178 s072)
    add: (bond c016 o066) (bond h061 o178) (bond o066 c016) (bond o178 h061)
    del: (bond c016 o178) (bond h061 o066) (bond o066 h061)
  (etherformationbysulfonatedisplacement h061 o066 c032 o178 o068 s072 h133 c021 o069 c033 h133 c016), cost: 1
    pre: (bond c016 o066) (bond c032 o178) (bond h061 o066) (bond o178 s072)
    add: (bond c032 o066) (bond h061 o178) (bond o066 c032) (bond o178 h061)
    del: (bond c032 o178) (bond h061 o066) (bond o066 h061)
  (etherformationbysulfonatedisplacement h061 o066 c032 o178 o068 s072 h133 c021 o069 c033 h133 c032), cost: 1
    pre: (bond c032 o066) (bond c032 o178) (bond h061 o066) (bond o178 s072)
    add: (bond h061 o178) (bond o066 c032) (bond o178 h061)
    del: (bond c032 o178) (bond h061 o066) (bond o066 h061)
  (etherformationbysulfonatedisplacement h061 o178 c016 o066 o068 s072 h106 c021 o069 h106 h107 c016), cost: 1
    pre: (bond c016 o066) (bond c016 o178) (bond h061 o178) (bond o066 s072)
    add: (bond h061 o066) (bond o066 h061)
    del: (bond c016 o066) (bond h061 o178) (bond o066 c016) (bond o178 h061)
  (etherformationbysulfonatedisplacement h061 o178 c016 o066 o068 s072 h106 c021 o069 h106 h107 c032), cost: 1
    pre: (bond c016 o066) (bond c032 o178) (bond h061 o178) (bond o066 s072)
    add: (bond c016 o178) (bond h061 o066) (bond o066 h061)
    del: (bond c016 o066) (bond h061 o178) (bond o066 c016) (bond o178 h061)
  (etherformationbysulfonatedisplacement h061 o178 c032 o066 o068 s072 h133 c021 o069 c033 h133 c016), cost: 1
    pre: (bond c016 o178) (bond c032 o066) (bond h061 o178) (bond o066 s072)
    add: (bond c032 o178) (bond h061 o066) (bond o066 h061)
    del: (bond c032 o066) (bond h061 o178) (bond o066 c032) (bond o178 h061)
  (etherformationbysulfonatedisplacement h061 o178 c032 o066 o068 s072 h133 c021 o069 c033 h133 c032), cost: 1
    pre: (bond c032 o066) (bond c032 o178) (bond h061 o178) (bond o066 s072)
    add: (bond h061 o066) (bond o066 h061)
    del: (bond c032 o066) (bond h061 o178) (bond o066 c032) (bond o178 h061)
  (etherformationbysulfonatedisplacement h180 o066 c016 o178 o068 s072 h106 c021 o069 h106 h107 c016), cost: 1
    pre: (bond c016 o066) (bond c016 o178) (bond h180 o066) (bond o178 s072)
    add: (bond h180 o178) (bond o066 c016) (bond o178 h180)
    del: (bond c016 o178) (bond h180 o066) (bond o066 h180)
  (etherformationbysulfonatedisplacement h180 o066 c016 o178 o068 s072 h106 c021 o069 h106 h107 c032), cost: 1
    pre: (bond c016 o178) (bond c032 o066) (bond h180 o066) (bond o178 s072)
    add: (bond c016 o066) (bond h180 o178) (bond o066 c016) (bond o178 h180)
    del: (bond c016 o178) (bond h180 o066) (bond o066 h180)
  (etherformationbysulfonatedisplacement h180 o066 c032 o178 o068 s072 h133 c021 o069 c033 h133 c016), cost: 1
    pre: (bond c016 o066) (bond c032 o178) (bond h180 o066) (bond o178 s072)
    add: (bond c032 o066) (bond h180 o178) (bond o066 c032) (bond o178 h180)
    del: (bond c032 o178) (bond h180 o066) (bond o066 h180)
  (etherformationbysulfonatedisplacement h180 o066 c032 o178 o068 s072 h133 c021 o069 c033 h133 c032), cost: 1
    pre: (bond c032 o066) (bond c032 o178) (bond h180 o066) (bond o178 s072)
    add: (bond h180 o178) (bond o066 c032) (bond o178 h180)
    del: (bond c032 o178) (bond h180 o066) (bond o066 h180)
  (etherformationbysulfonatedisplacement h180 o178 c016 o066 o068 s072 h106 c021 o069 h106 h107 c016), cost: 1
    pre: (bond c016 o066) (bond c016 o178) (bond h180 o178) (bond o066 s072)
    add: (bond h180 o066) (bond o066 h180)
    del: (bond c016 o066) (bond h180 o178) (bond o066 c016) (bond o178 h180)
  (etherformationbysulfonatedisplacement h180 o178 c016 o066 o068 s072 h106 c021 o069 h106 h107 c032), cost: 1
    pre: (bond c016 o066) (bond c032 o178) (bond h180 o178) (bond o066 s072)
    add: (bond c016 o178) (bond h180 o066) (bond o066 h180)
    del: (bond c016 o066) (bond h180 o178) (bond o066 c016) (bond o178 h180)
  (etherformationbysulfonatedisplacement h180 o178 c032 o066 o068 s072 h133 c021 o069 c033 h133 c016), cost: 1
    pre: (bond c016 o178) (bond c032 o066) (bond h180 o178) (bond o066 s072)
    add: (bond c032 o178) (bond h180 o066) (bond o066 h180)
    del: (bond c032 o066) (bond h180 o178) (bond o066 c032) (bond o178 h180)
  (etherformationbysulfonatedisplacement h180 o178 c032 o066 o068 s072 h133 c021 o069 c033 h133 c032), cost: 1
    pre: (bond c032 o066) (bond c032 o178) (bond h180 o178) (bond o066 s072)
    add: (bond h180 o066) (bond o066 h180)
    del: (bond c032 o066) (bond h180 o178) (bond o066 c032) (bond o178 h180)
  (sulfonylationofalcohol h061 o066 s072 cl073 c016 o068 c021 o069), cost: 1
    pre: (bond c016 o066) (bond cl073 s072) (bond o066 h061)
    add: (bond o066 s072)
    del: (bond cl073 s072) (bond h061 o066) (bond o066 h061)
  (sulfonylationofalcohol h061 o066 s072 cl073 c032 o068 c021 o069), cost: 1
    pre: (bond c032 o066) (bond cl073 s072) (bond o066 h061)
    add: (bond o066 s072)
    del: (bond cl073 s072) (bond h061 o066) (bond o066 h061)
  (sulfonylationofalcohol h061 o178 s072 cl073 c016 o068 c021 o069), cost: 1
    pre: (bond c016 o178) (bond cl073 s072) (bond o178 h061)
    add: (bond o178 s072)
    del: (bond cl073 s072) (bond h061 o178) (bond o178 h061)
  (sulfonylationofalcohol h061 o178 s072 cl073 c032 o068 c021 o069), cost: 1
    pre: (bond c032 o178) (bond cl073 s072) (bond o178 h061)
    add: (bond o178 s072)
    del: (bond cl073 s072) (bond h061 o178) (bond o178 h061)
  (sulfonylationofalcohol h180 o066 s072 cl073 c016 o068 c021 o069), cost: 1
    pre: (bond c016 o066) (bond cl073 s072) (bond o066 h180)
    add: (bond o066 s072)
    del: (bond cl073 s072) (bond h180 o066) (bond o066 h180)
  (sulfonylationofalcohol h180 o066 s072 cl073 c032 o068 c021 o069), cost: 1
    pre: (bond c032 o066) (bond cl073 s072) (bond o066 h180)
    add: (bond o066 s072)
    del: (bond cl073 s072) (bond h180 o066) (bond o066 h180)
  (sulfonylationofalcohol h180 o178 s072 cl073 c016 o068 c021 o069), cost: 1
    pre: (bond c016 o178) (bond cl073 s072) (bond o178 h180)
    add: (bond o178 s072)
    del: (bond cl073 s072) (bond h180 o178) (bond o178 h180)
  (sulfonylationofalcohol h180 o178 s072 cl073 c032 o068 c021 o069), cost: 1
    pre: (bond c032 o178) (bond cl073 s072) (bond o178 h180)
    add: (bond o178 s072)
    del: (bond cl073 s072) (bond h180 o178) (bond o178 h180)
Init State: (bond c016 o066) (bond c032 o178) (bond cl073 s072) (bond h061 o066) (bond h180 o178) (bond o066 c016) (bond o066 h061) (bond o178 h180)
Goal: (bond c016 o066) (bond c032 o066) (bond o066 c016) (bond o066 c032)
