Init: (at package1 l2) (at package2 l2) (at package3 l2) (at truck1 l3) (free a1 truck1) (free a2 truck1)
Unreachable facts [24/30]:
  (at package1 l1)
  (at package1 l3)
  (at package2 l1)
  (at package2 l3)
  (at package3 l1)
  (at package3 l3)
  (at truck1 l1)
  (at truck1 l2)
  (at-destination package2 l1)
  (delivered package1 l3 t3)
  (delivered package3 l1 t6)
  (in package1 truck1 a1)
  (in package1 truck1 a2)
  (in package2 truck1 a1)
  (in package2 truck1 a2)
  (in package3 truck1 a1)
  (in package3 truck1 a2)
  (time-now t0)
  (time-now t1)
  (time-now t2)
  (time-now t3)
  (time-now t4)
  (time-now t5)
  (time-now t6)
Unreachable ops [237/237]:
  (deliver package1 l1 t1 t1)
  (deliver package1 l1 t1 t2)
  (deliver package1 l1 t1 t3)
  (deliver package1 l1 t1 t4)
  (deliver package1 l1 t1 t5)
  (deliver package1 l1 t1 t6)
  (deliver package1 l1 t2 t2)
  (deliver package1 l1 t2 t3)
  (deliver package1 l1 t2 t4)
  (deliver package1 l1 t2 t5)
  (deliver package1 l1 t2 t6)
  (deliver package1 l1 t3 t3)
  (deliver package1 l1 t3 t4)
  (deliver package1 l1 t3 t5)
  (deliver package1 l1 t3 t6)
  (deliver package1 l1 t4 t4)
  (deliver package1 l1 t4 t5)
  (deliver package1 l1 t4 t6)
  (deliver package1 l1 t5 t5)
  (deliver package1 l1 t5 t6)
  (deliver package1 l1 t6 t6)
  (deliver package1 l2 t1 t1)
  (deliver package1 l2 t1 t2)
  (deliver package1 l2 t1 t3)
  (deliver package1 l2 t1 t4)
  (deliver package1 l2 t1 t5)
  (deliver package1 l2 t1 t6)
  (deliver package1 l2 t2 t2)
  (deliver package1 l2 t2 t3)
  (deliver package1 l2 t2 t4)
  (deliver package1 l2 t2 t5)
  (deliver package1 l2 t2 t6)
  (deliver package1 l2 t3 t3)
  (deliver package1 l2 t3 t4)
  (deliver package1 l2 t3 t5)
  (deliver package1 l2 t3 t6)
  (deliver package1 l2 t4 t4)
  (deliver package1 l2 t4 t5)
  (deliver package1 l2 t4 t6)
  (deliver package1 l2 t5 t5)
  (deliver package1 l2 t5 t6)
  (deliver package1 l2 t6 t6)
  (deliver package1 l3 t2 t2)
  (deliver package1 l3 t2 t3)
  (deliver package1 l3 t2 t4)
  (deliver package1 l3 t2 t5)
  (deliver package1 l3 t2 t6)
  (deliver package1 l3 t3 t3)
  (deliver package1 l3 t3 t4)
  (deliver package1 l3 t3 t5)
  (deliver package1 l3 t3 t6)
  (deliver package1 l3 t4 t4)
  (deliver package1 l3 t4 t5)
  (deliver package1 l3 t4 t6)
  (deliver package1 l3 t5 t5)
  (deliver package1 l3 t5 t6)
  (deliver package1 l3 t6 t6)
  (deliver package2 l1 t1 t1)
  (deliver package2 l1 t1 t2)
  (deliver package2 l1 t1 t3)
  (deliver package2 l1 t1 t4)
  (deliver package2 l1 t1 t5)
  (deliver package2 l1 t1 t6)
  (deliver package2 l1 t2 t2)
  (deliver package2 l1 t2 t3)
  (deliver package2 l1 t2 t4)
  (deliver package2 l1 t2 t5)
  (deliver package2 l1 t2 t6)
  (deliver package2 l1 t3 t3)
  (deliver package2 l1 t3 t4)
  (deliver package2 l1 t3 t5)
  (deliver package2 l1 t3 t6)
  (deliver package2 l1 t4 t4)
  (deliver package2 l1 t4 t5)
  (deliver package2 l1 t4 t6)
  (deliver package2 l1 t5 t5)
  (deliver package2 l1 t5 t6)
  (deliver package2 l1 t6 t6)
  (deliver package2 l2 t1 t1)
  (deliver package2 l2 t1 t2)
  (deliver package2 l2 t1 t3)
  (deliver package2 l2 t1 t4)
  (deliver package2 l2 t1 t5)
  (deliver package2 l2 t1 t6)
  (deliver package2 l2 t2 t2)
  (deliver package2 l2 t2 t3)
  (deliver package2 l2 t2 t4)
  (deliver package2 l2 t2 t5)
  (deliver package2 l2 t2 t6)
  (deliver package2 l2 t3 t3)
  (deliver package2 l2 t3 t4)
  (deliver package2 l2 t3 t5)
  (deliver package2 l2 t3 t6)
  (deliver package2 l2 t4 t4)
  (deliver package2 l2 t4 t5)
  (deliver package2 l2 t4 t6)
  (deliver package2 l2 t5 t5)
  (deliver package2 l2 t5 t6)
  (deliver package2 l2 t6 t6)
  (deliver package2 l3 t2 t2)
  (deliver package2 l3 t2 t3)
  (deliver package2 l3 t2 t4)
  (deliver package2 l3 t2 t5)
  (deliver package2 l3 t2 t6)
  (deliver package2 l3 t3 t3)
  (deliver package2 l3 t3 t4)
  (deliver package2 l3 t3 t5)
  (deliver package2 l3 t3 t6)
  (deliver package2 l3 t4 t4)
  (deliver package2 l3 t4 t5)
  (deliver package2 l3 t4 t6)
  (deliver package2 l3 t5 t5)
  (deliver package2 l3 t5 t6)
  (deliver package2 l3 t6 t6)
  (deliver package3 l1 t1 t1)
  (deliver package3 l1 t1 t2)
  (deliver package3 l1 t1 t3)
  (deliver package3 l1 t1 t4)
  (deliver package3 l1 t1 t5)
  (deliver package3 l1 t1 t6)
  (deliver package3 l1 t2 t2)
  (deliver package3 l1 t2 t3)
  (deliver package3 l1 t2 t4)
  (deliver package3 l1 t2 t5)
  (deliver package3 l1 t2 t6)
  (deliver package3 l1 t3 t3)
  (deliver package3 l1 t3 t4)
  (deliver package3 l1 t3 t5)
  (deliver package3 l1 t3 t6)
  (deliver package3 l1 t4 t4)
  (deliver package3 l1 t4 t5)
  (deliver package3 l1 t4 t6)
  (deliver package3 l1 t5 t5)
  (deliver package3 l1 t5 t6)
  (deliver package3 l1 t6 t6)
  (deliver package3 l2 t1 t1)
  (deliver package3 l2 t1 t2)
  (deliver package3 l2 t1 t3)
  (deliver package3 l2 t1 t4)
  (deliver package3 l2 t1 t5)
  (deliver package3 l2 t1 t6)
  (deliver package3 l2 t2 t2)
  (deliver package3 l2 t2 t3)
  (deliver package3 l2 t2 t4)
  (deliver package3 l2 t2 t5)
  (deliver package3 l2 t2 t6)
  (deliver package3 l2 t3 t3)
  (deliver package3 l2 t3 t4)
  (deliver package3 l2 t3 t5)
  (deliver package3 l2 t3 t6)
  (deliver package3 l2 t4 t4)
  (deliver package3 l2 t4 t5)
  (deliver package3 l2 t4 t6)
  (deliver package3 l2 t5 t5)
  (deliver package3 l2 t5 t6)
  (deliver package3 l2 t6 t6)
  (deliver package3 l3 t2 t2)
  (deliver package3 l3 t2 t3)
  (deliver package3 l3 t2 t4)
  (deliver package3 l3 t2 t5)
  (deliver package3 l3 t2 t6)
  (deliver package3 l3 t3 t3)
  (deliver package3 l3 t3 t4)
  (deliver package3 l3 t3 t5)
  (deliver package3 l3 t3 t6)
  (deliver package3 l3 t4 t4)
  (deliver package3 l3 t4 t5)
  (deliver package3 l3 t4 t6)
  (deliver package3 l3 t5 t5)
  (deliver package3 l3 t5 t6)
  (deliver package3 l3 t6 t6)
  (drive truck1 l1 l2 t1 t2)
  (drive truck1 l1 l2 t2 t3)
  (drive truck1 l1 l2 t3 t4)
  (drive truck1 l1 l2 t4 t5)
  (drive truck1 l1 l2 t5 t6)
  (drive truck1 l1 l3 t1 t2)
  (drive truck1 l1 l3 t2 t3)
  (drive truck1 l1 l3 t3 t4)
  (drive truck1 l1 l3 t4 t5)
  (drive truck1 l1 l3 t5 t6)
  (drive truck1 l2 l1 t1 t2)
  (drive truck1 l2 l1 t2 t3)
  (drive truck1 l2 l1 t3 t4)
  (drive truck1 l2 l1 t4 t5)
  (drive truck1 l2 l1 t5 t6)
  (drive truck1 l2 l3 t1 t2)
  (drive truck1 l2 l3 t2 t3)
  (drive truck1 l2 l3 t3 t4)
  (drive truck1 l2 l3 t4 t5)
  (drive truck1 l2 l3 t5 t6)
  (drive truck1 l3 l1 t0 t1)
  (drive truck1 l3 l1 t2 t3)
  (drive truck1 l3 l1 t3 t4)
  (drive truck1 l3 l1 t4 t5)
  (drive truck1 l3 l1 t5 t6)
  (drive truck1 l3 l2 t0 t1)
  (drive truck1 l3 l2 t2 t3)
  (drive truck1 l3 l2 t3 t4)
  (drive truck1 l3 l2 t4 t5)
  (drive truck1 l3 l2 t5 t6)
  (load package1 truck1 a1 l1)
  (load package1 truck1 a1 l2)
  (load package1 truck1 a1 l3)
  (load package1 truck1 a2 l1)
  (load package1 truck1 a2 l2)
  (load package1 truck1 a2 l3)
  (load package2 truck1 a1 l1)
  (load package2 truck1 a1 l2)
  (load package2 truck1 a1 l3)
  (load package2 truck1 a2 l1)
  (load package2 truck1 a2 l2)
  (load package2 truck1 a2 l3)
  (load package3 truck1 a1 l1)
  (load package3 truck1 a1 l2)
  (load package3 truck1 a1 l3)
  (load package3 truck1 a2 l1)
  (load package3 truck1 a2 l2)
  (load package3 truck1 a2 l3)
  (unload package1 truck1 a1 l1)
  (unload package1 truck1 a1 l2)
  (unload package1 truck1 a1 l3)
  (unload package1 truck1 a2 l1)
  (unload package1 truck1 a2 l2)
  (unload package1 truck1 a2 l3)
  (unload package2 truck1 a1 l1)
  (unload package2 truck1 a1 l2)
  (unload package2 truck1 a1 l3)
  (unload package2 truck1 a2 l1)
  (unload package2 truck1 a2 l2)
  (unload package2 truck1 a2 l3)
  (unload package3 truck1 a1 l1)
  (unload package3 truck1 a1 l2)
  (unload package3 truck1 a1 l3)
  (unload package3 truck1 a2 l1)
  (unload package3 truck1 a2 l2)
  (unload package3 truck1 a2 l3)
