begin_version
3
end_version
begin_metric
1
end_metric
46
begin_variable
var0
-1
100
at-robot loc-x0-y0
at-robot loc-x0-y1
at-robot loc-x0-y2
at-robot loc-x0-y3
at-robot loc-x0-y4
at-robot loc-x0-y5
at-robot loc-x0-y6
at-robot loc-x0-y7
at-robot loc-x0-y8
at-robot loc-x0-y9
at-robot loc-x1-y0
at-robot loc-x1-y1
at-robot loc-x1-y2
at-robot loc-x1-y3
at-robot loc-x1-y4
at-robot loc-x1-y5
at-robot loc-x1-y6
at-robot loc-x1-y7
at-robot loc-x1-y8
at-robot loc-x1-y9
at-robot loc-x2-y0
at-robot loc-x2-y1
at-robot loc-x2-y2
at-robot loc-x2-y3
at-robot loc-x2-y4
at-robot loc-x2-y5
at-robot loc-x2-y6
at-robot loc-x2-y7
at-robot loc-x2-y8
at-robot loc-x2-y9
at-robot loc-x3-y0
at-robot loc-x3-y1
at-robot loc-x3-y2
at-robot loc-x3-y3
at-robot loc-x3-y4
at-robot loc-x3-y5
at-robot loc-x3-y6
at-robot loc-x3-y7
at-robot loc-x3-y8
at-robot loc-x3-y9
at-robot loc-x4-y0
at-robot loc-x4-y1
at-robot loc-x4-y2
at-robot loc-x4-y3
at-robot loc-x4-y4
at-robot loc-x4-y5
at-robot loc-x4-y6
at-robot loc-x4-y7
at-robot loc-x4-y8
at-robot loc-x4-y9
at-robot loc-x5-y0
at-robot loc-x5-y1
at-robot loc-x5-y2
at-robot loc-x5-y3
at-robot loc-x5-y4
at-robot loc-x5-y5
at-robot loc-x5-y6
at-robot loc-x5-y7
at-robot loc-x5-y8
at-robot loc-x5-y9
at-robot loc-x6-y0
at-robot loc-x6-y1
at-robot loc-x6-y2
at-robot loc-x6-y3
at-robot loc-x6-y4
at-robot loc-x6-y5
at-robot loc-x6-y6
at-robot loc-x6-y7
at-robot loc-x6-y8
at-robot loc-x6-y9
at-robot loc-x7-y0
at-robot loc-x7-y1
at-robot loc-x7-y2
at-robot loc-x7-y3
at-robot loc-x7-y4
at-robot loc-x7-y5
at-robot loc-x7-y6
at-robot loc-x7-y7
at-robot loc-x7-y8
at-robot loc-x7-y9
at-robot loc-x8-y0
at-robot loc-x8-y1
at-robot loc-x8-y2
at-robot loc-x8-y3
at-robot loc-x8-y4
at-robot loc-x8-y5
at-robot loc-x8-y6
at-robot loc-x8-y7
at-robot loc-x8-y8
at-robot loc-x8-y9
at-robot loc-x9-y0
at-robot loc-x9-y1
at-robot loc-x9-y2
at-robot loc-x9-y3
at-robot loc-x9-y4
at-robot loc-x9-y5
at-robot loc-x9-y6
at-robot loc-x9-y7
at-robot loc-x9-y8
at-robot loc-x9-y9
end_variable
begin_variable
var1
-1
2
visited loc-x0-y2
none-of-those
end_variable
begin_variable
var2
-1
2
visited loc-x0-y4
none-of-those
end_variable
begin_variable
var3
-1
2
visited loc-x0-y6
none-of-those
end_variable
begin_variable
var4
-1
2
visited loc-x0-y7
none-of-those
end_variable
begin_variable
var5
-1
2
visited loc-x0-y9
none-of-those
end_variable
begin_variable
var6
-1
2
visited loc-x1-y0
none-of-those
end_variable
begin_variable
var7
-1
2
visited loc-x1-y1
none-of-those
end_variable
begin_variable
var8
-1
2
visited loc-x1-y2
none-of-those
end_variable
begin_variable
var9
-1
2
visited loc-x1-y8
none-of-those
end_variable
begin_variable
var10
-1
2
visited loc-x2-y0
none-of-those
end_variable
begin_variable
var11
-1
2
visited loc-x2-y1
none-of-those
end_variable
begin_variable
var12
-1
2
visited loc-x2-y2
none-of-those
end_variable
begin_variable
var13
-1
2
visited loc-x2-y3
none-of-those
end_variable
begin_variable
var14
-1
2
visited loc-x2-y4
none-of-those
end_variable
begin_variable
var15
-1
2
visited loc-x2-y8
none-of-those
end_variable
begin_variable
var16
-1
2
visited loc-x2-y9
none-of-those
end_variable
begin_variable
var17
-1
2
visited loc-x3-y0
none-of-those
end_variable
begin_variable
var18
-1
2
visited loc-x3-y1
none-of-those
end_variable
begin_variable
var19
-1
2
visited loc-x3-y2
none-of-those
end_variable
begin_variable
var20
-1
2
visited loc-x3-y3
none-of-those
end_variable
begin_variable
var21
-1
2
visited loc-x3-y5
none-of-those
end_variable
begin_variable
var22
-1
2
visited loc-x3-y7
none-of-those
end_variable
begin_variable
var23
-1
2
visited loc-x4-y0
none-of-those
end_variable
begin_variable
var24
-1
2
visited loc-x4-y1
none-of-those
end_variable
begin_variable
var25
-1
2
visited loc-x4-y2
none-of-those
end_variable
begin_variable
var26
-1
2
visited loc-x4-y5
none-of-those
end_variable
begin_variable
var27
-1
2
visited loc-x4-y8
none-of-those
end_variable
begin_variable
var28
-1
2
visited loc-x4-y9
none-of-those
end_variable
begin_variable
var29
-1
2
visited loc-x5-y6
none-of-those
end_variable
begin_variable
var30
-1
2
visited loc-x5-y8
none-of-those
end_variable
begin_variable
var31
-1
2
visited loc-x5-y9
none-of-those
end_variable
begin_variable
var32
-1
2
visited loc-x6-y5
none-of-those
end_variable
begin_variable
var33
-1
2
visited loc-x6-y6
none-of-those
end_variable
begin_variable
var34
-1
2
visited loc-x6-y7
none-of-those
end_variable
begin_variable
var35
-1
2
visited loc-x6-y8
none-of-those
end_variable
begin_variable
var36
-1
2
visited loc-x6-y9
none-of-those
end_variable
begin_variable
var37
-1
2
visited loc-x7-y2
none-of-those
end_variable
begin_variable
var38
-1
2
visited loc-x7-y4
none-of-those
end_variable
begin_variable
var39
-1
2
visited loc-x7-y9
none-of-those
end_variable
begin_variable
var40
-1
2
visited loc-x8-y2
none-of-those
end_variable
begin_variable
var41
-1
2
visited loc-x8-y9
none-of-those
end_variable
begin_variable
var42
-1
2
visited loc-x9-y3
none-of-those
end_variable
begin_variable
var43
-1
2
visited loc-x9-y5
none-of-those
end_variable
begin_variable
var44
-1
2
visited loc-x9-y6
none-of-those
end_variable
begin_variable
var45
-1
2
visited loc-x9-y7
none-of-those
end_variable
1
begin_mutex_group
100
0 0
0 1
0 2
0 3
0 4
0 5
0 6
0 7
0 8
0 9
0 10
0 11
0 12
0 13
0 14
0 15
0 16
0 17
0 18
0 19
0 20
0 21
0 22
0 23
0 24
0 25
0 26
0 27
0 28
0 29
0 30
0 31
0 32
0 33
0 34
0 35
0 36
0 37
0 38
0 39
0 40
0 41
0 42
0 43
0 44
0 45
0 46
0 47
0 48
0 49
0 50
0 51
0 52
0 53
0 54
0 55
0 56
0 57
0 58
0 59
0 60
0 61
0 62
0 63
0 64
0 65
0 66
0 67
0 68
0 69
0 70
0 71
0 72
0 73
0 74
0 75
0 76
0 77
0 78
0 79
0 80
0 81
0 82
0 83
0 84
0 85
0 86
0 87
0 88
0 89
0 90
0 91
0 92
0 93
0 94
0 95
0 96
0 97
0 98
0 99
end_mutex_group
begin_state
55
1
1
1
1
1
1
1
1
1
1
1
1
1
1
1
1
1
1
1
1
1
1
1
1
1
1
1
1
1
1
1
1
1
1
1
1
1
1
1
1
1
1
1
1
1
end_state
begin_goal
45
1 0
2 0
3 0
4 0
5 0
6 0
7 0
8 0
9 0
10 0
11 0
12 0
13 0
14 0
15 0
16 0
17 0
18 0
19 0
20 0
21 0
22 0
23 0
24 0
25 0
26 0
27 0
28 0
29 0
30 0
31 0
32 0
33 0
34 0
35 0
36 0
37 0
38 0
39 0
40 0
41 0
42 0
43 0
44 0
45 0
end_goal
360
begin_operator
move loc-x0-y0 loc-x0-y1
0
1
0 0 0 1
1
end_operator
begin_operator
move loc-x0-y0 loc-x1-y0
0
2
0 0 0 10
0 6 -1 0
1
end_operator
begin_operator
move loc-x0-y1 loc-x0-y0
0
1
0 0 1 0
1
end_operator
begin_operator
move loc-x0-y1 loc-x0-y2
0
2
0 0 1 2
0 1 -1 0
1
end_operator
begin_operator
move loc-x0-y1 loc-x1-y1
0
2
0 0 1 11
0 7 -1 0
1
end_operator
begin_operator
move loc-x0-y2 loc-x0-y1
0
1
0 0 2 1
1
end_operator
begin_operator
move loc-x0-y2 loc-x0-y3
0
1
0 0 2 3
1
end_operator
begin_operator
move loc-x0-y2 loc-x1-y2
0
2
0 0 2 12
0 8 -1 0
1
end_operator
begin_operator
move loc-x0-y3 loc-x0-y2
0
2
0 0 3 2
0 1 -1 0
1
end_operator
begin_operator
move loc-x0-y3 loc-x0-y4
0
2
0 0 3 4
0 2 -1 0
1
end_operator
begin_operator
move loc-x0-y3 loc-x1-y3
0
1
0 0 3 13
1
end_operator
begin_operator
move loc-x0-y4 loc-x0-y3
0
1
0 0 4 3
1
end_operator
begin_operator
move loc-x0-y4 loc-x0-y5
0
1
0 0 4 5
1
end_operator
begin_operator
move loc-x0-y4 loc-x1-y4
0
1
0 0 4 14
1
end_operator
begin_operator
move loc-x0-y5 loc-x0-y4
0
2
0 0 5 4
0 2 -1 0
1
end_operator
begin_operator
move loc-x0-y5 loc-x0-y6
0
2
0 0 5 6
0 3 -1 0
1
end_operator
begin_operator
move loc-x0-y5 loc-x1-y5
0
1
0 0 5 15
1
end_operator
begin_operator
move loc-x0-y6 loc-x0-y5
0
1
0 0 6 5
1
end_operator
begin_operator
move loc-x0-y6 loc-x0-y7
0
2
0 0 6 7
0 4 -1 0
1
end_operator
begin_operator
move loc-x0-y6 loc-x1-y6
0
1
0 0 6 16
1
end_operator
begin_operator
move loc-x0-y7 loc-x0-y6
0
2
0 0 7 6
0 3 -1 0
1
end_operator
begin_operator
move loc-x0-y7 loc-x0-y8
0
1
0 0 7 8
1
end_operator
begin_operator
move loc-x0-y7 loc-x1-y7
0
1
0 0 7 17
1
end_operator
begin_operator
move loc-x0-y8 loc-x0-y7
0
2
0 0 8 7
0 4 -1 0
1
end_operator
begin_operator
move loc-x0-y8 loc-x0-y9
0
2
0 0 8 9
0 5 -1 0
1
end_operator
begin_operator
move loc-x0-y8 loc-x1-y8
0
2
0 0 8 18
0 9 -1 0
1
end_operator
begin_operator
move loc-x0-y9 loc-x0-y8
0
1
0 0 9 8
1
end_operator
begin_operator
move loc-x0-y9 loc-x1-y9
0
1
0 0 9 19
1
end_operator
begin_operator
move loc-x1-y0 loc-x0-y0
0
1
0 0 10 0
1
end_operator
begin_operator
move loc-x1-y0 loc-x1-y1
0
2
0 0 10 11
0 7 -1 0
1
end_operator
begin_operator
move loc-x1-y0 loc-x2-y0
0
2
0 0 10 20
0 10 -1 0
1
end_operator
begin_operator
move loc-x1-y1 loc-x0-y1
0
1
0 0 11 1
1
end_operator
begin_operator
move loc-x1-y1 loc-x1-y0
0
2
0 0 11 10
0 6 -1 0
1
end_operator
begin_operator
move loc-x1-y1 loc-x1-y2
0
2
0 0 11 12
0 8 -1 0
1
end_operator
begin_operator
move loc-x1-y1 loc-x2-y1
0
2
0 0 11 21
0 11 -1 0
1
end_operator
begin_operator
move loc-x1-y2 loc-x0-y2
0
2
0 0 12 2
0 1 -1 0
1
end_operator
begin_operator
move loc-x1-y2 loc-x1-y1
0
2
0 0 12 11
0 7 -1 0
1
end_operator
begin_operator
move loc-x1-y2 loc-x1-y3
0
1
0 0 12 13
1
end_operator
begin_operator
move loc-x1-y2 loc-x2-y2
0
2
0 0 12 22
0 12 -1 0
1
end_operator
begin_operator
move loc-x1-y3 loc-x0-y3
0
1
0 0 13 3
1
end_operator
begin_operator
move loc-x1-y3 loc-x1-y2
0
2
0 0 13 12
0 8 -1 0
1
end_operator
begin_operator
move loc-x1-y3 loc-x1-y4
0
1
0 0 13 14
1
end_operator
begin_operator
move loc-x1-y3 loc-x2-y3
0
2
0 0 13 23
0 13 -1 0
1
end_operator
begin_operator
move loc-x1-y4 loc-x0-y4
0
2
0 0 14 4
0 2 -1 0
1
end_operator
begin_operator
move loc-x1-y4 loc-x1-y3
0
1
0 0 14 13
1
end_operator
begin_operator
move loc-x1-y4 loc-x1-y5
0
1
0 0 14 15
1
end_operator
begin_operator
move loc-x1-y4 loc-x2-y4
0
2
0 0 14 24
0 14 -1 0
1
end_operator
begin_operator
move loc-x1-y5 loc-x0-y5
0
1
0 0 15 5
1
end_operator
begin_operator
move loc-x1-y5 loc-x1-y4
0
1
0 0 15 14
1
end_operator
begin_operator
move loc-x1-y5 loc-x1-y6
0
1
0 0 15 16
1
end_operator
begin_operator
move loc-x1-y5 loc-x2-y5
0
1
0 0 15 25
1
end_operator
begin_operator
move loc-x1-y6 loc-x0-y6
0
2
0 0 16 6
0 3 -1 0
1
end_operator
begin_operator
move loc-x1-y6 loc-x1-y5
0
1
0 0 16 15
1
end_operator
begin_operator
move loc-x1-y6 loc-x1-y7
0
1
0 0 16 17
1
end_operator
begin_operator
move loc-x1-y6 loc-x2-y6
0
1
0 0 16 26
1
end_operator
begin_operator
move loc-x1-y7 loc-x0-y7
0
2
0 0 17 7
0 4 -1 0
1
end_operator
begin_operator
move loc-x1-y7 loc-x1-y6
0
1
0 0 17 16
1
end_operator
begin_operator
move loc-x1-y7 loc-x1-y8
0
2
0 0 17 18
0 9 -1 0
1
end_operator
begin_operator
move loc-x1-y7 loc-x2-y7
0
1
0 0 17 27
1
end_operator
begin_operator
move loc-x1-y8 loc-x0-y8
0
1
0 0 18 8
1
end_operator
begin_operator
move loc-x1-y8 loc-x1-y7
0
1
0 0 18 17
1
end_operator
begin_operator
move loc-x1-y8 loc-x1-y9
0
1
0 0 18 19
1
end_operator
begin_operator
move loc-x1-y8 loc-x2-y8
0
2
0 0 18 28
0 15 -1 0
1
end_operator
begin_operator
move loc-x1-y9 loc-x0-y9
0
2
0 0 19 9
0 5 -1 0
1
end_operator
begin_operator
move loc-x1-y9 loc-x1-y8
0
2
0 0 19 18
0 9 -1 0
1
end_operator
begin_operator
move loc-x1-y9 loc-x2-y9
0
2
0 0 19 29
0 16 -1 0
1
end_operator
begin_operator
move loc-x2-y0 loc-x1-y0
0
2
0 0 20 10
0 6 -1 0
1
end_operator
begin_operator
move loc-x2-y0 loc-x2-y1
0
2
0 0 20 21
0 11 -1 0
1
end_operator
begin_operator
move loc-x2-y0 loc-x3-y0
0
2
0 0 20 30
0 17 -1 0
1
end_operator
begin_operator
move loc-x2-y1 loc-x1-y1
0
2
0 0 21 11
0 7 -1 0
1
end_operator
begin_operator
move loc-x2-y1 loc-x2-y0
0
2
0 0 21 20
0 10 -1 0
1
end_operator
begin_operator
move loc-x2-y1 loc-x2-y2
0
2
0 0 21 22
0 12 -1 0
1
end_operator
begin_operator
move loc-x2-y1 loc-x3-y1
0
2
0 0 21 31
0 18 -1 0
1
end_operator
begin_operator
move loc-x2-y2 loc-x1-y2
0
2
0 0 22 12
0 8 -1 0
1
end_operator
begin_operator
move loc-x2-y2 loc-x2-y1
0
2
0 0 22 21
0 11 -1 0
1
end_operator
begin_operator
move loc-x2-y2 loc-x2-y3
0
2
0 0 22 23
0 13 -1 0
1
end_operator
begin_operator
move loc-x2-y2 loc-x3-y2
0
2
0 0 22 32
0 19 -1 0
1
end_operator
begin_operator
move loc-x2-y3 loc-x1-y3
0
1
0 0 23 13
1
end_operator
begin_operator
move loc-x2-y3 loc-x2-y2
0
2
0 0 23 22
0 12 -1 0
1
end_operator
begin_operator
move loc-x2-y3 loc-x2-y4
0
2
0 0 23 24
0 14 -1 0
1
end_operator
begin_operator
move loc-x2-y3 loc-x3-y3
0
2
0 0 23 33
0 20 -1 0
1
end_operator
begin_operator
move loc-x2-y4 loc-x1-y4
0
1
0 0 24 14
1
end_operator
begin_operator
move loc-x2-y4 loc-x2-y3
0
2
0 0 24 23
0 13 -1 0
1
end_operator
begin_operator
move loc-x2-y4 loc-x2-y5
0
1
0 0 24 25
1
end_operator
begin_operator
move loc-x2-y4 loc-x3-y4
0
1
0 0 24 34
1
end_operator
begin_operator
move loc-x2-y5 loc-x1-y5
0
1
0 0 25 15
1
end_operator
begin_operator
move loc-x2-y5 loc-x2-y4
0
2
0 0 25 24
0 14 -1 0
1
end_operator
begin_operator
move loc-x2-y5 loc-x2-y6
0
1
0 0 25 26
1
end_operator
begin_operator
move loc-x2-y5 loc-x3-y5
0
2
0 0 25 35
0 21 -1 0
1
end_operator
begin_operator
move loc-x2-y6 loc-x1-y6
0
1
0 0 26 16
1
end_operator
begin_operator
move loc-x2-y6 loc-x2-y5
0
1
0 0 26 25
1
end_operator
begin_operator
move loc-x2-y6 loc-x2-y7
0
1
0 0 26 27
1
end_operator
begin_operator
move loc-x2-y6 loc-x3-y6
0
1
0 0 26 36
1
end_operator
begin_operator
move loc-x2-y7 loc-x1-y7
0
1
0 0 27 17
1
end_operator
begin_operator
move loc-x2-y7 loc-x2-y6
0
1
0 0 27 26
1
end_operator
begin_operator
move loc-x2-y7 loc-x2-y8
0
2
0 0 27 28
0 15 -1 0
1
end_operator
begin_operator
move loc-x2-y7 loc-x3-y7
0
2
0 0 27 37
0 22 -1 0
1
end_operator
begin_operator
move loc-x2-y8 loc-x1-y8
0
2
0 0 28 18
0 9 -1 0
1
end_operator
begin_operator
move loc-x2-y8 loc-x2-y7
0
1
0 0 28 27
1
end_operator
begin_operator
move loc-x2-y8 loc-x2-y9
0
2
0 0 28 29
0 16 -1 0
1
end_operator
begin_operator
move loc-x2-y8 loc-x3-y8
0
1
0 0 28 38
1
end_operator
begin_operator
move loc-x2-y9 loc-x1-y9
0
1
0 0 29 19
1
end_operator
begin_operator
move loc-x2-y9 loc-x2-y8
0
2
0 0 29 28
0 15 -1 0
1
end_operator
begin_operator
move loc-x2-y9 loc-x3-y9
0
1
0 0 29 39
1
end_operator
begin_operator
move loc-x3-y0 loc-x2-y0
0
2
0 0 30 20
0 10 -1 0
1
end_operator
begin_operator
move loc-x3-y0 loc-x3-y1
0
2
0 0 30 31
0 18 -1 0
1
end_operator
begin_operator
move loc-x3-y0 loc-x4-y0
0
2
0 0 30 40
0 23 -1 0
1
end_operator
begin_operator
move loc-x3-y1 loc-x2-y1
0
2
0 0 31 21
0 11 -1 0
1
end_operator
begin_operator
move loc-x3-y1 loc-x3-y0
0
2
0 0 31 30
0 17 -1 0
1
end_operator
begin_operator
move loc-x3-y1 loc-x3-y2
0
2
0 0 31 32
0 19 -1 0
1
end_operator
begin_operator
move loc-x3-y1 loc-x4-y1
0
2
0 0 31 41
0 24 -1 0
1
end_operator
begin_operator
move loc-x3-y2 loc-x2-y2
0
2
0 0 32 22
0 12 -1 0
1
end_operator
begin_operator
move loc-x3-y2 loc-x3-y1
0
2
0 0 32 31
0 18 -1 0
1
end_operator
begin_operator
move loc-x3-y2 loc-x3-y3
0
2
0 0 32 33
0 20 -1 0
1
end_operator
begin_operator
move loc-x3-y2 loc-x4-y2
0
2
0 0 32 42
0 25 -1 0
1
end_operator
begin_operator
move loc-x3-y3 loc-x2-y3
0
2
0 0 33 23
0 13 -1 0
1
end_operator
begin_operator
move loc-x3-y3 loc-x3-y2
0
2
0 0 33 32
0 19 -1 0
1
end_operator
begin_operator
move loc-x3-y3 loc-x3-y4
0
1
0 0 33 34
1
end_operator
begin_operator
move loc-x3-y3 loc-x4-y3
0
1
0 0 33 43
1
end_operator
begin_operator
move loc-x3-y4 loc-x2-y4
0
2
0 0 34 24
0 14 -1 0
1
end_operator
begin_operator
move loc-x3-y4 loc-x3-y3
0
2
0 0 34 33
0 20 -1 0
1
end_operator
begin_operator
move loc-x3-y4 loc-x3-y5
0
2
0 0 34 35
0 21 -1 0
1
end_operator
begin_operator
move loc-x3-y4 loc-x4-y4
0
1
0 0 34 44
1
end_operator
begin_operator
move loc-x3-y5 loc-x2-y5
0
1
0 0 35 25
1
end_operator
begin_operator
move loc-x3-y5 loc-x3-y4
0
1
0 0 35 34
1
end_operator
begin_operator
move loc-x3-y5 loc-x3-y6
0
1
0 0 35 36
1
end_operator
begin_operator
move loc-x3-y5 loc-x4-y5
0
2
0 0 35 45
0 26 -1 0
1
end_operator
begin_operator
move loc-x3-y6 loc-x2-y6
0
1
0 0 36 26
1
end_operator
begin_operator
move loc-x3-y6 loc-x3-y5
0
2
0 0 36 35
0 21 -1 0
1
end_operator
begin_operator
move loc-x3-y6 loc-x3-y7
0
2
0 0 36 37
0 22 -1 0
1
end_operator
begin_operator
move loc-x3-y6 loc-x4-y6
0
1
0 0 36 46
1
end_operator
begin_operator
move loc-x3-y7 loc-x2-y7
0
1
0 0 37 27
1
end_operator
begin_operator
move loc-x3-y7 loc-x3-y6
0
1
0 0 37 36
1
end_operator
begin_operator
move loc-x3-y7 loc-x3-y8
0
1
0 0 37 38
1
end_operator
begin_operator
move loc-x3-y7 loc-x4-y7
0
1
0 0 37 47
1
end_operator
begin_operator
move loc-x3-y8 loc-x2-y8
0
2
0 0 38 28
0 15 -1 0
1
end_operator
begin_operator
move loc-x3-y8 loc-x3-y7
0
2
0 0 38 37
0 22 -1 0
1
end_operator
begin_operator
move loc-x3-y8 loc-x3-y9
0
1
0 0 38 39
1
end_operator
begin_operator
move loc-x3-y8 loc-x4-y8
0
2
0 0 38 48
0 27 -1 0
1
end_operator
begin_operator
move loc-x3-y9 loc-x2-y9
0
2
0 0 39 29
0 16 -1 0
1
end_operator
begin_operator
move loc-x3-y9 loc-x3-y8
0
1
0 0 39 38
1
end_operator
begin_operator
move loc-x3-y9 loc-x4-y9
0
2
0 0 39 49
0 28 -1 0
1
end_operator
begin_operator
move loc-x4-y0 loc-x3-y0
0
2
0 0 40 30
0 17 -1 0
1
end_operator
begin_operator
move loc-x4-y0 loc-x4-y1
0
2
0 0 40 41
0 24 -1 0
1
end_operator
begin_operator
move loc-x4-y0 loc-x5-y0
0
1
0 0 40 50
1
end_operator
begin_operator
move loc-x4-y1 loc-x3-y1
0
2
0 0 41 31
0 18 -1 0
1
end_operator
begin_operator
move loc-x4-y1 loc-x4-y0
0
2
0 0 41 40
0 23 -1 0
1
end_operator
begin_operator
move loc-x4-y1 loc-x4-y2
0
2
0 0 41 42
0 25 -1 0
1
end_operator
begin_operator
move loc-x4-y1 loc-x5-y1
0
1
0 0 41 51
1
end_operator
begin_operator
move loc-x4-y2 loc-x3-y2
0
2
0 0 42 32
0 19 -1 0
1
end_operator
begin_operator
move loc-x4-y2 loc-x4-y1
0
2
0 0 42 41
0 24 -1 0
1
end_operator
begin_operator
move loc-x4-y2 loc-x4-y3
0
1
0 0 42 43
1
end_operator
begin_operator
move loc-x4-y2 loc-x5-y2
0
1
0 0 42 52
1
end_operator
begin_operator
move loc-x4-y3 loc-x3-y3
0
2
0 0 43 33
0 20 -1 0
1
end_operator
begin_operator
move loc-x4-y3 loc-x4-y2
0
2
0 0 43 42
0 25 -1 0
1
end_operator
begin_operator
move loc-x4-y3 loc-x4-y4
0
1
0 0 43 44
1
end_operator
begin_operator
move loc-x4-y3 loc-x5-y3
0
1
0 0 43 53
1
end_operator
begin_operator
move loc-x4-y4 loc-x3-y4
0
1
0 0 44 34
1
end_operator
begin_operator
move loc-x4-y4 loc-x4-y3
0
1
0 0 44 43
1
end_operator
begin_operator
move loc-x4-y4 loc-x4-y5
0
2
0 0 44 45
0 26 -1 0
1
end_operator
begin_operator
move loc-x4-y4 loc-x5-y4
0
1
0 0 44 54
1
end_operator
begin_operator
move loc-x4-y5 loc-x3-y5
0
2
0 0 45 35
0 21 -1 0
1
end_operator
begin_operator
move loc-x4-y5 loc-x4-y4
0
1
0 0 45 44
1
end_operator
begin_operator
move loc-x4-y5 loc-x4-y6
0
1
0 0 45 46
1
end_operator
begin_operator
move loc-x4-y5 loc-x5-y5
0
1
0 0 45 55
1
end_operator
begin_operator
move loc-x4-y6 loc-x3-y6
0
1
0 0 46 36
1
end_operator
begin_operator
move loc-x4-y6 loc-x4-y5
0
2
0 0 46 45
0 26 -1 0
1
end_operator
begin_operator
move loc-x4-y6 loc-x4-y7
0
1
0 0 46 47
1
end_operator
begin_operator
move loc-x4-y6 loc-x5-y6
0
2
0 0 46 56
0 29 -1 0
1
end_operator
begin_operator
move loc-x4-y7 loc-x3-y7
0
2
0 0 47 37
0 22 -1 0
1
end_operator
begin_operator
move loc-x4-y7 loc-x4-y6
0
1
0 0 47 46
1
end_operator
begin_operator
move loc-x4-y7 loc-x4-y8
0
2
0 0 47 48
0 27 -1 0
1
end_operator
begin_operator
move loc-x4-y7 loc-x5-y7
0
1
0 0 47 57
1
end_operator
begin_operator
move loc-x4-y8 loc-x3-y8
0
1
0 0 48 38
1
end_operator
begin_operator
move loc-x4-y8 loc-x4-y7
0
1
0 0 48 47
1
end_operator
begin_operator
move loc-x4-y8 loc-x4-y9
0
2
0 0 48 49
0 28 -1 0
1
end_operator
begin_operator
move loc-x4-y8 loc-x5-y8
0
2
0 0 48 58
0 30 -1 0
1
end_operator
begin_operator
move loc-x4-y9 loc-x3-y9
0
1
0 0 49 39
1
end_operator
begin_operator
move loc-x4-y9 loc-x4-y8
0
2
0 0 49 48
0 27 -1 0
1
end_operator
begin_operator
move loc-x4-y9 loc-x5-y9
0
2
0 0 49 59
0 31 -1 0
1
end_operator
begin_operator
move loc-x5-y0 loc-x4-y0
0
2
0 0 50 40
0 23 -1 0
1
end_operator
begin_operator
move loc-x5-y0 loc-x5-y1
0
1
0 0 50 51
1
end_operator
begin_operator
move loc-x5-y0 loc-x6-y0
0
1
0 0 50 60
1
end_operator
begin_operator
move loc-x5-y1 loc-x4-y1
0
2
0 0 51 41
0 24 -1 0
1
end_operator
begin_operator
move loc-x5-y1 loc-x5-y0
0
1
0 0 51 50
1
end_operator
begin_operator
move loc-x5-y1 loc-x5-y2
0
1
0 0 51 52
1
end_operator
begin_operator
move loc-x5-y1 loc-x6-y1
0
1
0 0 51 61
1
end_operator
begin_operator
move loc-x5-y2 loc-x4-y2
0
2
0 0 52 42
0 25 -1 0
1
end_operator
begin_operator
move loc-x5-y2 loc-x5-y1
0
1
0 0 52 51
1
end_operator
begin_operator
move loc-x5-y2 loc-x5-y3
0
1
0 0 52 53
1
end_operator
begin_operator
move loc-x5-y2 loc-x6-y2
0
1
0 0 52 62
1
end_operator
begin_operator
move loc-x5-y3 loc-x4-y3
0
1
0 0 53 43
1
end_operator
begin_operator
move loc-x5-y3 loc-x5-y2
0
1
0 0 53 52
1
end_operator
begin_operator
move loc-x5-y3 loc-x5-y4
0
1
0 0 53 54
1
end_operator
begin_operator
move loc-x5-y3 loc-x6-y3
0
1
0 0 53 63
1
end_operator
begin_operator
move loc-x5-y4 loc-x4-y4
0
1
0 0 54 44
1
end_operator
begin_operator
move loc-x5-y4 loc-x5-y3
0
1
0 0 54 53
1
end_operator
begin_operator
move loc-x5-y4 loc-x5-y5
0
1
0 0 54 55
1
end_operator
begin_operator
move loc-x5-y4 loc-x6-y4
0
1
0 0 54 64
1
end_operator
begin_operator
move loc-x5-y5 loc-x4-y5
0
2
0 0 55 45
0 26 -1 0
1
end_operator
begin_operator
move loc-x5-y5 loc-x5-y4
0
1
0 0 55 54
1
end_operator
begin_operator
move loc-x5-y5 loc-x5-y6
0
2
0 0 55 56
0 29 -1 0
1
end_operator
begin_operator
move loc-x5-y5 loc-x6-y5
0
2
0 0 55 65
0 32 -1 0
1
end_operator
begin_operator
move loc-x5-y6 loc-x4-y6
0
1
0 0 56 46
1
end_operator
begin_operator
move loc-x5-y6 loc-x5-y5
0
1
0 0 56 55
1
end_operator
begin_operator
move loc-x5-y6 loc-x5-y7
0
1
0 0 56 57
1
end_operator
begin_operator
move loc-x5-y6 loc-x6-y6
0
2
0 0 56 66
0 33 -1 0
1
end_operator
begin_operator
move loc-x5-y7 loc-x4-y7
0
1
0 0 57 47
1
end_operator
begin_operator
move loc-x5-y7 loc-x5-y6
0
2
0 0 57 56
0 29 -1 0
1
end_operator
begin_operator
move loc-x5-y7 loc-x5-y8
0
2
0 0 57 58
0 30 -1 0
1
end_operator
begin_operator
move loc-x5-y7 loc-x6-y7
0
2
0 0 57 67
0 34 -1 0
1
end_operator
begin_operator
move loc-x5-y8 loc-x4-y8
0
2
0 0 58 48
0 27 -1 0
1
end_operator
begin_operator
move loc-x5-y8 loc-x5-y7
0
1
0 0 58 57
1
end_operator
begin_operator
move loc-x5-y8 loc-x5-y9
0
2
0 0 58 59
0 31 -1 0
1
end_operator
begin_operator
move loc-x5-y8 loc-x6-y8
0
2
0 0 58 68
0 35 -1 0
1
end_operator
begin_operator
move loc-x5-y9 loc-x4-y9
0
2
0 0 59 49
0 28 -1 0
1
end_operator
begin_operator
move loc-x5-y9 loc-x5-y8
0
2
0 0 59 58
0 30 -1 0
1
end_operator
begin_operator
move loc-x5-y9 loc-x6-y9
0
2
0 0 59 69
0 36 -1 0
1
end_operator
begin_operator
move loc-x6-y0 loc-x5-y0
0
1
0 0 60 50
1
end_operator
begin_operator
move loc-x6-y0 loc-x6-y1
0
1
0 0 60 61
1
end_operator
begin_operator
move loc-x6-y0 loc-x7-y0
0
1
0 0 60 70
1
end_operator
begin_operator
move loc-x6-y1 loc-x5-y1
0
1
0 0 61 51
1
end_operator
begin_operator
move loc-x6-y1 loc-x6-y0
0
1
0 0 61 60
1
end_operator
begin_operator
move loc-x6-y1 loc-x6-y2
0
1
0 0 61 62
1
end_operator
begin_operator
move loc-x6-y1 loc-x7-y1
0
1
0 0 61 71
1
end_operator
begin_operator
move loc-x6-y2 loc-x5-y2
0
1
0 0 62 52
1
end_operator
begin_operator
move loc-x6-y2 loc-x6-y1
0
1
0 0 62 61
1
end_operator
begin_operator
move loc-x6-y2 loc-x6-y3
0
1
0 0 62 63
1
end_operator
begin_operator
move loc-x6-y2 loc-x7-y2
0
2
0 0 62 72
0 37 -1 0
1
end_operator
begin_operator
move loc-x6-y3 loc-x5-y3
0
1
0 0 63 53
1
end_operator
begin_operator
move loc-x6-y3 loc-x6-y2
0
1
0 0 63 62
1
end_operator
begin_operator
move loc-x6-y3 loc-x6-y4
0
1
0 0 63 64
1
end_operator
begin_operator
move loc-x6-y3 loc-x7-y3
0
1
0 0 63 73
1
end_operator
begin_operator
move loc-x6-y4 loc-x5-y4
0
1
0 0 64 54
1
end_operator
begin_operator
move loc-x6-y4 loc-x6-y3
0
1
0 0 64 63
1
end_operator
begin_operator
move loc-x6-y4 loc-x6-y5
0
2
0 0 64 65
0 32 -1 0
1
end_operator
begin_operator
move loc-x6-y4 loc-x7-y4
0
2
0 0 64 74
0 38 -1 0
1
end_operator
begin_operator
move loc-x6-y5 loc-x5-y5
0
1
0 0 65 55
1
end_operator
begin_operator
move loc-x6-y5 loc-x6-y4
0
1
0 0 65 64
1
end_operator
begin_operator
move loc-x6-y5 loc-x6-y6
0
2
0 0 65 66
0 33 -1 0
1
end_operator
begin_operator
move loc-x6-y5 loc-x7-y5
0
1
0 0 65 75
1
end_operator
begin_operator
move loc-x6-y6 loc-x5-y6
0
2
0 0 66 56
0 29 -1 0
1
end_operator
begin_operator
move loc-x6-y6 loc-x6-y5
0
2
0 0 66 65
0 32 -1 0
1
end_operator
begin_operator
move loc-x6-y6 loc-x6-y7
0
2
0 0 66 67
0 34 -1 0
1
end_operator
begin_operator
move loc-x6-y6 loc-x7-y6
0
1
0 0 66 76
1
end_operator
begin_operator
move loc-x6-y7 loc-x5-y7
0
1
0 0 67 57
1
end_operator
begin_operator
move loc-x6-y7 loc-x6-y6
0
2
0 0 67 66
0 33 -1 0
1
end_operator
begin_operator
move loc-x6-y7 loc-x6-y8
0
2
0 0 67 68
0 35 -1 0
1
end_operator
begin_operator
move loc-x6-y7 loc-x7-y7
0
1
0 0 67 77
1
end_operator
begin_operator
move loc-x6-y8 loc-x5-y8
0
2
0 0 68 58
0 30 -1 0
1
end_operator
begin_operator
move loc-x6-y8 loc-x6-y7
0
2
0 0 68 67
0 34 -1 0
1
end_operator
begin_operator
move loc-x6-y8 loc-x6-y9
0
2
0 0 68 69
0 36 -1 0
1
end_operator
begin_operator
move loc-x6-y8 loc-x7-y8
0
1
0 0 68 78
1
end_operator
begin_operator
move loc-x6-y9 loc-x5-y9
0
2
0 0 69 59
0 31 -1 0
1
end_operator
begin_operator
move loc-x6-y9 loc-x6-y8
0
2
0 0 69 68
0 35 -1 0
1
end_operator
begin_operator
move loc-x6-y9 loc-x7-y9
0
2
0 0 69 79
0 39 -1 0
1
end_operator
begin_operator
move loc-x7-y0 loc-x6-y0
0
1
0 0 70 60
1
end_operator
begin_operator
move loc-x7-y0 loc-x7-y1
0
1
0 0 70 71
1
end_operator
begin_operator
move loc-x7-y0 loc-x8-y0
0
1
0 0 70 80
1
end_operator
begin_operator
move loc-x7-y1 loc-x6-y1
0
1
0 0 71 61
1
end_operator
begin_operator
move loc-x7-y1 loc-x7-y0
0
1
0 0 71 70
1
end_operator
begin_operator
move loc-x7-y1 loc-x7-y2
0
2
0 0 71 72
0 37 -1 0
1
end_operator
begin_operator
move loc-x7-y1 loc-x8-y1
0
1
0 0 71 81
1
end_operator
begin_operator
move loc-x7-y2 loc-x6-y2
0
1
0 0 72 62
1
end_operator
begin_operator
move loc-x7-y2 loc-x7-y1
0
1
0 0 72 71
1
end_operator
begin_operator
move loc-x7-y2 loc-x7-y3
0
1
0 0 72 73
1
end_operator
begin_operator
move loc-x7-y2 loc-x8-y2
0
2
0 0 72 82
0 40 -1 0
1
end_operator
begin_operator
move loc-x7-y3 loc-x6-y3
0
1
0 0 73 63
1
end_operator
begin_operator
move loc-x7-y3 loc-x7-y2
0
2
0 0 73 72
0 37 -1 0
1
end_operator
begin_operator
move loc-x7-y3 loc-x7-y4
0
2
0 0 73 74
0 38 -1 0
1
end_operator
begin_operator
move loc-x7-y3 loc-x8-y3
0
1
0 0 73 83
1
end_operator
begin_operator
move loc-x7-y4 loc-x6-y4
0
1
0 0 74 64
1
end_operator
begin_operator
move loc-x7-y4 loc-x7-y3
0
1
0 0 74 73
1
end_operator
begin_operator
move loc-x7-y4 loc-x7-y5
0
1
0 0 74 75
1
end_operator
begin_operator
move loc-x7-y4 loc-x8-y4
0
1
0 0 74 84
1
end_operator
begin_operator
move loc-x7-y5 loc-x6-y5
0
2
0 0 75 65
0 32 -1 0
1
end_operator
begin_operator
move loc-x7-y5 loc-x7-y4
0
2
0 0 75 74
0 38 -1 0
1
end_operator
begin_operator
move loc-x7-y5 loc-x7-y6
0
1
0 0 75 76
1
end_operator
begin_operator
move loc-x7-y5 loc-x8-y5
0
1
0 0 75 85
1
end_operator
begin_operator
move loc-x7-y6 loc-x6-y6
0
2
0 0 76 66
0 33 -1 0
1
end_operator
begin_operator
move loc-x7-y6 loc-x7-y5
0
1
0 0 76 75
1
end_operator
begin_operator
move loc-x7-y6 loc-x7-y7
0
1
0 0 76 77
1
end_operator
begin_operator
move loc-x7-y6 loc-x8-y6
0
1
0 0 76 86
1
end_operator
begin_operator
move loc-x7-y7 loc-x6-y7
0
2
0 0 77 67
0 34 -1 0
1
end_operator
begin_operator
move loc-x7-y7 loc-x7-y6
0
1
0 0 77 76
1
end_operator
begin_operator
move loc-x7-y7 loc-x7-y8
0
1
0 0 77 78
1
end_operator
begin_operator
move loc-x7-y7 loc-x8-y7
0
1
0 0 77 87
1
end_operator
begin_operator
move loc-x7-y8 loc-x6-y8
0
2
0 0 78 68
0 35 -1 0
1
end_operator
begin_operator
move loc-x7-y8 loc-x7-y7
0
1
0 0 78 77
1
end_operator
begin_operator
move loc-x7-y8 loc-x7-y9
0
2
0 0 78 79
0 39 -1 0
1
end_operator
begin_operator
move loc-x7-y8 loc-x8-y8
0
1
0 0 78 88
1
end_operator
begin_operator
move loc-x7-y9 loc-x6-y9
0
2
0 0 79 69
0 36 -1 0
1
end_operator
begin_operator
move loc-x7-y9 loc-x7-y8
0
1
0 0 79 78
1
end_operator
begin_operator
move loc-x7-y9 loc-x8-y9
0
2
0 0 79 89
0 41 -1 0
1
end_operator
begin_operator
move loc-x8-y0 loc-x7-y0
0
1
0 0 80 70
1
end_operator
begin_operator
move loc-x8-y0 loc-x8-y1
0
1
0 0 80 81
1
end_operator
begin_operator
move loc-x8-y0 loc-x9-y0
0
1
0 0 80 90
1
end_operator
begin_operator
move loc-x8-y1 loc-x7-y1
0
1
0 0 81 71
1
end_operator
begin_operator
move loc-x8-y1 loc-x8-y0
0
1
0 0 81 80
1
end_operator
begin_operator
move loc-x8-y1 loc-x8-y2
0
2
0 0 81 82
0 40 -1 0
1
end_operator
begin_operator
move loc-x8-y1 loc-x9-y1
0
1
0 0 81 91
1
end_operator
begin_operator
move loc-x8-y2 loc-x7-y2
0
2
0 0 82 72
0 37 -1 0
1
end_operator
begin_operator
move loc-x8-y2 loc-x8-y1
0
1
0 0 82 81
1
end_operator
begin_operator
move loc-x8-y2 loc-x8-y3
0
1
0 0 82 83
1
end_operator
begin_operator
move loc-x8-y2 loc-x9-y2
0
1
0 0 82 92
1
end_operator
begin_operator
move loc-x8-y3 loc-x7-y3
0
1
0 0 83 73
1
end_operator
begin_operator
move loc-x8-y3 loc-x8-y2
0
2
0 0 83 82
0 40 -1 0
1
end_operator
begin_operator
move loc-x8-y3 loc-x8-y4
0
1
0 0 83 84
1
end_operator
begin_operator
move loc-x8-y3 loc-x9-y3
0
2
0 0 83 93
0 42 -1 0
1
end_operator
begin_operator
move loc-x8-y4 loc-x7-y4
0
2
0 0 84 74
0 38 -1 0
1
end_operator
begin_operator
move loc-x8-y4 loc-x8-y3
0
1
0 0 84 83
1
end_operator
begin_operator
move loc-x8-y4 loc-x8-y5
0
1
0 0 84 85
1
end_operator
begin_operator
move loc-x8-y4 loc-x9-y4
0
1
0 0 84 94
1
end_operator
begin_operator
move loc-x8-y5 loc-x7-y5
0
1
0 0 85 75
1
end_operator
begin_operator
move loc-x8-y5 loc-x8-y4
0
1
0 0 85 84
1
end_operator
begin_operator
move loc-x8-y5 loc-x8-y6
0
1
0 0 85 86
1
end_operator
begin_operator
move loc-x8-y5 loc-x9-y5
0
2
0 0 85 95
0 43 -1 0
1
end_operator
begin_operator
move loc-x8-y6 loc-x7-y6
0
1
0 0 86 76
1
end_operator
begin_operator
move loc-x8-y6 loc-x8-y5
0
1
0 0 86 85
1
end_operator
begin_operator
move loc-x8-y6 loc-x8-y7
0
1
0 0 86 87
1
end_operator
begin_operator
move loc-x8-y6 loc-x9-y6
0
2
0 0 86 96
0 44 -1 0
1
end_operator
begin_operator
move loc-x8-y7 loc-x7-y7
0
1
0 0 87 77
1
end_operator
begin_operator
move loc-x8-y7 loc-x8-y6
0
1
0 0 87 86
1
end_operator
begin_operator
move loc-x8-y7 loc-x8-y8
0
1
0 0 87 88
1
end_operator
begin_operator
move loc-x8-y7 loc-x9-y7
0
2
0 0 87 97
0 45 -1 0
1
end_operator
begin_operator
move loc-x8-y8 loc-x7-y8
0
1
0 0 88 78
1
end_operator
begin_operator
move loc-x8-y8 loc-x8-y7
0
1
0 0 88 87
1
end_operator
begin_operator
move loc-x8-y8 loc-x8-y9
0
2
0 0 88 89
0 41 -1 0
1
end_operator
begin_operator
move loc-x8-y8 loc-x9-y8
0
1
0 0 88 98
1
end_operator
begin_operator
move loc-x8-y9 loc-x7-y9
0
2
0 0 89 79
0 39 -1 0
1
end_operator
begin_operator
move loc-x8-y9 loc-x8-y8
0
1
0 0 89 88
1
end_operator
begin_operator
move loc-x8-y9 loc-x9-y9
0
1
0 0 89 99
1
end_operator
begin_operator
move loc-x9-y0 loc-x8-y0
0
1
0 0 90 80
1
end_operator
begin_operator
move loc-x9-y0 loc-x9-y1
0
1
0 0 90 91
1
end_operator
begin_operator
move loc-x9-y1 loc-x8-y1
0
1
0 0 91 81
1
end_operator
begin_operator
move loc-x9-y1 loc-x9-y0
0
1
0 0 91 90
1
end_operator
begin_operator
move loc-x9-y1 loc-x9-y2
0
1
0 0 91 92
1
end_operator
begin_operator
move loc-x9-y2 loc-x8-y2
0
2
0 0 92 82
0 40 -1 0
1
end_operator
begin_operator
move loc-x9-y2 loc-x9-y1
0
1
0 0 92 91
1
end_operator
begin_operator
move loc-x9-y2 loc-x9-y3
0
2
0 0 92 93
0 42 -1 0
1
end_operator
begin_operator
move loc-x9-y3 loc-x8-y3
0
1
0 0 93 83
1
end_operator
begin_operator
move loc-x9-y3 loc-x9-y2
0
1
0 0 93 92
1
end_operator
begin_operator
move loc-x9-y3 loc-x9-y4
0
1
0 0 93 94
1
end_operator
begin_operator
move loc-x9-y4 loc-x8-y4
0
1
0 0 94 84
1
end_operator
begin_operator
move loc-x9-y4 loc-x9-y3
0
2
0 0 94 93
0 42 -1 0
1
end_operator
begin_operator
move loc-x9-y4 loc-x9-y5
0
2
0 0 94 95
0 43 -1 0
1
end_operator
begin_operator
move loc-x9-y5 loc-x8-y5
0
1
0 0 95 85
1
end_operator
begin_operator
move loc-x9-y5 loc-x9-y4
0
1
0 0 95 94
1
end_operator
begin_operator
move loc-x9-y5 loc-x9-y6
0
2
0 0 95 96
0 44 -1 0
1
end_operator
begin_operator
move loc-x9-y6 loc-x8-y6
0
1
0 0 96 86
1
end_operator
begin_operator
move loc-x9-y6 loc-x9-y5
0
2
0 0 96 95
0 43 -1 0
1
end_operator
begin_operator
move loc-x9-y6 loc-x9-y7
0
2
0 0 96 97
0 45 -1 0
1
end_operator
begin_operator
move loc-x9-y7 loc-x8-y7
0
1
0 0 97 87
1
end_operator
begin_operator
move loc-x9-y7 loc-x9-y6
0
2
0 0 97 96
0 44 -1 0
1
end_operator
begin_operator
move loc-x9-y7 loc-x9-y8
0
1
0 0 97 98
1
end_operator
begin_operator
move loc-x9-y8 loc-x8-y8
0
1
0 0 98 88
1
end_operator
begin_operator
move loc-x9-y8 loc-x9-y7
0
2
0 0 98 97
0 45 -1 0
1
end_operator
begin_operator
move loc-x9-y8 loc-x9-y9
0
1
0 0 98 99
1
end_operator
begin_operator
move loc-x9-y9 loc-x8-y9
0
2
0 0 99 89
0 41 -1 0
1
end_operator
begin_operator
move loc-x9-y9 loc-x9-y8
0
1
0 0 99 98
1
end_operator
0
