< {waiting V0:order}
, {stacks-avail C0:count, stacks-avail C1:count}:=1
, {NOT-made V0:product}
, {waiting V0:order, started V0:order}
, {made V0:product, NOT-made V0:product}:=1
, {waiting V0:order, started V0:order, shipped V0:order}:=1
>
