begin_version
3
end_version
begin_metric
1
end_metric
9
begin_variable
var0
-1
12
boarded p0 fast0
boarded p0 slow0-0
boarded p0 slow1-0
passenger-at p0 n0
passenger-at p0 n1
passenger-at p0 n2
passenger-at p0 n3
passenger-at p0 n4
passenger-at p0 n5
passenger-at p0 n6
passenger-at p0 n7
passenger-at p0 n8
end_variable
begin_variable
var1
-1
12
boarded p1 fast0
boarded p1 slow0-0
boarded p1 slow1-0
passenger-at p1 n0
passenger-at p1 n1
passenger-at p1 n2
passenger-at p1 n3
passenger-at p1 n4
passenger-at p1 n5
passenger-at p1 n6
passenger-at p1 n7
passenger-at p1 n8
end_variable
begin_variable
var2
-1
12
boarded p2 fast0
boarded p2 slow0-0
boarded p2 slow1-0
passenger-at p2 n0
passenger-at p2 n1
passenger-at p2 n2
passenger-at p2 n3
passenger-at p2 n4
passenger-at p2 n5
passenger-at p2 n6
passenger-at p2 n7
passenger-at p2 n8
end_variable
begin_variable
var3
-1
6
lift-at fast0 n0
lift-at fast0 n2
lift-at fast0 n4
lift-at fast0 n6
lift-at fast0 n8
tnf-unknown
end_variable
begin_variable
var4
-1
6
lift-at slow0-0 n0
lift-at slow0-0 n1
lift-at slow0-0 n2
lift-at slow0-0 n3
lift-at slow0-0 n4
tnf-unknown
end_variable
begin_variable
var5
-1
6
lift-at slow1-0 n4
lift-at slow1-0 n5
lift-at slow1-0 n6
lift-at slow1-0 n7
lift-at slow1-0 n8
tnf-unknown
end_variable
begin_variable
var6
-1
5
passengers fast0 n0
passengers fast0 n1
passengers fast0 n2
passengers fast0 n3
tnf-unknown
end_variable
begin_variable
var7
-1
4
passengers slow0-0 n0
passengers slow0-0 n1
passengers slow0-0 n2
tnf-unknown
end_variable
begin_variable
var8
-1
4
passengers slow1-0 n0
passengers slow1-0 n1
passengers slow1-0 n2
tnf-unknown
end_variable
9
begin_mutex_group
3
7 0
7 1
7 2
end_mutex_group
begin_mutex_group
3
8 0
8 1
8 2
end_mutex_group
begin_mutex_group
4
6 0
6 1
6 2
6 3
end_mutex_group
begin_mutex_group
5
3 0
3 1
3 2
3 3
3 4
end_mutex_group
begin_mutex_group
5
4 0
4 1
4 2
4 3
4 4
end_mutex_group
begin_mutex_group
5
5 0
5 1
5 2
5 3
5 4
end_mutex_group
begin_mutex_group
12
0 0
0 1
0 2
0 3
0 4
0 5
0 6
0 7
0 8
0 9
0 10
0 11
end_mutex_group
begin_mutex_group
12
1 0
1 1
1 2
1 3
1 4
1 5
1 6
1 7
1 8
1 9
1 10
1 11
end_mutex_group
begin_mutex_group
12
2 0
2 1
2 2
2 3
2 4
2 5
2 6
2 7
2 8
2 9
2 10
2 11
end_mutex_group
begin_state
11
6
5
0
2
0
0
0
0
end_state
begin_goal
9
0 7
1 9
2 4
3 5
4 5
5 5
6 4
7 3
8 3
end_goal
295
begin_operator
board p0 fast0 n0 n0 n1
1
3 0
2
0 0 3 0
0 6 0 1
0
end_operator
begin_operator
board p0 fast0 n0 n1 n2
1
3 0
2
0 0 3 0
0 6 1 2
0
end_operator
begin_operator
board p0 fast0 n0 n2 n3
1
3 0
2
0 0 3 0
0 6 2 3
0
end_operator
begin_operator
board p0 fast0 n2 n0 n1
1
3 1
2
0 0 5 0
0 6 0 1
0
end_operator
begin_operator
board p0 fast0 n2 n1 n2
1
3 1
2
0 0 5 0
0 6 1 2
0
end_operator
begin_operator
board p0 fast0 n2 n2 n3
1
3 1
2
0 0 5 0
0 6 2 3
0
end_operator
begin_operator
board p0 fast0 n4 n0 n1
1
3 2
2
0 0 7 0
0 6 0 1
0
end_operator
begin_operator
board p0 fast0 n4 n1 n2
1
3 2
2
0 0 7 0
0 6 1 2
0
end_operator
begin_operator
board p0 fast0 n4 n2 n3
1
3 2
2
0 0 7 0
0 6 2 3
0
end_operator
begin_operator
board p0 fast0 n6 n0 n1
1
3 3
2
0 0 9 0
0 6 0 1
0
end_operator
begin_operator
board p0 fast0 n6 n1 n2
1
3 3
2
0 0 9 0
0 6 1 2
0
end_operator
begin_operator
board p0 fast0 n6 n2 n3
1
3 3
2
0 0 9 0
0 6 2 3
0
end_operator
begin_operator
board p0 fast0 n8 n0 n1
1
3 4
2
0 0 11 0
0 6 0 1
0
end_operator
begin_operator
board p0 fast0 n8 n1 n2
1
3 4
2
0 0 11 0
0 6 1 2
0
end_operator
begin_operator
board p0 fast0 n8 n2 n3
1
3 4
2
0 0 11 0
0 6 2 3
0
end_operator
begin_operator
board p0 slow0-0 n0 n0 n1
1
4 0
2
0 0 3 1
0 7 0 1
0
end_operator
begin_operator
board p0 slow0-0 n0 n1 n2
1
4 0
2
0 0 3 1
0 7 1 2
0
end_operator
begin_operator
board p0 slow0-0 n1 n0 n1
1
4 1
2
0 0 4 1
0 7 0 1
0
end_operator
begin_operator
board p0 slow0-0 n1 n1 n2
1
4 1
2
0 0 4 1
0 7 1 2
0
end_operator
begin_operator
board p0 slow0-0 n2 n0 n1
1
4 2
2
0 0 5 1
0 7 0 1
0
end_operator
begin_operator
board p0 slow0-0 n2 n1 n2
1
4 2
2
0 0 5 1
0 7 1 2
0
end_operator
begin_operator
board p0 slow0-0 n3 n0 n1
1
4 3
2
0 0 6 1
0 7 0 1
0
end_operator
begin_operator
board p0 slow0-0 n3 n1 n2
1
4 3
2
0 0 6 1
0 7 1 2
0
end_operator
begin_operator
board p0 slow0-0 n4 n0 n1
1
4 4
2
0 0 7 1
0 7 0 1
0
end_operator
begin_operator
board p0 slow0-0 n4 n1 n2
1
4 4
2
0 0 7 1
0 7 1 2
0
end_operator
begin_operator
board p0 slow1-0 n4 n0 n1
1
5 0
2
0 0 7 2
0 8 0 1
0
end_operator
begin_operator
board p0 slow1-0 n4 n1 n2
1
5 0
2
0 0 7 2
0 8 1 2
0
end_operator
begin_operator
board p0 slow1-0 n5 n0 n1
1
5 1
2
0 0 8 2
0 8 0 1
0
end_operator
begin_operator
board p0 slow1-0 n5 n1 n2
1
5 1
2
0 0 8 2
0 8 1 2
0
end_operator
begin_operator
board p0 slow1-0 n6 n0 n1
1
5 2
2
0 0 9 2
0 8 0 1
0
end_operator
begin_operator
board p0 slow1-0 n6 n1 n2
1
5 2
2
0 0 9 2
0 8 1 2
0
end_operator
begin_operator
board p0 slow1-0 n7 n0 n1
1
5 3
2
0 0 10 2
0 8 0 1
0
end_operator
begin_operator
board p0 slow1-0 n7 n1 n2
1
5 3
2
0 0 10 2
0 8 1 2
0
end_operator
begin_operator
board p0 slow1-0 n8 n0 n1
1
5 4
2
0 0 11 2
0 8 0 1
0
end_operator
begin_operator
board p0 slow1-0 n8 n1 n2
1
5 4
2
0 0 11 2
0 8 1 2
0
end_operator
begin_operator
board p1 fast0 n0 n0 n1
1
3 0
2
0 1 3 0
0 6 0 1
0
end_operator
begin_operator
board p1 fast0 n0 n1 n2
1
3 0
2
0 1 3 0
0 6 1 2
0
end_operator
begin_operator
board p1 fast0 n0 n2 n3
1
3 0
2
0 1 3 0
0 6 2 3
0
end_operator
begin_operator
board p1 fast0 n2 n0 n1
1
3 1
2
0 1 5 0
0 6 0 1
0
end_operator
begin_operator
board p1 fast0 n2 n1 n2
1
3 1
2
0 1 5 0
0 6 1 2
0
end_operator
begin_operator
board p1 fast0 n2 n2 n3
1
3 1
2
0 1 5 0
0 6 2 3
0
end_operator
begin_operator
board p1 fast0 n4 n0 n1
1
3 2
2
0 1 7 0
0 6 0 1
0
end_operator
begin_operator
board p1 fast0 n4 n1 n2
1
3 2
2
0 1 7 0
0 6 1 2
0
end_operator
begin_operator
board p1 fast0 n4 n2 n3
1
3 2
2
0 1 7 0
0 6 2 3
0
end_operator
begin_operator
board p1 fast0 n6 n0 n1
1
3 3
2
0 1 9 0
0 6 0 1
0
end_operator
begin_operator
board p1 fast0 n6 n1 n2
1
3 3
2
0 1 9 0
0 6 1 2
0
end_operator
begin_operator
board p1 fast0 n6 n2 n3
1
3 3
2
0 1 9 0
0 6 2 3
0
end_operator
begin_operator
board p1 fast0 n8 n0 n1
1
3 4
2
0 1 11 0
0 6 0 1
0
end_operator
begin_operator
board p1 fast0 n8 n1 n2
1
3 4
2
0 1 11 0
0 6 1 2
0
end_operator
begin_operator
board p1 fast0 n8 n2 n3
1
3 4
2
0 1 11 0
0 6 2 3
0
end_operator
begin_operator
board p1 slow0-0 n0 n0 n1
1
4 0
2
0 1 3 1
0 7 0 1
0
end_operator
begin_operator
board p1 slow0-0 n0 n1 n2
1
4 0
2
0 1 3 1
0 7 1 2
0
end_operator
begin_operator
board p1 slow0-0 n1 n0 n1
1
4 1
2
0 1 4 1
0 7 0 1
0
end_operator
begin_operator
board p1 slow0-0 n1 n1 n2
1
4 1
2
0 1 4 1
0 7 1 2
0
end_operator
begin_operator
board p1 slow0-0 n2 n0 n1
1
4 2
2
0 1 5 1
0 7 0 1
0
end_operator
begin_operator
board p1 slow0-0 n2 n1 n2
1
4 2
2
0 1 5 1
0 7 1 2
0
end_operator
begin_operator
board p1 slow0-0 n3 n0 n1
1
4 3
2
0 1 6 1
0 7 0 1
0
end_operator
begin_operator
board p1 slow0-0 n3 n1 n2
1
4 3
2
0 1 6 1
0 7 1 2
0
end_operator
begin_operator
board p1 slow0-0 n4 n0 n1
1
4 4
2
0 1 7 1
0 7 0 1
0
end_operator
begin_operator
board p1 slow0-0 n4 n1 n2
1
4 4
2
0 1 7 1
0 7 1 2
0
end_operator
begin_operator
board p1 slow1-0 n4 n0 n1
1
5 0
2
0 1 7 2
0 8 0 1
0
end_operator
begin_operator
board p1 slow1-0 n4 n1 n2
1
5 0
2
0 1 7 2
0 8 1 2
0
end_operator
begin_operator
board p1 slow1-0 n5 n0 n1
1
5 1
2
0 1 8 2
0 8 0 1
0
end_operator
begin_operator
board p1 slow1-0 n5 n1 n2
1
5 1
2
0 1 8 2
0 8 1 2
0
end_operator
begin_operator
board p1 slow1-0 n6 n0 n1
1
5 2
2
0 1 9 2
0 8 0 1
0
end_operator
begin_operator
board p1 slow1-0 n6 n1 n2
1
5 2
2
0 1 9 2
0 8 1 2
0
end_operator
begin_operator
board p1 slow1-0 n7 n0 n1
1
5 3
2
0 1 10 2
0 8 0 1
0
end_operator
begin_operator
board p1 slow1-0 n7 n1 n2
1
5 3
2
0 1 10 2
0 8 1 2
0
end_operator
begin_operator
board p1 slow1-0 n8 n0 n1
1
5 4
2
0 1 11 2
0 8 0 1
0
end_operator
begin_operator
board p1 slow1-0 n8 n1 n2
1
5 4
2
0 1 11 2
0 8 1 2
0
end_operator
begin_operator
board p2 fast0 n0 n0 n1
1
3 0
2
0 2 3 0
0 6 0 1
0
end_operator
begin_operator
board p2 fast0 n0 n1 n2
1
3 0
2
0 2 3 0
0 6 1 2
0
end_operator
begin_operator
board p2 fast0 n0 n2 n3
1
3 0
2
0 2 3 0
0 6 2 3
0
end_operator
begin_operator
board p2 fast0 n2 n0 n1
1
3 1
2
0 2 5 0
0 6 0 1
0
end_operator
begin_operator
board p2 fast0 n2 n1 n2
1
3 1
2
0 2 5 0
0 6 1 2
0
end_operator
begin_operator
board p2 fast0 n2 n2 n3
1
3 1
2
0 2 5 0
0 6 2 3
0
end_operator
begin_operator
board p2 fast0 n4 n0 n1
1
3 2
2
0 2 7 0
0 6 0 1
0
end_operator
begin_operator
board p2 fast0 n4 n1 n2
1
3 2
2
0 2 7 0
0 6 1 2
0
end_operator
begin_operator
board p2 fast0 n4 n2 n3
1
3 2
2
0 2 7 0
0 6 2 3
0
end_operator
begin_operator
board p2 fast0 n6 n0 n1
1
3 3
2
0 2 9 0
0 6 0 1
0
end_operator
begin_operator
board p2 fast0 n6 n1 n2
1
3 3
2
0 2 9 0
0 6 1 2
0
end_operator
begin_operator
board p2 fast0 n6 n2 n3
1
3 3
2
0 2 9 0
0 6 2 3
0
end_operator
begin_operator
board p2 fast0 n8 n0 n1
1
3 4
2
0 2 11 0
0 6 0 1
0
end_operator
begin_operator
board p2 fast0 n8 n1 n2
1
3 4
2
0 2 11 0
0 6 1 2
0
end_operator
begin_operator
board p2 fast0 n8 n2 n3
1
3 4
2
0 2 11 0
0 6 2 3
0
end_operator
begin_operator
board p2 slow0-0 n0 n0 n1
1
4 0
2
0 2 3 1
0 7 0 1
0
end_operator
begin_operator
board p2 slow0-0 n0 n1 n2
1
4 0
2
0 2 3 1
0 7 1 2
0
end_operator
begin_operator
board p2 slow0-0 n1 n0 n1
1
4 1
2
0 2 4 1
0 7 0 1
0
end_operator
begin_operator
board p2 slow0-0 n1 n1 n2
1
4 1
2
0 2 4 1
0 7 1 2
0
end_operator
begin_operator
board p2 slow0-0 n2 n0 n1
1
4 2
2
0 2 5 1
0 7 0 1
0
end_operator
begin_operator
board p2 slow0-0 n2 n1 n2
1
4 2
2
0 2 5 1
0 7 1 2
0
end_operator
begin_operator
board p2 slow0-0 n3 n0 n1
1
4 3
2
0 2 6 1
0 7 0 1
0
end_operator
begin_operator
board p2 slow0-0 n3 n1 n2
1
4 3
2
0 2 6 1
0 7 1 2
0
end_operator
begin_operator
board p2 slow0-0 n4 n0 n1
1
4 4
2
0 2 7 1
0 7 0 1
0
end_operator
begin_operator
board p2 slow0-0 n4 n1 n2
1
4 4
2
0 2 7 1
0 7 1 2
0
end_operator
begin_operator
board p2 slow1-0 n4 n0 n1
1
5 0
2
0 2 7 2
0 8 0 1
0
end_operator
begin_operator
board p2 slow1-0 n4 n1 n2
1
5 0
2
0 2 7 2
0 8 1 2
0
end_operator
begin_operator
board p2 slow1-0 n5 n0 n1
1
5 1
2
0 2 8 2
0 8 0 1
0
end_operator
begin_operator
board p2 slow1-0 n5 n1 n2
1
5 1
2
0 2 8 2
0 8 1 2
0
end_operator
begin_operator
board p2 slow1-0 n6 n0 n1
1
5 2
2
0 2 9 2
0 8 0 1
0
end_operator
begin_operator
board p2 slow1-0 n6 n1 n2
1
5 2
2
0 2 9 2
0 8 1 2
0
end_operator
begin_operator
board p2 slow1-0 n7 n0 n1
1
5 3
2
0 2 10 2
0 8 0 1
0
end_operator
begin_operator
board p2 slow1-0 n7 n1 n2
1
5 3
2
0 2 10 2
0 8 1 2
0
end_operator
begin_operator
board p2 slow1-0 n8 n0 n1
1
5 4
2
0 2 11 2
0 8 0 1
0
end_operator
begin_operator
board p2 slow1-0 n8 n1 n2
1
5 4
2
0 2 11 2
0 8 1 2
0
end_operator
begin_operator
leave p0 fast0 n0 n1 n0
1
3 0
2
0 0 0 3
0 6 1 0
0
end_operator
begin_operator
leave p0 fast0 n0 n2 n1
1
3 0
2
0 0 0 3
0 6 2 1
0
end_operator
begin_operator
leave p0 fast0 n0 n3 n2
1
3 0
2
0 0 0 3
0 6 3 2
0
end_operator
begin_operator
leave p0 fast0 n2 n1 n0
1
3 1
2
0 0 0 5
0 6 1 0
0
end_operator
begin_operator
leave p0 fast0 n2 n2 n1
1
3 1
2
0 0 0 5
0 6 2 1
0
end_operator
begin_operator
leave p0 fast0 n2 n3 n2
1
3 1
2
0 0 0 5
0 6 3 2
0
end_operator
begin_operator
leave p0 fast0 n4 n1 n0
1
3 2
2
0 0 0 7
0 6 1 0
0
end_operator
begin_operator
leave p0 fast0 n4 n2 n1
1
3 2
2
0 0 0 7
0 6 2 1
0
end_operator
begin_operator
leave p0 fast0 n4 n3 n2
1
3 2
2
0 0 0 7
0 6 3 2
0
end_operator
begin_operator
leave p0 fast0 n6 n1 n0
1
3 3
2
0 0 0 9
0 6 1 0
0
end_operator
begin_operator
leave p0 fast0 n6 n2 n1
1
3 3
2
0 0 0 9
0 6 2 1
0
end_operator
begin_operator
leave p0 fast0 n6 n3 n2
1
3 3
2
0 0 0 9
0 6 3 2
0
end_operator
begin_operator
leave p0 fast0 n8 n1 n0
1
3 4
2
0 0 0 11
0 6 1 0
0
end_operator
begin_operator
leave p0 fast0 n8 n2 n1
1
3 4
2
0 0 0 11
0 6 2 1
0
end_operator
begin_operator
leave p0 fast0 n8 n3 n2
1
3 4
2
0 0 0 11
0 6 3 2
0
end_operator
begin_operator
leave p0 slow0-0 n0 n1 n0
1
4 0
2
0 0 1 3
0 7 1 0
0
end_operator
begin_operator
leave p0 slow0-0 n0 n2 n1
1
4 0
2
0 0 1 3
0 7 2 1
0
end_operator
begin_operator
leave p0 slow0-0 n1 n1 n0
1
4 1
2
0 0 1 4
0 7 1 0
0
end_operator
begin_operator
leave p0 slow0-0 n1 n2 n1
1
4 1
2
0 0 1 4
0 7 2 1
0
end_operator
begin_operator
leave p0 slow0-0 n2 n1 n0
1
4 2
2
0 0 1 5
0 7 1 0
0
end_operator
begin_operator
leave p0 slow0-0 n2 n2 n1
1
4 2
2
0 0 1 5
0 7 2 1
0
end_operator
begin_operator
leave p0 slow0-0 n3 n1 n0
1
4 3
2
0 0 1 6
0 7 1 0
0
end_operator
begin_operator
leave p0 slow0-0 n3 n2 n1
1
4 3
2
0 0 1 6
0 7 2 1
0
end_operator
begin_operator
leave p0 slow0-0 n4 n1 n0
1
4 4
2
0 0 1 7
0 7 1 0
0
end_operator
begin_operator
leave p0 slow0-0 n4 n2 n1
1
4 4
2
0 0 1 7
0 7 2 1
0
end_operator
begin_operator
leave p0 slow1-0 n4 n1 n0
1
5 0
2
0 0 2 7
0 8 1 0
0
end_operator
begin_operator
leave p0 slow1-0 n4 n2 n1
1
5 0
2
0 0 2 7
0 8 2 1
0
end_operator
begin_operator
leave p0 slow1-0 n5 n1 n0
1
5 1
2
0 0 2 8
0 8 1 0
0
end_operator
begin_operator
leave p0 slow1-0 n5 n2 n1
1
5 1
2
0 0 2 8
0 8 2 1
0
end_operator
begin_operator
leave p0 slow1-0 n6 n1 n0
1
5 2
2
0 0 2 9
0 8 1 0
0
end_operator
begin_operator
leave p0 slow1-0 n6 n2 n1
1
5 2
2
0 0 2 9
0 8 2 1
0
end_operator
begin_operator
leave p0 slow1-0 n7 n1 n0
1
5 3
2
0 0 2 10
0 8 1 0
0
end_operator
begin_operator
leave p0 slow1-0 n7 n2 n1
1
5 3
2
0 0 2 10
0 8 2 1
0
end_operator
begin_operator
leave p0 slow1-0 n8 n1 n0
1
5 4
2
0 0 2 11
0 8 1 0
0
end_operator
begin_operator
leave p0 slow1-0 n8 n2 n1
1
5 4
2
0 0 2 11
0 8 2 1
0
end_operator
begin_operator
leave p1 fast0 n0 n1 n0
1
3 0
2
0 1 0 3
0 6 1 0
0
end_operator
begin_operator
leave p1 fast0 n0 n2 n1
1
3 0
2
0 1 0 3
0 6 2 1
0
end_operator
begin_operator
leave p1 fast0 n0 n3 n2
1
3 0
2
0 1 0 3
0 6 3 2
0
end_operator
begin_operator
leave p1 fast0 n2 n1 n0
1
3 1
2
0 1 0 5
0 6 1 0
0
end_operator
begin_operator
leave p1 fast0 n2 n2 n1
1
3 1
2
0 1 0 5
0 6 2 1
0
end_operator
begin_operator
leave p1 fast0 n2 n3 n2
1
3 1
2
0 1 0 5
0 6 3 2
0
end_operator
begin_operator
leave p1 fast0 n4 n1 n0
1
3 2
2
0 1 0 7
0 6 1 0
0
end_operator
begin_operator
leave p1 fast0 n4 n2 n1
1
3 2
2
0 1 0 7
0 6 2 1
0
end_operator
begin_operator
leave p1 fast0 n4 n3 n2
1
3 2
2
0 1 0 7
0 6 3 2
0
end_operator
begin_operator
leave p1 fast0 n6 n1 n0
1
3 3
2
0 1 0 9
0 6 1 0
0
end_operator
begin_operator
leave p1 fast0 n6 n2 n1
1
3 3
2
0 1 0 9
0 6 2 1
0
end_operator
begin_operator
leave p1 fast0 n6 n3 n2
1
3 3
2
0 1 0 9
0 6 3 2
0
end_operator
begin_operator
leave p1 fast0 n8 n1 n0
1
3 4
2
0 1 0 11
0 6 1 0
0
end_operator
begin_operator
leave p1 fast0 n8 n2 n1
1
3 4
2
0 1 0 11
0 6 2 1
0
end_operator
begin_operator
leave p1 fast0 n8 n3 n2
1
3 4
2
0 1 0 11
0 6 3 2
0
end_operator
begin_operator
leave p1 slow0-0 n0 n1 n0
1
4 0
2
0 1 1 3
0 7 1 0
0
end_operator
begin_operator
leave p1 slow0-0 n0 n2 n1
1
4 0
2
0 1 1 3
0 7 2 1
0
end_operator
begin_operator
leave p1 slow0-0 n1 n1 n0
1
4 1
2
0 1 1 4
0 7 1 0
0
end_operator
begin_operator
leave p1 slow0-0 n1 n2 n1
1
4 1
2
0 1 1 4
0 7 2 1
0
end_operator
begin_operator
leave p1 slow0-0 n2 n1 n0
1
4 2
2
0 1 1 5
0 7 1 0
0
end_operator
begin_operator
leave p1 slow0-0 n2 n2 n1
1
4 2
2
0 1 1 5
0 7 2 1
0
end_operator
begin_operator
leave p1 slow0-0 n3 n1 n0
1
4 3
2
0 1 1 6
0 7 1 0
0
end_operator
begin_operator
leave p1 slow0-0 n3 n2 n1
1
4 3
2
0 1 1 6
0 7 2 1
0
end_operator
begin_operator
leave p1 slow0-0 n4 n1 n0
1
4 4
2
0 1 1 7
0 7 1 0
0
end_operator
begin_operator
leave p1 slow0-0 n4 n2 n1
1
4 4
2
0 1 1 7
0 7 2 1
0
end_operator
begin_operator
leave p1 slow1-0 n4 n1 n0
1
5 0
2
0 1 2 7
0 8 1 0
0
end_operator
begin_operator
leave p1 slow1-0 n4 n2 n1
1
5 0
2
0 1 2 7
0 8 2 1
0
end_operator
begin_operator
leave p1 slow1-0 n5 n1 n0
1
5 1
2
0 1 2 8
0 8 1 0
0
end_operator
begin_operator
leave p1 slow1-0 n5 n2 n1
1
5 1
2
0 1 2 8
0 8 2 1
0
end_operator
begin_operator
leave p1 slow1-0 n6 n1 n0
1
5 2
2
0 1 2 9
0 8 1 0
0
end_operator
begin_operator
leave p1 slow1-0 n6 n2 n1
1
5 2
2
0 1 2 9
0 8 2 1
0
end_operator
begin_operator
leave p1 slow1-0 n7 n1 n0
1
5 3
2
0 1 2 10
0 8 1 0
0
end_operator
begin_operator
leave p1 slow1-0 n7 n2 n1
1
5 3
2
0 1 2 10
0 8 2 1
0
end_operator
begin_operator
leave p1 slow1-0 n8 n1 n0
1
5 4
2
0 1 2 11
0 8 1 0
0
end_operator
begin_operator
leave p1 slow1-0 n8 n2 n1
1
5 4
2
0 1 2 11
0 8 2 1
0
end_operator
begin_operator
leave p2 fast0 n0 n1 n0
1
3 0
2
0 2 0 3
0 6 1 0
0
end_operator
begin_operator
leave p2 fast0 n0 n2 n1
1
3 0
2
0 2 0 3
0 6 2 1
0
end_operator
begin_operator
leave p2 fast0 n0 n3 n2
1
3 0
2
0 2 0 3
0 6 3 2
0
end_operator
begin_operator
leave p2 fast0 n2 n1 n0
1
3 1
2
0 2 0 5
0 6 1 0
0
end_operator
begin_operator
leave p2 fast0 n2 n2 n1
1
3 1
2
0 2 0 5
0 6 2 1
0
end_operator
begin_operator
leave p2 fast0 n2 n3 n2
1
3 1
2
0 2 0 5
0 6 3 2
0
end_operator
begin_operator
leave p2 fast0 n4 n1 n0
1
3 2
2
0 2 0 7
0 6 1 0
0
end_operator
begin_operator
leave p2 fast0 n4 n2 n1
1
3 2
2
0 2 0 7
0 6 2 1
0
end_operator
begin_operator
leave p2 fast0 n4 n3 n2
1
3 2
2
0 2 0 7
0 6 3 2
0
end_operator
begin_operator
leave p2 fast0 n6 n1 n0
1
3 3
2
0 2 0 9
0 6 1 0
0
end_operator
begin_operator
leave p2 fast0 n6 n2 n1
1
3 3
2
0 2 0 9
0 6 2 1
0
end_operator
begin_operator
leave p2 fast0 n6 n3 n2
1
3 3
2
0 2 0 9
0 6 3 2
0
end_operator
begin_operator
leave p2 fast0 n8 n1 n0
1
3 4
2
0 2 0 11
0 6 1 0
0
end_operator
begin_operator
leave p2 fast0 n8 n2 n1
1
3 4
2
0 2 0 11
0 6 2 1
0
end_operator
begin_operator
leave p2 fast0 n8 n3 n2
1
3 4
2
0 2 0 11
0 6 3 2
0
end_operator
begin_operator
leave p2 slow0-0 n0 n1 n0
1
4 0
2
0 2 1 3
0 7 1 0
0
end_operator
begin_operator
leave p2 slow0-0 n0 n2 n1
1
4 0
2
0 2 1 3
0 7 2 1
0
end_operator
begin_operator
leave p2 slow0-0 n1 n1 n0
1
4 1
2
0 2 1 4
0 7 1 0
0
end_operator
begin_operator
leave p2 slow0-0 n1 n2 n1
1
4 1
2
0 2 1 4
0 7 2 1
0
end_operator
begin_operator
leave p2 slow0-0 n2 n1 n0
1
4 2
2
0 2 1 5
0 7 1 0
0
end_operator
begin_operator
leave p2 slow0-0 n2 n2 n1
1
4 2
2
0 2 1 5
0 7 2 1
0
end_operator
begin_operator
leave p2 slow0-0 n3 n1 n0
1
4 3
2
0 2 1 6
0 7 1 0
0
end_operator
begin_operator
leave p2 slow0-0 n3 n2 n1
1
4 3
2
0 2 1 6
0 7 2 1
0
end_operator
begin_operator
leave p2 slow0-0 n4 n1 n0
1
4 4
2
0 2 1 7
0 7 1 0
0
end_operator
begin_operator
leave p2 slow0-0 n4 n2 n1
1
4 4
2
0 2 1 7
0 7 2 1
0
end_operator
begin_operator
leave p2 slow1-0 n4 n1 n0
1
5 0
2
0 2 2 7
0 8 1 0
0
end_operator
begin_operator
leave p2 slow1-0 n4 n2 n1
1
5 0
2
0 2 2 7
0 8 2 1
0
end_operator
begin_operator
leave p2 slow1-0 n5 n1 n0
1
5 1
2
0 2 2 8
0 8 1 0
0
end_operator
begin_operator
leave p2 slow1-0 n5 n2 n1
1
5 1
2
0 2 2 8
0 8 2 1
0
end_operator
begin_operator
leave p2 slow1-0 n6 n1 n0
1
5 2
2
0 2 2 9
0 8 1 0
0
end_operator
begin_operator
leave p2 slow1-0 n6 n2 n1
1
5 2
2
0 2 2 9
0 8 2 1
0
end_operator
begin_operator
leave p2 slow1-0 n7 n1 n0
1
5 3
2
0 2 2 10
0 8 1 0
0
end_operator
begin_operator
leave p2 slow1-0 n7 n2 n1
1
5 3
2
0 2 2 10
0 8 2 1
0
end_operator
begin_operator
leave p2 slow1-0 n8 n1 n0
1
5 4
2
0 2 2 11
0 8 1 0
0
end_operator
begin_operator
leave p2 slow1-0 n8 n2 n1
1
5 4
2
0 2 2 11
0 8 2 1
0
end_operator
begin_operator
move-down-fast fast0 n2 n0
0
1
0 3 1 0
7
end_operator
begin_operator
move-down-fast fast0 n4 n0
0
1
0 3 2 0
13
end_operator
begin_operator
move-down-fast fast0 n4 n2
0
1
0 3 2 1
7
end_operator
begin_operator
move-down-fast fast0 n6 n0
0
1
0 3 3 0
19
end_operator
begin_operator
move-down-fast fast0 n6 n2
0
1
0 3 3 1
13
end_operator
begin_operator
move-down-fast fast0 n6 n4
0
1
0 3 3 2
7
end_operator
begin_operator
move-down-fast fast0 n8 n0
0
1
0 3 4 0
25
end_operator
begin_operator
move-down-fast fast0 n8 n2
0
1
0 3 4 1
19
end_operator
begin_operator
move-down-fast fast0 n8 n4
0
1
0 3 4 2
13
end_operator
begin_operator
move-down-fast fast0 n8 n6
0
1
0 3 4 3
7
end_operator
begin_operator
move-down-slow slow0-0 n1 n0
0
1
0 4 1 0
6
end_operator
begin_operator
move-down-slow slow0-0 n2 n0
0
1
0 4 2 0
7
end_operator
begin_operator
move-down-slow slow0-0 n2 n1
0
1
0 4 2 1
6
end_operator
begin_operator
move-down-slow slow0-0 n3 n0
0
1
0 4 3 0
8
end_operator
begin_operator
move-down-slow slow0-0 n3 n1
0
1
0 4 3 1
7
end_operator
begin_operator
move-down-slow slow0-0 n3 n2
0
1
0 4 3 2
6
end_operator
begin_operator
move-down-slow slow0-0 n4 n0
0
1
0 4 4 0
9
end_operator
begin_operator
move-down-slow slow0-0 n4 n1
0
1
0 4 4 1
8
end_operator
begin_operator
move-down-slow slow0-0 n4 n2
0
1
0 4 4 2
7
end_operator
begin_operator
move-down-slow slow0-0 n4 n3
0
1
0 4 4 3
6
end_operator
begin_operator
move-down-slow slow1-0 n5 n4
0
1
0 5 1 0
6
end_operator
begin_operator
move-down-slow slow1-0 n6 n4
0
1
0 5 2 0
7
end_operator
begin_operator
move-down-slow slow1-0 n6 n5
0
1
0 5 2 1
6
end_operator
begin_operator
move-down-slow slow1-0 n7 n4
0
1
0 5 3 0
8
end_operator
begin_operator
move-down-slow slow1-0 n7 n5
0
1
0 5 3 1
7
end_operator
begin_operator
move-down-slow slow1-0 n7 n6
0
1
0 5 3 2
6
end_operator
begin_operator
move-down-slow slow1-0 n8 n4
0
1
0 5 4 0
9
end_operator
begin_operator
move-down-slow slow1-0 n8 n5
0
1
0 5 4 1
8
end_operator
begin_operator
move-down-slow slow1-0 n8 n6
0
1
0 5 4 2
7
end_operator
begin_operator
move-down-slow slow1-0 n8 n7
0
1
0 5 4 3
6
end_operator
begin_operator
move-up-fast fast0 n0 n2
0
1
0 3 0 1
7
end_operator
begin_operator
move-up-fast fast0 n0 n4
0
1
0 3 0 2
13
end_operator
begin_operator
move-up-fast fast0 n0 n6
0
1
0 3 0 3
19
end_operator
begin_operator
move-up-fast fast0 n0 n8
0
1
0 3 0 4
25
end_operator
begin_operator
move-up-fast fast0 n2 n4
0
1
0 3 1 2
7
end_operator
begin_operator
move-up-fast fast0 n2 n6
0
1
0 3 1 3
13
end_operator
begin_operator
move-up-fast fast0 n2 n8
0
1
0 3 1 4
19
end_operator
begin_operator
move-up-fast fast0 n4 n6
0
1
0 3 2 3
7
end_operator
begin_operator
move-up-fast fast0 n4 n8
0
1
0 3 2 4
13
end_operator
begin_operator
move-up-fast fast0 n6 n8
0
1
0 3 3 4
7
end_operator
begin_operator
move-up-slow slow0-0 n0 n1
0
1
0 4 0 1
6
end_operator
begin_operator
move-up-slow slow0-0 n0 n2
0
1
0 4 0 2
7
end_operator
begin_operator
move-up-slow slow0-0 n0 n3
0
1
0 4 0 3
8
end_operator
begin_operator
move-up-slow slow0-0 n0 n4
0
1
0 4 0 4
9
end_operator
begin_operator
move-up-slow slow0-0 n1 n2
0
1
0 4 1 2
6
end_operator
begin_operator
move-up-slow slow0-0 n1 n3
0
1
0 4 1 3
7
end_operator
begin_operator
move-up-slow slow0-0 n1 n4
0
1
0 4 1 4
8
end_operator
begin_operator
move-up-slow slow0-0 n2 n3
0
1
0 4 2 3
6
end_operator
begin_operator
move-up-slow slow0-0 n2 n4
0
1
0 4 2 4
7
end_operator
begin_operator
move-up-slow slow0-0 n3 n4
0
1
0 4 3 4
6
end_operator
begin_operator
move-up-slow slow1-0 n4 n5
0
1
0 5 0 1
6
end_operator
begin_operator
move-up-slow slow1-0 n4 n6
0
1
0 5 0 2
7
end_operator
begin_operator
move-up-slow slow1-0 n4 n7
0
1
0 5 0 3
8
end_operator
begin_operator
move-up-slow slow1-0 n4 n8
0
1
0 5 0 4
9
end_operator
begin_operator
move-up-slow slow1-0 n5 n6
0
1
0 5 1 2
6
end_operator
begin_operator
move-up-slow slow1-0 n5 n7
0
1
0 5 1 3
7
end_operator
begin_operator
move-up-slow slow1-0 n5 n8
0
1
0 5 1 4
8
end_operator
begin_operator
move-up-slow slow1-0 n6 n7
0
1
0 5 2 3
6
end_operator
begin_operator
move-up-slow slow1-0 n6 n8
0
1
0 5 2 4
7
end_operator
begin_operator
move-up-slow slow1-0 n7 n8
0
1
0 5 3 4
6
end_operator
begin_operator
tnf-forget-3-0
0
1
0 3 0 5
0
end_operator
begin_operator
tnf-forget-3-1
0
1
0 3 1 5
0
end_operator
begin_operator
tnf-forget-3-2
0
1
0 3 2 5
0
end_operator
begin_operator
tnf-forget-3-3
0
1
0 3 3 5
0
end_operator
begin_operator
tnf-forget-3-4
0
1
0 3 4 5
0
end_operator
begin_operator
tnf-forget-4-0
0
1
0 4 0 5
0
end_operator
begin_operator
tnf-forget-4-1
0
1
0 4 1 5
0
end_operator
begin_operator
tnf-forget-4-2
0
1
0 4 2 5
0
end_operator
begin_operator
tnf-forget-4-3
0
1
0 4 3 5
0
end_operator
begin_operator
tnf-forget-4-4
0
1
0 4 4 5
0
end_operator
begin_operator
tnf-forget-5-0
0
1
0 5 0 5
0
end_operator
begin_operator
tnf-forget-5-1
0
1
0 5 1 5
0
end_operator
begin_operator
tnf-forget-5-2
0
1
0 5 2 5
0
end_operator
begin_operator
tnf-forget-5-3
0
1
0 5 3 5
0
end_operator
begin_operator
tnf-forget-5-4
0
1
0 5 4 5
0
end_operator
begin_operator
tnf-forget-6-0
0
1
0 6 0 4
0
end_operator
begin_operator
tnf-forget-6-1
0
1
0 6 1 4
0
end_operator
begin_operator
tnf-forget-6-2
0
1
0 6 2 4
0
end_operator
begin_operator
tnf-forget-6-3
0
1
0 6 3 4
0
end_operator
begin_operator
tnf-forget-7-0
0
1
0 7 0 3
0
end_operator
begin_operator
tnf-forget-7-1
0
1
0 7 1 3
0
end_operator
begin_operator
tnf-forget-7-2
0
1
0 7 2 3
0
end_operator
begin_operator
tnf-forget-8-0
0
1
0 8 0 3
0
end_operator
begin_operator
tnf-forget-8-1
0
1
0 8 1 3
0
end_operator
begin_operator
tnf-forget-8-2
0
1
0 8 2 3
0
end_operator
0
