Reduced 60 -> 50
Domain: rover
Problem: roverprob7182
Require: ff
Type[8]:
    [0]: object, parent: -1
    [1]: rover, parent: 0
    [2]: waypoint, parent: 0
    [3]: store, parent: 0
    [4]: camera, parent: 0
    [5]: mode, parent: 0
    [6]: lander, parent: 0
    [7]: objective, parent: 0
Obj-by-Type:
    [0]: 0 1 2 3 4 5 6 7 8 9 10 11 12 13 14 15 16 17 18 19 20 21 22 23 24 25 26 27 28 29 30 31 32 33 34 35 36 37 38 39 40 41 42 43 44 45 46 47 48 49
    [1]: 4 5 6 7 8 9 10 11
    [2]: 20 21 22 23 24 25 26 27 28 29 30 31 32 33 34
    [3]: 12 13 14 15 16 17 18 19
    [4]: 35 36 37 38 39 40 41
    [5]: 1 2 3
    [6]: 0
    [7]: 42 43 44 45 46 47 48 49
Obj[50]:
    [0]: general, type: 6, is-constant: 0, is-private: 0, owner: -1, is-agent: 0
    [1]: colour, type: 5, is-constant: 0, is-private: 0, owner: -1, is-agent: 0
    [2]: high_res, type: 5, is-constant: 0, is-private: 0, owner: -1, is-agent: 0
    [3]: low_res, type: 5, is-constant: 0, is-private: 0, owner: -1, is-agent: 0
    [4]: rover0, type: 1, is-constant: 0, is-private: 0, owner: -1, is-agent: 0
    [5]: rover1, type: 1, is-constant: 0, is-private: 0, owner: -1, is-agent: 0
    [6]: rover2, type: 1, is-constant: 0, is-private: 0, owner: -1, is-agent: 0
    [7]: rover3, type: 1, is-constant: 0, is-private: 0, owner: -1, is-agent: 0
    [8]: rover4, type: 1, is-constant: 0, is-private: 0, owner: -1, is-agent: 0
    [9]: rover5, type: 1, is-constant: 0, is-private: 0, owner: -1, is-agent: 0
    [10]: rover6, type: 1, is-constant: 0, is-private: 0, owner: -1, is-agent: 0
    [11]: rover7, type: 1, is-constant: 0, is-private: 0, owner: -1, is-agent: 0
    [12]: rover0store, type: 3, is-constant: 0, is-private: 0, owner: -1, is-agent: 0
    [13]: rover1store, type: 3, is-constant: 0, is-private: 0, owner: -1, is-agent: 0
    [14]: rover2store, type: 3, is-constant: 0, is-private: 0, owner: -1, is-agent: 0
    [15]: rover3store, type: 3, is-constant: 0, is-private: 0, owner: -1, is-agent: 0
    [16]: rover4store, type: 3, is-constant: 0, is-private: 0, owner: -1, is-agent: 0
    [17]: rover5store, type: 3, is-constant: 0, is-private: 0, owner: -1, is-agent: 0
    [18]: rover6store, type: 3, is-constant: 0, is-private: 0, owner: -1, is-agent: 0
    [19]: rover7store, type: 3, is-constant: 0, is-private: 0, owner: -1, is-agent: 0
    [20]: waypoint0, type: 2, is-constant: 0, is-private: 0, owner: -1, is-agent: 0
    [21]: waypoint1, type: 2, is-constant: 0, is-private: 0, owner: -1, is-agent: 0
    [22]: waypoint2, type: 2, is-constant: 0, is-private: 0, owner: -1, is-agent: 0
    [23]: waypoint3, type: 2, is-constant: 0, is-private: 0, owner: -1, is-agent: 0
    [24]: waypoint4, type: 2, is-constant: 0, is-private: 0, owner: -1, is-agent: 0
    [25]: waypoint5, type: 2, is-constant: 0, is-private: 0, owner: -1, is-agent: 0
    [26]: waypoint6, type: 2, is-constant: 0, is-private: 0, owner: -1, is-agent: 0
    [27]: waypoint7, type: 2, is-constant: 0, is-private: 0, owner: -1, is-agent: 0
    [28]: waypoint8, type: 2, is-constant: 0, is-private: 0, owner: -1, is-agent: 0
    [29]: waypoint11, type: 2, is-constant: 0, is-private: 0, owner: -1, is-agent: 0
    [30]: waypoint12, type: 2, is-constant: 0, is-private: 0, owner: -1, is-agent: 0
    [31]: waypoint14, type: 2, is-constant: 0, is-private: 0, owner: -1, is-agent: 0
    [32]: waypoint16, type: 2, is-constant: 0, is-private: 0, owner: -1, is-agent: 0
    [33]: waypoint17, type: 2, is-constant: 0, is-private: 0, owner: -1, is-agent: 0
    [34]: waypoint23, type: 2, is-constant: 0, is-private: 0, owner: -1, is-agent: 0
    [35]: camera0, type: 4, is-constant: 0, is-private: 0, owner: -1, is-agent: 0
    [36]: camera1, type: 4, is-constant: 0, is-private: 0, owner: -1, is-agent: 0
    [37]: camera2, type: 4, is-constant: 0, is-private: 0, owner: -1, is-agent: 0
    [38]: camera3, type: 4, is-constant: 0, is-private: 0, owner: -1, is-agent: 0
    [39]: camera4, type: 4, is-constant: 0, is-private: 0, owner: -1, is-agent: 0
    [40]: camera5, type: 4, is-constant: 0, is-private: 0, owner: -1, is-agent: 0
    [41]: camera6, type: 4, is-constant: 0, is-private: 0, owner: -1, is-agent: 0
    [42]: objective0, type: 7, is-constant: 0, is-private: 0, owner: -1, is-agent: 0
    [43]: objective1, type: 7, is-constant: 0, is-private: 0, owner: -1, is-agent: 0
    [44]: objective2, type: 7, is-constant: 0, is-private: 0, owner: -1, is-agent: 0
    [45]: objective3, type: 7, is-constant: 0, is-private: 0, owner: -1, is-agent: 0
    [46]: objective4, type: 7, is-constant: 0, is-private: 0, owner: -1, is-agent: 0
    [47]: objective5, type: 7, is-constant: 0, is-private: 0, owner: -1, is-agent: 0
    [48]: objective6, type: 7, is-constant: 0, is-private: 0, owner: -1, is-agent: 0
    [49]: objective7, type: 7, is-constant: 0, is-private: 0, owner: -1, is-agent: 0
Predicate[26]:
    =: 0 0 :: is-private: 0, owner-param: -1, read: 0, write: 0
    at: 1 2 :: is-private: 0, owner-param: -1, read: 1, write: 1
    at_lander: 6 2 :: is-private: 0, owner-param: -1, read: 1, write: 0
    can_traverse: 1 2 2 :: is-private: 0, owner-param: -1, read: 1, write: 0
    equipped_for_soil_analysis: 1 :: is-private: 0, owner-param: -1, read: 1, write: 0
    equipped_for_rock_analysis: 1 :: is-private: 0, owner-param: -1, read: 1, write: 0
    equipped_for_imaging: 1 :: is-private: 0, owner-param: -1, read: 1, write: 0
    empty: 3 :: is-private: 0, owner-param: -1, read: 1, write: 1
    have_rock_analysis: 1 2 :: is-private: 0, owner-param: -1, read: 1, write: 1
    have_soil_analysis: 1 2 :: is-private: 0, owner-param: -1, read: 1, write: 1
    full: 3 :: is-private: 0, owner-param: -1, read: 1, write: 1
    calibrated: 4 1 :: is-private: 0, owner-param: -1, read: 1, write: 1
    supports: 4 5 :: is-private: 0, owner-param: -1, read: 1, write: 0
    available: 1 :: is-private: 0, owner-param: -1, read: 1, write: 1
    visible: 2 2 :: is-private: 0, owner-param: -1, read: 1, write: 0
    have_image: 1 7 5 :: is-private: 0, owner-param: -1, read: 1, write: 1
    communicated_soil_data: 2 :: is-private: 0, owner-param: -1, read: 0, write: 1
    communicated_rock_data: 2 :: is-private: 0, owner-param: -1, read: 0, write: 1
    communicated_image_data: 7 5 :: is-private: 0, owner-param: -1, read: 0, write: 1
    at_soil_sample: 2 :: is-private: 0, owner-param: -1, read: 1, write: 1
    at_rock_sample: 2 :: is-private: 0, owner-param: -1, read: 1, write: 1
    visible_from: 7 2 :: is-private: 0, owner-param: -1, read: 1, write: 0
    store_of: 3 1 :: is-private: 0, owner-param: -1, read: 1, write: 0
    calibration_target: 4 7 :: is-private: 0, owner-param: -1, read: 1, write: 0
    on_board: 4 1 :: is-private: 0, owner-param: -1, read: 1, write: 0
    channel_free: 6 :: is-private: 0, owner-param: -1, read: 1, write: 1
Function[0]:
Action[9]:
    navigate: ?x:1 ?y:2 ?z:2
        pre: (and (R:can_traverse ?x ?y ?z) (RW:available ?x) (RW:at ?x ?y) (R:visible ?y ?z))
        eff: (and (RW:at ?x ?z))
    sample_soil: ?x:1 ?s:3 ?p:2
        pre: (and (RW:at ?x ?p) (RW:at_soil_sample ?p) (R:equipped_for_soil_analysis ?x) (R:store_of ?s ?x) (RW:empty ?s))
        eff: (and (N:RW:empty ?s) (RW:full ?s) (RW:have_soil_analysis ?x ?p))
    sample_rock: ?x:1 ?s:3 ?p:2
        pre: (and (RW:at ?x ?p) (RW:at_rock_sample ?p) (R:equipped_for_rock_analysis ?x) (R:store_of ?s ?x) (RW:empty ?s))
        eff: (and (N:RW:empty ?s) (RW:full ?s) (RW:have_rock_analysis ?x ?p))
    drop: ?x:1 ?y:3
        pre: (and (R:store_of ?y ?x) (RW:full ?y))
        eff: (and (N:RW:full ?y) (RW:empty ?y))
    calibrate: ?r:1 ?i:4 ?t:7 ?w:2
        pre: (and (R:equipped_for_imaging ?r) (R:calibration_target ?i ?t) (RW:at ?r ?w) (R:visible_from ?t ?w) (R:on_board ?i ?r))
        eff: (and (RW:calibrated ?i ?r))
    take_image: ?r:1 ?p:2 ?o:7 ?i:4 ?m:5
        pre: (and (RW:calibrated ?i ?r) (R:on_board ?i ?r) (R:equipped_for_imaging ?r) (R:supports ?i ?m) (R:visible_from ?o ?p) (RW:at ?r ?p))
        eff: (and (RW:have_image ?r ?o ?m) (N:RW:calibrated ?i ?r))
    communicate_soil_data: ?r:1 ?l:6 ?p:2 ?x:2 ?y:2
        pre: (and (RW:at ?r ?x) (R:at_lander ?l ?y) (RW:have_soil_analysis ?r ?p) (R:visible ?x ?y) (RW:available ?r) (RW:channel_free ?l))
        eff: (and (RW:channel_free ?l) (W:communicated_soil_data ?p) (RW:available ?r))
    communicate_rock_data: ?r:1 ?l:6 ?p:2 ?x:2 ?y:2
        pre: (and (RW:at ?r ?x) (R:at_lander ?l ?y) (RW:have_rock_analysis ?r ?p) (R:visible ?x ?y) (RW:available ?r) (RW:channel_free ?l))
        eff: (and (RW:channel_free ?l) (W:communicated_rock_data ?p) (RW:available ?r))
    communicate_image_data: ?r:1 ?l:6 ?o:7 ?m:5 ?x:2 ?y:2
        pre: (and (RW:at ?r ?x) (R:at_lander ?l ?y) (RW:have_image ?r ?o ?m) (R:visible ?x ?y) (RW:available ?r) (RW:channel_free ?l))
        eff: (and (RW:channel_free ?l) (W:communicated_image_data ?o ?m) (RW:available ?r))
Init[817]:
  S:(visible waypoint0 waypoint5)
  S:(visible waypoint5 waypoint0)
  S:(visible waypoint0 waypoint3)
  S:(visible waypoint3 waypoint0)
  S:(visible waypoint0 waypoint23)
  S:(visible waypoint23 waypoint0)
  S:(visible waypoint1 waypoint23)
  S:(visible waypoint23 waypoint1)
  S:(visible waypoint2 waypoint1)
  S:(visible waypoint1 waypoint2)
  S:(visible waypoint2 waypoint5)
  S:(visible waypoint5 waypoint2)
  S:(visible waypoint2 waypoint6)
  S:(visible waypoint6 waypoint2)
  S:(visible waypoint2 waypoint14)
  S:(visible waypoint14 waypoint2)
  S:(visible waypoint2 waypoint16)
  S:(visible waypoint16 waypoint2)
  S:(visible waypoint2 waypoint23)
  S:(visible waypoint23 waypoint2)
  S:(visible waypoint3 waypoint1)
  S:(visible waypoint1 waypoint3)
  S:(visible waypoint3 waypoint12)
  S:(visible waypoint12 waypoint3)
  S:(visible waypoint3 waypoint3)
  S:(visible waypoint3 waypoint3)
  S:(visible waypoint3 waypoint17)
  S:(visible waypoint17 waypoint3)
  S:(visible waypoint3 waypoint12)
  S:(visible waypoint12 waypoint3)
  S:(visible waypoint4 waypoint1)
  S:(visible waypoint1 waypoint4)
  S:(visible waypoint4 waypoint6)
  S:(visible waypoint6 waypoint4)
  S:(visible waypoint4 waypoint12)
  S:(visible waypoint12 waypoint4)
  S:(visible waypoint4 waypoint16)
  S:(visible waypoint16 waypoint4)
  S:(visible waypoint4 waypoint11)
  S:(visible waypoint11 waypoint4)
  S:(visible waypoint4 waypoint12)
  S:(visible waypoint12 waypoint4)
  S:(visible waypoint5 waypoint1)
  S:(visible waypoint1 waypoint5)
  S:(visible waypoint5 waypoint4)
  S:(visible waypoint4 waypoint5)
  S:(visible waypoint5 waypoint8)
  S:(visible waypoint8 waypoint5)
  S:(visible waypoint5 waypoint16)
  S:(visible waypoint16 waypoint5)
  S:(visible waypoint6 waypoint5)
  S:(visible waypoint5 waypoint6)
  S:(visible waypoint6 waypoint8)
  S:(visible waypoint8 waypoint6)
  S:(visible waypoint6 waypoint2)
  S:(visible waypoint2 waypoint6)
  S:(visible waypoint6 waypoint11)
  S:(visible waypoint11 waypoint6)
  S:(visible waypoint6 waypoint11)
  S:(visible waypoint11 waypoint6)
  S:(visible waypoint7 waypoint0)
  S:(visible waypoint0 waypoint7)
  S:(visible waypoint7 waypoint4)
  S:(visible waypoint4 waypoint7)
  S:(visible waypoint7 waypoint8)
  S:(visible waypoint8 waypoint7)
  S:(visible waypoint7 waypoint16)
  S:(visible waypoint16 waypoint7)
  S:(visible waypoint7 waypoint17)
  S:(visible waypoint17 waypoint7)
  S:(visible waypoint8 waypoint4)
  S:(visible waypoint4 waypoint8)
  S:(visible waypoint8 waypoint16)
  S:(visible waypoint16 waypoint8)
  S:(visible waypoint8 waypoint17)
  S:(visible waypoint17 waypoint8)
  S:(visible waypoint2 waypoint2)
  S:(visible waypoint2 waypoint2)
  S:(visible waypoint2 waypoint5)
  S:(visible waypoint5 waypoint2)
  S:(visible waypoint2 waypoint7)
  S:(visible waypoint7 waypoint2)
  S:(visible waypoint2 waypoint14)
  S:(visible waypoint14 waypoint2)
  S:(visible waypoint2 waypoint17)
  S:(visible waypoint17 waypoint2)
  S:(visible waypoint3 waypoint11)
  S:(visible waypoint11 waypoint3)
  S:(visible waypoint3 waypoint3)
  S:(visible waypoint3 waypoint3)
  S:(visible waypoint11 waypoint8)
  S:(visible waypoint8 waypoint11)
  S:(visible waypoint11 waypoint11)
  S:(visible waypoint11 waypoint11)
  S:(visible waypoint12 waypoint3)
  S:(visible waypoint3 waypoint12)
  S:(visible waypoint12 waypoint6)
  S:(visible waypoint6 waypoint12)
  S:(visible waypoint12 waypoint11)
  S:(visible waypoint11 waypoint12)
  S:(visible waypoint12 waypoint12)
  S:(visible waypoint12 waypoint12)
  S:(visible waypoint12 waypoint11)
  S:(visible waypoint11 waypoint12)
  S:(visible waypoint12 waypoint11)
  S:(visible waypoint11 waypoint12)
  S:(visible waypoint12 waypoint23)
  S:(visible waypoint23 waypoint12)
  S:(visible waypoint12 waypoint23)
  S:(visible waypoint23 waypoint12)
  S:(visible waypoint12 waypoint14)
  S:(visible waypoint14 waypoint12)
  S:(visible waypoint12 waypoint3)
  S:(visible waypoint3 waypoint12)
  S:(visible waypoint12 waypoint12)
  S:(visible waypoint12 waypoint12)
  S:(visible waypoint14 waypoint0)
  S:(visible waypoint0 waypoint14)
  S:(visible waypoint14 waypoint1)
  S:(visible waypoint1 waypoint14)
  S:(visible waypoint14 waypoint5)
  S:(visible waypoint5 waypoint14)
  S:(visible waypoint14 waypoint6)
  S:(visible waypoint6 waypoint14)
  S:(visible waypoint14 waypoint8)
  S:(visible waypoint8 waypoint14)
  S:(visible waypoint14 waypoint12)
  S:(visible waypoint12 waypoint14)
  S:(visible waypoint14 waypoint12)
  S:(visible waypoint12 waypoint14)
  S:(visible waypoint3 waypoint1)
  S:(visible waypoint1 waypoint3)
  S:(visible waypoint3 waypoint6)
  S:(visible waypoint6 waypoint3)
  S:(visible waypoint3 waypoint12)
  S:(visible waypoint12 waypoint3)
  S:(visible waypoint3 waypoint16)
  S:(visible waypoint16 waypoint3)
  S:(visible waypoint16 waypoint3)
  S:(visible waypoint3 waypoint16)
  S:(visible waypoint16 waypoint12)
  S:(visible waypoint12 waypoint16)
  S:(visible waypoint17 waypoint11)
  S:(visible waypoint11 waypoint17)
  S:(visible waypoint17 waypoint14)
  S:(visible waypoint14 waypoint17)
  S:(visible waypoint17 waypoint3)
  S:(visible waypoint3 waypoint17)
  S:(visible waypoint17 waypoint17)
  S:(visible waypoint17 waypoint17)
  S:(visible waypoint17 waypoint12)
  S:(visible waypoint12 waypoint17)
  S:(visible waypoint17 waypoint0)
  S:(visible waypoint0 waypoint17)
  S:(visible waypoint17 waypoint1)
  S:(visible waypoint1 waypoint17)
  S:(visible waypoint17 waypoint6)
  S:(visible waypoint6 waypoint17)
  S:(visible waypoint17 waypoint8)
  S:(visible waypoint8 waypoint17)
  S:(visible waypoint17 waypoint2)
  S:(visible waypoint2 waypoint17)
  S:(visible waypoint17 waypoint3)
  S:(visible waypoint3 waypoint17)
  S:(visible waypoint11 waypoint6)
  S:(visible waypoint6 waypoint11)
  S:(visible waypoint11 waypoint11)
  S:(visible waypoint11 waypoint11)
  S:(visible waypoint12 waypoint11)
  S:(visible waypoint11 waypoint12)
  S:(visible waypoint11 waypoint4)
  S:(visible waypoint4 waypoint11)
  S:(visible waypoint11 waypoint5)
  S:(visible waypoint5 waypoint11)
  S:(visible waypoint11 waypoint8)
  S:(visible waypoint8 waypoint11)
  S:(visible waypoint11 waypoint11)
  S:(visible waypoint11 waypoint11)
  S:(visible waypoint11 waypoint12)
  S:(visible waypoint12 waypoint11)
  S:(visible waypoint11 waypoint17)
  S:(visible waypoint17 waypoint11)
  S:(visible waypoint11 waypoint17)
  S:(visible waypoint17 waypoint11)
  S:(visible waypoint11 waypoint11)
  S:(visible waypoint11 waypoint11)
  S:(visible waypoint11 waypoint16)
  S:(visible waypoint16 waypoint11)
  S:(visible waypoint11 waypoint11)
  S:(visible waypoint11 waypoint11)
  S:(visible waypoint23 waypoint3)
  S:(visible waypoint3 waypoint23)
  S:(visible waypoint23 waypoint17)
  S:(visible waypoint17 waypoint23)
  S:(visible waypoint23 waypoint12)
  S:(visible waypoint12 waypoint23)
  S:(visible waypoint23 waypoint5)
  S:(visible waypoint5 waypoint23)
  S:(visible waypoint23 waypoint7)
  S:(visible waypoint7 waypoint23)
  S:(visible waypoint23 waypoint17)
  S:(visible waypoint17 waypoint23)
  S:(visible waypoint23 waypoint12)
  S:(visible waypoint12 waypoint23)
  S:(visible waypoint23 waypoint23)
  S:(visible waypoint23 waypoint23)
  (at_soil_sample waypoint0)
  (at_soil_sample waypoint1)
  (at_soil_sample waypoint7)
  (at_rock_sample waypoint7)
  (at_soil_sample waypoint8)
  (at_soil_sample waypoint2)
  (at_rock_sample waypoint2)
  (at_rock_sample waypoint3)
  (at_soil_sample waypoint11)
  (at_rock_sample waypoint12)
  (at_soil_sample waypoint12)
  (at_rock_sample waypoint14)
  (at_soil_sample waypoint3)
  (at_rock_sample waypoint16)
  (at_soil_sample waypoint17)
  (at_soil_sample waypoint17)
  (at_rock_sample waypoint17)
  (at_soil_sample waypoint12)
  (at_rock_sample waypoint11)
  (at_soil_sample waypoint11)
  (at_rock_sample waypoint11)
  (at_soil_sample waypoint23)
  (at_soil_sample waypoint23)
  S:(at_lander general waypoint1)
  (channel_free general)
  (at rover0 waypoint11)
  (available rover0)
  S:(store_of rover0store rover0)
  (empty rover0store)
  S:(equipped_for_soil_analysis rover0)
  S:(equipped_for_imaging rover0)
  S:(can_traverse rover0 waypoint11 waypoint11)
  S:(can_traverse rover0 waypoint11 waypoint11)
  S:(can_traverse rover0 waypoint11 waypoint12)
  S:(can_traverse rover0 waypoint12 waypoint11)
  S:(can_traverse rover0 waypoint11 waypoint11)
  S:(can_traverse rover0 waypoint11 waypoint11)
  S:(can_traverse rover0 waypoint11 waypoint6)
  S:(can_traverse rover0 waypoint6 waypoint11)
  S:(can_traverse rover0 waypoint11 waypoint8)
  S:(can_traverse rover0 waypoint8 waypoint11)
  S:(can_traverse rover0 waypoint11 waypoint3)
  S:(can_traverse rover0 waypoint3 waypoint11)
  S:(can_traverse rover0 waypoint11 waypoint17)
  S:(can_traverse rover0 waypoint17 waypoint11)
  S:(can_traverse rover0 waypoint11 waypoint11)
  S:(can_traverse rover0 waypoint11 waypoint11)
  S:(can_traverse rover0 waypoint12 waypoint12)
  S:(can_traverse rover0 waypoint12 waypoint12)
  S:(can_traverse rover0 waypoint12 waypoint3)
  S:(can_traverse rover0 waypoint3 waypoint12)
  S:(can_traverse rover0 waypoint12 waypoint23)
  S:(can_traverse rover0 waypoint23 waypoint12)
  S:(can_traverse rover0 waypoint11 waypoint4)
  S:(can_traverse rover0 waypoint4 waypoint11)
  S:(can_traverse rover0 waypoint11 waypoint5)
  S:(can_traverse rover0 waypoint5 waypoint11)
  S:(can_traverse rover0 waypoint11 waypoint17)
  S:(can_traverse rover0 waypoint17 waypoint11)
  S:(can_traverse rover0 waypoint6 waypoint2)
  S:(can_traverse rover0 waypoint2 waypoint6)
  S:(can_traverse rover0 waypoint6 waypoint2)
  S:(can_traverse rover0 waypoint2 waypoint6)
  S:(can_traverse rover0 waypoint6 waypoint14)
  S:(can_traverse rover0 waypoint14 waypoint6)
  S:(can_traverse rover0 waypoint8 waypoint7)
  S:(can_traverse rover0 waypoint7 waypoint8)
  S:(can_traverse rover0 waypoint17 waypoint12)
  S:(can_traverse rover0 waypoint12 waypoint17)
  S:(can_traverse rover0 waypoint12 waypoint3)
  S:(can_traverse rover0 waypoint3 waypoint12)
  S:(can_traverse rover0 waypoint3 waypoint1)
  S:(can_traverse rover0 waypoint1 waypoint3)
  S:(can_traverse rover0 waypoint3 waypoint16)
  S:(can_traverse rover0 waypoint16 waypoint3)
  S:(can_traverse rover0 waypoint23 waypoint23)
  S:(can_traverse rover0 waypoint23 waypoint23)
  S:(can_traverse rover0 waypoint5 waypoint0)
  S:(can_traverse rover0 waypoint0 waypoint5)
  (at rover1 waypoint4)
  (available rover1)
  S:(store_of rover1store rover1)
  (empty rover1store)
  S:(equipped_for_imaging rover1)
  S:(can_traverse rover1 waypoint4 waypoint1)
  S:(can_traverse rover1 waypoint1 waypoint4)
  S:(can_traverse rover1 waypoint4 waypoint5)
  S:(can_traverse rover1 waypoint5 waypoint4)
  S:(can_traverse rover1 waypoint4 waypoint6)
  S:(can_traverse rover1 waypoint6 waypoint4)
  S:(can_traverse rover1 waypoint4 waypoint12)
  S:(can_traverse rover1 waypoint12 waypoint4)
  S:(can_traverse rover1 waypoint4 waypoint16)
  S:(can_traverse rover1 waypoint16 waypoint4)
  S:(can_traverse rover1 waypoint4 waypoint11)
  S:(can_traverse rover1 waypoint11 waypoint4)
  S:(can_traverse rover1 waypoint4 waypoint12)
  S:(can_traverse rover1 waypoint12 waypoint4)
  S:(can_traverse rover1 waypoint4 waypoint11)
  S:(can_traverse rover1 waypoint11 waypoint4)
  S:(can_traverse rover1 waypoint1 waypoint14)
  S:(can_traverse rover1 waypoint14 waypoint1)
  S:(can_traverse rover1 waypoint1 waypoint3)
  S:(can_traverse rover1 waypoint3 waypoint1)
  S:(can_traverse rover1 waypoint1 waypoint17)
  S:(can_traverse rover1 waypoint17 waypoint1)
  S:(can_traverse rover1 waypoint5 waypoint0)
  S:(can_traverse rover1 waypoint0 waypoint5)
  S:(can_traverse rover1 waypoint5 waypoint2)
  S:(can_traverse rover1 waypoint2 waypoint5)
  S:(can_traverse rover1 waypoint5 waypoint8)
  S:(can_traverse rover1 waypoint8 waypoint5)
  S:(can_traverse rover1 waypoint5 waypoint2)
  S:(can_traverse rover1 waypoint2 waypoint5)
  S:(can_traverse rover1 waypoint5 waypoint23)
  S:(can_traverse rover1 waypoint23 waypoint5)
  S:(can_traverse rover1 waypoint6 waypoint11)
  S:(can_traverse rover1 waypoint11 waypoint6)
  S:(can_traverse rover1 waypoint6 waypoint12)
  S:(can_traverse rover1 waypoint12 waypoint6)
  S:(can_traverse rover1 waypoint12 waypoint3)
  S:(can_traverse rover1 waypoint3 waypoint12)
  S:(can_traverse rover1 waypoint16 waypoint11)
  S:(can_traverse rover1 waypoint11 waypoint16)
  S:(can_traverse rover1 waypoint12 waypoint17)
  S:(can_traverse rover1 waypoint17 waypoint12)
  S:(can_traverse rover1 waypoint17 waypoint3)
  S:(can_traverse rover1 waypoint3 waypoint17)
  S:(can_traverse rover1 waypoint17 waypoint23)
  S:(can_traverse rover1 waypoint23 waypoint17)
  S:(can_traverse rover1 waypoint0 waypoint7)
  S:(can_traverse rover1 waypoint7 waypoint0)
  (at rover2 waypoint3)
  (available rover2)
  S:(store_of rover2store rover2)
  (empty rover2store)
  S:(equipped_for_rock_analysis rover2)
  S:(equipped_for_imaging rover2)
  S:(can_traverse rover2 waypoint3 waypoint1)
  S:(can_traverse rover2 waypoint1 waypoint3)
  S:(can_traverse rover2 waypoint3 waypoint12)
  S:(can_traverse rover2 waypoint12 waypoint3)
  S:(can_traverse rover2 waypoint3 waypoint17)
  S:(can_traverse rover2 waypoint17 waypoint3)
  S:(can_traverse rover2 waypoint3 waypoint12)
  S:(can_traverse rover2 waypoint12 waypoint3)
  S:(can_traverse rover2 waypoint1 waypoint2)
  S:(can_traverse rover2 waypoint2 waypoint1)
  S:(can_traverse rover2 waypoint1 waypoint5)
  S:(can_traverse rover2 waypoint5 waypoint1)
  S:(can_traverse rover2 waypoint1 waypoint14)
  S:(can_traverse rover2 waypoint14 waypoint1)
  S:(can_traverse rover2 waypoint1 waypoint3)
  S:(can_traverse rover2 waypoint3 waypoint1)
  S:(can_traverse rover2 waypoint12 waypoint4)
  S:(can_traverse rover2 waypoint4 waypoint12)
  S:(can_traverse rover2 waypoint12 waypoint11)
  S:(can_traverse rover2 waypoint11 waypoint12)
  S:(can_traverse rover2 waypoint17 waypoint6)
  S:(can_traverse rover2 waypoint6 waypoint17)
  S:(can_traverse rover2 waypoint17 waypoint2)
  S:(can_traverse rover2 waypoint2 waypoint17)
  S:(can_traverse rover2 waypoint17 waypoint17)
  S:(can_traverse rover2 waypoint17 waypoint17)
  S:(can_traverse rover2 waypoint17 waypoint23)
  S:(can_traverse rover2 waypoint23 waypoint17)
  S:(can_traverse rover2 waypoint17 waypoint23)
  S:(can_traverse rover2 waypoint23 waypoint17)
  S:(can_traverse rover2 waypoint12 waypoint16)
  S:(can_traverse rover2 waypoint16 waypoint12)
  S:(can_traverse rover2 waypoint12 waypoint11)
  S:(can_traverse rover2 waypoint11 waypoint12)
  S:(can_traverse rover2 waypoint5 waypoint0)
  S:(can_traverse rover2 waypoint0 waypoint5)
  S:(can_traverse rover2 waypoint5 waypoint8)
  S:(can_traverse rover2 waypoint8 waypoint5)
  S:(can_traverse rover2 waypoint14 waypoint12)
  S:(can_traverse rover2 waypoint12 waypoint14)
  S:(can_traverse rover2 waypoint3 waypoint3)
  S:(can_traverse rover2 waypoint3 waypoint3)
  S:(can_traverse rover2 waypoint4 waypoint7)
  S:(can_traverse rover2 waypoint7 waypoint4)
  S:(can_traverse rover2 waypoint11 waypoint11)
  S:(can_traverse rover2 waypoint11 waypoint11)
  S:(can_traverse rover2 waypoint11 waypoint11)
  S:(can_traverse rover2 waypoint11 waypoint11)
  (at rover3 waypoint3)
  (available rover3)
  S:(store_of rover3store rover3)
  (empty rover3store)
  S:(equipped_for_soil_analysis rover3)
  S:(equipped_for_rock_analysis rover3)
  S:(can_traverse rover3 waypoint3 waypoint1)
  S:(can_traverse rover3 waypoint1 waypoint3)
  S:(can_traverse rover3 waypoint3 waypoint12)
  S:(can_traverse rover3 waypoint12 waypoint3)
  S:(can_traverse rover3 waypoint3 waypoint12)
  S:(can_traverse rover3 waypoint12 waypoint3)
  S:(can_traverse rover3 waypoint3 waypoint17)
  S:(can_traverse rover3 waypoint17 waypoint3)
  S:(can_traverse rover3 waypoint3 waypoint12)
  S:(can_traverse rover3 waypoint12 waypoint3)
  S:(can_traverse rover3 waypoint1 waypoint2)
  S:(can_traverse rover3 waypoint2 waypoint1)
  S:(can_traverse rover3 waypoint1 waypoint4)
  S:(can_traverse rover3 waypoint4 waypoint1)
  S:(can_traverse rover3 waypoint1 waypoint5)
  S:(can_traverse rover3 waypoint5 waypoint1)
  S:(can_traverse rover3 waypoint1 waypoint14)
  S:(can_traverse rover3 waypoint14 waypoint1)
  S:(can_traverse rover3 waypoint1 waypoint3)
  S:(can_traverse rover3 waypoint3 waypoint1)
  S:(can_traverse rover3 waypoint1 waypoint23)
  S:(can_traverse rover3 waypoint23 waypoint1)
  S:(can_traverse rover3 waypoint12 waypoint6)
  S:(can_traverse rover3 waypoint6 waypoint12)
  S:(can_traverse rover3 waypoint12 waypoint11)
  S:(can_traverse rover3 waypoint11 waypoint12)
  S:(can_traverse rover3 waypoint12 waypoint11)
  S:(can_traverse rover3 waypoint11 waypoint12)
  S:(can_traverse rover3 waypoint12 waypoint23)
  S:(can_traverse rover3 waypoint23 waypoint12)
  S:(can_traverse rover3 waypoint12 waypoint11)
  S:(can_traverse rover3 waypoint11 waypoint12)
  S:(can_traverse rover3 waypoint17 waypoint0)
  S:(can_traverse rover3 waypoint0 waypoint17)
  S:(can_traverse rover3 waypoint17 waypoint2)
  S:(can_traverse rover3 waypoint2 waypoint17)
  S:(can_traverse rover3 waypoint17 waypoint17)
  S:(can_traverse rover3 waypoint17 waypoint17)
  S:(can_traverse rover3 waypoint12 waypoint16)
  S:(can_traverse rover3 waypoint16 waypoint12)
  S:(can_traverse rover3 waypoint4 waypoint7)
  S:(can_traverse rover3 waypoint7 waypoint4)
  S:(can_traverse rover3 waypoint4 waypoint8)
  S:(can_traverse rover3 waypoint8 waypoint4)
  S:(can_traverse rover3 waypoint6 waypoint11)
  S:(can_traverse rover3 waypoint11 waypoint6)
  S:(can_traverse rover3 waypoint16 waypoint3)
  S:(can_traverse rover3 waypoint3 waypoint16)
  (at rover4 waypoint16)
  (available rover4)
  S:(store_of rover4store rover4)
  (empty rover4store)
  S:(equipped_for_rock_analysis rover4)
  S:(equipped_for_imaging rover4)
  S:(can_traverse rover4 waypoint16 waypoint2)
  S:(can_traverse rover4 waypoint2 waypoint16)
  S:(can_traverse rover4 waypoint16 waypoint4)
  S:(can_traverse rover4 waypoint4 waypoint16)
  S:(can_traverse rover4 waypoint16 waypoint5)
  S:(can_traverse rover4 waypoint5 waypoint16)
  S:(can_traverse rover4 waypoint16 waypoint7)
  S:(can_traverse rover4 waypoint7 waypoint16)
  S:(can_traverse rover4 waypoint16 waypoint8)
  S:(can_traverse rover4 waypoint8 waypoint16)
  S:(can_traverse rover4 waypoint16 waypoint3)
  S:(can_traverse rover4 waypoint3 waypoint16)
  S:(can_traverse rover4 waypoint16 waypoint3)
  S:(can_traverse rover4 waypoint3 waypoint16)
  S:(can_traverse rover4 waypoint16 waypoint11)
  S:(can_traverse rover4 waypoint11 waypoint16)
  S:(can_traverse rover4 waypoint2 waypoint2)
  S:(can_traverse rover4 waypoint2 waypoint2)
  S:(can_traverse rover4 waypoint2 waypoint14)
  S:(can_traverse rover4 waypoint14 waypoint2)
  S:(can_traverse rover4 waypoint4 waypoint1)
  S:(can_traverse rover4 waypoint1 waypoint4)
  S:(can_traverse rover4 waypoint4 waypoint12)
  S:(can_traverse rover4 waypoint12 waypoint4)
  S:(can_traverse rover4 waypoint4 waypoint12)
  S:(can_traverse rover4 waypoint12 waypoint4)
  S:(can_traverse rover4 waypoint5 waypoint0)
  S:(can_traverse rover4 waypoint0 waypoint5)
  S:(can_traverse rover4 waypoint5 waypoint11)
  S:(can_traverse rover4 waypoint11 waypoint5)
  S:(can_traverse rover4 waypoint5 waypoint23)
  S:(can_traverse rover4 waypoint23 waypoint5)
  S:(can_traverse rover4 waypoint7 waypoint17)
  S:(can_traverse rover4 waypoint17 waypoint7)
  S:(can_traverse rover4 waypoint8 waypoint11)
  S:(can_traverse rover4 waypoint11 waypoint8)
  S:(can_traverse rover4 waypoint8 waypoint17)
  S:(can_traverse rover4 waypoint17 waypoint8)
  S:(can_traverse rover4 waypoint3 waypoint3)
  S:(can_traverse rover4 waypoint3 waypoint3)
  S:(can_traverse rover4 waypoint3 waypoint6)
  S:(can_traverse rover4 waypoint6 waypoint3)
  S:(can_traverse rover4 waypoint3 waypoint12)
  S:(can_traverse rover4 waypoint12 waypoint3)
  S:(can_traverse rover4 waypoint12 waypoint23)
  S:(can_traverse rover4 waypoint23 waypoint12)
  S:(can_traverse rover4 waypoint11 waypoint11)
  S:(can_traverse rover4 waypoint11 waypoint11)
  (at rover5 waypoint3)
  (available rover5)
  S:(store_of rover5store rover5)
  (empty rover5store)
  S:(equipped_for_imaging rover5)
  S:(can_traverse rover5 waypoint3 waypoint11)
  S:(can_traverse rover5 waypoint11 waypoint3)
  S:(can_traverse rover5 waypoint3 waypoint3)
  S:(can_traverse rover5 waypoint3 waypoint3)
  S:(can_traverse rover5 waypoint3 waypoint16)
  S:(can_traverse rover5 waypoint16 waypoint3)
  S:(can_traverse rover5 waypoint3 waypoint17)
  S:(can_traverse rover5 waypoint17 waypoint3)
  S:(can_traverse rover5 waypoint3 waypoint23)
  S:(can_traverse rover5 waypoint23 waypoint3)
  S:(can_traverse rover5 waypoint11 waypoint6)
  S:(can_traverse rover5 waypoint6 waypoint11)
  S:(can_traverse rover5 waypoint11 waypoint8)
  S:(can_traverse rover5 waypoint8 waypoint11)
  S:(can_traverse rover5 waypoint11 waypoint12)
  S:(can_traverse rover5 waypoint12 waypoint11)
  S:(can_traverse rover5 waypoint11 waypoint11)
  S:(can_traverse rover5 waypoint11 waypoint11)
  S:(can_traverse rover5 waypoint11 waypoint11)
  S:(can_traverse rover5 waypoint11 waypoint11)
  S:(can_traverse rover5 waypoint3 waypoint0)
  S:(can_traverse rover5 waypoint0 waypoint3)
  S:(can_traverse rover5 waypoint3 waypoint1)
  S:(can_traverse rover5 waypoint1 waypoint3)
  S:(can_traverse rover5 waypoint3 waypoint12)
  S:(can_traverse rover5 waypoint12 waypoint3)
  S:(can_traverse rover5 waypoint3 waypoint17)
  S:(can_traverse rover5 waypoint17 waypoint3)
  S:(can_traverse rover5 waypoint16 waypoint2)
  S:(can_traverse rover5 waypoint2 waypoint16)
  S:(can_traverse rover5 waypoint16 waypoint4)
  S:(can_traverse rover5 waypoint4 waypoint16)
  S:(can_traverse rover5 waypoint16 waypoint7)
  S:(can_traverse rover5 waypoint7 waypoint16)
  S:(can_traverse rover5 waypoint17 waypoint3)
  S:(can_traverse rover5 waypoint3 waypoint17)
  S:(can_traverse rover5 waypoint23 waypoint12)
  S:(can_traverse rover5 waypoint12 waypoint23)
  S:(can_traverse rover5 waypoint23 waypoint23)
  S:(can_traverse rover5 waypoint23 waypoint23)
  S:(can_traverse rover5 waypoint6 waypoint5)
  S:(can_traverse rover5 waypoint5 waypoint6)
  S:(can_traverse rover5 waypoint6 waypoint2)
  S:(can_traverse rover5 waypoint2 waypoint6)
  S:(can_traverse rover5 waypoint6 waypoint14)
  S:(can_traverse rover5 waypoint14 waypoint6)
  S:(can_traverse rover5 waypoint6 waypoint11)
  S:(can_traverse rover5 waypoint11 waypoint6)
  (at rover6 waypoint4)
  (available rover6)
  S:(store_of rover6store rover6)
  (empty rover6store)
  S:(equipped_for_soil_analysis rover6)
  S:(equipped_for_imaging rover6)
  S:(can_traverse rover6 waypoint4 waypoint1)
  S:(can_traverse rover6 waypoint1 waypoint4)
  S:(can_traverse rover6 waypoint4 waypoint6)
  S:(can_traverse rover6 waypoint6 waypoint4)
  S:(can_traverse rover6 waypoint4 waypoint8)
  S:(can_traverse rover6 waypoint8 waypoint4)
  S:(can_traverse rover6 waypoint4 waypoint12)
  S:(can_traverse rover6 waypoint12 waypoint4)
  S:(can_traverse rover6 waypoint4 waypoint16)
  S:(can_traverse rover6 waypoint16 waypoint4)
  S:(can_traverse rover6 waypoint4 waypoint11)
  S:(can_traverse rover6 waypoint11 waypoint4)
  S:(can_traverse rover6 waypoint4 waypoint12)
  S:(can_traverse rover6 waypoint12 waypoint4)
  S:(can_traverse rover6 waypoint1 waypoint3)
  S:(can_traverse rover6 waypoint3 waypoint1)
  S:(can_traverse rover6 waypoint1 waypoint5)
  S:(can_traverse rover6 waypoint5 waypoint1)
  S:(can_traverse rover6 waypoint1 waypoint14)
  S:(can_traverse rover6 waypoint14 waypoint1)
  S:(can_traverse rover6 waypoint1 waypoint17)
  S:(can_traverse rover6 waypoint17 waypoint1)
  S:(can_traverse rover6 waypoint1 waypoint23)
  S:(can_traverse rover6 waypoint23 waypoint1)
  S:(can_traverse rover6 waypoint6 waypoint2)
  S:(can_traverse rover6 waypoint2 waypoint6)
  S:(can_traverse rover6 waypoint6 waypoint2)
  S:(can_traverse rover6 waypoint2 waypoint6)
  S:(can_traverse rover6 waypoint6 waypoint11)
  S:(can_traverse rover6 waypoint11 waypoint6)
  S:(can_traverse rover6 waypoint6 waypoint12)
  S:(can_traverse rover6 waypoint12 waypoint6)
  S:(can_traverse rover6 waypoint6 waypoint3)
  S:(can_traverse rover6 waypoint3 waypoint6)
  S:(can_traverse rover6 waypoint6 waypoint11)
  S:(can_traverse rover6 waypoint11 waypoint6)
  S:(can_traverse rover6 waypoint8 waypoint17)
  S:(can_traverse rover6 waypoint17 waypoint8)
  S:(can_traverse rover6 waypoint16 waypoint7)
  S:(can_traverse rover6 waypoint7 waypoint16)
  S:(can_traverse rover6 waypoint16 waypoint3)
  S:(can_traverse rover6 waypoint3 waypoint16)
  S:(can_traverse rover6 waypoint16 waypoint11)
  S:(can_traverse rover6 waypoint11 waypoint16)
  S:(can_traverse rover6 waypoint12 waypoint23)
  S:(can_traverse rover6 waypoint23 waypoint12)
  S:(can_traverse rover6 waypoint23 waypoint0)
  S:(can_traverse rover6 waypoint0 waypoint23)
  (at rover7 waypoint16)
  (available rover7)
  S:(store_of rover7store rover7)
  (empty rover7store)
  S:(equipped_for_rock_analysis rover7)
  S:(can_traverse rover7 waypoint16 waypoint2)
  S:(can_traverse rover7 waypoint2 waypoint16)
  S:(can_traverse rover7 waypoint16 waypoint4)
  S:(can_traverse rover7 waypoint4 waypoint16)
  S:(can_traverse rover7 waypoint16 waypoint8)
  S:(can_traverse rover7 waypoint8 waypoint16)
  S:(can_traverse rover7 waypoint16 waypoint3)
  S:(can_traverse rover7 waypoint3 waypoint16)
  S:(can_traverse rover7 waypoint16 waypoint12)
  S:(can_traverse rover7 waypoint12 waypoint16)
  S:(can_traverse rover7 waypoint2 waypoint5)
  S:(can_traverse rover7 waypoint5 waypoint2)
  S:(can_traverse rover7 waypoint2 waypoint6)
  S:(can_traverse rover7 waypoint6 waypoint2)
  S:(can_traverse rover7 waypoint2 waypoint2)
  S:(can_traverse rover7 waypoint2 waypoint2)
  S:(can_traverse rover7 waypoint2 waypoint14)
  S:(can_traverse rover7 waypoint14 waypoint2)
  S:(can_traverse rover7 waypoint2 waypoint23)
  S:(can_traverse rover7 waypoint23 waypoint2)
  S:(can_traverse rover7 waypoint4 waypoint12)
  S:(can_traverse rover7 waypoint12 waypoint4)
  S:(can_traverse rover7 waypoint4 waypoint11)
  S:(can_traverse rover7 waypoint11 waypoint4)
  S:(can_traverse rover7 waypoint8 waypoint7)
  S:(can_traverse rover7 waypoint7 waypoint8)
  S:(can_traverse rover7 waypoint8 waypoint17)
  S:(can_traverse rover7 waypoint17 waypoint8)
  S:(can_traverse rover7 waypoint8 waypoint17)
  S:(can_traverse rover7 waypoint17 waypoint8)
  S:(can_traverse rover7 waypoint3 waypoint11)
  S:(can_traverse rover7 waypoint11 waypoint3)
  S:(can_traverse rover7 waypoint3 waypoint3)
  S:(can_traverse rover7 waypoint3 waypoint3)
  S:(can_traverse rover7 waypoint12 waypoint3)
  S:(can_traverse rover7 waypoint3 waypoint12)
  S:(can_traverse rover7 waypoint12 waypoint23)
  S:(can_traverse rover7 waypoint23 waypoint12)
  S:(can_traverse rover7 waypoint5 waypoint11)
  S:(can_traverse rover7 waypoint11 waypoint5)
  S:(can_traverse rover7 waypoint6 waypoint12)
  S:(can_traverse rover7 waypoint12 waypoint6)
  S:(can_traverse rover7 waypoint14 waypoint0)
  S:(can_traverse rover7 waypoint0 waypoint14)
  S:(can_traverse rover7 waypoint14 waypoint1)
  S:(can_traverse rover7 waypoint1 waypoint14)
  S:(on_board camera0 rover0)
  S:(calibration_target camera0 objective6)
  S:(supports camera0 colour)
  S:(supports camera0 high_res)
  S:(on_board camera1 rover1)
  S:(calibration_target camera1 objective1)
  S:(supports camera1 colour)
  S:(supports camera1 high_res)
  S:(on_board camera2 rover4)
  S:(calibration_target camera2 objective0)
  S:(supports camera2 colour)
  S:(supports camera2 high_res)
  S:(supports camera2 low_res)
  S:(on_board camera3 rover2)
  S:(calibration_target camera3 objective2)
  S:(supports camera3 high_res)
  S:(supports camera3 low_res)
  S:(on_board camera4 rover1)
  S:(calibration_target camera4 objective4)
  S:(supports camera4 colour)
  S:(supports camera4 high_res)
  S:(on_board camera5 rover5)
  S:(calibration_target camera5 objective4)
  S:(supports camera5 high_res)
  S:(on_board camera6 rover6)
  S:(calibration_target camera6 objective5)
  S:(supports camera6 colour)
  S:(supports camera6 high_res)
  S:(supports camera6 low_res)
  S:(visible_from objective0 waypoint0)
  S:(visible_from objective0 waypoint1)
  S:(visible_from objective0 waypoint2)
  S:(visible_from objective0 waypoint3)
  S:(visible_from objective0 waypoint4)
  S:(visible_from objective0 waypoint5)
  S:(visible_from objective0 waypoint6)
  S:(visible_from objective0 waypoint7)
  S:(visible_from objective0 waypoint8)
  S:(visible_from objective0 waypoint2)
  S:(visible_from objective0 waypoint3)
  S:(visible_from objective0 waypoint11)
  S:(visible_from objective0 waypoint12)
  S:(visible_from objective0 waypoint12)
  S:(visible_from objective0 waypoint14)
  S:(visible_from objective0 waypoint3)
  S:(visible_from objective0 waypoint16)
  S:(visible_from objective1 waypoint0)
  S:(visible_from objective1 waypoint1)
  S:(visible_from objective1 waypoint2)
  S:(visible_from objective1 waypoint3)
  S:(visible_from objective2 waypoint0)
  S:(visible_from objective2 waypoint1)
  S:(visible_from objective2 waypoint2)
  S:(visible_from objective2 waypoint3)
  S:(visible_from objective2 waypoint4)
  S:(visible_from objective2 waypoint5)
  S:(visible_from objective2 waypoint6)
  S:(visible_from objective2 waypoint7)
  S:(visible_from objective2 waypoint8)
  S:(visible_from objective2 waypoint2)
  S:(visible_from objective2 waypoint3)
  S:(visible_from objective2 waypoint11)
  S:(visible_from objective2 waypoint12)
  S:(visible_from objective2 waypoint12)
  S:(visible_from objective2 waypoint14)
  S:(visible_from objective2 waypoint3)
  S:(visible_from objective2 waypoint16)
  S:(visible_from objective2 waypoint17)
  S:(visible_from objective3 waypoint0)
  S:(visible_from objective3 waypoint1)
  S:(visible_from objective3 waypoint2)
  S:(visible_from objective3 waypoint3)
  S:(visible_from objective3 waypoint4)
  S:(visible_from objective3 waypoint5)
  S:(visible_from objective3 waypoint6)
  S:(visible_from objective3 waypoint7)
  S:(visible_from objective3 waypoint8)
  S:(visible_from objective3 waypoint2)
  S:(visible_from objective3 waypoint3)
  S:(visible_from objective3 waypoint11)
  S:(visible_from objective3 waypoint12)
  S:(visible_from objective3 waypoint12)
  S:(visible_from objective3 waypoint14)
  S:(visible_from objective3 waypoint3)
  S:(visible_from objective3 waypoint16)
  S:(visible_from objective3 waypoint17)
  S:(visible_from objective3 waypoint17)
  S:(visible_from objective3 waypoint11)
  S:(visible_from objective4 waypoint0)
  S:(visible_from objective4 waypoint1)
  S:(visible_from objective4 waypoint2)
  S:(visible_from objective4 waypoint3)
  S:(visible_from objective4 waypoint4)
  S:(visible_from objective4 waypoint5)
  S:(visible_from objective4 waypoint6)
  S:(visible_from objective4 waypoint7)
  S:(visible_from objective4 waypoint8)
  S:(visible_from objective4 waypoint2)
  S:(visible_from objective4 waypoint3)
  S:(visible_from objective4 waypoint11)
  S:(visible_from objective4 waypoint12)
  S:(visible_from objective4 waypoint12)
  S:(visible_from objective4 waypoint14)
  S:(visible_from objective4 waypoint3)
  S:(visible_from objective4 waypoint16)
  S:(visible_from objective4 waypoint17)
  S:(visible_from objective4 waypoint17)
  S:(visible_from objective4 waypoint11)
  S:(visible_from objective4 waypoint12)
  S:(visible_from objective4 waypoint11)
  S:(visible_from objective4 waypoint11)
  S:(visible_from objective4 waypoint23)
  S:(visible_from objective5 waypoint0)
  S:(visible_from objective5 waypoint1)
  S:(visible_from objective5 waypoint2)
  S:(visible_from objective5 waypoint3)
  S:(visible_from objective5 waypoint4)
  S:(visible_from objective5 waypoint5)
  S:(visible_from objective5 waypoint6)
  S:(visible_from objective5 waypoint7)
  S:(visible_from objective5 waypoint8)
  S:(visible_from objective5 waypoint2)
  S:(visible_from objective5 waypoint3)
  S:(visible_from objective5 waypoint11)
  S:(visible_from objective5 waypoint12)
  S:(visible_from objective5 waypoint12)
  S:(visible_from objective5 waypoint14)
  S:(visible_from objective6 waypoint0)
  S:(visible_from objective6 waypoint1)
  S:(visible_from objective6 waypoint2)
  S:(visible_from objective6 waypoint3)
  S:(visible_from objective6 waypoint4)
  S:(visible_from objective6 waypoint5)
  S:(visible_from objective6 waypoint6)
  S:(visible_from objective6 waypoint7)
  S:(visible_from objective6 waypoint8)
  S:(visible_from objective6 waypoint2)
  S:(visible_from objective6 waypoint3)
  S:(visible_from objective7 waypoint0)
  S:(visible_from objective7 waypoint1)
  S:(visible_from objective7 waypoint2)
  S:(visible_from objective7 waypoint3)
  S:(visible_from objective7 waypoint4)
  S:(visible_from objective7 waypoint5)
  S:(visible_from objective7 waypoint6)
  S:(visible_from objective7 waypoint7)
  S:(visible_from objective7 waypoint8)
  S:(visible_from objective7 waypoint2)
  S:(visible_from objective7 waypoint3)
  S:(visible_from objective7 waypoint11)
  S:(visible_from objective7 waypoint12)
  S:(visible_from objective7 waypoint12)
  S:(visible_from objective7 waypoint14)
  S:(visible_from objective7 waypoint3)
  S:(visible_from objective7 waypoint16)
  S:(visible_from objective7 waypoint17)
  S:(visible_from objective7 waypoint17)
  S:(visible_from objective7 waypoint11)
  S:(visible_from objective7 waypoint12)
Init[0]:
Goal: (and (W:communicated_soil_data waypoint8) (W:communicated_soil_data waypoint23) (W:communicated_soil_data waypoint7) (W:communicated_soil_data waypoint11) (W:communicated_soil_data waypoint12) (W:communicated_soil_data waypoint12) (W:communicated_rock_data waypoint7) (W:communicated_rock_data waypoint14) (W:communicated_rock_data waypoint11) (W:communicated_rock_data waypoint16) (W:communicated_rock_data waypoint12) (W:communicated_rock_data waypoint3) (W:communicated_rock_data waypoint2) (W:communicated_rock_data waypoint11) (W:communicated_rock_data waypoint17) (W:communicated_image_data objective2 high_res) (W:communicated_image_data objective0 high_res) (W:communicated_image_data objective3 colour) (W:communicated_image_data objective7 colour) (W:communicated_image_data objective5 high_res))
Metric: 0
