 (fuel t0 level36):fam
 (fuel t0 level33) (fuel t0 level36):fam
 (fuel t0 level34) (fuel t0 level36):fam
 (fuel t0 level32) (fuel t0 level34) (fuel t0 level36):fam
 (fuel t0 level33) (fuel t0 level34) (fuel t0 level36):fam
 (at t0 l0) (at t0 l1) (at t0 l2) (at t0 l3):=1:fam
 (fuel t0 level29) (fuel t0 level32) (fuel t0 level34) (fuel t0 level36):fam
 (fuel t0 level32) (fuel t0 level33) (fuel t0 level34) (fuel t0 level36):fam
 (at p0 l0) (at p0 l1) (at p0 l2) (at p0 l3) (in p0 t0):=1:fam:G
 (at p1 l0) (at p1 l1) (at p1 l2) (at p1 l3) (in p1 t0):=1:fam:G
 (at p2 l0) (at p2 l1) (at p2 l2) (at p2 l3) (in p2 t0):=1:fam:G
 (fuel t0 level29) (fuel t0 level32) (fuel t0 level33) (fuel t0 level34) (fuel t0 level36):fam
 (fuel t0 level30) (fuel t0 level32) (fuel t0 level33) (fuel t0 level34) (fuel t0 level36):fam
 (fuel t0 level27) (fuel t0 level30) (fuel t0 level32) (fuel t0 level33) (fuel t0 level34) (fuel t0 level36):fam
 (fuel t0 level28) (fuel t0 level30) (fuel t0 level32) (fuel t0 level33) (fuel t0 level34) (fuel t0 level36):fam
 (fuel t0 level29) (fuel t0 level30) (fuel t0 level32) (fuel t0 level33) (fuel t0 level34) (fuel t0 level36):fam
 (fuel t0 level25) (fuel t0 level28) (fuel t0 level30) (fuel t0 level32) (fuel t0 level33) (fuel t0 level34) (fuel t0 level36):fam
 (fuel t0 level27) (fuel t0 level28) (fuel t0 level30) (fuel t0 level32) (fuel t0 level33) (fuel t0 level34) (fuel t0 level36):fam
 (fuel t0 level27) (fuel t0 level29) (fuel t0 level30) (fuel t0 level32) (fuel t0 level33) (fuel t0 level34) (fuel t0 level36):fam
 (fuel t0 level28) (fuel t0 level29) (fuel t0 level30) (fuel t0 level32) (fuel t0 level33) (fuel t0 level34) (fuel t0 level36):fam
 (fuel t0 level25) (fuel t0 level27) (fuel t0 level28) (fuel t0 level30) (fuel t0 level32) (fuel t0 level33) (fuel t0 level34) (fuel t0 level36):fam
 (fuel t0 level25) (fuel t0 level28) (fuel t0 level29) (fuel t0 level30) (fuel t0 level32) (fuel t0 level33) (fuel t0 level34) (fuel t0 level36):fam
 (fuel t0 level26) (fuel t0 level28) (fuel t0 level29) (fuel t0 level30) (fuel t0 level32) (fuel t0 level33) (fuel t0 level34) (fuel t0 level36):fam
 (fuel t0 level27) (fuel t0 level28) (fuel t0 level29) (fuel t0 level30) (fuel t0 level32) (fuel t0 level33) (fuel t0 level34) (fuel t0 level36):fam
 (fuel t0 level23) (fuel t0 level26) (fuel t0 level28) (fuel t0 level29) (fuel t0 level30) (fuel t0 level32) (fuel t0 level33) (fuel t0 level34) (fuel t0 level36):fam
 (fuel t0 level25) (fuel t0 level26) (fuel t0 level28) (fuel t0 level29) (fuel t0 level30) (fuel t0 level32) (fuel t0 level33) (fuel t0 level34) (fuel t0 level36):fam
 (fuel t0 level25) (fuel t0 level27) (fuel t0 level28) (fuel t0 level29) (fuel t0 level30) (fuel t0 level32) (fuel t0 level33) (fuel t0 level34) (fuel t0 level36):fam
 (fuel t0 level26) (fuel t0 level27) (fuel t0 level28) (fuel t0 level29) (fuel t0 level30) (fuel t0 level32) (fuel t0 level33) (fuel t0 level34) (fuel t0 level36):fam
 (fuel t0 level23) (fuel t0 level25) (fuel t0 level26) (fuel t0 level28) (fuel t0 level29) (fuel t0 level30) (fuel t0 level32) (fuel t0 level33) (fuel t0 level34) (fuel t0 level36):fam
 (fuel t0 level23) (fuel t0 level26) (fuel t0 level27) (fuel t0 level28) (fuel t0 level29) (fuel t0 level30) (fuel t0 level32) (fuel t0 level33) (fuel t0 level34) (fuel t0 level36):fam
 (fuel t0 level24) (fuel t0 level26) (fuel t0 level27) (fuel t0 level28) (fuel t0 level29) (fuel t0 level30) (fuel t0 level32) (fuel t0 level33) (fuel t0 level34) (fuel t0 level36):fam
 (fuel t0 level25) (fuel t0 level26) (fuel t0 level27) (fuel t0 level28) (fuel t0 level29) (fuel t0 level30) (fuel t0 level32) (fuel t0 level33) (fuel t0 level34) (fuel t0 level36):fam
 (fuel t0 level21) (fuel t0 level24) (fuel t0 level26) (fuel t0 level27) (fuel t0 level28) (fuel t0 level29) (fuel t0 level30) (fuel t0 level32) (fuel t0 level33) (fuel t0 level34) (fuel t0 level36):fam
 (fuel t0 level23) (fuel t0 level24) (fuel t0 level26) (fuel t0 level27) (fuel t0 level28) (fuel t0 level29) (fuel t0 level30) (fuel t0 level32) (fuel t0 level33) (fuel t0 level34) (fuel t0 level36):fam
 (fuel t0 level23) (fuel t0 level25) (fuel t0 level26) (fuel t0 level27) (fuel t0 level28) (fuel t0 level29) (fuel t0 level30) (fuel t0 level32) (fuel t0 level33) (fuel t0 level34) (fuel t0 level36):fam
 (fuel t0 level24) (fuel t0 level25) (fuel t0 level26) (fuel t0 level27) (fuel t0 level28) (fuel t0 level29) (fuel t0 level30) (fuel t0 level32) (fuel t0 level33) (fuel t0 level34) (fuel t0 level36):fam
 (fuel t0 level21) (fuel t0 level23) (fuel t0 level24) (fuel t0 level26) (fuel t0 level27) (fuel t0 level28) (fuel t0 level29) (fuel t0 level30) (fuel t0 level32) (fuel t0 level33) (fuel t0 level34) (fuel t0 level36):fam
 (fuel t0 level21) (fuel t0 level24) (fuel t0 level25) (fuel t0 level26) (fuel t0 level27) (fuel t0 level28) (fuel t0 level29) (fuel t0 level30) (fuel t0 level32) (fuel t0 level33) (fuel t0 level34) (fuel t0 level36):fam
 (fuel t0 level22) (fuel t0 level24) (fuel t0 level25) (fuel t0 level26) (fuel t0 level27) (fuel t0 level28) (fuel t0 level29) (fuel t0 level30) (fuel t0 level32) (fuel t0 level33) (fuel t0 level34) (fuel t0 level36):fam
 (fuel t0 level23) (fuel t0 level24) (fuel t0 level25) (fuel t0 level26) (fuel t0 level27) (fuel t0 level28) (fuel t0 level29) (fuel t0 level30) (fuel t0 level32) (fuel t0 level33) (fuel t0 level34) (fuel t0 level36):fam
 (fuel t0 level19) (fuel t0 level22) (fuel t0 level24) (fuel t0 level25) (fuel t0 level26) (fuel t0 level27) (fuel t0 level28) (fuel t0 level29) (fuel t0 level30) (fuel t0 level32) (fuel t0 level33) (fuel t0 level34) (fuel t0 level36):fam
 (fuel t0 level21) (fuel t0 level22) (fuel t0 level24) (fuel t0 level25) (fuel t0 level26) (fuel t0 level27) (fuel t0 level28) (fuel t0 level29) (fuel t0 level30) (fuel t0 level32) (fuel t0 level33) (fuel t0 level34) (fuel t0 level36):fam
 (fuel t0 level21) (fuel t0 level23) (fuel t0 level24) (fuel t0 level25) (fuel t0 level26) (fuel t0 level27) (fuel t0 level28) (fuel t0 level29) (fuel t0 level30) (fuel t0 level32) (fuel t0 level33) (fuel t0 level34) (fuel t0 level36):fam
 (fuel t0 level22) (fuel t0 level23) (fuel t0 level24) (fuel t0 level25) (fuel t0 level26) (fuel t0 level27) (fuel t0 level28) (fuel t0 level29) (fuel t0 level30) (fuel t0 level32) (fuel t0 level33) (fuel t0 level34) (fuel t0 level36):fam
 (fuel t0 level19) (fuel t0 level21) (fuel t0 level22) (fuel t0 level24) (fuel t0 level25) (fuel t0 level26) (fuel t0 level27) (fuel t0 level28) (fuel t0 level29) (fuel t0 level30) (fuel t0 level32) (fuel t0 level33) (fuel t0 level34) (fuel t0 level36):fam
 (fuel t0 level19) (fuel t0 level22) (fuel t0 level23) (fuel t0 level24) (fuel t0 level25) (fuel t0 level26) (fuel t0 level27) (fuel t0 level28) (fuel t0 level29) (fuel t0 level30) (fuel t0 level32) (fuel t0 level33) (fuel t0 level34) (fuel t0 level36):fam
 (fuel t0 level20) (fuel t0 level22) (fuel t0 level23) (fuel t0 level24) (fuel t0 level25) (fuel t0 level26) (fuel t0 level27) (fuel t0 level28) (fuel t0 level29) (fuel t0 level30) (fuel t0 level32) (fuel t0 level33) (fuel t0 level34) (fuel t0 level36):fam
 (fuel t0 level21) (fuel t0 level22) (fuel t0 level23) (fuel t0 level24) (fuel t0 level25) (fuel t0 level26) (fuel t0 level27) (fuel t0 level28) (fuel t0 level29) (fuel t0 level30) (fuel t0 level32) (fuel t0 level33) (fuel t0 level34) (fuel t0 level36):fam
 (fuel t0 level17) (fuel t0 level20) (fuel t0 level22) (fuel t0 level23) (fuel t0 level24) (fuel t0 level25) (fuel t0 level26) (fuel t0 level27) (fuel t0 level28) (fuel t0 level29) (fuel t0 level30) (fuel t0 level32) (fuel t0 level33) (fuel t0 level34) (fuel t0 level36):fam
 (fuel t0 level19) (fuel t0 level20) (fuel t0 level22) (fuel t0 level23) (fuel t0 level24) (fuel t0 level25) (fuel t0 level26) (fuel t0 level27) (fuel t0 level28) (fuel t0 level29) (fuel t0 level30) (fuel t0 level32) (fuel t0 level33) (fuel t0 level34) (fuel t0 level36):fam
 (fuel t0 level19) (fuel t0 level21) (fuel t0 level22) (fuel t0 level23) (fuel t0 level24) (fuel t0 level25) (fuel t0 level26) (fuel t0 level27) (fuel t0 level28) (fuel t0 level29) (fuel t0 level30) (fuel t0 level32) (fuel t0 level33) (fuel t0 level34) (fuel t0 level36):fam
 (fuel t0 level20) (fuel t0 level21) (fuel t0 level22) (fuel t0 level23) (fuel t0 level24) (fuel t0 level25) (fuel t0 level26) (fuel t0 level27) (fuel t0 level28) (fuel t0 level29) (fuel t0 level30) (fuel t0 level32) (fuel t0 level33) (fuel t0 level34) (fuel t0 level36):fam
 (fuel t0 level17) (fuel t0 level19) (fuel t0 level20) (fuel t0 level22) (fuel t0 level23) (fuel t0 level24) (fuel t0 level25) (fuel t0 level26) (fuel t0 level27) (fuel t0 level28) (fuel t0 level29) (fuel t0 level30) (fuel t0 level32) (fuel t0 level33) (fuel t0 level34) (fuel t0 level36):fam
 (fuel t0 level17) (fuel t0 level20) (fuel t0 level21) (fuel t0 level22) (fuel t0 level23) (fuel t0 level24) (fuel t0 level25) (fuel t0 level26) (fuel t0 level27) (fuel t0 level28) (fuel t0 level29) (fuel t0 level30) (fuel t0 level32) (fuel t0 level33) (fuel t0 level34) (fuel t0 level36):fam
 (fuel t0 level18) (fuel t0 level20) (fuel t0 level21) (fuel t0 level22) (fuel t0 level23) (fuel t0 level24) (fuel t0 level25) (fuel t0 level26) (fuel t0 level27) (fuel t0 level28) (fuel t0 level29) (fuel t0 level30) (fuel t0 level32) (fuel t0 level33) (fuel t0 level34) (fuel t0 level36):fam
 (fuel t0 level19) (fuel t0 level20) (fuel t0 level21) (fuel t0 level22) (fuel t0 level23) (fuel t0 level24) (fuel t0 level25) (fuel t0 level26) (fuel t0 level27) (fuel t0 level28) (fuel t0 level29) (fuel t0 level30) (fuel t0 level32) (fuel t0 level33) (fuel t0 level34) (fuel t0 level36):fam
 (fuel t0 level15) (fuel t0 level18) (fuel t0 level20) (fuel t0 level21) (fuel t0 level22) (fuel t0 level23) (fuel t0 level24) (fuel t0 level25) (fuel t0 level26) (fuel t0 level27) (fuel t0 level28) (fuel t0 level29) (fuel t0 level30) (fuel t0 level32) (fuel t0 level33) (fuel t0 level34) (fuel t0 level36):fam
 (fuel t0 level17) (fuel t0 level18) (fuel t0 level20) (fuel t0 level21) (fuel t0 level22) (fuel t0 level23) (fuel t0 level24) (fuel t0 level25) (fuel t0 level26) (fuel t0 level27) (fuel t0 level28) (fuel t0 level29) (fuel t0 level30) (fuel t0 level32) (fuel t0 level33) (fuel t0 level34) (fuel t0 level36):fam
 (fuel t0 level17) (fuel t0 level19) (fuel t0 level20) (fuel t0 level21) (fuel t0 level22) (fuel t0 level23) (fuel t0 level24) (fuel t0 level25) (fuel t0 level26) (fuel t0 level27) (fuel t0 level28) (fuel t0 level29) (fuel t0 level30) (fuel t0 level32) (fuel t0 level33) (fuel t0 level34) (fuel t0 level36):fam
 (fuel t0 level18) (fuel t0 level19) (fuel t0 level20) (fuel t0 level21) (fuel t0 level22) (fuel t0 level23) (fuel t0 level24) (fuel t0 level25) (fuel t0 level26) (fuel t0 level27) (fuel t0 level28) (fuel t0 level29) (fuel t0 level30) (fuel t0 level32) (fuel t0 level33) (fuel t0 level34) (fuel t0 level36):fam
 (at t0 l0) (at t0 l2) (at t0 l3) (fuel t0 level11) (fuel t0 level13) (fuel t0 level15) (fuel t0 level17) (fuel t0 level19) (fuel t0 level21) (fuel t0 level23) (fuel t0 level25) (fuel t0 level27) (fuel t0 level29) (fuel t0 level3) (fuel t0 level33) (fuel t0 level5) (fuel t0 level7) (fuel t0 level9):fam
 (at t0 l1) (fuel t0 level10) (fuel t0 level12) (fuel t0 level14) (fuel t0 level16) (fuel t0 level18) (fuel t0 level20) (fuel t0 level22) (fuel t0 level24) (fuel t0 level26) (fuel t0 level28) (fuel t0 level30) (fuel t0 level32) (fuel t0 level34) (fuel t0 level36) (fuel t0 level4) (fuel t0 level6) (fuel t0 level8):fam
 (fuel t0 level15) (fuel t0 level17) (fuel t0 level18) (fuel t0 level20) (fuel t0 level21) (fuel t0 level22) (fuel t0 level23) (fuel t0 level24) (fuel t0 level25) (fuel t0 level26) (fuel t0 level27) (fuel t0 level28) (fuel t0 level29) (fuel t0 level30) (fuel t0 level32) (fuel t0 level33) (fuel t0 level34) (fuel t0 level36):fam
 (fuel t0 level15) (fuel t0 level18) (fuel t0 level19) (fuel t0 level20) (fuel t0 level21) (fuel t0 level22) (fuel t0 level23) (fuel t0 level24) (fuel t0 level25) (fuel t0 level26) (fuel t0 level27) (fuel t0 level28) (fuel t0 level29) (fuel t0 level30) (fuel t0 level32) (fuel t0 level33) (fuel t0 level34) (fuel t0 level36):fam
 (fuel t0 level16) (fuel t0 level18) (fuel t0 level19) (fuel t0 level20) (fuel t0 level21) (fuel t0 level22) (fuel t0 level23) (fuel t0 level24) (fuel t0 level25) (fuel t0 level26) (fuel t0 level27) (fuel t0 level28) (fuel t0 level29) (fuel t0 level30) (fuel t0 level32) (fuel t0 level33) (fuel t0 level34) (fuel t0 level36):fam
 (fuel t0 level17) (fuel t0 level18) (fuel t0 level19) (fuel t0 level20) (fuel t0 level21) (fuel t0 level22) (fuel t0 level23) (fuel t0 level24) (fuel t0 level25) (fuel t0 level26) (fuel t0 level27) (fuel t0 level28) (fuel t0 level29) (fuel t0 level30) (fuel t0 level32) (fuel t0 level33) (fuel t0 level34) (fuel t0 level36):fam
 (at t0 l1) (fuel t0 level10) (fuel t0 level12) (fuel t0 level14) (fuel t0 level16) (fuel t0 level18) (fuel t0 level2) (fuel t0 level20) (fuel t0 level22) (fuel t0 level24) (fuel t0 level26) (fuel t0 level28) (fuel t0 level30) (fuel t0 level32) (fuel t0 level34) (fuel t0 level36) (fuel t0 level4) (fuel t0 level6) (fuel t0 level8):fam
 (fuel t0 level13) (fuel t0 level16) (fuel t0 level18) (fuel t0 level19) (fuel t0 level20) (fuel t0 level21) (fuel t0 level22) (fuel t0 level23) (fuel t0 level24) (fuel t0 level25) (fuel t0 level26) (fuel t0 level27) (fuel t0 level28) (fuel t0 level29) (fuel t0 level30) (fuel t0 level32) (fuel t0 level33) (fuel t0 level34) (fuel t0 level36):fam
 (fuel t0 level15) (fuel t0 level16) (fuel t0 level18) (fuel t0 level19) (fuel t0 level20) (fuel t0 level21) (fuel t0 level22) (fuel t0 level23) (fuel t0 level24) (fuel t0 level25) (fuel t0 level26) (fuel t0 level27) (fuel t0 level28) (fuel t0 level29) (fuel t0 level30) (fuel t0 level32) (fuel t0 level33) (fuel t0 level34) (fuel t0 level36):fam
 (fuel t0 level15) (fuel t0 level17) (fuel t0 level18) (fuel t0 level19) (fuel t0 level20) (fuel t0 level21) (fuel t0 level22) (fuel t0 level23) (fuel t0 level24) (fuel t0 level25) (fuel t0 level26) (fuel t0 level27) (fuel t0 level28) (fuel t0 level29) (fuel t0 level30) (fuel t0 level32) (fuel t0 level33) (fuel t0 level34) (fuel t0 level36):fam
 (fuel t0 level16) (fuel t0 level17) (fuel t0 level18) (fuel t0 level19) (fuel t0 level20) (fuel t0 level21) (fuel t0 level22) (fuel t0 level23) (fuel t0 level24) (fuel t0 level25) (fuel t0 level26) (fuel t0 level27) (fuel t0 level28) (fuel t0 level29) (fuel t0 level30) (fuel t0 level32) (fuel t0 level33) (fuel t0 level34) (fuel t0 level36):fam
 (fuel t0 level13) (fuel t0 level15) (fuel t0 level16) (fuel t0 level18) (fuel t0 level19) (fuel t0 level20) (fuel t0 level21) (fuel t0 level22) (fuel t0 level23) (fuel t0 level24) (fuel t0 level25) (fuel t0 level26) (fuel t0 level27) (fuel t0 level28) (fuel t0 level29) (fuel t0 level30) (fuel t0 level32) (fuel t0 level33) (fuel t0 level34) (fuel t0 level36):fam
 (fuel t0 level13) (fuel t0 level16) (fuel t0 level17) (fuel t0 level18) (fuel t0 level19) (fuel t0 level20) (fuel t0 level21) (fuel t0 level22) (fuel t0 level23) (fuel t0 level24) (fuel t0 level25) (fuel t0 level26) (fuel t0 level27) (fuel t0 level28) (fuel t0 level29) (fuel t0 level30) (fuel t0 level32) (fuel t0 level33) (fuel t0 level34) (fuel t0 level36):fam
 (fuel t0 level14) (fuel t0 level16) (fuel t0 level17) (fuel t0 level18) (fuel t0 level19) (fuel t0 level20) (fuel t0 level21) (fuel t0 level22) (fuel t0 level23) (fuel t0 level24) (fuel t0 level25) (fuel t0 level26) (fuel t0 level27) (fuel t0 level28) (fuel t0 level29) (fuel t0 level30) (fuel t0 level32) (fuel t0 level33) (fuel t0 level34) (fuel t0 level36):fam
 (fuel t0 level15) (fuel t0 level16) (fuel t0 level17) (fuel t0 level18) (fuel t0 level19) (fuel t0 level20) (fuel t0 level21) (fuel t0 level22) (fuel t0 level23) (fuel t0 level24) (fuel t0 level25) (fuel t0 level26) (fuel t0 level27) (fuel t0 level28) (fuel t0 level29) (fuel t0 level30) (fuel t0 level32) (fuel t0 level33) (fuel t0 level34) (fuel t0 level36):fam
 (fuel t0 level11) (fuel t0 level14) (fuel t0 level16) (fuel t0 level17) (fuel t0 level18) (fuel t0 level19) (fuel t0 level20) (fuel t0 level21) (fuel t0 level22) (fuel t0 level23) (fuel t0 level24) (fuel t0 level25) (fuel t0 level26) (fuel t0 level27) (fuel t0 level28) (fuel t0 level29) (fuel t0 level30) (fuel t0 level32) (fuel t0 level33) (fuel t0 level34) (fuel t0 level36):fam
 (fuel t0 level13) (fuel t0 level14) (fuel t0 level16) (fuel t0 level17) (fuel t0 level18) (fuel t0 level19) (fuel t0 level20) (fuel t0 level21) (fuel t0 level22) (fuel t0 level23) (fuel t0 level24) (fuel t0 level25) (fuel t0 level26) (fuel t0 level27) (fuel t0 level28) (fuel t0 level29) (fuel t0 level30) (fuel t0 level32) (fuel t0 level33) (fuel t0 level34) (fuel t0 level36):fam
 (fuel t0 level13) (fuel t0 level15) (fuel t0 level16) (fuel t0 level17) (fuel t0 level18) (fuel t0 level19) (fuel t0 level20) (fuel t0 level21) (fuel t0 level22) (fuel t0 level23) (fuel t0 level24) (fuel t0 level25) (fuel t0 level26) (fuel t0 level27) (fuel t0 level28) (fuel t0 level29) (fuel t0 level30) (fuel t0 level32) (fuel t0 level33) (fuel t0 level34) (fuel t0 level36):fam
 (fuel t0 level14) (fuel t0 level15) (fuel t0 level16) (fuel t0 level17) (fuel t0 level18) (fuel t0 level19) (fuel t0 level20) (fuel t0 level21) (fuel t0 level22) (fuel t0 level23) (fuel t0 level24) (fuel t0 level25) (fuel t0 level26) (fuel t0 level27) (fuel t0 level28) (fuel t0 level29) (fuel t0 level30) (fuel t0 level32) (fuel t0 level33) (fuel t0 level34) (fuel t0 level36):fam
 (fuel t0 level11) (fuel t0 level13) (fuel t0 level14) (fuel t0 level16) (fuel t0 level17) (fuel t0 level18) (fuel t0 level19) (fuel t0 level20) (fuel t0 level21) (fuel t0 level22) (fuel t0 level23) (fuel t0 level24) (fuel t0 level25) (fuel t0 level26) (fuel t0 level27) (fuel t0 level28) (fuel t0 level29) (fuel t0 level30) (fuel t0 level32) (fuel t0 level33) (fuel t0 level34) (fuel t0 level36):fam
 (fuel t0 level11) (fuel t0 level14) (fuel t0 level15) (fuel t0 level16) (fuel t0 level17) (fuel t0 level18) (fuel t0 level19) (fuel t0 level20) (fuel t0 level21) (fuel t0 level22) (fuel t0 level23) (fuel t0 level24) (fuel t0 level25) (fuel t0 level26) (fuel t0 level27) (fuel t0 level28) (fuel t0 level29) (fuel t0 level30) (fuel t0 level32) (fuel t0 level33) (fuel t0 level34) (fuel t0 level36):fam
 (fuel t0 level12) (fuel t0 level14) (fuel t0 level15) (fuel t0 level16) (fuel t0 level17) (fuel t0 level18) (fuel t0 level19) (fuel t0 level20) (fuel t0 level21) (fuel t0 level22) (fuel t0 level23) (fuel t0 level24) (fuel t0 level25) (fuel t0 level26) (fuel t0 level27) (fuel t0 level28) (fuel t0 level29) (fuel t0 level30) (fuel t0 level32) (fuel t0 level33) (fuel t0 level34) (fuel t0 level36):fam
 (fuel t0 level13) (fuel t0 level14) (fuel t0 level15) (fuel t0 level16) (fuel t0 level17) (fuel t0 level18) (fuel t0 level19) (fuel t0 level20) (fuel t0 level21) (fuel t0 level22) (fuel t0 level23) (fuel t0 level24) (fuel t0 level25) (fuel t0 level26) (fuel t0 level27) (fuel t0 level28) (fuel t0 level29) (fuel t0 level30) (fuel t0 level32) (fuel t0 level33) (fuel t0 level34) (fuel t0 level36):fam
 (fuel t0 level11) (fuel t0 level12) (fuel t0 level14) (fuel t0 level15) (fuel t0 level16) (fuel t0 level17) (fuel t0 level18) (fuel t0 level19) (fuel t0 level20) (fuel t0 level21) (fuel t0 level22) (fuel t0 level23) (fuel t0 level24) (fuel t0 level25) (fuel t0 level26) (fuel t0 level27) (fuel t0 level28) (fuel t0 level29) (fuel t0 level30) (fuel t0 level32) (fuel t0 level33) (fuel t0 level34) (fuel t0 level36):fam
 (fuel t0 level11) (fuel t0 level13) (fuel t0 level14) (fuel t0 level15) (fuel t0 level16) (fuel t0 level17) (fuel t0 level18) (fuel t0 level19) (fuel t0 level20) (fuel t0 level21) (fuel t0 level22) (fuel t0 level23) (fuel t0 level24) (fuel t0 level25) (fuel t0 level26) (fuel t0 level27) (fuel t0 level28) (fuel t0 level29) (fuel t0 level30) (fuel t0 level32) (fuel t0 level33) (fuel t0 level34) (fuel t0 level36):fam
 (fuel t0 level12) (fuel t0 level13) (fuel t0 level14) (fuel t0 level15) (fuel t0 level16) (fuel t0 level17) (fuel t0 level18) (fuel t0 level19) (fuel t0 level20) (fuel t0 level21) (fuel t0 level22) (fuel t0 level23) (fuel t0 level24) (fuel t0 level25) (fuel t0 level26) (fuel t0 level27) (fuel t0 level28) (fuel t0 level29) (fuel t0 level30) (fuel t0 level32) (fuel t0 level33) (fuel t0 level34) (fuel t0 level36):fam
 (fuel t0 level12) (fuel t0 level14) (fuel t0 level15) (fuel t0 level16) (fuel t0 level17) (fuel t0 level18) (fuel t0 level19) (fuel t0 level20) (fuel t0 level21) (fuel t0 level22) (fuel t0 level23) (fuel t0 level24) (fuel t0 level25) (fuel t0 level26) (fuel t0 level27) (fuel t0 level28) (fuel t0 level29) (fuel t0 level30) (fuel t0 level32) (fuel t0 level33) (fuel t0 level34) (fuel t0 level36) (fuel t0 level9):fam
 (fuel t0 level10) (fuel t0 level12) (fuel t0 level13) (fuel t0 level14) (fuel t0 level15) (fuel t0 level16) (fuel t0 level17) (fuel t0 level18) (fuel t0 level19) (fuel t0 level20) (fuel t0 level21) (fuel t0 level22) (fuel t0 level23) (fuel t0 level24) (fuel t0 level25) (fuel t0 level26) (fuel t0 level27) (fuel t0 level28) (fuel t0 level29) (fuel t0 level30) (fuel t0 level32) (fuel t0 level33) (fuel t0 level34) (fuel t0 level36):fam
 (fuel t0 level11) (fuel t0 level12) (fuel t0 level13) (fuel t0 level14) (fuel t0 level15) (fuel t0 level16) (fuel t0 level17) (fuel t0 level18) (fuel t0 level19) (fuel t0 level20) (fuel t0 level21) (fuel t0 level22) (fuel t0 level23) (fuel t0 level24) (fuel t0 level25) (fuel t0 level26) (fuel t0 level27) (fuel t0 level28) (fuel t0 level29) (fuel t0 level30) (fuel t0 level32) (fuel t0 level33) (fuel t0 level34) (fuel t0 level36):fam
 (fuel t0 level11) (fuel t0 level12) (fuel t0 level14) (fuel t0 level15) (fuel t0 level16) (fuel t0 level17) (fuel t0 level18) (fuel t0 level19) (fuel t0 level20) (fuel t0 level21) (fuel t0 level22) (fuel t0 level23) (fuel t0 level24) (fuel t0 level25) (fuel t0 level26) (fuel t0 level27) (fuel t0 level28) (fuel t0 level29) (fuel t0 level30) (fuel t0 level32) (fuel t0 level33) (fuel t0 level34) (fuel t0 level36) (fuel t0 level9):fam
 (fuel t0 level12) (fuel t0 level13) (fuel t0 level14) (fuel t0 level15) (fuel t0 level16) (fuel t0 level17) (fuel t0 level18) (fuel t0 level19) (fuel t0 level20) (fuel t0 level21) (fuel t0 level22) (fuel t0 level23) (fuel t0 level24) (fuel t0 level25) (fuel t0 level26) (fuel t0 level27) (fuel t0 level28) (fuel t0 level29) (fuel t0 level30) (fuel t0 level32) (fuel t0 level33) (fuel t0 level34) (fuel t0 level36) (fuel t0 level9):fam
 (fuel t0 level10) (fuel t0 level11) (fuel t0 level12) (fuel t0 level13) (fuel t0 level14) (fuel t0 level15) (fuel t0 level16) (fuel t0 level17) (fuel t0 level18) (fuel t0 level19) (fuel t0 level20) (fuel t0 level21) (fuel t0 level22) (fuel t0 level23) (fuel t0 level24) (fuel t0 level25) (fuel t0 level26) (fuel t0 level27) (fuel t0 level28) (fuel t0 level29) (fuel t0 level30) (fuel t0 level32) (fuel t0 level33) (fuel t0 level34) (fuel t0 level36):fam
 (fuel t0 level10) (fuel t0 level12) (fuel t0 level13) (fuel t0 level14) (fuel t0 level15) (fuel t0 level16) (fuel t0 level17) (fuel t0 level18) (fuel t0 level19) (fuel t0 level20) (fuel t0 level21) (fuel t0 level22) (fuel t0 level23) (fuel t0 level24) (fuel t0 level25) (fuel t0 level26) (fuel t0 level27) (fuel t0 level28) (fuel t0 level29) (fuel t0 level30) (fuel t0 level32) (fuel t0 level33) (fuel t0 level34) (fuel t0 level36) (fuel t0 level7):fam
 (fuel t0 level10) (fuel t0 level12) (fuel t0 level13) (fuel t0 level14) (fuel t0 level15) (fuel t0 level16) (fuel t0 level17) (fuel t0 level18) (fuel t0 level19) (fuel t0 level20) (fuel t0 level21) (fuel t0 level22) (fuel t0 level23) (fuel t0 level24) (fuel t0 level25) (fuel t0 level26) (fuel t0 level27) (fuel t0 level28) (fuel t0 level29) (fuel t0 level30) (fuel t0 level32) (fuel t0 level33) (fuel t0 level34) (fuel t0 level36) (fuel t0 level9):fam
 (fuel t0 level11) (fuel t0 level12) (fuel t0 level13) (fuel t0 level14) (fuel t0 level15) (fuel t0 level16) (fuel t0 level17) (fuel t0 level18) (fuel t0 level19) (fuel t0 level20) (fuel t0 level21) (fuel t0 level22) (fuel t0 level23) (fuel t0 level24) (fuel t0 level25) (fuel t0 level26) (fuel t0 level27) (fuel t0 level28) (fuel t0 level29) (fuel t0 level30) (fuel t0 level32) (fuel t0 level33) (fuel t0 level34) (fuel t0 level36) (fuel t0 level9):fam
 (fuel t0 level10) (fuel t0 level11) (fuel t0 level12) (fuel t0 level13) (fuel t0 level14) (fuel t0 level15) (fuel t0 level16) (fuel t0 level17) (fuel t0 level18) (fuel t0 level19) (fuel t0 level20) (fuel t0 level21) (fuel t0 level22) (fuel t0 level23) (fuel t0 level24) (fuel t0 level25) (fuel t0 level26) (fuel t0 level27) (fuel t0 level28) (fuel t0 level29) (fuel t0 level30) (fuel t0 level32) (fuel t0 level33) (fuel t0 level34) (fuel t0 level36) (fuel t0 level7):fam
 (fuel t0 level10) (fuel t0 level11) (fuel t0 level12) (fuel t0 level13) (fuel t0 level14) (fuel t0 level15) (fuel t0 level16) (fuel t0 level17) (fuel t0 level18) (fuel t0 level19) (fuel t0 level20) (fuel t0 level21) (fuel t0 level22) (fuel t0 level23) (fuel t0 level24) (fuel t0 level25) (fuel t0 level26) (fuel t0 level27) (fuel t0 level28) (fuel t0 level29) (fuel t0 level30) (fuel t0 level32) (fuel t0 level33) (fuel t0 level34) (fuel t0 level36) (fuel t0 level8):fam
 (fuel t0 level10) (fuel t0 level11) (fuel t0 level12) (fuel t0 level13) (fuel t0 level14) (fuel t0 level15) (fuel t0 level16) (fuel t0 level17) (fuel t0 level18) (fuel t0 level19) (fuel t0 level20) (fuel t0 level21) (fuel t0 level22) (fuel t0 level23) (fuel t0 level24) (fuel t0 level25) (fuel t0 level26) (fuel t0 level27) (fuel t0 level28) (fuel t0 level29) (fuel t0 level30) (fuel t0 level32) (fuel t0 level33) (fuel t0 level34) (fuel t0 level36) (fuel t0 level9):fam
 (fuel t0 level10) (fuel t0 level12) (fuel t0 level13) (fuel t0 level14) (fuel t0 level15) (fuel t0 level16) (fuel t0 level17) (fuel t0 level18) (fuel t0 level19) (fuel t0 level20) (fuel t0 level21) (fuel t0 level22) (fuel t0 level23) (fuel t0 level24) (fuel t0 level25) (fuel t0 level26) (fuel t0 level27) (fuel t0 level28) (fuel t0 level29) (fuel t0 level30) (fuel t0 level32) (fuel t0 level33) (fuel t0 level34) (fuel t0 level36) (fuel t0 level7) (fuel t0 level9):fam
 (fuel t0 level10) (fuel t0 level11) (fuel t0 level12) (fuel t0 level13) (fuel t0 level14) (fuel t0 level15) (fuel t0 level16) (fuel t0 level17) (fuel t0 level18) (fuel t0 level19) (fuel t0 level20) (fuel t0 level21) (fuel t0 level22) (fuel t0 level23) (fuel t0 level24) (fuel t0 level25) (fuel t0 level26) (fuel t0 level27) (fuel t0 level28) (fuel t0 level29) (fuel t0 level30) (fuel t0 level32) (fuel t0 level33) (fuel t0 level34) (fuel t0 level36) (fuel t0 level5) (fuel t0 level8):fam
 (fuel t0 level10) (fuel t0 level11) (fuel t0 level12) (fuel t0 level13) (fuel t0 level14) (fuel t0 level15) (fuel t0 level16) (fuel t0 level17) (fuel t0 level18) (fuel t0 level19) (fuel t0 level20) (fuel t0 level21) (fuel t0 level22) (fuel t0 level23) (fuel t0 level24) (fuel t0 level25) (fuel t0 level26) (fuel t0 level27) (fuel t0 level28) (fuel t0 level29) (fuel t0 level30) (fuel t0 level32) (fuel t0 level33) (fuel t0 level34) (fuel t0 level36) (fuel t0 level7) (fuel t0 level8):fam
 (fuel t0 level10) (fuel t0 level11) (fuel t0 level12) (fuel t0 level13) (fuel t0 level14) (fuel t0 level15) (fuel t0 level16) (fuel t0 level17) (fuel t0 level18) (fuel t0 level19) (fuel t0 level20) (fuel t0 level21) (fuel t0 level22) (fuel t0 level23) (fuel t0 level24) (fuel t0 level25) (fuel t0 level26) (fuel t0 level27) (fuel t0 level28) (fuel t0 level29) (fuel t0 level30) (fuel t0 level32) (fuel t0 level33) (fuel t0 level34) (fuel t0 level36) (fuel t0 level7) (fuel t0 level9):fam
 (fuel t0 level10) (fuel t0 level11) (fuel t0 level12) (fuel t0 level13) (fuel t0 level14) (fuel t0 level15) (fuel t0 level16) (fuel t0 level17) (fuel t0 level18) (fuel t0 level19) (fuel t0 level20) (fuel t0 level21) (fuel t0 level22) (fuel t0 level23) (fuel t0 level24) (fuel t0 level25) (fuel t0 level26) (fuel t0 level27) (fuel t0 level28) (fuel t0 level29) (fuel t0 level30) (fuel t0 level32) (fuel t0 level33) (fuel t0 level34) (fuel t0 level36) (fuel t0 level8) (fuel t0 level9):fam
 (fuel t0 level10) (fuel t0 level11) (fuel t0 level12) (fuel t0 level13) (fuel t0 level14) (fuel t0 level15) (fuel t0 level16) (fuel t0 level17) (fuel t0 level18) (fuel t0 level19) (fuel t0 level20) (fuel t0 level21) (fuel t0 level22) (fuel t0 level23) (fuel t0 level24) (fuel t0 level25) (fuel t0 level26) (fuel t0 level27) (fuel t0 level28) (fuel t0 level29) (fuel t0 level30) (fuel t0 level32) (fuel t0 level33) (fuel t0 level34) (fuel t0 level36) (fuel t0 level5) (fuel t0 level7) (fuel t0 level8):fam
 (fuel t0 level10) (fuel t0 level11) (fuel t0 level12) (fuel t0 level13) (fuel t0 level14) (fuel t0 level15) (fuel t0 level16) (fuel t0 level17) (fuel t0 level18) (fuel t0 level19) (fuel t0 level20) (fuel t0 level21) (fuel t0 level22) (fuel t0 level23) (fuel t0 level24) (fuel t0 level25) (fuel t0 level26) (fuel t0 level27) (fuel t0 level28) (fuel t0 level29) (fuel t0 level30) (fuel t0 level32) (fuel t0 level33) (fuel t0 level34) (fuel t0 level36) (fuel t0 level5) (fuel t0 level8) (fuel t0 level9):fam
 (fuel t0 level10) (fuel t0 level11) (fuel t0 level12) (fuel t0 level13) (fuel t0 level14) (fuel t0 level15) (fuel t0 level16) (fuel t0 level17) (fuel t0 level18) (fuel t0 level19) (fuel t0 level20) (fuel t0 level21) (fuel t0 level22) (fuel t0 level23) (fuel t0 level24) (fuel t0 level25) (fuel t0 level26) (fuel t0 level27) (fuel t0 level28) (fuel t0 level29) (fuel t0 level30) (fuel t0 level32) (fuel t0 level33) (fuel t0 level34) (fuel t0 level36) (fuel t0 level6) (fuel t0 level8) (fuel t0 level9):fam
 (fuel t0 level10) (fuel t0 level11) (fuel t0 level12) (fuel t0 level13) (fuel t0 level14) (fuel t0 level15) (fuel t0 level16) (fuel t0 level17) (fuel t0 level18) (fuel t0 level19) (fuel t0 level20) (fuel t0 level21) (fuel t0 level22) (fuel t0 level23) (fuel t0 level24) (fuel t0 level25) (fuel t0 level26) (fuel t0 level27) (fuel t0 level28) (fuel t0 level29) (fuel t0 level30) (fuel t0 level32) (fuel t0 level33) (fuel t0 level34) (fuel t0 level36) (fuel t0 level7) (fuel t0 level8) (fuel t0 level9):fam
 (fuel t0 level10) (fuel t0 level11) (fuel t0 level12) (fuel t0 level13) (fuel t0 level14) (fuel t0 level15) (fuel t0 level16) (fuel t0 level17) (fuel t0 level18) (fuel t0 level19) (fuel t0 level20) (fuel t0 level21) (fuel t0 level22) (fuel t0 level23) (fuel t0 level24) (fuel t0 level25) (fuel t0 level26) (fuel t0 level27) (fuel t0 level28) (fuel t0 level29) (fuel t0 level3) (fuel t0 level30) (fuel t0 level32) (fuel t0 level33) (fuel t0 level34) (fuel t0 level36) (fuel t0 level6) (fuel t0 level8) (fuel t0 level9):fam
 (fuel t0 level10) (fuel t0 level11) (fuel t0 level12) (fuel t0 level13) (fuel t0 level14) (fuel t0 level15) (fuel t0 level16) (fuel t0 level17) (fuel t0 level18) (fuel t0 level19) (fuel t0 level20) (fuel t0 level21) (fuel t0 level22) (fuel t0 level23) (fuel t0 level24) (fuel t0 level25) (fuel t0 level26) (fuel t0 level27) (fuel t0 level28) (fuel t0 level29) (fuel t0 level30) (fuel t0 level32) (fuel t0 level33) (fuel t0 level34) (fuel t0 level36) (fuel t0 level5) (fuel t0 level6) (fuel t0 level8) (fuel t0 level9):fam
 (fuel t0 level10) (fuel t0 level11) (fuel t0 level12) (fuel t0 level13) (fuel t0 level14) (fuel t0 level15) (fuel t0 level16) (fuel t0 level17) (fuel t0 level18) (fuel t0 level19) (fuel t0 level20) (fuel t0 level21) (fuel t0 level22) (fuel t0 level23) (fuel t0 level24) (fuel t0 level25) (fuel t0 level26) (fuel t0 level27) (fuel t0 level28) (fuel t0 level29) (fuel t0 level30) (fuel t0 level32) (fuel t0 level33) (fuel t0 level34) (fuel t0 level36) (fuel t0 level5) (fuel t0 level7) (fuel t0 level8) (fuel t0 level9):fam
 (fuel t0 level10) (fuel t0 level11) (fuel t0 level12) (fuel t0 level13) (fuel t0 level14) (fuel t0 level15) (fuel t0 level16) (fuel t0 level17) (fuel t0 level18) (fuel t0 level19) (fuel t0 level20) (fuel t0 level21) (fuel t0 level22) (fuel t0 level23) (fuel t0 level24) (fuel t0 level25) (fuel t0 level26) (fuel t0 level27) (fuel t0 level28) (fuel t0 level29) (fuel t0 level30) (fuel t0 level32) (fuel t0 level33) (fuel t0 level34) (fuel t0 level36) (fuel t0 level6) (fuel t0 level7) (fuel t0 level8) (fuel t0 level9):fam
 (fuel t0 level10) (fuel t0 level11) (fuel t0 level12) (fuel t0 level13) (fuel t0 level14) (fuel t0 level15) (fuel t0 level16) (fuel t0 level17) (fuel t0 level18) (fuel t0 level19) (fuel t0 level20) (fuel t0 level21) (fuel t0 level22) (fuel t0 level23) (fuel t0 level24) (fuel t0 level25) (fuel t0 level26) (fuel t0 level27) (fuel t0 level28) (fuel t0 level29) (fuel t0 level3) (fuel t0 level30) (fuel t0 level32) (fuel t0 level33) (fuel t0 level34) (fuel t0 level36) (fuel t0 level5) (fuel t0 level6) (fuel t0 level8) (fuel t0 level9):fam
 (fuel t0 level10) (fuel t0 level11) (fuel t0 level12) (fuel t0 level13) (fuel t0 level14) (fuel t0 level15) (fuel t0 level16) (fuel t0 level17) (fuel t0 level18) (fuel t0 level19) (fuel t0 level20) (fuel t0 level21) (fuel t0 level22) (fuel t0 level23) (fuel t0 level24) (fuel t0 level25) (fuel t0 level26) (fuel t0 level27) (fuel t0 level28) (fuel t0 level29) (fuel t0 level3) (fuel t0 level30) (fuel t0 level32) (fuel t0 level33) (fuel t0 level34) (fuel t0 level36) (fuel t0 level6) (fuel t0 level7) (fuel t0 level8) (fuel t0 level9):fam
 (fuel t0 level10) (fuel t0 level11) (fuel t0 level12) (fuel t0 level13) (fuel t0 level14) (fuel t0 level15) (fuel t0 level16) (fuel t0 level17) (fuel t0 level18) (fuel t0 level19) (fuel t0 level20) (fuel t0 level21) (fuel t0 level22) (fuel t0 level23) (fuel t0 level24) (fuel t0 level25) (fuel t0 level26) (fuel t0 level27) (fuel t0 level28) (fuel t0 level29) (fuel t0 level30) (fuel t0 level32) (fuel t0 level33) (fuel t0 level34) (fuel t0 level36) (fuel t0 level4) (fuel t0 level6) (fuel t0 level7) (fuel t0 level8) (fuel t0 level9):fam
 (fuel t0 level10) (fuel t0 level11) (fuel t0 level12) (fuel t0 level13) (fuel t0 level14) (fuel t0 level15) (fuel t0 level16) (fuel t0 level17) (fuel t0 level18) (fuel t0 level19) (fuel t0 level20) (fuel t0 level21) (fuel t0 level22) (fuel t0 level23) (fuel t0 level24) (fuel t0 level25) (fuel t0 level26) (fuel t0 level27) (fuel t0 level28) (fuel t0 level29) (fuel t0 level30) (fuel t0 level32) (fuel t0 level33) (fuel t0 level34) (fuel t0 level36) (fuel t0 level5) (fuel t0 level6) (fuel t0 level7) (fuel t0 level8) (fuel t0 level9):fam
 (fuel t0 level10) (fuel t0 level11) (fuel t0 level12) (fuel t0 level13) (fuel t0 level14) (fuel t0 level15) (fuel t0 level16) (fuel t0 level17) (fuel t0 level18) (fuel t0 level19) (fuel t0 level20) (fuel t0 level21) (fuel t0 level22) (fuel t0 level23) (fuel t0 level24) (fuel t0 level25) (fuel t0 level26) (fuel t0 level27) (fuel t0 level28) (fuel t0 level29) (fuel t0 level3) (fuel t0 level30) (fuel t0 level32) (fuel t0 level33) (fuel t0 level34) (fuel t0 level36) (fuel t0 level4) (fuel t0 level6) (fuel t0 level7) (fuel t0 level8) (fuel t0 level9):fam
 (fuel t0 level10) (fuel t0 level11) (fuel t0 level12) (fuel t0 level13) (fuel t0 level14) (fuel t0 level15) (fuel t0 level16) (fuel t0 level17) (fuel t0 level18) (fuel t0 level19) (fuel t0 level20) (fuel t0 level21) (fuel t0 level22) (fuel t0 level23) (fuel t0 level24) (fuel t0 level25) (fuel t0 level26) (fuel t0 level27) (fuel t0 level28) (fuel t0 level29) (fuel t0 level3) (fuel t0 level30) (fuel t0 level32) (fuel t0 level33) (fuel t0 level34) (fuel t0 level36) (fuel t0 level5) (fuel t0 level6) (fuel t0 level7) (fuel t0 level8) (fuel t0 level9):fam
 (fuel t0 level10) (fuel t0 level11) (fuel t0 level12) (fuel t0 level13) (fuel t0 level14) (fuel t0 level15) (fuel t0 level16) (fuel t0 level17) (fuel t0 level18) (fuel t0 level19) (fuel t0 level20) (fuel t0 level21) (fuel t0 level22) (fuel t0 level23) (fuel t0 level24) (fuel t0 level25) (fuel t0 level26) (fuel t0 level27) (fuel t0 level28) (fuel t0 level29) (fuel t0 level30) (fuel t0 level32) (fuel t0 level33) (fuel t0 level34) (fuel t0 level36) (fuel t0 level4) (fuel t0 level5) (fuel t0 level6) (fuel t0 level7) (fuel t0 level8) (fuel t0 level9):fam
 (fuel t0 level10) (fuel t0 level11) (fuel t0 level12) (fuel t0 level13) (fuel t0 level14) (fuel t0 level15) (fuel t0 level16) (fuel t0 level17) (fuel t0 level18) (fuel t0 level19) (fuel t0 level2) (fuel t0 level20) (fuel t0 level21) (fuel t0 level22) (fuel t0 level23) (fuel t0 level24) (fuel t0 level25) (fuel t0 level26) (fuel t0 level27) (fuel t0 level28) (fuel t0 level29) (fuel t0 level30) (fuel t0 level32) (fuel t0 level33) (fuel t0 level34) (fuel t0 level36) (fuel t0 level4) (fuel t0 level5) (fuel t0 level6) (fuel t0 level7) (fuel t0 level8) (fuel t0 level9):fam
 (fuel t0 level10) (fuel t0 level11) (fuel t0 level12) (fuel t0 level13) (fuel t0 level14) (fuel t0 level15) (fuel t0 level16) (fuel t0 level17) (fuel t0 level18) (fuel t0 level19) (fuel t0 level20) (fuel t0 level21) (fuel t0 level22) (fuel t0 level23) (fuel t0 level24) (fuel t0 level25) (fuel t0 level26) (fuel t0 level27) (fuel t0 level28) (fuel t0 level29) (fuel t0 level3) (fuel t0 level30) (fuel t0 level32) (fuel t0 level33) (fuel t0 level34) (fuel t0 level36) (fuel t0 level4) (fuel t0 level5) (fuel t0 level6) (fuel t0 level7) (fuel t0 level8) (fuel t0 level9):fam
 (fuel t0 level10) (fuel t0 level11) (fuel t0 level12) (fuel t0 level13) (fuel t0 level14) (fuel t0 level15) (fuel t0 level16) (fuel t0 level17) (fuel t0 level18) (fuel t0 level19) (fuel t0 level2) (fuel t0 level20) (fuel t0 level21) (fuel t0 level22) (fuel t0 level23) (fuel t0 level24) (fuel t0 level25) (fuel t0 level26) (fuel t0 level27) (fuel t0 level28) (fuel t0 level29) (fuel t0 level3) (fuel t0 level30) (fuel t0 level32) (fuel t0 level33) (fuel t0 level34) (fuel t0 level36) (fuel t0 level4) (fuel t0 level5) (fuel t0 level6) (fuel t0 level7) (fuel t0 level8) (fuel t0 level9):fam

