Monotonicity invariants:
< {at V0:object C1:object}
, {at_soil_sample V0:object}
, {at_soil_sample C0:object}
, {at_rock_sample V0:object}
, {at_rock_sample C0:object}
, {empty V0:object, full V0:object}
, {empty C0:object, full C1:object}
, {have_rock_analysis V0:object V1:object, at_rock_sample V1:object}
, {have_rock_analysis V0:object V1:object, at_rock_sample C2:object}
, {have_rock_analysis V0:object C1:object, at_rock_sample C2:object}
, {have_rock_analysis C1:object V0:object, at_rock_sample V0:object}
, {have_rock_analysis C1:object V0:object, at_rock_sample C2:object}
, {have_soil_analysis V0:object V1:object, at_soil_sample V1:object}
, {have_soil_analysis V0:object V1:object, at_soil_sample C2:object}
, {have_soil_analysis V0:object C1:object, at_soil_sample C2:object}
, {have_soil_analysis C1:object V0:object, at_soil_sample V0:object}
, {have_soil_analysis C1:object V0:object, at_soil_sample C2:object}
, {empty V0:object, full V0:object, at_soil_sample C1:object}
, {empty C0:object, full C1:object, at_soil_sample C2:object}
, {full V0:object, at_soil_sample C1:object, at_rock_sample C2:object}
, {full C0:object, at_soil_sample C1:object, at_rock_sample C2:object}
, {empty V0:object, full C1:object, at_soil_sample C2:object, at_rock_sample C3:object}
>
FD Mutex Groups:
< {at V0:object C1:object}:=1
, {at_soil_sample V0:object}
, {at_rock_sample V0:object}
, {empty V0:object, full V0:object}:=1
, {empty C0:object, full C1:object}:=1
, {have_rock_analysis V0:object V1:object, at_rock_sample V1:object}
, {have_rock_analysis C1:object V0:object, at_rock_sample V0:object}:=1
, {have_soil_analysis V0:object V1:object, at_soil_sample V1:object}
, {have_soil_analysis C1:object V0:object, at_soil_sample V0:object}:=1
>
