Fact[100]:
  (free pos-0-2)
  (free pos-0-3)
  (free pos-0-4)
  (free pos-1-2)
  (free pos-1-3)
  (free pos-1-4)
  (free pos-2-0)
  (free pos-2-1)
  (free pos-2-2)
  (free pos-2-3)
  (free pos-2-4)
  (free pos-2-5)
  (free pos-2-6)
  (free pos-3-0)
  (free pos-3-1)
  (free pos-3-2)
  (free pos-3-3)
  (free pos-3-4)
  (free pos-3-5)
  (free pos-3-6)
  (free pos-4-0)
  (free pos-4-1)
  (free pos-4-2)
  (free pos-4-3)
  (free pos-4-4)
  (free pos-4-5)
  (free pos-4-6)
  (free pos-5-2)
  (free pos-5-3)
  (free pos-5-4)
  (free pos-6-2)
  (free pos-6-3)
  (free pos-6-4)
  (last-visited pos-0-2)
  (last-visited pos-0-3)
  (last-visited pos-0-4)
  (last-visited pos-1-2)
  (last-visited pos-1-3)
  (last-visited pos-1-4)
  (last-visited pos-2-0)
  (last-visited pos-2-1)
  (last-visited pos-2-2)
  (last-visited pos-2-3)
  (last-visited pos-2-4)
  (last-visited pos-2-5)
  (last-visited pos-2-6)
  (last-visited pos-3-0)
  (last-visited pos-3-1)
  (last-visited pos-3-2)
  (last-visited pos-3-3)
  (last-visited pos-3-4)
  (last-visited pos-3-5)
  (last-visited pos-3-6)
  (last-visited pos-4-0)
  (last-visited pos-4-1)
  (last-visited pos-4-2)
  (last-visited pos-4-3)
  (last-visited pos-4-4)
  (last-visited pos-4-5)
  (last-visited pos-4-6)
  (last-visited pos-5-2)
  (last-visited pos-5-3)
  (last-visited pos-5-4)
  (last-visited pos-6-2)
  (last-visited pos-6-3)
  (last-visited pos-6-4)
  (move-ended)
  (occupied pos-0-2)
  (occupied pos-0-3)
  (occupied pos-0-4)
  (occupied pos-1-2)
  (occupied pos-1-3)
  (occupied pos-1-4)
  (occupied pos-2-0)
  (occupied pos-2-1)
  (occupied pos-2-2)
  (occupied pos-2-3)
  (occupied pos-2-4)
  (occupied pos-2-5)
  (occupied pos-2-6)
  (occupied pos-3-0)
  (occupied pos-3-1)
  (occupied pos-3-2)
  (occupied pos-3-3)
  (occupied pos-3-4)
  (occupied pos-3-5)
  (occupied pos-3-6)
  (occupied pos-4-0)
  (occupied pos-4-1)
  (occupied pos-4-2)
  (occupied pos-4-3)
  (occupied pos-4-4)
  (occupied pos-4-5)
  (occupied pos-4-6)
  (occupied pos-5-2)
  (occupied pos-5-3)
  (occupied pos-5-4)
  (occupied pos-6-2)
  (occupied pos-6-3)
  (occupied pos-6-4)
Op[185]:
  (end-move pos-0-2), cost: 1
    pre: (last-visited pos-0-2)
    add: (move-ended)
    del: (last-visited pos-0-2)
  (end-move pos-0-3), cost: 1
    pre: (last-visited pos-0-3)
    add: (move-ended)
    del: (last-visited pos-0-3)
  (end-move pos-0-4), cost: 1
    pre: (last-visited pos-0-4)
    add: (move-ended)
    del: (last-visited pos-0-4)
  (end-move pos-1-2), cost: 1
    pre: (last-visited pos-1-2)
    add: (move-ended)
    del: (last-visited pos-1-2)
  (end-move pos-1-3), cost: 1
    pre: (last-visited pos-1-3)
    add: (move-ended)
    del: (last-visited pos-1-3)
  (end-move pos-1-4), cost: 1
    pre: (last-visited pos-1-4)
    add: (move-ended)
    del: (last-visited pos-1-4)
  (end-move pos-2-0), cost: 1
    pre: (last-visited pos-2-0)
    add: (move-ended)
    del: (last-visited pos-2-0)
  (end-move pos-2-1), cost: 1
    pre: (last-visited pos-2-1)
    add: (move-ended)
    del: (last-visited pos-2-1)
  (end-move pos-2-2), cost: 1
    pre: (last-visited pos-2-2)
    add: (move-ended)
    del: (last-visited pos-2-2)
  (end-move pos-2-3), cost: 1
    pre: (last-visited pos-2-3)
    add: (move-ended)
    del: (last-visited pos-2-3)
  (end-move pos-2-4), cost: 1
    pre: (last-visited pos-2-4)
    add: (move-ended)
    del: (last-visited pos-2-4)
  (end-move pos-2-5), cost: 1
    pre: (last-visited pos-2-5)
    add: (move-ended)
    del: (last-visited pos-2-5)
  (end-move pos-2-6), cost: 1
    pre: (last-visited pos-2-6)
    add: (move-ended)
    del: (last-visited pos-2-6)
  (end-move pos-3-0), cost: 1
    pre: (last-visited pos-3-0)
    add: (move-ended)
    del: (last-visited pos-3-0)
  (end-move pos-3-1), cost: 1
    pre: (last-visited pos-3-1)
    add: (move-ended)
    del: (last-visited pos-3-1)
  (end-move pos-3-2), cost: 1
    pre: (last-visited pos-3-2)
    add: (move-ended)
    del: (last-visited pos-3-2)
  (end-move pos-3-3), cost: 1
    pre: (last-visited pos-3-3)
    add: (move-ended)
    del: (last-visited pos-3-3)
  (end-move pos-3-4), cost: 1
    pre: (last-visited pos-3-4)
    add: (move-ended)
    del: (last-visited pos-3-4)
  (end-move pos-3-5), cost: 1
    pre: (last-visited pos-3-5)
    add: (move-ended)
    del: (last-visited pos-3-5)
  (end-move pos-3-6), cost: 1
    pre: (last-visited pos-3-6)
    add: (move-ended)
    del: (last-visited pos-3-6)
  (end-move pos-4-0), cost: 1
    pre: (last-visited pos-4-0)
    add: (move-ended)
    del: (last-visited pos-4-0)
  (end-move pos-4-1), cost: 1
    pre: (last-visited pos-4-1)
    add: (move-ended)
    del: (last-visited pos-4-1)
  (end-move pos-4-2), cost: 1
    pre: (last-visited pos-4-2)
    add: (move-ended)
    del: (last-visited pos-4-2)
  (end-move pos-4-3), cost: 1
    pre: (last-visited pos-4-3)
    add: (move-ended)
    del: (last-visited pos-4-3)
  (end-move pos-4-4), cost: 1
    pre: (last-visited pos-4-4)
    add: (move-ended)
    del: (last-visited pos-4-4)
  (end-move pos-4-5), cost: 1
    pre: (last-visited pos-4-5)
    add: (move-ended)
    del: (last-visited pos-4-5)
  (end-move pos-4-6), cost: 1
    pre: (last-visited pos-4-6)
    add: (move-ended)
    del: (last-visited pos-4-6)
  (end-move pos-5-2), cost: 1
    pre: (last-visited pos-5-2)
    add: (move-ended)
    del: (last-visited pos-5-2)
  (end-move pos-5-3), cost: 1
    pre: (last-visited pos-5-3)
    add: (move-ended)
    del: (last-visited pos-5-3)
  (end-move pos-5-4), cost: 1
    pre: (last-visited pos-5-4)
    add: (move-ended)
    del: (last-visited pos-5-4)
  (end-move pos-6-2), cost: 1
    pre: (last-visited pos-6-2)
    add: (move-ended)
    del: (last-visited pos-6-2)
  (end-move pos-6-3), cost: 1
    pre: (last-visited pos-6-3)
    add: (move-ended)
    del: (last-visited pos-6-3)
  (end-move pos-6-4), cost: 1
    pre: (last-visited pos-6-4)
    add: (move-ended)
    del: (last-visited pos-6-4)
  (jump-continue-move pos-0-2 pos-0-3 pos-0-4), cost: 1
    pre: (free pos-0-4) (last-visited pos-0-2) (occupied pos-0-2) (occupied pos-0-3)
    add: (free pos-0-2) (free pos-0-3) (last-visited pos-0-4) (occupied pos-0-4)
    del: (free pos-0-4) (last-visited pos-0-2) (occupied pos-0-2) (occupied pos-0-3)
  (jump-continue-move pos-0-2 pos-1-2 pos-2-2), cost: 1
    pre: (free pos-2-2) (last-visited pos-0-2) (occupied pos-0-2) (occupied pos-1-2)
    add: (free pos-0-2) (free pos-1-2) (last-visited pos-2-2) (occupied pos-2-2)
    del: (free pos-2-2) (last-visited pos-0-2) (occupied pos-0-2) (occupied pos-1-2)
  (jump-continue-move pos-0-3 pos-1-3 pos-2-3), cost: 1
    pre: (free pos-2-3) (last-visited pos-0-3) (occupied pos-0-3) (occupied pos-1-3)
    add: (free pos-0-3) (free pos-1-3) (last-visited pos-2-3) (occupied pos-2-3)
    del: (free pos-2-3) (last-visited pos-0-3) (occupied pos-0-3) (occupied pos-1-3)
  (jump-continue-move pos-0-4 pos-0-3 pos-0-2), cost: 1
    pre: (free pos-0-2) (last-visited pos-0-4) (occupied pos-0-3) (occupied pos-0-4)
    add: (free pos-0-3) (free pos-0-4) (last-visited pos-0-2) (occupied pos-0-2)
    del: (free pos-0-2) (last-visited pos-0-4) (occupied pos-0-3) (occupied pos-0-4)
  (jump-continue-move pos-0-4 pos-1-4 pos-2-4), cost: 1
    pre: (free pos-2-4) (last-visited pos-0-4) (occupied pos-0-4) (occupied pos-1-4)
    add: (free pos-0-4) (free pos-1-4) (last-visited pos-2-4) (occupied pos-2-4)
    del: (free pos-2-4) (last-visited pos-0-4) (occupied pos-0-4) (occupied pos-1-4)
  (jump-continue-move pos-1-2 pos-1-3 pos-1-4), cost: 1
    pre: (free pos-1-4) (last-visited pos-1-2) (occupied pos-1-2) (occupied pos-1-3)
    add: (free pos-1-2) (free pos-1-3) (last-visited pos-1-4) (occupied pos-1-4)
    del: (free pos-1-4) (last-visited pos-1-2) (occupied pos-1-2) (occupied pos-1-3)
  (jump-continue-move pos-1-2 pos-2-2 pos-3-2), cost: 1
    pre: (free pos-3-2) (last-visited pos-1-2) (occupied pos-1-2) (occupied pos-2-2)
    add: (free pos-1-2) (free pos-2-2) (last-visited pos-3-2) (occupied pos-3-2)
    del: (free pos-3-2) (last-visited pos-1-2) (occupied pos-1-2) (occupied pos-2-2)
  (jump-continue-move pos-1-3 pos-2-3 pos-3-3), cost: 1
    pre: (free pos-3-3) (last-visited pos-1-3) (occupied pos-1-3) (occupied pos-2-3)
    add: (free pos-1-3) (free pos-2-3) (last-visited pos-3-3) (occupied pos-3-3)
    del: (free pos-3-3) (last-visited pos-1-3) (occupied pos-1-3) (occupied pos-2-3)
  (jump-continue-move pos-1-4 pos-1-3 pos-1-2), cost: 1
    pre: (free pos-1-2) (last-visited pos-1-4) (occupied pos-1-3) (occupied pos-1-4)
    add: (free pos-1-3) (free pos-1-4) (last-visited pos-1-2) (occupied pos-1-2)
    del: (free pos-1-2) (last-visited pos-1-4) (occupied pos-1-3) (occupied pos-1-4)
  (jump-continue-move pos-1-4 pos-2-4 pos-3-4), cost: 1
    pre: (free pos-3-4) (last-visited pos-1-4) (occupied pos-1-4) (occupied pos-2-4)
    add: (free pos-1-4) (free pos-2-4) (last-visited pos-3-4) (occupied pos-3-4)
    del: (free pos-3-4) (last-visited pos-1-4) (occupied pos-1-4) (occupied pos-2-4)
  (jump-continue-move pos-2-0 pos-2-1 pos-2-2), cost: 1
    pre: (free pos-2-2) (last-visited pos-2-0) (occupied pos-2-0) (occupied pos-2-1)
    add: (free pos-2-0) (free pos-2-1) (last-visited pos-2-2) (occupied pos-2-2)
    del: (free pos-2-2) (last-visited pos-2-0) (occupied pos-2-0) (occupied pos-2-1)
  (jump-continue-move pos-2-0 pos-3-0 pos-4-0), cost: 1
    pre: (free pos-4-0) (last-visited pos-2-0) (occupied pos-2-0) (occupied pos-3-0)
    add: (free pos-2-0) (free pos-3-0) (last-visited pos-4-0) (occupied pos-4-0)
    del: (free pos-4-0) (last-visited pos-2-0) (occupied pos-2-0) (occupied pos-3-0)
  (jump-continue-move pos-2-1 pos-2-2 pos-2-3), cost: 1
    pre: (free pos-2-3) (last-visited pos-2-1) (occupied pos-2-1) (occupied pos-2-2)
    add: (free pos-2-1) (free pos-2-2) (last-visited pos-2-3) (occupied pos-2-3)
    del: (free pos-2-3) (last-visited pos-2-1) (occupied pos-2-1) (occupied pos-2-2)
  (jump-continue-move pos-2-1 pos-3-1 pos-4-1), cost: 1
    pre: (free pos-4-1) (last-visited pos-2-1) (occupied pos-2-1) (occupied pos-3-1)
    add: (free pos-2-1) (free pos-3-1) (last-visited pos-4-1) (occupied pos-4-1)
    del: (free pos-4-1) (last-visited pos-2-1) (occupied pos-2-1) (occupied pos-3-1)
  (jump-continue-move pos-2-2 pos-1-2 pos-0-2), cost: 1
    pre: (free pos-0-2) (last-visited pos-2-2) (occupied pos-1-2) (occupied pos-2-2)
    add: (free pos-1-2) (free pos-2-2) (last-visited pos-0-2) (occupied pos-0-2)
    del: (free pos-0-2) (last-visited pos-2-2) (occupied pos-1-2) (occupied pos-2-2)
  (jump-continue-move pos-2-2 pos-2-1 pos-2-0), cost: 1
    pre: (free pos-2-0) (last-visited pos-2-2) (occupied pos-2-1) (occupied pos-2-2)
    add: (free pos-2-1) (free pos-2-2) (last-visited pos-2-0) (occupied pos-2-0)
    del: (free pos-2-0) (last-visited pos-2-2) (occupied pos-2-1) (occupied pos-2-2)
  (jump-continue-move pos-2-2 pos-2-3 pos-2-4), cost: 1
    pre: (free pos-2-4) (last-visited pos-2-2) (occupied pos-2-2) (occupied pos-2-3)
    add: (free pos-2-2) (free pos-2-3) (last-visited pos-2-4) (occupied pos-2-4)
    del: (free pos-2-4) (last-visited pos-2-2) (occupied pos-2-2) (occupied pos-2-3)
  (jump-continue-move pos-2-2 pos-3-2 pos-4-2), cost: 1
    pre: (free pos-4-2) (last-visited pos-2-2) (occupied pos-2-2) (occupied pos-3-2)
    add: (free pos-2-2) (free pos-3-2) (last-visited pos-4-2) (occupied pos-4-2)
    del: (free pos-4-2) (last-visited pos-2-2) (occupied pos-2-2) (occupied pos-3-2)
  (jump-continue-move pos-2-3 pos-1-3 pos-0-3), cost: 1
    pre: (free pos-0-3) (last-visited pos-2-3) (occupied pos-1-3) (occupied pos-2-3)
    add: (free pos-1-3) (free pos-2-3) (last-visited pos-0-3) (occupied pos-0-3)
    del: (free pos-0-3) (last-visited pos-2-3) (occupied pos-1-3) (occupied pos-2-3)
  (jump-continue-move pos-2-3 pos-2-2 pos-2-1), cost: 1
    pre: (free pos-2-1) (last-visited pos-2-3) (occupied pos-2-2) (occupied pos-2-3)
    add: (free pos-2-2) (free pos-2-3) (last-visited pos-2-1) (occupied pos-2-1)
    del: (free pos-2-1) (last-visited pos-2-3) (occupied pos-2-2) (occupied pos-2-3)
  (jump-continue-move pos-2-3 pos-2-4 pos-2-5), cost: 1
    pre: (free pos-2-5) (last-visited pos-2-3) (occupied pos-2-3) (occupied pos-2-4)
    add: (free pos-2-3) (free pos-2-4) (last-visited pos-2-5) (occupied pos-2-5)
    del: (free pos-2-5) (last-visited pos-2-3) (occupied pos-2-3) (occupied pos-2-4)
  (jump-continue-move pos-2-3 pos-3-3 pos-4-3), cost: 1
    pre: (free pos-4-3) (last-visited pos-2-3) (occupied pos-2-3) (occupied pos-3-3)
    add: (free pos-2-3) (free pos-3-3) (last-visited pos-4-3) (occupied pos-4-3)
    del: (free pos-4-3) (last-visited pos-2-3) (occupied pos-2-3) (occupied pos-3-3)
  (jump-continue-move pos-2-4 pos-1-4 pos-0-4), cost: 1
    pre: (free pos-0-4) (last-visited pos-2-4) (occupied pos-1-4) (occupied pos-2-4)
    add: (free pos-1-4) (free pos-2-4) (last-visited pos-0-4) (occupied pos-0-4)
    del: (free pos-0-4) (last-visited pos-2-4) (occupied pos-1-4) (occupied pos-2-4)
  (jump-continue-move pos-2-4 pos-2-3 pos-2-2), cost: 1
    pre: (free pos-2-2) (last-visited pos-2-4) (occupied pos-2-3) (occupied pos-2-4)
    add: (free pos-2-3) (free pos-2-4) (last-visited pos-2-2) (occupied pos-2-2)
    del: (free pos-2-2) (last-visited pos-2-4) (occupied pos-2-3) (occupied pos-2-4)
  (jump-continue-move pos-2-4 pos-2-5 pos-2-6), cost: 1
    pre: (free pos-2-6) (last-visited pos-2-4) (occupied pos-2-4) (occupied pos-2-5)
    add: (free pos-2-4) (free pos-2-5) (last-visited pos-2-6) (occupied pos-2-6)
    del: (free pos-2-6) (last-visited pos-2-4) (occupied pos-2-4) (occupied pos-2-5)
  (jump-continue-move pos-2-4 pos-3-4 pos-4-4), cost: 1
    pre: (free pos-4-4) (last-visited pos-2-4) (occupied pos-2-4) (occupied pos-3-4)
    add: (free pos-2-4) (free pos-3-4) (last-visited pos-4-4) (occupied pos-4-4)
    del: (free pos-4-4) (last-visited pos-2-4) (occupied pos-2-4) (occupied pos-3-4)
  (jump-continue-move pos-2-5 pos-2-4 pos-2-3), cost: 1
    pre: (free pos-2-3) (last-visited pos-2-5) (occupied pos-2-4) (occupied pos-2-5)
    add: (free pos-2-4) (free pos-2-5) (last-visited pos-2-3) (occupied pos-2-3)
    del: (free pos-2-3) (last-visited pos-2-5) (occupied pos-2-4) (occupied pos-2-5)
  (jump-continue-move pos-2-5 pos-3-5 pos-4-5), cost: 1
    pre: (free pos-4-5) (last-visited pos-2-5) (occupied pos-2-5) (occupied pos-3-5)
    add: (free pos-2-5) (free pos-3-5) (last-visited pos-4-5) (occupied pos-4-5)
    del: (free pos-4-5) (last-visited pos-2-5) (occupied pos-2-5) (occupied pos-3-5)
  (jump-continue-move pos-2-6 pos-2-5 pos-2-4), cost: 1
    pre: (free pos-2-4) (last-visited pos-2-6) (occupied pos-2-5) (occupied pos-2-6)
    add: (free pos-2-5) (free pos-2-6) (last-visited pos-2-4) (occupied pos-2-4)
    del: (free pos-2-4) (last-visited pos-2-6) (occupied pos-2-5) (occupied pos-2-6)
  (jump-continue-move pos-2-6 pos-3-6 pos-4-6), cost: 1
    pre: (free pos-4-6) (last-visited pos-2-6) (occupied pos-2-6) (occupied pos-3-6)
    add: (free pos-2-6) (free pos-3-6) (last-visited pos-4-6) (occupied pos-4-6)
    del: (free pos-4-6) (last-visited pos-2-6) (occupied pos-2-6) (occupied pos-3-6)
  (jump-continue-move pos-3-0 pos-3-1 pos-3-2), cost: 1
    pre: (free pos-3-2) (last-visited pos-3-0) (occupied pos-3-0) (occupied pos-3-1)
    add: (free pos-3-0) (free pos-3-1) (last-visited pos-3-2) (occupied pos-3-2)
    del: (free pos-3-2) (last-visited pos-3-0) (occupied pos-3-0) (occupied pos-3-1)
  (jump-continue-move pos-3-1 pos-3-2 pos-3-3), cost: 1
    pre: (free pos-3-3) (last-visited pos-3-1) (occupied pos-3-1) (occupied pos-3-2)
    add: (free pos-3-1) (free pos-3-2) (last-visited pos-3-3) (occupied pos-3-3)
    del: (free pos-3-3) (last-visited pos-3-1) (occupied pos-3-1) (occupied pos-3-2)
  (jump-continue-move pos-3-2 pos-2-2 pos-1-2), cost: 1
    pre: (free pos-1-2) (last-visited pos-3-2) (occupied pos-2-2) (occupied pos-3-2)
    add: (free pos-2-2) (free pos-3-2) (last-visited pos-1-2) (occupied pos-1-2)
    del: (free pos-1-2) (last-visited pos-3-2) (occupied pos-2-2) (occupied pos-3-2)
  (jump-continue-move pos-3-2 pos-3-1 pos-3-0), cost: 1
    pre: (free pos-3-0) (last-visited pos-3-2) (occupied pos-3-1) (occupied pos-3-2)
    add: (free pos-3-1) (free pos-3-2) (last-visited pos-3-0) (occupied pos-3-0)
    del: (free pos-3-0) (last-visited pos-3-2) (occupied pos-3-1) (occupied pos-3-2)
  (jump-continue-move pos-3-2 pos-3-3 pos-3-4), cost: 1
    pre: (free pos-3-4) (last-visited pos-3-2) (occupied pos-3-2) (occupied pos-3-3)
    add: (free pos-3-2) (free pos-3-3) (last-visited pos-3-4) (occupied pos-3-4)
    del: (free pos-3-4) (last-visited pos-3-2) (occupied pos-3-2) (occupied pos-3-3)
  (jump-continue-move pos-3-2 pos-4-2 pos-5-2), cost: 1
    pre: (free pos-5-2) (last-visited pos-3-2) (occupied pos-3-2) (occupied pos-4-2)
    add: (free pos-3-2) (free pos-4-2) (last-visited pos-5-2) (occupied pos-5-2)
    del: (free pos-5-2) (last-visited pos-3-2) (occupied pos-3-2) (occupied pos-4-2)
  (jump-continue-move pos-3-3 pos-2-3 pos-1-3), cost: 1
    pre: (free pos-1-3) (last-visited pos-3-3) (occupied pos-2-3) (occupied pos-3-3)
    add: (free pos-2-3) (free pos-3-3) (last-visited pos-1-3) (occupied pos-1-3)
    del: (free pos-1-3) (last-visited pos-3-3) (occupied pos-2-3) (occupied pos-3-3)
  (jump-continue-move pos-3-3 pos-3-2 pos-3-1), cost: 1
    pre: (free pos-3-1) (last-visited pos-3-3) (occupied pos-3-2) (occupied pos-3-3)
    add: (free pos-3-2) (free pos-3-3) (last-visited pos-3-1) (occupied pos-3-1)
    del: (free pos-3-1) (last-visited pos-3-3) (occupied pos-3-2) (occupied pos-3-3)
  (jump-continue-move pos-3-3 pos-3-4 pos-3-5), cost: 1
    pre: (free pos-3-5) (last-visited pos-3-3) (occupied pos-3-3) (occupied pos-3-4)
    add: (free pos-3-3) (free pos-3-4) (last-visited pos-3-5) (occupied pos-3-5)
    del: (free pos-3-5) (last-visited pos-3-3) (occupied pos-3-3) (occupied pos-3-4)
  (jump-continue-move pos-3-3 pos-4-3 pos-5-3), cost: 1
    pre: (free pos-5-3) (last-visited pos-3-3) (occupied pos-3-3) (occupied pos-4-3)
    add: (free pos-3-3) (free pos-4-3) (last-visited pos-5-3) (occupied pos-5-3)
    del: (free pos-5-3) (last-visited pos-3-3) (occupied pos-3-3) (occupied pos-4-3)
  (jump-continue-move pos-3-4 pos-2-4 pos-1-4), cost: 1
    pre: (free pos-1-4) (last-visited pos-3-4) (occupied pos-2-4) (occupied pos-3-4)
    add: (free pos-2-4) (free pos-3-4) (last-visited pos-1-4) (occupied pos-1-4)
    del: (free pos-1-4) (last-visited pos-3-4) (occupied pos-2-4) (occupied pos-3-4)
  (jump-continue-move pos-3-4 pos-3-3 pos-3-2), cost: 1
    pre: (free pos-3-2) (last-visited pos-3-4) (occupied pos-3-3) (occupied pos-3-4)
    add: (free pos-3-3) (free pos-3-4) (last-visited pos-3-2) (occupied pos-3-2)
    del: (free pos-3-2) (last-visited pos-3-4) (occupied pos-3-3) (occupied pos-3-4)
  (jump-continue-move pos-3-4 pos-3-5 pos-3-6), cost: 1
    pre: (free pos-3-6) (last-visited pos-3-4) (occupied pos-3-4) (occupied pos-3-5)
    add: (free pos-3-4) (free pos-3-5) (last-visited pos-3-6) (occupied pos-3-6)
    del: (free pos-3-6) (last-visited pos-3-4) (occupied pos-3-4) (occupied pos-3-5)
  (jump-continue-move pos-3-4 pos-4-4 pos-5-4), cost: 1
    pre: (free pos-5-4) (last-visited pos-3-4) (occupied pos-3-4) (occupied pos-4-4)
    add: (free pos-3-4) (free pos-4-4) (last-visited pos-5-4) (occupied pos-5-4)
    del: (free pos-5-4) (last-visited pos-3-4) (occupied pos-3-4) (occupied pos-4-4)
  (jump-continue-move pos-3-5 pos-3-4 pos-3-3), cost: 1
    pre: (free pos-3-3) (last-visited pos-3-5) (occupied pos-3-4) (occupied pos-3-5)
    add: (free pos-3-4) (free pos-3-5) (last-visited pos-3-3) (occupied pos-3-3)
    del: (free pos-3-3) (last-visited pos-3-5) (occupied pos-3-4) (occupied pos-3-5)
  (jump-continue-move pos-3-6 pos-3-5 pos-3-4), cost: 1
    pre: (free pos-3-4) (last-visited pos-3-6) (occupied pos-3-5) (occupied pos-3-6)
    add: (free pos-3-5) (free pos-3-6) (last-visited pos-3-4) (occupied pos-3-4)
    del: (free pos-3-4) (last-visited pos-3-6) (occupied pos-3-5) (occupied pos-3-6)
  (jump-continue-move pos-4-0 pos-3-0 pos-2-0), cost: 1
    pre: (free pos-2-0) (last-visited pos-4-0) (occupied pos-3-0) (occupied pos-4-0)
    add: (free pos-3-0) (free pos-4-0) (last-visited pos-2-0) (occupied pos-2-0)
    del: (free pos-2-0) (last-visited pos-4-0) (occupied pos-3-0) (occupied pos-4-0)
  (jump-continue-move pos-4-0 pos-4-1 pos-4-2), cost: 1
    pre: (free pos-4-2) (last-visited pos-4-0) (occupied pos-4-0) (occupied pos-4-1)
    add: (free pos-4-0) (free pos-4-1) (last-visited pos-4-2) (occupied pos-4-2)
    del: (free pos-4-2) (last-visited pos-4-0) (occupied pos-4-0) (occupied pos-4-1)
  (jump-continue-move pos-4-1 pos-3-1 pos-2-1), cost: 1
    pre: (free pos-2-1) (last-visited pos-4-1) (occupied pos-3-1) (occupied pos-4-1)
    add: (free pos-3-1) (free pos-4-1) (last-visited pos-2-1) (occupied pos-2-1)
    del: (free pos-2-1) (last-visited pos-4-1) (occupied pos-3-1) (occupied pos-4-1)
  (jump-continue-move pos-4-1 pos-4-2 pos-4-3), cost: 1
    pre: (free pos-4-3) (last-visited pos-4-1) (occupied pos-4-1) (occupied pos-4-2)
    add: (free pos-4-1) (free pos-4-2) (last-visited pos-4-3) (occupied pos-4-3)
    del: (free pos-4-3) (last-visited pos-4-1) (occupied pos-4-1) (occupied pos-4-2)
  (jump-continue-move pos-4-2 pos-3-2 pos-2-2), cost: 1
    pre: (free pos-2-2) (last-visited pos-4-2) (occupied pos-3-2) (occupied pos-4-2)
    add: (free pos-3-2) (free pos-4-2) (last-visited pos-2-2) (occupied pos-2-2)
    del: (free pos-2-2) (last-visited pos-4-2) (occupied pos-3-2) (occupied pos-4-2)
  (jump-continue-move pos-4-2 pos-4-1 pos-4-0), cost: 1
    pre: (free pos-4-0) (last-visited pos-4-2) (occupied pos-4-1) (occupied pos-4-2)
    add: (free pos-4-1) (free pos-4-2) (last-visited pos-4-0) (occupied pos-4-0)
    del: (free pos-4-0) (last-visited pos-4-2) (occupied pos-4-1) (occupied pos-4-2)
  (jump-continue-move pos-4-2 pos-4-3 pos-4-4), cost: 1
    pre: (free pos-4-4) (last-visited pos-4-2) (occupied pos-4-2) (occupied pos-4-3)
    add: (free pos-4-2) (free pos-4-3) (last-visited pos-4-4) (occupied pos-4-4)
    del: (free pos-4-4) (last-visited pos-4-2) (occupied pos-4-2) (occupied pos-4-3)
  (jump-continue-move pos-4-2 pos-5-2 pos-6-2), cost: 1
    pre: (free pos-6-2) (last-visited pos-4-2) (occupied pos-4-2) (occupied pos-5-2)
    add: (free pos-4-2) (free pos-5-2) (last-visited pos-6-2) (occupied pos-6-2)
    del: (free pos-6-2) (last-visited pos-4-2) (occupied pos-4-2) (occupied pos-5-2)
  (jump-continue-move pos-4-3 pos-3-3 pos-2-3), cost: 1
    pre: (free pos-2-3) (last-visited pos-4-3) (occupied pos-3-3) (occupied pos-4-3)
    add: (free pos-3-3) (free pos-4-3) (last-visited pos-2-3) (occupied pos-2-3)
    del: (free pos-2-3) (last-visited pos-4-3) (occupied pos-3-3) (occupied pos-4-3)
  (jump-continue-move pos-4-3 pos-4-2 pos-4-1), cost: 1
    pre: (free pos-4-1) (last-visited pos-4-3) (occupied pos-4-2) (occupied pos-4-3)
    add: (free pos-4-2) (free pos-4-3) (last-visited pos-4-1) (occupied pos-4-1)
    del: (free pos-4-1) (last-visited pos-4-3) (occupied pos-4-2) (occupied pos-4-3)
  (jump-continue-move pos-4-3 pos-4-4 pos-4-5), cost: 1
    pre: (free pos-4-5) (last-visited pos-4-3) (occupied pos-4-3) (occupied pos-4-4)
    add: (free pos-4-3) (free pos-4-4) (last-visited pos-4-5) (occupied pos-4-5)
    del: (free pos-4-5) (last-visited pos-4-3) (occupied pos-4-3) (occupied pos-4-4)
  (jump-continue-move pos-4-3 pos-5-3 pos-6-3), cost: 1
    pre: (free pos-6-3) (last-visited pos-4-3) (occupied pos-4-3) (occupied pos-5-3)
    add: (free pos-4-3) (free pos-5-3) (last-visited pos-6-3) (occupied pos-6-3)
    del: (free pos-6-3) (last-visited pos-4-3) (occupied pos-4-3) (occupied pos-5-3)
  (jump-continue-move pos-4-4 pos-3-4 pos-2-4), cost: 1
    pre: (free pos-2-4) (last-visited pos-4-4) (occupied pos-3-4) (occupied pos-4-4)
    add: (free pos-3-4) (free pos-4-4) (last-visited pos-2-4) (occupied pos-2-4)
    del: (free pos-2-4) (last-visited pos-4-4) (occupied pos-3-4) (occupied pos-4-4)
  (jump-continue-move pos-4-4 pos-4-3 pos-4-2), cost: 1
    pre: (free pos-4-2) (last-visited pos-4-4) (occupied pos-4-3) (occupied pos-4-4)
    add: (free pos-4-3) (free pos-4-4) (last-visited pos-4-2) (occupied pos-4-2)
    del: (free pos-4-2) (last-visited pos-4-4) (occupied pos-4-3) (occupied pos-4-4)
  (jump-continue-move pos-4-4 pos-4-5 pos-4-6), cost: 1
    pre: (free pos-4-6) (last-visited pos-4-4) (occupied pos-4-4) (occupied pos-4-5)
    add: (free pos-4-4) (free pos-4-5) (last-visited pos-4-6) (occupied pos-4-6)
    del: (free pos-4-6) (last-visited pos-4-4) (occupied pos-4-4) (occupied pos-4-5)
  (jump-continue-move pos-4-4 pos-5-4 pos-6-4), cost: 1
    pre: (free pos-6-4) (last-visited pos-4-4) (occupied pos-4-4) (occupied pos-5-4)
    add: (free pos-4-4) (free pos-5-4) (last-visited pos-6-4) (occupied pos-6-4)
    del: (free pos-6-4) (last-visited pos-4-4) (occupied pos-4-4) (occupied pos-5-4)
  (jump-continue-move pos-4-5 pos-3-5 pos-2-5), cost: 1
    pre: (free pos-2-5) (last-visited pos-4-5) (occupied pos-3-5) (occupied pos-4-5)
    add: (free pos-3-5) (free pos-4-5) (last-visited pos-2-5) (occupied pos-2-5)
    del: (free pos-2-5) (last-visited pos-4-5) (occupied pos-3-5) (occupied pos-4-5)
  (jump-continue-move pos-4-5 pos-4-4 pos-4-3), cost: 1
    pre: (free pos-4-3) (last-visited pos-4-5) (occupied pos-4-4) (occupied pos-4-5)
    add: (free pos-4-4) (free pos-4-5) (last-visited pos-4-3) (occupied pos-4-3)
    del: (free pos-4-3) (last-visited pos-4-5) (occupied pos-4-4) (occupied pos-4-5)
  (jump-continue-move pos-4-6 pos-3-6 pos-2-6), cost: 1
    pre: (free pos-2-6) (last-visited pos-4-6) (occupied pos-3-6) (occupied pos-4-6)
    add: (free pos-3-6) (free pos-4-6) (last-visited pos-2-6) (occupied pos-2-6)
    del: (free pos-2-6) (last-visited pos-4-6) (occupied pos-3-6) (occupied pos-4-6)
  (jump-continue-move pos-4-6 pos-4-5 pos-4-4), cost: 1
    pre: (free pos-4-4) (last-visited pos-4-6) (occupied pos-4-5) (occupied pos-4-6)
    add: (free pos-4-5) (free pos-4-6) (last-visited pos-4-4) (occupied pos-4-4)
    del: (free pos-4-4) (last-visited pos-4-6) (occupied pos-4-5) (occupied pos-4-6)
  (jump-continue-move pos-5-2 pos-4-2 pos-3-2), cost: 1
    pre: (free pos-3-2) (last-visited pos-5-2) (occupied pos-4-2) (occupied pos-5-2)
    add: (free pos-4-2) (free pos-5-2) (last-visited pos-3-2) (occupied pos-3-2)
    del: (free pos-3-2) (last-visited pos-5-2) (occupied pos-4-2) (occupied pos-5-2)
  (jump-continue-move pos-5-2 pos-5-3 pos-5-4), cost: 1
    pre: (free pos-5-4) (last-visited pos-5-2) (occupied pos-5-2) (occupied pos-5-3)
    add: (free pos-5-2) (free pos-5-3) (last-visited pos-5-4) (occupied pos-5-4)
    del: (free pos-5-4) (last-visited pos-5-2) (occupied pos-5-2) (occupied pos-5-3)
  (jump-continue-move pos-5-3 pos-4-3 pos-3-3), cost: 1
    pre: (free pos-3-3) (last-visited pos-5-3) (occupied pos-4-3) (occupied pos-5-3)
    add: (free pos-4-3) (free pos-5-3) (last-visited pos-3-3) (occupied pos-3-3)
    del: (free pos-3-3) (last-visited pos-5-3) (occupied pos-4-3) (occupied pos-5-3)
  (jump-continue-move pos-5-4 pos-4-4 pos-3-4), cost: 1
    pre: (free pos-3-4) (last-visited pos-5-4) (occupied pos-4-4) (occupied pos-5-4)
    add: (free pos-4-4) (free pos-5-4) (last-visited pos-3-4) (occupied pos-3-4)
    del: (free pos-3-4) (last-visited pos-5-4) (occupied pos-4-4) (occupied pos-5-4)
  (jump-continue-move pos-5-4 pos-5-3 pos-5-2), cost: 1
    pre: (free pos-5-2) (last-visited pos-5-4) (occupied pos-5-3) (occupied pos-5-4)
    add: (free pos-5-3) (free pos-5-4) (last-visited pos-5-2) (occupied pos-5-2)
    del: (free pos-5-2) (last-visited pos-5-4) (occupied pos-5-3) (occupied pos-5-4)
  (jump-continue-move pos-6-2 pos-5-2 pos-4-2), cost: 1
    pre: (free pos-4-2) (last-visited pos-6-2) (occupied pos-5-2) (occupied pos-6-2)
    add: (free pos-5-2) (free pos-6-2) (last-visited pos-4-2) (occupied pos-4-2)
    del: (free pos-4-2) (last-visited pos-6-2) (occupied pos-5-2) (occupied pos-6-2)
  (jump-continue-move pos-6-2 pos-6-3 pos-6-4), cost: 1
    pre: (free pos-6-4) (last-visited pos-6-2) (occupied pos-6-2) (occupied pos-6-3)
    add: (free pos-6-2) (free pos-6-3) (last-visited pos-6-4) (occupied pos-6-4)
    del: (free pos-6-4) (last-visited pos-6-2) (occupied pos-6-2) (occupied pos-6-3)
  (jump-continue-move pos-6-3 pos-5-3 pos-4-3), cost: 1
    pre: (free pos-4-3) (last-visited pos-6-3) (occupied pos-5-3) (occupied pos-6-3)
    add: (free pos-5-3) (free pos-6-3) (last-visited pos-4-3) (occupied pos-4-3)
    del: (free pos-4-3) (last-visited pos-6-3) (occupied pos-5-3) (occupied pos-6-3)
  (jump-continue-move pos-6-4 pos-5-4 pos-4-4), cost: 1
    pre: (free pos-4-4) (last-visited pos-6-4) (occupied pos-5-4) (occupied pos-6-4)
    add: (free pos-5-4) (free pos-6-4) (last-visited pos-4-4) (occupied pos-4-4)
    del: (free pos-4-4) (last-visited pos-6-4) (occupied pos-5-4) (occupied pos-6-4)
  (jump-continue-move pos-6-4 pos-6-3 pos-6-2), cost: 1
    pre: (free pos-6-2) (last-visited pos-6-4) (occupied pos-6-3) (occupied pos-6-4)
    add: (free pos-6-3) (free pos-6-4) (last-visited pos-6-2) (occupied pos-6-2)
    del: (free pos-6-2) (last-visited pos-6-4) (occupied pos-6-3) (occupied pos-6-4)
  (jump-new-move pos-0-2 pos-0-3 pos-0-4), cost: 1
    pre: (free pos-0-4) (move-ended) (occupied pos-0-2) (occupied pos-0-3)
    add: (free pos-0-2) (free pos-0-3) (last-visited pos-0-4) (occupied pos-0-4)
    del: (free pos-0-4) (move-ended) (occupied pos-0-2) (occupied pos-0-3)
  (jump-new-move pos-0-2 pos-1-2 pos-2-2), cost: 1
    pre: (free pos-2-2) (move-ended) (occupied pos-0-2) (occupied pos-1-2)
    add: (free pos-0-2) (free pos-1-2) (last-visited pos-2-2) (occupied pos-2-2)
    del: (free pos-2-2) (move-ended) (occupied pos-0-2) (occupied pos-1-2)
  (jump-new-move pos-0-3 pos-1-3 pos-2-3), cost: 1
    pre: (free pos-2-3) (move-ended) (occupied pos-0-3) (occupied pos-1-3)
    add: (free pos-0-3) (free pos-1-3) (last-visited pos-2-3) (occupied pos-2-3)
    del: (free pos-2-3) (move-ended) (occupied pos-0-3) (occupied pos-1-3)
  (jump-new-move pos-0-4 pos-0-3 pos-0-2), cost: 1
    pre: (free pos-0-2) (move-ended) (occupied pos-0-3) (occupied pos-0-4)
    add: (free pos-0-3) (free pos-0-4) (last-visited pos-0-2) (occupied pos-0-2)
    del: (free pos-0-2) (move-ended) (occupied pos-0-3) (occupied pos-0-4)
  (jump-new-move pos-0-4 pos-1-4 pos-2-4), cost: 1
    pre: (free pos-2-4) (move-ended) (occupied pos-0-4) (occupied pos-1-4)
    add: (free pos-0-4) (free pos-1-4) (last-visited pos-2-4) (occupied pos-2-4)
    del: (free pos-2-4) (move-ended) (occupied pos-0-4) (occupied pos-1-4)
  (jump-new-move pos-1-2 pos-1-3 pos-1-4), cost: 1
    pre: (free pos-1-4) (move-ended) (occupied pos-1-2) (occupied pos-1-3)
    add: (free pos-1-2) (free pos-1-3) (last-visited pos-1-4) (occupied pos-1-4)
    del: (free pos-1-4) (move-ended) (occupied pos-1-2) (occupied pos-1-3)
  (jump-new-move pos-1-2 pos-2-2 pos-3-2), cost: 1
    pre: (free pos-3-2) (move-ended) (occupied pos-1-2) (occupied pos-2-2)
    add: (free pos-1-2) (free pos-2-2) (last-visited pos-3-2) (occupied pos-3-2)
    del: (free pos-3-2) (move-ended) (occupied pos-1-2) (occupied pos-2-2)
  (jump-new-move pos-1-3 pos-2-3 pos-3-3), cost: 1
    pre: (free pos-3-3) (move-ended) (occupied pos-1-3) (occupied pos-2-3)
    add: (free pos-1-3) (free pos-2-3) (last-visited pos-3-3) (occupied pos-3-3)
    del: (free pos-3-3) (move-ended) (occupied pos-1-3) (occupied pos-2-3)
  (jump-new-move pos-1-4 pos-1-3 pos-1-2), cost: 1
    pre: (free pos-1-2) (move-ended) (occupied pos-1-3) (occupied pos-1-4)
    add: (free pos-1-3) (free pos-1-4) (last-visited pos-1-2) (occupied pos-1-2)
    del: (free pos-1-2) (move-ended) (occupied pos-1-3) (occupied pos-1-4)
  (jump-new-move pos-1-4 pos-2-4 pos-3-4), cost: 1
    pre: (free pos-3-4) (move-ended) (occupied pos-1-4) (occupied pos-2-4)
    add: (free pos-1-4) (free pos-2-4) (last-visited pos-3-4) (occupied pos-3-4)
    del: (free pos-3-4) (move-ended) (occupied pos-1-4) (occupied pos-2-4)
  (jump-new-move pos-2-0 pos-2-1 pos-2-2), cost: 1
    pre: (free pos-2-2) (move-ended) (occupied pos-2-0) (occupied pos-2-1)
    add: (free pos-2-0) (free pos-2-1) (last-visited pos-2-2) (occupied pos-2-2)
    del: (free pos-2-2) (move-ended) (occupied pos-2-0) (occupied pos-2-1)
  (jump-new-move pos-2-0 pos-3-0 pos-4-0), cost: 1
    pre: (free pos-4-0) (move-ended) (occupied pos-2-0) (occupied pos-3-0)
    add: (free pos-2-0) (free pos-3-0) (last-visited pos-4-0) (occupied pos-4-0)
    del: (free pos-4-0) (move-ended) (occupied pos-2-0) (occupied pos-3-0)
  (jump-new-move pos-2-1 pos-2-2 pos-2-3), cost: 1
    pre: (free pos-2-3) (move-ended) (occupied pos-2-1) (occupied pos-2-2)
    add: (free pos-2-1) (free pos-2-2) (last-visited pos-2-3) (occupied pos-2-3)
    del: (free pos-2-3) (move-ended) (occupied pos-2-1) (occupied pos-2-2)
  (jump-new-move pos-2-1 pos-3-1 pos-4-1), cost: 1
    pre: (free pos-4-1) (move-ended) (occupied pos-2-1) (occupied pos-3-1)
    add: (free pos-2-1) (free pos-3-1) (last-visited pos-4-1) (occupied pos-4-1)
    del: (free pos-4-1) (move-ended) (occupied pos-2-1) (occupied pos-3-1)
  (jump-new-move pos-2-2 pos-1-2 pos-0-2), cost: 1
    pre: (free pos-0-2) (move-ended) (occupied pos-1-2) (occupied pos-2-2)
    add: (free pos-1-2) (free pos-2-2) (last-visited pos-0-2) (occupied pos-0-2)
    del: (free pos-0-2) (move-ended) (occupied pos-1-2) (occupied pos-2-2)
  (jump-new-move pos-2-2 pos-2-1 pos-2-0), cost: 1
    pre: (free pos-2-0) (move-ended) (occupied pos-2-1) (occupied pos-2-2)
    add: (free pos-2-1) (free pos-2-2) (last-visited pos-2-0) (occupied pos-2-0)
    del: (free pos-2-0) (move-ended) (occupied pos-2-1) (occupied pos-2-2)
  (jump-new-move pos-2-2 pos-2-3 pos-2-4), cost: 1
    pre: (free pos-2-4) (move-ended) (occupied pos-2-2) (occupied pos-2-3)
    add: (free pos-2-2) (free pos-2-3) (last-visited pos-2-4) (occupied pos-2-4)
    del: (free pos-2-4) (move-ended) (occupied pos-2-2) (occupied pos-2-3)
  (jump-new-move pos-2-2 pos-3-2 pos-4-2), cost: 1
    pre: (free pos-4-2) (move-ended) (occupied pos-2-2) (occupied pos-3-2)
    add: (free pos-2-2) (free pos-3-2) (last-visited pos-4-2) (occupied pos-4-2)
    del: (free pos-4-2) (move-ended) (occupied pos-2-2) (occupied pos-3-2)
  (jump-new-move pos-2-3 pos-1-3 pos-0-3), cost: 1
    pre: (free pos-0-3) (move-ended) (occupied pos-1-3) (occupied pos-2-3)
    add: (free pos-1-3) (free pos-2-3) (last-visited pos-0-3) (occupied pos-0-3)
    del: (free pos-0-3) (move-ended) (occupied pos-1-3) (occupied pos-2-3)
  (jump-new-move pos-2-3 pos-2-2 pos-2-1), cost: 1
    pre: (free pos-2-1) (move-ended) (occupied pos-2-2) (occupied pos-2-3)
    add: (free pos-2-2) (free pos-2-3) (last-visited pos-2-1) (occupied pos-2-1)
    del: (free pos-2-1) (move-ended) (occupied pos-2-2) (occupied pos-2-3)
  (jump-new-move pos-2-3 pos-2-4 pos-2-5), cost: 1
    pre: (free pos-2-5) (move-ended) (occupied pos-2-3) (occupied pos-2-4)
    add: (free pos-2-3) (free pos-2-4) (last-visited pos-2-5) (occupied pos-2-5)
    del: (free pos-2-5) (move-ended) (occupied pos-2-3) (occupied pos-2-4)
  (jump-new-move pos-2-3 pos-3-3 pos-4-3), cost: 1
    pre: (free pos-4-3) (move-ended) (occupied pos-2-3) (occupied pos-3-3)
    add: (free pos-2-3) (free pos-3-3) (last-visited pos-4-3) (occupied pos-4-3)
    del: (free pos-4-3) (move-ended) (occupied pos-2-3) (occupied pos-3-3)
  (jump-new-move pos-2-4 pos-1-4 pos-0-4), cost: 1
    pre: (free pos-0-4) (move-ended) (occupied pos-1-4) (occupied pos-2-4)
    add: (free pos-1-4) (free pos-2-4) (last-visited pos-0-4) (occupied pos-0-4)
    del: (free pos-0-4) (move-ended) (occupied pos-1-4) (occupied pos-2-4)
  (jump-new-move pos-2-4 pos-2-3 pos-2-2), cost: 1
    pre: (free pos-2-2) (move-ended) (occupied pos-2-3) (occupied pos-2-4)
    add: (free pos-2-3) (free pos-2-4) (last-visited pos-2-2) (occupied pos-2-2)
    del: (free pos-2-2) (move-ended) (occupied pos-2-3) (occupied pos-2-4)
  (jump-new-move pos-2-4 pos-2-5 pos-2-6), cost: 1
    pre: (free pos-2-6) (move-ended) (occupied pos-2-4) (occupied pos-2-5)
    add: (free pos-2-4) (free pos-2-5) (last-visited pos-2-6) (occupied pos-2-6)
    del: (free pos-2-6) (move-ended) (occupied pos-2-4) (occupied pos-2-5)
  (jump-new-move pos-2-4 pos-3-4 pos-4-4), cost: 1
    pre: (free pos-4-4) (move-ended) (occupied pos-2-4) (occupied pos-3-4)
    add: (free pos-2-4) (free pos-3-4) (last-visited pos-4-4) (occupied pos-4-4)
    del: (free pos-4-4) (move-ended) (occupied pos-2-4) (occupied pos-3-4)
  (jump-new-move pos-2-5 pos-2-4 pos-2-3), cost: 1
    pre: (free pos-2-3) (move-ended) (occupied pos-2-4) (occupied pos-2-5)
    add: (free pos-2-4) (free pos-2-5) (last-visited pos-2-3) (occupied pos-2-3)
    del: (free pos-2-3) (move-ended) (occupied pos-2-4) (occupied pos-2-5)
  (jump-new-move pos-2-5 pos-3-5 pos-4-5), cost: 1
    pre: (free pos-4-5) (move-ended) (occupied pos-2-5) (occupied pos-3-5)
    add: (free pos-2-5) (free pos-3-5) (last-visited pos-4-5) (occupied pos-4-5)
    del: (free pos-4-5) (move-ended) (occupied pos-2-5) (occupied pos-3-5)
  (jump-new-move pos-2-6 pos-2-5 pos-2-4), cost: 1
    pre: (free pos-2-4) (move-ended) (occupied pos-2-5) (occupied pos-2-6)
    add: (free pos-2-5) (free pos-2-6) (last-visited pos-2-4) (occupied pos-2-4)
    del: (free pos-2-4) (move-ended) (occupied pos-2-5) (occupied pos-2-6)
  (jump-new-move pos-2-6 pos-3-6 pos-4-6), cost: 1
    pre: (free pos-4-6) (move-ended) (occupied pos-2-6) (occupied pos-3-6)
    add: (free pos-2-6) (free pos-3-6) (last-visited pos-4-6) (occupied pos-4-6)
    del: (free pos-4-6) (move-ended) (occupied pos-2-6) (occupied pos-3-6)
  (jump-new-move pos-3-0 pos-3-1 pos-3-2), cost: 1
    pre: (free pos-3-2) (move-ended) (occupied pos-3-0) (occupied pos-3-1)
    add: (free pos-3-0) (free pos-3-1) (last-visited pos-3-2) (occupied pos-3-2)
    del: (free pos-3-2) (move-ended) (occupied pos-3-0) (occupied pos-3-1)
  (jump-new-move pos-3-1 pos-3-2 pos-3-3), cost: 1
    pre: (free pos-3-3) (move-ended) (occupied pos-3-1) (occupied pos-3-2)
    add: (free pos-3-1) (free pos-3-2) (last-visited pos-3-3) (occupied pos-3-3)
    del: (free pos-3-3) (move-ended) (occupied pos-3-1) (occupied pos-3-2)
  (jump-new-move pos-3-2 pos-2-2 pos-1-2), cost: 1
    pre: (free pos-1-2) (move-ended) (occupied pos-2-2) (occupied pos-3-2)
    add: (free pos-2-2) (free pos-3-2) (last-visited pos-1-2) (occupied pos-1-2)
    del: (free pos-1-2) (move-ended) (occupied pos-2-2) (occupied pos-3-2)
  (jump-new-move pos-3-2 pos-3-1 pos-3-0), cost: 1
    pre: (free pos-3-0) (move-ended) (occupied pos-3-1) (occupied pos-3-2)
    add: (free pos-3-1) (free pos-3-2) (last-visited pos-3-0) (occupied pos-3-0)
    del: (free pos-3-0) (move-ended) (occupied pos-3-1) (occupied pos-3-2)
  (jump-new-move pos-3-2 pos-3-3 pos-3-4), cost: 1
    pre: (free pos-3-4) (move-ended) (occupied pos-3-2) (occupied pos-3-3)
    add: (free pos-3-2) (free pos-3-3) (last-visited pos-3-4) (occupied pos-3-4)
    del: (free pos-3-4) (move-ended) (occupied pos-3-2) (occupied pos-3-3)
  (jump-new-move pos-3-2 pos-4-2 pos-5-2), cost: 1
    pre: (free pos-5-2) (move-ended) (occupied pos-3-2) (occupied pos-4-2)
    add: (free pos-3-2) (free pos-4-2) (last-visited pos-5-2) (occupied pos-5-2)
    del: (free pos-5-2) (move-ended) (occupied pos-3-2) (occupied pos-4-2)
  (jump-new-move pos-3-3 pos-2-3 pos-1-3), cost: 1
    pre: (free pos-1-3) (move-ended) (occupied pos-2-3) (occupied pos-3-3)
    add: (free pos-2-3) (free pos-3-3) (last-visited pos-1-3) (occupied pos-1-3)
    del: (free pos-1-3) (move-ended) (occupied pos-2-3) (occupied pos-3-3)
  (jump-new-move pos-3-3 pos-3-2 pos-3-1), cost: 1
    pre: (free pos-3-1) (move-ended) (occupied pos-3-2) (occupied pos-3-3)
    add: (free pos-3-2) (free pos-3-3) (last-visited pos-3-1) (occupied pos-3-1)
    del: (free pos-3-1) (move-ended) (occupied pos-3-2) (occupied pos-3-3)
  (jump-new-move pos-3-3 pos-3-4 pos-3-5), cost: 1
    pre: (free pos-3-5) (move-ended) (occupied pos-3-3) (occupied pos-3-4)
    add: (free pos-3-3) (free pos-3-4) (last-visited pos-3-5) (occupied pos-3-5)
    del: (free pos-3-5) (move-ended) (occupied pos-3-3) (occupied pos-3-4)
  (jump-new-move pos-3-3 pos-4-3 pos-5-3), cost: 1
    pre: (free pos-5-3) (move-ended) (occupied pos-3-3) (occupied pos-4-3)
    add: (free pos-3-3) (free pos-4-3) (last-visited pos-5-3) (occupied pos-5-3)
    del: (free pos-5-3) (move-ended) (occupied pos-3-3) (occupied pos-4-3)
  (jump-new-move pos-3-4 pos-2-4 pos-1-4), cost: 1
    pre: (free pos-1-4) (move-ended) (occupied pos-2-4) (occupied pos-3-4)
    add: (free pos-2-4) (free pos-3-4) (last-visited pos-1-4) (occupied pos-1-4)
    del: (free pos-1-4) (move-ended) (occupied pos-2-4) (occupied pos-3-4)
  (jump-new-move pos-3-4 pos-3-3 pos-3-2), cost: 1
    pre: (free pos-3-2) (move-ended) (occupied pos-3-3) (occupied pos-3-4)
    add: (free pos-3-3) (free pos-3-4) (last-visited pos-3-2) (occupied pos-3-2)
    del: (free pos-3-2) (move-ended) (occupied pos-3-3) (occupied pos-3-4)
  (jump-new-move pos-3-4 pos-3-5 pos-3-6), cost: 1
    pre: (free pos-3-6) (move-ended) (occupied pos-3-4) (occupied pos-3-5)
    add: (free pos-3-4) (free pos-3-5) (last-visited pos-3-6) (occupied pos-3-6)
    del: (free pos-3-6) (move-ended) (occupied pos-3-4) (occupied pos-3-5)
  (jump-new-move pos-3-4 pos-4-4 pos-5-4), cost: 1
    pre: (free pos-5-4) (move-ended) (occupied pos-3-4) (occupied pos-4-4)
    add: (free pos-3-4) (free pos-4-4) (last-visited pos-5-4) (occupied pos-5-4)
    del: (free pos-5-4) (move-ended) (occupied pos-3-4) (occupied pos-4-4)
  (jump-new-move pos-3-5 pos-3-4 pos-3-3), cost: 1
    pre: (free pos-3-3) (move-ended) (occupied pos-3-4) (occupied pos-3-5)
    add: (free pos-3-4) (free pos-3-5) (last-visited pos-3-3) (occupied pos-3-3)
    del: (free pos-3-3) (move-ended) (occupied pos-3-4) (occupied pos-3-5)
  (jump-new-move pos-3-6 pos-3-5 pos-3-4), cost: 1
    pre: (free pos-3-4) (move-ended) (occupied pos-3-5) (occupied pos-3-6)
    add: (free pos-3-5) (free pos-3-6) (last-visited pos-3-4) (occupied pos-3-4)
    del: (free pos-3-4) (move-ended) (occupied pos-3-5) (occupied pos-3-6)
  (jump-new-move pos-4-0 pos-3-0 pos-2-0), cost: 1
    pre: (free pos-2-0) (move-ended) (occupied pos-3-0) (occupied pos-4-0)
    add: (free pos-3-0) (free pos-4-0) (last-visited pos-2-0) (occupied pos-2-0)
    del: (free pos-2-0) (move-ended) (occupied pos-3-0) (occupied pos-4-0)
  (jump-new-move pos-4-0 pos-4-1 pos-4-2), cost: 1
    pre: (free pos-4-2) (move-ended) (occupied pos-4-0) (occupied pos-4-1)
    add: (free pos-4-0) (free pos-4-1) (last-visited pos-4-2) (occupied pos-4-2)
    del: (free pos-4-2) (move-ended) (occupied pos-4-0) (occupied pos-4-1)
  (jump-new-move pos-4-1 pos-3-1 pos-2-1), cost: 1
    pre: (free pos-2-1) (move-ended) (occupied pos-3-1) (occupied pos-4-1)
    add: (free pos-3-1) (free pos-4-1) (last-visited pos-2-1) (occupied pos-2-1)
    del: (free pos-2-1) (move-ended) (occupied pos-3-1) (occupied pos-4-1)
  (jump-new-move pos-4-1 pos-4-2 pos-4-3), cost: 1
    pre: (free pos-4-3) (move-ended) (occupied pos-4-1) (occupied pos-4-2)
    add: (free pos-4-1) (free pos-4-2) (last-visited pos-4-3) (occupied pos-4-3)
    del: (free pos-4-3) (move-ended) (occupied pos-4-1) (occupied pos-4-2)
  (jump-new-move pos-4-2 pos-3-2 pos-2-2), cost: 1
    pre: (free pos-2-2) (move-ended) (occupied pos-3-2) (occupied pos-4-2)
    add: (free pos-3-2) (free pos-4-2) (last-visited pos-2-2) (occupied pos-2-2)
    del: (free pos-2-2) (move-ended) (occupied pos-3-2) (occupied pos-4-2)
  (jump-new-move pos-4-2 pos-4-1 pos-4-0), cost: 1
    pre: (free pos-4-0) (move-ended) (occupied pos-4-1) (occupied pos-4-2)
    add: (free pos-4-1) (free pos-4-2) (last-visited pos-4-0) (occupied pos-4-0)
    del: (free pos-4-0) (move-ended) (occupied pos-4-1) (occupied pos-4-2)
  (jump-new-move pos-4-2 pos-4-3 pos-4-4), cost: 1
    pre: (free pos-4-4) (move-ended) (occupied pos-4-2) (occupied pos-4-3)
    add: (free pos-4-2) (free pos-4-3) (last-visited pos-4-4) (occupied pos-4-4)
    del: (free pos-4-4) (move-ended) (occupied pos-4-2) (occupied pos-4-3)
  (jump-new-move pos-4-2 pos-5-2 pos-6-2), cost: 1
    pre: (free pos-6-2) (move-ended) (occupied pos-4-2) (occupied pos-5-2)
    add: (free pos-4-2) (free pos-5-2) (last-visited pos-6-2) (occupied pos-6-2)
    del: (free pos-6-2) (move-ended) (occupied pos-4-2) (occupied pos-5-2)
  (jump-new-move pos-4-3 pos-3-3 pos-2-3), cost: 1
    pre: (free pos-2-3) (move-ended) (occupied pos-3-3) (occupied pos-4-3)
    add: (free pos-3-3) (free pos-4-3) (last-visited pos-2-3) (occupied pos-2-3)
    del: (free pos-2-3) (move-ended) (occupied pos-3-3) (occupied pos-4-3)
  (jump-new-move pos-4-3 pos-4-2 pos-4-1), cost: 1
    pre: (free pos-4-1) (move-ended) (occupied pos-4-2) (occupied pos-4-3)
    add: (free pos-4-2) (free pos-4-3) (last-visited pos-4-1) (occupied pos-4-1)
    del: (free pos-4-1) (move-ended) (occupied pos-4-2) (occupied pos-4-3)
  (jump-new-move pos-4-3 pos-4-4 pos-4-5), cost: 1
    pre: (free pos-4-5) (move-ended) (occupied pos-4-3) (occupied pos-4-4)
    add: (free pos-4-3) (free pos-4-4) (last-visited pos-4-5) (occupied pos-4-5)
    del: (free pos-4-5) (move-ended) (occupied pos-4-3) (occupied pos-4-4)
  (jump-new-move pos-4-3 pos-5-3 pos-6-3), cost: 1
    pre: (free pos-6-3) (move-ended) (occupied pos-4-3) (occupied pos-5-3)
    add: (free pos-4-3) (free pos-5-3) (last-visited pos-6-3) (occupied pos-6-3)
    del: (free pos-6-3) (move-ended) (occupied pos-4-3) (occupied pos-5-3)
  (jump-new-move pos-4-4 pos-3-4 pos-2-4), cost: 1
    pre: (free pos-2-4) (move-ended) (occupied pos-3-4) (occupied pos-4-4)
    add: (free pos-3-4) (free pos-4-4) (last-visited pos-2-4) (occupied pos-2-4)
    del: (free pos-2-4) (move-ended) (occupied pos-3-4) (occupied pos-4-4)
  (jump-new-move pos-4-4 pos-4-3 pos-4-2), cost: 1
    pre: (free pos-4-2) (move-ended) (occupied pos-4-3) (occupied pos-4-4)
    add: (free pos-4-3) (free pos-4-4) (last-visited pos-4-2) (occupied pos-4-2)
    del: (free pos-4-2) (move-ended) (occupied pos-4-3) (occupied pos-4-4)
  (jump-new-move pos-4-4 pos-4-5 pos-4-6), cost: 1
    pre: (free pos-4-6) (move-ended) (occupied pos-4-4) (occupied pos-4-5)
    add: (free pos-4-4) (free pos-4-5) (last-visited pos-4-6) (occupied pos-4-6)
    del: (free pos-4-6) (move-ended) (occupied pos-4-4) (occupied pos-4-5)
  (jump-new-move pos-4-4 pos-5-4 pos-6-4), cost: 1
    pre: (free pos-6-4) (move-ended) (occupied pos-4-4) (occupied pos-5-4)
    add: (free pos-4-4) (free pos-5-4) (last-visited pos-6-4) (occupied pos-6-4)
    del: (free pos-6-4) (move-ended) (occupied pos-4-4) (occupied pos-5-4)
  (jump-new-move pos-4-5 pos-3-5 pos-2-5), cost: 1
    pre: (free pos-2-5) (move-ended) (occupied pos-3-5) (occupied pos-4-5)
    add: (free pos-3-5) (free pos-4-5) (last-visited pos-2-5) (occupied pos-2-5)
    del: (free pos-2-5) (move-ended) (occupied pos-3-5) (occupied pos-4-5)
  (jump-new-move pos-4-5 pos-4-4 pos-4-3), cost: 1
    pre: (free pos-4-3) (move-ended) (occupied pos-4-4) (occupied pos-4-5)
    add: (free pos-4-4) (free pos-4-5) (last-visited pos-4-3) (occupied pos-4-3)
    del: (free pos-4-3) (move-ended) (occupied pos-4-4) (occupied pos-4-5)
  (jump-new-move pos-4-6 pos-3-6 pos-2-6), cost: 1
    pre: (free pos-2-6) (move-ended) (occupied pos-3-6) (occupied pos-4-6)
    add: (free pos-3-6) (free pos-4-6) (last-visited pos-2-6) (occupied pos-2-6)
    del: (free pos-2-6) (move-ended) (occupied pos-3-6) (occupied pos-4-6)
  (jump-new-move pos-4-6 pos-4-5 pos-4-4), cost: 1
    pre: (free pos-4-4) (move-ended) (occupied pos-4-5) (occupied pos-4-6)
    add: (free pos-4-5) (free pos-4-6) (last-visited pos-4-4) (occupied pos-4-4)
    del: (free pos-4-4) (move-ended) (occupied pos-4-5) (occupied pos-4-6)
  (jump-new-move pos-5-2 pos-4-2 pos-3-2), cost: 1
    pre: (free pos-3-2) (move-ended) (occupied pos-4-2) (occupied pos-5-2)
    add: (free pos-4-2) (free pos-5-2) (last-visited pos-3-2) (occupied pos-3-2)
    del: (free pos-3-2) (move-ended) (occupied pos-4-2) (occupied pos-5-2)
  (jump-new-move pos-5-2 pos-5-3 pos-5-4), cost: 1
    pre: (free pos-5-4) (move-ended) (occupied pos-5-2) (occupied pos-5-3)
    add: (free pos-5-2) (free pos-5-3) (last-visited pos-5-4) (occupied pos-5-4)
    del: (free pos-5-4) (move-ended) (occupied pos-5-2) (occupied pos-5-3)
  (jump-new-move pos-5-3 pos-4-3 pos-3-3), cost: 1
    pre: (free pos-3-3) (move-ended) (occupied pos-4-3) (occupied pos-5-3)
    add: (free pos-4-3) (free pos-5-3) (last-visited pos-3-3) (occupied pos-3-3)
    del: (free pos-3-3) (move-ended) (occupied pos-4-3) (occupied pos-5-3)
  (jump-new-move pos-5-4 pos-4-4 pos-3-4), cost: 1
    pre: (free pos-3-4) (move-ended) (occupied pos-4-4) (occupied pos-5-4)
    add: (free pos-4-4) (free pos-5-4) (last-visited pos-3-4) (occupied pos-3-4)
    del: (free pos-3-4) (move-ended) (occupied pos-4-4) (occupied pos-5-4)
  (jump-new-move pos-5-4 pos-5-3 pos-5-2), cost: 1
    pre: (free pos-5-2) (move-ended) (occupied pos-5-3) (occupied pos-5-4)
    add: (free pos-5-3) (free pos-5-4) (last-visited pos-5-2) (occupied pos-5-2)
    del: (free pos-5-2) (move-ended) (occupied pos-5-3) (occupied pos-5-4)
  (jump-new-move pos-6-2 pos-5-2 pos-4-2), cost: 1
    pre: (free pos-4-2) (move-ended) (occupied pos-5-2) (occupied pos-6-2)
    add: (free pos-5-2) (free pos-6-2) (last-visited pos-4-2) (occupied pos-4-2)
    del: (free pos-4-2) (move-ended) (occupied pos-5-2) (occupied pos-6-2)
  (jump-new-move pos-6-2 pos-6-3 pos-6-4), cost: 1
    pre: (free pos-6-4) (move-ended) (occupied pos-6-2) (occupied pos-6-3)
    add: (free pos-6-2) (free pos-6-3) (last-visited pos-6-4) (occupied pos-6-4)
    del: (free pos-6-4) (move-ended) (occupied pos-6-2) (occupied pos-6-3)
  (jump-new-move pos-6-3 pos-5-3 pos-4-3), cost: 1
    pre: (free pos-4-3) (move-ended) (occupied pos-5-3) (occupied pos-6-3)
    add: (free pos-5-3) (free pos-6-3) (last-visited pos-4-3) (occupied pos-4-3)
    del: (free pos-4-3) (move-ended) (occupied pos-5-3) (occupied pos-6-3)
  (jump-new-move pos-6-4 pos-5-4 pos-4-4), cost: 1
    pre: (free pos-4-4) (move-ended) (occupied pos-5-4) (occupied pos-6-4)
    add: (free pos-5-4) (free pos-6-4) (last-visited pos-4-4) (occupied pos-4-4)
    del: (free pos-4-4) (move-ended) (occupied pos-5-4) (occupied pos-6-4)
  (jump-new-move pos-6-4 pos-6-3 pos-6-2), cost: 1
    pre: (free pos-6-2) (move-ended) (occupied pos-6-3) (occupied pos-6-4)
    add: (free pos-6-3) (free pos-6-4) (last-visited pos-6-2) (occupied pos-6-2)
    del: (free pos-6-2) (move-ended) (occupied pos-6-3) (occupied pos-6-4)
Init State: (free pos-0-2) (free pos-1-2) (free pos-2-0) (free pos-2-3) (free pos-2-4) (free pos-3-0) (free pos-3-5) (free pos-3-6) (free pos-4-0) (free pos-4-3) (free pos-4-4) (free pos-5-3) (free pos-5-4) (free pos-6-2) (free pos-6-3) (free pos-6-4) (move-ended) (occupied pos-0-3) (occupied pos-0-4) (occupied pos-1-3) (occupied pos-1-4) (occupied pos-2-1) (occupied pos-2-2) (occupied pos-2-5) (occupied pos-2-6) (occupied pos-3-1) (occupied pos-3-2) (occupied pos-3-3) (occupied pos-3-4) (occupied pos-4-1) (occupied pos-4-2) (occupied pos-4-5) (occupied pos-4-6) (occupied pos-5-2)
Goal: (free pos-0-2) (free pos-0-3) (free pos-0-4) (free pos-1-2) (free pos-1-3) (free pos-1-4) (free pos-2-0) (free pos-2-1) (free pos-2-2) (free pos-2-3) (free pos-2-4) (free pos-2-5) (free pos-2-6) (free pos-3-0) (free pos-3-1) (free pos-3-2) (free pos-3-4) (free pos-3-5) (free pos-3-6) (free pos-4-0) (free pos-4-1) (free pos-4-2) (free pos-4-3) (free pos-4-4) (free pos-4-5) (free pos-4-6) (free pos-5-2) (free pos-5-3) (free pos-5-4) (free pos-6-2) (free pos-6-3) (free pos-6-4) (occupied pos-3-3)
