Init: (at player-01 pos-04-16) (at stone-01 pos-03-15) (clear pos-02-16) (clear pos-03-02) (clear pos-03-03) (clear pos-03-04) (clear pos-03-05) (clear pos-03-06) (clear pos-03-07) (clear pos-03-08) (clear pos-03-09) (clear pos-03-10) (clear pos-03-11) (clear pos-03-12) (clear pos-03-13) (clear pos-03-14) (clear pos-03-16) (clear pos-04-02) (clear pos-05-02) (clear pos-05-04) (clear pos-05-05) (clear pos-05-06) (clear pos-05-07) (clear pos-05-08) (clear pos-05-09) (clear pos-05-10) (clear pos-05-11) (clear pos-05-12) (clear pos-05-13) (clear pos-05-14) (clear pos-05-15) (clear pos-05-16) (clear pos-06-02) (clear pos-06-04) (clear pos-07-02) (clear pos-07-04) (clear pos-07-06) (clear pos-07-07) (clear pos-07-08) (clear pos-07-09) (clear pos-07-10) (clear pos-07-11) (clear pos-07-12) (clear pos-07-13) (clear pos-07-14) (clear pos-07-15) (clear pos-07-16) (clear pos-08-02) (clear pos-08-04) (clear pos-08-06) (clear pos-08-16) (clear pos-09-02) (clear pos-09-04) (clear pos-09-06) (clear pos-09-08) (clear pos-09-09) (clear pos-09-10) (clear pos-09-11) (clear pos-09-12) (clear pos-09-13) (clear pos-09-14) (clear pos-09-16) (clear pos-10-02) (clear pos-10-04) (clear pos-10-06) (clear pos-10-08) (clear pos-10-14) (clear pos-10-16) (clear pos-11-02) (clear pos-11-04) (clear pos-11-06) (clear pos-11-08) (clear pos-11-10) (clear pos-11-11) (clear pos-11-12) (clear pos-11-14) (clear pos-11-16) (clear pos-12-02) (clear pos-12-04) (clear pos-12-06) (clear pos-12-08) (clear pos-12-10) (clear pos-12-12) (clear pos-12-14) (clear pos-12-16) (clear pos-13-02) (clear pos-13-04) (clear pos-13-06) (clear pos-13-08) (clear pos-13-10) (clear pos-13-12) (clear pos-13-14) (clear pos-13-16) (clear pos-14-02) (clear pos-14-04) (clear pos-14-06) (clear pos-14-08) (clear pos-14-10) (clear pos-14-12) (clear pos-14-14) (clear pos-14-16) (clear pos-15-02) (clear pos-15-04) (clear pos-15-06) (clear pos-15-08) (clear pos-15-10) (clear pos-15-12) (clear pos-15-14) (clear pos-15-16) (clear pos-16-02) (clear pos-16-04) (clear pos-16-06) (clear pos-16-08) (clear pos-16-10) (clear pos-16-12) (clear pos-16-14) (clear pos-16-16) (clear pos-17-02) (clear pos-17-04) (clear pos-17-06) (clear pos-17-08) (clear pos-17-10) (clear pos-17-12) (clear pos-17-14) (clear pos-17-16) (clear pos-18-02) (clear pos-18-04) (clear pos-18-06) (clear pos-18-08) (clear pos-18-10) (clear pos-18-12) (clear pos-18-14) (clear pos-18-16) (clear pos-19-02) (clear pos-19-04) (clear pos-19-06) (clear pos-19-08) (clear pos-19-10) (clear pos-19-12) (clear pos-19-14) (clear pos-19-16) (clear pos-20-02) (clear pos-20-04) (clear pos-20-06) (clear pos-20-08) (clear pos-20-10) (clear pos-20-12) (clear pos-20-14) (clear pos-20-16) (clear pos-21-02) (clear pos-21-04) (clear pos-21-06) (clear pos-21-08) (clear pos-21-10) (clear pos-21-12) (clear pos-21-14) (clear pos-21-16) (clear pos-22-02) (clear pos-22-04) (clear pos-22-06) (clear pos-22-08) (clear pos-22-09) (clear pos-22-10) (clear pos-22-12) (clear pos-22-14) (clear pos-22-16) (clear pos-23-02) (clear pos-23-04) (clear pos-23-06) (clear pos-23-12) (clear pos-23-14) (clear pos-23-16) (clear pos-24-02) (clear pos-24-04) (clear pos-24-06) (clear pos-24-07) (clear pos-24-08) (clear pos-24-09) (clear pos-24-10) (clear pos-24-11) (clear pos-24-12) (clear pos-24-14) (clear pos-24-16) (clear pos-25-02) (clear pos-25-04) (clear pos-25-14) (clear pos-25-16) (clear pos-26-02) (clear pos-26-04) (clear pos-26-05) (clear pos-26-06) (clear pos-26-07) (clear pos-26-08) (clear pos-26-09) (clear pos-26-10) (clear pos-26-11) (clear pos-26-12) (clear pos-26-13) (clear pos-26-14) (clear pos-26-16) (clear pos-27-02) (clear pos-27-16) (clear pos-28-02) (clear pos-28-03) (clear pos-28-04) (clear pos-28-05) (clear pos-28-06) (clear pos-28-07) (clear pos-28-08) (clear pos-28-09) (clear pos-28-10) (clear pos-28-11) (clear pos-28-12) (clear pos-28-13) (clear pos-28-14) (clear pos-28-15)
Unreachable facts [2/449]:
  (at player-01 pos-28-16)
  (clear pos-28-16)
Unreachable ops [4/461]:
  (move player-01 pos-27-16 pos-28-16 dir-right)
  (move player-01 pos-28-15 pos-28-16 dir-down)
  (move player-01 pos-28-16 pos-27-16 dir-left)
  (move player-01 pos-28-16 pos-28-15 dir-up)
