Domain: child-snack
Problem: prob-snack
Require: ff
Type[7]:
    [0]: object, parent: -1
    [1]: child, parent: 0
    [2]: bread-portion, parent: 0
    [3]: content-portion, parent: 0
    [4]: sandwich, parent: 0
    [5]: tray, parent: 0
    [6]: place, parent: 0
Obj-by-Type:
    [0]: 0 1 2 3 4 5 6 7 8 9 10 11 12 13 14 15 16 17 18 19 20 21 22 23 24 25 26 27 28 29 30 31 32 33 34 35 36 37 38 39 40 41 42 43 44 45 46 47 48 49 50 51 52 53 54 55 56 57 58 59 60 61 62 63 64 65 66 67 68 69 70 71
    [1]: 1 2 3 4 5 6 7 8 9 10 11 12 13 14 15
    [2]: 16 17 18 19 20 21 22 23 24 25 26 27 28 29 30
    [3]: 31 32 33 34 35 36 37 38 39 40 41 42 43 44 45
    [4]: 52 53 54 55 56 57 58 59 60 61 62 63 64 65 66 67 68 69 70 71
    [5]: 46 47 48
    [6]: 0 49 50 51
Obj[72]:
    [0]: kitchen, type: 6, is-constant: 1, is-private: 0, owner: -1, is-agent: 0
    [1]: child1, type: 1, is-constant: 0, is-private: 0, owner: -1, is-agent: 0
    [2]: child2, type: 1, is-constant: 0, is-private: 0, owner: -1, is-agent: 0
    [3]: child3, type: 1, is-constant: 0, is-private: 0, owner: -1, is-agent: 0
    [4]: child4, type: 1, is-constant: 0, is-private: 0, owner: -1, is-agent: 0
    [5]: child5, type: 1, is-constant: 0, is-private: 0, owner: -1, is-agent: 0
    [6]: child6, type: 1, is-constant: 0, is-private: 0, owner: -1, is-agent: 0
    [7]: child7, type: 1, is-constant: 0, is-private: 0, owner: -1, is-agent: 0
    [8]: child8, type: 1, is-constant: 0, is-private: 0, owner: -1, is-agent: 0
    [9]: child9, type: 1, is-constant: 0, is-private: 0, owner: -1, is-agent: 0
    [10]: child10, type: 1, is-constant: 0, is-private: 0, owner: -1, is-agent: 0
    [11]: child11, type: 1, is-constant: 0, is-private: 0, owner: -1, is-agent: 0
    [12]: child12, type: 1, is-constant: 0, is-private: 0, owner: -1, is-agent: 0
    [13]: child13, type: 1, is-constant: 0, is-private: 0, owner: -1, is-agent: 0
    [14]: child14, type: 1, is-constant: 0, is-private: 0, owner: -1, is-agent: 0
    [15]: child15, type: 1, is-constant: 0, is-private: 0, owner: -1, is-agent: 0
    [16]: bread1, type: 2, is-constant: 0, is-private: 0, owner: -1, is-agent: 0
    [17]: bread2, type: 2, is-constant: 0, is-private: 0, owner: -1, is-agent: 0
    [18]: bread3, type: 2, is-constant: 0, is-private: 0, owner: -1, is-agent: 0
    [19]: bread4, type: 2, is-constant: 0, is-private: 0, owner: -1, is-agent: 0
    [20]: bread5, type: 2, is-constant: 0, is-private: 0, owner: -1, is-agent: 0
    [21]: bread6, type: 2, is-constant: 0, is-private: 0, owner: -1, is-agent: 0
    [22]: bread7, type: 2, is-constant: 0, is-private: 0, owner: -1, is-agent: 0
    [23]: bread8, type: 2, is-constant: 0, is-private: 0, owner: -1, is-agent: 0
    [24]: bread9, type: 2, is-constant: 0, is-private: 0, owner: -1, is-agent: 0
    [25]: bread10, type: 2, is-constant: 0, is-private: 0, owner: -1, is-agent: 0
    [26]: bread11, type: 2, is-constant: 0, is-private: 0, owner: -1, is-agent: 0
    [27]: bread12, type: 2, is-constant: 0, is-private: 0, owner: -1, is-agent: 0
    [28]: bread13, type: 2, is-constant: 0, is-private: 0, owner: -1, is-agent: 0
    [29]: bread14, type: 2, is-constant: 0, is-private: 0, owner: -1, is-agent: 0
    [30]: bread15, type: 2, is-constant: 0, is-private: 0, owner: -1, is-agent: 0
    [31]: content1, type: 3, is-constant: 0, is-private: 0, owner: -1, is-agent: 0
    [32]: content2, type: 3, is-constant: 0, is-private: 0, owner: -1, is-agent: 0
    [33]: content3, type: 3, is-constant: 0, is-private: 0, owner: -1, is-agent: 0
    [34]: content4, type: 3, is-constant: 0, is-private: 0, owner: -1, is-agent: 0
    [35]: content5, type: 3, is-constant: 0, is-private: 0, owner: -1, is-agent: 0
    [36]: content6, type: 3, is-constant: 0, is-private: 0, owner: -1, is-agent: 0
    [37]: content7, type: 3, is-constant: 0, is-private: 0, owner: -1, is-agent: 0
    [38]: content8, type: 3, is-constant: 0, is-private: 0, owner: -1, is-agent: 0
    [39]: content9, type: 3, is-constant: 0, is-private: 0, owner: -1, is-agent: 0
    [40]: content10, type: 3, is-constant: 0, is-private: 0, owner: -1, is-agent: 0
    [41]: content11, type: 3, is-constant: 0, is-private: 0, owner: -1, is-agent: 0
    [42]: content12, type: 3, is-constant: 0, is-private: 0, owner: -1, is-agent: 0
    [43]: content13, type: 3, is-constant: 0, is-private: 0, owner: -1, is-agent: 0
    [44]: content14, type: 3, is-constant: 0, is-private: 0, owner: -1, is-agent: 0
    [45]: content15, type: 3, is-constant: 0, is-private: 0, owner: -1, is-agent: 0
    [46]: tray1, type: 5, is-constant: 0, is-private: 0, owner: -1, is-agent: 0
    [47]: tray2, type: 5, is-constant: 0, is-private: 0, owner: -1, is-agent: 0
    [48]: tray3, type: 5, is-constant: 0, is-private: 0, owner: -1, is-agent: 0
    [49]: table1, type: 6, is-constant: 0, is-private: 0, owner: -1, is-agent: 0
    [50]: table2, type: 6, is-constant: 0, is-private: 0, owner: -1, is-agent: 0
    [51]: table3, type: 6, is-constant: 0, is-private: 0, owner: -1, is-agent: 0
    [52]: sandw1, type: 4, is-constant: 0, is-private: 0, owner: -1, is-agent: 0
    [53]: sandw2, type: 4, is-constant: 0, is-private: 0, owner: -1, is-agent: 0
    [54]: sandw3, type: 4, is-constant: 0, is-private: 0, owner: -1, is-agent: 0
    [55]: sandw4, type: 4, is-constant: 0, is-private: 0, owner: -1, is-agent: 0
    [56]: sandw5, type: 4, is-constant: 0, is-private: 0, owner: -1, is-agent: 0
    [57]: sandw6, type: 4, is-constant: 0, is-private: 0, owner: -1, is-agent: 0
    [58]: sandw7, type: 4, is-constant: 0, is-private: 0, owner: -1, is-agent: 0
    [59]: sandw8, type: 4, is-constant: 0, is-private: 0, owner: -1, is-agent: 0
    [60]: sandw9, type: 4, is-constant: 0, is-private: 0, owner: -1, is-agent: 0
    [61]: sandw10, type: 4, is-constant: 0, is-private: 0, owner: -1, is-agent: 0
    [62]: sandw11, type: 4, is-constant: 0, is-private: 0, owner: -1, is-agent: 0
    [63]: sandw12, type: 4, is-constant: 0, is-private: 0, owner: -1, is-agent: 0
    [64]: sandw13, type: 4, is-constant: 0, is-private: 0, owner: -1, is-agent: 0
    [65]: sandw14, type: 4, is-constant: 0, is-private: 0, owner: -1, is-agent: 0
    [66]: sandw15, type: 4, is-constant: 0, is-private: 0, owner: -1, is-agent: 0
    [67]: sandw16, type: 4, is-constant: 0, is-private: 0, owner: -1, is-agent: 0
    [68]: sandw17, type: 4, is-constant: 0, is-private: 0, owner: -1, is-agent: 0
    [69]: sandw18, type: 4, is-constant: 0, is-private: 0, owner: -1, is-agent: 0
    [70]: sandw19, type: 4, is-constant: 0, is-private: 0, owner: -1, is-agent: 0
    [71]: sandw20, type: 4, is-constant: 0, is-private: 0, owner: -1, is-agent: 0
Predicate[14]:
    =: 0 0 :: is-private: 0, owner-param: -1, read: 0, write: 0
    at_kitchen_bread: 2 :: is-private: 0, owner-param: -1, read: 1, write: 1
    at_kitchen_content: 3 :: is-private: 0, owner-param: -1, read: 1, write: 1
    at_kitchen_sandwich: 4 :: is-private: 0, owner-param: -1, read: 1, write: 1
    no_gluten_bread: 2 :: is-private: 0, owner-param: -1, read: 1, write: 0
    no_gluten_content: 3 :: is-private: 0, owner-param: -1, read: 1, write: 0
    ontray: 4 5 :: is-private: 0, owner-param: -1, read: 1, write: 1
    no_gluten_sandwich: 4 :: is-private: 0, owner-param: -1, read: 1, write: 1
    allergic_gluten: 1 :: is-private: 0, owner-param: -1, read: 1, write: 0
    not_allergic_gluten: 1 :: is-private: 0, owner-param: -1, read: 1, write: 0
    served: 1 :: is-private: 0, owner-param: -1, read: 0, write: 1
    waiting: 1 6 :: is-private: 0, owner-param: -1, read: 1, write: 0
    at: 5 6 :: is-private: 0, owner-param: -1, read: 1, write: 1
    notexist: 4 :: is-private: 0, owner-param: -1, read: 1, write: 1
Function[0]:
Action[6]:
    make_sandwich_no_gluten: ?s:4 ?b:2 ?c:3
        pre: (and (RW:at_kitchen_bread ?b) (RW:at_kitchen_content ?c) (R:no_gluten_bread ?b) (R:no_gluten_content ?c) (RW:notexist ?s))
        eff: (and (N:RW:at_kitchen_bread ?b) (N:RW:at_kitchen_content ?c) (RW:at_kitchen_sandwich ?s) (RW:no_gluten_sandwich ?s) (N:RW:notexist ?s))
    make_sandwich: ?s:4 ?b:2 ?c:3
        pre: (and (RW:at_kitchen_bread ?b) (RW:at_kitchen_content ?c) (RW:notexist ?s))
        eff: (and (N:RW:at_kitchen_bread ?b) (N:RW:at_kitchen_content ?c) (RW:at_kitchen_sandwich ?s) (N:RW:notexist ?s))
    put_on_tray: ?s:4 ?t:5
        pre: (and (RW:at_kitchen_sandwich ?s) (RW:at ?t kitchen))
        eff: (and (N:RW:at_kitchen_sandwich ?s) (RW:ontray ?s ?t))
    serve_sandwich_no_gluten: ?s:4 ?c:1 ?t:5 ?p:6
        pre: (and (R:allergic_gluten ?c) (RW:ontray ?s ?t) (R:waiting ?c ?p) (RW:no_gluten_sandwich ?s) (RW:at ?t ?p))
        eff: (and (N:RW:ontray ?s ?t) (W:served ?c))
    serve_sandwich: ?s:4 ?c:1 ?t:5 ?p:6
        pre: (and (R:not_allergic_gluten ?c) (R:waiting ?c ?p) (RW:ontray ?s ?t) (RW:at ?t ?p))
        eff: (and (N:RW:ontray ?s ?t) (W:served ?c))
    move_tray: ?t:5 ?p1:6 ?p2:6
        pre: (and (RW:at ?t ?p1))
        eff: (and (N:RW:at ?t ?p1) (RW:at ?t ?p2))
Init[95]:
  (at tray1 kitchen)
  (at tray2 kitchen)
  (at tray3 kitchen)
  (at_kitchen_bread bread1)
  (at_kitchen_bread bread2)
  (at_kitchen_bread bread3)
  (at_kitchen_bread bread4)
  (at_kitchen_bread bread5)
  (at_kitchen_bread bread6)
  (at_kitchen_bread bread7)
  (at_kitchen_bread bread8)
  (at_kitchen_bread bread9)
  (at_kitchen_bread bread10)
  (at_kitchen_bread bread11)
  (at_kitchen_bread bread12)
  (at_kitchen_bread bread13)
  (at_kitchen_bread bread14)
  (at_kitchen_bread bread15)
  (at_kitchen_content content1)
  (at_kitchen_content content2)
  (at_kitchen_content content3)
  (at_kitchen_content content4)
  (at_kitchen_content content5)
  (at_kitchen_content content6)
  (at_kitchen_content content7)
  (at_kitchen_content content8)
  (at_kitchen_content content9)
  (at_kitchen_content content10)
  (at_kitchen_content content11)
  (at_kitchen_content content12)
  (at_kitchen_content content13)
  (at_kitchen_content content14)
  (at_kitchen_content content15)
  S:(no_gluten_bread bread9)
  S:(no_gluten_bread bread3)
  S:(no_gluten_bread bread13)
  S:(no_gluten_bread bread12)
  S:(no_gluten_bread bread6)
  S:(no_gluten_bread bread7)
  S:(no_gluten_content content4)
  S:(no_gluten_content content15)
  S:(no_gluten_content content14)
  S:(no_gluten_content content9)
  S:(no_gluten_content content3)
  S:(no_gluten_content content10)
  S:(allergic_gluten child2)
  S:(allergic_gluten child11)
  S:(allergic_gluten child5)
  S:(allergic_gluten child15)
  S:(allergic_gluten child10)
  S:(allergic_gluten child3)
  S:(not_allergic_gluten child12)
  S:(not_allergic_gluten child1)
  S:(not_allergic_gluten child4)
  S:(not_allergic_gluten child14)
  S:(not_allergic_gluten child6)
  S:(not_allergic_gluten child7)
  S:(not_allergic_gluten child8)
  S:(not_allergic_gluten child9)
  S:(not_allergic_gluten child13)
  S:(waiting child1 table1)
  S:(waiting child2 table2)
  S:(waiting child3 table2)
  S:(waiting child4 table1)
  S:(waiting child5 table2)
  S:(waiting child6 table1)
  S:(waiting child7 table1)
  S:(waiting child8 table3)
  S:(waiting child9 table3)
  S:(waiting child10 table2)
  S:(waiting child11 table3)
  S:(waiting child12 table2)
  S:(waiting child13 table2)
  S:(waiting child14 table2)
  S:(waiting child15 table2)
  (notexist sandw1)
  (notexist sandw2)
  (notexist sandw3)
  (notexist sandw4)
  (notexist sandw5)
  (notexist sandw6)
  (notexist sandw7)
  (notexist sandw8)
  (notexist sandw9)
  (notexist sandw10)
  (notexist sandw11)
  (notexist sandw12)
  (notexist sandw13)
  (notexist sandw14)
  (notexist sandw15)
  (notexist sandw16)
  (notexist sandw17)
  (notexist sandw18)
  (notexist sandw19)
  (notexist sandw20)
Init[0]:
Goal: (and (W:served child1) (W:served child2) (W:served child3) (W:served child4) (W:served child5) (W:served child6) (W:served child7) (W:served child8) (W:served child9) (W:served child10) (W:served child11) (W:served child12) (W:served child13) (W:served child14) (W:served child15))
Metric: 0
