Reduced 79 -> 69
Domain: sokoban-sequential
Problem: p012-microban-sequential
Require: 200ff
Type[6]:
    [0]: object, parent: -1
    [1]: thing, parent: 0
    [2]: location, parent: 0
    [3]: direction, parent: 0
    [4]: player, parent: 1
    [5]: stone, parent: 1
Obj-by-Type:
    [0]: 0 1 2 3 4 5 6 7 8 9 10 11 12 13 14 15 16 17 18 19 20 21 22 23 24 25 26 27 28 29 30 31 32 33 34 35 36 37 38 39 40 41 42 43 44 45 46 47 48 49 50 51 52 53 54 55 56 57 58 59 60 61 62 63 64 65 66 67 68
    [1]: 3 67 68
    [2]: 4 5 6 7 8 9 10 11 12 13 14 15 16 17 18 19 20 21 22 23 24 25 26 27 28 29 30 31 32 33 34 35 36 37 38 39 40 41 42 43 44 45 46 47 48 49 50 51 52 53 54 55 56 57 58 59 60 61 62 63 64 65 66
    [3]: 0 1 2
    [4]: 3
    [5]: 67 68
Obj[69]:
    [0]: dir-down, type: 3, is-constant: 0, is-private: 0, owner: -1, is-agent: 0
    [1]: dir-left, type: 3, is-constant: 0, is-private: 0, owner: -1, is-agent: 0
    [2]: dir-right, type: 3, is-constant: 0, is-private: 0, owner: -1, is-agent: 0
    [3]: player-01, type: 4, is-constant: 0, is-private: 0, owner: -1, is-agent: 0
    [4]: pos-1-1, type: 2, is-constant: 0, is-private: 0, owner: -1, is-agent: 0
    [5]: pos-1-2, type: 2, is-constant: 0, is-private: 0, owner: -1, is-agent: 0
    [6]: pos-1-3, type: 2, is-constant: 0, is-private: 0, owner: -1, is-agent: 0
    [7]: pos-1-4, type: 2, is-constant: 0, is-private: 0, owner: -1, is-agent: 0
    [8]: pos-1-5, type: 2, is-constant: 0, is-private: 0, owner: -1, is-agent: 0
    [9]: pos-1-6, type: 2, is-constant: 0, is-private: 0, owner: -1, is-agent: 0
    [10]: pos-1-7, type: 2, is-constant: 0, is-private: 0, owner: -1, is-agent: 0
    [11]: pos-1-8, type: 2, is-constant: 0, is-private: 0, owner: -1, is-agent: 0
    [12]: pos-2-1, type: 2, is-constant: 0, is-private: 0, owner: -1, is-agent: 0
    [13]: pos-2-2, type: 2, is-constant: 0, is-private: 0, owner: -1, is-agent: 0
    [14]: pos-2-3, type: 2, is-constant: 0, is-private: 0, owner: -1, is-agent: 0
    [15]: pos-2-4, type: 2, is-constant: 0, is-private: 0, owner: -1, is-agent: 0
    [16]: pos-2-5, type: 2, is-constant: 0, is-private: 0, owner: -1, is-agent: 0
    [17]: pos-2-6, type: 2, is-constant: 0, is-private: 0, owner: -1, is-agent: 0
    [18]: pos-2-7, type: 2, is-constant: 0, is-private: 0, owner: -1, is-agent: 0
    [19]: pos-2-8, type: 2, is-constant: 0, is-private: 0, owner: -1, is-agent: 0
    [20]: pos-3-1, type: 2, is-constant: 0, is-private: 0, owner: -1, is-agent: 0
    [21]: pos-3-2, type: 2, is-constant: 0, is-private: 0, owner: -1, is-agent: 0
    [22]: pos-3-3, type: 2, is-constant: 0, is-private: 0, owner: -1, is-agent: 0
    [23]: pos-3-6, type: 2, is-constant: 0, is-private: 0, owner: -1, is-agent: 0
    [24]: pos-3-7, type: 2, is-constant: 0, is-private: 0, owner: -1, is-agent: 0
    [25]: pos-3-8, type: 2, is-constant: 0, is-private: 0, owner: -1, is-agent: 0
    [26]: pos-4-1, type: 2, is-constant: 0, is-private: 0, owner: -1, is-agent: 0
    [27]: pos-4-2, type: 2, is-constant: 0, is-private: 0, owner: -1, is-agent: 0
    [28]: pos-4-3, type: 2, is-constant: 0, is-private: 0, owner: -1, is-agent: 0
    [29]: pos-4-4, type: 2, is-constant: 0, is-private: 0, owner: -1, is-agent: 0
    [30]: pos-4-5, type: 2, is-constant: 0, is-private: 0, owner: -1, is-agent: 0
    [31]: pos-4-6, type: 2, is-constant: 0, is-private: 0, owner: -1, is-agent: 0
    [32]: pos-4-7, type: 2, is-constant: 0, is-private: 0, owner: -1, is-agent: 0
    [33]: pos-4-8, type: 2, is-constant: 0, is-private: 0, owner: -1, is-agent: 0
    [34]: pos-5-1, type: 2, is-constant: 0, is-private: 0, owner: -1, is-agent: 0
    [35]: pos-5-2, type: 2, is-constant: 0, is-private: 0, owner: -1, is-agent: 0
    [36]: pos-5-3, type: 2, is-constant: 0, is-private: 0, owner: -1, is-agent: 0
    [37]: pos-5-5, type: 2, is-constant: 0, is-private: 0, owner: -1, is-agent: 0
    [38]: pos-5-6, type: 2, is-constant: 0, is-private: 0, owner: -1, is-agent: 0
    [39]: pos-5-7, type: 2, is-constant: 0, is-private: 0, owner: -1, is-agent: 0
    [40]: pos-5-8, type: 2, is-constant: 0, is-private: 0, owner: -1, is-agent: 0
    [41]: pos-6-1, type: 2, is-constant: 0, is-private: 0, owner: -1, is-agent: 0
    [42]: pos-6-2, type: 2, is-constant: 0, is-private: 0, owner: -1, is-agent: 0
    [43]: pos-6-3, type: 2, is-constant: 0, is-private: 0, owner: -1, is-agent: 0
    [44]: pos-6-5, type: 2, is-constant: 0, is-private: 0, owner: -1, is-agent: 0
    [45]: pos-6-6, type: 2, is-constant: 0, is-private: 0, owner: -1, is-agent: 0
    [46]: pos-6-7, type: 2, is-constant: 0, is-private: 0, owner: -1, is-agent: 0
    [47]: pos-6-8, type: 2, is-constant: 0, is-private: 0, owner: -1, is-agent: 0
    [48]: pos-7-1, type: 2, is-constant: 0, is-private: 0, owner: -1, is-agent: 0
    [49]: pos-7-2, type: 2, is-constant: 0, is-private: 0, owner: -1, is-agent: 0
    [50]: pos-7-3, type: 2, is-constant: 0, is-private: 0, owner: -1, is-agent: 0
    [51]: pos-7-4, type: 2, is-constant: 0, is-private: 0, owner: -1, is-agent: 0
    [52]: pos-7-5, type: 2, is-constant: 0, is-private: 0, owner: -1, is-agent: 0
    [53]: pos-7-6, type: 2, is-constant: 0, is-private: 0, owner: -1, is-agent: 0
    [54]: pos-7-7, type: 2, is-constant: 0, is-private: 0, owner: -1, is-agent: 0
    [55]: pos-7-8, type: 2, is-constant: 0, is-private: 0, owner: -1, is-agent: 0
    [56]: pos-8-1, type: 2, is-constant: 0, is-private: 0, owner: -1, is-agent: 0
    [57]: pos-8-2, type: 2, is-constant: 0, is-private: 0, owner: -1, is-agent: 0
    [58]: pos-8-3, type: 2, is-constant: 0, is-private: 0, owner: -1, is-agent: 0
    [59]: pos-8-5, type: 2, is-constant: 0, is-private: 0, owner: -1, is-agent: 0
    [60]: pos-9-1, type: 2, is-constant: 0, is-private: 0, owner: -1, is-agent: 0
    [61]: pos-9-2, type: 2, is-constant: 0, is-private: 0, owner: -1, is-agent: 0
    [62]: pos-9-3, type: 2, is-constant: 0, is-private: 0, owner: -1, is-agent: 0
    [63]: pos-9-4, type: 2, is-constant: 0, is-private: 0, owner: -1, is-agent: 0
    [64]: pos-9-6, type: 2, is-constant: 0, is-private: 0, owner: -1, is-agent: 0
    [65]: pos-9-7, type: 2, is-constant: 0, is-private: 0, owner: -1, is-agent: 0
    [66]: pos-9-8, type: 2, is-constant: 0, is-private: 0, owner: -1, is-agent: 0
    [67]: stone-01, type: 5, is-constant: 0, is-private: 0, owner: -1, is-agent: 0
    [68]: stone-02, type: 5, is-constant: 0, is-private: 0, owner: -1, is-agent: 0
Predicate[7]:
    =: 0 0 :: is-private: 0, owner-param: -1, read: 0, write: 0
    clear: 2 :: is-private: 0, owner-param: -1, read: 1, write: 1
    at: 1 2 :: is-private: 0, owner-param: -1, read: 1, write: 1
    at-goal: 5 :: is-private: 0, owner-param: -1, read: 0, write: 1
    is-goal: 2 :: is-private: 0, owner-param: -1, read: 1, write: 0
    is-nongoal: 2 :: is-private: 0, owner-param: -1, read: 1, write: 0
    move-dir: 2 2 3 :: is-private: 0, owner-param: -1, read: 1, write: 0
Function[1]:
    total-cost: :: is-private: 0, owner-param: -1, read: 0, write: 0
Action[3]:
    move: ?p:4 ?from:2 ?to:2 ?dir:3
        pre: (and (RW:at ?p ?from) (RW:clear ?to) (R:move-dir ?from ?to ?dir))
        eff: (and (RW:at ?p ?to) (RW:clear ?from))
    push-to-nongoal: ?p:4 ?s:5 ?ppos:2 ?from:2 ?to:2 ?dir:3
        pre: (and (RW:at ?p ?ppos) (RW:at ?s ?from) (RW:clear ?to) (R:move-dir ?ppos ?from ?dir) (R:move-dir ?from ?to ?dir) (R:is-nongoal ?to))
        eff: (and (RW:at ?p ?from) (RW:at ?s ?to) (RW:clear ?ppos) (N:W:at-goal ?s) (increase (total-cost) 1))
    push-to-goal: ?p:4 ?s:5 ?ppos:2 ?from:2 ?to:2 ?dir:3
        pre: (and (RW:at ?p ?ppos) (RW:at ?s ?from) (RW:clear ?to) (R:move-dir ?ppos ?from ?dir) (R:move-dir ?from ?to ?dir) (R:is-goal ?to))
        eff: (and (RW:at ?p ?from) (RW:at ?s ?to) (RW:clear ?ppos) (W:at-goal ?s) (increase (total-cost) 1))
Init[214]:
  S:(is-goal pos-6-5)
  S:(is-goal pos-6-6)
  S:(is-nongoal pos-1-1)
  S:(is-nongoal pos-1-2)
  S:(is-nongoal pos-1-3)
  S:(is-nongoal pos-1-4)
  S:(is-nongoal pos-1-5)
  S:(is-nongoal pos-1-6)
  S:(is-nongoal pos-1-7)
  S:(is-nongoal pos-1-8)
  S:(is-nongoal pos-2-1)
  S:(is-nongoal pos-2-2)
  S:(is-nongoal pos-2-3)
  S:(is-nongoal pos-2-4)
  S:(is-nongoal pos-2-5)
  S:(is-nongoal pos-2-6)
  S:(is-nongoal pos-2-7)
  S:(is-nongoal pos-2-8)
  S:(is-nongoal pos-3-1)
  S:(is-nongoal pos-3-2)
  S:(is-nongoal pos-3-3)
  S:(is-nongoal pos-2-3)
  S:(is-nongoal pos-2-6)
  S:(is-nongoal pos-3-6)
  S:(is-nongoal pos-3-7)
  S:(is-nongoal pos-3-8)
  S:(is-nongoal pos-4-1)
  S:(is-nongoal pos-4-2)
  S:(is-nongoal pos-4-3)
  S:(is-nongoal pos-4-4)
  S:(is-nongoal pos-4-5)
  S:(is-nongoal pos-4-6)
  S:(is-nongoal pos-4-7)
  S:(is-nongoal pos-4-8)
  S:(is-nongoal pos-5-1)
  S:(is-nongoal pos-5-2)
  S:(is-nongoal pos-5-3)
  S:(is-nongoal pos-2-7)
  S:(is-nongoal pos-5-5)
  S:(is-nongoal pos-5-6)
  S:(is-nongoal pos-5-7)
  S:(is-nongoal pos-5-8)
  S:(is-nongoal pos-6-1)
  S:(is-nongoal pos-6-2)
  S:(is-nongoal pos-6-3)
  S:(is-nongoal pos-5-2)
  S:(is-nongoal pos-6-7)
  S:(is-nongoal pos-6-8)
  S:(is-nongoal pos-7-1)
  S:(is-nongoal pos-7-2)
  S:(is-nongoal pos-7-3)
  S:(is-nongoal pos-7-4)
  S:(is-nongoal pos-7-5)
  S:(is-nongoal pos-7-6)
  S:(is-nongoal pos-7-7)
  S:(is-nongoal pos-7-8)
  S:(is-nongoal pos-8-1)
  S:(is-nongoal pos-8-2)
  S:(is-nongoal pos-8-3)
  S:(is-nongoal pos-7-1)
  S:(is-nongoal pos-8-5)
  S:(is-nongoal pos-7-8)
  S:(is-nongoal pos-8-5)
  S:(is-nongoal pos-8-1)
  S:(is-nongoal pos-9-1)
  S:(is-nongoal pos-9-2)
  S:(is-nongoal pos-9-3)
  S:(is-nongoal pos-9-4)
  S:(is-nongoal pos-1-8)
  S:(is-nongoal pos-9-6)
  S:(is-nongoal pos-9-7)
  S:(is-nongoal pos-9-8)
  S:(move-dir pos-1-5 pos-1-6 dir-down)
  S:(move-dir pos-1-6 pos-1-5 dir-down)
  S:(move-dir pos-1-6 pos-1-7 dir-down)
  S:(move-dir pos-1-6 pos-2-6 dir-right)
  S:(move-dir pos-1-7 pos-1-6 dir-down)
  S:(move-dir pos-1-7 pos-1-8 dir-down)
  S:(move-dir pos-1-7 pos-2-7 dir-right)
  S:(move-dir pos-1-8 pos-1-7 dir-down)
  S:(move-dir pos-1-8 pos-2-8 dir-right)
  S:(move-dir pos-2-2 pos-2-3 dir-down)
  S:(move-dir pos-2-2 pos-3-2 dir-right)
  S:(move-dir pos-2-3 pos-2-2 dir-down)
  S:(move-dir pos-2-3 pos-3-3 dir-right)
  S:(move-dir pos-2-6 pos-1-6 dir-left)
  S:(move-dir pos-2-6 pos-2-7 dir-down)
  S:(move-dir pos-2-7 pos-1-7 dir-left)
  S:(move-dir pos-2-7 pos-2-6 dir-down)
  S:(move-dir pos-2-7 pos-2-8 dir-down)
  S:(move-dir pos-2-8 pos-1-8 dir-left)
  S:(move-dir pos-2-8 pos-2-7 dir-down)
  S:(move-dir pos-3-2 pos-2-2 dir-left)
  S:(move-dir pos-3-2 pos-3-3 dir-down)
  S:(move-dir pos-3-2 pos-4-2 dir-right)
  S:(move-dir pos-3-3 pos-2-3 dir-left)
  S:(move-dir pos-3-3 pos-3-2 dir-down)
  S:(move-dir pos-3-3 pos-2-3 dir-down)
  S:(move-dir pos-3-3 pos-4-3 dir-right)
  S:(move-dir pos-2-3 pos-3-3 dir-down)
  S:(move-dir pos-2-3 pos-4-4 dir-right)
  S:(move-dir pos-4-2 pos-3-2 dir-left)
  S:(move-dir pos-4-2 pos-4-3 dir-down)
  S:(move-dir pos-4-3 pos-3-3 dir-left)
  S:(move-dir pos-4-3 pos-4-2 dir-down)
  S:(move-dir pos-4-3 pos-4-4 dir-down)
  S:(move-dir pos-4-3 pos-5-3 dir-right)
  S:(move-dir pos-4-4 pos-2-3 dir-left)
  S:(move-dir pos-4-4 pos-4-3 dir-down)
  S:(move-dir pos-4-4 pos-2-7 dir-right)
  S:(move-dir pos-4-6 pos-4-7 dir-down)
  S:(move-dir pos-4-6 pos-5-6 dir-right)
  S:(move-dir pos-4-7 pos-4-6 dir-down)
  S:(move-dir pos-4-7 pos-5-7 dir-right)
  S:(move-dir pos-5-3 pos-4-3 dir-left)
  S:(move-dir pos-5-3 pos-2-7 dir-down)
  S:(move-dir pos-2-7 pos-4-4 dir-left)
  S:(move-dir pos-2-7 pos-5-3 dir-down)
  S:(move-dir pos-2-7 pos-5-5 dir-down)
  S:(move-dir pos-5-5 pos-2-7 dir-down)
  S:(move-dir pos-5-5 pos-5-6 dir-down)
  S:(move-dir pos-5-5 pos-6-5 dir-right)
  S:(move-dir pos-5-6 pos-4-6 dir-left)
  S:(move-dir pos-5-6 pos-5-5 dir-down)
  S:(move-dir pos-5-6 pos-5-7 dir-down)
  S:(move-dir pos-5-6 pos-6-6 dir-right)
  S:(move-dir pos-5-7 pos-4-7 dir-left)
  S:(move-dir pos-5-7 pos-5-6 dir-down)
  S:(move-dir pos-5-7 pos-6-7 dir-right)
  S:(move-dir pos-6-1 pos-7-1 dir-right)
  S:(move-dir pos-6-5 pos-5-5 dir-left)
  S:(move-dir pos-6-5 pos-6-6 dir-down)
  S:(move-dir pos-6-5 pos-7-5 dir-right)
  S:(move-dir pos-6-6 pos-5-6 dir-left)
  S:(move-dir pos-6-6 pos-6-5 dir-down)
  S:(move-dir pos-6-6 pos-6-7 dir-down)
  S:(move-dir pos-6-7 pos-5-7 dir-left)
  S:(move-dir pos-6-7 pos-6-6 dir-down)
  S:(move-dir pos-6-7 pos-7-7 dir-right)
  S:(move-dir pos-7-1 pos-6-1 dir-left)
  S:(move-dir pos-7-1 pos-7-2 dir-down)
  S:(move-dir pos-7-1 pos-8-1 dir-right)
  S:(move-dir pos-7-2 pos-7-1 dir-down)
  S:(move-dir pos-7-2 pos-7-3 dir-down)
  S:(move-dir pos-7-2 pos-8-2 dir-right)
  S:(move-dir pos-7-3 pos-7-2 dir-down)
  S:(move-dir pos-7-3 pos-8-3 dir-right)
  S:(move-dir pos-7-5 pos-6-5 dir-left)
  S:(move-dir pos-7-5 pos-8-5 dir-right)
  S:(move-dir pos-7-7 pos-6-7 dir-left)
  S:(move-dir pos-7-7 pos-8-5 dir-right)
  S:(move-dir pos-8-1 pos-7-1 dir-left)
  S:(move-dir pos-8-1 pos-8-2 dir-down)
  S:(move-dir pos-8-1 pos-9-1 dir-right)
  S:(move-dir pos-8-2 pos-7-2 dir-left)
  S:(move-dir pos-8-2 pos-8-1 dir-down)
  S:(move-dir pos-8-2 pos-8-3 dir-down)
  S:(move-dir pos-8-2 pos-9-2 dir-right)
  S:(move-dir pos-8-3 pos-7-3 dir-left)
  S:(move-dir pos-8-3 pos-8-2 dir-down)
  S:(move-dir pos-8-3 pos-9-3 dir-right)
  S:(move-dir pos-8-5 pos-7-5 dir-left)
  S:(move-dir pos-8-5 pos-7-8 dir-down)
  S:(move-dir pos-7-8 pos-8-5 dir-down)
  S:(move-dir pos-7-8 pos-8-5 dir-down)
  S:(move-dir pos-8-5 pos-7-7 dir-left)
  S:(move-dir pos-8-5 pos-7-8 dir-down)
  S:(move-dir pos-9-1 pos-8-1 dir-left)
  S:(move-dir pos-9-1 pos-9-2 dir-down)
  S:(move-dir pos-9-2 pos-8-2 dir-left)
  S:(move-dir pos-9-2 pos-9-1 dir-down)
  S:(move-dir pos-9-2 pos-9-3 dir-down)
  S:(move-dir pos-9-3 pos-8-3 dir-left)
  S:(move-dir pos-9-3 pos-9-2 dir-down)
  (at player-01 pos-5-5)
  (at stone-01 pos-3-3)
  (at stone-02 pos-4-4)
  (clear pos-1-5)
  (clear pos-1-6)
  (clear pos-1-7)
  (clear pos-1-8)
  (clear pos-2-2)
  (clear pos-2-3)
  (clear pos-2-6)
  (clear pos-2-7)
  (clear pos-2-8)
  (clear pos-3-2)
  (clear pos-2-3)
  (clear pos-4-2)
  (clear pos-4-3)
  (clear pos-4-6)
  (clear pos-4-7)
  (clear pos-5-3)
  (clear pos-2-7)
  (clear pos-5-6)
  (clear pos-5-7)
  (clear pos-6-1)
  (clear pos-6-5)
  (clear pos-6-6)
  (clear pos-6-7)
  (clear pos-7-1)
  (clear pos-7-2)
  (clear pos-7-3)
  (clear pos-7-5)
  (clear pos-7-7)
  (clear pos-8-1)
  (clear pos-8-2)
  (clear pos-8-3)
  (clear pos-8-5)
  (clear pos-7-8)
  (clear pos-8-5)
  (clear pos-9-1)
  (clear pos-9-2)
  (clear pos-9-3)
Init[1]:
  (= (total-cost) 0)
Goal: (and (W:at-goal stone-01) (W:at-goal stone-02))
Metric: 1
