Reduced 22 -> 12
Domain: elevators-sequencedstrips
Problem: elevators-sequencedstrips-p12_4_2
Require: 200ff
Type[6]:
    [0]: object, parent: -1
    [1]: elevator, parent: 0
    [2]: slow-elevator, parent: 1
    [3]: fast-elevator, parent: 1
    [4]: passenger, parent: 0
    [5]: count, parent: 0
Obj-by-Type:
    [0]: 0 1 2 3 4 5 6 7 8 9 10 11
    [1]: 7 8 9 10 11
    [2]: 9 10 11
    [3]: 7 8
    [4]: 3 4 5 6
    [5]: 0 1 2
Obj[12]:
    [0]: n0, type: 5, is-constant: 0, is-private: 0, owner: -1, is-agent: 0
    [1]: n2, type: 5, is-constant: 0, is-private: 0, owner: -1, is-agent: 0
    [2]: n5, type: 5, is-constant: 0, is-private: 0, owner: -1, is-agent: 0
    [3]: p0, type: 4, is-constant: 0, is-private: 0, owner: -1, is-agent: 0
    [4]: p1, type: 4, is-constant: 0, is-private: 0, owner: -1, is-agent: 0
    [5]: p2, type: 4, is-constant: 0, is-private: 0, owner: -1, is-agent: 0
    [6]: p3, type: 4, is-constant: 0, is-private: 0, owner: -1, is-agent: 0
    [7]: fast0, type: 3, is-constant: 0, is-private: 0, owner: -1, is-agent: 0
    [8]: fast1, type: 3, is-constant: 0, is-private: 0, owner: -1, is-agent: 0
    [9]: slow0-0, type: 2, is-constant: 0, is-private: 0, owner: -1, is-agent: 0
    [10]: slow1-0, type: 2, is-constant: 0, is-private: 0, owner: -1, is-agent: 0
    [11]: slow2-0, type: 2, is-constant: 0, is-private: 0, owner: -1, is-agent: 0
Predicate[9]:
    =: 0 0 :: is-private: 0, owner-param: -1, read: 0, write: 0
    passenger-at: 4 5 :: is-private: 0, owner-param: -1, read: 1, write: 1
    boarded: 4 1 :: is-private: 0, owner-param: -1, read: 1, write: 1
    lift-at: 1 5 :: is-private: 0, owner-param: -1, read: 1, write: 1
    reachable-floor: 1 5 :: is-private: 0, owner-param: -1, read: 1, write: 0
    above: 5 5 :: is-private: 0, owner-param: -1, read: 1, write: 0
    passengers: 1 5 :: is-private: 0, owner-param: -1, read: 1, write: 1
    can-hold: 1 5 :: is-private: 0, owner-param: -1, read: 1, write: 0
    next: 5 5 :: is-private: 0, owner-param: -1, read: 1, write: 0
Function[3]:
    total-cost: :: is-private: 0, owner-param: -1, read: 0, write: 0
    travel-slow: 5 5 :: is-private: 0, owner-param: -1, read: 0, write: 0
    travel-fast: 5 5 :: is-private: 0, owner-param: -1, read: 0, write: 0
Action[6]:
    move-up-slow: ?lift:2 ?f1:5 ?f2:5
        pre: (and (RW:lift-at ?lift ?f1) (R:above ?f1 ?f2) (R:reachable-floor ?lift ?f2))
        eff: (and (RW:lift-at ?lift ?f2) (increase (total-cost) (travel-slow ?f1 ?f2)))
    move-down-slow: ?lift:2 ?f1:5 ?f2:5
        pre: (and (RW:lift-at ?lift ?f1) (R:above ?f2 ?f1) (R:reachable-floor ?lift ?f2))
        eff: (and (RW:lift-at ?lift ?f2) (increase (total-cost) (travel-slow ?f2 ?f1)))
    move-up-fast: ?lift:3 ?f1:5 ?f2:5
        pre: (and (RW:lift-at ?lift ?f1) (R:above ?f1 ?f2) (R:reachable-floor ?lift ?f2))
        eff: (and (RW:lift-at ?lift ?f2) (increase (total-cost) (travel-fast ?f1 ?f2)))
    move-down-fast: ?lift:3 ?f1:5 ?f2:5
        pre: (and (RW:lift-at ?lift ?f1) (R:above ?f2 ?f1) (R:reachable-floor ?lift ?f2))
        eff: (and (RW:lift-at ?lift ?f2) (increase (total-cost) (travel-fast ?f2 ?f1)))
    board: ?p:4 ?lift:1 ?f:5 ?n1:5 ?n2:5
        pre: (and (RW:lift-at ?lift ?f) (RW:passenger-at ?p ?f) (RW:passengers ?lift ?n1) (R:next ?n1 ?n2) (R:can-hold ?lift ?n2))
        eff: (and (RW:boarded ?p ?lift) (RW:passengers ?lift ?n2))
    leave: ?p:4 ?lift:1 ?f:5 ?n1:5 ?n2:5
        pre: (and (RW:lift-at ?lift ?f) (RW:boarded ?p ?lift) (RW:passengers ?lift ?n1) (R:next ?n2 ?n1))
        eff: (and (RW:passenger-at ?p ?f) (N:RW:boarded ?p ?lift) (RW:passengers ?lift ?n2))
Init[145]:
  S:(next n0 n0)
  S:(next n0 n2)
  S:(next n2 n0)
  S:(next n0 n0)
  S:(next n0 n5)
  S:(next n5 n0)
  S:(next n0 n5)
  S:(next n5 n5)
  S:(next n5 n5)
  S:(next n5 n5)
  S:(next n5 n5)
  S:(next n5 n5)
  S:(above n0 n0)
  S:(above n0 n2)
  S:(above n0 n0)
  S:(above n0 n0)
  S:(above n0 n5)
  S:(above n0 n0)
  S:(above n0 n5)
  S:(above n0 n5)
  S:(above n0 n5)
  S:(above n0 n5)
  S:(above n0 n5)
  S:(above n0 n5)
  S:(above n0 n2)
  S:(above n0 n0)
  S:(above n0 n0)
  S:(above n0 n5)
  S:(above n0 n0)
  S:(above n0 n5)
  S:(above n0 n5)
  S:(above n0 n5)
  S:(above n0 n5)
  S:(above n0 n5)
  S:(above n0 n5)
  S:(above n2 n0)
  S:(above n2 n0)
  S:(above n2 n5)
  S:(above n2 n0)
  S:(above n2 n5)
  S:(above n2 n5)
  S:(above n2 n5)
  S:(above n2 n5)
  S:(above n2 n5)
  S:(above n2 n5)
  S:(above n0 n0)
  S:(above n0 n5)
  S:(above n0 n0)
  S:(above n0 n5)
  S:(above n0 n5)
  S:(above n0 n5)
  S:(above n0 n5)
  S:(above n0 n5)
  S:(above n0 n5)
  S:(above n0 n5)
  S:(above n0 n0)
  S:(above n0 n5)
  S:(above n0 n5)
  S:(above n0 n5)
  S:(above n0 n5)
  S:(above n0 n5)
  S:(above n0 n5)
  S:(above n5 n0)
  S:(above n5 n5)
  S:(above n5 n5)
  S:(above n5 n5)
  S:(above n5 n5)
  S:(above n5 n5)
  S:(above n5 n5)
  S:(above n0 n5)
  S:(above n0 n5)
  S:(above n0 n5)
  S:(above n0 n5)
  S:(above n0 n5)
  S:(above n0 n5)
  S:(above n5 n5)
  S:(above n5 n5)
  S:(above n5 n5)
  S:(above n5 n5)
  S:(above n5 n5)
  S:(above n5 n5)
  S:(above n5 n5)
  S:(above n5 n5)
  S:(above n5 n5)
  S:(above n5 n5)
  S:(above n5 n5)
  S:(above n5 n5)
  S:(above n5 n5)
  S:(above n5 n5)
  S:(above n5 n5)
  (lift-at fast0 n5)
  (passengers fast0 n0)
  S:(can-hold fast0 n0)
  S:(can-hold fast0 n2)
  S:(can-hold fast0 n0)
  S:(reachable-floor fast0 n0)
  S:(reachable-floor fast0 n2)
  S:(reachable-floor fast0 n0)
  S:(reachable-floor fast0 n0)
  S:(reachable-floor fast0 n5)
  S:(reachable-floor fast0 n5)
  S:(reachable-floor fast0 n5)
  (lift-at fast1 n2)
  (passengers fast1 n0)
  S:(can-hold fast1 n0)
  S:(can-hold fast1 n2)
  S:(can-hold fast1 n0)
  S:(reachable-floor fast1 n0)
  S:(reachable-floor fast1 n2)
  S:(reachable-floor fast1 n0)
  S:(reachable-floor fast1 n0)
  S:(reachable-floor fast1 n5)
  S:(reachable-floor fast1 n5)
  S:(reachable-floor fast1 n5)
  (lift-at slow0-0 n0)
  (passengers slow0-0 n0)
  S:(can-hold slow0-0 n0)
  S:(can-hold slow0-0 n2)
  S:(reachable-floor slow0-0 n0)
  S:(reachable-floor slow0-0 n0)
  S:(reachable-floor slow0-0 n2)
  S:(reachable-floor slow0-0 n0)
  S:(reachable-floor slow0-0 n0)
  (lift-at slow1-0 n0)
  (passengers slow1-0 n0)
  S:(can-hold slow1-0 n0)
  S:(can-hold slow1-0 n2)
  S:(reachable-floor slow1-0 n0)
  S:(reachable-floor slow1-0 n5)
  S:(reachable-floor slow1-0 n0)
  S:(reachable-floor slow1-0 n5)
  S:(reachable-floor slow1-0 n5)
  (lift-at slow2-0 n5)
  (passengers slow2-0 n0)
  S:(can-hold slow2-0 n0)
  S:(can-hold slow2-0 n2)
  S:(reachable-floor slow2-0 n5)
  S:(reachable-floor slow2-0 n5)
  S:(reachable-floor slow2-0 n5)
  S:(reachable-floor slow2-0 n5)
  S:(reachable-floor slow2-0 n5)
  (passenger-at p0 n2)
  (passenger-at p1 n0)
  (passenger-at p2 n5)
  (passenger-at p3 n5)
Init[52]:
  (= (travel-slow n0 n0) 6)
  (= (travel-slow n0 n2) 7)
  (= (travel-slow n0 n0) 8)
  (= (travel-slow n0 n0) 9)
  (= (travel-slow n0 n2) 6)
  (= (travel-slow n0 n0) 7)
  (= (travel-slow n0 n0) 8)
  (= (travel-slow n2 n0) 6)
  (= (travel-slow n2 n0) 7)
  (= (travel-slow n0 n0) 6)
  (= (travel-slow n0 n5) 6)
  (= (travel-slow n0 n0) 7)
  (= (travel-slow n0 n5) 8)
  (= (travel-slow n0 n5) 9)
  (= (travel-slow n5 n0) 6)
  (= (travel-slow n5 n5) 7)
  (= (travel-slow n5 n5) 8)
  (= (travel-slow n0 n5) 6)
  (= (travel-slow n0 n5) 7)
  (= (travel-slow n5 n5) 6)
  (= (travel-slow n5 n5) 6)
  (= (travel-slow n5 n5) 7)
  (= (travel-slow n5 n5) 8)
  (= (travel-slow n5 n5) 9)
  (= (travel-slow n5 n5) 6)
  (= (travel-slow n5 n5) 7)
  (= (travel-slow n5 n5) 8)
  (= (travel-slow n5 n5) 6)
  (= (travel-slow n5 n5) 7)
  (= (travel-slow n5 n5) 6)
  (= (travel-fast n0 n2) 7)
  (= (travel-fast n0 n0) 13)
  (= (travel-fast n0 n0) 19)
  (= (travel-fast n0 n5) 25)
  (= (travel-fast n0 n5) 31)
  (= (travel-fast n0 n5) 37)
  (= (travel-fast n2 n0) 7)
  (= (travel-fast n2 n0) 13)
  (= (travel-fast n2 n5) 19)
  (= (travel-fast n2 n5) 25)
  (= (travel-fast n2 n5) 31)
  (= (travel-fast n0 n0) 7)
  (= (travel-fast n0 n5) 13)
  (= (travel-fast n0 n5) 19)
  (= (travel-fast n0 n5) 25)
  (= (travel-fast n0 n5) 7)
  (= (travel-fast n0 n5) 13)
  (= (travel-fast n0 n5) 19)
  (= (travel-fast n5 n5) 7)
  (= (travel-fast n5 n5) 13)
  (= (travel-fast n5 n5) 7)
  (= (total-cost) 0)
Goal: (and (RW:passenger-at p0 n5) (RW:passenger-at p1 n5) (RW:passenger-at p2 n5) (RW:passenger-at p3 n0))
Metric: 1
