Goal:
   (object-done object0) (object-done object1) (object-done object2) (object-done object3)
   + (gripper-empty pr2) (object-pos object2 x4 y5)
(base-down pr2 x0 y2 y3)
   (NOT-base-obstacle x0 y3) (NOT-parked pr2) (base-pos pr2 x0 y2) (not-pushing pr2)
   + (gripper-rel pr2 xrel0 yrel0) (not-pushed cart)
(base-down pr2 x0 y3 y4)
   (NOT-base-obstacle x0 y4) (NOT-parked pr2) (base-pos pr2 x0 y3) (not-pushing pr2)
   + (gripper-rel pr2 xrel0 yrel0) (not-pushed cart)
(base-down pr2 x0 y4 y5)
   (NOT-base-obstacle x0 y5) (NOT-parked pr2) (base-pos pr2 x0 y4) (not-pushing pr2)
   + (gripper-rel pr2 xrel0 yrel0) (not-pushed cart)
(base-down pr2 x0 y5 y6)
   (NOT-base-obstacle x0 y6) (NOT-parked pr2) (base-pos pr2 x0 y5) (not-pushing pr2)
   + (gripper-rel pr2 xrel0 yrel0) (not-pushed cart)
(base-down pr2 x0 y6 y7)
   (NOT-base-obstacle x0 y7) (NOT-parked pr2) (base-pos pr2 x0 y6) (not-pushing pr2)
   + (gripper-rel pr2 xrel0 yrel0) (not-pushed cart)
(base-down pr2 x0 y7 y8)
   (NOT-base-obstacle x0 y8) (NOT-parked pr2) (base-pos pr2 x0 y7) (not-pushing pr2)
   + (gripper-rel pr2 xrel0 yrel0) (not-pushed cart)
(base-down pr2 x0 y8 y9)
   (NOT-base-obstacle x0 y9) (NOT-parked pr2) (base-pos pr2 x0 y8) (not-pushing pr2)
   + (gripper-rel pr2 xrel0 yrel0) (not-pushed cart)
(base-down pr2 x1 y3 y4)
   (NOT-base-obstacle x1 y4) (NOT-parked pr2) (base-pos pr2 x1 y3) (not-pushing pr2)
   + (gripper-rel pr2 xrel0 yrel0) (not-pushed cart)
(base-down pr2 x1 y4 y5)
   (NOT-base-obstacle x1 y5) (NOT-parked pr2) (base-pos pr2 x1 y4) (not-pushing pr2)
   + (gripper-rel pr2 xrel0 yrel0) (not-pushed cart)
(base-down pr2 x1 y5 y6)
   (NOT-base-obstacle x1 y6) (NOT-parked pr2) (base-pos pr2 x1 y5) (not-pushing pr2)
   + (gripper-rel pr2 xrel0 yrel0) (not-pushed cart)
(base-down pr2 x1 y6 y7)
   (NOT-base-obstacle x1 y7) (NOT-parked pr2) (base-pos pr2 x1 y6) (not-pushing pr2)
   + (gripper-rel pr2 xrel0 yrel0) (not-pushed cart)
(base-down pr2 x1 y7 y8)
   (NOT-base-obstacle x1 y8) (NOT-parked pr2) (base-pos pr2 x1 y7) (not-pushing pr2)
   + (gripper-rel pr2 xrel0 yrel0) (not-pushed cart)
(base-down pr2 x1 y8 y9)
   (NOT-base-obstacle x1 y9) (NOT-parked pr2) (base-pos pr2 x1 y8) (not-pushing pr2)
   + (gripper-rel pr2 xrel0 yrel0) (not-pushed cart)
(base-down pr2 x2 y0 y1)
   (NOT-base-obstacle x2 y1) (NOT-parked pr2) (base-pos pr2 x2 y0) (not-pushing pr2)
   + (gripper-rel pr2 xrel0 yrel0) (not-pushed cart)
(base-down pr2 x2 y1 y2)
   (NOT-base-obstacle x2 y2) (NOT-parked pr2) (base-pos pr2 x2 y1) (not-pushing pr2)
   + (gripper-rel pr2 xrel0 yrel0) (not-pushed cart)
(base-down pr2 x2 y2 y3)
   (NOT-base-obstacle x2 y3) (NOT-parked pr2) (base-pos pr2 x2 y2) (not-pushing pr2)
   + (gripper-rel pr2 xrel0 yrel0) (not-pushed cart)
(base-down pr2 x2 y8 y9)
   (NOT-base-obstacle x2 y9) (NOT-parked pr2) (base-pos pr2 x2 y8) (not-pushing pr2)
   + (gripper-rel pr2 xrel0 yrel0) (not-pushed cart)
(base-down pr2 x3 y0 y1)
   (NOT-base-obstacle x3 y1) (NOT-parked pr2) (base-pos pr2 x3 y0) (not-pushing pr2)
   + (gripper-rel pr2 xrel0 yrel0) (not-pushed cart)
(base-down pr2 x3 y1 y2)
   (NOT-base-obstacle x3 y2) (NOT-parked pr2) (base-pos pr2 x3 y1) (not-pushing pr2)
   + (gripper-rel pr2 xrel0 yrel0) (not-pushed cart)
(base-down pr2 x3 y2 y3)
   (NOT-base-obstacle x3 y3) (NOT-parked pr2) (base-pos pr2 x3 y2) (not-pushing pr2)
   + (gripper-rel pr2 xrel0 yrel0) (not-pushed cart)
(base-down pr2 x3 y5 y6)
   (NOT-base-obstacle x3 y6) (NOT-parked pr2) (base-pos pr2 x3 y5) (not-pushing pr2)
   + (gripper-rel pr2 xrel0 yrel0) (not-pushed cart)
(base-down pr2 x3 y8 y9)
   (NOT-base-obstacle x3 y9) (NOT-parked pr2) (base-pos pr2 x3 y8) (not-pushing pr2)
   + (gripper-rel pr2 xrel0 yrel0) (not-pushed cart)
(base-down pr2 x4 y5 y6)
   (NOT-base-obstacle x4 y6) (NOT-parked pr2) (base-pos pr2 x4 y5) (not-pushing pr2)
   + (gripper-rel pr2 xrel0 yrel0) (not-pushed cart)
(base-down pr2 x4 y8 y9)
   (NOT-base-obstacle x4 y9) (NOT-parked pr2) (base-pos pr2 x4 y8) (not-pushing pr2)
   + (gripper-rel pr2 xrel0 yrel0) (not-pushed cart)
(base-down pr2 x5 y5 y6)
   (NOT-base-obstacle x5 y6) (NOT-parked pr2) (base-pos pr2 x5 y5) (not-pushing pr2)
   + (gripper-rel pr2 xrel0 yrel0) (not-pushed cart)
(base-down pr2 x5 y8 y9)
   (NOT-base-obstacle x5 y9) (NOT-parked pr2) (base-pos pr2 x5 y8) (not-pushing pr2)
   + (gripper-rel pr2 xrel0 yrel0) (not-pushed cart)
(base-down pr2 x6 y0 y1)
   (NOT-base-obstacle x6 y1) (NOT-parked pr2) (base-pos pr2 x6 y0) (not-pushing pr2)
   + (gripper-rel pr2 xrel0 yrel0) (not-pushed cart)
(base-down pr2 x6 y1 y2)
   (NOT-base-obstacle x6 y2) (NOT-parked pr2) (base-pos pr2 x6 y1) (not-pushing pr2)
   + (gripper-rel pr2 xrel0 yrel0) (not-pushed cart)
(base-down pr2 x6 y2 y3)
   (NOT-base-obstacle x6 y3) (NOT-parked pr2) (base-pos pr2 x6 y2) (not-pushing pr2)
   + (gripper-rel pr2 xrel0 yrel0) (not-pushed cart)
(base-down pr2 x6 y3 y4)
   (NOT-base-obstacle x6 y4) (NOT-parked pr2) (base-pos pr2 x6 y3) (not-pushing pr2)
   + (gripper-rel pr2 xrel0 yrel0) (not-pushed cart)
(base-down pr2 x6 y4 y5)
   (NOT-base-obstacle x6 y5) (NOT-parked pr2) (base-pos pr2 x6 y4) (not-pushing pr2)
   + (gripper-rel pr2 xrel0 yrel0) (not-pushed cart)
(base-down pr2 x6 y5 y6)
   (NOT-base-obstacle x6 y6) (NOT-parked pr2) (base-pos pr2 x6 y5) (not-pushing pr2)
   + (gripper-rel pr2 xrel0 yrel0) (not-pushed cart)
(base-down pr2 x6 y6 y7)
   (NOT-base-obstacle x6 y7) (NOT-parked pr2) (base-pos pr2 x6 y6) (not-pushing pr2)
   + (gripper-rel pr2 xrel0 yrel0) (not-pushed cart)
(base-down pr2 x6 y7 y8)
   (NOT-base-obstacle x6 y8) (NOT-parked pr2) (base-pos pr2 x6 y7) (not-pushing pr2)
   + (gripper-rel pr2 xrel0 yrel0) (not-pushed cart)
(base-down pr2 x6 y8 y9)
   (NOT-base-obstacle x6 y9) (NOT-parked pr2) (base-pos pr2 x6 y8) (not-pushing pr2)
   + (gripper-rel pr2 xrel0 yrel0) (not-pushed cart)
(base-down pr2 x7 y0 y1)
   (NOT-base-obstacle x7 y1) (NOT-parked pr2) (base-pos pr2 x7 y0) (not-pushing pr2)
   + (gripper-rel pr2 xrel0 yrel0) (not-pushed cart)
(base-down pr2 x7 y1 y2)
   (NOT-base-obstacle x7 y2) (NOT-parked pr2) (base-pos pr2 x7 y1) (not-pushing pr2)
   + (gripper-rel pr2 xrel0 yrel0) (not-pushed cart)
(base-down pr2 x7 y7 y8)
   (NOT-base-obstacle x7 y8) (NOT-parked pr2) (base-pos pr2 x7 y7) (not-pushing pr2)
   + (gripper-rel pr2 xrel0 yrel0) (not-pushed cart)
(base-down pr2 x7 y8 y9)
   (NOT-base-obstacle x7 y9) (NOT-parked pr2) (base-pos pr2 x7 y8) (not-pushing pr2)
   + (gripper-rel pr2 xrel0 yrel0) (not-pushed cart)
(base-down pr2 x8 y0 y1)
   (NOT-base-obstacle x8 y1) (NOT-parked pr2) (base-pos pr2 x8 y0) (not-pushing pr2)
   + (gripper-rel pr2 xrel0 yrel0) (not-pushed cart)
(base-down pr2 x8 y1 y2)
   (NOT-base-obstacle x8 y2) (NOT-parked pr2) (base-pos pr2 x8 y1) (not-pushing pr2)
   + (gripper-rel pr2 xrel0 yrel0) (not-pushed cart)
(base-down pr2 x8 y2 y3)
   (NOT-base-obstacle x8 y3) (NOT-parked pr2) (base-pos pr2 x8 y2) (not-pushing pr2)
   + (gripper-rel pr2 xrel0 yrel0) (not-pushed cart)
(base-down pr2 x8 y3 y4)
   (NOT-base-obstacle x8 y4) (NOT-parked pr2) (base-pos pr2 x8 y3) (not-pushing pr2)
   + (gripper-rel pr2 xrel0 yrel0) (not-pushed cart)
(base-down pr2 x8 y4 y5)
   (NOT-base-obstacle x8 y5) (NOT-parked pr2) (base-pos pr2 x8 y4) (not-pushing pr2)
   + (gripper-rel pr2 xrel0 yrel0) (not-pushed cart)
(base-down pr2 x8 y5 y6)
   (NOT-base-obstacle x8 y6) (NOT-parked pr2) (base-pos pr2 x8 y5) (not-pushing pr2)
   + (gripper-rel pr2 xrel0 yrel0) (not-pushed cart)
(base-down pr2 x8 y6 y7)
   (NOT-base-obstacle x8 y7) (NOT-parked pr2) (base-pos pr2 x8 y6) (not-pushing pr2)
   + (gripper-rel pr2 xrel0 yrel0) (not-pushed cart)
(base-down pr2 x8 y7 y8)
   (NOT-base-obstacle x8 y8) (NOT-parked pr2) (base-pos pr2 x8 y7) (not-pushing pr2)
   + (gripper-rel pr2 xrel0 yrel0) (not-pushed cart)
(base-down pr2 x8 y8 y9)
   (NOT-base-obstacle x8 y9) (NOT-parked pr2) (base-pos pr2 x8 y8) (not-pushing pr2)
   + (gripper-rel pr2 xrel0 yrel0) (not-pushed cart)
(base-down pr2 x9 y0 y1)
   (NOT-base-obstacle x9 y1) (NOT-parked pr2) (base-pos pr2 x9 y0) (not-pushing pr2)
   + (gripper-rel pr2 xrel0 yrel0) (not-pushed cart)
(base-down pr2 x9 y1 y2)
   (NOT-base-obstacle x9 y2) (NOT-parked pr2) (base-pos pr2 x9 y1) (not-pushing pr2)
   + (gripper-rel pr2 xrel0 yrel0) (not-pushed cart)
(base-down pr2 x9 y2 y3)
   (NOT-base-obstacle x9 y3) (NOT-parked pr2) (base-pos pr2 x9 y2) (not-pushing pr2)
   + (gripper-rel pr2 xrel0 yrel0) (not-pushed cart)
(base-down pr2 x9 y3 y4)
   (NOT-base-obstacle x9 y4) (NOT-parked pr2) (base-pos pr2 x9 y3) (not-pushing pr2)
   + (gripper-rel pr2 xrel0 yrel0) (not-pushed cart)
(base-down pr2 x9 y4 y5)
   (NOT-base-obstacle x9 y5) (NOT-parked pr2) (base-pos pr2 x9 y4) (not-pushing pr2)
   + (gripper-rel pr2 xrel0 yrel0) (not-pushed cart)
(base-down pr2 x9 y5 y6)
   (NOT-base-obstacle x9 y6) (NOT-parked pr2) (base-pos pr2 x9 y5) (not-pushing pr2)
   + (gripper-rel pr2 xrel0 yrel0) (not-pushed cart)
(base-down pr2 x9 y6 y7)
   (NOT-base-obstacle x9 y7) (NOT-parked pr2) (base-pos pr2 x9 y6) (not-pushing pr2)
   + (gripper-rel pr2 xrel0 yrel0) (not-pushed cart)
(base-down pr2 x9 y7 y8)
   (NOT-base-obstacle x9 y8) (NOT-parked pr2) (base-pos pr2 x9 y7) (not-pushing pr2)
   + (gripper-rel pr2 xrel0 yrel0) (not-pushed cart)
(base-down pr2 x9 y8 y9)
   (NOT-base-obstacle x9 y9) (NOT-parked pr2) (base-pos pr2 x9 y8) (not-pushing pr2)
   + (gripper-rel pr2 xrel0 yrel0) (not-pushed cart)
(base-left pr2 x1 x0 y0)
   (NOT-base-obstacle x0 y0) (NOT-parked pr2) (base-pos pr2 x1 y0) (not-pushing pr2)
   + (gripper-rel pr2 xrel0 yrel0) (not-pushed cart)
(base-left pr2 x1 x0 y3)
   (NOT-base-obstacle x0 y3) (NOT-parked pr2) (base-pos pr2 x1 y3) (not-pushing pr2)
   + (gripper-rel pr2 xrel0 yrel0) (not-pushed cart)
(base-left pr2 x1 x0 y4)
   (NOT-base-obstacle x0 y4) (NOT-parked pr2) (base-pos pr2 x1 y4) (not-pushing pr2)
   + (gripper-rel pr2 xrel0 yrel0) (not-pushed cart)
(base-left pr2 x1 x0 y5)
   (NOT-base-obstacle x0 y5) (NOT-parked pr2) (base-pos pr2 x1 y5) (not-pushing pr2)
   + (gripper-rel pr2 xrel0 yrel0) (not-pushed cart)
(base-left pr2 x1 x0 y6)
   (NOT-base-obstacle x0 y6) (NOT-parked pr2) (base-pos pr2 x1 y6) (not-pushing pr2)
   + (gripper-rel pr2 xrel0 yrel0) (not-pushed cart)
(base-left pr2 x1 x0 y7)
   (NOT-base-obstacle x0 y7) (NOT-parked pr2) (base-pos pr2 x1 y7) (not-pushing pr2)
   + (gripper-rel pr2 xrel0 yrel0) (not-pushed cart)
(base-left pr2 x1 x0 y8)
   (NOT-base-obstacle x0 y8) (NOT-parked pr2) (base-pos pr2 x1 y8) (not-pushing pr2)
   + (gripper-rel pr2 xrel0 yrel0) (not-pushed cart)
(base-left pr2 x1 x0 y9)
   (NOT-base-obstacle x0 y9) (NOT-parked pr2) (base-pos pr2 x1 y9) (not-pushing pr2)
   + (gripper-rel pr2 xrel0 yrel0) (not-pushed cart)
(base-left pr2 x2 x1 y0)
   (NOT-base-obstacle x1 y0) (NOT-parked pr2) (base-pos pr2 x2 y0) (not-pushing pr2)
   + (gripper-rel pr2 xrel0 yrel0) (not-pushed cart)
(base-left pr2 x2 x1 y3)
   (NOT-base-obstacle x1 y3) (NOT-parked pr2) (base-pos pr2 x2 y3) (not-pushing pr2)
   + (gripper-rel pr2 xrel0 yrel0) (not-pushed cart)
(base-left pr2 x2 x1 y8)
   (NOT-base-obstacle x1 y8) (NOT-parked pr2) (base-pos pr2 x2 y8) (not-pushing pr2)
   + (gripper-rel pr2 xrel0 yrel0) (not-pushed cart)
(base-left pr2 x2 x1 y9)
   (NOT-base-obstacle x1 y9) (NOT-parked pr2) (base-pos pr2 x2 y9) (not-pushing pr2)
   + (gripper-rel pr2 xrel0 yrel0) (not-pushed cart)
(base-left pr2 x3 x2 y0)
   (NOT-base-obstacle x2 y0) (NOT-parked pr2) (base-pos pr2 x3 y0) (not-pushing pr2)
   + (gripper-rel pr2 xrel0 yrel0) (not-pushed cart)
(base-left pr2 x3 x2 y1)
   (NOT-base-obstacle x2 y1) (NOT-parked pr2) (base-pos pr2 x3 y1) (not-pushing pr2)
   + (gripper-rel pr2 xrel0 yrel0) (not-pushed cart)
(base-left pr2 x3 x2 y2)
   (NOT-base-obstacle x2 y2) (NOT-parked pr2) (base-pos pr2 x3 y2) (not-pushing pr2)
   + (gripper-rel pr2 xrel0 yrel0) (not-pushed cart)
(base-left pr2 x3 x2 y3)
   (NOT-base-obstacle x2 y3) (NOT-parked pr2) (base-pos pr2 x3 y3) (not-pushing pr2)
   + (gripper-rel pr2 xrel0 yrel0) (not-pushed cart)
(base-left pr2 x3 x2 y8)
   (NOT-base-obstacle x2 y8) (NOT-parked pr2) (base-pos pr2 x3 y8) (not-pushing pr2)
   + (gripper-rel pr2 xrel0 yrel0) (not-pushed cart)
(base-left pr2 x3 x2 y9)
   (NOT-base-obstacle x2 y9) (NOT-parked pr2) (base-pos pr2 x3 y9) (not-pushing pr2)
   + (gripper-rel pr2 xrel0 yrel0) (not-pushed cart)
(base-left pr2 x4 x3 y0)
   (NOT-base-obstacle x3 y0) (NOT-parked pr2) (base-pos pr2 x4 y0) (not-pushing pr2)
   + (gripper-rel pr2 xrel0 yrel0) (not-pushed cart)
(base-left pr2 x4 x3 y3)
   (NOT-base-obstacle x3 y3) (NOT-parked pr2) (base-pos pr2 x4 y3) (not-pushing pr2)
   + (gripper-rel pr2 xrel0 yrel0) (not-pushed cart)
(base-left pr2 x4 x3 y5)
   (NOT-base-obstacle x3 y5) (NOT-parked pr2) (base-pos pr2 x4 y5) (not-pushing pr2)
   + (gripper-rel pr2 xrel0 yrel0) (not-pushed cart)
(base-left pr2 x4 x3 y6)
   (NOT-base-obstacle x3 y6) (NOT-parked pr2) (base-pos pr2 x4 y6) (not-pushing pr2)
   + (gripper-rel pr2 xrel0 yrel0) (not-pushed cart)
(base-left pr2 x4 x3 y8)
   (NOT-base-obstacle x3 y8) (NOT-parked pr2) (base-pos pr2 x4 y8) (not-pushing pr2)
   + (gripper-rel pr2 xrel0 yrel0) (not-pushed cart)
(base-left pr2 x4 x3 y9)
   (NOT-base-obstacle x3 y9) (NOT-parked pr2) (base-pos pr2 x4 y9) (not-pushing pr2)
   + (gripper-rel pr2 xrel0 yrel0) (not-pushed cart)
(base-left pr2 x5 x4 y0)
   (NOT-base-obstacle x4 y0) (NOT-parked pr2) (base-pos pr2 x5 y0) (not-pushing pr2)
   + (gripper-rel pr2 xrel0 yrel0) (not-pushed cart)
(base-left pr2 x5 x4 y3)
   (NOT-base-obstacle x4 y3) (NOT-parked pr2) (base-pos pr2 x5 y3) (not-pushing pr2)
   + (gripper-rel pr2 xrel0 yrel0) (not-pushed cart)
(base-left pr2 x5 x4 y5)
   (NOT-base-obstacle x4 y5) (NOT-parked pr2) (base-pos pr2 x5 y5) (not-pushing pr2)
   + (gripper-rel pr2 xrel0 yrel0) (not-pushed cart)
(base-left pr2 x5 x4 y6)
   (NOT-base-obstacle x4 y6) (NOT-parked pr2) (base-pos pr2 x5 y6) (not-pushing pr2)
   + (gripper-rel pr2 xrel0 yrel0) (not-pushed cart)
(base-left pr2 x5 x4 y8)
   (NOT-base-obstacle x4 y8) (NOT-parked pr2) (base-pos pr2 x5 y8) (not-pushing pr2)
   + (gripper-rel pr2 xrel0 yrel0) (not-pushed cart)
(base-left pr2 x5 x4 y9)
   (NOT-base-obstacle x4 y9) (NOT-parked pr2) (base-pos pr2 x5 y9) (not-pushing pr2)
   + (gripper-rel pr2 xrel0 yrel0) (not-pushed cart)
(base-left pr2 x6 x5 y0)
   (NOT-base-obstacle x5 y0) (NOT-parked pr2) (base-pos pr2 x6 y0) (not-pushing pr2)
   + (gripper-rel pr2 xrel0 yrel0) (not-pushed cart)
(base-left pr2 x6 x5 y3)
   (NOT-base-obstacle x5 y3) (NOT-parked pr2) (base-pos pr2 x6 y3) (not-pushing pr2)
   + (gripper-rel pr2 xrel0 yrel0) (not-pushed cart)
(base-left pr2 x6 x5 y5)
   (NOT-base-obstacle x5 y5) (NOT-parked pr2) (base-pos pr2 x6 y5) (not-pushing pr2)
   + (gripper-rel pr2 xrel0 yrel0) (not-pushed cart)
(base-left pr2 x6 x5 y6)
   (NOT-base-obstacle x5 y6) (NOT-parked pr2) (base-pos pr2 x6 y6) (not-pushing pr2)
   + (gripper-rel pr2 xrel0 yrel0) (not-pushed cart)
(base-left pr2 x6 x5 y8)
   (NOT-base-obstacle x5 y8) (NOT-parked pr2) (base-pos pr2 x6 y8) (not-pushing pr2)
   + (gripper-rel pr2 xrel0 yrel0) (not-pushed cart)
(base-left pr2 x6 x5 y9)
   (NOT-base-obstacle x5 y9) (NOT-parked pr2) (base-pos pr2 x6 y9) (not-pushing pr2)
   + (gripper-rel pr2 xrel0 yrel0) (not-pushed cart)
(base-left pr2 x7 x6 y0)
   (NOT-base-obstacle x6 y0) (NOT-parked pr2) (base-pos pr2 x7 y0) (not-pushing pr2)
   + (gripper-rel pr2 xrel0 yrel0) (not-pushed cart)
(base-left pr2 x7 x6 y1)
   (NOT-base-obstacle x6 y1) (NOT-parked pr2) (base-pos pr2 x7 y1) (not-pushing pr2)
   + (gripper-rel pr2 xrel0 yrel0) (not-pushed cart)
(base-left pr2 x7 x6 y2)
   (NOT-base-obstacle x6 y2) (NOT-parked pr2) (base-pos pr2 x7 y2) (not-pushing pr2)
   + (gripper-rel pr2 xrel0 yrel0) (not-pushed cart)
(base-left pr2 x7 x6 y5)
   (NOT-base-obstacle x6 y5) (NOT-parked pr2) (base-pos pr2 x7 y5) (not-pushing pr2)
   + (gripper-rel pr2 xrel0 yrel0) (not-pushed cart)
(base-left pr2 x7 x6 y7)
   (NOT-base-obstacle x6 y7) (NOT-parked pr2) (base-pos pr2 x7 y7) (not-pushing pr2)
   + (gripper-rel pr2 xrel0 yrel0) (not-pushed cart)
(base-left pr2 x7 x6 y8)
   (NOT-base-obstacle x6 y8) (NOT-parked pr2) (base-pos pr2 x7 y8) (not-pushing pr2)
   + (gripper-rel pr2 xrel0 yrel0) (not-pushed cart)
(base-left pr2 x7 x6 y9)
   (NOT-base-obstacle x6 y9) (NOT-parked pr2) (base-pos pr2 x7 y9) (not-pushing pr2)
   + (gripper-rel pr2 xrel0 yrel0) (not-pushed cart)
(base-left pr2 x8 x7 y0)
   (NOT-base-obstacle x7 y0) (NOT-parked pr2) (base-pos pr2 x8 y0) (not-pushing pr2)
   + (gripper-rel pr2 xrel0 yrel0) (not-pushed cart)
(base-left pr2 x8 x7 y1)
   (NOT-base-obstacle x7 y1) (NOT-parked pr2) (base-pos pr2 x8 y1) (not-pushing pr2)
   + (gripper-rel pr2 xrel0 yrel0) (not-pushed cart)
(base-left pr2 x8 x7 y2)
   (NOT-base-obstacle x7 y2) (NOT-parked pr2) (base-pos pr2 x8 y2) (not-pushing pr2)
   + (gripper-rel pr2 xrel0 yrel0) (not-pushed cart)
(base-left pr2 x8 x7 y5)
   (NOT-base-obstacle x7 y5) (NOT-parked pr2) (base-pos pr2 x8 y5) (not-pushing pr2)
   + (gripper-rel pr2 xrel0 yrel0) (not-pushed cart)
(base-left pr2 x8 x7 y7)
   (NOT-base-obstacle x7 y7) (NOT-parked pr2) (base-pos pr2 x8 y7) (not-pushing pr2)
   + (gripper-rel pr2 xrel0 yrel0) (not-pushed cart)
(base-left pr2 x8 x7 y8)
   (NOT-base-obstacle x7 y8) (NOT-parked pr2) (base-pos pr2 x8 y8) (not-pushing pr2)
   + (gripper-rel pr2 xrel0 yrel0) (not-pushed cart)
(base-left pr2 x8 x7 y9)
   (NOT-base-obstacle x7 y9) (NOT-parked pr2) (base-pos pr2 x8 y9) (not-pushing pr2)
   + (gripper-rel pr2 xrel0 yrel0) (not-pushed cart)
(base-left pr2 x9 x8 y0)
   (NOT-base-obstacle x8 y0) (NOT-parked pr2) (base-pos pr2 x9 y0) (not-pushing pr2)
   + (gripper-rel pr2 xrel0 yrel0) (not-pushed cart)
(base-left pr2 x9 x8 y1)
   (NOT-base-obstacle x8 y1) (NOT-parked pr2) (base-pos pr2 x9 y1) (not-pushing pr2)
   + (gripper-rel pr2 xrel0 yrel0) (not-pushed cart)
(base-left pr2 x9 x8 y2)
   (NOT-base-obstacle x8 y2) (NOT-parked pr2) (base-pos pr2 x9 y2) (not-pushing pr2)
   + (gripper-rel pr2 xrel0 yrel0) (not-pushed cart)
(base-left pr2 x9 x8 y3)
   (NOT-base-obstacle x8 y3) (NOT-parked pr2) (base-pos pr2 x9 y3) (not-pushing pr2)
   + (gripper-rel pr2 xrel0 yrel0) (not-pushed cart)
(base-left pr2 x9 x8 y4)
   (NOT-base-obstacle x8 y4) (NOT-parked pr2) (base-pos pr2 x9 y4) (not-pushing pr2)
   + (gripper-rel pr2 xrel0 yrel0) (not-pushed cart)
(base-left pr2 x9 x8 y5)
   (NOT-base-obstacle x8 y5) (NOT-parked pr2) (base-pos pr2 x9 y5) (not-pushing pr2)
   + (gripper-rel pr2 xrel0 yrel0) (not-pushed cart)
(base-left pr2 x9 x8 y6)
   (NOT-base-obstacle x8 y6) (NOT-parked pr2) (base-pos pr2 x9 y6) (not-pushing pr2)
   + (gripper-rel pr2 xrel0 yrel0) (not-pushed cart)
(base-left pr2 x9 x8 y7)
   (NOT-base-obstacle x8 y7) (NOT-parked pr2) (base-pos pr2 x9 y7) (not-pushing pr2)
   + (gripper-rel pr2 xrel0 yrel0) (not-pushed cart)
(base-left pr2 x9 x8 y8)
   (NOT-base-obstacle x8 y8) (NOT-parked pr2) (base-pos pr2 x9 y8) (not-pushing pr2)
   + (gripper-rel pr2 xrel0 yrel0) (not-pushed cart)
(base-left pr2 x9 x8 y9)
   (NOT-base-obstacle x8 y9) (NOT-parked pr2) (base-pos pr2 x9 y9) (not-pushing pr2)
   + (gripper-rel pr2 xrel0 yrel0) (not-pushed cart)
(base-right pr2 x0 x1 y0)
   (NOT-base-obstacle x1 y0) (NOT-parked pr2) (base-pos pr2 x0 y0) (not-pushing pr2)
   + (gripper-rel pr2 xrel0 yrel0) (not-pushed cart)
(base-right pr2 x0 x1 y3)
   (NOT-base-obstacle x1 y3) (NOT-parked pr2) (base-pos pr2 x0 y3) (not-pushing pr2)
   + (gripper-rel pr2 xrel0 yrel0) (not-pushed cart)
(base-right pr2 x0 x1 y4)
   (NOT-base-obstacle x1 y4) (NOT-parked pr2) (base-pos pr2 x0 y4) (not-pushing pr2)
   + (gripper-rel pr2 xrel0 yrel0) (not-pushed cart)
(base-right pr2 x0 x1 y5)
   (NOT-base-obstacle x1 y5) (NOT-parked pr2) (base-pos pr2 x0 y5) (not-pushing pr2)
   + (gripper-rel pr2 xrel0 yrel0) (not-pushed cart)
(base-right pr2 x0 x1 y6)
   (NOT-base-obstacle x1 y6) (NOT-parked pr2) (base-pos pr2 x0 y6) (not-pushing pr2)
   + (gripper-rel pr2 xrel0 yrel0) (not-pushed cart)
(base-right pr2 x0 x1 y7)
   (NOT-base-obstacle x1 y7) (NOT-parked pr2) (base-pos pr2 x0 y7) (not-pushing pr2)
   + (gripper-rel pr2 xrel0 yrel0) (not-pushed cart)
(base-right pr2 x0 x1 y8)
   (NOT-base-obstacle x1 y8) (NOT-parked pr2) (base-pos pr2 x0 y8) (not-pushing pr2)
   + (gripper-rel pr2 xrel0 yrel0) (not-pushed cart)
(base-right pr2 x0 x1 y9)
   (NOT-base-obstacle x1 y9) (NOT-parked pr2) (base-pos pr2 x0 y9) (not-pushing pr2)
   + (gripper-rel pr2 xrel0 yrel0) (not-pushed cart)
(base-right pr2 x1 x2 y0)
   (NOT-base-obstacle x2 y0) (NOT-parked pr2) (base-pos pr2 x1 y0) (not-pushing pr2)
   + (gripper-rel pr2 xrel0 yrel0) (not-pushed cart)
(base-right pr2 x1 x2 y3)
   (NOT-base-obstacle x2 y3) (NOT-parked pr2) (base-pos pr2 x1 y3) (not-pushing pr2)
   + (gripper-rel pr2 xrel0 yrel0) (not-pushed cart)
(base-right pr2 x1 x2 y8)
   (NOT-base-obstacle x2 y8) (NOT-parked pr2) (base-pos pr2 x1 y8) (not-pushing pr2)
   + (gripper-rel pr2 xrel0 yrel0) (not-pushed cart)
(base-right pr2 x1 x2 y9)
   (NOT-base-obstacle x2 y9) (NOT-parked pr2) (base-pos pr2 x1 y9) (not-pushing pr2)
   + (gripper-rel pr2 xrel0 yrel0) (not-pushed cart)
(base-right pr2 x2 x3 y0)
   (NOT-base-obstacle x3 y0) (NOT-parked pr2) (base-pos pr2 x2 y0) (not-pushing pr2)
   + (gripper-rel pr2 xrel0 yrel0) (not-pushed cart)
(base-right pr2 x2 x3 y1)
   (NOT-base-obstacle x3 y1) (NOT-parked pr2) (base-pos pr2 x2 y1) (not-pushing pr2)
   + (gripper-rel pr2 xrel0 yrel0) (not-pushed cart)
(base-right pr2 x2 x3 y2)
   (NOT-base-obstacle x3 y2) (NOT-parked pr2) (base-pos pr2 x2 y2) (not-pushing pr2)
   + (gripper-rel pr2 xrel0 yrel0) (not-pushed cart)
(base-right pr2 x2 x3 y3)
   (NOT-base-obstacle x3 y3) (NOT-parked pr2) (base-pos pr2 x2 y3) (not-pushing pr2)
   + (gripper-rel pr2 xrel0 yrel0) (not-pushed cart)
(base-right pr2 x2 x3 y8)
   (NOT-base-obstacle x3 y8) (NOT-parked pr2) (base-pos pr2 x2 y8) (not-pushing pr2)
   + (gripper-rel pr2 xrel0 yrel0) (not-pushed cart)
(base-right pr2 x2 x3 y9)
   (NOT-base-obstacle x3 y9) (NOT-parked pr2) (base-pos pr2 x2 y9) (not-pushing pr2)
   + (gripper-rel pr2 xrel0 yrel0) (not-pushed cart)
(base-right pr2 x3 x4 y0)
   (NOT-base-obstacle x4 y0) (NOT-parked pr2) (base-pos pr2 x3 y0) (not-pushing pr2)
   + (gripper-rel pr2 xrel0 yrel0) (not-pushed cart)
(base-right pr2 x3 x4 y3)
   (NOT-base-obstacle x4 y3) (NOT-parked pr2) (base-pos pr2 x3 y3) (not-pushing pr2)
   + (gripper-rel pr2 xrel0 yrel0) (not-pushed cart)
(base-right pr2 x3 x4 y5)
   (NOT-base-obstacle x4 y5) (NOT-parked pr2) (base-pos pr2 x3 y5) (not-pushing pr2)
   + (gripper-rel pr2 xrel0 yrel0) (not-pushed cart)
(base-right pr2 x3 x4 y6)
   (NOT-base-obstacle x4 y6) (NOT-parked pr2) (base-pos pr2 x3 y6) (not-pushing pr2)
   + (gripper-rel pr2 xrel0 yrel0) (not-pushed cart)
(base-right pr2 x3 x4 y8)
   (NOT-base-obstacle x4 y8) (NOT-parked pr2) (base-pos pr2 x3 y8) (not-pushing pr2)
   + (gripper-rel pr2 xrel0 yrel0) (not-pushed cart)
(base-right pr2 x3 x4 y9)
   (NOT-base-obstacle x4 y9) (NOT-parked pr2) (base-pos pr2 x3 y9) (not-pushing pr2)
   + (gripper-rel pr2 xrel0 yrel0) (not-pushed cart)
(base-right pr2 x4 x5 y0)
   (NOT-base-obstacle x5 y0) (NOT-parked pr2) (base-pos pr2 x4 y0) (not-pushing pr2)
   + (gripper-rel pr2 xrel0 yrel0) (not-pushed cart)
(base-right pr2 x4 x5 y3)
   (NOT-base-obstacle x5 y3) (NOT-parked pr2) (base-pos pr2 x4 y3) (not-pushing pr2)
   + (gripper-rel pr2 xrel0 yrel0) (not-pushed cart)
(base-right pr2 x4 x5 y5)
   (NOT-base-obstacle x5 y5) (NOT-parked pr2) (base-pos pr2 x4 y5) (not-pushing pr2)
   + (gripper-rel pr2 xrel0 yrel0) (not-pushed cart)
(base-right pr2 x4 x5 y6)
   (NOT-base-obstacle x5 y6) (NOT-parked pr2) (base-pos pr2 x4 y6) (not-pushing pr2)
   + (gripper-rel pr2 xrel0 yrel0) (not-pushed cart)
(base-right pr2 x4 x5 y8)
   (NOT-base-obstacle x5 y8) (NOT-parked pr2) (base-pos pr2 x4 y8) (not-pushing pr2)
   + (gripper-rel pr2 xrel0 yrel0) (not-pushed cart)
(base-right pr2 x4 x5 y9)
   (NOT-base-obstacle x5 y9) (NOT-parked pr2) (base-pos pr2 x4 y9) (not-pushing pr2)
   + (gripper-rel pr2 xrel0 yrel0) (not-pushed cart)
(base-right pr2 x5 x6 y0)
   (NOT-base-obstacle x6 y0) (NOT-parked pr2) (base-pos pr2 x5 y0) (not-pushing pr2)
   + (gripper-rel pr2 xrel0 yrel0) (not-pushed cart)
(base-right pr2 x5 x6 y3)
   (NOT-base-obstacle x6 y3) (NOT-parked pr2) (base-pos pr2 x5 y3) (not-pushing pr2)
   + (gripper-rel pr2 xrel0 yrel0) (not-pushed cart)
(base-right pr2 x5 x6 y5)
   (NOT-base-obstacle x6 y5) (NOT-parked pr2) (base-pos pr2 x5 y5) (not-pushing pr2)
   + (gripper-rel pr2 xrel0 yrel0) (not-pushed cart)
(base-right pr2 x5 x6 y6)
   (NOT-base-obstacle x6 y6) (NOT-parked pr2) (base-pos pr2 x5 y6) (not-pushing pr2)
   + (gripper-rel pr2 xrel0 yrel0) (not-pushed cart)
(base-right pr2 x5 x6 y8)
   (NOT-base-obstacle x6 y8) (NOT-parked pr2) (base-pos pr2 x5 y8) (not-pushing pr2)
   + (gripper-rel pr2 xrel0 yrel0) (not-pushed cart)
(base-right pr2 x5 x6 y9)
   (NOT-base-obstacle x6 y9) (NOT-parked pr2) (base-pos pr2 x5 y9) (not-pushing pr2)
   + (gripper-rel pr2 xrel0 yrel0) (not-pushed cart)
(base-right pr2 x6 x7 y0)
   (NOT-base-obstacle x7 y0) (NOT-parked pr2) (base-pos pr2 x6 y0) (not-pushing pr2)
   + (gripper-rel pr2 xrel0 yrel0) (not-pushed cart)
(base-right pr2 x6 x7 y1)
   (NOT-base-obstacle x7 y1) (NOT-parked pr2) (base-pos pr2 x6 y1) (not-pushing pr2)
   + (gripper-rel pr2 xrel0 yrel0) (not-pushed cart)
(base-right pr2 x6 x7 y2)
   (NOT-base-obstacle x7 y2) (NOT-parked pr2) (base-pos pr2 x6 y2) (not-pushing pr2)
   + (gripper-rel pr2 xrel0 yrel0) (not-pushed cart)
(base-right pr2 x6 x7 y5)
   (NOT-base-obstacle x7 y5) (NOT-parked pr2) (base-pos pr2 x6 y5) (not-pushing pr2)
   + (gripper-rel pr2 xrel0 yrel0) (not-pushed cart)
(base-right pr2 x6 x7 y7)
   (NOT-base-obstacle x7 y7) (NOT-parked pr2) (base-pos pr2 x6 y7) (not-pushing pr2)
   + (gripper-rel pr2 xrel0 yrel0) (not-pushed cart)
(base-right pr2 x6 x7 y8)
   (NOT-base-obstacle x7 y8) (NOT-parked pr2) (base-pos pr2 x6 y8) (not-pushing pr2)
   + (gripper-rel pr2 xrel0 yrel0) (not-pushed cart)
(base-right pr2 x6 x7 y9)
   (NOT-base-obstacle x7 y9) (NOT-parked pr2) (base-pos pr2 x6 y9) (not-pushing pr2)
   + (gripper-rel pr2 xrel0 yrel0) (not-pushed cart)
(base-right pr2 x7 x8 y0)
   (NOT-base-obstacle x8 y0) (NOT-parked pr2) (base-pos pr2 x7 y0) (not-pushing pr2)
   + (gripper-rel pr2 xrel0 yrel0) (not-pushed cart)
(base-right pr2 x7 x8 y1)
   (NOT-base-obstacle x8 y1) (NOT-parked pr2) (base-pos pr2 x7 y1) (not-pushing pr2)
   + (gripper-rel pr2 xrel0 yrel0) (not-pushed cart)
(base-right pr2 x7 x8 y2)
   (NOT-base-obstacle x8 y2) (NOT-parked pr2) (base-pos pr2 x7 y2) (not-pushing pr2)
   + (gripper-rel pr2 xrel0 yrel0) (not-pushed cart)
(base-right pr2 x7 x8 y5)
   (NOT-base-obstacle x8 y5) (NOT-parked pr2) (base-pos pr2 x7 y5) (not-pushing pr2)
   + (gripper-rel pr2 xrel0 yrel0) (not-pushed cart)
(base-right pr2 x7 x8 y7)
   (NOT-base-obstacle x8 y7) (NOT-parked pr2) (base-pos pr2 x7 y7) (not-pushing pr2)
   + (gripper-rel pr2 xrel0 yrel0) (not-pushed cart)
(base-right pr2 x7 x8 y8)
   (NOT-base-obstacle x8 y8) (NOT-parked pr2) (base-pos pr2 x7 y8) (not-pushing pr2)
   + (gripper-rel pr2 xrel0 yrel0) (not-pushed cart)
(base-right pr2 x7 x8 y9)
   (NOT-base-obstacle x8 y9) (NOT-parked pr2) (base-pos pr2 x7 y9) (not-pushing pr2)
   + (gripper-rel pr2 xrel0 yrel0) (not-pushed cart)
(base-right pr2 x8 x9 y0)
   (NOT-base-obstacle x9 y0) (NOT-parked pr2) (base-pos pr2 x8 y0) (not-pushing pr2)
   + (gripper-rel pr2 xrel0 yrel0) (not-pushed cart)
(base-right pr2 x8 x9 y1)
   (NOT-base-obstacle x9 y1) (NOT-parked pr2) (base-pos pr2 x8 y1) (not-pushing pr2)
   + (gripper-rel pr2 xrel0 yrel0) (not-pushed cart)
(base-right pr2 x8 x9 y2)
   (NOT-base-obstacle x9 y2) (NOT-parked pr2) (base-pos pr2 x8 y2) (not-pushing pr2)
   + (gripper-rel pr2 xrel0 yrel0) (not-pushed cart)
(base-right pr2 x8 x9 y3)
   (NOT-base-obstacle x9 y3) (NOT-parked pr2) (base-pos pr2 x8 y3) (not-pushing pr2)
   + (gripper-rel pr2 xrel0 yrel0) (not-pushed cart)
(base-right pr2 x8 x9 y4)
   (NOT-base-obstacle x9 y4) (NOT-parked pr2) (base-pos pr2 x8 y4) (not-pushing pr2)
   + (gripper-rel pr2 xrel0 yrel0) (not-pushed cart)
(base-right pr2 x8 x9 y5)
   (NOT-base-obstacle x9 y5) (NOT-parked pr2) (base-pos pr2 x8 y5) (not-pushing pr2)
   + (gripper-rel pr2 xrel0 yrel0) (not-pushed cart)
(base-right pr2 x8 x9 y6)
   (NOT-base-obstacle x9 y6) (NOT-parked pr2) (base-pos pr2 x8 y6) (not-pushing pr2)
   + (gripper-rel pr2 xrel0 yrel0) (not-pushed cart)
(base-right pr2 x8 x9 y7)
   (NOT-base-obstacle x9 y7) (NOT-parked pr2) (base-pos pr2 x8 y7) (not-pushing pr2)
   + (gripper-rel pr2 xrel0 yrel0) (not-pushed cart)
(base-right pr2 x8 x9 y8)
   (NOT-base-obstacle x9 y8) (NOT-parked pr2) (base-pos pr2 x8 y8) (not-pushing pr2)
   + (gripper-rel pr2 xrel0 yrel0) (not-pushed cart)
(base-right pr2 x8 x9 y9)
   (NOT-base-obstacle x9 y9) (NOT-parked pr2) (base-pos pr2 x8 y9) (not-pushing pr2)
   + (gripper-rel pr2 xrel0 yrel0) (not-pushed cart)
(base-up pr2 x0 y3 y2)
   (NOT-base-obstacle x0 y2) (NOT-parked pr2) (base-pos pr2 x0 y3) (not-pushing pr2)
   + (gripper-rel pr2 xrel0 yrel0) (not-pushed cart)
(base-up pr2 x0 y4 y3)
   (NOT-base-obstacle x0 y3) (NOT-parked pr2) (base-pos pr2 x0 y4) (not-pushing pr2)
   + (gripper-rel pr2 xrel0 yrel0) (not-pushed cart)
(base-up pr2 x0 y5 y4)
   (NOT-base-obstacle x0 y4) (NOT-parked pr2) (base-pos pr2 x0 y5) (not-pushing pr2)
   + (gripper-rel pr2 xrel0 yrel0) (not-pushed cart)
(base-up pr2 x0 y6 y5)
   (NOT-base-obstacle x0 y5) (NOT-parked pr2) (base-pos pr2 x0 y6) (not-pushing pr2)
   + (gripper-rel pr2 xrel0 yrel0) (not-pushed cart)
(base-up pr2 x0 y7 y6)
   (NOT-base-obstacle x0 y6) (NOT-parked pr2) (base-pos pr2 x0 y7) (not-pushing pr2)
   + (gripper-rel pr2 xrel0 yrel0) (not-pushed cart)
(base-up pr2 x0 y8 y7)
   (NOT-base-obstacle x0 y7) (NOT-parked pr2) (base-pos pr2 x0 y8) (not-pushing pr2)
   + (gripper-rel pr2 xrel0 yrel0) (not-pushed cart)
(base-up pr2 x0 y9 y8)
   (NOT-base-obstacle x0 y8) (NOT-parked pr2) (base-pos pr2 x0 y9) (not-pushing pr2)
   + (gripper-rel pr2 xrel0 yrel0) (not-pushed cart)
(base-up pr2 x1 y4 y3)
   (NOT-base-obstacle x1 y3) (NOT-parked pr2) (base-pos pr2 x1 y4) (not-pushing pr2)
   + (gripper-rel pr2 xrel0 yrel0) (not-pushed cart)
(base-up pr2 x1 y5 y4)
   (NOT-base-obstacle x1 y4) (NOT-parked pr2) (base-pos pr2 x1 y5) (not-pushing pr2)
   + (gripper-rel pr2 xrel0 yrel0) (not-pushed cart)
(base-up pr2 x1 y6 y5)
   (NOT-base-obstacle x1 y5) (NOT-parked pr2) (base-pos pr2 x1 y6) (not-pushing pr2)
   + (gripper-rel pr2 xrel0 yrel0) (not-pushed cart)
(base-up pr2 x1 y7 y6)
   (NOT-base-obstacle x1 y6) (NOT-parked pr2) (base-pos pr2 x1 y7) (not-pushing pr2)
   + (gripper-rel pr2 xrel0 yrel0) (not-pushed cart)
(base-up pr2 x1 y8 y7)
   (NOT-base-obstacle x1 y7) (NOT-parked pr2) (base-pos pr2 x1 y8) (not-pushing pr2)
   + (gripper-rel pr2 xrel0 yrel0) (not-pushed cart)
(base-up pr2 x1 y9 y8)
   (NOT-base-obstacle x1 y8) (NOT-parked pr2) (base-pos pr2 x1 y9) (not-pushing pr2)
   + (gripper-rel pr2 xrel0 yrel0) (not-pushed cart)
(base-up pr2 x2 y1 y0)
   (NOT-base-obstacle x2 y0) (NOT-parked pr2) (base-pos pr2 x2 y1) (not-pushing pr2)
   + (gripper-rel pr2 xrel0 yrel0) (not-pushed cart)
(base-up pr2 x2 y2 y1)
   (NOT-base-obstacle x2 y1) (NOT-parked pr2) (base-pos pr2 x2 y2) (not-pushing pr2)
   + (gripper-rel pr2 xrel0 yrel0) (not-pushed cart)
(base-up pr2 x2 y3 y2)
   (NOT-base-obstacle x2 y2) (NOT-parked pr2) (base-pos pr2 x2 y3) (not-pushing pr2)
   + (gripper-rel pr2 xrel0 yrel0) (not-pushed cart)
(base-up pr2 x2 y9 y8)
   (NOT-base-obstacle x2 y8) (NOT-parked pr2) (base-pos pr2 x2 y9) (not-pushing pr2)
   + (gripper-rel pr2 xrel0 yrel0) (not-pushed cart)
(base-up pr2 x3 y1 y0)
   (NOT-base-obstacle x3 y0) (NOT-parked pr2) (base-pos pr2 x3 y1) (not-pushing pr2)
   + (gripper-rel pr2 xrel0 yrel0) (not-pushed cart)
(base-up pr2 x3 y2 y1)
   (NOT-base-obstacle x3 y1) (NOT-parked pr2) (base-pos pr2 x3 y2) (not-pushing pr2)
   + (gripper-rel pr2 xrel0 yrel0) (not-pushed cart)
(base-up pr2 x3 y3 y2)
   (NOT-base-obstacle x3 y2) (NOT-parked pr2) (base-pos pr2 x3 y3) (not-pushing pr2)
   + (gripper-rel pr2 xrel0 yrel0) (not-pushed cart)
(base-up pr2 x3 y6 y5)
   (NOT-base-obstacle x3 y5) (NOT-parked pr2) (base-pos pr2 x3 y6) (not-pushing pr2)
   + (gripper-rel pr2 xrel0 yrel0) (not-pushed cart)
(base-up pr2 x3 y9 y8)
   (NOT-base-obstacle x3 y8) (NOT-parked pr2) (base-pos pr2 x3 y9) (not-pushing pr2)
   + (gripper-rel pr2 xrel0 yrel0) (not-pushed cart)
(base-up pr2 x4 y6 y5)
   (NOT-base-obstacle x4 y5) (NOT-parked pr2) (base-pos pr2 x4 y6) (not-pushing pr2)
   + (gripper-rel pr2 xrel0 yrel0) (not-pushed cart)
(base-up pr2 x4 y9 y8)
   (NOT-base-obstacle x4 y8) (NOT-parked pr2) (base-pos pr2 x4 y9) (not-pushing pr2)
   + (gripper-rel pr2 xrel0 yrel0) (not-pushed cart)
(base-up pr2 x5 y6 y5)
   (NOT-base-obstacle x5 y5) (NOT-parked pr2) (base-pos pr2 x5 y6) (not-pushing pr2)
   + (gripper-rel pr2 xrel0 yrel0) (not-pushed cart)
(base-up pr2 x5 y9 y8)
   (NOT-base-obstacle x5 y8) (NOT-parked pr2) (base-pos pr2 x5 y9) (not-pushing pr2)
   + (gripper-rel pr2 xrel0 yrel0) (not-pushed cart)
(base-up pr2 x6 y1 y0)
   (NOT-base-obstacle x6 y0) (NOT-parked pr2) (base-pos pr2 x6 y1) (not-pushing pr2)
   + (gripper-rel pr2 xrel0 yrel0) (not-pushed cart)
(base-up pr2 x6 y2 y1)
   (NOT-base-obstacle x6 y1) (NOT-parked pr2) (base-pos pr2 x6 y2) (not-pushing pr2)
   + (gripper-rel pr2 xrel0 yrel0) (not-pushed cart)
(base-up pr2 x6 y3 y2)
   (NOT-base-obstacle x6 y2) (NOT-parked pr2) (base-pos pr2 x6 y3) (not-pushing pr2)
   + (gripper-rel pr2 xrel0 yrel0) (not-pushed cart)
(base-up pr2 x6 y4 y3)
   (NOT-base-obstacle x6 y3) (NOT-parked pr2) (base-pos pr2 x6 y4) (not-pushing pr2)
   + (gripper-rel pr2 xrel0 yrel0) (not-pushed cart)
(base-up pr2 x6 y5 y4)
   (NOT-base-obstacle x6 y4) (NOT-parked pr2) (base-pos pr2 x6 y5) (not-pushing pr2)
   + (gripper-rel pr2 xrel0 yrel0) (not-pushed cart)
(base-up pr2 x6 y6 y5)
   (NOT-base-obstacle x6 y5) (NOT-parked pr2) (base-pos pr2 x6 y6) (not-pushing pr2)
   + (gripper-rel pr2 xrel0 yrel0) (not-pushed cart)
(base-up pr2 x6 y7 y6)
   (NOT-base-obstacle x6 y6) (NOT-parked pr2) (base-pos pr2 x6 y7) (not-pushing pr2)
   + (gripper-rel pr2 xrel0 yrel0) (not-pushed cart)
(base-up pr2 x6 y8 y7)
   (NOT-base-obstacle x6 y7) (NOT-parked pr2) (base-pos pr2 x6 y8) (not-pushing pr2)
   + (gripper-rel pr2 xrel0 yrel0) (not-pushed cart)
(base-up pr2 x6 y9 y8)
   (NOT-base-obstacle x6 y8) (NOT-parked pr2) (base-pos pr2 x6 y9) (not-pushing pr2)
   + (gripper-rel pr2 xrel0 yrel0) (not-pushed cart)
(base-up pr2 x7 y1 y0)
   (NOT-base-obstacle x7 y0) (NOT-parked pr2) (base-pos pr2 x7 y1) (not-pushing pr2)
   + (gripper-rel pr2 xrel0 yrel0) (not-pushed cart)
(base-up pr2 x7 y2 y1)
   (NOT-base-obstacle x7 y1) (NOT-parked pr2) (base-pos pr2 x7 y2) (not-pushing pr2)
   + (gripper-rel pr2 xrel0 yrel0) (not-pushed cart)
(base-up pr2 x7 y8 y7)
   (NOT-base-obstacle x7 y7) (NOT-parked pr2) (base-pos pr2 x7 y8) (not-pushing pr2)
   + (gripper-rel pr2 xrel0 yrel0) (not-pushed cart)
(base-up pr2 x7 y9 y8)
   (NOT-base-obstacle x7 y8) (NOT-parked pr2) (base-pos pr2 x7 y9) (not-pushing pr2)
   + (gripper-rel pr2 xrel0 yrel0) (not-pushed cart)
(base-up pr2 x8 y1 y0)
   (NOT-base-obstacle x8 y0) (NOT-parked pr2) (base-pos pr2 x8 y1) (not-pushing pr2)
   + (gripper-rel pr2 xrel0 yrel0) (not-pushed cart)
(base-up pr2 x8 y2 y1)
   (NOT-base-obstacle x8 y1) (NOT-parked pr2) (base-pos pr2 x8 y2) (not-pushing pr2)
   + (gripper-rel pr2 xrel0 yrel0) (not-pushed cart)
(base-up pr2 x8 y3 y2)
   (NOT-base-obstacle x8 y2) (NOT-parked pr2) (base-pos pr2 x8 y3) (not-pushing pr2)
   + (gripper-rel pr2 xrel0 yrel0) (not-pushed cart)
(base-up pr2 x8 y4 y3)
   (NOT-base-obstacle x8 y3) (NOT-parked pr2) (base-pos pr2 x8 y4) (not-pushing pr2)
   + (gripper-rel pr2 xrel0 yrel0) (not-pushed cart)
(base-up pr2 x8 y5 y4)
   (NOT-base-obstacle x8 y4) (NOT-parked pr2) (base-pos pr2 x8 y5) (not-pushing pr2)
   + (gripper-rel pr2 xrel0 yrel0) (not-pushed cart)
(base-up pr2 x8 y6 y5)
   (NOT-base-obstacle x8 y5) (NOT-parked pr2) (base-pos pr2 x8 y6) (not-pushing pr2)
   + (gripper-rel pr2 xrel0 yrel0) (not-pushed cart)
(base-up pr2 x8 y7 y6)
   (NOT-base-obstacle x8 y6) (NOT-parked pr2) (base-pos pr2 x8 y7) (not-pushing pr2)
   + (gripper-rel pr2 xrel0 yrel0) (not-pushed cart)
(base-up pr2 x8 y8 y7)
   (NOT-base-obstacle x8 y7) (NOT-parked pr2) (base-pos pr2 x8 y8) (not-pushing pr2)
   + (gripper-rel pr2 xrel0 yrel0) (not-pushed cart)
(base-up pr2 x8 y9 y8)
   (NOT-base-obstacle x8 y8) (NOT-parked pr2) (base-pos pr2 x8 y9) (not-pushing pr2)
   + (gripper-rel pr2 xrel0 yrel0) (not-pushed cart)
(base-up pr2 x9 y1 y0)
   (NOT-base-obstacle x9 y0) (NOT-parked pr2) (base-pos pr2 x9 y1) (not-pushing pr2)
   + (gripper-rel pr2 xrel0 yrel0) (not-pushed cart)
(base-up pr2 x9 y2 y1)
   (NOT-base-obstacle x9 y1) (NOT-parked pr2) (base-pos pr2 x9 y2) (not-pushing pr2)
   + (gripper-rel pr2 xrel0 yrel0) (not-pushed cart)
(base-up pr2 x9 y3 y2)
   (NOT-base-obstacle x9 y2) (NOT-parked pr2) (base-pos pr2 x9 y3) (not-pushing pr2)
   + (gripper-rel pr2 xrel0 yrel0) (not-pushed cart)
(base-up pr2 x9 y4 y3)
   (NOT-base-obstacle x9 y3) (NOT-parked pr2) (base-pos pr2 x9 y4) (not-pushing pr2)
   + (gripper-rel pr2 xrel0 yrel0) (not-pushed cart)
(base-up pr2 x9 y5 y4)
   (NOT-base-obstacle x9 y4) (NOT-parked pr2) (base-pos pr2 x9 y5) (not-pushing pr2)
   + (gripper-rel pr2 xrel0 yrel0) (not-pushed cart)
(base-up pr2 x9 y6 y5)
   (NOT-base-obstacle x9 y5) (NOT-parked pr2) (base-pos pr2 x9 y6) (not-pushing pr2)
   + (gripper-rel pr2 xrel0 yrel0) (not-pushed cart)
(base-up pr2 x9 y7 y6)
   (NOT-base-obstacle x9 y6) (NOT-parked pr2) (base-pos pr2 x9 y7) (not-pushing pr2)
   + (gripper-rel pr2 xrel0 yrel0) (not-pushed cart)
(base-up pr2 x9 y8 y7)
   (NOT-base-obstacle x9 y7) (NOT-parked pr2) (base-pos pr2 x9 y8) (not-pushing pr2)
   + (gripper-rel pr2 xrel0 yrel0) (not-pushed cart)
(base-up pr2 x9 y9 y8)
   (NOT-base-obstacle x9 y8) (NOT-parked pr2) (base-pos pr2 x9 y9) (not-pushing pr2)
   + (gripper-rel pr2 xrel0 yrel0) (not-pushed cart)
(get-down pr2 x0 y0 xrel1 x1 yrel0 y0 object0 y1)
   (NOT-object-done object0) (base-pos pr2 x0 y0) (gripper-empty pr2) (gripper-rel pr2 xrel1 yrel0) (object-pos object0 x1 y1) (parked pr2)
   + (not-pushed cart) (not-pushing pr2)
(get-down pr2 x0 y0 xrel1 x1 yrel0 y0 object1 y1)
   (NOT-object-done object1) (base-pos pr2 x0 y0) (gripper-empty pr2) (gripper-rel pr2 xrel1 yrel0) (object-pos object1 x1 y1) (parked pr2)
   + (not-pushed cart) (not-pushing pr2)
(get-down pr2 x0 y0 xrel1 x1 yrel0 y0 object2 y1)
   (NOT-object-done object2) (base-pos pr2 x0 y0) (gripper-empty pr2) (gripper-rel pr2 xrel1 yrel0) (object-pos object2 x1 y1) (parked pr2)
   + (not-pushed cart) (not-pushing pr2)
(get-down pr2 x0 y0 xrel1 x1 yrel0 y0 object3 y1)
   (NOT-object-done object3) (base-pos pr2 x0 y0) (gripper-empty pr2) (gripper-rel pr2 xrel1 yrel0) (object-pos object3 x1 y1) (parked pr2)
   + (not-pushed cart) (not-pushing pr2)
(get-down pr2 x0 y0 xrel1 x1 yrel1 y1 object0 y2)
   (NOT-object-done object0) (base-pos pr2 x0 y0) (gripper-empty pr2) (gripper-rel pr2 xrel1 yrel1) (object-pos object0 x1 y2) (parked pr2)
   + (not-pushed cart) (not-pushing pr2)
(get-down pr2 x0 y0 xrel1 x1 yrel1 y1 object1 y2)
   (NOT-object-done object1) (base-pos pr2 x0 y0) (gripper-empty pr2) (gripper-rel pr2 xrel1 yrel1) (object-pos object1 x1 y2) (parked pr2)
   + (not-pushed cart) (not-pushing pr2)
(get-down pr2 x0 y0 xrel1 x1 yrel1 y1 object2 y2)
   (NOT-object-done object2) (base-pos pr2 x0 y0) (gripper-empty pr2) (gripper-rel pr2 xrel1 yrel1) (object-pos object2 x1 y2) (parked pr2)
   + (not-pushed cart) (not-pushing pr2)
(get-down pr2 x0 y0 xrel1 x1 yrel1 y1 object3 y2)
   (NOT-object-done object3) (base-pos pr2 x0 y0) (gripper-empty pr2) (gripper-rel pr2 xrel1 yrel1) (object-pos object3 x1 y2) (parked pr2)
   + (not-pushed cart) (not-pushing pr2)
(get-down pr2 x0 y2 xrel1 x1 yrel-1 y1 object0 y2)
   (NOT-object-done object0) (base-pos pr2 x0 y2) (gripper-empty pr2) (gripper-rel pr2 xrel1 yrel-1) (object-pos object0 x1 y2) (parked pr2)
   + (not-pushed cart) (not-pushing pr2)
(get-down pr2 x0 y2 xrel1 x1 yrel-1 y1 object1 y2)
   (NOT-object-done object1) (base-pos pr2 x0 y2) (gripper-empty pr2) (gripper-rel pr2 xrel1 yrel-1) (object-pos object1 x1 y2) (parked pr2)
   + (not-pushed cart) (not-pushing pr2)
(get-down pr2 x0 y2 xrel1 x1 yrel-1 y1 object2 y2)
   (NOT-object-done object2) (base-pos pr2 x0 y2) (gripper-empty pr2) (gripper-rel pr2 xrel1 yrel-1) (object-pos object2 x1 y2) (parked pr2)
   + (not-pushed cart) (not-pushing pr2)
(get-down pr2 x0 y2 xrel1 x1 yrel-1 y1 object3 y2)
   (NOT-object-done object3) (base-pos pr2 x0 y2) (gripper-empty pr2) (gripper-rel pr2 xrel1 yrel-1) (object-pos object3 x1 y2) (parked pr2)
   + (not-pushed cart) (not-pushing pr2)
(get-down pr2 x1 y0 xrel0 x1 yrel0 y0 object0 y1)
   (NOT-object-done object0) (base-pos pr2 x1 y0) (gripper-empty pr2) (gripper-rel pr2 xrel0 yrel0) (object-pos object0 x1 y1) (parked pr2)
   + (not-pushed cart) (not-pushing pr2)
(get-down pr2 x1 y0 xrel0 x1 yrel0 y0 object1 y1)
   (NOT-object-done object1) (base-pos pr2 x1 y0) (gripper-empty pr2) (gripper-rel pr2 xrel0 yrel0) (object-pos object1 x1 y1) (parked pr2)
   + (not-pushed cart) (not-pushing pr2)
(get-down pr2 x1 y0 xrel0 x1 yrel0 y0 object2 y1)
   (NOT-object-done object2) (base-pos pr2 x1 y0) (gripper-empty pr2) (gripper-rel pr2 xrel0 yrel0) (object-pos object2 x1 y1) (parked pr2)
   + (not-pushed cart) (not-pushing pr2)
(get-down pr2 x1 y0 xrel0 x1 yrel0 y0 object3 y1)
   (NOT-object-done object3) (base-pos pr2 x1 y0) (gripper-empty pr2) (gripper-rel pr2 xrel0 yrel0) (object-pos object3 x1 y1) (parked pr2)
   + (not-pushed cart) (not-pushing pr2)
(get-down pr2 x1 y0 xrel0 x1 yrel1 y1 object0 y2)
   (NOT-object-done object0) (base-pos pr2 x1 y0) (gripper-empty pr2) (gripper-rel pr2 xrel0 yrel1) (object-pos object0 x1 y2) (parked pr2)
   + (not-pushed cart) (not-pushing pr2)
(get-down pr2 x1 y0 xrel0 x1 yrel1 y1 object1 y2)
   (NOT-object-done object1) (base-pos pr2 x1 y0) (gripper-empty pr2) (gripper-rel pr2 xrel0 yrel1) (object-pos object1 x1 y2) (parked pr2)
   + (not-pushed cart) (not-pushing pr2)
(get-down pr2 x1 y0 xrel0 x1 yrel1 y1 object2 y2)
   (NOT-object-done object2) (base-pos pr2 x1 y0) (gripper-empty pr2) (gripper-rel pr2 xrel0 yrel1) (object-pos object2 x1 y2) (parked pr2)
   + (not-pushed cart) (not-pushing pr2)
(get-down pr2 x1 y0 xrel0 x1 yrel1 y1 object3 y2)
   (NOT-object-done object3) (base-pos pr2 x1 y0) (gripper-empty pr2) (gripper-rel pr2 xrel0 yrel1) (object-pos object3 x1 y2) (parked pr2)
   + (not-pushed cart) (not-pushing pr2)
(get-down pr2 x2 y0 xrel-1 x1 yrel0 y0 object0 y1)
   (NOT-object-done object0) (base-pos pr2 x2 y0) (gripper-empty pr2) (gripper-rel pr2 xrel-1 yrel0) (object-pos object0 x1 y1) (parked pr2)
   + (not-pushed cart) (not-pushing pr2)
(get-down pr2 x2 y0 xrel-1 x1 yrel0 y0 object1 y1)
   (NOT-object-done object1) (base-pos pr2 x2 y0) (gripper-empty pr2) (gripper-rel pr2 xrel-1 yrel0) (object-pos object1 x1 y1) (parked pr2)
   + (not-pushed cart) (not-pushing pr2)
(get-down pr2 x2 y0 xrel-1 x1 yrel0 y0 object2 y1)
   (NOT-object-done object2) (base-pos pr2 x2 y0) (gripper-empty pr2) (gripper-rel pr2 xrel-1 yrel0) (object-pos object2 x1 y1) (parked pr2)
   + (not-pushed cart) (not-pushing pr2)
(get-down pr2 x2 y0 xrel-1 x1 yrel0 y0 object3 y1)
   (NOT-object-done object3) (base-pos pr2 x2 y0) (gripper-empty pr2) (gripper-rel pr2 xrel-1 yrel0) (object-pos object3 x1 y1) (parked pr2)
   + (not-pushed cart) (not-pushing pr2)
(get-down pr2 x2 y0 xrel-1 x1 yrel1 y1 object0 y2)
   (NOT-object-done object0) (base-pos pr2 x2 y0) (gripper-empty pr2) (gripper-rel pr2 xrel-1 yrel1) (object-pos object0 x1 y2) (parked pr2)
   + (not-pushed cart) (not-pushing pr2)
(get-down pr2 x2 y0 xrel-1 x1 yrel1 y1 object1 y2)
   (NOT-object-done object1) (base-pos pr2 x2 y0) (gripper-empty pr2) (gripper-rel pr2 xrel-1 yrel1) (object-pos object1 x1 y2) (parked pr2)
   + (not-pushed cart) (not-pushing pr2)
(get-down pr2 x2 y0 xrel-1 x1 yrel1 y1 object2 y2)
   (NOT-object-done object2) (base-pos pr2 x2 y0) (gripper-empty pr2) (gripper-rel pr2 xrel-1 yrel1) (object-pos object2 x1 y2) (parked pr2)
   + (not-pushed cart) (not-pushing pr2)
(get-down pr2 x2 y0 xrel-1 x1 yrel1 y1 object3 y2)
   (NOT-object-done object3) (base-pos pr2 x2 y0) (gripper-empty pr2) (gripper-rel pr2 xrel-1 yrel1) (object-pos object3 x1 y2) (parked pr2)
   + (not-pushed cart) (not-pushing pr2)
(get-down pr2 x2 y1 xrel-1 x1 yrel-1 y0 object0 y1)
   (NOT-object-done object0) (base-pos pr2 x2 y1) (gripper-empty pr2) (gripper-rel pr2 xrel-1 yrel-1) (object-pos object0 x1 y1) (parked pr2)
   + (not-pushed cart) (not-pushing pr2)
(get-down pr2 x2 y1 xrel-1 x1 yrel-1 y0 object1 y1)
   (NOT-object-done object1) (base-pos pr2 x2 y1) (gripper-empty pr2) (gripper-rel pr2 xrel-1 yrel-1) (object-pos object1 x1 y1) (parked pr2)
   + (not-pushed cart) (not-pushing pr2)
(get-down pr2 x2 y1 xrel-1 x1 yrel-1 y0 object2 y1)
   (NOT-object-done object2) (base-pos pr2 x2 y1) (gripper-empty pr2) (gripper-rel pr2 xrel-1 yrel-1) (object-pos object2 x1 y1) (parked pr2)
   + (not-pushed cart) (not-pushing pr2)
(get-down pr2 x2 y1 xrel-1 x1 yrel-1 y0 object3 y1)
   (NOT-object-done object3) (base-pos pr2 x2 y1) (gripper-empty pr2) (gripper-rel pr2 xrel-1 yrel-1) (object-pos object3 x1 y1) (parked pr2)
   + (not-pushed cart) (not-pushing pr2)
(get-down pr2 x2 y1 xrel-1 x1 yrel0 y1 object0 y2)
   (NOT-object-done object0) (base-pos pr2 x2 y1) (gripper-empty pr2) (gripper-rel pr2 xrel-1 yrel0) (object-pos object0 x1 y2) (parked pr2)
   + (not-pushed cart) (not-pushing pr2)
(get-down pr2 x2 y1 xrel-1 x1 yrel0 y1 object1 y2)
   (NOT-object-done object1) (base-pos pr2 x2 y1) (gripper-empty pr2) (gripper-rel pr2 xrel-1 yrel0) (object-pos object1 x1 y2) (parked pr2)
   + (not-pushed cart) (not-pushing pr2)
(get-down pr2 x2 y1 xrel-1 x1 yrel0 y1 object2 y2)
   (NOT-object-done object2) (base-pos pr2 x2 y1) (gripper-empty pr2) (gripper-rel pr2 xrel-1 yrel0) (object-pos object2 x1 y2) (parked pr2)
   + (not-pushed cart) (not-pushing pr2)
(get-down pr2 x2 y1 xrel-1 x1 yrel0 y1 object3 y2)
   (NOT-object-done object3) (base-pos pr2 x2 y1) (gripper-empty pr2) (gripper-rel pr2 xrel-1 yrel0) (object-pos object3 x1 y2) (parked pr2)
   + (not-pushed cart) (not-pushing pr2)
(get-down pr2 x2 y2 xrel-1 x1 yrel-1 y1 object0 y2)
   (NOT-object-done object0) (base-pos pr2 x2 y2) (gripper-empty pr2) (gripper-rel pr2 xrel-1 yrel-1) (object-pos object0 x1 y2) (parked pr2)
   + (not-pushed cart) (not-pushing pr2)
(get-down pr2 x2 y2 xrel-1 x1 yrel-1 y1 object1 y2)
   (NOT-object-done object1) (base-pos pr2 x2 y2) (gripper-empty pr2) (gripper-rel pr2 xrel-1 yrel-1) (object-pos object1 x1 y2) (parked pr2)
   + (not-pushed cart) (not-pushing pr2)
(get-down pr2 x2 y2 xrel-1 x1 yrel-1 y1 object2 y2)
   (NOT-object-done object2) (base-pos pr2 x2 y2) (gripper-empty pr2) (gripper-rel pr2 xrel-1 yrel-1) (object-pos object2 x1 y2) (parked pr2)
   + (not-pushed cart) (not-pushing pr2)
(get-down pr2 x2 y2 xrel-1 x1 yrel-1 y1 object3 y2)
   (NOT-object-done object3) (base-pos pr2 x2 y2) (gripper-empty pr2) (gripper-rel pr2 xrel-1 yrel-1) (object-pos object3 x1 y2) (parked pr2)
   + (not-pushed cart) (not-pushing pr2)
(get-down pr2 x3 y0 xrel1 x4 yrel0 y0 object0 y1)
   (NOT-object-done object0) (base-pos pr2 x3 y0) (gripper-empty pr2) (gripper-rel pr2 xrel1 yrel0) (object-pos object0 x4 y1) (parked pr2)
   + (not-pushed cart) (not-pushing pr2)
(get-down pr2 x3 y0 xrel1 x4 yrel0 y0 object1 y1)
   (NOT-object-done object1) (base-pos pr2 x3 y0) (gripper-empty pr2) (gripper-rel pr2 xrel1 yrel0) (object-pos object1 x4 y1) (parked pr2)
   + (not-pushed cart) (not-pushing pr2)
(get-down pr2 x3 y0 xrel1 x4 yrel0 y0 object2 y1)
   (NOT-object-done object2) (base-pos pr2 x3 y0) (gripper-empty pr2) (gripper-rel pr2 xrel1 yrel0) (object-pos object2 x4 y1) (parked pr2)
   + (not-pushed cart) (not-pushing pr2)
(get-down pr2 x3 y0 xrel1 x4 yrel0 y0 object3 y1)
   (NOT-object-done object3) (base-pos pr2 x3 y0) (gripper-empty pr2) (gripper-rel pr2 xrel1 yrel0) (object-pos object3 x4 y1) (parked pr2)
   + (not-pushed cart) (not-pushing pr2)
(get-down pr2 x3 y0 xrel1 x4 yrel1 y1 object0 y2)
   (NOT-object-done object0) (base-pos pr2 x3 y0) (gripper-empty pr2) (gripper-rel pr2 xrel1 yrel1) (object-pos object0 x4 y2) (parked pr2)
   + (not-pushed cart) (not-pushing pr2)
(get-down pr2 x3 y0 xrel1 x4 yrel1 y1 object1 y2)
   (NOT-object-done object1) (base-pos pr2 x3 y0) (gripper-empty pr2) (gripper-rel pr2 xrel1 yrel1) (object-pos object1 x4 y2) (parked pr2)
   + (not-pushed cart) (not-pushing pr2)
(get-down pr2 x3 y0 xrel1 x4 yrel1 y1 object2 y2)
   (NOT-object-done object2) (base-pos pr2 x3 y0) (gripper-empty pr2) (gripper-rel pr2 xrel1 yrel1) (object-pos object2 x4 y2) (parked pr2)
   + (not-pushed cart) (not-pushing pr2)
(get-down pr2 x3 y0 xrel1 x4 yrel1 y1 object3 y2)
   (NOT-object-done object3) (base-pos pr2 x3 y0) (gripper-empty pr2) (gripper-rel pr2 xrel1 yrel1) (object-pos object3 x4 y2) (parked pr2)
   + (not-pushed cart) (not-pushing pr2)
(get-down pr2 x3 y1 xrel1 x4 yrel-1 y0 object0 y1)
   (NOT-object-done object0) (base-pos pr2 x3 y1) (gripper-empty pr2) (gripper-rel pr2 xrel1 yrel-1) (object-pos object0 x4 y1) (parked pr2)
   + (not-pushed cart) (not-pushing pr2)
(get-down pr2 x3 y1 xrel1 x4 yrel-1 y0 object1 y1)
   (NOT-object-done object1) (base-pos pr2 x3 y1) (gripper-empty pr2) (gripper-rel pr2 xrel1 yrel-1) (object-pos object1 x4 y1) (parked pr2)
   + (not-pushed cart) (not-pushing pr2)
(get-down pr2 x3 y1 xrel1 x4 yrel-1 y0 object2 y1)
   (NOT-object-done object2) (base-pos pr2 x3 y1) (gripper-empty pr2) (gripper-rel pr2 xrel1 yrel-1) (object-pos object2 x4 y1) (parked pr2)
   + (not-pushed cart) (not-pushing pr2)
(get-down pr2 x3 y1 xrel1 x4 yrel-1 y0 object3 y1)
   (NOT-object-done object3) (base-pos pr2 x3 y1) (gripper-empty pr2) (gripper-rel pr2 xrel1 yrel-1) (object-pos object3 x4 y1) (parked pr2)
   + (not-pushed cart) (not-pushing pr2)
(get-down pr2 x3 y1 xrel1 x4 yrel0 y1 object0 y2)
   (NOT-object-done object0) (base-pos pr2 x3 y1) (gripper-empty pr2) (gripper-rel pr2 xrel1 yrel0) (object-pos object0 x4 y2) (parked pr2)
   + (not-pushed cart) (not-pushing pr2)
(get-down pr2 x3 y1 xrel1 x4 yrel0 y1 object1 y2)
   (NOT-object-done object1) (base-pos pr2 x3 y1) (gripper-empty pr2) (gripper-rel pr2 xrel1 yrel0) (object-pos object1 x4 y2) (parked pr2)
   + (not-pushed cart) (not-pushing pr2)
(get-down pr2 x3 y1 xrel1 x4 yrel0 y1 object2 y2)
   (NOT-object-done object2) (base-pos pr2 x3 y1) (gripper-empty pr2) (gripper-rel pr2 xrel1 yrel0) (object-pos object2 x4 y2) (parked pr2)
   + (not-pushed cart) (not-pushing pr2)
(get-down pr2 x3 y1 xrel1 x4 yrel0 y1 object3 y2)
   (NOT-object-done object3) (base-pos pr2 x3 y1) (gripper-empty pr2) (gripper-rel pr2 xrel1 yrel0) (object-pos object3 x4 y2) (parked pr2)
   + (not-pushed cart) (not-pushing pr2)
(get-down pr2 x3 y2 xrel1 x4 yrel-1 y1 object0 y2)
   (NOT-object-done object0) (base-pos pr2 x3 y2) (gripper-empty pr2) (gripper-rel pr2 xrel1 yrel-1) (object-pos object0 x4 y2) (parked pr2)
   + (not-pushed cart) (not-pushing pr2)
(get-down pr2 x3 y2 xrel1 x4 yrel-1 y1 object1 y2)
   (NOT-object-done object1) (base-pos pr2 x3 y2) (gripper-empty pr2) (gripper-rel pr2 xrel1 yrel-1) (object-pos object1 x4 y2) (parked pr2)
   + (not-pushed cart) (not-pushing pr2)
(get-down pr2 x3 y2 xrel1 x4 yrel-1 y1 object2 y2)
   (NOT-object-done object2) (base-pos pr2 x3 y2) (gripper-empty pr2) (gripper-rel pr2 xrel1 yrel-1) (object-pos object2 x4 y2) (parked pr2)
   + (not-pushed cart) (not-pushing pr2)
(get-down pr2 x3 y2 xrel1 x4 yrel-1 y1 object3 y2)
   (NOT-object-done object3) (base-pos pr2 x3 y2) (gripper-empty pr2) (gripper-rel pr2 xrel1 yrel-1) (object-pos object3 x4 y2) (parked pr2)
   + (not-pushed cart) (not-pushing pr2)
(get-down pr2 x3 y5 xrel0 x3 yrel0 y5 object0 y6)
   (NOT-object-done object0) (base-pos pr2 x3 y5) (gripper-empty pr2) (gripper-rel pr2 xrel0 yrel0) (object-pos object0 x3 y6) (parked pr2)
   + (not-pushed cart) (not-pushing pr2)
(get-down pr2 x3 y5 xrel0 x3 yrel0 y5 object1 y6)
   (NOT-object-done object1) (base-pos pr2 x3 y5) (gripper-empty pr2) (gripper-rel pr2 xrel0 yrel0) (object-pos object1 x3 y6) (parked pr2)
   + (not-pushed cart) (not-pushing pr2)
(get-down pr2 x3 y5 xrel0 x3 yrel0 y5 object2 y6)
   (NOT-object-done object2) (base-pos pr2 x3 y5) (gripper-empty pr2) (gripper-rel pr2 xrel0 yrel0) (object-pos object2 x3 y6) (parked pr2)
   + (not-pushed cart) (not-pushing pr2)
(get-down pr2 x3 y5 xrel0 x3 yrel0 y5 object3 y6)
   (NOT-object-done object3) (base-pos pr2 x3 y5) (gripper-empty pr2) (gripper-rel pr2 xrel0 yrel0) (object-pos object3 x3 y6) (parked pr2)
   + (not-pushed cart) (not-pushing pr2)
(get-down pr2 x3 y5 xrel1 x4 yrel0 y5 object0 y6)
   (NOT-object-done object0) (base-pos pr2 x3 y5) (gripper-empty pr2) (gripper-rel pr2 xrel1 yrel0) (object-pos object0 x4 y6) (parked pr2)
   + (not-pushed cart) (not-pushing pr2)
(get-down pr2 x3 y5 xrel1 x4 yrel0 y5 object1 y6)
   (NOT-object-done object1) (base-pos pr2 x3 y5) (gripper-empty pr2) (gripper-rel pr2 xrel1 yrel0) (object-pos object1 x4 y6) (parked pr2)
   + (not-pushed cart) (not-pushing pr2)
(get-down pr2 x3 y5 xrel1 x4 yrel0 y5 object2 y6)
   (NOT-object-done object2) (base-pos pr2 x3 y5) (gripper-empty pr2) (gripper-rel pr2 xrel1 yrel0) (object-pos object2 x4 y6) (parked pr2)
   + (not-pushed cart) (not-pushing pr2)
(get-down pr2 x3 y5 xrel1 x4 yrel0 y5 object3 y6)
   (NOT-object-done object3) (base-pos pr2 x3 y5) (gripper-empty pr2) (gripper-rel pr2 xrel1 yrel0) (object-pos object3 x4 y6) (parked pr2)
   + (not-pushed cart) (not-pushing pr2)
(get-down pr2 x3 y6 xrel0 x3 yrel-1 y5 object0 y6)
   (NOT-object-done object0) (base-pos pr2 x3 y6) (gripper-empty pr2) (gripper-rel pr2 xrel0 yrel-1) (object-pos object0 x3 y6) (parked pr2)
   + (not-pushed cart) (not-pushing pr2)
(get-down pr2 x3 y6 xrel0 x3 yrel-1 y5 object1 y6)
   (NOT-object-done object1) (base-pos pr2 x3 y6) (gripper-empty pr2) (gripper-rel pr2 xrel0 yrel-1) (object-pos object1 x3 y6) (parked pr2)
   + (not-pushed cart) (not-pushing pr2)
(get-down pr2 x3 y6 xrel0 x3 yrel-1 y5 object2 y6)
   (NOT-object-done object2) (base-pos pr2 x3 y6) (gripper-empty pr2) (gripper-rel pr2 xrel0 yrel-1) (object-pos object2 x3 y6) (parked pr2)
   + (not-pushed cart) (not-pushing pr2)
(get-down pr2 x3 y6 xrel0 x3 yrel-1 y5 object3 y6)
   (NOT-object-done object3) (base-pos pr2 x3 y6) (gripper-empty pr2) (gripper-rel pr2 xrel0 yrel-1) (object-pos object3 x3 y6) (parked pr2)
   + (not-pushed cart) (not-pushing pr2)
(get-down pr2 x3 y6 xrel1 x4 yrel-1 y5 object0 y6)
   (NOT-object-done object0) (base-pos pr2 x3 y6) (gripper-empty pr2) (gripper-rel pr2 xrel1 yrel-1) (object-pos object0 x4 y6) (parked pr2)
   + (not-pushed cart) (not-pushing pr2)
(get-down pr2 x3 y6 xrel1 x4 yrel-1 y5 object1 y6)
   (NOT-object-done object1) (base-pos pr2 x3 y6) (gripper-empty pr2) (gripper-rel pr2 xrel1 yrel-1) (object-pos object1 x4 y6) (parked pr2)
   + (not-pushed cart) (not-pushing pr2)
(get-down pr2 x3 y6 xrel1 x4 yrel-1 y5 object2 y6)
   (NOT-object-done object2) (base-pos pr2 x3 y6) (gripper-empty pr2) (gripper-rel pr2 xrel1 yrel-1) (object-pos object2 x4 y6) (parked pr2)
   + (not-pushed cart) (not-pushing pr2)
(get-down pr2 x3 y6 xrel1 x4 yrel-1 y5 object3 y6)
   (NOT-object-done object3) (base-pos pr2 x3 y6) (gripper-empty pr2) (gripper-rel pr2 xrel1 yrel-1) (object-pos object3 x4 y6) (parked pr2)
   + (not-pushed cart) (not-pushing pr2)
(get-down pr2 x4 y0 xrel0 x4 yrel0 y0 object0 y1)
   (NOT-object-done object0) (base-pos pr2 x4 y0) (gripper-empty pr2) (gripper-rel pr2 xrel0 yrel0) (object-pos object0 x4 y1) (parked pr2)
   + (not-pushed cart) (not-pushing pr2)
(get-down pr2 x4 y0 xrel0 x4 yrel0 y0 object1 y1)
   (NOT-object-done object1) (base-pos pr2 x4 y0) (gripper-empty pr2) (gripper-rel pr2 xrel0 yrel0) (object-pos object1 x4 y1) (parked pr2)
   + (not-pushed cart) (not-pushing pr2)
(get-down pr2 x4 y0 xrel0 x4 yrel0 y0 object2 y1)
   (NOT-object-done object2) (base-pos pr2 x4 y0) (gripper-empty pr2) (gripper-rel pr2 xrel0 yrel0) (object-pos object2 x4 y1) (parked pr2)
   + (not-pushed cart) (not-pushing pr2)
(get-down pr2 x4 y0 xrel0 x4 yrel0 y0 object3 y1)
   (NOT-object-done object3) (base-pos pr2 x4 y0) (gripper-empty pr2) (gripper-rel pr2 xrel0 yrel0) (object-pos object3 x4 y1) (parked pr2)
   + (not-pushed cart) (not-pushing pr2)
(get-down pr2 x4 y0 xrel0 x4 yrel1 y1 object0 y2)
   (NOT-object-done object0) (base-pos pr2 x4 y0) (gripper-empty pr2) (gripper-rel pr2 xrel0 yrel1) (object-pos object0 x4 y2) (parked pr2)
   + (not-pushed cart) (not-pushing pr2)
(get-down pr2 x4 y0 xrel0 x4 yrel1 y1 object1 y2)
   (NOT-object-done object1) (base-pos pr2 x4 y0) (gripper-empty pr2) (gripper-rel pr2 xrel0 yrel1) (object-pos object1 x4 y2) (parked pr2)
   + (not-pushed cart) (not-pushing pr2)
(get-down pr2 x4 y0 xrel0 x4 yrel1 y1 object2 y2)
   (NOT-object-done object2) (base-pos pr2 x4 y0) (gripper-empty pr2) (gripper-rel pr2 xrel0 yrel1) (object-pos object2 x4 y2) (parked pr2)
   + (not-pushed cart) (not-pushing pr2)
(get-down pr2 x4 y0 xrel0 x4 yrel1 y1 object3 y2)
   (NOT-object-done object3) (base-pos pr2 x4 y0) (gripper-empty pr2) (gripper-rel pr2 xrel0 yrel1) (object-pos object3 x4 y2) (parked pr2)
   + (not-pushed cart) (not-pushing pr2)
(get-down pr2 x4 y0 xrel1 x5 yrel0 y0 object0 y1)
   (NOT-object-done object0) (base-pos pr2 x4 y0) (gripper-empty pr2) (gripper-rel pr2 xrel1 yrel0) (object-pos object0 x5 y1) (parked pr2)
   + (not-pushed cart) (not-pushing pr2)
(get-down pr2 x4 y0 xrel1 x5 yrel0 y0 object1 y1)
   (NOT-object-done object1) (base-pos pr2 x4 y0) (gripper-empty pr2) (gripper-rel pr2 xrel1 yrel0) (object-pos object1 x5 y1) (parked pr2)
   + (not-pushed cart) (not-pushing pr2)
(get-down pr2 x4 y0 xrel1 x5 yrel0 y0 object2 y1)
   (NOT-object-done object2) (base-pos pr2 x4 y0) (gripper-empty pr2) (gripper-rel pr2 xrel1 yrel0) (object-pos object2 x5 y1) (parked pr2)
   + (not-pushed cart) (not-pushing pr2)
(get-down pr2 x4 y0 xrel1 x5 yrel0 y0 object3 y1)
   (NOT-object-done object3) (base-pos pr2 x4 y0) (gripper-empty pr2) (gripper-rel pr2 xrel1 yrel0) (object-pos object3 x5 y1) (parked pr2)
   + (not-pushed cart) (not-pushing pr2)
(get-down pr2 x4 y0 xrel1 x5 yrel1 y1 object0 y2)
   (NOT-object-done object0) (base-pos pr2 x4 y0) (gripper-empty pr2) (gripper-rel pr2 xrel1 yrel1) (object-pos object0 x5 y2) (parked pr2)
   + (not-pushed cart) (not-pushing pr2)
(get-down pr2 x4 y0 xrel1 x5 yrel1 y1 object1 y2)
   (NOT-object-done object1) (base-pos pr2 x4 y0) (gripper-empty pr2) (gripper-rel pr2 xrel1 yrel1) (object-pos object1 x5 y2) (parked pr2)
   + (not-pushed cart) (not-pushing pr2)
(get-down pr2 x4 y0 xrel1 x5 yrel1 y1 object2 y2)
   (NOT-object-done object2) (base-pos pr2 x4 y0) (gripper-empty pr2) (gripper-rel pr2 xrel1 yrel1) (object-pos object2 x5 y2) (parked pr2)
   + (not-pushed cart) (not-pushing pr2)
(get-down pr2 x4 y0 xrel1 x5 yrel1 y1 object3 y2)
   (NOT-object-done object3) (base-pos pr2 x4 y0) (gripper-empty pr2) (gripper-rel pr2 xrel1 yrel1) (object-pos object3 x5 y2) (parked pr2)
   + (not-pushed cart) (not-pushing pr2)
(get-down pr2 x4 y5 xrel-1 x3 yrel0 y5 object0 y6)
   (NOT-object-done object0) (base-pos pr2 x4 y5) (gripper-empty pr2) (gripper-rel pr2 xrel-1 yrel0) (object-pos object0 x3 y6) (parked pr2)
   + (not-pushed cart) (not-pushing pr2)
(get-down pr2 x4 y5 xrel-1 x3 yrel0 y5 object1 y6)
   (NOT-object-done object1) (base-pos pr2 x4 y5) (gripper-empty pr2) (gripper-rel pr2 xrel-1 yrel0) (object-pos object1 x3 y6) (parked pr2)
   + (not-pushed cart) (not-pushing pr2)
(get-down pr2 x4 y5 xrel-1 x3 yrel0 y5 object2 y6)
   (NOT-object-done object2) (base-pos pr2 x4 y5) (gripper-empty pr2) (gripper-rel pr2 xrel-1 yrel0) (object-pos object2 x3 y6) (parked pr2)
   + (not-pushed cart) (not-pushing pr2)
(get-down pr2 x4 y5 xrel-1 x3 yrel0 y5 object3 y6)
   (NOT-object-done object3) (base-pos pr2 x4 y5) (gripper-empty pr2) (gripper-rel pr2 xrel-1 yrel0) (object-pos object3 x3 y6) (parked pr2)
   + (not-pushed cart) (not-pushing pr2)
(get-down pr2 x4 y5 xrel0 x4 yrel0 y5 object0 y6)
   (NOT-object-done object0) (base-pos pr2 x4 y5) (gripper-empty pr2) (gripper-rel pr2 xrel0 yrel0) (object-pos object0 x4 y6) (parked pr2)
   + (not-pushed cart) (not-pushing pr2)
(get-down pr2 x4 y5 xrel0 x4 yrel0 y5 object1 y6)
   (NOT-object-done object1) (base-pos pr2 x4 y5) (gripper-empty pr2) (gripper-rel pr2 xrel0 yrel0) (object-pos object1 x4 y6) (parked pr2)
   + (not-pushed cart) (not-pushing pr2)
(get-down pr2 x4 y5 xrel0 x4 yrel0 y5 object2 y6)
   (NOT-object-done object2) (base-pos pr2 x4 y5) (gripper-empty pr2) (gripper-rel pr2 xrel0 yrel0) (object-pos object2 x4 y6) (parked pr2)
   + (not-pushed cart) (not-pushing pr2)
(get-down pr2 x4 y5 xrel0 x4 yrel0 y5 object3 y6)
   (NOT-object-done object3) (base-pos pr2 x4 y5) (gripper-empty pr2) (gripper-rel pr2 xrel0 yrel0) (object-pos object3 x4 y6) (parked pr2)
   + (not-pushed cart) (not-pushing pr2)
(get-down pr2 x4 y6 xrel-1 x3 yrel-1 y5 object0 y6)
   (NOT-object-done object0) (base-pos pr2 x4 y6) (gripper-empty pr2) (gripper-rel pr2 xrel-1 yrel-1) (object-pos object0 x3 y6) (parked pr2)
   + (not-pushed cart) (not-pushing pr2)
(get-down pr2 x4 y6 xrel-1 x3 yrel-1 y5 object1 y6)
   (NOT-object-done object1) (base-pos pr2 x4 y6) (gripper-empty pr2) (gripper-rel pr2 xrel-1 yrel-1) (object-pos object1 x3 y6) (parked pr2)
   + (not-pushed cart) (not-pushing pr2)
(get-down pr2 x4 y6 xrel-1 x3 yrel-1 y5 object2 y6)
   (NOT-object-done object2) (base-pos pr2 x4 y6) (gripper-empty pr2) (gripper-rel pr2 xrel-1 yrel-1) (object-pos object2 x3 y6) (parked pr2)
   + (not-pushed cart) (not-pushing pr2)
(get-down pr2 x4 y6 xrel-1 x3 yrel-1 y5 object3 y6)
   (NOT-object-done object3) (base-pos pr2 x4 y6) (gripper-empty pr2) (gripper-rel pr2 xrel-1 yrel-1) (object-pos object3 x3 y6) (parked pr2)
   + (not-pushed cart) (not-pushing pr2)
(get-down pr2 x4 y6 xrel0 x4 yrel-1 y5 object0 y6)
   (NOT-object-done object0) (base-pos pr2 x4 y6) (gripper-empty pr2) (gripper-rel pr2 xrel0 yrel-1) (object-pos object0 x4 y6) (parked pr2)
   + (not-pushed cart) (not-pushing pr2)
(get-down pr2 x4 y6 xrel0 x4 yrel-1 y5 object1 y6)
   (NOT-object-done object1) (base-pos pr2 x4 y6) (gripper-empty pr2) (gripper-rel pr2 xrel0 yrel-1) (object-pos object1 x4 y6) (parked pr2)
   + (not-pushed cart) (not-pushing pr2)
(get-down pr2 x4 y6 xrel0 x4 yrel-1 y5 object2 y6)
   (NOT-object-done object2) (base-pos pr2 x4 y6) (gripper-empty pr2) (gripper-rel pr2 xrel0 yrel-1) (object-pos object2 x4 y6) (parked pr2)
   + (not-pushed cart) (not-pushing pr2)
(get-down pr2 x4 y6 xrel0 x4 yrel-1 y5 object3 y6)
   (NOT-object-done object3) (base-pos pr2 x4 y6) (gripper-empty pr2) (gripper-rel pr2 xrel0 yrel-1) (object-pos object3 x4 y6) (parked pr2)
   + (not-pushed cart) (not-pushing pr2)
(get-down pr2 x5 y0 xrel-1 x4 yrel0 y0 object0 y1)
   (NOT-object-done object0) (base-pos pr2 x5 y0) (gripper-empty pr2) (gripper-rel pr2 xrel-1 yrel0) (object-pos object0 x4 y1) (parked pr2)
   + (not-pushed cart) (not-pushing pr2)
(get-down pr2 x5 y0 xrel-1 x4 yrel0 y0 object1 y1)
   (NOT-object-done object1) (base-pos pr2 x5 y0) (gripper-empty pr2) (gripper-rel pr2 xrel-1 yrel0) (object-pos object1 x4 y1) (parked pr2)
   + (not-pushed cart) (not-pushing pr2)
(get-down pr2 x5 y0 xrel-1 x4 yrel0 y0 object2 y1)
   (NOT-object-done object2) (base-pos pr2 x5 y0) (gripper-empty pr2) (gripper-rel pr2 xrel-1 yrel0) (object-pos object2 x4 y1) (parked pr2)
   + (not-pushed cart) (not-pushing pr2)
(get-down pr2 x5 y0 xrel-1 x4 yrel0 y0 object3 y1)
   (NOT-object-done object3) (base-pos pr2 x5 y0) (gripper-empty pr2) (gripper-rel pr2 xrel-1 yrel0) (object-pos object3 x4 y1) (parked pr2)
   + (not-pushed cart) (not-pushing pr2)
(get-down pr2 x5 y0 xrel-1 x4 yrel1 y1 object0 y2)
   (NOT-object-done object0) (base-pos pr2 x5 y0) (gripper-empty pr2) (gripper-rel pr2 xrel-1 yrel1) (object-pos object0 x4 y2) (parked pr2)
   + (not-pushed cart) (not-pushing pr2)
(get-down pr2 x5 y0 xrel-1 x4 yrel1 y1 object1 y2)
   (NOT-object-done object1) (base-pos pr2 x5 y0) (gripper-empty pr2) (gripper-rel pr2 xrel-1 yrel1) (object-pos object1 x4 y2) (parked pr2)
   + (not-pushed cart) (not-pushing pr2)
(get-down pr2 x5 y0 xrel-1 x4 yrel1 y1 object2 y2)
   (NOT-object-done object2) (base-pos pr2 x5 y0) (gripper-empty pr2) (gripper-rel pr2 xrel-1 yrel1) (object-pos object2 x4 y2) (parked pr2)
   + (not-pushed cart) (not-pushing pr2)
(get-down pr2 x5 y0 xrel-1 x4 yrel1 y1 object3 y2)
   (NOT-object-done object3) (base-pos pr2 x5 y0) (gripper-empty pr2) (gripper-rel pr2 xrel-1 yrel1) (object-pos object3 x4 y2) (parked pr2)
   + (not-pushed cart) (not-pushing pr2)
(get-down pr2 x5 y0 xrel0 x5 yrel0 y0 object0 y1)
   (NOT-object-done object0) (base-pos pr2 x5 y0) (gripper-empty pr2) (gripper-rel pr2 xrel0 yrel0) (object-pos object0 x5 y1) (parked pr2)
   + (not-pushed cart) (not-pushing pr2)
(get-down pr2 x5 y0 xrel0 x5 yrel0 y0 object1 y1)
   (NOT-object-done object1) (base-pos pr2 x5 y0) (gripper-empty pr2) (gripper-rel pr2 xrel0 yrel0) (object-pos object1 x5 y1) (parked pr2)
   + (not-pushed cart) (not-pushing pr2)
(get-down pr2 x5 y0 xrel0 x5 yrel0 y0 object2 y1)
   (NOT-object-done object2) (base-pos pr2 x5 y0) (gripper-empty pr2) (gripper-rel pr2 xrel0 yrel0) (object-pos object2 x5 y1) (parked pr2)
   + (not-pushed cart) (not-pushing pr2)
(get-down pr2 x5 y0 xrel0 x5 yrel0 y0 object3 y1)
   (NOT-object-done object3) (base-pos pr2 x5 y0) (gripper-empty pr2) (gripper-rel pr2 xrel0 yrel0) (object-pos object3 x5 y1) (parked pr2)
   + (not-pushed cart) (not-pushing pr2)
(get-down pr2 x5 y0 xrel0 x5 yrel1 y1 object0 y2)
   (NOT-object-done object0) (base-pos pr2 x5 y0) (gripper-empty pr2) (gripper-rel pr2 xrel0 yrel1) (object-pos object0 x5 y2) (parked pr2)
   + (not-pushed cart) (not-pushing pr2)
(get-down pr2 x5 y0 xrel0 x5 yrel1 y1 object1 y2)
   (NOT-object-done object1) (base-pos pr2 x5 y0) (gripper-empty pr2) (gripper-rel pr2 xrel0 yrel1) (object-pos object1 x5 y2) (parked pr2)
   + (not-pushed cart) (not-pushing pr2)
(get-down pr2 x5 y0 xrel0 x5 yrel1 y1 object2 y2)
   (NOT-object-done object2) (base-pos pr2 x5 y0) (gripper-empty pr2) (gripper-rel pr2 xrel0 yrel1) (object-pos object2 x5 y2) (parked pr2)
   + (not-pushed cart) (not-pushing pr2)
(get-down pr2 x5 y0 xrel0 x5 yrel1 y1 object3 y2)
   (NOT-object-done object3) (base-pos pr2 x5 y0) (gripper-empty pr2) (gripper-rel pr2 xrel0 yrel1) (object-pos object3 x5 y2) (parked pr2)
   + (not-pushed cart) (not-pushing pr2)
(get-down pr2 x5 y5 xrel-1 x4 yrel0 y5 object0 y6)
   (NOT-object-done object0) (base-pos pr2 x5 y5) (gripper-empty pr2) (gripper-rel pr2 xrel-1 yrel0) (object-pos object0 x4 y6) (parked pr2)
   + (not-pushed cart) (not-pushing pr2)
(get-down pr2 x5 y5 xrel-1 x4 yrel0 y5 object1 y6)
   (NOT-object-done object1) (base-pos pr2 x5 y5) (gripper-empty pr2) (gripper-rel pr2 xrel-1 yrel0) (object-pos object1 x4 y6) (parked pr2)
   + (not-pushed cart) (not-pushing pr2)
(get-down pr2 x5 y5 xrel-1 x4 yrel0 y5 object2 y6)
   (NOT-object-done object2) (base-pos pr2 x5 y5) (gripper-empty pr2) (gripper-rel pr2 xrel-1 yrel0) (object-pos object2 x4 y6) (parked pr2)
   + (not-pushed cart) (not-pushing pr2)
(get-down pr2 x5 y5 xrel-1 x4 yrel0 y5 object3 y6)
   (NOT-object-done object3) (base-pos pr2 x5 y5) (gripper-empty pr2) (gripper-rel pr2 xrel-1 yrel0) (object-pos object3 x4 y6) (parked pr2)
   + (not-pushed cart) (not-pushing pr2)
(get-down pr2 x5 y6 xrel-1 x4 yrel-1 y5 object0 y6)
   (NOT-object-done object0) (base-pos pr2 x5 y6) (gripper-empty pr2) (gripper-rel pr2 xrel-1 yrel-1) (object-pos object0 x4 y6) (parked pr2)
   + (not-pushed cart) (not-pushing pr2)
(get-down pr2 x5 y6 xrel-1 x4 yrel-1 y5 object1 y6)
   (NOT-object-done object1) (base-pos pr2 x5 y6) (gripper-empty pr2) (gripper-rel pr2 xrel-1 yrel-1) (object-pos object1 x4 y6) (parked pr2)
   + (not-pushed cart) (not-pushing pr2)
(get-down pr2 x5 y6 xrel-1 x4 yrel-1 y5 object2 y6)
   (NOT-object-done object2) (base-pos pr2 x5 y6) (gripper-empty pr2) (gripper-rel pr2 xrel-1 yrel-1) (object-pos object2 x4 y6) (parked pr2)
   + (not-pushed cart) (not-pushing pr2)
(get-down pr2 x5 y6 xrel-1 x4 yrel-1 y5 object3 y6)
   (NOT-object-done object3) (base-pos pr2 x5 y6) (gripper-empty pr2) (gripper-rel pr2 xrel-1 yrel-1) (object-pos object3 x4 y6) (parked pr2)
   + (not-pushed cart) (not-pushing pr2)
(get-down pr2 x6 y0 xrel-1 x5 yrel0 y0 object0 y1)
   (NOT-object-done object0) (base-pos pr2 x6 y0) (gripper-empty pr2) (gripper-rel pr2 xrel-1 yrel0) (object-pos object0 x5 y1) (parked pr2)
   + (not-pushed cart) (not-pushing pr2)
(get-down pr2 x6 y0 xrel-1 x5 yrel0 y0 object1 y1)
   (NOT-object-done object1) (base-pos pr2 x6 y0) (gripper-empty pr2) (gripper-rel pr2 xrel-1 yrel0) (object-pos object1 x5 y1) (parked pr2)
   + (not-pushed cart) (not-pushing pr2)
(get-down pr2 x6 y0 xrel-1 x5 yrel0 y0 object2 y1)
   (NOT-object-done object2) (base-pos pr2 x6 y0) (gripper-empty pr2) (gripper-rel pr2 xrel-1 yrel0) (object-pos object2 x5 y1) (parked pr2)
   + (not-pushed cart) (not-pushing pr2)
(get-down pr2 x6 y0 xrel-1 x5 yrel0 y0 object3 y1)
   (NOT-object-done object3) (base-pos pr2 x6 y0) (gripper-empty pr2) (gripper-rel pr2 xrel-1 yrel0) (object-pos object3 x5 y1) (parked pr2)
   + (not-pushed cart) (not-pushing pr2)
(get-down pr2 x6 y0 xrel-1 x5 yrel1 y1 object0 y2)
   (NOT-object-done object0) (base-pos pr2 x6 y0) (gripper-empty pr2) (gripper-rel pr2 xrel-1 yrel1) (object-pos object0 x5 y2) (parked pr2)
   + (not-pushed cart) (not-pushing pr2)
(get-down pr2 x6 y0 xrel-1 x5 yrel1 y1 object1 y2)
   (NOT-object-done object1) (base-pos pr2 x6 y0) (gripper-empty pr2) (gripper-rel pr2 xrel-1 yrel1) (object-pos object1 x5 y2) (parked pr2)
   + (not-pushed cart) (not-pushing pr2)
(get-down pr2 x6 y0 xrel-1 x5 yrel1 y1 object2 y2)
   (NOT-object-done object2) (base-pos pr2 x6 y0) (gripper-empty pr2) (gripper-rel pr2 xrel-1 yrel1) (object-pos object2 x5 y2) (parked pr2)
   + (not-pushed cart) (not-pushing pr2)
(get-down pr2 x6 y0 xrel-1 x5 yrel1 y1 object3 y2)
   (NOT-object-done object3) (base-pos pr2 x6 y0) (gripper-empty pr2) (gripper-rel pr2 xrel-1 yrel1) (object-pos object3 x5 y2) (parked pr2)
   + (not-pushed cart) (not-pushing pr2)
(get-down pr2 x6 y1 xrel-1 x5 yrel-1 y0 object0 y1)
   (NOT-object-done object0) (base-pos pr2 x6 y1) (gripper-empty pr2) (gripper-rel pr2 xrel-1 yrel-1) (object-pos object0 x5 y1) (parked pr2)
   + (not-pushed cart) (not-pushing pr2)
(get-down pr2 x6 y1 xrel-1 x5 yrel-1 y0 object1 y1)
   (NOT-object-done object1) (base-pos pr2 x6 y1) (gripper-empty pr2) (gripper-rel pr2 xrel-1 yrel-1) (object-pos object1 x5 y1) (parked pr2)
   + (not-pushed cart) (not-pushing pr2)
(get-down pr2 x6 y1 xrel-1 x5 yrel-1 y0 object2 y1)
   (NOT-object-done object2) (base-pos pr2 x6 y1) (gripper-empty pr2) (gripper-rel pr2 xrel-1 yrel-1) (object-pos object2 x5 y1) (parked pr2)
   + (not-pushed cart) (not-pushing pr2)
(get-down pr2 x6 y1 xrel-1 x5 yrel-1 y0 object3 y1)
   (NOT-object-done object3) (base-pos pr2 x6 y1) (gripper-empty pr2) (gripper-rel pr2 xrel-1 yrel-1) (object-pos object3 x5 y1) (parked pr2)
   + (not-pushed cart) (not-pushing pr2)
(get-down pr2 x6 y1 xrel-1 x5 yrel0 y1 object0 y2)
   (NOT-object-done object0) (base-pos pr2 x6 y1) (gripper-empty pr2) (gripper-rel pr2 xrel-1 yrel0) (object-pos object0 x5 y2) (parked pr2)
   + (not-pushed cart) (not-pushing pr2)
(get-down pr2 x6 y1 xrel-1 x5 yrel0 y1 object1 y2)
   (NOT-object-done object1) (base-pos pr2 x6 y1) (gripper-empty pr2) (gripper-rel pr2 xrel-1 yrel0) (object-pos object1 x5 y2) (parked pr2)
   + (not-pushed cart) (not-pushing pr2)
(get-down pr2 x6 y1 xrel-1 x5 yrel0 y1 object2 y2)
   (NOT-object-done object2) (base-pos pr2 x6 y1) (gripper-empty pr2) (gripper-rel pr2 xrel-1 yrel0) (object-pos object2 x5 y2) (parked pr2)
   + (not-pushed cart) (not-pushing pr2)
(get-down pr2 x6 y1 xrel-1 x5 yrel0 y1 object3 y2)
   (NOT-object-done object3) (base-pos pr2 x6 y1) (gripper-empty pr2) (gripper-rel pr2 xrel-1 yrel0) (object-pos object3 x5 y2) (parked pr2)
   + (not-pushed cart) (not-pushing pr2)
(get-down pr2 x6 y1 xrel1 x7 yrel1 y2 object0 y3)
   (NOT-object-done object0) (base-pos pr2 x6 y1) (gripper-empty pr2) (gripper-rel pr2 xrel1 yrel1) (object-pos object0 x7 y3) (parked pr2)
   + (not-pushed cart) (not-pushing pr2)
(get-down pr2 x6 y1 xrel1 x7 yrel1 y2 object1 y3)
   (NOT-object-done object1) (base-pos pr2 x6 y1) (gripper-empty pr2) (gripper-rel pr2 xrel1 yrel1) (object-pos object1 x7 y3) (parked pr2)
   + (not-pushed cart) (not-pushing pr2)
(get-down pr2 x6 y1 xrel1 x7 yrel1 y2 object2 y3)
   (NOT-object-done object2) (base-pos pr2 x6 y1) (gripper-empty pr2) (gripper-rel pr2 xrel1 yrel1) (object-pos object2 x7 y3) (parked pr2)
   + (not-pushed cart) (not-pushing pr2)
(get-down pr2 x6 y1 xrel1 x7 yrel1 y2 object3 y3)
   (NOT-object-done object3) (base-pos pr2 x6 y1) (gripper-empty pr2) (gripper-rel pr2 xrel1 yrel1) (object-pos object3 x7 y3) (parked pr2)
   + (not-pushed cart) (not-pushing pr2)
(get-down pr2 x6 y2 xrel-1 x5 yrel-1 y1 object0 y2)
   (NOT-object-done object0) (base-pos pr2 x6 y2) (gripper-empty pr2) (gripper-rel pr2 xrel-1 yrel-1) (object-pos object0 x5 y2) (parked pr2)
   + (not-pushed cart) (not-pushing pr2)
(get-down pr2 x6 y2 xrel-1 x5 yrel-1 y1 object1 y2)
   (NOT-object-done object1) (base-pos pr2 x6 y2) (gripper-empty pr2) (gripper-rel pr2 xrel-1 yrel-1) (object-pos object1 x5 y2) (parked pr2)
   + (not-pushed cart) (not-pushing pr2)
(get-down pr2 x6 y2 xrel-1 x5 yrel-1 y1 object2 y2)
   (NOT-object-done object2) (base-pos pr2 x6 y2) (gripper-empty pr2) (gripper-rel pr2 xrel-1 yrel-1) (object-pos object2 x5 y2) (parked pr2)
   + (not-pushed cart) (not-pushing pr2)
(get-down pr2 x6 y2 xrel-1 x5 yrel-1 y1 object3 y2)
   (NOT-object-done object3) (base-pos pr2 x6 y2) (gripper-empty pr2) (gripper-rel pr2 xrel-1 yrel-1) (object-pos object3 x5 y2) (parked pr2)
   + (not-pushed cart) (not-pushing pr2)
(get-down pr2 x6 y2 xrel1 x7 yrel0 y2 object0 y3)
   (NOT-object-done object0) (base-pos pr2 x6 y2) (gripper-empty pr2) (gripper-rel pr2 xrel1 yrel0) (object-pos object0 x7 y3) (parked pr2)
   + (not-pushed cart) (not-pushing pr2)
(get-down pr2 x6 y2 xrel1 x7 yrel0 y2 object1 y3)
   (NOT-object-done object1) (base-pos pr2 x6 y2) (gripper-empty pr2) (gripper-rel pr2 xrel1 yrel0) (object-pos object1 x7 y3) (parked pr2)
   + (not-pushed cart) (not-pushing pr2)
(get-down pr2 x6 y2 xrel1 x7 yrel0 y2 object2 y3)
   (NOT-object-done object2) (base-pos pr2 x6 y2) (gripper-empty pr2) (gripper-rel pr2 xrel1 yrel0) (object-pos object2 x7 y3) (parked pr2)
   + (not-pushed cart) (not-pushing pr2)
(get-down pr2 x6 y2 xrel1 x7 yrel0 y2 object3 y3)
   (NOT-object-done object3) (base-pos pr2 x6 y2) (gripper-empty pr2) (gripper-rel pr2 xrel1 yrel0) (object-pos object3 x7 y3) (parked pr2)
   + (not-pushed cart) (not-pushing pr2)
(get-down pr2 x6 y2 xrel1 x7 yrel1 y3 object0 y4)
   (NOT-object-done object0) (base-pos pr2 x6 y2) (gripper-empty pr2) (gripper-rel pr2 xrel1 yrel1) (object-pos object0 x7 y4) (parked pr2)
   + (not-pushed cart) (not-pushing pr2)
(get-down pr2 x6 y2 xrel1 x7 yrel1 y3 object1 y4)
   (NOT-object-done object1) (base-pos pr2 x6 y2) (gripper-empty pr2) (gripper-rel pr2 xrel1 yrel1) (object-pos object1 x7 y4) (parked pr2)
   + (not-pushed cart) (not-pushing pr2)
(get-down pr2 x6 y2 xrel1 x7 yrel1 y3 object2 y4)
   (NOT-object-done object2) (base-pos pr2 x6 y2) (gripper-empty pr2) (gripper-rel pr2 xrel1 yrel1) (object-pos object2 x7 y4) (parked pr2)
   + (not-pushed cart) (not-pushing pr2)
(get-down pr2 x6 y2 xrel1 x7 yrel1 y3 object3 y4)
   (NOT-object-done object3) (base-pos pr2 x6 y2) (gripper-empty pr2) (gripper-rel pr2 xrel1 yrel1) (object-pos object3 x7 y4) (parked pr2)
   + (not-pushed cart) (not-pushing pr2)
(get-down pr2 x6 y3 xrel1 x7 yrel-1 y2 object0 y3)
   (NOT-object-done object0) (base-pos pr2 x6 y3) (gripper-empty pr2) (gripper-rel pr2 xrel1 yrel-1) (object-pos object0 x7 y3) (parked pr2)
   + (not-pushed cart) (not-pushing pr2)
(get-down pr2 x6 y3 xrel1 x7 yrel-1 y2 object1 y3)
   (NOT-object-done object1) (base-pos pr2 x6 y3) (gripper-empty pr2) (gripper-rel pr2 xrel1 yrel-1) (object-pos object1 x7 y3) (parked pr2)
   + (not-pushed cart) (not-pushing pr2)
(get-down pr2 x6 y3 xrel1 x7 yrel-1 y2 object2 y3)
   (NOT-object-done object2) (base-pos pr2 x6 y3) (gripper-empty pr2) (gripper-rel pr2 xrel1 yrel-1) (object-pos object2 x7 y3) (parked pr2)
   + (not-pushed cart) (not-pushing pr2)
(get-down pr2 x6 y3 xrel1 x7 yrel-1 y2 object3 y3)
   (NOT-object-done object3) (base-pos pr2 x6 y3) (gripper-empty pr2) (gripper-rel pr2 xrel1 yrel-1) (object-pos object3 x7 y3) (parked pr2)
   + (not-pushed cart) (not-pushing pr2)
(get-down pr2 x6 y3 xrel1 x7 yrel0 y3 object0 y4)
   (NOT-object-done object0) (base-pos pr2 x6 y3) (gripper-empty pr2) (gripper-rel pr2 xrel1 yrel0) (object-pos object0 x7 y4) (parked pr2)
   + (not-pushed cart) (not-pushing pr2)
(get-down pr2 x6 y3 xrel1 x7 yrel0 y3 object1 y4)
   (NOT-object-done object1) (base-pos pr2 x6 y3) (gripper-empty pr2) (gripper-rel pr2 xrel1 yrel0) (object-pos object1 x7 y4) (parked pr2)
   + (not-pushed cart) (not-pushing pr2)
(get-down pr2 x6 y3 xrel1 x7 yrel0 y3 object2 y4)
   (NOT-object-done object2) (base-pos pr2 x6 y3) (gripper-empty pr2) (gripper-rel pr2 xrel1 yrel0) (object-pos object2 x7 y4) (parked pr2)
   + (not-pushed cart) (not-pushing pr2)
(get-down pr2 x6 y3 xrel1 x7 yrel0 y3 object3 y4)
   (NOT-object-done object3) (base-pos pr2 x6 y3) (gripper-empty pr2) (gripper-rel pr2 xrel1 yrel0) (object-pos object3 x7 y4) (parked pr2)
   + (not-pushed cart) (not-pushing pr2)
(get-down pr2 x6 y4 xrel1 x7 yrel-1 y3 object0 y4)
   (NOT-object-done object0) (base-pos pr2 x6 y4) (gripper-empty pr2) (gripper-rel pr2 xrel1 yrel-1) (object-pos object0 x7 y4) (parked pr2)
   + (not-pushed cart) (not-pushing pr2)
(get-down pr2 x6 y4 xrel1 x7 yrel-1 y3 object1 y4)
   (NOT-object-done object1) (base-pos pr2 x6 y4) (gripper-empty pr2) (gripper-rel pr2 xrel1 yrel-1) (object-pos object1 x7 y4) (parked pr2)
   + (not-pushed cart) (not-pushing pr2)
(get-down pr2 x6 y4 xrel1 x7 yrel-1 y3 object2 y4)
   (NOT-object-done object2) (base-pos pr2 x6 y4) (gripper-empty pr2) (gripper-rel pr2 xrel1 yrel-1) (object-pos object2 x7 y4) (parked pr2)
   + (not-pushed cart) (not-pushing pr2)
(get-down pr2 x6 y4 xrel1 x7 yrel-1 y3 object3 y4)
   (NOT-object-done object3) (base-pos pr2 x6 y4) (gripper-empty pr2) (gripper-rel pr2 xrel1 yrel-1) (object-pos object3 x7 y4) (parked pr2)
   + (not-pushed cart) (not-pushing pr2)
(get-down pr2 x6 y4 xrel1 x7 yrel1 y5 object0 y6)
   (NOT-object-done object0) (base-pos pr2 x6 y4) (gripper-empty pr2) (gripper-rel pr2 xrel1 yrel1) (object-pos object0 x7 y6) (parked pr2)
   + (not-pushed cart) (not-pushing pr2)
(get-down pr2 x6 y4 xrel1 x7 yrel1 y5 object1 y6)
   (NOT-object-done object1) (base-pos pr2 x6 y4) (gripper-empty pr2) (gripper-rel pr2 xrel1 yrel1) (object-pos object1 x7 y6) (parked pr2)
   + (not-pushed cart) (not-pushing pr2)
(get-down pr2 x6 y4 xrel1 x7 yrel1 y5 object2 y6)
   (NOT-object-done object2) (base-pos pr2 x6 y4) (gripper-empty pr2) (gripper-rel pr2 xrel1 yrel1) (object-pos object2 x7 y6) (parked pr2)
   + (not-pushed cart) (not-pushing pr2)
(get-down pr2 x6 y4 xrel1 x7 yrel1 y5 object3 y6)
   (NOT-object-done object3) (base-pos pr2 x6 y4) (gripper-empty pr2) (gripper-rel pr2 xrel1 yrel1) (object-pos object3 x7 y6) (parked pr2)
   + (not-pushed cart) (not-pushing pr2)
(get-down pr2 x6 y5 xrel1 x7 yrel0 y5 object0 y6)
   (NOT-object-done object0) (base-pos pr2 x6 y5) (gripper-empty pr2) (gripper-rel pr2 xrel1 yrel0) (object-pos object0 x7 y6) (parked pr2)
   + (not-pushed cart) (not-pushing pr2)
(get-down pr2 x6 y5 xrel1 x7 yrel0 y5 object1 y6)
   (NOT-object-done object1) (base-pos pr2 x6 y5) (gripper-empty pr2) (gripper-rel pr2 xrel1 yrel0) (object-pos object1 x7 y6) (parked pr2)
   + (not-pushed cart) (not-pushing pr2)
(get-down pr2 x6 y5 xrel1 x7 yrel0 y5 object2 y6)
   (NOT-object-done object2) (base-pos pr2 x6 y5) (gripper-empty pr2) (gripper-rel pr2 xrel1 yrel0) (object-pos object2 x7 y6) (parked pr2)
   + (not-pushed cart) (not-pushing pr2)
(get-down pr2 x6 y5 xrel1 x7 yrel0 y5 object3 y6)
   (NOT-object-done object3) (base-pos pr2 x6 y5) (gripper-empty pr2) (gripper-rel pr2 xrel1 yrel0) (object-pos object3 x7 y6) (parked pr2)
   + (not-pushed cart) (not-pushing pr2)
(get-down pr2 x6 y6 xrel1 x7 yrel-1 y5 object0 y6)
   (NOT-object-done object0) (base-pos pr2 x6 y6) (gripper-empty pr2) (gripper-rel pr2 xrel1 yrel-1) (object-pos object0 x7 y6) (parked pr2)
   + (not-pushed cart) (not-pushing pr2)
(get-down pr2 x6 y6 xrel1 x7 yrel-1 y5 object1 y6)
   (NOT-object-done object1) (base-pos pr2 x6 y6) (gripper-empty pr2) (gripper-rel pr2 xrel1 yrel-1) (object-pos object1 x7 y6) (parked pr2)
   + (not-pushed cart) (not-pushing pr2)
(get-down pr2 x6 y6 xrel1 x7 yrel-1 y5 object2 y6)
   (NOT-object-done object2) (base-pos pr2 x6 y6) (gripper-empty pr2) (gripper-rel pr2 xrel1 yrel-1) (object-pos object2 x7 y6) (parked pr2)
   + (not-pushed cart) (not-pushing pr2)
(get-down pr2 x6 y6 xrel1 x7 yrel-1 y5 object3 y6)
   (NOT-object-done object3) (base-pos pr2 x6 y6) (gripper-empty pr2) (gripper-rel pr2 xrel1 yrel-1) (object-pos object3 x7 y6) (parked pr2)
   + (not-pushed cart) (not-pushing pr2)
(get-down pr2 x7 y1 xrel0 x7 yrel1 y2 object0 y3)
   (NOT-object-done object0) (base-pos pr2 x7 y1) (gripper-empty pr2) (gripper-rel pr2 xrel0 yrel1) (object-pos object0 x7 y3) (parked pr2)
   + (not-pushed cart) (not-pushing pr2)
(get-down pr2 x7 y1 xrel0 x7 yrel1 y2 object1 y3)
   (NOT-object-done object1) (base-pos pr2 x7 y1) (gripper-empty pr2) (gripper-rel pr2 xrel0 yrel1) (object-pos object1 x7 y3) (parked pr2)
   + (not-pushed cart) (not-pushing pr2)
(get-down pr2 x7 y1 xrel0 x7 yrel1 y2 object2 y3)
   (NOT-object-done object2) (base-pos pr2 x7 y1) (gripper-empty pr2) (gripper-rel pr2 xrel0 yrel1) (object-pos object2 x7 y3) (parked pr2)
   + (not-pushed cart) (not-pushing pr2)
(get-down pr2 x7 y1 xrel0 x7 yrel1 y2 object3 y3)
   (NOT-object-done object3) (base-pos pr2 x7 y1) (gripper-empty pr2) (gripper-rel pr2 xrel0 yrel1) (object-pos object3 x7 y3) (parked pr2)
   + (not-pushed cart) (not-pushing pr2)
(get-down pr2 x7 y2 xrel0 x7 yrel0 y2 object0 y3)
   (NOT-object-done object0) (base-pos pr2 x7 y2) (gripper-empty pr2) (gripper-rel pr2 xrel0 yrel0) (object-pos object0 x7 y3) (parked pr2)
   + (not-pushed cart) (not-pushing pr2)
(get-down pr2 x7 y2 xrel0 x7 yrel0 y2 object1 y3)
   (NOT-object-done object1) (base-pos pr2 x7 y2) (gripper-empty pr2) (gripper-rel pr2 xrel0 yrel0) (object-pos object1 x7 y3) (parked pr2)
   + (not-pushed cart) (not-pushing pr2)
(get-down pr2 x7 y2 xrel0 x7 yrel0 y2 object2 y3)
   (NOT-object-done object2) (base-pos pr2 x7 y2) (gripper-empty pr2) (gripper-rel pr2 xrel0 yrel0) (object-pos object2 x7 y3) (parked pr2)
   + (not-pushed cart) (not-pushing pr2)
(get-down pr2 x7 y2 xrel0 x7 yrel0 y2 object3 y3)
   (NOT-object-done object3) (base-pos pr2 x7 y2) (gripper-empty pr2) (gripper-rel pr2 xrel0 yrel0) (object-pos object3 x7 y3) (parked pr2)
   + (not-pushed cart) (not-pushing pr2)
(get-down pr2 x7 y2 xrel0 x7 yrel1 y3 object0 y4)
   (NOT-object-done object0) (base-pos pr2 x7 y2) (gripper-empty pr2) (gripper-rel pr2 xrel0 yrel1) (object-pos object0 x7 y4) (parked pr2)
   + (not-pushed cart) (not-pushing pr2)
(get-down pr2 x7 y2 xrel0 x7 yrel1 y3 object1 y4)
   (NOT-object-done object1) (base-pos pr2 x7 y2) (gripper-empty pr2) (gripper-rel pr2 xrel0 yrel1) (object-pos object1 x7 y4) (parked pr2)
   + (not-pushed cart) (not-pushing pr2)
(get-down pr2 x7 y2 xrel0 x7 yrel1 y3 object2 y4)
   (NOT-object-done object2) (base-pos pr2 x7 y2) (gripper-empty pr2) (gripper-rel pr2 xrel0 yrel1) (object-pos object2 x7 y4) (parked pr2)
   + (not-pushed cart) (not-pushing pr2)
(get-down pr2 x7 y2 xrel0 x7 yrel1 y3 object3 y4)
   (NOT-object-done object3) (base-pos pr2 x7 y2) (gripper-empty pr2) (gripper-rel pr2 xrel0 yrel1) (object-pos object3 x7 y4) (parked pr2)
   + (not-pushed cart) (not-pushing pr2)
(get-down pr2 x7 y5 xrel0 x7 yrel0 y5 object0 y6)
   (NOT-object-done object0) (base-pos pr2 x7 y5) (gripper-empty pr2) (gripper-rel pr2 xrel0 yrel0) (object-pos object0 x7 y6) (parked pr2)
   + (not-pushed cart) (not-pushing pr2)
(get-down pr2 x7 y5 xrel0 x7 yrel0 y5 object1 y6)
   (NOT-object-done object1) (base-pos pr2 x7 y5) (gripper-empty pr2) (gripper-rel pr2 xrel0 yrel0) (object-pos object1 x7 y6) (parked pr2)
   + (not-pushed cart) (not-pushing pr2)
(get-down pr2 x7 y5 xrel0 x7 yrel0 y5 object2 y6)
   (NOT-object-done object2) (base-pos pr2 x7 y5) (gripper-empty pr2) (gripper-rel pr2 xrel0 yrel0) (object-pos object2 x7 y6) (parked pr2)
   + (not-pushed cart) (not-pushing pr2)
(get-down pr2 x7 y5 xrel0 x7 yrel0 y5 object3 y6)
   (NOT-object-done object3) (base-pos pr2 x7 y5) (gripper-empty pr2) (gripper-rel pr2 xrel0 yrel0) (object-pos object3 x7 y6) (parked pr2)
   + (not-pushed cart) (not-pushing pr2)
(get-down pr2 x8 y1 xrel-1 x7 yrel1 y2 object0 y3)
   (NOT-object-done object0) (base-pos pr2 x8 y1) (gripper-empty pr2) (gripper-rel pr2 xrel-1 yrel1) (object-pos object0 x7 y3) (parked pr2)
   + (not-pushed cart) (not-pushing pr2)
(get-down pr2 x8 y1 xrel-1 x7 yrel1 y2 object1 y3)
   (NOT-object-done object1) (base-pos pr2 x8 y1) (gripper-empty pr2) (gripper-rel pr2 xrel-1 yrel1) (object-pos object1 x7 y3) (parked pr2)
   + (not-pushed cart) (not-pushing pr2)
(get-down pr2 x8 y1 xrel-1 x7 yrel1 y2 object2 y3)
   (NOT-object-done object2) (base-pos pr2 x8 y1) (gripper-empty pr2) (gripper-rel pr2 xrel-1 yrel1) (object-pos object2 x7 y3) (parked pr2)
   + (not-pushed cart) (not-pushing pr2)
(get-down pr2 x8 y1 xrel-1 x7 yrel1 y2 object3 y3)
   (NOT-object-done object3) (base-pos pr2 x8 y1) (gripper-empty pr2) (gripper-rel pr2 xrel-1 yrel1) (object-pos object3 x7 y3) (parked pr2)
   + (not-pushed cart) (not-pushing pr2)
(get-down pr2 x8 y2 xrel-1 x7 yrel0 y2 object0 y3)
   (NOT-object-done object0) (base-pos pr2 x8 y2) (gripper-empty pr2) (gripper-rel pr2 xrel-1 yrel0) (object-pos object0 x7 y3) (parked pr2)
   + (not-pushed cart) (not-pushing pr2)
(get-down pr2 x8 y2 xrel-1 x7 yrel0 y2 object1 y3)
   (NOT-object-done object1) (base-pos pr2 x8 y2) (gripper-empty pr2) (gripper-rel pr2 xrel-1 yrel0) (object-pos object1 x7 y3) (parked pr2)
   + (not-pushed cart) (not-pushing pr2)
(get-down pr2 x8 y2 xrel-1 x7 yrel0 y2 object2 y3)
   (NOT-object-done object2) (base-pos pr2 x8 y2) (gripper-empty pr2) (gripper-rel pr2 xrel-1 yrel0) (object-pos object2 x7 y3) (parked pr2)
   + (not-pushed cart) (not-pushing pr2)
(get-down pr2 x8 y2 xrel-1 x7 yrel0 y2 object3 y3)
   (NOT-object-done object3) (base-pos pr2 x8 y2) (gripper-empty pr2) (gripper-rel pr2 xrel-1 yrel0) (object-pos object3 x7 y3) (parked pr2)
   + (not-pushed cart) (not-pushing pr2)
(get-down pr2 x8 y2 xrel-1 x7 yrel1 y3 object0 y4)
   (NOT-object-done object0) (base-pos pr2 x8 y2) (gripper-empty pr2) (gripper-rel pr2 xrel-1 yrel1) (object-pos object0 x7 y4) (parked pr2)
   + (not-pushed cart) (not-pushing pr2)
(get-down pr2 x8 y2 xrel-1 x7 yrel1 y3 object1 y4)
   (NOT-object-done object1) (base-pos pr2 x8 y2) (gripper-empty pr2) (gripper-rel pr2 xrel-1 yrel1) (object-pos object1 x7 y4) (parked pr2)
   + (not-pushed cart) (not-pushing pr2)
(get-down pr2 x8 y2 xrel-1 x7 yrel1 y3 object2 y4)
   (NOT-object-done object2) (base-pos pr2 x8 y2) (gripper-empty pr2) (gripper-rel pr2 xrel-1 yrel1) (object-pos object2 x7 y4) (parked pr2)
   + (not-pushed cart) (not-pushing pr2)
(get-down pr2 x8 y2 xrel-1 x7 yrel1 y3 object3 y4)
   (NOT-object-done object3) (base-pos pr2 x8 y2) (gripper-empty pr2) (gripper-rel pr2 xrel-1 yrel1) (object-pos object3 x7 y4) (parked pr2)
   + (not-pushed cart) (not-pushing pr2)
(get-down pr2 x8 y3 xrel-1 x7 yrel-1 y2 object0 y3)
   (NOT-object-done object0) (base-pos pr2 x8 y3) (gripper-empty pr2) (gripper-rel pr2 xrel-1 yrel-1) (object-pos object0 x7 y3) (parked pr2)
   + (not-pushed cart) (not-pushing pr2)
(get-down pr2 x8 y3 xrel-1 x7 yrel-1 y2 object1 y3)
   (NOT-object-done object1) (base-pos pr2 x8 y3) (gripper-empty pr2) (gripper-rel pr2 xrel-1 yrel-1) (object-pos object1 x7 y3) (parked pr2)
   + (not-pushed cart) (not-pushing pr2)
(get-down pr2 x8 y3 xrel-1 x7 yrel-1 y2 object2 y3)
   (NOT-object-done object2) (base-pos pr2 x8 y3) (gripper-empty pr2) (gripper-rel pr2 xrel-1 yrel-1) (object-pos object2 x7 y3) (parked pr2)
   + (not-pushed cart) (not-pushing pr2)
(get-down pr2 x8 y3 xrel-1 x7 yrel-1 y2 object3 y3)
   (NOT-object-done object3) (base-pos pr2 x8 y3) (gripper-empty pr2) (gripper-rel pr2 xrel-1 yrel-1) (object-pos object3 x7 y3) (parked pr2)
   + (not-pushed cart) (not-pushing pr2)
(get-down pr2 x8 y3 xrel-1 x7 yrel0 y3 object0 y4)
   (NOT-object-done object0) (base-pos pr2 x8 y3) (gripper-empty pr2) (gripper-rel pr2 xrel-1 yrel0) (object-pos object0 x7 y4) (parked pr2)
   + (not-pushed cart) (not-pushing pr2)
(get-down pr2 x8 y3 xrel-1 x7 yrel0 y3 object1 y4)
   (NOT-object-done object1) (base-pos pr2 x8 y3) (gripper-empty pr2) (gripper-rel pr2 xrel-1 yrel0) (object-pos object1 x7 y4) (parked pr2)
   + (not-pushed cart) (not-pushing pr2)
(get-down pr2 x8 y3 xrel-1 x7 yrel0 y3 object2 y4)
   (NOT-object-done object2) (base-pos pr2 x8 y3) (gripper-empty pr2) (gripper-rel pr2 xrel-1 yrel0) (object-pos object2 x7 y4) (parked pr2)
   + (not-pushed cart) (not-pushing pr2)
(get-down pr2 x8 y3 xrel-1 x7 yrel0 y3 object3 y4)
   (NOT-object-done object3) (base-pos pr2 x8 y3) (gripper-empty pr2) (gripper-rel pr2 xrel-1 yrel0) (object-pos object3 x7 y4) (parked pr2)
   + (not-pushed cart) (not-pushing pr2)
(get-down pr2 x8 y4 xrel-1 x7 yrel-1 y3 object0 y4)
   (NOT-object-done object0) (base-pos pr2 x8 y4) (gripper-empty pr2) (gripper-rel pr2 xrel-1 yrel-1) (object-pos object0 x7 y4) (parked pr2)
   + (not-pushed cart) (not-pushing pr2)
(get-down pr2 x8 y4 xrel-1 x7 yrel-1 y3 object1 y4)
   (NOT-object-done object1) (base-pos pr2 x8 y4) (gripper-empty pr2) (gripper-rel pr2 xrel-1 yrel-1) (object-pos object1 x7 y4) (parked pr2)
   + (not-pushed cart) (not-pushing pr2)
(get-down pr2 x8 y4 xrel-1 x7 yrel-1 y3 object2 y4)
   (NOT-object-done object2) (base-pos pr2 x8 y4) (gripper-empty pr2) (gripper-rel pr2 xrel-1 yrel-1) (object-pos object2 x7 y4) (parked pr2)
   + (not-pushed cart) (not-pushing pr2)
(get-down pr2 x8 y4 xrel-1 x7 yrel-1 y3 object3 y4)
   (NOT-object-done object3) (base-pos pr2 x8 y4) (gripper-empty pr2) (gripper-rel pr2 xrel-1 yrel-1) (object-pos object3 x7 y4) (parked pr2)
   + (not-pushed cart) (not-pushing pr2)
(get-down pr2 x8 y4 xrel-1 x7 yrel1 y5 object0 y6)
   (NOT-object-done object0) (base-pos pr2 x8 y4) (gripper-empty pr2) (gripper-rel pr2 xrel-1 yrel1) (object-pos object0 x7 y6) (parked pr2)
   + (not-pushed cart) (not-pushing pr2)
(get-down pr2 x8 y4 xrel-1 x7 yrel1 y5 object1 y6)
   (NOT-object-done object1) (base-pos pr2 x8 y4) (gripper-empty pr2) (gripper-rel pr2 xrel-1 yrel1) (object-pos object1 x7 y6) (parked pr2)
   + (not-pushed cart) (not-pushing pr2)
(get-down pr2 x8 y4 xrel-1 x7 yrel1 y5 object2 y6)
   (NOT-object-done object2) (base-pos pr2 x8 y4) (gripper-empty pr2) (gripper-rel pr2 xrel-1 yrel1) (object-pos object2 x7 y6) (parked pr2)
   + (not-pushed cart) (not-pushing pr2)
(get-down pr2 x8 y4 xrel-1 x7 yrel1 y5 object3 y6)
   (NOT-object-done object3) (base-pos pr2 x8 y4) (gripper-empty pr2) (gripper-rel pr2 xrel-1 yrel1) (object-pos object3 x7 y6) (parked pr2)
   + (not-pushed cart) (not-pushing pr2)
(get-down pr2 x8 y5 xrel-1 x7 yrel0 y5 object0 y6)
   (NOT-object-done object0) (base-pos pr2 x8 y5) (gripper-empty pr2) (gripper-rel pr2 xrel-1 yrel0) (object-pos object0 x7 y6) (parked pr2)
   + (not-pushed cart) (not-pushing pr2)
(get-down pr2 x8 y5 xrel-1 x7 yrel0 y5 object1 y6)
   (NOT-object-done object1) (base-pos pr2 x8 y5) (gripper-empty pr2) (gripper-rel pr2 xrel-1 yrel0) (object-pos object1 x7 y6) (parked pr2)
   + (not-pushed cart) (not-pushing pr2)
(get-down pr2 x8 y5 xrel-1 x7 yrel0 y5 object2 y6)
   (NOT-object-done object2) (base-pos pr2 x8 y5) (gripper-empty pr2) (gripper-rel pr2 xrel-1 yrel0) (object-pos object2 x7 y6) (parked pr2)
   + (not-pushed cart) (not-pushing pr2)
(get-down pr2 x8 y5 xrel-1 x7 yrel0 y5 object3 y6)
   (NOT-object-done object3) (base-pos pr2 x8 y5) (gripper-empty pr2) (gripper-rel pr2 xrel-1 yrel0) (object-pos object3 x7 y6) (parked pr2)
   + (not-pushed cart) (not-pushing pr2)
(get-down pr2 x8 y6 xrel-1 x7 yrel-1 y5 object0 y6)
   (NOT-object-done object0) (base-pos pr2 x8 y6) (gripper-empty pr2) (gripper-rel pr2 xrel-1 yrel-1) (object-pos object0 x7 y6) (parked pr2)
   + (not-pushed cart) (not-pushing pr2)
(get-down pr2 x8 y6 xrel-1 x7 yrel-1 y5 object1 y6)
   (NOT-object-done object1) (base-pos pr2 x8 y6) (gripper-empty pr2) (gripper-rel pr2 xrel-1 yrel-1) (object-pos object1 x7 y6) (parked pr2)
   + (not-pushed cart) (not-pushing pr2)
(get-down pr2 x8 y6 xrel-1 x7 yrel-1 y5 object2 y6)
   (NOT-object-done object2) (base-pos pr2 x8 y6) (gripper-empty pr2) (gripper-rel pr2 xrel-1 yrel-1) (object-pos object2 x7 y6) (parked pr2)
   + (not-pushed cart) (not-pushing pr2)
(get-down pr2 x8 y6 xrel-1 x7 yrel-1 y5 object3 y6)
   (NOT-object-done object3) (base-pos pr2 x8 y6) (gripper-empty pr2) (gripper-rel pr2 xrel-1 yrel-1) (object-pos object3 x7 y6) (parked pr2)
   + (not-pushed cart) (not-pushing pr2)
(get-from-cart pr2 x0 y0 xrel0 yrel1 object0 cart x0 y1)
   (base-pos pr2 x0 y0) (cart-pos cart x0 y1) (gripper-empty pr2) (gripper-rel pr2 xrel0 yrel1) (on-cart object0 cart) (parked pr2)
   + (NOT-object-done object0) (not-pushed cart) (not-pushing pr2)
(get-from-cart pr2 x0 y0 xrel0 yrel1 object1 cart x0 y1)
   (base-pos pr2 x0 y0) (cart-pos cart x0 y1) (gripper-empty pr2) (gripper-rel pr2 xrel0 yrel1) (on-cart object1 cart) (parked pr2)
   + (NOT-object-done object1) (not-pushed cart) (not-pushing pr2)
(get-from-cart pr2 x0 y0 xrel0 yrel1 object2 cart x0 y1)
   (base-pos pr2 x0 y0) (cart-pos cart x0 y1) (gripper-empty pr2) (gripper-rel pr2 xrel0 yrel1) (on-cart object2 cart) (parked pr2)
   + (NOT-object-done object2) (not-pushed cart) (not-pushing pr2)
(get-from-cart pr2 x0 y0 xrel0 yrel1 object3 cart x0 y1)
   (base-pos pr2 x0 y0) (cart-pos cart x0 y1) (gripper-empty pr2) (gripper-rel pr2 xrel0 yrel1) (on-cart object3 cart) (parked pr2)
   + (NOT-object-done object3) (not-pushed cart) (not-pushing pr2)
(get-from-cart pr2 x0 y2 xrel0 yrel-1 object0 cart x0 y1)
   (base-pos pr2 x0 y2) (cart-pos cart x0 y1) (gripper-empty pr2) (gripper-rel pr2 xrel0 yrel-1) (on-cart object0 cart) (parked pr2)
   + (NOT-object-done object0) (not-pushed cart) (not-pushing pr2)
(get-from-cart pr2 x0 y2 xrel0 yrel-1 object1 cart x0 y1)
   (base-pos pr2 x0 y2) (cart-pos cart x0 y1) (gripper-empty pr2) (gripper-rel pr2 xrel0 yrel-1) (on-cart object1 cart) (parked pr2)
   + (NOT-object-done object1) (not-pushed cart) (not-pushing pr2)
(get-from-cart pr2 x0 y2 xrel0 yrel-1 object2 cart x0 y1)
   (base-pos pr2 x0 y2) (cart-pos cart x0 y1) (gripper-empty pr2) (gripper-rel pr2 xrel0 yrel-1) (on-cart object2 cart) (parked pr2)
   + (NOT-object-done object2) (not-pushed cart) (not-pushing pr2)
(get-from-cart pr2 x0 y2 xrel0 yrel-1 object3 cart x0 y1)
   (base-pos pr2 x0 y2) (cart-pos cart x0 y1) (gripper-empty pr2) (gripper-rel pr2 xrel0 yrel-1) (on-cart object3 cart) (parked pr2)
   + (NOT-object-done object3) (not-pushed cart) (not-pushing pr2)
(get-from-cart pr2 x1 y0 xrel-1 yrel1 object0 cart x0 y1)
   (base-pos pr2 x1 y0) (cart-pos cart x0 y1) (gripper-empty pr2) (gripper-rel pr2 xrel-1 yrel1) (on-cart object0 cart) (parked pr2)
   + (NOT-object-done object0) (not-pushed cart) (not-pushing pr2)
(get-from-cart pr2 x1 y0 xrel-1 yrel1 object1 cart x0 y1)
   (base-pos pr2 x1 y0) (cart-pos cart x0 y1) (gripper-empty pr2) (gripper-rel pr2 xrel-1 yrel1) (on-cart object1 cart) (parked pr2)
   + (NOT-object-done object1) (not-pushed cart) (not-pushing pr2)
(get-from-cart pr2 x1 y0 xrel-1 yrel1 object2 cart x0 y1)
   (base-pos pr2 x1 y0) (cart-pos cart x0 y1) (gripper-empty pr2) (gripper-rel pr2 xrel-1 yrel1) (on-cart object2 cart) (parked pr2)
   + (NOT-object-done object2) (not-pushed cart) (not-pushing pr2)
(get-from-cart pr2 x1 y0 xrel-1 yrel1 object3 cart x0 y1)
   (base-pos pr2 x1 y0) (cart-pos cart x0 y1) (gripper-empty pr2) (gripper-rel pr2 xrel-1 yrel1) (on-cart object3 cart) (parked pr2)
   + (NOT-object-done object3) (not-pushed cart) (not-pushing pr2)
(get-left pr2 x1 y0 xrel1 x2 yrel1 y1 object0 x1)
   (NOT-object-done object0) (base-pos pr2 x1 y0) (gripper-empty pr2) (gripper-rel pr2 xrel1 yrel1) (object-pos object0 x1 y1) (parked pr2)
   + (not-pushed cart) (not-pushing pr2)
(get-left pr2 x1 y0 xrel1 x2 yrel1 y1 object1 x1)
   (NOT-object-done object1) (base-pos pr2 x1 y0) (gripper-empty pr2) (gripper-rel pr2 xrel1 yrel1) (object-pos object1 x1 y1) (parked pr2)
   + (not-pushed cart) (not-pushing pr2)
(get-left pr2 x1 y0 xrel1 x2 yrel1 y1 object2 x1)
   (NOT-object-done object2) (base-pos pr2 x1 y0) (gripper-empty pr2) (gripper-rel pr2 xrel1 yrel1) (object-pos object2 x1 y1) (parked pr2)
   + (not-pushed cart) (not-pushing pr2)
(get-left pr2 x1 y0 xrel1 x2 yrel1 y1 object3 x1)
   (NOT-object-done object3) (base-pos pr2 x1 y0) (gripper-empty pr2) (gripper-rel pr2 xrel1 yrel1) (object-pos object3 x1 y1) (parked pr2)
   + (not-pushed cart) (not-pushing pr2)
(get-left pr2 x1 y3 xrel1 x2 yrel-1 y2 object0 x1)
   (NOT-object-done object0) (base-pos pr2 x1 y3) (gripper-empty pr2) (gripper-rel pr2 xrel1 yrel-1) (object-pos object0 x1 y2) (parked pr2)
   + (not-pushed cart) (not-pushing pr2)
(get-left pr2 x1 y3 xrel1 x2 yrel-1 y2 object1 x1)
   (NOT-object-done object1) (base-pos pr2 x1 y3) (gripper-empty pr2) (gripper-rel pr2 xrel1 yrel-1) (object-pos object1 x1 y2) (parked pr2)
   + (not-pushed cart) (not-pushing pr2)
(get-left pr2 x1 y3 xrel1 x2 yrel-1 y2 object2 x1)
   (NOT-object-done object2) (base-pos pr2 x1 y3) (gripper-empty pr2) (gripper-rel pr2 xrel1 yrel-1) (object-pos object2 x1 y2) (parked pr2)
   + (not-pushed cart) (not-pushing pr2)
