RSE-Invertible facts:
0:(available b0) in-fam-group
1:(available b1) in-fam-group
13:(empty highspeed-saw0) in-fam-group
14:(in-highspeed-saw b0 highspeed-saw0) in-fam-group
15:(in-highspeed-saw b1 highspeed-saw0) in-fam-group
17:(surface-condition p0 smooth) in-fam-group
18:(surface-condition p0 verysmooth) in-fam-group
20:(surface-condition p1 smooth) in-fam-group
21:(surface-condition p1 verysmooth) in-fam-group
22:(surface-condition p2 smooth) in-fam-group
23:(surface-condition p2 verysmooth) in-fam-group
