< {at-segment airplane_cfbeg C0:segment, at-segment airplane_cfbeg C1:segment}
, {facing airplane_cfbeg C0:direction, facing airplane_cfbeg C1:direction}:=1
, {at-segment airplane_cfbeg V0:segment, not_occupied V0:segment}:=1
, {at-segment airplane_cfbeg C0:segment, airborne airplane_cfbeg C1:segment, at-segment airplane_cfbeg C2:segment, airborne airplane_cfbeg C3:segment}:=1
, {is-moving airplane_cfbeg, is-pushing airplane_cfbeg}
, {airborne airplane_cfbeg C0:segment, is-moving airplane_cfbeg, is-pushing airplane_cfbeg, airborne airplane_cfbeg C1:segment}
, {is-moving airplane_cfbeg, is-pushing airplane_cfbeg, is-parked airplane_cfbeg V0:segment}
, {is-moving airplane_cfbeg, is-pushing airplane_cfbeg, is-parked airplane_cfbeg C0:segment, is-parked airplane_cfbeg C1:segment}
, {airborne airplane_cfbeg V0:segment, is-moving airplane_cfbeg, is-pushing airplane_cfbeg, is-parked airplane_cfbeg V1:segment}
, {airborne airplane_cfbeg V0:segment, is-moving airplane_cfbeg, is-pushing airplane_cfbeg, is-parked airplane_cfbeg C1:segment, is-parked airplane_cfbeg C2:segment}
, {airborne airplane_cfbeg C0:segment, is-moving airplane_cfbeg, is-pushing airplane_cfbeg, is-parked airplane_cfbeg C1:segment, airborne airplane_cfbeg C2:segment, is-parked airplane_cfbeg C3:segment}:=1
, {airborne airplane_cfbeg C1:segment, is-moving airplane_cfbeg, is-pushing airplane_cfbeg, is-parked airplane_cfbeg V0:segment, airborne airplane_cfbeg C2:segment}
>
