Monotonicity invariants:
< {shaker-level V0:shaker C1:level}
, {ontable V0:container, holding C1:hand V0:container}
, {holding V0:hand C1:container, handempty V0:hand}
, {empty V0:shaker, unshaked V0:shaker, shaked V0:shaker}
, {empty V0:shaker, unshaked V0:shaker, shaked V1:shaker}
, {empty V0:shaker, unshaked V0:shaker, shaked C1:shaker}
, {empty V0:shaker, unshaked C1:shaker, shaked V0:shaker}
>
FD Mutex Groups:
< {shaker-level shaker1 C0:level}:=1
, {ontable V0:container, holding C1:hand V0:container}:=1
, {holding V0:hand C1:container, handempty V0:hand}:=1
, {empty shaker1, unshaked shaker1, shaked shaker1}:=1
>
