Goal:
   (on b2 a3) (on b5 a2)
   + (not-occupied ta1-1-gasoleo) (not-occupied ta1-1-oca1) (not-occupied ta2-1-gasoleo) (not-occupied ta3-1-oca1) (occupied ta2-1-oca1) (occupied ta3-1-gasoleo)
(pop-unitarypipe s12 b0 a1 a2 b1 oc1b lco ta1-1-lco ta2-1-oc1b)
   (first b1 s12) (not-occupied ta1-1-lco) (occupied ta2-1-oc1b) (on b0 a2)
   + (not-occupied ta1-1-oc1b) (not-occupied ta3-1-lco) (not-occupied ta3-1-oc1b) (occupied ta2-1-lco) (on b4 a2)
(pop-unitarypipe s12 b0 a1 a2 b2 oc1b gasoleo ta1-1-gasoleo ta2-1-oc1b)
   (first b2 s12) (not-occupied ta1-1-gasoleo) (occupied ta2-1-oc1b) (on b0 a2)
   + (not-occupied ta1-1-oc1b) (not-occupied ta2-1-gasoleo) (not-occupied ta3-1-gasoleo) (not-occupied ta3-1-oc1b)
(pop-unitarypipe s12 b0 a1 a2 b4 oc1b lco ta1-1-lco ta2-1-oc1b)
   (first b4 s12) (not-occupied ta1-1-lco) (occupied ta2-1-oc1b) (on b0 a2)
   + (not-occupied ta1-1-oc1b) (not-occupied ta2-1-lco) (not-occupied ta3-1-oc1b)
(pop-unitarypipe s12 b0 a1 a2 b5 oc1b oca1 ta1-1-oca1 ta2-1-oc1b)
   (first b5 s12) (not-occupied ta1-1-oca1) (occupied ta2-1-oc1b) (on b0 a2)
   + (not-occupied ta1-1-oc1b) (not-occupied ta2-1-oca1) (not-occupied ta3-1-oc1b) (not-occupied ta3-1-oca1)
(pop-unitarypipe s12 b2 a1 a2 b0 gasoleo oc1b ta1-1-oc1b ta2-1-gasoleo)
   (first b0 s12) (not-occupied ta1-1-oc1b) (occupied ta2-1-gasoleo) (on b2 a2)
   + (not-occupied ta1-1-gasoleo) (not-occupied ta2-1-oc1b) (not-occupied ta3-1-gasoleo) (not-occupied ta3-1-oc1b)
(pop-unitarypipe s12 b2 a1 a2 b1 gasoleo lco ta1-1-lco ta2-1-gasoleo)
   (first b1 s12) (not-occupied ta1-1-lco) (occupied ta2-1-gasoleo) (on b2 a2)
   + (not-occupied ta1-1-gasoleo) (not-occupied ta3-1-gasoleo) (not-occupied ta3-1-lco) (occupied ta2-1-lco) (on b4 a2)
(pop-unitarypipe s12 b2 a1 a2 b3 gasoleo rat-a ta1-1-rat-a ta2-1-gasoleo)
   (first b3 s12) (not-occupied ta1-1-rat-a) (occupied ta2-1-gasoleo) (on b2 a2)
   + (not-occupied ta1-1-gasoleo) (not-occupied ta2-1-rat-a) (not-occupied ta3-1-gasoleo) (not-occupied ta3-1-rat-a)
(pop-unitarypipe s12 b2 a1 a2 b4 gasoleo lco ta1-1-lco ta2-1-gasoleo)
   (first b4 s12) (not-occupied ta1-1-lco) (occupied ta2-1-gasoleo) (on b2 a2)
   + (not-occupied ta1-1-gasoleo) (not-occupied ta2-1-lco) (not-occupied ta3-1-gasoleo)
(pop-unitarypipe s12 b2 a1 a2 b5 gasoleo oca1 ta1-1-oca1 ta2-1-gasoleo)
   (first b5 s12) (not-occupied ta1-1-oca1) (occupied ta2-1-gasoleo) (on b2 a2)
   + (not-occupied ta1-1-gasoleo) (not-occupied ta2-1-oca1) (not-occupied ta3-1-gasoleo) (not-occupied ta3-1-oca1)
(pop-unitarypipe s12 b3 a1 a2 b1 rat-a lco ta1-1-lco ta2-1-rat-a)
   (first b1 s12) (not-occupied ta1-1-lco) (occupied ta2-1-rat-a) (on b3 a2)
   + (not-occupied ta1-1-rat-a) (not-occupied ta3-1-lco) (not-occupied ta3-1-rat-a) (occupied ta2-1-lco) (on b4 a2)
(pop-unitarypipe s12 b3 a1 a2 b2 rat-a gasoleo ta1-1-gasoleo ta2-1-rat-a)
   (first b2 s12) (not-occupied ta1-1-gasoleo) (occupied ta2-1-rat-a) (on b3 a2)
   + (not-occupied ta1-1-rat-a) (not-occupied ta2-1-gasoleo) (not-occupied ta3-1-gasoleo) (not-occupied ta3-1-rat-a)
(pop-unitarypipe s12 b3 a1 a2 b4 rat-a lco ta1-1-lco ta2-1-rat-a)
   (first b4 s12) (not-occupied ta1-1-lco) (occupied ta2-1-rat-a) (on b3 a2)
   + (not-occupied ta1-1-rat-a) (not-occupied ta2-1-lco) (not-occupied ta3-1-rat-a)
(pop-unitarypipe s12 b4 a1 a2 b0 lco oc1b ta1-1-oc1b ta2-1-lco)
   (first b0 s12) (not-occupied ta1-1-oc1b) (occupied ta2-1-lco) (on b4 a2)
   + (not-occupied ta2-1-oc1b) (not-occupied ta3-1-oc1b)
(pop-unitarypipe s12 b4 a1 a2 b1 lco lco ta1-1-lco ta2-1-lco)
   (first b1 s12) (not-occupied ta1-1-lco) (occupied ta2-1-lco) (on b4 a2)
   + (not-occupied ta3-1-lco)
(pop-unitarypipe s12 b4 a1 a2 b2 lco gasoleo ta1-1-gasoleo ta2-1-lco)
   (first b2 s12) (not-occupied ta1-1-gasoleo) (occupied ta2-1-lco) (on b4 a2)
   + (not-occupied ta2-1-gasoleo) (not-occupied ta3-1-gasoleo)
(pop-unitarypipe s12 b4 a1 a2 b3 lco rat-a ta1-1-rat-a ta2-1-lco)
   (first b3 s12) (not-occupied ta1-1-rat-a) (occupied ta2-1-lco) (on b4 a2)
   + (not-occupied ta2-1-rat-a) (not-occupied ta3-1-rat-a)
(pop-unitarypipe s12 b4 a1 a2 b5 lco oca1 ta1-1-oca1 ta2-1-lco)
   (first b5 s12) (not-occupied ta1-1-oca1) (occupied ta2-1-lco) (on b4 a2)
   + (not-occupied ta2-1-oca1) (not-occupied ta3-1-oca1)
(pop-unitarypipe s12 b5 a1 a2 b0 oca1 oc1b ta1-1-oc1b ta2-1-oca1)
   (first b0 s12) (not-occupied ta1-1-oc1b) (occupied ta2-1-oca1) (on b5 a2)
   + (not-occupied ta1-1-oca1) (not-occupied ta2-1-oc1b) (not-occupied ta3-1-oc1b) (not-occupied ta3-1-oca1)
(pop-unitarypipe s12 b5 a1 a2 b1 oca1 lco ta1-1-lco ta2-1-oca1)
   (first b1 s12) (not-occupied ta1-1-lco) (occupied ta2-1-oca1) (on b5 a2)
   + (not-occupied ta1-1-oca1) (not-occupied ta3-1-lco) (not-occupied ta3-1-oca1) (occupied ta2-1-lco) (on b4 a2)
(pop-unitarypipe s12 b5 a1 a2 b2 oca1 gasoleo ta1-1-gasoleo ta2-1-oca1)
   (first b2 s12) (not-occupied ta1-1-gasoleo) (occupied ta2-1-oca1) (on b5 a2)
   + (not-occupied ta1-1-oca1) (not-occupied ta2-1-gasoleo) (not-occupied ta3-1-gasoleo) (not-occupied ta3-1-oca1)
(pop-unitarypipe s12 b5 a1 a2 b4 oca1 lco ta1-1-lco ta2-1-oca1)
   (first b4 s12) (not-occupied ta1-1-lco) (occupied ta2-1-oca1) (on b5 a2)
   + (not-occupied ta1-1-oca1) (not-occupied ta2-1-lco) (not-occupied ta3-1-oca1)
(pop-unitarypipe s13 b0 a1 a3 b1 oc1b lco ta1-1-lco ta3-1-oc1b)
   (first b1 s13) (not-occupied ta1-1-lco) (occupied ta3-1-oc1b) (on b0 a3)
   + (not-occupied ta1-1-oc1b) (not-occupied ta2-1-oc1b) (not-occupied ta3-1-lco)
(pop-unitarypipe s13 b0 a1 a3 b2 oc1b gasoleo ta1-1-gasoleo ta3-1-oc1b)
   (first b2 s13) (not-occupied ta1-1-gasoleo) (occupied ta3-1-oc1b) (on b0 a3)
   + (not-occupied ta1-1-oc1b) (not-occupied ta2-1-gasoleo) (not-occupied ta2-1-oc1b) (not-occupied ta3-1-gasoleo)
(pop-unitarypipe s13 b0 a1 a3 b4 oc1b lco ta1-1-lco ta3-1-oc1b)
   (first b4 s13) (not-occupied ta1-1-lco) (occupied ta3-1-oc1b) (on b0 a3)
   + (not-occupied ta1-1-oc1b) (not-occupied ta2-1-lco) (not-occupied ta2-1-oc1b) (occupied ta3-1-lco) (on b1 a3)
(pop-unitarypipe s13 b0 a1 a3 b5 oc1b oca1 ta1-1-oca1 ta3-1-oc1b)
   (first b5 s13) (not-occupied ta1-1-oca1) (occupied ta3-1-oc1b) (on b0 a3)
   + (not-occupied ta1-1-oc1b) (not-occupied ta2-1-oc1b) (not-occupied ta2-1-oca1) (not-occupied ta3-1-oca1)
(pop-unitarypipe s13 b1 a1 a3 b0 lco oc1b ta1-1-oc1b ta3-1-lco)
   (first b0 s13) (not-occupied ta1-1-oc1b) (occupied ta3-1-lco) (on b1 a3)
   + (not-occupied ta2-1-oc1b) (not-occupied ta3-1-oc1b)
(pop-unitarypipe s13 b1 a1 a3 b2 lco gasoleo ta1-1-gasoleo ta3-1-lco)
   (first b2 s13) (not-occupied ta1-1-gasoleo) (occupied ta3-1-lco) (on b1 a3)
   + (not-occupied ta2-1-gasoleo) (not-occupied ta3-1-gasoleo)
(pop-unitarypipe s13 b1 a1 a3 b3 lco rat-a ta1-1-rat-a ta3-1-lco)
   (first b3 s13) (not-occupied ta1-1-rat-a) (occupied ta3-1-lco) (on b1 a3)
   + (not-occupied ta2-1-rat-a) (not-occupied ta3-1-rat-a)
(pop-unitarypipe s13 b1 a1 a3 b4 lco lco ta1-1-lco ta3-1-lco)
   (first b4 s13) (not-occupied ta1-1-lco) (occupied ta3-1-lco) (on b1 a3)
   + (not-occupied ta2-1-lco)
(pop-unitarypipe s13 b1 a1 a3 b5 lco oca1 ta1-1-oca1 ta3-1-lco)
   (first b5 s13) (not-occupied ta1-1-oca1) (occupied ta3-1-lco) (on b1 a3)
   + (not-occupied ta2-1-oca1) (not-occupied ta3-1-oca1)
(pop-unitarypipe s13 b2 a1 a3 b0 gasoleo oc1b ta1-1-oc1b ta3-1-gasoleo)
   (first b0 s13) (not-occupied ta1-1-oc1b) (occupied ta3-1-gasoleo) (on b2 a3)
   + (not-occupied ta1-1-gasoleo) (not-occupied ta2-1-gasoleo) (not-occupied ta2-1-oc1b) (not-occupied ta3-1-oc1b)
(pop-unitarypipe s13 b2 a1 a3 b1 gasoleo lco ta1-1-lco ta3-1-gasoleo)
   (first b1 s13) (not-occupied ta1-1-lco) (occupied ta3-1-gasoleo) (on b2 a3)
   + (not-occupied ta1-1-gasoleo) (not-occupied ta2-1-gasoleo) (not-occupied ta3-1-lco)
(pop-unitarypipe s13 b2 a1 a3 b3 gasoleo rat-a ta1-1-rat-a ta3-1-gasoleo)
   (first b3 s13) (not-occupied ta1-1-rat-a) (occupied ta3-1-gasoleo) (on b2 a3)
   + (not-occupied ta1-1-gasoleo) (not-occupied ta2-1-gasoleo) (not-occupied ta2-1-rat-a) (not-occupied ta3-1-rat-a)
(pop-unitarypipe s13 b2 a1 a3 b4 gasoleo lco ta1-1-lco ta3-1-gasoleo)
   (first b4 s13) (not-occupied ta1-1-lco) (occupied ta3-1-gasoleo) (on b2 a3)
   + (not-occupied ta1-1-gasoleo) (not-occupied ta2-1-gasoleo) (not-occupied ta2-1-lco) (occupied ta3-1-lco) (on b1 a3)
(pop-unitarypipe s13 b2 a1 a3 b5 gasoleo oca1 ta1-1-oca1 ta3-1-gasoleo)
   (first b5 s13) (not-occupied ta1-1-oca1) (occupied ta3-1-gasoleo) (on b2 a3)
   + (not-occupied ta1-1-gasoleo) (not-occupied ta2-1-gasoleo) (not-occupied ta2-1-oca1) (not-occupied ta3-1-oca1)
(pop-unitarypipe s13 b3 a1 a3 b1 rat-a lco ta1-1-lco ta3-1-rat-a)
   (first b1 s13) (not-occupied ta1-1-lco) (occupied ta3-1-rat-a) (on b3 a3)
   + (not-occupied ta1-1-rat-a) (not-occupied ta2-1-rat-a) (not-occupied ta3-1-lco)
(pop-unitarypipe s13 b3 a1 a3 b2 rat-a gasoleo ta1-1-gasoleo ta3-1-rat-a)
   (first b2 s13) (not-occupied ta1-1-gasoleo) (occupied ta3-1-rat-a) (on b3 a3)
   + (not-occupied ta1-1-rat-a) (not-occupied ta2-1-gasoleo) (not-occupied ta2-1-rat-a) (not-occupied ta3-1-gasoleo)
(pop-unitarypipe s13 b3 a1 a3 b4 rat-a lco ta1-1-lco ta3-1-rat-a)
   (first b4 s13) (not-occupied ta1-1-lco) (occupied ta3-1-rat-a) (on b3 a3)
   + (not-occupied ta1-1-rat-a) (not-occupied ta2-1-lco) (not-occupied ta2-1-rat-a) (occupied ta3-1-lco) (on b1 a3)
(pop-unitarypipe s13 b5 a1 a3 b0 oca1 oc1b ta1-1-oc1b ta3-1-oca1)
   (first b0 s13) (not-occupied ta1-1-oc1b) (occupied ta3-1-oca1) (on b5 a3)
   + (not-occupied ta1-1-oca1) (not-occupied ta2-1-oc1b) (not-occupied ta2-1-oca1) (not-occupied ta3-1-oc1b)
(pop-unitarypipe s13 b5 a1 a3 b1 oca1 lco ta1-1-lco ta3-1-oca1)
   (first b1 s13) (not-occupied ta1-1-lco) (occupied ta3-1-oca1) (on b5 a3)
   + (not-occupied ta1-1-oca1) (not-occupied ta2-1-oca1) (not-occupied ta3-1-lco)
(pop-unitarypipe s13 b5 a1 a3 b2 oca1 gasoleo ta1-1-gasoleo ta3-1-oca1)
   (first b2 s13) (not-occupied ta1-1-gasoleo) (occupied ta3-1-oca1) (on b5 a3)
   + (not-occupied ta1-1-oca1) (not-occupied ta2-1-gasoleo) (not-occupied ta2-1-oca1) (not-occupied ta3-1-gasoleo)
(pop-unitarypipe s13 b5 a1 a3 b4 oca1 lco ta1-1-lco ta3-1-oca1)
   (first b4 s13) (not-occupied ta1-1-lco) (occupied ta3-1-oca1) (on b5 a3)
   + (not-occupied ta1-1-oca1) (not-occupied ta2-1-lco) (not-occupied ta2-1-oca1) (occupied ta3-1-lco) (on b1 a3)
(push-unitarypipe s12 b0 a1 a2 b2 oc1b gasoleo ta1-1-oc1b ta2-1-gasoleo)
   (first b2 s12) (not-occupied ta2-1-gasoleo) (occupied ta1-1-oc1b) (on b0 a1)
   + (not-occupied ta1-1-gasoleo) (not-occupied ta2-1-oc1b) (not-occupied ta3-1-gasoleo) (not-occupied ta3-1-oc1b)
(push-unitarypipe s12 b0 a1 a2 b4 oc1b lco ta1-1-oc1b ta2-1-lco)
   (first b4 s12) (not-occupied ta2-1-lco) (occupied ta1-1-oc1b) (on b0 a1)
   + (not-occupied ta2-1-oc1b) (not-occupied ta3-1-oc1b)
(push-unitarypipe s12 b0 a1 a2 b5 oc1b oca1 ta1-1-oc1b ta2-1-oca1)
   (first b5 s12) (not-occupied ta2-1-oca1) (occupied ta1-1-oc1b) (on b0 a1)
   + (not-occupied ta1-1-oca1) (not-occupied ta2-1-oc1b) (not-occupied ta3-1-oc1b) (not-occupied ta3-1-oca1)
(push-unitarypipe s12 b1 a1 a2 b0 lco oc1b ta1-1-lco ta2-1-oc1b)
   (first b0 s12) (not-occupied ta2-1-oc1b) (occupied ta1-1-lco) (on b1 a1)
   + (not-occupied ta1-1-oc1b) (not-occupied ta3-1-lco) (not-occupied ta3-1-oc1b) (occupied ta2-1-lco) (on b4 a2)
(push-unitarypipe s12 b1 a1 a2 b2 lco gasoleo ta1-1-lco ta2-1-gasoleo)
   (first b2 s12) (not-occupied ta2-1-gasoleo) (occupied ta1-1-lco) (on b1 a1)
   + (not-occupied ta1-1-gasoleo) (not-occupied ta3-1-gasoleo) (not-occupied ta3-1-lco) (occupied ta2-1-lco) (on b4 a2)
(push-unitarypipe s12 b1 a1 a2 b3 lco rat-a ta1-1-lco ta2-1-rat-a)
   (first b3 s12) (not-occupied ta2-1-rat-a) (occupied ta1-1-lco) (on b1 a1)
   + (not-occupied ta1-1-rat-a) (not-occupied ta3-1-lco) (not-occupied ta3-1-rat-a) (occupied ta2-1-lco) (on b4 a2)
(push-unitarypipe s12 b1 a1 a2 b4 lco lco ta1-1-lco ta2-1-lco)
   (first b4 s12) (not-occupied ta2-1-lco) (occupied ta1-1-lco) (on b1 a1)
   + (not-occupied ta3-1-lco)
(push-unitarypipe s12 b1 a1 a2 b5 lco oca1 ta1-1-lco ta2-1-oca1)
   (first b5 s12) (not-occupied ta2-1-oca1) (occupied ta1-1-lco) (on b1 a1)
   + (not-occupied ta1-1-oca1) (not-occupied ta3-1-lco) (not-occupied ta3-1-oca1) (occupied ta2-1-lco) (on b4 a2)
(push-unitarypipe s12 b2 a1 a2 b0 gasoleo oc1b ta1-1-gasoleo ta2-1-oc1b)
   (first b0 s12) (not-occupied ta2-1-oc1b) (occupied ta1-1-gasoleo) (on b2 a1)
   + (not-occupied ta1-1-oc1b) (not-occupied ta2-1-gasoleo) (not-occupied ta3-1-gasoleo) (not-occupied ta3-1-oc1b)
(push-unitarypipe s12 b2 a1 a2 b3 gasoleo rat-a ta1-1-gasoleo ta2-1-rat-a)
   (first b3 s12) (not-occupied ta2-1-rat-a) (occupied ta1-1-gasoleo) (on b2 a1)
   + (not-occupied ta1-1-rat-a) (not-occupied ta2-1-gasoleo) (not-occupied ta3-1-gasoleo) (not-occupied ta3-1-rat-a)
(push-unitarypipe s12 b2 a1 a2 b4 gasoleo lco ta1-1-gasoleo ta2-1-lco)
   (first b4 s12) (not-occupied ta2-1-lco) (occupied ta1-1-gasoleo) (on b2 a1)
   + (not-occupied ta2-1-gasoleo) (not-occupied ta3-1-gasoleo)
(push-unitarypipe s12 b2 a1 a2 b5 gasoleo oca1 ta1-1-gasoleo ta2-1-oca1)
   (first b5 s12) (not-occupied ta2-1-oca1) (occupied ta1-1-gasoleo) (on b2 a1)
   + (not-occupied ta1-1-oca1) (not-occupied ta2-1-gasoleo) (not-occupied ta3-1-gasoleo) (not-occupied ta3-1-oca1)
(push-unitarypipe s12 b3 a1 a2 b2 rat-a gasoleo ta1-1-rat-a ta2-1-gasoleo)
   (first b2 s12) (not-occupied ta2-1-gasoleo) (occupied ta1-1-rat-a) (on b3 a1)
   + (not-occupied ta1-1-gasoleo) (not-occupied ta2-1-rat-a) (not-occupied ta3-1-gasoleo) (not-occupied ta3-1-rat-a)
(push-unitarypipe s12 b3 a1 a2 b4 rat-a lco ta1-1-rat-a ta2-1-lco)
   (first b4 s12) (not-occupied ta2-1-lco) (occupied ta1-1-rat-a) (on b3 a1)
   + (not-occupied ta2-1-rat-a) (not-occupied ta3-1-rat-a)
(push-unitarypipe s12 b4 a1 a2 b0 lco oc1b ta1-1-lco ta2-1-oc1b)
   (first b0 s12) (not-occupied ta2-1-oc1b) (occupied ta1-1-lco) (on b4 a1)
   + (not-occupied ta1-1-oc1b) (not-occupied ta2-1-lco) (not-occupied ta3-1-oc1b)
(push-unitarypipe s12 b4 a1 a2 b2 lco gasoleo ta1-1-lco ta2-1-gasoleo)
   (first b2 s12) (not-occupied ta2-1-gasoleo) (occupied ta1-1-lco) (on b4 a1)
   + (not-occupied ta1-1-gasoleo) (not-occupied ta2-1-lco) (not-occupied ta3-1-gasoleo)
(push-unitarypipe s12 b4 a1 a2 b3 lco rat-a ta1-1-lco ta2-1-rat-a)
   (first b3 s12) (not-occupied ta2-1-rat-a) (occupied ta1-1-lco) (on b4 a1)
   + (not-occupied ta1-1-rat-a) (not-occupied ta2-1-lco) (not-occupied ta3-1-rat-a)
(push-unitarypipe s12 b4 a1 a2 b5 lco oca1 ta1-1-lco ta2-1-oca1)
   (first b5 s12) (not-occupied ta2-1-oca1) (occupied ta1-1-lco) (on b4 a1)
   + (not-occupied ta1-1-oca1) (not-occupied ta2-1-lco) (not-occupied ta3-1-oca1)
(push-unitarypipe s12 b5 a1 a2 b0 oca1 oc1b ta1-1-oca1 ta2-1-oc1b)
   (first b0 s12) (not-occupied ta2-1-oc1b) (occupied ta1-1-oca1) (on b5 a1)
   + (not-occupied ta1-1-oc1b) (not-occupied ta2-1-oca1) (not-occupied ta3-1-oc1b) (not-occupied ta3-1-oca1)
(push-unitarypipe s12 b5 a1 a2 b2 oca1 gasoleo ta1-1-oca1 ta2-1-gasoleo)
   (first b2 s12) (not-occupied ta2-1-gasoleo) (occupied ta1-1-oca1) (on b5 a1)
   + (not-occupied ta1-1-gasoleo) (not-occupied ta2-1-oca1) (not-occupied ta3-1-gasoleo) (not-occupied ta3-1-oca1)
(push-unitarypipe s12 b5 a1 a2 b4 oca1 lco ta1-1-oca1 ta2-1-lco)
   (first b4 s12) (not-occupied ta2-1-lco) (occupied ta1-1-oca1) (on b5 a1)
   + (not-occupied ta2-1-oca1) (not-occupied ta3-1-oca1)
(push-unitarypipe s13 b0 a1 a3 b1 oc1b lco ta1-1-oc1b ta3-1-lco)
   (first b1 s13) (not-occupied ta3-1-lco) (occupied ta1-1-oc1b) (on b0 a1)
   + (not-occupied ta2-1-oc1b) (not-occupied ta3-1-oc1b)
(push-unitarypipe s13 b0 a1 a3 b2 oc1b gasoleo ta1-1-oc1b ta3-1-gasoleo)
   (first b2 s13) (not-occupied ta3-1-gasoleo) (occupied ta1-1-oc1b) (on b0 a1)
   + (not-occupied ta1-1-gasoleo) (not-occupied ta2-1-gasoleo) (not-occupied ta2-1-oc1b) (not-occupied ta3-1-oc1b)
(push-unitarypipe s13 b0 a1 a3 b5 oc1b oca1 ta1-1-oc1b ta3-1-oca1)
   (first b5 s13) (not-occupied ta3-1-oca1) (occupied ta1-1-oc1b) (on b0 a1)
   + (not-occupied ta1-1-oca1) (not-occupied ta2-1-oc1b) (not-occupied ta2-1-oca1) (not-occupied ta3-1-oc1b)
(push-unitarypipe s13 b1 a1 a3 b0 lco oc1b ta1-1-lco ta3-1-oc1b)
   (first b0 s13) (not-occupied ta3-1-oc1b) (occupied ta1-1-lco) (on b1 a1)
   + (not-occupied ta1-1-oc1b) (not-occupied ta2-1-oc1b) (not-occupied ta3-1-lco)
(push-unitarypipe s13 b1 a1 a3 b2 lco gasoleo ta1-1-lco ta3-1-gasoleo)
   (first b2 s13) (not-occupied ta3-1-gasoleo) (occupied ta1-1-lco) (on b1 a1)
   + (not-occupied ta1-1-gasoleo) (not-occupied ta2-1-gasoleo) (not-occupied ta3-1-lco)
(push-unitarypipe s13 b1 a1 a3 b3 lco rat-a ta1-1-lco ta3-1-rat-a)
   (first b3 s13) (not-occupied ta3-1-rat-a) (occupied ta1-1-lco) (on b1 a1)
   + (not-occupied ta1-1-rat-a) (not-occupied ta2-1-rat-a) (not-occupied ta3-1-lco)
(push-unitarypipe s13 b1 a1 a3 b5 lco oca1 ta1-1-lco ta3-1-oca1)
   (first b5 s13) (not-occupied ta3-1-oca1) (occupied ta1-1-lco) (on b1 a1)
   + (not-occupied ta1-1-oca1) (not-occupied ta2-1-oca1) (not-occupied ta3-1-lco)
(push-unitarypipe s13 b2 a1 a3 b0 gasoleo oc1b ta1-1-gasoleo ta3-1-oc1b)
   (first b0 s13) (not-occupied ta3-1-oc1b) (occupied ta1-1-gasoleo) (on b2 a1)
   + (not-occupied ta1-1-oc1b) (not-occupied ta2-1-gasoleo) (not-occupied ta2-1-oc1b) (not-occupied ta3-1-gasoleo)
(push-unitarypipe s13 b2 a1 a3 b1 gasoleo lco ta1-1-gasoleo ta3-1-lco)
   (first b1 s13) (not-occupied ta3-1-lco) (occupied ta1-1-gasoleo) (on b2 a1)
   + (not-occupied ta2-1-gasoleo) (not-occupied ta3-1-gasoleo)
(push-unitarypipe s13 b2 a1 a3 b3 gasoleo rat-a ta1-1-gasoleo ta3-1-rat-a)
   (first b3 s13) (not-occupied ta3-1-rat-a) (occupied ta1-1-gasoleo) (on b2 a1)
   + (not-occupied ta1-1-rat-a) (not-occupied ta2-1-gasoleo) (not-occupied ta2-1-rat-a) (not-occupied ta3-1-gasoleo)
(push-unitarypipe s13 b2 a1 a3 b5 gasoleo oca1 ta1-1-gasoleo ta3-1-oca1)
   (first b5 s13) (not-occupied ta3-1-oca1) (occupied ta1-1-gasoleo) (on b2 a1)
   + (not-occupied ta1-1-oca1) (not-occupied ta2-1-gasoleo) (not-occupied ta2-1-oca1) (not-occupied ta3-1-gasoleo)
(push-unitarypipe s13 b3 a1 a3 b1 rat-a lco ta1-1-rat-a ta3-1-lco)
   (first b1 s13) (not-occupied ta3-1-lco) (occupied ta1-1-rat-a) (on b3 a1)
   + (not-occupied ta2-1-rat-a) (not-occupied ta3-1-rat-a)
(push-unitarypipe s13 b3 a1 a3 b2 rat-a gasoleo ta1-1-rat-a ta3-1-gasoleo)
   (first b2 s13) (not-occupied ta3-1-gasoleo) (occupied ta1-1-rat-a) (on b3 a1)
   + (not-occupied ta1-1-gasoleo) (not-occupied ta2-1-gasoleo) (not-occupied ta2-1-rat-a) (not-occupied ta3-1-rat-a)
(push-unitarypipe s13 b4 a1 a3 b0 lco oc1b ta1-1-lco ta3-1-oc1b)
   (first b0 s13) (not-occupied ta3-1-oc1b) (occupied ta1-1-lco) (on b4 a1)
   + (not-occupied ta1-1-oc1b) (not-occupied ta2-1-lco) (not-occupied ta2-1-oc1b) (occupied ta3-1-lco) (on b1 a3)
(push-unitarypipe s13 b4 a1 a3 b1 lco lco ta1-1-lco ta3-1-lco)
   (first b1 s13) (not-occupied ta3-1-lco) (occupied ta1-1-lco) (on b4 a1)
   + (not-occupied ta2-1-lco)
(push-unitarypipe s13 b4 a1 a3 b2 lco gasoleo ta1-1-lco ta3-1-gasoleo)
   (first b2 s13) (not-occupied ta3-1-gasoleo) (occupied ta1-1-lco) (on b4 a1)
   + (not-occupied ta1-1-gasoleo) (not-occupied ta2-1-gasoleo) (not-occupied ta2-1-lco) (occupied ta3-1-lco) (on b1 a3)
(push-unitarypipe s13 b4 a1 a3 b3 lco rat-a ta1-1-lco ta3-1-rat-a)
   (first b3 s13) (not-occupied ta3-1-rat-a) (occupied ta1-1-lco) (on b4 a1)
   + (not-occupied ta1-1-rat-a) (not-occupied ta2-1-lco) (not-occupied ta2-1-rat-a) (occupied ta3-1-lco) (on b1 a3)
(push-unitarypipe s13 b4 a1 a3 b5 lco oca1 ta1-1-lco ta3-1-oca1)
   (first b5 s13) (not-occupied ta3-1-oca1) (occupied ta1-1-lco) (on b4 a1)
   + (not-occupied ta1-1-oca1) (not-occupied ta2-1-lco) (not-occupied ta2-1-oca1) (occupied ta3-1-lco) (on b1 a3)
(push-unitarypipe s13 b5 a1 a3 b0 oca1 oc1b ta1-1-oca1 ta3-1-oc1b)
   (first b0 s13) (not-occupied ta3-1-oc1b) (occupied ta1-1-oca1) (on b5 a1)
   + (not-occupied ta1-1-oc1b) (not-occupied ta2-1-oc1b) (not-occupied ta2-1-oca1) (not-occupied ta3-1-oca1)
(push-unitarypipe s13 b5 a1 a3 b1 oca1 lco ta1-1-oca1 ta3-1-lco)
   (first b1 s13) (not-occupied ta3-1-lco) (occupied ta1-1-oca1) (on b5 a1)
   + (not-occupied ta2-1-oca1) (not-occupied ta3-1-oca1)
(push-unitarypipe s13 b5 a1 a3 b2 oca1 gasoleo ta1-1-oca1 ta3-1-gasoleo)
   (first b2 s13) (not-occupied ta3-1-gasoleo) (occupied ta1-1-oca1) (on b5 a1)
   + (not-occupied ta1-1-gasoleo) (not-occupied ta2-1-gasoleo) (not-occupied ta2-1-oca1) (not-occupied ta3-1-oca1)
