Symmetric facts:
 (at plane1 city1-2) (at plane2 city1-2)
 (at plane1 city2-2) (at plane2 city2-2)
 (at plane1 city3-2) (at plane2 city3-2)
 (at plane1 city4-2) (at plane2 city4-2)
 (at plane1 city5-2) (at plane2 city5-2)
 (at plane1 city6-2) (at plane2 city6-2)
 (in package1 plane1) (in package1 plane2)
 (in package2 plane1) (in package2 plane2)
 (in package3 plane1) (in package3 plane2)
 (in package4 plane1) (in package4 plane2)
 (in package5 plane1) (in package5 plane2)
 (in package6 plane1) (in package6 plane2)
Symmetric ops:
 (fly-airplane plane1 city1-2 city2-2) (fly-airplane plane2 city1-2 city2-2)
 (fly-airplane plane1 city1-2 city3-2) (fly-airplane plane2 city1-2 city3-2)
 (fly-airplane plane1 city1-2 city4-2) (fly-airplane plane2 city1-2 city4-2)
 (fly-airplane plane1 city1-2 city5-2) (fly-airplane plane2 city1-2 city5-2)
 (fly-airplane plane1 city1-2 city6-2) (fly-airplane plane2 city1-2 city6-2)
 (fly-airplane plane1 city2-2 city1-2) (fly-airplane plane2 city2-2 city1-2)
 (fly-airplane plane1 city2-2 city3-2) (fly-airplane plane2 city2-2 city3-2)
 (fly-airplane plane1 city2-2 city4-2) (fly-airplane plane2 city2-2 city4-2)
 (fly-airplane plane1 city2-2 city5-2) (fly-airplane plane2 city2-2 city5-2)
 (fly-airplane plane1 city2-2 city6-2) (fly-airplane plane2 city2-2 city6-2)
 (fly-airplane plane1 city3-2 city1-2) (fly-airplane plane2 city3-2 city1-2)
 (fly-airplane plane1 city3-2 city2-2) (fly-airplane plane2 city3-2 city2-2)
 (fly-airplane plane1 city3-2 city4-2) (fly-airplane plane2 city3-2 city4-2)
 (fly-airplane plane1 city3-2 city5-2) (fly-airplane plane2 city3-2 city5-2)
 (fly-airplane plane1 city3-2 city6-2) (fly-airplane plane2 city3-2 city6-2)
 (fly-airplane plane1 city4-2 city1-2) (fly-airplane plane2 city4-2 city1-2)
 (fly-airplane plane1 city4-2 city2-2) (fly-airplane plane2 city4-2 city2-2)
 (fly-airplane plane1 city4-2 city3-2) (fly-airplane plane2 city4-2 city3-2)
 (fly-airplane plane1 city4-2 city5-2) (fly-airplane plane2 city4-2 city5-2)
 (fly-airplane plane1 city4-2 city6-2) (fly-airplane plane2 city4-2 city6-2)
 (fly-airplane plane1 city5-2 city1-2) (fly-airplane plane2 city5-2 city1-2)
 (fly-airplane plane1 city5-2 city2-2) (fly-airplane plane2 city5-2 city2-2)
 (fly-airplane plane1 city5-2 city3-2) (fly-airplane plane2 city5-2 city3-2)
 (fly-airplane plane1 city5-2 city4-2) (fly-airplane plane2 city5-2 city4-2)
 (fly-airplane plane1 city5-2 city6-2) (fly-airplane plane2 city5-2 city6-2)
 (fly-airplane plane1 city6-2 city1-2) (fly-airplane plane2 city6-2 city1-2)
 (fly-airplane plane1 city6-2 city2-2) (fly-airplane plane2 city6-2 city2-2)
 (fly-airplane plane1 city6-2 city3-2) (fly-airplane plane2 city6-2 city3-2)
 (fly-airplane plane1 city6-2 city4-2) (fly-airplane plane2 city6-2 city4-2)
 (fly-airplane plane1 city6-2 city5-2) (fly-airplane plane2 city6-2 city5-2)
 (load-airplane package1 plane1 city1-2) (load-airplane package1 plane2 city1-2)
 (load-airplane package1 plane1 city2-2) (load-airplane package1 plane2 city2-2)
 (load-airplane package1 plane1 city3-2) (load-airplane package1 plane2 city3-2)
 (load-airplane package1 plane1 city4-2) (load-airplane package1 plane2 city4-2)
 (load-airplane package1 plane1 city5-2) (load-airplane package1 plane2 city5-2)
 (load-airplane package1 plane1 city6-2) (load-airplane package1 plane2 city6-2)
 (load-airplane package2 plane1 city1-2) (load-airplane package2 plane2 city1-2)
 (load-airplane package2 plane1 city2-2) (load-airplane package2 plane2 city2-2)
 (load-airplane package2 plane1 city3-2) (load-airplane package2 plane2 city3-2)
 (load-airplane package2 plane1 city4-2) (load-airplane package2 plane2 city4-2)
 (load-airplane package2 plane1 city5-2) (load-airplane package2 plane2 city5-2)
 (load-airplane package2 plane1 city6-2) (load-airplane package2 plane2 city6-2)
 (load-airplane package3 plane1 city1-2) (load-airplane package3 plane2 city1-2)
 (load-airplane package3 plane1 city2-2) (load-airplane package3 plane2 city2-2)
 (load-airplane package3 plane1 city3-2) (load-airplane package3 plane2 city3-2)
 (load-airplane package3 plane1 city4-2) (load-airplane package3 plane2 city4-2)
 (load-airplane package3 plane1 city5-2) (load-airplane package3 plane2 city5-2)
 (load-airplane package3 plane1 city6-2) (load-airplane package3 plane2 city6-2)
 (load-airplane package4 plane1 city1-2) (load-airplane package4 plane2 city1-2)
 (load-airplane package4 plane1 city2-2) (load-airplane package4 plane2 city2-2)
 (load-airplane package4 plane1 city3-2) (load-airplane package4 plane2 city3-2)
 (load-airplane package4 plane1 city4-2) (load-airplane package4 plane2 city4-2)
 (load-airplane package4 plane1 city5-2) (load-airplane package4 plane2 city5-2)
 (load-airplane package4 plane1 city6-2) (load-airplane package4 plane2 city6-2)
 (load-airplane package5 plane1 city1-2) (load-airplane package5 plane2 city1-2)
 (load-airplane package5 plane1 city2-2) (load-airplane package5 plane2 city2-2)
 (load-airplane package5 plane1 city3-2) (load-airplane package5 plane2 city3-2)
 (load-airplane package5 plane1 city4-2) (load-airplane package5 plane2 city4-2)
 (load-airplane package5 plane1 city5-2) (load-airplane package5 plane2 city5-2)
 (load-airplane package5 plane1 city6-2) (load-airplane package5 plane2 city6-2)
 (load-airplane package6 plane1 city1-2) (load-airplane package6 plane2 city1-2)
 (load-airplane package6 plane1 city2-2) (load-airplane package6 plane2 city2-2)
 (load-airplane package6 plane1 city3-2) (load-airplane package6 plane2 city3-2)
 (load-airplane package6 plane1 city4-2) (load-airplane package6 plane2 city4-2)
 (load-airplane package6 plane1 city5-2) (load-airplane package6 plane2 city5-2)
 (load-airplane package6 plane1 city6-2) (load-airplane package6 plane2 city6-2)
 (unload-airplane package1 plane1 city1-2) (unload-airplane package1 plane2 city1-2)
 (unload-airplane package1 plane1 city2-2) (unload-airplane package1 plane2 city2-2)
 (unload-airplane package1 plane1 city3-2) (unload-airplane package1 plane2 city3-2)
 (unload-airplane package1 plane1 city4-2) (unload-airplane package1 plane2 city4-2)
 (unload-airplane package1 plane1 city5-2) (unload-airplane package1 plane2 city5-2)
 (unload-airplane package1 plane1 city6-2) (unload-airplane package1 plane2 city6-2)
 (unload-airplane package2 plane1 city1-2) (unload-airplane package2 plane2 city1-2)
 (unload-airplane package2 plane1 city2-2) (unload-airplane package2 plane2 city2-2)
 (unload-airplane package2 plane1 city3-2) (unload-airplane package2 plane2 city3-2)
 (unload-airplane package2 plane1 city4-2) (unload-airplane package2 plane2 city4-2)
 (unload-airplane package2 plane1 city5-2) (unload-airplane package2 plane2 city5-2)
 (unload-airplane package2 plane1 city6-2) (unload-airplane package2 plane2 city6-2)
 (unload-airplane package3 plane1 city1-2) (unload-airplane package3 plane2 city1-2)
 (unload-airplane package3 plane1 city2-2) (unload-airplane package3 plane2 city2-2)
 (unload-airplane package3 plane1 city3-2) (unload-airplane package3 plane2 city3-2)
 (unload-airplane package3 plane1 city4-2) (unload-airplane package3 plane2 city4-2)
 (unload-airplane package3 plane1 city5-2) (unload-airplane package3 plane2 city5-2)
 (unload-airplane package3 plane1 city6-2) (unload-airplane package3 plane2 city6-2)
 (unload-airplane package4 plane1 city1-2) (unload-airplane package4 plane2 city1-2)
 (unload-airplane package4 plane1 city2-2) (unload-airplane package4 plane2 city2-2)
 (unload-airplane package4 plane1 city3-2) (unload-airplane package4 plane2 city3-2)
 (unload-airplane package4 plane1 city4-2) (unload-airplane package4 plane2 city4-2)
 (unload-airplane package4 plane1 city5-2) (unload-airplane package4 plane2 city5-2)
 (unload-airplane package4 plane1 city6-2) (unload-airplane package4 plane2 city6-2)
 (unload-airplane package5 plane1 city1-2) (unload-airplane package5 plane2 city1-2)
 (unload-airplane package5 plane1 city2-2) (unload-airplane package5 plane2 city2-2)
 (unload-airplane package5 plane1 city3-2) (unload-airplane package5 plane2 city3-2)
 (unload-airplane package5 plane1 city4-2) (unload-airplane package5 plane2 city4-2)
 (unload-airplane package5 plane1 city5-2) (unload-airplane package5 plane2 city5-2)
 (unload-airplane package5 plane1 city6-2) (unload-airplane package5 plane2 city6-2)
 (unload-airplane package6 plane1 city1-2) (unload-airplane package6 plane2 city1-2)
 (unload-airplane package6 plane1 city2-2) (unload-airplane package6 plane2 city2-2)
 (unload-airplane package6 plane1 city3-2) (unload-airplane package6 plane2 city3-2)
 (unload-airplane package6 plane1 city4-2) (unload-airplane package6 plane2 city4-2)
 (unload-airplane package6 plane1 city5-2) (unload-airplane package6 plane2 city5-2)
 (unload-airplane package6 plane1 city6-2) (unload-airplane package6 plane2 city6-2)
