Fact[31]:
  (NOT-made p1)
  (NOT-made p2)
  (NOT-made p3)
  (NOT-made p4)
  (NOT-made p5)
  (made p1)
  (made p2)
  (made p3)
  (made p4)
  (made p5)
  (shipped o1)
  (shipped o2)
  (shipped o3)
  (shipped o4)
  (shipped o5)
  (stacks-avail n0)
  (stacks-avail n1)
  (stacks-avail n2)
  (stacks-avail n3)
  (stacks-avail n4)
  (stacks-avail n5)
  (started o1)
  (started o2)
  (started o3)
  (started o4)
  (started o5)
  (waiting o1)
  (waiting o2)
  (waiting o3)
  (waiting o4)
  (waiting o5)
Op[60]:
  (make-product p1), cost: 1
    pre: (NOT-made p1) (started o2)
    add: (made p1)
    del: (NOT-made p1)
  (make-product p2), cost: 1
    pre: (NOT-made p2) (started o1) (started o2)
    add: (made p2)
    del: (NOT-made p2)
  (make-product p3), cost: 1
    pre: (NOT-made p3) (started o3) (started o4)
    add: (made p3)
    del: (NOT-made p3)
  (make-product p4), cost: 1
    pre: (NOT-made p4) (started o4)
    add: (made p4)
    del: (NOT-made p4)
  (make-product p5), cost: 1
    pre: (NOT-made p5) (started o5)
    add: (made p5)
    del: (NOT-made p5)
  (open-new-stack n0 n1), cost: 1
    pre: (stacks-avail n0)
    add: (stacks-avail n1)
    del: (stacks-avail n0)
  (open-new-stack n1 n2), cost: 1
    pre: (stacks-avail n1)
    add: (stacks-avail n2)
    del: (stacks-avail n1)
  (open-new-stack n2 n3), cost: 1
    pre: (stacks-avail n2)
    add: (stacks-avail n3)
    del: (stacks-avail n2)
  (open-new-stack n3 n4), cost: 1
    pre: (stacks-avail n3)
    add: (stacks-avail n4)
    del: (stacks-avail n3)
  (open-new-stack n4 n5), cost: 1
    pre: (stacks-avail n4)
    add: (stacks-avail n5)
    del: (stacks-avail n4)
  (ship-order o1 n0 n1), cost: 1
    pre: (made p2) (stacks-avail n0) (started o1)
    add: (shipped o1) (stacks-avail n1)
    del: (stacks-avail n0) (started o1)
  (ship-order o1 n1 n2), cost: 1
    pre: (made p2) (stacks-avail n1) (started o1)
    add: (shipped o1) (stacks-avail n2)
    del: (stacks-avail n1) (started o1)
  (ship-order o1 n2 n3), cost: 1
    pre: (made p2) (stacks-avail n2) (started o1)
    add: (shipped o1) (stacks-avail n3)
    del: (stacks-avail n2) (started o1)
  (ship-order o1 n3 n4), cost: 1
    pre: (made p2) (stacks-avail n3) (started o1)
    add: (shipped o1) (stacks-avail n4)
    del: (stacks-avail n3) (started o1)
  (ship-order o1 n4 n5), cost: 1
    pre: (made p2) (stacks-avail n4) (started o1)
    add: (shipped o1) (stacks-avail n5)
    del: (stacks-avail n4) (started o1)
  (ship-order o2 n0 n1), cost: 1
    pre: (made p1) (made p2) (stacks-avail n0) (started o2)
    add: (shipped o2) (stacks-avail n1)
    del: (stacks-avail n0) (started o2)
  (ship-order o2 n1 n2), cost: 1
    pre: (made p1) (made p2) (stacks-avail n1) (started o2)
    add: (shipped o2) (stacks-avail n2)
    del: (stacks-avail n1) (started o2)
  (ship-order o2 n2 n3), cost: 1
    pre: (made p1) (made p2) (stacks-avail n2) (started o2)
    add: (shipped o2) (stacks-avail n3)
    del: (stacks-avail n2) (started o2)
  (ship-order o2 n3 n4), cost: 1
    pre: (made p1) (made p2) (stacks-avail n3) (started o2)
    add: (shipped o2) (stacks-avail n4)
    del: (stacks-avail n3) (started o2)
  (ship-order o2 n4 n5), cost: 1
    pre: (made p1) (made p2) (stacks-avail n4) (started o2)
    add: (shipped o2) (stacks-avail n5)
    del: (stacks-avail n4) (started o2)
  (ship-order o3 n0 n1), cost: 1
    pre: (made p3) (stacks-avail n0) (started o3)
    add: (shipped o3) (stacks-avail n1)
    del: (stacks-avail n0) (started o3)
  (ship-order o3 n1 n2), cost: 1
    pre: (made p3) (stacks-avail n1) (started o3)
    add: (shipped o3) (stacks-avail n2)
    del: (stacks-avail n1) (started o3)
  (ship-order o3 n2 n3), cost: 1
    pre: (made p3) (stacks-avail n2) (started o3)
    add: (shipped o3) (stacks-avail n3)
    del: (stacks-avail n2) (started o3)
  (ship-order o3 n3 n4), cost: 1
    pre: (made p3) (stacks-avail n3) (started o3)
    add: (shipped o3) (stacks-avail n4)
    del: (stacks-avail n3) (started o3)
  (ship-order o3 n4 n5), cost: 1
    pre: (made p3) (stacks-avail n4) (started o3)
    add: (shipped o3) (stacks-avail n5)
    del: (stacks-avail n4) (started o3)
  (ship-order o4 n0 n1), cost: 1
    pre: (made p3) (made p4) (stacks-avail n0) (started o4)
    add: (shipped o4) (stacks-avail n1)
    del: (stacks-avail n0) (started o4)
  (ship-order o4 n1 n2), cost: 1
    pre: (made p3) (made p4) (stacks-avail n1) (started o4)
    add: (shipped o4) (stacks-avail n2)
    del: (stacks-avail n1) (started o4)
  (ship-order o4 n2 n3), cost: 1
    pre: (made p3) (made p4) (stacks-avail n2) (started o4)
    add: (shipped o4) (stacks-avail n3)
    del: (stacks-avail n2) (started o4)
  (ship-order o4 n3 n4), cost: 1
    pre: (made p3) (made p4) (stacks-avail n3) (started o4)
    add: (shipped o4) (stacks-avail n4)
    del: (stacks-avail n3) (started o4)
  (ship-order o4 n4 n5), cost: 1
    pre: (made p3) (made p4) (stacks-avail n4) (started o4)
    add: (shipped o4) (stacks-avail n5)
    del: (stacks-avail n4) (started o4)
  (ship-order o5 n0 n1), cost: 1
    pre: (made p5) (stacks-avail n0) (started o5)
    add: (shipped o5) (stacks-avail n1)
    del: (stacks-avail n0) (started o5)
  (ship-order o5 n1 n2), cost: 1
    pre: (made p5) (stacks-avail n1) (started o5)
    add: (shipped o5) (stacks-avail n2)
    del: (stacks-avail n1) (started o5)
  (ship-order o5 n2 n3), cost: 1
    pre: (made p5) (stacks-avail n2) (started o5)
    add: (shipped o5) (stacks-avail n3)
    del: (stacks-avail n2) (started o5)
  (ship-order o5 n3 n4), cost: 1
    pre: (made p5) (stacks-avail n3) (started o5)
    add: (shipped o5) (stacks-avail n4)
    del: (stacks-avail n3) (started o5)
  (ship-order o5 n4 n5), cost: 1
    pre: (made p5) (stacks-avail n4) (started o5)
    add: (shipped o5) (stacks-avail n5)
    del: (stacks-avail n4) (started o5)
  (start-order o1 n1 n0), cost: 1
    pre: (stacks-avail n1) (waiting o1)
    add: (stacks-avail n0) (started o1)
    del: (stacks-avail n1) (waiting o1)
  (start-order o1 n2 n1), cost: 1
    pre: (stacks-avail n2) (waiting o1)
    add: (stacks-avail n1) (started o1)
    del: (stacks-avail n2) (waiting o1)
  (start-order o1 n3 n2), cost: 1
    pre: (stacks-avail n3) (waiting o1)
    add: (stacks-avail n2) (started o1)
    del: (stacks-avail n3) (waiting o1)
  (start-order o1 n4 n3), cost: 1
    pre: (stacks-avail n4) (waiting o1)
    add: (stacks-avail n3) (started o1)
    del: (stacks-avail n4) (waiting o1)
  (start-order o1 n5 n4), cost: 1
    pre: (stacks-avail n5) (waiting o1)
    add: (stacks-avail n4) (started o1)
    del: (stacks-avail n5) (waiting o1)
  (start-order o2 n1 n0), cost: 1
    pre: (stacks-avail n1) (waiting o2)
    add: (stacks-avail n0) (started o2)
    del: (stacks-avail n1) (waiting o2)
  (start-order o2 n2 n1), cost: 1
    pre: (stacks-avail n2) (waiting o2)
    add: (stacks-avail n1) (started o2)
    del: (stacks-avail n2) (waiting o2)
  (start-order o2 n3 n2), cost: 1
    pre: (stacks-avail n3) (waiting o2)
    add: (stacks-avail n2) (started o2)
    del: (stacks-avail n3) (waiting o2)
  (start-order o2 n4 n3), cost: 1
    pre: (stacks-avail n4) (waiting o2)
    add: (stacks-avail n3) (started o2)
    del: (stacks-avail n4) (waiting o2)
  (start-order o2 n5 n4), cost: 1
    pre: (stacks-avail n5) (waiting o2)
    add: (stacks-avail n4) (started o2)
    del: (stacks-avail n5) (waiting o2)
  (start-order o3 n1 n0), cost: 1
    pre: (stacks-avail n1) (waiting o3)
    add: (stacks-avail n0) (started o3)
    del: (stacks-avail n1) (waiting o3)
  (start-order o3 n2 n1), cost: 1
    pre: (stacks-avail n2) (waiting o3)
    add: (stacks-avail n1) (started o3)
    del: (stacks-avail n2) (waiting o3)
  (start-order o3 n3 n2), cost: 1
    pre: (stacks-avail n3) (waiting o3)
    add: (stacks-avail n2) (started o3)
    del: (stacks-avail n3) (waiting o3)
  (start-order o3 n4 n3), cost: 1
    pre: (stacks-avail n4) (waiting o3)
    add: (stacks-avail n3) (started o3)
    del: (stacks-avail n4) (waiting o3)
  (start-order o3 n5 n4), cost: 1
    pre: (stacks-avail n5) (waiting o3)
    add: (stacks-avail n4) (started o3)
    del: (stacks-avail n5) (waiting o3)
  (start-order o4 n1 n0), cost: 1
    pre: (stacks-avail n1) (waiting o4)
    add: (stacks-avail n0) (started o4)
    del: (stacks-avail n1) (waiting o4)
  (start-order o4 n2 n1), cost: 1
    pre: (stacks-avail n2) (waiting o4)
    add: (stacks-avail n1) (started o4)
    del: (stacks-avail n2) (waiting o4)
  (start-order o4 n3 n2), cost: 1
    pre: (stacks-avail n3) (waiting o4)
    add: (stacks-avail n2) (started o4)
    del: (stacks-avail n3) (waiting o4)
  (start-order o4 n4 n3), cost: 1
    pre: (stacks-avail n4) (waiting o4)
    add: (stacks-avail n3) (started o4)
    del: (stacks-avail n4) (waiting o4)
  (start-order o4 n5 n4), cost: 1
    pre: (stacks-avail n5) (waiting o4)
    add: (stacks-avail n4) (started o4)
    del: (stacks-avail n5) (waiting o4)
  (start-order o5 n1 n0), cost: 1
    pre: (stacks-avail n1) (waiting o5)
    add: (stacks-avail n0) (started o5)
    del: (stacks-avail n1) (waiting o5)
  (start-order o5 n2 n1), cost: 1
    pre: (stacks-avail n2) (waiting o5)
    add: (stacks-avail n1) (started o5)
    del: (stacks-avail n2) (waiting o5)
  (start-order o5 n3 n2), cost: 1
    pre: (stacks-avail n3) (waiting o5)
    add: (stacks-avail n2) (started o5)
    del: (stacks-avail n3) (waiting o5)
  (start-order o5 n4 n3), cost: 1
    pre: (stacks-avail n4) (waiting o5)
    add: (stacks-avail n3) (started o5)
    del: (stacks-avail n4) (waiting o5)
  (start-order o5 n5 n4), cost: 1
    pre: (stacks-avail n5) (waiting o5)
    add: (stacks-avail n4) (started o5)
    del: (stacks-avail n5) (waiting o5)
Init State: (NOT-made p1) (NOT-made p2) (NOT-made p3) (NOT-made p4) (NOT-made p5) (stacks-avail n0) (waiting o1) (waiting o2) (waiting o3) (waiting o4) (waiting o5)
Goal: (shipped o1) (shipped o2) (shipped o3) (shipped o4) (shipped o5)
