 (capacity truck-1 capacity-0) (capacity truck-1 capacity-1) (capacity truck-1 capacity-2) (capacity truck-1 capacity-3) (capacity truck-1 capacity-4):=1:fam
 (capacity truck-2 capacity-0) (capacity truck-2 capacity-1) (capacity truck-2 capacity-2) (capacity truck-2 capacity-3) (capacity truck-2 capacity-4):=1:fam
 (capacity truck-3 capacity-0) (capacity truck-3 capacity-1) (capacity truck-3 capacity-2) (capacity truck-3 capacity-3) (capacity truck-3 capacity-4):=1:fam
 (at truck-3 city-1-loc-1) (at truck-3 city-1-loc-10) (at truck-3 city-1-loc-11) (at truck-3 city-1-loc-12) (at truck-3 city-1-loc-13) (at truck-3 city-1-loc-14) (at truck-3 city-1-loc-15) (at truck-3 city-1-loc-16) (at truck-3 city-1-loc-17) (at truck-3 city-1-loc-18) (at truck-3 city-1-loc-19) (at truck-3 city-1-loc-2) (at truck-3 city-1-loc-20) (at truck-3 city-1-loc-3) (at truck-3 city-1-loc-4) (at truck-3 city-1-loc-5) (at truck-3 city-1-loc-6) (at truck-3 city-1-loc-7) (at truck-3 city-1-loc-8) (at truck-3 city-1-loc-9) (at truck-3 city-2-loc-1) (at truck-3 city-2-loc-10) (at truck-3 city-2-loc-11) (at truck-3 city-2-loc-12) (at truck-3 city-2-loc-13) (at truck-3 city-2-loc-14) (at truck-3 city-2-loc-15) (at truck-3 city-2-loc-16) (at truck-3 city-2-loc-17) (at truck-3 city-2-loc-18) (at truck-3 city-2-loc-19) (at truck-3 city-2-loc-2) (at truck-3 city-2-loc-20) (at truck-3 city-2-loc-3) (at truck-3 city-2-loc-4) (at truck-3 city-2-loc-5) (at truck-3 city-2-loc-6) (at truck-3 city-2-loc-7) (at truck-3 city-2-loc-8) (at truck-3 city-2-loc-9):=1:fam
 (at truck-1 city-1-loc-1) (at truck-1 city-1-loc-10) (at truck-1 city-1-loc-11) (at truck-1 city-1-loc-12) (at truck-1 city-1-loc-13) (at truck-1 city-1-loc-14) (at truck-1 city-1-loc-15) (at truck-1 city-1-loc-16) (at truck-1 city-1-loc-17) (at truck-1 city-1-loc-18) (at truck-1 city-1-loc-19) (at truck-1 city-1-loc-2) (at truck-1 city-1-loc-20) (at truck-1 city-1-loc-3) (at truck-1 city-1-loc-4) (at truck-1 city-1-loc-5) (at truck-1 city-1-loc-6) (at truck-1 city-1-loc-7) (at truck-1 city-1-loc-8) (at truck-1 city-1-loc-9) (at truck-1 city-2-loc-1) (at truck-1 city-2-loc-10) (at truck-1 city-2-loc-11) (at truck-1 city-2-loc-12) (at truck-1 city-2-loc-13) (at truck-1 city-2-loc-14) (at truck-1 city-2-loc-15) (at truck-1 city-2-loc-16) (at truck-1 city-2-loc-17) (at truck-1 city-2-loc-18) (at truck-1 city-2-loc-19) (at truck-1 city-2-loc-2) (at truck-1 city-2-loc-20) (at truck-1 city-2-loc-3) (at truck-1 city-2-loc-4) (at truck-1 city-2-loc-5) (at truck-1 city-2-loc-6) (at truck-1 city-2-loc-7) (at truck-1 city-2-loc-8) (at truck-1 city-2-loc-9):=1:fam
 (at truck-2 city-1-loc-1) (at truck-2 city-1-loc-10) (at truck-2 city-1-loc-11) (at truck-2 city-1-loc-12) (at truck-2 city-1-loc-13) (at truck-2 city-1-loc-14) (at truck-2 city-1-loc-15) (at truck-2 city-1-loc-16) (at truck-2 city-1-loc-17) (at truck-2 city-1-loc-18) (at truck-2 city-1-loc-19) (at truck-2 city-1-loc-2) (at truck-2 city-1-loc-20) (at truck-2 city-1-loc-3) (at truck-2 city-1-loc-4) (at truck-2 city-1-loc-5) (at truck-2 city-1-loc-6) (at truck-2 city-1-loc-7) (at truck-2 city-1-loc-8) (at truck-2 city-1-loc-9) (at truck-2 city-2-loc-1) (at truck-2 city-2-loc-10) (at truck-2 city-2-loc-11) (at truck-2 city-2-loc-12) (at truck-2 city-2-loc-13) (at truck-2 city-2-loc-14) (at truck-2 city-2-loc-15) (at truck-2 city-2-loc-16) (at truck-2 city-2-loc-17) (at truck-2 city-2-loc-18) (at truck-2 city-2-loc-19) (at truck-2 city-2-loc-2) (at truck-2 city-2-loc-20) (at truck-2 city-2-loc-3) (at truck-2 city-2-loc-4) (at truck-2 city-2-loc-5) (at truck-2 city-2-loc-6) (at truck-2 city-2-loc-7) (at truck-2 city-2-loc-8) (at truck-2 city-2-loc-9):=1:fam
 (at package-1 city-1-loc-1) (at package-1 city-1-loc-10) (at package-1 city-1-loc-11) (at package-1 city-1-loc-12) (at package-1 city-1-loc-13) (at package-1 city-1-loc-14) (at package-1 city-1-loc-15) (at package-1 city-1-loc-16) (at package-1 city-1-loc-17) (at package-1 city-1-loc-18) (at package-1 city-1-loc-19) (at package-1 city-1-loc-2) (at package-1 city-1-loc-20) (at package-1 city-1-loc-3) (at package-1 city-1-loc-4) (at package-1 city-1-loc-5) (at package-1 city-1-loc-6) (at package-1 city-1-loc-7) (at package-1 city-1-loc-8) (at package-1 city-1-loc-9) (at package-1 city-2-loc-1) (at package-1 city-2-loc-10) (at package-1 city-2-loc-11) (at package-1 city-2-loc-12) (at package-1 city-2-loc-13) (at package-1 city-2-loc-14) (at package-1 city-2-loc-15) (at package-1 city-2-loc-16) (at package-1 city-2-loc-17) (at package-1 city-2-loc-18) (at package-1 city-2-loc-19) (at package-1 city-2-loc-2) (at package-1 city-2-loc-20) (at package-1 city-2-loc-3) (at package-1 city-2-loc-4) (at package-1 city-2-loc-5) (at package-1 city-2-loc-6) (at package-1 city-2-loc-7) (at package-1 city-2-loc-8) (at package-1 city-2-loc-9) (in package-1 truck-1) (in package-1 truck-2) (in package-1 truck-3):=1:fam:G
 (at package-6 city-1-loc-1) (at package-6 city-1-loc-10) (at package-6 city-1-loc-11) (at package-6 city-1-loc-12) (at package-6 city-1-loc-13) (at package-6 city-1-loc-14) (at package-6 city-1-loc-15) (at package-6 city-1-loc-16) (at package-6 city-1-loc-17) (at package-6 city-1-loc-18) (at package-6 city-1-loc-19) (at package-6 city-1-loc-2) (at package-6 city-1-loc-20) (at package-6 city-1-loc-3) (at package-6 city-1-loc-4) (at package-6 city-1-loc-5) (at package-6 city-1-loc-6) (at package-6 city-1-loc-7) (at package-6 city-1-loc-8) (at package-6 city-1-loc-9) (at package-6 city-2-loc-1) (at package-6 city-2-loc-10) (at package-6 city-2-loc-11) (at package-6 city-2-loc-12) (at package-6 city-2-loc-13) (at package-6 city-2-loc-14) (at package-6 city-2-loc-15) (at package-6 city-2-loc-16) (at package-6 city-2-loc-17) (at package-6 city-2-loc-18) (at package-6 city-2-loc-19) (at package-6 city-2-loc-2) (at package-6 city-2-loc-20) (at package-6 city-2-loc-3) (at package-6 city-2-loc-4) (at package-6 city-2-loc-5) (at package-6 city-2-loc-6) (at package-6 city-2-loc-7) (at package-6 city-2-loc-8) (at package-6 city-2-loc-9) (in package-6 truck-1) (in package-6 truck-2) (in package-6 truck-3):=1:fam:G
 (at package-10 city-1-loc-1) (at package-10 city-1-loc-10) (at package-10 city-1-loc-11) (at package-10 city-1-loc-12) (at package-10 city-1-loc-13) (at package-10 city-1-loc-14) (at package-10 city-1-loc-15) (at package-10 city-1-loc-16) (at package-10 city-1-loc-17) (at package-10 city-1-loc-18) (at package-10 city-1-loc-19) (at package-10 city-1-loc-2) (at package-10 city-1-loc-20) (at package-10 city-1-loc-3) (at package-10 city-1-loc-4) (at package-10 city-1-loc-5) (at package-10 city-1-loc-6) (at package-10 city-1-loc-7) (at package-10 city-1-loc-8) (at package-10 city-1-loc-9) (at package-10 city-2-loc-1) (at package-10 city-2-loc-10) (at package-10 city-2-loc-11) (at package-10 city-2-loc-12) (at package-10 city-2-loc-13) (at package-10 city-2-loc-14) (at package-10 city-2-loc-15) (at package-10 city-2-loc-16) (at package-10 city-2-loc-17) (at package-10 city-2-loc-18) (at package-10 city-2-loc-19) (at package-10 city-2-loc-2) (at package-10 city-2-loc-20) (at package-10 city-2-loc-3) (at package-10 city-2-loc-4) (at package-10 city-2-loc-5) (at package-10 city-2-loc-6) (at package-10 city-2-loc-7) (at package-10 city-2-loc-8) (at package-10 city-2-loc-9) (in package-10 truck-1) (in package-10 truck-2) (in package-10 truck-3):=1:fam:G
 (at package-7 city-1-loc-1) (at package-7 city-1-loc-10) (at package-7 city-1-loc-11) (at package-7 city-1-loc-12) (at package-7 city-1-loc-13) (at package-7 city-1-loc-14) (at package-7 city-1-loc-15) (at package-7 city-1-loc-16) (at package-7 city-1-loc-17) (at package-7 city-1-loc-18) (at package-7 city-1-loc-19) (at package-7 city-1-loc-2) (at package-7 city-1-loc-20) (at package-7 city-1-loc-3) (at package-7 city-1-loc-4) (at package-7 city-1-loc-5) (at package-7 city-1-loc-6) (at package-7 city-1-loc-7) (at package-7 city-1-loc-8) (at package-7 city-1-loc-9) (at package-7 city-2-loc-1) (at package-7 city-2-loc-10) (at package-7 city-2-loc-11) (at package-7 city-2-loc-12) (at package-7 city-2-loc-13) (at package-7 city-2-loc-14) (at package-7 city-2-loc-15) (at package-7 city-2-loc-16) (at package-7 city-2-loc-17) (at package-7 city-2-loc-18) (at package-7 city-2-loc-19) (at package-7 city-2-loc-2) (at package-7 city-2-loc-20) (at package-7 city-2-loc-3) (at package-7 city-2-loc-4) (at package-7 city-2-loc-5) (at package-7 city-2-loc-6) (at package-7 city-2-loc-7) (at package-7 city-2-loc-8) (at package-7 city-2-loc-9) (in package-7 truck-1) (in package-7 truck-2) (in package-7 truck-3):=1:fam:G
 (at package-11 city-1-loc-1) (at package-11 city-1-loc-10) (at package-11 city-1-loc-11) (at package-11 city-1-loc-12) (at package-11 city-1-loc-13) (at package-11 city-1-loc-14) (at package-11 city-1-loc-15) (at package-11 city-1-loc-16) (at package-11 city-1-loc-17) (at package-11 city-1-loc-18) (at package-11 city-1-loc-19) (at package-11 city-1-loc-2) (at package-11 city-1-loc-20) (at package-11 city-1-loc-3) (at package-11 city-1-loc-4) (at package-11 city-1-loc-5) (at package-11 city-1-loc-6) (at package-11 city-1-loc-7) (at package-11 city-1-loc-8) (at package-11 city-1-loc-9) (at package-11 city-2-loc-1) (at package-11 city-2-loc-10) (at package-11 city-2-loc-11) (at package-11 city-2-loc-12) (at package-11 city-2-loc-13) (at package-11 city-2-loc-14) (at package-11 city-2-loc-15) (at package-11 city-2-loc-16) (at package-11 city-2-loc-17) (at package-11 city-2-loc-18) (at package-11 city-2-loc-19) (at package-11 city-2-loc-2) (at package-11 city-2-loc-20) (at package-11 city-2-loc-3) (at package-11 city-2-loc-4) (at package-11 city-2-loc-5) (at package-11 city-2-loc-6) (at package-11 city-2-loc-7) (at package-11 city-2-loc-8) (at package-11 city-2-loc-9) (in package-11 truck-1) (in package-11 truck-2) (in package-11 truck-3):=1:fam:G
 (at package-8 city-1-loc-1) (at package-8 city-1-loc-10) (at package-8 city-1-loc-11) (at package-8 city-1-loc-12) (at package-8 city-1-loc-13) (at package-8 city-1-loc-14) (at package-8 city-1-loc-15) (at package-8 city-1-loc-16) (at package-8 city-1-loc-17) (at package-8 city-1-loc-18) (at package-8 city-1-loc-19) (at package-8 city-1-loc-2) (at package-8 city-1-loc-20) (at package-8 city-1-loc-3) (at package-8 city-1-loc-4) (at package-8 city-1-loc-5) (at package-8 city-1-loc-6) (at package-8 city-1-loc-7) (at package-8 city-1-loc-8) (at package-8 city-1-loc-9) (at package-8 city-2-loc-1) (at package-8 city-2-loc-10) (at package-8 city-2-loc-11) (at package-8 city-2-loc-12) (at package-8 city-2-loc-13) (at package-8 city-2-loc-14) (at package-8 city-2-loc-15) (at package-8 city-2-loc-16) (at package-8 city-2-loc-17) (at package-8 city-2-loc-18) (at package-8 city-2-loc-19) (at package-8 city-2-loc-2) (at package-8 city-2-loc-20) (at package-8 city-2-loc-3) (at package-8 city-2-loc-4) (at package-8 city-2-loc-5) (at package-8 city-2-loc-6) (at package-8 city-2-loc-7) (at package-8 city-2-loc-8) (at package-8 city-2-loc-9) (in package-8 truck-1) (in package-8 truck-2) (in package-8 truck-3):=1:fam:G
 (at package-2 city-1-loc-1) (at package-2 city-1-loc-10) (at package-2 city-1-loc-11) (at package-2 city-1-loc-12) (at package-2 city-1-loc-13) (at package-2 city-1-loc-14) (at package-2 city-1-loc-15) (at package-2 city-1-loc-16) (at package-2 city-1-loc-17) (at package-2 city-1-loc-18) (at package-2 city-1-loc-19) (at package-2 city-1-loc-2) (at package-2 city-1-loc-20) (at package-2 city-1-loc-3) (at package-2 city-1-loc-4) (at package-2 city-1-loc-5) (at package-2 city-1-loc-6) (at package-2 city-1-loc-7) (at package-2 city-1-loc-8) (at package-2 city-1-loc-9) (at package-2 city-2-loc-1) (at package-2 city-2-loc-10) (at package-2 city-2-loc-11) (at package-2 city-2-loc-12) (at package-2 city-2-loc-13) (at package-2 city-2-loc-14) (at package-2 city-2-loc-15) (at package-2 city-2-loc-16) (at package-2 city-2-loc-17) (at package-2 city-2-loc-18) (at package-2 city-2-loc-19) (at package-2 city-2-loc-2) (at package-2 city-2-loc-20) (at package-2 city-2-loc-3) (at package-2 city-2-loc-4) (at package-2 city-2-loc-5) (at package-2 city-2-loc-6) (at package-2 city-2-loc-7) (at package-2 city-2-loc-8) (at package-2 city-2-loc-9) (in package-2 truck-1) (in package-2 truck-2) (in package-2 truck-3):=1:fam:G
 (at package-9 city-1-loc-1) (at package-9 city-1-loc-10) (at package-9 city-1-loc-11) (at package-9 city-1-loc-12) (at package-9 city-1-loc-13) (at package-9 city-1-loc-14) (at package-9 city-1-loc-15) (at package-9 city-1-loc-16) (at package-9 city-1-loc-17) (at package-9 city-1-loc-18) (at package-9 city-1-loc-19) (at package-9 city-1-loc-2) (at package-9 city-1-loc-20) (at package-9 city-1-loc-3) (at package-9 city-1-loc-4) (at package-9 city-1-loc-5) (at package-9 city-1-loc-6) (at package-9 city-1-loc-7) (at package-9 city-1-loc-8) (at package-9 city-1-loc-9) (at package-9 city-2-loc-1) (at package-9 city-2-loc-10) (at package-9 city-2-loc-11) (at package-9 city-2-loc-12) (at package-9 city-2-loc-13) (at package-9 city-2-loc-14) (at package-9 city-2-loc-15) (at package-9 city-2-loc-16) (at package-9 city-2-loc-17) (at package-9 city-2-loc-18) (at package-9 city-2-loc-19) (at package-9 city-2-loc-2) (at package-9 city-2-loc-20) (at package-9 city-2-loc-3) (at package-9 city-2-loc-4) (at package-9 city-2-loc-5) (at package-9 city-2-loc-6) (at package-9 city-2-loc-7) (at package-9 city-2-loc-8) (at package-9 city-2-loc-9) (in package-9 truck-1) (in package-9 truck-2) (in package-9 truck-3):=1:fam:G
 (at package-3 city-1-loc-1) (at package-3 city-1-loc-10) (at package-3 city-1-loc-11) (at package-3 city-1-loc-12) (at package-3 city-1-loc-13) (at package-3 city-1-loc-14) (at package-3 city-1-loc-15) (at package-3 city-1-loc-16) (at package-3 city-1-loc-17) (at package-3 city-1-loc-18) (at package-3 city-1-loc-19) (at package-3 city-1-loc-2) (at package-3 city-1-loc-20) (at package-3 city-1-loc-3) (at package-3 city-1-loc-4) (at package-3 city-1-loc-5) (at package-3 city-1-loc-6) (at package-3 city-1-loc-7) (at package-3 city-1-loc-8) (at package-3 city-1-loc-9) (at package-3 city-2-loc-1) (at package-3 city-2-loc-10) (at package-3 city-2-loc-11) (at package-3 city-2-loc-12) (at package-3 city-2-loc-13) (at package-3 city-2-loc-14) (at package-3 city-2-loc-15) (at package-3 city-2-loc-16) (at package-3 city-2-loc-17) (at package-3 city-2-loc-18) (at package-3 city-2-loc-19) (at package-3 city-2-loc-2) (at package-3 city-2-loc-20) (at package-3 city-2-loc-3) (at package-3 city-2-loc-4) (at package-3 city-2-loc-5) (at package-3 city-2-loc-6) (at package-3 city-2-loc-7) (at package-3 city-2-loc-8) (at package-3 city-2-loc-9) (in package-3 truck-1) (in package-3 truck-2) (in package-3 truck-3):=1:fam:G
 (at package-4 city-1-loc-1) (at package-4 city-1-loc-10) (at package-4 city-1-loc-11) (at package-4 city-1-loc-12) (at package-4 city-1-loc-13) (at package-4 city-1-loc-14) (at package-4 city-1-loc-15) (at package-4 city-1-loc-16) (at package-4 city-1-loc-17) (at package-4 city-1-loc-18) (at package-4 city-1-loc-19) (at package-4 city-1-loc-2) (at package-4 city-1-loc-20) (at package-4 city-1-loc-3) (at package-4 city-1-loc-4) (at package-4 city-1-loc-5) (at package-4 city-1-loc-6) (at package-4 city-1-loc-7) (at package-4 city-1-loc-8) (at package-4 city-1-loc-9) (at package-4 city-2-loc-1) (at package-4 city-2-loc-10) (at package-4 city-2-loc-11) (at package-4 city-2-loc-12) (at package-4 city-2-loc-13) (at package-4 city-2-loc-14) (at package-4 city-2-loc-15) (at package-4 city-2-loc-16) (at package-4 city-2-loc-17) (at package-4 city-2-loc-18) (at package-4 city-2-loc-19) (at package-4 city-2-loc-2) (at package-4 city-2-loc-20) (at package-4 city-2-loc-3) (at package-4 city-2-loc-4) (at package-4 city-2-loc-5) (at package-4 city-2-loc-6) (at package-4 city-2-loc-7) (at package-4 city-2-loc-8) (at package-4 city-2-loc-9) (in package-4 truck-1) (in package-4 truck-2) (in package-4 truck-3):=1:fam:G
 (at package-5 city-1-loc-1) (at package-5 city-1-loc-10) (at package-5 city-1-loc-11) (at package-5 city-1-loc-12) (at package-5 city-1-loc-13) (at package-5 city-1-loc-14) (at package-5 city-1-loc-15) (at package-5 city-1-loc-16) (at package-5 city-1-loc-17) (at package-5 city-1-loc-18) (at package-5 city-1-loc-19) (at package-5 city-1-loc-2) (at package-5 city-1-loc-20) (at package-5 city-1-loc-3) (at package-5 city-1-loc-4) (at package-5 city-1-loc-5) (at package-5 city-1-loc-6) (at package-5 city-1-loc-7) (at package-5 city-1-loc-8) (at package-5 city-1-loc-9) (at package-5 city-2-loc-1) (at package-5 city-2-loc-10) (at package-5 city-2-loc-11) (at package-5 city-2-loc-12) (at package-5 city-2-loc-13) (at package-5 city-2-loc-14) (at package-5 city-2-loc-15) (at package-5 city-2-loc-16) (at package-5 city-2-loc-17) (at package-5 city-2-loc-18) (at package-5 city-2-loc-19) (at package-5 city-2-loc-2) (at package-5 city-2-loc-20) (at package-5 city-2-loc-3) (at package-5 city-2-loc-4) (at package-5 city-2-loc-5) (at package-5 city-2-loc-6) (at package-5 city-2-loc-7) (at package-5 city-2-loc-8) (at package-5 city-2-loc-9) (in package-5 truck-1) (in package-5 truck-2) (in package-5 truck-3):=1:fam:G

