begin_version
3
end_version
begin_metric
1
end_metric
341
begin_variable
var0
-1
35
airborne airplane_daewh seg_09_0_150
at-segment airplane_daewh seg_09_0_150
at-segment airplane_daewh seg_27_0_150
at-segment airplane_daewh seg_a02_0_100
at-segment airplane_daewh seg_a_09_0_100
at-segment airplane_daewh seg_b_27_0_100
at-segment airplane_daewh seg_c2_c3_0_100
at-segment airplane_daewh seg_c3_c4_0_50
at-segment airplane_daewh seg_c4_c5_0_50
at-segment airplane_daewh seg_c5_c6_0_50
at-segment airplane_daewh seg_c5_c_a02_0_100
at-segment airplane_daewh seg_c6_c7_0_100
at-segment airplane_daewh seg_c_c2_0_100
at-segment airplane_daewh seg_n1_a_0_100
at-segment airplane_daewh seg_n1_n2_0_100
at-segment airplane_daewh seg_n2_n3_0_85
at-segment airplane_daewh seg_n2_n3_1_0_86
at-segment airplane_daewh seg_n2_n3_2_0_86
at-segment airplane_daewh seg_n2_n3_3_0_86
at-segment airplane_daewh seg_n2_n3_4_0_85
at-segment airplane_daewh seg_n2_n3_5_0_86
at-segment airplane_daewh seg_n2_n3_6_0_86
at-segment airplane_daewh seg_n3_n_0_100
at-segment airplane_daewh seg_n4_n5_0_86
at-segment airplane_daewh seg_n4_n5_1_0_85
at-segment airplane_daewh seg_n4_n5_2_0_86
at-segment airplane_daewh seg_n4_n5_3_0_86
at-segment airplane_daewh seg_n4_n5_4_0_85
at-segment airplane_daewh seg_n4_n5_5_0_86
at-segment airplane_daewh seg_n4_n5_6_0_86
at-segment airplane_daewh seg_n5_n6_0_100
at-segment airplane_daewh seg_n6_b_0_100
at-segment airplane_daewh seg_n_c_0_100
at-segment airplane_daewh seg_n_n4_0_100
at-segment airplane_daewh seg_rwy_0_1300
end_variable
begin_variable
var1
-1
35
airborne airplane_dfboy seg_09_0_150
at-segment airplane_dfboy seg_09_0_150
at-segment airplane_dfboy seg_27_0_150
at-segment airplane_dfboy seg_a_09_0_100
at-segment airplane_dfboy seg_b02_0_100
at-segment airplane_dfboy seg_b_27_0_100
at-segment airplane_dfboy seg_c2_c3_0_100
at-segment airplane_dfboy seg_c3_c4_0_50
at-segment airplane_dfboy seg_c4_c5_0_50
at-segment airplane_dfboy seg_c5_c6_0_50
at-segment airplane_dfboy seg_c5_c_b02_0_100
at-segment airplane_dfboy seg_c6_c7_0_100
at-segment airplane_dfboy seg_c_c2_0_100
at-segment airplane_dfboy seg_n1_a_0_100
at-segment airplane_dfboy seg_n1_n2_0_100
at-segment airplane_dfboy seg_n2_n3_0_85
at-segment airplane_dfboy seg_n2_n3_1_0_86
at-segment airplane_dfboy seg_n2_n3_2_0_86
at-segment airplane_dfboy seg_n2_n3_3_0_86
at-segment airplane_dfboy seg_n2_n3_4_0_85
at-segment airplane_dfboy seg_n2_n3_5_0_86
at-segment airplane_dfboy seg_n2_n3_6_0_86
at-segment airplane_dfboy seg_n3_n_0_100
at-segment airplane_dfboy seg_n4_n5_0_86
at-segment airplane_dfboy seg_n4_n5_1_0_85
at-segment airplane_dfboy seg_n4_n5_2_0_86
at-segment airplane_dfboy seg_n4_n5_3_0_86
at-segment airplane_dfboy seg_n4_n5_4_0_85
at-segment airplane_dfboy seg_n4_n5_5_0_86
at-segment airplane_dfboy seg_n4_n5_6_0_86
at-segment airplane_dfboy seg_n5_n6_0_100
at-segment airplane_dfboy seg_n6_b_0_100
at-segment airplane_dfboy seg_n_c_0_100
at-segment airplane_dfboy seg_n_n4_0_100
at-segment airplane_dfboy seg_rwy_0_1300
end_variable
begin_variable
var2
-1
33
airborne airplane_horst seg_09_0_150
at-segment airplane_horst seg_09_0_150
at-segment airplane_horst seg_27_0_150
at-segment airplane_horst seg_a_09_0_100
at-segment airplane_horst seg_b01_0_100
at-segment airplane_horst seg_b_27_0_100
at-segment airplane_horst seg_c2_c3_0_100
at-segment airplane_horst seg_c3_c4_0_50
at-segment airplane_horst seg_c3_c_b01_0_100
at-segment airplane_horst seg_c4_c5_0_50
at-segment airplane_horst seg_c_c2_0_100
at-segment airplane_horst seg_n1_a_0_100
at-segment airplane_horst seg_n1_n2_0_100
at-segment airplane_horst seg_n2_n3_0_85
at-segment airplane_horst seg_n2_n3_1_0_86
at-segment airplane_horst seg_n2_n3_2_0_86
at-segment airplane_horst seg_n2_n3_3_0_86
at-segment airplane_horst seg_n2_n3_4_0_85
at-segment airplane_horst seg_n2_n3_5_0_86
at-segment airplane_horst seg_n2_n3_6_0_86
at-segment airplane_horst seg_n3_n_0_100
at-segment airplane_horst seg_n4_n5_0_86
at-segment airplane_horst seg_n4_n5_1_0_85
at-segment airplane_horst seg_n4_n5_2_0_86
at-segment airplane_horst seg_n4_n5_3_0_86
at-segment airplane_horst seg_n4_n5_4_0_85
at-segment airplane_horst seg_n4_n5_5_0_86
at-segment airplane_horst seg_n4_n5_6_0_86
at-segment airplane_horst seg_n5_n6_0_100
at-segment airplane_horst seg_n6_b_0_100
at-segment airplane_horst seg_n_c_0_100
at-segment airplane_horst seg_n_n4_0_100
at-segment airplane_horst seg_rwy_0_1300
end_variable
begin_variable
var3
-1
33
airborne airplane_wurst seg_09_0_150
at-segment airplane_wurst seg_09_0_150
at-segment airplane_wurst seg_27_0_150
at-segment airplane_wurst seg_a01_0_100
at-segment airplane_wurst seg_a_09_0_100
at-segment airplane_wurst seg_b_27_0_100
at-segment airplane_wurst seg_c2_c3_0_100
at-segment airplane_wurst seg_c3_c4_0_50
at-segment airplane_wurst seg_c3_c_a01_0_100
at-segment airplane_wurst seg_c4_c5_0_50
at-segment airplane_wurst seg_c_c2_0_100
at-segment airplane_wurst seg_n1_a_0_100
at-segment airplane_wurst seg_n1_n2_0_100
at-segment airplane_wurst seg_n2_n3_0_85
at-segment airplane_wurst seg_n2_n3_1_0_86
at-segment airplane_wurst seg_n2_n3_2_0_86
at-segment airplane_wurst seg_n2_n3_3_0_86
at-segment airplane_wurst seg_n2_n3_4_0_85
at-segment airplane_wurst seg_n2_n3_5_0_86
at-segment airplane_wurst seg_n2_n3_6_0_86
at-segment airplane_wurst seg_n3_n_0_100
at-segment airplane_wurst seg_n4_n5_0_86
at-segment airplane_wurst seg_n4_n5_1_0_85
at-segment airplane_wurst seg_n4_n5_2_0_86
at-segment airplane_wurst seg_n4_n5_3_0_86
at-segment airplane_wurst seg_n4_n5_4_0_85
at-segment airplane_wurst seg_n4_n5_5_0_86
at-segment airplane_wurst seg_n4_n5_6_0_86
at-segment airplane_wurst seg_n5_n6_0_100
at-segment airplane_wurst seg_n6_b_0_100
at-segment airplane_wurst seg_n_c_0_100
at-segment airplane_wurst seg_n_n4_0_100
at-segment airplane_wurst seg_rwy_0_1300
end_variable
begin_variable
var4
-1
18
at-segment airplane_4xekd seg_27_0_150
at-segment airplane_4xekd seg_b01_0_100
at-segment airplane_4xekd seg_b_27_0_100
at-segment airplane_4xekd seg_c2_c3_0_100
at-segment airplane_4xekd seg_c3_c_b01_0_100
at-segment airplane_4xekd seg_c_c2_0_100
at-segment airplane_4xekd seg_n4_n5_0_86
at-segment airplane_4xekd seg_n4_n5_1_0_85
at-segment airplane_4xekd seg_n4_n5_2_0_86
at-segment airplane_4xekd seg_n4_n5_3_0_86
at-segment airplane_4xekd seg_n4_n5_4_0_85
at-segment airplane_4xekd seg_n4_n5_5_0_86
at-segment airplane_4xekd seg_n4_n5_6_0_86
at-segment airplane_4xekd seg_n5_n6_0_100
at-segment airplane_4xekd seg_n6_b_0_100
at-segment airplane_4xekd seg_n_c_0_100
at-segment airplane_4xekd seg_n_n4_0_100
at-segment airplane_4xekd seg_rwy_0_1300
end_variable
begin_variable
var5
-1
10
at-segment airplane_holgi seg_b02_0_100
at-segment airplane_holgi seg_c2_c3_0_100
at-segment airplane_holgi seg_c3_c4_0_50
at-segment airplane_holgi seg_c4_c5_0_50
at-segment airplane_holgi seg_c5_c_b02_0_100
at-segment airplane_holgi seg_c_c2_0_100
at-segment airplane_holgi seg_n4_n5_1_0_85
at-segment airplane_holgi seg_n4_n5_2_0_86
at-segment airplane_holgi seg_n_c_0_100
at-segment airplane_holgi seg_n_n4_0_100
end_variable
begin_variable
var6
-1
7
at-segment airplane_cfbeg seg_a01_0_100
at-segment airplane_cfbeg seg_c2_c3_0_100
at-segment airplane_cfbeg seg_c3_c_a01_0_100
at-segment airplane_cfbeg seg_c_c2_0_100
at-segment airplane_cfbeg seg_n4_n5_1_0_85
at-segment airplane_cfbeg seg_n_c_0_100
at-segment airplane_cfbeg seg_n_n4_0_100
end_variable
begin_variable
var7
-1
2
facing airplane_4xekd north
facing airplane_4xekd south
end_variable
begin_variable
var8
-1
2
facing airplane_cfbeg north
facing airplane_cfbeg south
end_variable
begin_variable
var9
-1
2
facing airplane_daewh north
facing airplane_daewh south
end_variable
begin_variable
var10
-1
2
facing airplane_dfboy north
facing airplane_dfboy south
end_variable
begin_variable
var11
-1
2
facing airplane_holgi north
facing airplane_holgi south
end_variable
begin_variable
var12
-1
2
facing airplane_horst north
facing airplane_horst south
end_variable
begin_variable
var13
-1
2
facing airplane_wurst north
facing airplane_wurst south
end_variable
begin_variable
var14
-1
2
is-moving airplane_4xekd
is-parked airplane_4xekd seg_b01_0_100
end_variable
begin_variable
var15
-1
2
is-moving airplane_cfbeg
is-parked airplane_cfbeg seg_a01_0_100
end_variable
begin_variable
var16
-1
3
is-moving airplane_daewh
is-pushing airplane_daewh
none-of-those
end_variable
begin_variable
var17
-1
3
is-moving airplane_dfboy
is-pushing airplane_dfboy
none-of-those
end_variable
begin_variable
var18
-1
2
is-moving airplane_holgi
is-parked airplane_holgi seg_b02_0_100
end_variable
begin_variable
var19
-1
3
is-moving airplane_horst
is-pushing airplane_horst
none-of-those
end_variable
begin_variable
var20
-1
3
is-moving airplane_wurst
is-pushing airplane_wurst
none-of-those
end_variable
begin_variable
var21
-1
6
at-segment airplane_4xekd seg_n4_n5_5_0_86
at-segment airplane_daewh seg_n4_n5_5_0_86
at-segment airplane_dfboy seg_n4_n5_5_0_86
at-segment airplane_horst seg_n4_n5_5_0_86
at-segment airplane_wurst seg_n4_n5_5_0_86
not_occupied seg_n4_n5_5_0_86
end_variable
begin_variable
var22
-1
6
at-segment airplane_4xekd seg_n4_n5_6_0_86
at-segment airplane_daewh seg_n4_n5_6_0_86
at-segment airplane_dfboy seg_n4_n5_6_0_86
at-segment airplane_horst seg_n4_n5_6_0_86
at-segment airplane_wurst seg_n4_n5_6_0_86
not_occupied seg_n4_n5_6_0_86
end_variable
begin_variable
var23
-1
6
at-segment airplane_4xekd seg_n5_n6_0_100
at-segment airplane_daewh seg_n5_n6_0_100
at-segment airplane_dfboy seg_n5_n6_0_100
at-segment airplane_horst seg_n5_n6_0_100
at-segment airplane_wurst seg_n5_n6_0_100
not_occupied seg_n5_n6_0_100
end_variable
begin_variable
var24
-1
6
at-segment airplane_4xekd seg_n6_b_0_100
at-segment airplane_daewh seg_n6_b_0_100
at-segment airplane_dfboy seg_n6_b_0_100
at-segment airplane_horst seg_n6_b_0_100
at-segment airplane_wurst seg_n6_b_0_100
not_occupied seg_n6_b_0_100
end_variable
begin_variable
var25
-1
8
at-segment airplane_4xekd seg_n_c_0_100
at-segment airplane_cfbeg seg_n_c_0_100
at-segment airplane_daewh seg_n_c_0_100
at-segment airplane_dfboy seg_n_c_0_100
at-segment airplane_holgi seg_n_c_0_100
at-segment airplane_horst seg_n_c_0_100
at-segment airplane_wurst seg_n_c_0_100
not_occupied seg_n_c_0_100
end_variable
begin_variable
var26
-1
8
at-segment airplane_4xekd seg_n_n4_0_100
at-segment airplane_cfbeg seg_n_n4_0_100
at-segment airplane_daewh seg_n_n4_0_100
at-segment airplane_dfboy seg_n_n4_0_100
at-segment airplane_holgi seg_n_n4_0_100
at-segment airplane_horst seg_n_n4_0_100
at-segment airplane_wurst seg_n_n4_0_100
not_occupied seg_n_n4_0_100
end_variable
begin_variable
var27
-1
6
at-segment airplane_4xekd seg_rwy_0_1300
at-segment airplane_daewh seg_rwy_0_1300
at-segment airplane_dfboy seg_rwy_0_1300
at-segment airplane_horst seg_rwy_0_1300
at-segment airplane_wurst seg_rwy_0_1300
not_occupied seg_rwy_0_1300
end_variable
begin_variable
var28
-1
5
at-segment airplane_daewh seg_09_0_150
at-segment airplane_dfboy seg_09_0_150
at-segment airplane_horst seg_09_0_150
at-segment airplane_wurst seg_09_0_150
not_occupied seg_09_0_150
end_variable
begin_variable
var29
-1
6
at-segment airplane_4xekd seg_27_0_150
at-segment airplane_daewh seg_27_0_150
at-segment airplane_dfboy seg_27_0_150
at-segment airplane_horst seg_27_0_150
at-segment airplane_wurst seg_27_0_150
not_occupied seg_27_0_150
end_variable
begin_variable
var30
-1
3
at-segment airplane_cfbeg seg_a01_0_100
at-segment airplane_wurst seg_a01_0_100
not_occupied seg_a01_0_100
end_variable
begin_variable
var31
-1
2
at-segment airplane_daewh seg_a02_0_100
not_occupied seg_a02_0_100
end_variable
begin_variable
var32
-1
5
at-segment airplane_daewh seg_a_09_0_100
at-segment airplane_dfboy seg_a_09_0_100
at-segment airplane_horst seg_a_09_0_100
at-segment airplane_wurst seg_a_09_0_100
not_occupied seg_a_09_0_100
end_variable
begin_variable
var33
-1
3
at-segment airplane_4xekd seg_b01_0_100
at-segment airplane_horst seg_b01_0_100
not_occupied seg_b01_0_100
end_variable
begin_variable
var34
-1
3
at-segment airplane_dfboy seg_b02_0_100
at-segment airplane_holgi seg_b02_0_100
not_occupied seg_b02_0_100
end_variable
begin_variable
var35
-1
6
at-segment airplane_4xekd seg_b_27_0_100
at-segment airplane_daewh seg_b_27_0_100
at-segment airplane_dfboy seg_b_27_0_100
at-segment airplane_horst seg_b_27_0_100
at-segment airplane_wurst seg_b_27_0_100
not_occupied seg_b_27_0_100
end_variable
begin_variable
var36
-1
8
at-segment airplane_4xekd seg_c2_c3_0_100
at-segment airplane_cfbeg seg_c2_c3_0_100
at-segment airplane_daewh seg_c2_c3_0_100
at-segment airplane_dfboy seg_c2_c3_0_100
at-segment airplane_holgi seg_c2_c3_0_100
at-segment airplane_horst seg_c2_c3_0_100
at-segment airplane_wurst seg_c2_c3_0_100
not_occupied seg_c2_c3_0_100
end_variable
begin_variable
var37
-1
6
at-segment airplane_daewh seg_c3_c4_0_50
at-segment airplane_dfboy seg_c3_c4_0_50
at-segment airplane_holgi seg_c3_c4_0_50
at-segment airplane_horst seg_c3_c4_0_50
at-segment airplane_wurst seg_c3_c4_0_50
not_occupied seg_c3_c4_0_50
end_variable
begin_variable
var38
-1
3
at-segment airplane_cfbeg seg_c3_c_a01_0_100
at-segment airplane_wurst seg_c3_c_a01_0_100
not_occupied seg_c3_c_a01_0_100
end_variable
begin_variable
var39
-1
3
at-segment airplane_4xekd seg_c3_c_b01_0_100
at-segment airplane_horst seg_c3_c_b01_0_100
not_occupied seg_c3_c_b01_0_100
end_variable
begin_variable
var40
-1
6
at-segment airplane_daewh seg_c4_c5_0_50
at-segment airplane_dfboy seg_c4_c5_0_50
at-segment airplane_holgi seg_c4_c5_0_50
at-segment airplane_horst seg_c4_c5_0_50
at-segment airplane_wurst seg_c4_c5_0_50
not_occupied seg_c4_c5_0_50
end_variable
begin_variable
var41
-1
3
at-segment airplane_daewh seg_c5_c6_0_50
at-segment airplane_dfboy seg_c5_c6_0_50
not_occupied seg_c5_c6_0_50
end_variable
begin_variable
var42
-1
2
at-segment airplane_daewh seg_c5_c_a02_0_100
not_occupied seg_c5_c_a02_0_100
end_variable
begin_variable
var43
-1
3
at-segment airplane_dfboy seg_c5_c_b02_0_100
at-segment airplane_holgi seg_c5_c_b02_0_100
not_occupied seg_c5_c_b02_0_100
end_variable
begin_variable
var44
-1
3
at-segment airplane_daewh seg_c6_c7_0_100
at-segment airplane_dfboy seg_c6_c7_0_100
not_occupied seg_c6_c7_0_100
end_variable
begin_variable
var45
-1
8
at-segment airplane_4xekd seg_c_c2_0_100
at-segment airplane_cfbeg seg_c_c2_0_100
at-segment airplane_daewh seg_c_c2_0_100
at-segment airplane_dfboy seg_c_c2_0_100
at-segment airplane_holgi seg_c_c2_0_100
at-segment airplane_horst seg_c_c2_0_100
at-segment airplane_wurst seg_c_c2_0_100
not_occupied seg_c_c2_0_100
end_variable
begin_variable
var46
-1
5
at-segment airplane_daewh seg_n1_a_0_100
at-segment airplane_dfboy seg_n1_a_0_100
at-segment airplane_horst seg_n1_a_0_100
at-segment airplane_wurst seg_n1_a_0_100
not_occupied seg_n1_a_0_100
end_variable
begin_variable
var47
-1
5
at-segment airplane_daewh seg_n1_n2_0_100
at-segment airplane_dfboy seg_n1_n2_0_100
at-segment airplane_horst seg_n1_n2_0_100
at-segment airplane_wurst seg_n1_n2_0_100
not_occupied seg_n1_n2_0_100
end_variable
begin_variable
var48
-1
5
at-segment airplane_daewh seg_n2_n3_0_85
at-segment airplane_dfboy seg_n2_n3_0_85
at-segment airplane_horst seg_n2_n3_0_85
at-segment airplane_wurst seg_n2_n3_0_85
not_occupied seg_n2_n3_0_85
end_variable
begin_variable
var49
-1
5
at-segment airplane_daewh seg_n2_n3_1_0_86
at-segment airplane_dfboy seg_n2_n3_1_0_86
at-segment airplane_horst seg_n2_n3_1_0_86
at-segment airplane_wurst seg_n2_n3_1_0_86
not_occupied seg_n2_n3_1_0_86
end_variable
begin_variable
var50
-1
5
at-segment airplane_daewh seg_n2_n3_2_0_86
at-segment airplane_dfboy seg_n2_n3_2_0_86
at-segment airplane_horst seg_n2_n3_2_0_86
at-segment airplane_wurst seg_n2_n3_2_0_86
not_occupied seg_n2_n3_2_0_86
end_variable
begin_variable
var51
-1
5
at-segment airplane_daewh seg_n2_n3_3_0_86
at-segment airplane_dfboy seg_n2_n3_3_0_86
at-segment airplane_horst seg_n2_n3_3_0_86
at-segment airplane_wurst seg_n2_n3_3_0_86
not_occupied seg_n2_n3_3_0_86
end_variable
begin_variable
var52
-1
5
at-segment airplane_daewh seg_n2_n3_4_0_85
at-segment airplane_dfboy seg_n2_n3_4_0_85
at-segment airplane_horst seg_n2_n3_4_0_85
at-segment airplane_wurst seg_n2_n3_4_0_85
not_occupied seg_n2_n3_4_0_85
end_variable
begin_variable
var53
-1
5
at-segment airplane_daewh seg_n2_n3_5_0_86
at-segment airplane_dfboy seg_n2_n3_5_0_86
at-segment airplane_horst seg_n2_n3_5_0_86
at-segment airplane_wurst seg_n2_n3_5_0_86
not_occupied seg_n2_n3_5_0_86
end_variable
begin_variable
var54
-1
5
at-segment airplane_daewh seg_n2_n3_6_0_86
at-segment airplane_dfboy seg_n2_n3_6_0_86
at-segment airplane_horst seg_n2_n3_6_0_86
at-segment airplane_wurst seg_n2_n3_6_0_86
not_occupied seg_n2_n3_6_0_86
end_variable
begin_variable
var55
-1
5
at-segment airplane_daewh seg_n3_n_0_100
at-segment airplane_dfboy seg_n3_n_0_100
at-segment airplane_horst seg_n3_n_0_100
at-segment airplane_wurst seg_n3_n_0_100
not_occupied seg_n3_n_0_100
end_variable
begin_variable
var56
-1
6
at-segment airplane_4xekd seg_n4_n5_0_86
at-segment airplane_daewh seg_n4_n5_0_86
at-segment airplane_dfboy seg_n4_n5_0_86
at-segment airplane_horst seg_n4_n5_0_86
at-segment airplane_wurst seg_n4_n5_0_86
not_occupied seg_n4_n5_0_86
end_variable
begin_variable
var57
-1
8
at-segment airplane_4xekd seg_n4_n5_1_0_85
at-segment airplane_cfbeg seg_n4_n5_1_0_85
at-segment airplane_daewh seg_n4_n5_1_0_85
at-segment airplane_dfboy seg_n4_n5_1_0_85
at-segment airplane_holgi seg_n4_n5_1_0_85
at-segment airplane_horst seg_n4_n5_1_0_85
at-segment airplane_wurst seg_n4_n5_1_0_85
not_occupied seg_n4_n5_1_0_85
end_variable
begin_variable
var58
-1
7
at-segment airplane_4xekd seg_n4_n5_2_0_86
at-segment airplane_daewh seg_n4_n5_2_0_86
at-segment airplane_dfboy seg_n4_n5_2_0_86
at-segment airplane_holgi seg_n4_n5_2_0_86
at-segment airplane_horst seg_n4_n5_2_0_86
at-segment airplane_wurst seg_n4_n5_2_0_86
not_occupied seg_n4_n5_2_0_86
end_variable
begin_variable
var59
-1
6
at-segment airplane_4xekd seg_n4_n5_3_0_86
at-segment airplane_daewh seg_n4_n5_3_0_86
at-segment airplane_dfboy seg_n4_n5_3_0_86
at-segment airplane_horst seg_n4_n5_3_0_86
at-segment airplane_wurst seg_n4_n5_3_0_86
not_occupied seg_n4_n5_3_0_86
end_variable
begin_variable
var60
-1
6
at-segment airplane_4xekd seg_n4_n5_4_0_85
at-segment airplane_daewh seg_n4_n5_4_0_85
at-segment airplane_dfboy seg_n4_n5_4_0_85
at-segment airplane_horst seg_n4_n5_4_0_85
at-segment airplane_wurst seg_n4_n5_4_0_85
not_occupied seg_n4_n5_4_0_85
end_variable
begin_variable
var61
-1
2
not_blocked seg_09_0_150 airplane_4xekd
none-of-those
end_variable
begin_variable
var62
-1
2
not_blocked seg_09_0_150 airplane_cfbeg
none-of-those
end_variable
begin_variable
var63
-1
2
not_blocked seg_09_0_150 airplane_daewh
none-of-those
end_variable
begin_variable
var64
-1
2
not_blocked seg_09_0_150 airplane_dfboy
none-of-those
end_variable
begin_variable
var65
-1
2
not_blocked seg_09_0_150 airplane_holgi
none-of-those
end_variable
begin_variable
var66
-1
2
not_blocked seg_09_0_150 airplane_horst
none-of-those
end_variable
begin_variable
var67
-1
2
not_blocked seg_09_0_150 airplane_wurst
none-of-those
end_variable
begin_variable
var68
-1
2
not_blocked seg_27_0_150 airplane_4xekd
none-of-those
end_variable
begin_variable
var69
-1
2
not_blocked seg_27_0_150 airplane_cfbeg
none-of-those
end_variable
begin_variable
var70
-1
2
not_blocked seg_27_0_150 airplane_daewh
none-of-those
end_variable
begin_variable
var71
-1
2
not_blocked seg_27_0_150 airplane_dfboy
none-of-those
end_variable
begin_variable
var72
-1
2
not_blocked seg_27_0_150 airplane_holgi
none-of-those
end_variable
begin_variable
var73
-1
2
not_blocked seg_27_0_150 airplane_horst
none-of-those
end_variable
begin_variable
var74
-1
2
not_blocked seg_27_0_150 airplane_wurst
none-of-those
end_variable
begin_variable
var75
-1
2
not_blocked seg_a01_0_100 airplane_4xekd
none-of-those
end_variable
begin_variable
var76
-1
2
not_blocked seg_a01_0_100 airplane_cfbeg
none-of-those
end_variable
begin_variable
var77
-1
2
not_blocked seg_a01_0_100 airplane_daewh
none-of-those
end_variable
begin_variable
var78
-1
2
not_blocked seg_a01_0_100 airplane_dfboy
none-of-those
end_variable
begin_variable
var79
-1
2
not_blocked seg_a01_0_100 airplane_holgi
none-of-those
end_variable
begin_variable
var80
-1
2
not_blocked seg_a01_0_100 airplane_horst
none-of-those
end_variable
begin_variable
var81
-1
2
not_blocked seg_a01_0_100 airplane_wurst
none-of-those
end_variable
begin_variable
var82
-1
2
not_blocked seg_a02_0_100 airplane_4xekd
none-of-those
end_variable
begin_variable
var83
-1
2
not_blocked seg_a02_0_100 airplane_cfbeg
none-of-those
end_variable
begin_variable
var84
-1
2
not_blocked seg_a02_0_100 airplane_daewh
none-of-those
end_variable
begin_variable
var85
-1
2
not_blocked seg_a02_0_100 airplane_dfboy
none-of-those
end_variable
begin_variable
var86
-1
2
not_blocked seg_a02_0_100 airplane_holgi
none-of-those
end_variable
begin_variable
var87
-1
2
not_blocked seg_a02_0_100 airplane_horst
none-of-those
end_variable
begin_variable
var88
-1
2
not_blocked seg_a02_0_100 airplane_wurst
none-of-those
end_variable
begin_variable
var89
-1
2
not_blocked seg_a_09_0_100 airplane_4xekd
none-of-those
end_variable
begin_variable
var90
-1
2
not_blocked seg_a_09_0_100 airplane_cfbeg
none-of-those
end_variable
begin_variable
var91
-1
2
not_blocked seg_a_09_0_100 airplane_daewh
none-of-those
end_variable
begin_variable
var92
-1
2
not_blocked seg_a_09_0_100 airplane_dfboy
none-of-those
end_variable
begin_variable
var93
-1
2
not_blocked seg_a_09_0_100 airplane_holgi
none-of-those
end_variable
begin_variable
var94
-1
2
not_blocked seg_a_09_0_100 airplane_horst
none-of-those
end_variable
begin_variable
var95
-1
2
not_blocked seg_a_09_0_100 airplane_wurst
none-of-those
end_variable
begin_variable
var96
-1
2
not_blocked seg_b01_0_100 airplane_4xekd
none-of-those
end_variable
begin_variable
var97
-1
2
not_blocked seg_b01_0_100 airplane_cfbeg
none-of-those
end_variable
begin_variable
var98
-1
2
not_blocked seg_b01_0_100 airplane_daewh
none-of-those
end_variable
begin_variable
var99
-1
2
not_blocked seg_b01_0_100 airplane_dfboy
none-of-those
end_variable
begin_variable
var100
-1
2
not_blocked seg_b01_0_100 airplane_holgi
none-of-those
end_variable
begin_variable
var101
-1
2
not_blocked seg_b01_0_100 airplane_horst
none-of-those
end_variable
begin_variable
var102
-1
2
not_blocked seg_b01_0_100 airplane_wurst
none-of-those
end_variable
begin_variable
var103
-1
2
not_blocked seg_b02_0_100 airplane_4xekd
none-of-those
end_variable
begin_variable
var104
-1
2
not_blocked seg_b02_0_100 airplane_cfbeg
none-of-those
end_variable
begin_variable
var105
-1
2
not_blocked seg_b02_0_100 airplane_daewh
none-of-those
end_variable
begin_variable
var106
-1
2
not_blocked seg_b02_0_100 airplane_dfboy
none-of-those
end_variable
begin_variable
var107
-1
2
not_blocked seg_b02_0_100 airplane_holgi
none-of-those
end_variable
begin_variable
var108
-1
2
not_blocked seg_b02_0_100 airplane_horst
none-of-those
end_variable
begin_variable
var109
-1
2
not_blocked seg_b02_0_100 airplane_wurst
none-of-those
end_variable
begin_variable
var110
-1
2
not_blocked seg_b_27_0_100 airplane_4xekd
none-of-those
end_variable
begin_variable
var111
-1
2
not_blocked seg_b_27_0_100 airplane_cfbeg
none-of-those
end_variable
begin_variable
var112
-1
2
not_blocked seg_b_27_0_100 airplane_daewh
none-of-those
end_variable
begin_variable
var113
-1
2
not_blocked seg_b_27_0_100 airplane_dfboy
none-of-those
end_variable
begin_variable
var114
-1
2
not_blocked seg_b_27_0_100 airplane_holgi
none-of-those
end_variable
begin_variable
var115
-1
2
not_blocked seg_b_27_0_100 airplane_horst
none-of-those
end_variable
begin_variable
var116
-1
2
not_blocked seg_b_27_0_100 airplane_wurst
none-of-those
end_variable
begin_variable
var117
-1
2
not_blocked seg_c2_c3_0_100 airplane_4xekd
none-of-those
end_variable
begin_variable
var118
-1
2
not_blocked seg_c2_c3_0_100 airplane_cfbeg
none-of-those
end_variable
begin_variable
var119
-1
2
not_blocked seg_c2_c3_0_100 airplane_daewh
none-of-those
end_variable
begin_variable
var120
-1
2
not_blocked seg_c2_c3_0_100 airplane_dfboy
none-of-those
end_variable
begin_variable
var121
-1
2
not_blocked seg_c2_c3_0_100 airplane_holgi
none-of-those
end_variable
begin_variable
var122
-1
2
not_blocked seg_c2_c3_0_100 airplane_horst
none-of-those
end_variable
begin_variable
var123
-1
2
not_blocked seg_c2_c3_0_100 airplane_wurst
none-of-those
end_variable
begin_variable
var124
-1
2
not_blocked seg_c3_c4_0_50 airplane_4xekd
none-of-those
end_variable
begin_variable
var125
-1
2
not_blocked seg_c3_c4_0_50 airplane_cfbeg
none-of-those
end_variable
begin_variable
var126
-1
2
not_blocked seg_c3_c4_0_50 airplane_daewh
none-of-those
end_variable
begin_variable
var127
-1
2
not_blocked seg_c3_c4_0_50 airplane_dfboy
none-of-those
end_variable
begin_variable
var128
-1
2
not_blocked seg_c3_c4_0_50 airplane_holgi
none-of-those
end_variable
begin_variable
var129
-1
2
not_blocked seg_c3_c4_0_50 airplane_horst
none-of-those
end_variable
begin_variable
var130
-1
2
not_blocked seg_c3_c4_0_50 airplane_wurst
none-of-those
end_variable
begin_variable
var131
-1
2
not_blocked seg_c3_c_a01_0_100 airplane_4xekd
none-of-those
end_variable
begin_variable
var132
-1
2
not_blocked seg_c3_c_a01_0_100 airplane_cfbeg
none-of-those
end_variable
begin_variable
var133
-1
2
not_blocked seg_c3_c_a01_0_100 airplane_daewh
none-of-those
end_variable
begin_variable
var134
-1
2
not_blocked seg_c3_c_a01_0_100 airplane_dfboy
none-of-those
end_variable
begin_variable
var135
-1
2
not_blocked seg_c3_c_a01_0_100 airplane_holgi
none-of-those
end_variable
begin_variable
var136
-1
2
not_blocked seg_c3_c_a01_0_100 airplane_horst
none-of-those
end_variable
begin_variable
var137
-1
2
not_blocked seg_c3_c_a01_0_100 airplane_wurst
none-of-those
end_variable
begin_variable
var138
-1
2
not_blocked seg_c3_c_b01_0_100 airplane_4xekd
none-of-those
end_variable
begin_variable
var139
-1
2
not_blocked seg_c3_c_b01_0_100 airplane_cfbeg
none-of-those
end_variable
begin_variable
var140
-1
2
not_blocked seg_c3_c_b01_0_100 airplane_daewh
none-of-those
end_variable
begin_variable
var141
-1
2
not_blocked seg_c3_c_b01_0_100 airplane_dfboy
none-of-those
end_variable
begin_variable
var142
-1
2
not_blocked seg_c3_c_b01_0_100 airplane_holgi
none-of-those
end_variable
begin_variable
var143
-1
2
not_blocked seg_c3_c_b01_0_100 airplane_horst
none-of-those
end_variable
begin_variable
var144
-1
2
not_blocked seg_c3_c_b01_0_100 airplane_wurst
none-of-those
end_variable
begin_variable
var145
-1
2
not_blocked seg_c4_c5_0_50 airplane_4xekd
none-of-those
end_variable
begin_variable
var146
-1
2
not_blocked seg_c4_c5_0_50 airplane_cfbeg
none-of-those
end_variable
begin_variable
var147
-1
2
not_blocked seg_c4_c5_0_50 airplane_daewh
none-of-those
end_variable
begin_variable
var148
-1
2
not_blocked seg_c4_c5_0_50 airplane_dfboy
none-of-those
end_variable
begin_variable
var149
-1
2
not_blocked seg_c4_c5_0_50 airplane_holgi
none-of-those
end_variable
begin_variable
var150
-1
2
not_blocked seg_c4_c5_0_50 airplane_horst
none-of-those
end_variable
begin_variable
var151
-1
2
not_blocked seg_c4_c5_0_50 airplane_wurst
none-of-those
end_variable
begin_variable
var152
-1
2
not_blocked seg_c5_c6_0_50 airplane_4xekd
none-of-those
end_variable
begin_variable
var153
-1
2
not_blocked seg_c5_c6_0_50 airplane_cfbeg
none-of-those
end_variable
begin_variable
var154
-1
2
not_blocked seg_c5_c6_0_50 airplane_daewh
none-of-those
end_variable
begin_variable
var155
-1
2
not_blocked seg_c5_c6_0_50 airplane_dfboy
none-of-those
end_variable
begin_variable
var156
-1
2
not_blocked seg_c5_c6_0_50 airplane_holgi
none-of-those
end_variable
begin_variable
var157
-1
2
not_blocked seg_c5_c6_0_50 airplane_horst
none-of-those
end_variable
begin_variable
var158
-1
2
not_blocked seg_c5_c6_0_50 airplane_wurst
none-of-those
end_variable
begin_variable
var159
-1
2
not_blocked seg_c5_c_a02_0_100 airplane_4xekd
none-of-those
end_variable
begin_variable
var160
-1
2
not_blocked seg_c5_c_a02_0_100 airplane_cfbeg
none-of-those
end_variable
begin_variable
var161
-1
2
not_blocked seg_c5_c_a02_0_100 airplane_daewh
none-of-those
end_variable
begin_variable
var162
-1
2
not_blocked seg_c5_c_a02_0_100 airplane_dfboy
none-of-those
end_variable
begin_variable
var163
-1
2
not_blocked seg_c5_c_a02_0_100 airplane_holgi
none-of-those
end_variable
begin_variable
var164
-1
2
not_blocked seg_c5_c_a02_0_100 airplane_horst
none-of-those
end_variable
begin_variable
var165
-1
2
not_blocked seg_c5_c_a02_0_100 airplane_wurst
none-of-those
end_variable
begin_variable
var166
-1
2
not_blocked seg_c5_c_b02_0_100 airplane_4xekd
none-of-those
end_variable
begin_variable
var167
-1
2
not_blocked seg_c5_c_b02_0_100 airplane_cfbeg
none-of-those
end_variable
begin_variable
var168
-1
2
not_blocked seg_c5_c_b02_0_100 airplane_daewh
none-of-those
end_variable
begin_variable
var169
-1
2
not_blocked seg_c5_c_b02_0_100 airplane_dfboy
none-of-those
end_variable
begin_variable
var170
-1
2
not_blocked seg_c5_c_b02_0_100 airplane_holgi
none-of-those
end_variable
begin_variable
var171
-1
2
not_blocked seg_c5_c_b02_0_100 airplane_horst
none-of-those
end_variable
begin_variable
var172
-1
2
not_blocked seg_c5_c_b02_0_100 airplane_wurst
none-of-those
end_variable
begin_variable
var173
-1
2
not_blocked seg_c6_c7_0_100 airplane_4xekd
none-of-those
end_variable
begin_variable
var174
-1
2
not_blocked seg_c6_c7_0_100 airplane_cfbeg
none-of-those
end_variable
begin_variable
var175
-1
2
not_blocked seg_c6_c7_0_100 airplane_daewh
none-of-those
end_variable
begin_variable
var176
-1
2
not_blocked seg_c6_c7_0_100 airplane_dfboy
none-of-those
end_variable
begin_variable
var177
-1
2
not_blocked seg_c6_c7_0_100 airplane_holgi
none-of-those
end_variable
begin_variable
var178
-1
2
not_blocked seg_c6_c7_0_100 airplane_horst
none-of-those
end_variable
begin_variable
var179
-1
2
not_blocked seg_c6_c7_0_100 airplane_wurst
none-of-those
end_variable
begin_variable
var180
-1
2
not_blocked seg_c_c2_0_100 airplane_4xekd
none-of-those
end_variable
begin_variable
var181
-1
2
not_blocked seg_c_c2_0_100 airplane_cfbeg
none-of-those
end_variable
begin_variable
var182
-1
2
not_blocked seg_c_c2_0_100 airplane_daewh
none-of-those
end_variable
begin_variable
var183
-1
2
not_blocked seg_c_c2_0_100 airplane_dfboy
none-of-those
end_variable
begin_variable
var184
-1
2
not_blocked seg_c_c2_0_100 airplane_holgi
none-of-those
end_variable
begin_variable
var185
-1
2
not_blocked seg_c_c2_0_100 airplane_horst
none-of-those
end_variable
begin_variable
var186
-1
2
not_blocked seg_c_c2_0_100 airplane_wurst
none-of-those
end_variable
begin_variable
var187
-1
2
not_blocked seg_n1_a_0_100 airplane_4xekd
none-of-those
end_variable
begin_variable
var188
-1
2
not_blocked seg_n1_a_0_100 airplane_cfbeg
none-of-those
end_variable
begin_variable
var189
-1
2
not_blocked seg_n1_a_0_100 airplane_daewh
none-of-those
end_variable
begin_variable
var190
-1
2
not_blocked seg_n1_a_0_100 airplane_dfboy
none-of-those
end_variable
begin_variable
var191
-1
2
not_blocked seg_n1_a_0_100 airplane_holgi
none-of-those
end_variable
begin_variable
var192
-1
2
not_blocked seg_n1_a_0_100 airplane_horst
none-of-those
end_variable
begin_variable
var193
-1
2
not_blocked seg_n1_a_0_100 airplane_wurst
none-of-those
end_variable
begin_variable
var194
-1
2
not_blocked seg_n1_n2_0_100 airplane_4xekd
none-of-those
end_variable
begin_variable
var195
-1
2
not_blocked seg_n1_n2_0_100 airplane_cfbeg
none-of-those
end_variable
begin_variable
var196
-1
2
not_blocked seg_n1_n2_0_100 airplane_daewh
none-of-those
end_variable
begin_variable
var197
-1
2
not_blocked seg_n1_n2_0_100 airplane_dfboy
none-of-those
end_variable
begin_variable
var198
-1
2
not_blocked seg_n1_n2_0_100 airplane_holgi
none-of-those
end_variable
begin_variable
var199
-1
2
not_blocked seg_n1_n2_0_100 airplane_horst
none-of-those
end_variable
begin_variable
var200
-1
2
not_blocked seg_n1_n2_0_100 airplane_wurst
none-of-those
end_variable
begin_variable
var201
-1
2
not_blocked seg_n2_n3_0_85 airplane_4xekd
none-of-those
end_variable
begin_variable
var202
-1
2
not_blocked seg_n2_n3_0_85 airplane_cfbeg
none-of-those
end_variable
begin_variable
var203
-1
2
not_blocked seg_n2_n3_0_85 airplane_daewh
none-of-those
end_variable
begin_variable
var204
-1
2
not_blocked seg_n2_n3_0_85 airplane_dfboy
none-of-those
end_variable
begin_variable
var205
-1
2
not_blocked seg_n2_n3_0_85 airplane_holgi
none-of-those
end_variable
begin_variable
var206
-1
2
not_blocked seg_n2_n3_0_85 airplane_horst
none-of-those
end_variable
begin_variable
var207
-1
2
not_blocked seg_n2_n3_0_85 airplane_wurst
none-of-those
end_variable
begin_variable
var208
-1
2
not_blocked seg_n2_n3_1_0_86 airplane_4xekd
none-of-those
end_variable
begin_variable
var209
-1
2
not_blocked seg_n2_n3_1_0_86 airplane_cfbeg
none-of-those
end_variable
begin_variable
var210
-1
2
not_blocked seg_n2_n3_1_0_86 airplane_daewh
none-of-those
end_variable
begin_variable
var211
-1
2
not_blocked seg_n2_n3_1_0_86 airplane_dfboy
none-of-those
end_variable
begin_variable
var212
-1
2
not_blocked seg_n2_n3_1_0_86 airplane_holgi
none-of-those
end_variable
begin_variable
var213
-1
2
not_blocked seg_n2_n3_1_0_86 airplane_horst
none-of-those
end_variable
begin_variable
var214
-1
2
not_blocked seg_n2_n3_1_0_86 airplane_wurst
none-of-those
end_variable
begin_variable
var215
-1
2
not_blocked seg_n2_n3_2_0_86 airplane_4xekd
none-of-those
end_variable
begin_variable
var216
-1
2
not_blocked seg_n2_n3_2_0_86 airplane_cfbeg
none-of-those
end_variable
begin_variable
var217
-1
2
not_blocked seg_n2_n3_2_0_86 airplane_daewh
none-of-those
end_variable
begin_variable
var218
-1
2
not_blocked seg_n2_n3_2_0_86 airplane_dfboy
none-of-those
end_variable
begin_variable
var219
-1
2
not_blocked seg_n2_n3_2_0_86 airplane_holgi
none-of-those
end_variable
begin_variable
var220
-1
2
not_blocked seg_n2_n3_2_0_86 airplane_horst
none-of-those
end_variable
begin_variable
var221
-1
2
not_blocked seg_n2_n3_2_0_86 airplane_wurst
none-of-those
end_variable
begin_variable
var222
-1
2
not_blocked seg_n2_n3_3_0_86 airplane_4xekd
none-of-those
end_variable
begin_variable
var223
-1
2
not_blocked seg_n2_n3_3_0_86 airplane_cfbeg
none-of-those
end_variable
begin_variable
var224
-1
2
not_blocked seg_n2_n3_3_0_86 airplane_daewh
none-of-those
end_variable
begin_variable
var225
-1
2
not_blocked seg_n2_n3_3_0_86 airplane_dfboy
none-of-those
end_variable
begin_variable
var226
-1
2
not_blocked seg_n2_n3_3_0_86 airplane_holgi
none-of-those
end_variable
begin_variable
var227
-1
2
not_blocked seg_n2_n3_3_0_86 airplane_horst
none-of-those
end_variable
begin_variable
var228
-1
2
not_blocked seg_n2_n3_3_0_86 airplane_wurst
none-of-those
end_variable
begin_variable
var229
-1
2
not_blocked seg_n2_n3_4_0_85 airplane_4xekd
none-of-those
end_variable
begin_variable
var230
-1
2
not_blocked seg_n2_n3_4_0_85 airplane_cfbeg
none-of-those
end_variable
begin_variable
var231
-1
2
not_blocked seg_n2_n3_4_0_85 airplane_daewh
none-of-those
end_variable
begin_variable
var232
-1
2
not_blocked seg_n2_n3_4_0_85 airplane_dfboy
none-of-those
end_variable
begin_variable
var233
-1
2
not_blocked seg_n2_n3_4_0_85 airplane_holgi
none-of-those
end_variable
begin_variable
var234
-1
2
not_blocked seg_n2_n3_4_0_85 airplane_horst
none-of-those
end_variable
begin_variable
var235
-1
2
not_blocked seg_n2_n3_4_0_85 airplane_wurst
none-of-those
end_variable
begin_variable
var236
-1
2
not_blocked seg_n2_n3_5_0_86 airplane_4xekd
none-of-those
end_variable
begin_variable
var237
-1
2
not_blocked seg_n2_n3_5_0_86 airplane_cfbeg
none-of-those
end_variable
begin_variable
var238
-1
2
not_blocked seg_n2_n3_5_0_86 airplane_daewh
none-of-those
end_variable
begin_variable
var239
-1
2
not_blocked seg_n2_n3_5_0_86 airplane_dfboy
none-of-those
end_variable
begin_variable
var240
-1
2
not_blocked seg_n2_n3_5_0_86 airplane_holgi
none-of-those
end_variable
begin_variable
var241
-1
2
not_blocked seg_n2_n3_5_0_86 airplane_horst
none-of-those
end_variable
begin_variable
var242
-1
2
not_blocked seg_n2_n3_5_0_86 airplane_wurst
none-of-those
end_variable
begin_variable
var243
-1
2
not_blocked seg_n2_n3_6_0_86 airplane_4xekd
none-of-those
end_variable
begin_variable
var244
-1
2
not_blocked seg_n2_n3_6_0_86 airplane_cfbeg
none-of-those
end_variable
begin_variable
var245
-1
2
not_blocked seg_n2_n3_6_0_86 airplane_daewh
none-of-those
end_variable
begin_variable
var246
-1
2
not_blocked seg_n2_n3_6_0_86 airplane_dfboy
none-of-those
end_variable
begin_variable
var247
-1
2
not_blocked seg_n2_n3_6_0_86 airplane_holgi
none-of-those
end_variable
begin_variable
var248
-1
2
not_blocked seg_n2_n3_6_0_86 airplane_horst
none-of-those
end_variable
begin_variable
var249
-1
2
not_blocked seg_n2_n3_6_0_86 airplane_wurst
none-of-those
end_variable
begin_variable
var250
-1
2
not_blocked seg_n3_n_0_100 airplane_4xekd
none-of-those
end_variable
begin_variable
var251
-1
2
not_blocked seg_n3_n_0_100 airplane_cfbeg
none-of-those
end_variable
begin_variable
var252
-1
2
not_blocked seg_n3_n_0_100 airplane_daewh
none-of-those
end_variable
begin_variable
var253
-1
2
not_blocked seg_n3_n_0_100 airplane_dfboy
none-of-those
end_variable
begin_variable
var254
-1
2
not_blocked seg_n3_n_0_100 airplane_holgi
none-of-those
end_variable
begin_variable
var255
-1
2
not_blocked seg_n3_n_0_100 airplane_horst
none-of-those
end_variable
begin_variable
var256
-1
2
not_blocked seg_n3_n_0_100 airplane_wurst
none-of-those
end_variable
begin_variable
var257
-1
2
not_blocked seg_n4_n5_0_86 airplane_4xekd
none-of-those
end_variable
begin_variable
var258
-1
2
not_blocked seg_n4_n5_0_86 airplane_cfbeg
none-of-those
end_variable
begin_variable
var259
-1
2
not_blocked seg_n4_n5_0_86 airplane_daewh
none-of-those
end_variable
begin_variable
var260
-1
2
not_blocked seg_n4_n5_0_86 airplane_dfboy
none-of-those
end_variable
begin_variable
var261
-1
2
not_blocked seg_n4_n5_0_86 airplane_holgi
none-of-those
end_variable
begin_variable
var262
-1
2
not_blocked seg_n4_n5_0_86 airplane_horst
none-of-those
end_variable
begin_variable
var263
-1
2
not_blocked seg_n4_n5_0_86 airplane_wurst
none-of-those
end_variable
begin_variable
var264
-1
2
not_blocked seg_n4_n5_1_0_85 airplane_4xekd
none-of-those
end_variable
begin_variable
var265
-1
2
not_blocked seg_n4_n5_1_0_85 airplane_cfbeg
none-of-those
end_variable
begin_variable
var266
-1
2
not_blocked seg_n4_n5_1_0_85 airplane_daewh
none-of-those
end_variable
begin_variable
var267
-1
2
not_blocked seg_n4_n5_1_0_85 airplane_dfboy
none-of-those
end_variable
begin_variable
var268
-1
2
not_blocked seg_n4_n5_1_0_85 airplane_holgi
none-of-those
end_variable
begin_variable
var269
-1
2
not_blocked seg_n4_n5_1_0_85 airplane_horst
none-of-those
end_variable
begin_variable
var270
-1
2
not_blocked seg_n4_n5_1_0_85 airplane_wurst
none-of-those
end_variable
begin_variable
var271
-1
2
not_blocked seg_n4_n5_2_0_86 airplane_4xekd
none-of-those
end_variable
begin_variable
var272
-1
2
not_blocked seg_n4_n5_2_0_86 airplane_cfbeg
none-of-those
end_variable
begin_variable
var273
-1
2
not_blocked seg_n4_n5_2_0_86 airplane_daewh
none-of-those
end_variable
begin_variable
var274
-1
2
not_blocked seg_n4_n5_2_0_86 airplane_dfboy
none-of-those
end_variable
begin_variable
var275
-1
2
not_blocked seg_n4_n5_2_0_86 airplane_holgi
none-of-those
end_variable
begin_variable
var276
-1
2
not_blocked seg_n4_n5_2_0_86 airplane_horst
none-of-those
end_variable
begin_variable
var277
-1
2
not_blocked seg_n4_n5_2_0_86 airplane_wurst
none-of-those
end_variable
begin_variable
var278
-1
2
not_blocked seg_n4_n5_3_0_86 airplane_4xekd
none-of-those
end_variable
begin_variable
var279
-1
2
not_blocked seg_n4_n5_3_0_86 airplane_cfbeg
none-of-those
end_variable
begin_variable
var280
-1
2
not_blocked seg_n4_n5_3_0_86 airplane_daewh
none-of-those
end_variable
begin_variable
var281
-1
2
not_blocked seg_n4_n5_3_0_86 airplane_dfboy
none-of-those
end_variable
begin_variable
var282
-1
2
not_blocked seg_n4_n5_3_0_86 airplane_holgi
none-of-those
end_variable
begin_variable
var283
-1
2
not_blocked seg_n4_n5_3_0_86 airplane_horst
none-of-those
end_variable
begin_variable
var284
-1
2
not_blocked seg_n4_n5_3_0_86 airplane_wurst
none-of-those
end_variable
begin_variable
var285
-1
2
not_blocked seg_n4_n5_4_0_85 airplane_4xekd
none-of-those
end_variable
begin_variable
var286
-1
2
not_blocked seg_n4_n5_4_0_85 airplane_cfbeg
none-of-those
end_variable
begin_variable
var287
-1
2
not_blocked seg_n4_n5_4_0_85 airplane_daewh
none-of-those
end_variable
begin_variable
var288
-1
2
not_blocked seg_n4_n5_4_0_85 airplane_dfboy
none-of-those
end_variable
begin_variable
var289
-1
2
not_blocked seg_n4_n5_4_0_85 airplane_holgi
none-of-those
end_variable
begin_variable
var290
-1
2
not_blocked seg_n4_n5_4_0_85 airplane_horst
none-of-those
end_variable
begin_variable
var291
-1
2
not_blocked seg_n4_n5_4_0_85 airplane_wurst
none-of-those
end_variable
begin_variable
var292
-1
2
not_blocked seg_n4_n5_5_0_86 airplane_4xekd
none-of-those
end_variable
begin_variable
var293
-1
2
not_blocked seg_n4_n5_5_0_86 airplane_cfbeg
none-of-those
end_variable
begin_variable
var294
-1
2
not_blocked seg_n4_n5_5_0_86 airplane_daewh
none-of-those
end_variable
begin_variable
var295
-1
2
not_blocked seg_n4_n5_5_0_86 airplane_dfboy
none-of-those
end_variable
begin_variable
var296
-1
2
not_blocked seg_n4_n5_5_0_86 airplane_holgi
none-of-those
end_variable
begin_variable
var297
-1
2
not_blocked seg_n4_n5_5_0_86 airplane_horst
none-of-those
end_variable
begin_variable
var298
-1
2
not_blocked seg_n4_n5_5_0_86 airplane_wurst
none-of-those
end_variable
begin_variable
var299
-1
2
not_blocked seg_n4_n5_6_0_86 airplane_4xekd
none-of-those
end_variable
begin_variable
var300
-1
2
not_blocked seg_n4_n5_6_0_86 airplane_cfbeg
none-of-those
end_variable
begin_variable
var301
-1
2
not_blocked seg_n4_n5_6_0_86 airplane_daewh
none-of-those
end_variable
begin_variable
var302
-1
2
not_blocked seg_n4_n5_6_0_86 airplane_dfboy
none-of-those
end_variable
begin_variable
var303
-1
2
not_blocked seg_n4_n5_6_0_86 airplane_holgi
none-of-those
end_variable
begin_variable
var304
-1
2
not_blocked seg_n4_n5_6_0_86 airplane_horst
none-of-those
end_variable
begin_variable
var305
-1
2
not_blocked seg_n4_n5_6_0_86 airplane_wurst
none-of-those
end_variable
begin_variable
var306
-1
2
not_blocked seg_n5_n6_0_100 airplane_4xekd
none-of-those
end_variable
begin_variable
var307
-1
2
not_blocked seg_n5_n6_0_100 airplane_cfbeg
none-of-those
end_variable
begin_variable
var308
-1
2
not_blocked seg_n5_n6_0_100 airplane_daewh
none-of-those
end_variable
begin_variable
var309
-1
2
not_blocked seg_n5_n6_0_100 airplane_dfboy
none-of-those
end_variable
begin_variable
var310
-1
2
not_blocked seg_n5_n6_0_100 airplane_holgi
none-of-those
end_variable
begin_variable
var311
-1
2
not_blocked seg_n5_n6_0_100 airplane_horst
none-of-those
end_variable
begin_variable
var312
-1
2
not_blocked seg_n5_n6_0_100 airplane_wurst
none-of-those
end_variable
begin_variable
var313
-1
2
not_blocked seg_n6_b_0_100 airplane_4xekd
none-of-those
end_variable
begin_variable
var314
-1
2
not_blocked seg_n6_b_0_100 airplane_cfbeg
none-of-those
end_variable
begin_variable
var315
-1
2
not_blocked seg_n6_b_0_100 airplane_daewh
none-of-those
end_variable
begin_variable
var316
-1
2
not_blocked seg_n6_b_0_100 airplane_dfboy
none-of-those
end_variable
begin_variable
var317
-1
2
not_blocked seg_n6_b_0_100 airplane_holgi
none-of-those
end_variable
begin_variable
var318
-1
2
not_blocked seg_n6_b_0_100 airplane_horst
none-of-those
end_variable
begin_variable
var319
-1
2
not_blocked seg_n6_b_0_100 airplane_wurst
none-of-those
end_variable
begin_variable
var320
-1
2
not_blocked seg_n_c_0_100 airplane_4xekd
none-of-those
end_variable
begin_variable
var321
-1
2
not_blocked seg_n_c_0_100 airplane_cfbeg
none-of-those
end_variable
begin_variable
var322
-1
2
not_blocked seg_n_c_0_100 airplane_daewh
none-of-those
end_variable
begin_variable
var323
-1
2
not_blocked seg_n_c_0_100 airplane_dfboy
none-of-those
end_variable
begin_variable
var324
-1
2
not_blocked seg_n_c_0_100 airplane_holgi
none-of-those
end_variable
begin_variable
var325
-1
2
not_blocked seg_n_c_0_100 airplane_horst
none-of-those
end_variable
begin_variable
var326
-1
2
not_blocked seg_n_c_0_100 airplane_wurst
none-of-those
end_variable
begin_variable
var327
-1
2
not_blocked seg_n_n4_0_100 airplane_4xekd
none-of-those
end_variable
begin_variable
var328
-1
2
not_blocked seg_n_n4_0_100 airplane_cfbeg
none-of-those
end_variable
begin_variable
var329
-1
2
not_blocked seg_n_n4_0_100 airplane_daewh
none-of-those
end_variable
begin_variable
var330
-1
2
not_blocked seg_n_n4_0_100 airplane_dfboy
none-of-those
end_variable
begin_variable
var331
-1
2
not_blocked seg_n_n4_0_100 airplane_holgi
none-of-those
end_variable
begin_variable
var332
-1
2
not_blocked seg_n_n4_0_100 airplane_horst
none-of-those
end_variable
begin_variable
var333
-1
2
not_blocked seg_n_n4_0_100 airplane_wurst
none-of-those
end_variable
begin_variable
var334
-1
2
not_blocked seg_rwy_0_1300 airplane_4xekd
none-of-those
end_variable
begin_variable
var335
-1
2
not_blocked seg_rwy_0_1300 airplane_cfbeg
none-of-those
end_variable
begin_variable
var336
-1
2
not_blocked seg_rwy_0_1300 airplane_daewh
none-of-those
end_variable
begin_variable
var337
-1
2
not_blocked seg_rwy_0_1300 airplane_dfboy
none-of-those
end_variable
begin_variable
var338
-1
2
not_blocked seg_rwy_0_1300 airplane_holgi
none-of-those
end_variable
begin_variable
var339
-1
2
not_blocked seg_rwy_0_1300 airplane_horst
none-of-those
end_variable
begin_variable
var340
-1
2
not_blocked seg_rwy_0_1300 airplane_wurst
none-of-those
end_variable
76
begin_mutex_group
1
14 0
end_mutex_group
begin_mutex_group
1
15 0
end_mutex_group
begin_mutex_group
1
18 0
end_mutex_group
begin_mutex_group
1
16 1
end_mutex_group
begin_mutex_group
1
17 1
end_mutex_group
begin_mutex_group
1
19 1
end_mutex_group
begin_mutex_group
1
20 1
end_mutex_group
begin_mutex_group
2
0 3
31 1
end_mutex_group
begin_mutex_group
2
0 10
42 1
end_mutex_group
begin_mutex_group
2
7 0
7 1
end_mutex_group
begin_mutex_group
2
8 0
8 1
end_mutex_group
begin_mutex_group
2
9 0
9 1
end_mutex_group
begin_mutex_group
2
10 0
10 1
end_mutex_group
begin_mutex_group
2
11 0
11 1
end_mutex_group
begin_mutex_group
2
12 0
12 1
end_mutex_group
begin_mutex_group
2
13 0
13 1
end_mutex_group
begin_mutex_group
2
14 0
14 1
end_mutex_group
begin_mutex_group
2
15 0
15 1
end_mutex_group
begin_mutex_group
2
16 0
16 1
end_mutex_group
begin_mutex_group
2
17 0
17 1
end_mutex_group
begin_mutex_group
2
18 0
18 1
end_mutex_group
begin_mutex_group
2
19 0
19 1
end_mutex_group
begin_mutex_group
2
20 0
20 1
end_mutex_group
begin_mutex_group
3
0 0
16 0
16 1
end_mutex_group
begin_mutex_group
3
1 0
17 0
17 1
end_mutex_group
begin_mutex_group
3
2 0
19 0
19 1
end_mutex_group
begin_mutex_group
3
3 0
20 0
20 1
end_mutex_group
begin_mutex_group
3
4 1
2 4
33 2
end_mutex_group
begin_mutex_group
3
4 4
2 8
39 2
end_mutex_group
begin_mutex_group
3
6 0
3 3
30 2
end_mutex_group
begin_mutex_group
3
6 2
3 8
38 2
end_mutex_group
begin_mutex_group
3
0 9
1 9
41 2
end_mutex_group
begin_mutex_group
3
0 11
1 11
44 2
end_mutex_group
begin_mutex_group
3
1 4
5 0
34 2
end_mutex_group
begin_mutex_group
3
1 10
5 4
43 2
end_mutex_group
begin_mutex_group
5
0 1
1 1
2 1
3 1
28 4
end_mutex_group
begin_mutex_group
5
0 4
1 3
2 3
3 4
32 4
end_mutex_group
begin_mutex_group
5
0 13
1 13
2 11
3 11
46 4
end_mutex_group
begin_mutex_group
5
0 14
1 14
2 12
3 12
47 4
end_mutex_group
begin_mutex_group
5
0 15
1 15
2 13
3 13
48 4
end_mutex_group
begin_mutex_group
5
0 16
1 16
2 14
3 14
49 4
end_mutex_group
begin_mutex_group
5
0 17
1 17
2 15
3 15
50 4
end_mutex_group
begin_mutex_group
5
0 18
1 18
2 16
3 16
51 4
end_mutex_group
begin_mutex_group
5
0 19
1 19
2 17
3 17
52 4
end_mutex_group
begin_mutex_group
5
0 20
1 20
2 18
3 18
53 4
end_mutex_group
begin_mutex_group
5
0 21
1 21
2 19
3 19
54 4
end_mutex_group
begin_mutex_group
5
0 22
1 22
2 20
3 20
55 4
end_mutex_group
begin_mutex_group
6
4 0
0 2
1 2
2 2
3 2
29 5
end_mutex_group
begin_mutex_group
6
4 2
0 5
1 5
2 5
3 5
35 5
end_mutex_group
begin_mutex_group
6
4 6
0 23
1 23
2 21
3 21
56 5
end_mutex_group
begin_mutex_group
6
4 9
0 26
1 26
2 24
3 24
59 5
end_mutex_group
begin_mutex_group
6
4 10
0 27
1 27
2 25
3 25
60 5
end_mutex_group
begin_mutex_group
6
4 11
0 28
1 28
2 26
3 26
21 5
end_mutex_group
begin_mutex_group
6
4 12
0 29
1 29
2 27
3 27
22 5
end_mutex_group
begin_mutex_group
6
4 13
0 30
1 30
2 28
3 28
23 5
end_mutex_group
begin_mutex_group
6
4 14
0 31
1 31
2 29
3 29
24 5
end_mutex_group
begin_mutex_group
6
4 17
0 34
1 34
2 32
3 32
27 5
end_mutex_group
begin_mutex_group
6
0 7
1 7
5 2
2 7
3 7
37 5
end_mutex_group
begin_mutex_group
6
0 8
1 8
5 3
2 9
3 9
40 5
end_mutex_group
begin_mutex_group
7
4 8
0 25
1 25
5 7
2 23
3 23
58 6
end_mutex_group
begin_mutex_group
7
6 0
6 1
6 2
6 3
6 4
6 5
6 6
end_mutex_group
begin_mutex_group
8
4 3
6 1
0 6
1 6
5 1
2 6
3 6
36 7
end_mutex_group
begin_mutex_group
8
4 5
6 3
0 12
1 12
5 5
2 10
3 10
45 7
end_mutex_group
begin_mutex_group
8
4 7
6 4
0 24
1 24
5 6
2 22
3 22
57 7
end_mutex_group
begin_mutex_group
8
4 15
6 5
0 32
1 32
5 8
2 30
3 30
25 7
end_mutex_group
begin_mutex_group
8
4 16
6 6
0 33
1 33
5 9
2 31
3 31
26 7
end_mutex_group
begin_mutex_group
10
5 0
5 1
5 2
5 3
5 4
5 5
5 6
5 7
5 8
5 9
end_mutex_group
begin_mutex_group
18
4 0
4 1
4 2
4 3
4 4
4 5
4 6
4 7
4 8
4 9
4 10
4 11
4 12
4 13
4 14
4 15
4 16
4 17
end_mutex_group
begin_mutex_group
32
2 1
2 2
2 3
2 4
2 5
2 6
2 7
2 8
2 9
2 10
2 11
2 12
2 13
2 14
2 15
2 16
2 17
2 18
2 19
2 20
2 21
2 22
2 23
2 24
2 25
2 26
2 27
2 28
2 29
2 30
2 31
2 32
end_mutex_group
begin_mutex_group
32
3 1
3 2
3 3
3 4
3 5
3 6
3 7
3 8
3 9
3 10
3 11
3 12
3 13
3 14
3 15
3 16
3 17
3 18
3 19
3 20
3 21
3 22
3 23
3 24
3 25
3 26
3 27
3 28
3 29
3 30
3 31
3 32
end_mutex_group
begin_mutex_group
33
2 0
2 1
2 2
2 3
2 4
2 5
2 6
2 7
2 8
2 9
2 10
2 11
2 12
2 13
2 14
2 15
2 16
2 17
2 18
2 19
2 20
2 21
2 22
2 23
2 24
2 25
2 26
2 27
2 28
2 29
2 30
2 31
2 32
end_mutex_group
begin_mutex_group
33
3 0
3 1
3 2
3 3
3 4
3 5
3 6
3 7
3 8
3 9
3 10
3 11
3 12
3 13
3 14
3 15
3 16
3 17
3 18
3 19
3 20
3 21
3 22
3 23
3 24
3 25
3 26
3 27
3 28
3 29
3 30
3 31
3 32
end_mutex_group
begin_mutex_group
34
0 1
0 2
0 3
0 4
0 5
0 6
0 7
0 8
0 9
0 10
0 11
0 12
0 13
0 14
0 15
0 16
0 17
0 18
0 19
0 20
0 21
0 22
0 23
0 24
0 25
0 26
0 27
0 28
0 29
0 30
0 31
0 32
0 33
0 34
end_mutex_group
begin_mutex_group
34
1 1
1 2
1 3
1 4
1 5
1 6
1 7
1 8
1 9
1 10
1 11
1 12
1 13
1 14
1 15
1 16
1 17
1 18
1 19
1 20
1 21
1 22
1 23
1 24
1 25
1 26
1 27
1 28
1 29
1 30
1 31
1 32
1 33
1 34
end_mutex_group
begin_mutex_group
35
0 0
0 1
0 2
0 3
0 4
0 5
0 6
0 7
0 8
0 9
0 10
0 11
0 12
0 13
0 14
0 15
0 16
0 17
0 18
0 19
0 20
0 21
0 22
0 23
0 24
0 25
0 26
0 27
0 28
0 29
0 30
0 31
0 32
0 33
0 34
end_mutex_group
begin_mutex_group
35
1 0
1 1
1 2
1 3
1 4
1 5
1 6
1 7
1 8
1 9
1 10
1 11
1 12
1 13
1 14
1 15
1 16
1 17
1 18
1 19
1 20
1 21
1 22
1 23
1 24
1 25
1 26
1 27
1 28
1 29
1 30
1 31
1 32
1 33
1 34
end_mutex_group
begin_state
3
4
4
3
17
7
4
1
0
1
1
0
1
1
0
0
1
1
0
1
1
5
5
5
5
7
7
0
4
5
1
0
4
1
0
5
7
5
2
2
5
2
1
2
2
7
4
4
4
4
4
4
4
4
4
4
5
1
3
5
5
1
0
0
0
0
0
0
0
0
0
0
0
0
0
0
0
0
0
0
0
1
0
0
1
0
0
0
0
0
0
0
0
0
0
0
0
0
0
0
0
1
0
0
0
0
1
0
0
0
0
0
0
0
0
0
0
0
0
0
0
0
0
0
0
0
0
0
0
0
0
0
0
0
0
0
0
0
0
0
0
0
0
0
0
0
0
0
0
0
0
0
0
0
0
0
0
0
0
0
0
0
0
0
0
0
0
0
0
0
0
0
0
0
0
0
0
0
0
0
0
0
0
0
0
0
0
0
0
0
0
0
0
0
0
0
0
0
0
0
0
0
0
0
0
0
0
0
0
0
0
0
0
0
0
0
0
0
0
0
0
0
0
0
0
0
0
0
0
0
0
0
0
0
0
0
0
0
0
0
0
0
0
0
0
0
0
0
0
0
0
0
0
0
0
0
0
0
0
0
0
0
0
0
0
1
0
0
0
0
0
0
1
0
0
1
0
0
0
0
0
0
1
0
0
0
0
0
0
0
0
0
0
0
0
0
0
0
0
0
0
0
0
0
0
0
0
0
0
0
0
0
0
0
0
0
0
0
0
0
0
0
0
0
0
0
0
0
0
0
0
0
0
0
1
0
0
0
0
0
0
end_state
begin_goal
7
0 0
1 0
2 0
3 0
14 1
15 1
18 1
end_goal
231
begin_operator
move_seg_09_0_150_seg_rwy_0_1300_south_south_medium airplane_daewh
8
9 1
16 0
334 0
335 0
337 0
338 0
339 0
340 0
5
0 0 1 34
0 27 5 1
0 28 0 4
0 91 -1 0
0 336 0 1
1
end_operator
begin_operator
move_seg_09_0_150_seg_rwy_0_1300_south_south_medium airplane_dfboy
8
10 1
17 0
334 0
335 0
336 0
338 0
339 0
340 0
5
0 1 1 34
0 27 5 2
0 28 1 4
0 92 -1 0
0 337 0 1
1
end_operator
begin_operator
move_seg_09_0_150_seg_rwy_0_1300_south_south_medium airplane_horst
8
12 1
19 0
334 0
335 0
336 0
337 0
338 0
340 0
5
0 2 1 32
0 27 5 3
0 28 2 4
0 94 -1 0
0 339 0 1
1
end_operator
begin_operator
move_seg_09_0_150_seg_rwy_0_1300_south_south_medium airplane_wurst
8
13 1
20 0
334 0
335 0
336 0
337 0
338 0
339 0
5
0 3 1 32
0 27 5 4
0 28 3 4
0 95 -1 0
0 340 0 1
1
end_operator
begin_operator
move_seg_27_0_150_seg_b_27_0_100_south_north_medium airplane_4xekd
7
14 0
111 0
112 0
113 0
114 0
115 0
116 0
7
0 4 0 2
0 7 1 0
0 29 0 5
0 35 5 0
0 61 -1 0
0 110 0 1
0 334 -1 0
1
end_operator
begin_operator
move_seg_27_0_150_seg_b_27_0_100_south_north_medium airplane_daewh
7
16 0
110 0
111 0
113 0
114 0
115 0
116 0
7
0 0 2 5
0 9 1 0
0 29 1 5
0 35 5 1
0 63 -1 0
0 112 0 1
0 336 -1 0
1
end_operator
begin_operator
move_seg_27_0_150_seg_b_27_0_100_south_north_medium airplane_dfboy
7
17 0
110 0
111 0
112 0
114 0
115 0
116 0
7
0 1 2 5
0 10 1 0
0 29 2 5
0 35 5 2
0 64 -1 0
0 113 0 1
0 337 -1 0
1
end_operator
begin_operator
move_seg_27_0_150_seg_b_27_0_100_south_north_medium airplane_horst
7
19 0
110 0
111 0
112 0
113 0
114 0
116 0
7
0 2 2 5
0 12 1 0
0 29 3 5
0 35 5 3
0 66 -1 0
0 115 0 1
0 339 -1 0
1
end_operator
begin_operator
move_seg_27_0_150_seg_b_27_0_100_south_north_medium airplane_wurst
7
20 0
110 0
111 0
112 0
113 0
114 0
115 0
7
0 3 2 5
0 13 1 0
0 29 4 5
0 35 5 4
0 67 -1 0
0 116 0 1
0 340 -1 0
1
end_operator
begin_operator
move_seg_a_09_0_100_seg_09_0_150_south_south_medium airplane_daewh
8
9 1
16 0
61 0
62 0
64 0
65 0
66 0
67 0
5
0 0 4 1
0 28 4 0
0 32 0 4
0 63 0 1
0 189 -1 0
1
end_operator
begin_operator
move_seg_a_09_0_100_seg_09_0_150_south_south_medium airplane_dfboy
8
10 1
17 0
61 0
62 0
63 0
65 0
66 0
67 0
5
0 1 3 1
0 28 4 1
0 32 1 4
0 64 0 1
0 190 -1 0
1
end_operator
begin_operator
move_seg_a_09_0_100_seg_09_0_150_south_south_medium airplane_horst
8
12 1
19 0
61 0
62 0
63 0
64 0
65 0
67 0
5
0 2 3 1
0 28 4 2
0 32 2 4
0 66 0 1
0 192 -1 0
1
end_operator
begin_operator
move_seg_a_09_0_100_seg_09_0_150_south_south_medium airplane_wurst
8
13 1
20 0
61 0
62 0
63 0
64 0
65 0
66 0
5
0 3 4 1
0 28 4 3
0 32 3 4
0 67 0 1
0 193 -1 0
1
end_operator
begin_operator
move_seg_b_27_0_100_seg_n6_b_0_100_north_north_medium airplane_4xekd
8
7 0
14 0
314 0
315 0
316 0
317 0
318 0
319 0
5
0 4 2 14
0 24 5 0
0 35 0 5
0 68 -1 0
0 313 0 1
1
end_operator
begin_operator
move_seg_b_27_0_100_seg_n6_b_0_100_north_north_medium airplane_daewh
8
9 0
16 0
313 0
314 0
316 0
317 0
318 0
319 0
5
0 0 5 31
0 24 5 1
0 35 1 5
0 70 -1 0
0 315 0 1
1
end_operator
begin_operator
move_seg_b_27_0_100_seg_n6_b_0_100_north_north_medium airplane_dfboy
8
10 0
17 0
313 0
314 0
315 0
317 0
318 0
319 0
5
0 1 5 31
0 24 5 2
0 35 2 5
0 71 -1 0
0 316 0 1
1
end_operator
begin_operator
move_seg_b_27_0_100_seg_n6_b_0_100_north_north_medium airplane_horst
8
12 0
19 0
313 0
314 0
315 0
316 0
317 0
319 0
5
0 2 5 29
0 24 5 3
0 35 3 5
0 73 -1 0
0 318 0 1
1
end_operator
begin_operator
move_seg_b_27_0_100_seg_n6_b_0_100_north_north_medium airplane_wurst
8
13 0
20 0
313 0
314 0
315 0
316 0
317 0
318 0
5
0 3 5 29
0 24 5 4
0 35 4 5
0 74 -1 0
0 319 0 1
1
end_operator
begin_operator
move_seg_c2_c3_0_100_seg_c3_c4_0_50_south_south_medium airplane_daewh
10
9 1
16 0
38 2
39 2
124 0
125 0
127 0
128 0
129 0
130 0
7
0 0 6 7
0 36 2 7
0 37 5 0
0 126 0 1
0 133 -1 1
0 140 -1 1
0 182 -1 0
1
end_operator
begin_operator
move_seg_c2_c3_0_100_seg_c3_c4_0_50_south_south_medium airplane_dfboy
10
10 1
17 0
38 2
39 2
124 0
125 0
126 0
128 0
129 0
130 0
7
0 1 6 7
0 36 3 7
0 37 5 1
0 127 0 1
0 134 -1 1
0 141 -1 1
0 183 -1 0
1
end_operator
begin_operator
move_seg_c2_c3_0_100_seg_c3_c4_0_50_south_south_medium airplane_holgi
10
11 1
18 0
38 2
39 2
124 0
125 0
126 0
127 0
129 0
130 0
7
0 5 1 2
0 36 4 7
0 37 5 2
0 128 0 1
0 135 -1 1
0 142 -1 1
0 184 -1 0
1
end_operator
begin_operator
move_seg_c2_c3_0_100_seg_c3_c_a01_0_100_south_south_medium airplane_cfbeg
10
8 1
15 0
37 5
39 2
131 0
133 0
134 0
135 0
136 0
137 0
7
0 6 1 2
0 36 1 7
0 38 2 0
0 125 -1 1
0 132 0 1
0 139 -1 1
0 181 -1 0
1
end_operator
begin_operator
move_seg_c2_c3_0_100_seg_c3_c_a01_0_100_south_south_medium airplane_wurst
10
13 1
20 0
37 5
39 2
131 0
132 0
133 0
134 0
135 0
136 0
7
0 3 6 8
0 36 6 7
0 38 2 1
0 130 -1 1
0 137 0 1
0 144 -1 1
0 186 -1 0
1
end_operator
begin_operator
move_seg_c2_c3_0_100_seg_c3_c_b01_0_100_south_south_medium airplane_4xekd
10
7 1
14 0
37 5
38 2
139 0
140 0
141 0
142 0
143 0
144 0
7
0 4 3 4
0 36 0 7
0 39 2 0
0 124 -1 1
0 131 -1 1
0 138 0 1
0 180 -1 0
1
end_operator
begin_operator
move_seg_c2_c3_0_100_seg_c3_c_b01_0_100_south_south_medium airplane_horst
10
12 1
19 0
37 5
38 2
138 0
139 0
140 0
141 0
142 0
144 0
7
0 2 6 8
0 36 5 7
0 39 2 1
0 129 -1 1
0 136 -1 1
0 143 0 1
0 185 -1 0
1
end_operator
begin_operator
move_seg_c2_c3_0_100_seg_c_c2_0_100_north_north_medium airplane_daewh
8
9 0
16 0
180 0
181 0
183 0
184 0
185 0
186 0
7
0 0 6 12
0 36 2 7
0 45 7 2
0 126 -1 0
0 133 -1 0
0 140 -1 0
0 182 0 1
1
end_operator
begin_operator
move_seg_c2_c3_0_100_seg_c_c2_0_100_north_north_medium airplane_dfboy
8
10 0
17 0
180 0
181 0
182 0
184 0
185 0
186 0
7
0 1 6 12
0 36 3 7
0 45 7 3
0 127 -1 0
0 134 -1 0
0 141 -1 0
0 183 0 1
1
end_operator
begin_operator
move_seg_c2_c3_0_100_seg_c_c2_0_100_north_north_medium airplane_horst
8
12 0
19 0
180 0
181 0
182 0
183 0
184 0
186 0
7
0 2 6 10
0 36 5 7
0 45 7 5
0 129 -1 0
0 136 -1 0
0 143 -1 0
0 185 0 1
1
end_operator
begin_operator
move_seg_c2_c3_0_100_seg_c_c2_0_100_north_north_medium airplane_wurst
8
13 0
20 0
180 0
181 0
182 0
183 0
184 0
185 0
7
0 3 6 10
0 36 6 7
0 45 7 6
0 130 -1 0
0 137 -1 0
0 144 -1 0
0 186 0 1
1
end_operator
begin_operator
move_seg_c3_c4_0_50_seg_c2_c3_0_100_north_north_medium airplane_daewh
10
9 0
16 0
38 2
39 2
117 0
118 0
120 0
121 0
122 0
123 0
7
0 0 7 6
0 36 7 2
0 37 0 5
0 119 0 1
0 133 -1 1
0 140 -1 1
0 147 -1 0
1
end_operator
begin_operator
move_seg_c3_c4_0_50_seg_c2_c3_0_100_north_north_medium airplane_dfboy
10
10 0
17 0
38 2
39 2
117 0
118 0
119 0
121 0
122 0
123 0
7
0 1 7 6
0 36 7 3
0 37 1 5
0 120 0 1
0 134 -1 1
0 141 -1 1
0 148 -1 0
1
end_operator
begin_operator
move_seg_c3_c4_0_50_seg_c2_c3_0_100_north_north_medium airplane_horst
10
12 0
19 0
38 2
39 2
117 0
118 0
119 0
120 0
121 0
123 0
7
0 2 7 6
0 36 7 5
0 37 3 5
0 122 0 1
0 136 -1 1
0 143 -1 1
0 150 -1 0
1
end_operator
begin_operator
move_seg_c3_c4_0_50_seg_c2_c3_0_100_north_north_medium airplane_wurst
10
13 0
20 0
38 2
39 2
117 0
118 0
119 0
120 0
121 0
122 0
7
0 3 7 6
0 36 7 6
0 37 4 5
0 123 0 1
0 137 -1 1
0 144 -1 1
0 151 -1 0
1
end_operator
begin_operator
move_seg_c3_c4_0_50_seg_c4_c5_0_50_south_south_medium airplane_daewh
8
9 1
16 0
145 0
146 0
148 0
149 0
150 0
151 0
7
0 0 7 8
0 37 0 5
0 40 5 0
0 119 -1 0
0 133 -1 0
0 140 -1 0
0 147 0 1
1
end_operator
begin_operator
move_seg_c3_c4_0_50_seg_c4_c5_0_50_south_south_medium airplane_dfboy
8
10 1
17 0
145 0
146 0
147 0
149 0
150 0
151 0
7
0 1 7 8
0 37 1 5
0 40 5 1
0 120 -1 0
0 134 -1 0
0 141 -1 0
0 148 0 1
1
end_operator
begin_operator
move_seg_c3_c4_0_50_seg_c4_c5_0_50_south_south_medium airplane_holgi
8
11 1
18 0
145 0
146 0
147 0
148 0
150 0
151 0
7
0 5 2 3
0 37 2 5
0 40 5 2
0 121 -1 0
0 135 -1 0
0 142 -1 0
0 149 0 1
1
end_operator
begin_operator
move_seg_c3_c_a01_0_100_seg_a01_0_100_south_south_medium airplane_cfbeg
8
8 1
15 0
75 0
77 0
78 0
79 0
80 0
81 0
7
0 6 2 0
0 30 2 0
0 38 0 2
0 76 0 1
0 118 -1 0
0 125 -1 0
0 139 -1 0
1
end_operator
begin_operator
move_seg_c3_c_a01_0_100_seg_a01_0_100_south_south_medium airplane_wurst
8
13 1
20 0
75 0
76 0
77 0
78 0
79 0
80 0
7
0 3 8 3
0 30 2 1
0 38 1 2
0 81 0 1
0 123 -1 0
0 130 -1 0
0 144 -1 0
1
end_operator
begin_operator
move_seg_c3_c_b01_0_100_seg_b01_0_100_south_south_medium airplane_4xekd
8
7 1
14 0
97 0
98 0
99 0
100 0
101 0
102 0
7
0 4 4 1
0 33 2 0
0 39 0 2
0 96 0 1
0 117 -1 0
0 124 -1 0
0 131 -1 0
1
end_operator
begin_operator
move_seg_c3_c_b01_0_100_seg_b01_0_100_south_south_medium airplane_horst
8
12 1
19 0
96 0
97 0
98 0
99 0
100 0
102 0
7
0 2 8 4
0 33 2 1
0 39 1 2
0 101 0 1
0 122 -1 0
0 129 -1 0
0 136 -1 0
1
end_operator
begin_operator
move_seg_c4_c5_0_50_seg_c3_c4_0_50_north_north_medium airplane_daewh
8
9 0
16 0
124 0
125 0
127 0
128 0
129 0
130 0
7
0 0 8 7
0 37 5 0
0 40 0 5
0 126 0 1
0 154 -1 0
0 161 -1 0
0 168 -1 0
1
end_operator
begin_operator
move_seg_c4_c5_0_50_seg_c3_c4_0_50_north_north_medium airplane_dfboy
8
10 0
17 0
124 0
125 0
126 0
128 0
129 0
130 0
7
0 1 8 7
0 37 5 1
0 40 1 5
0 127 0 1
0 155 -1 0
0 162 -1 0
0 169 -1 0
1
end_operator
begin_operator
move_seg_c4_c5_0_50_seg_c3_c4_0_50_north_north_medium airplane_horst
8
12 0
19 0
124 0
125 0
126 0
127 0
128 0
130 0
7
0 2 9 7
0 37 5 3
0 40 3 5
0 129 0 1
0 157 -1 0
0 164 -1 0
0 171 -1 0
1
end_operator
begin_operator
move_seg_c4_c5_0_50_seg_c3_c4_0_50_north_north_medium airplane_wurst
8
13 0
20 0
124 0
125 0
126 0
127 0
128 0
129 0
7
0 3 9 7
0 37 5 4
0 40 4 5
0 130 0 1
0 158 -1 0
0 165 -1 0
0 172 -1 0
1
end_operator
begin_operator
move_seg_c4_c5_0_50_seg_c5_c_a02_0_100_south_south_medium airplane_daewh
10
9 1
16 0
41 2
43 2
159 0
160 0
162 0
163 0
164 0
165 0
7
0 0 8 10
0 40 0 5
0 42 1 0
0 126 -1 0
0 154 -1 1
0 161 0 1
0 168 -1 1
1
end_operator
begin_operator
move_seg_c4_c5_0_50_seg_c5_c_b02_0_100_south_south_medium airplane_dfboy
10
10 1
17 0
41 2
42 1
166 0
167 0
168 0
170 0
171 0
172 0
7
0 1 8 10
0 40 1 5
0 43 2 0
0 127 -1 0
0 155 -1 1
0 162 -1 1
0 169 0 1
1
end_operator
begin_operator
move_seg_c4_c5_0_50_seg_c5_c_b02_0_100_south_south_medium airplane_holgi
10
11 1
18 0
41 2
42 1
166 0
167 0
168 0
169 0
171 0
172 0
7
0 5 3 4
0 40 2 5
0 43 2 1
0 128 -1 0
0 156 -1 1
0 163 -1 1
0 170 0 1
1
end_operator
begin_operator
move_seg_c5_c6_0_50_seg_c4_c5_0_50_north_north_medium airplane_daewh
10
9 0
16 0
42 1
43 2
145 0
146 0
148 0
149 0
150 0
151 0
7
0 0 9 8
0 40 5 0
0 41 0 2
0 147 0 1
0 161 -1 1
0 168 -1 1
0 175 -1 0
1
end_operator
begin_operator
move_seg_c5_c6_0_50_seg_c4_c5_0_50_north_north_medium airplane_dfboy
10
10 0
17 0
42 1
43 2
145 0
146 0
147 0
149 0
150 0
151 0
7
0 1 9 8
0 40 5 1
0 41 1 2
0 148 0 1
0 162 -1 1
0 169 -1 1
0 176 -1 0
1
end_operator
begin_operator
move_seg_c5_c_a02_0_100_seg_a02_0_100_south_south_medium airplane_daewh
8
9 1
16 0
82 0
83 0
85 0
86 0
87 0
88 0
7
0 0 10 3
0 31 1 0
0 42 0 1
0 84 0 1
0 147 -1 0
0 154 -1 0
0 168 -1 0
1
end_operator
begin_operator
move_seg_c5_c_b02_0_100_seg_b02_0_100_south_south_medium airplane_dfboy
8
10 1
17 0
103 0
104 0
105 0
107 0
108 0
109 0
7
0 1 10 4
0 34 2 0
0 43 0 2
0 106 0 1
0 148 -1 0
0 155 -1 0
0 162 -1 0
1
end_operator
begin_operator
move_seg_c5_c_b02_0_100_seg_b02_0_100_south_south_medium airplane_holgi
8
11 1
18 0
103 0
104 0
105 0
106 0
108 0
109 0
7
0 5 4 0
0 34 2 1
0 43 1 2
0 107 0 1
0 149 -1 0
0 156 -1 0
0 163 -1 0
1
end_operator
begin_operator
move_seg_c6_c7_0_100_seg_c5_c6_0_50_north_north_medium airplane_daewh
8
9 0
16 0
152 0
153 0
155 0
156 0
157 0
158 0
4
0 0 11 9
0 41 2 0
0 44 0 2
0 154 0 1
1
end_operator
begin_operator
move_seg_c6_c7_0_100_seg_c5_c6_0_50_north_north_medium airplane_dfboy
8
10 0
17 0
152 0
153 0
154 0
156 0
157 0
158 0
4
0 1 11 9
0 41 2 1
0 44 1 2
0 155 0 1
1
end_operator
begin_operator
move_seg_c_c2_0_100_seg_c2_c3_0_100_south_south_medium airplane_4xekd
8
7 1
14 0
118 0
119 0
120 0
121 0
122 0
123 0
5
0 4 5 3
0 36 7 0
0 45 0 7
0 117 0 1
0 320 -1 0
1
end_operator
begin_operator
move_seg_c_c2_0_100_seg_c2_c3_0_100_south_south_medium airplane_cfbeg
8
8 1
15 0
117 0
119 0
120 0
121 0
122 0
123 0
5
0 6 3 1
0 36 7 1
0 45 1 7
0 118 0 1
0 321 -1 0
1
end_operator
begin_operator
move_seg_c_c2_0_100_seg_c2_c3_0_100_south_south_medium airplane_daewh
8
9 1
16 0
117 0
118 0
120 0
121 0
122 0
123 0
5
0 0 12 6
0 36 7 2
0 45 2 7
0 119 0 1
0 322 -1 0
1
end_operator
begin_operator
move_seg_c_c2_0_100_seg_c2_c3_0_100_south_south_medium airplane_dfboy
8
10 1
17 0
117 0
118 0
119 0
121 0
122 0
123 0
5
0 1 12 6
0 36 7 3
0 45 3 7
0 120 0 1
0 323 -1 0
1
end_operator
begin_operator
move_seg_c_c2_0_100_seg_c2_c3_0_100_south_south_medium airplane_holgi
8
11 1
18 0
117 0
118 0
119 0
120 0
122 0
123 0
5
0 5 5 1
0 36 7 4
0 45 4 7
0 121 0 1
0 324 -1 0
1
end_operator
begin_operator
move_seg_c_c2_0_100_seg_c2_c3_0_100_south_south_medium airplane_horst
8
12 1
19 0
117 0
118 0
119 0
120 0
121 0
123 0
5
0 2 10 6
0 36 7 5
0 45 5 7
0 122 0 1
0 325 -1 0
1
end_operator
begin_operator
move_seg_c_c2_0_100_seg_c2_c3_0_100_south_south_medium airplane_wurst
8
13 1
20 0
117 0
118 0
119 0
120 0
121 0
122 0
5
0 3 10 6
0 36 7 6
0 45 6 7
0 123 0 1
0 326 -1 0
1
end_operator
begin_operator
move_seg_c_c2_0_100_seg_n_c_0_100_north_north_medium airplane_daewh
8
9 0
16 0
320 0
321 0
323 0
324 0
325 0
326 0
5
0 0 12 32
0 25 7 2
0 45 2 7
0 119 -1 0
0 322 0 1
1
end_operator
begin_operator
move_seg_c_c2_0_100_seg_n_c_0_100_north_north_medium airplane_dfboy
8
10 0
17 0
320 0
321 0
322 0
324 0
325 0
326 0
5
0 1 12 32
0 25 7 3
0 45 3 7
0 120 -1 0
0 323 0 1
1
end_operator
begin_operator
move_seg_c_c2_0_100_seg_n_c_0_100_north_north_medium airplane_horst
8
12 0
19 0
320 0
321 0
322 0
323 0
324 0
326 0
5
0 2 10 30
0 25 7 5
0 45 5 7
0 122 -1 0
0 325 0 1
1
end_operator
begin_operator
move_seg_c_c2_0_100_seg_n_c_0_100_north_north_medium airplane_wurst
8
13 0
20 0
320 0
321 0
322 0
323 0
324 0
325 0
5
0 3 10 30
0 25 7 6
0 45 6 7
0 123 -1 0
0 326 0 1
1
end_operator
begin_operator
move_seg_n1_a_0_100_seg_a_09_0_100_south_south_medium airplane_daewh
8
9 1
16 0
89 0
90 0
92 0
93 0
94 0
95 0
5
0 0 13 4
0 32 4 0
0 46 0 4
0 91 0 1
0 196 -1 0
1
end_operator
begin_operator
move_seg_n1_a_0_100_seg_a_09_0_100_south_south_medium airplane_dfboy
8
10 1
17 0
89 0
90 0
91 0
93 0
94 0
95 0
5
0 1 13 3
0 32 4 1
0 46 1 4
0 92 0 1
0 197 -1 0
1
end_operator
begin_operator
move_seg_n1_a_0_100_seg_a_09_0_100_south_south_medium airplane_horst
8
12 1
19 0
89 0
90 0
91 0
92 0
93 0
95 0
5
0 2 11 3
0 32 4 2
0 46 2 4
0 94 0 1
0 199 -1 0
1
end_operator
begin_operator
move_seg_n1_a_0_100_seg_a_09_0_100_south_south_medium airplane_wurst
8
13 1
20 0
89 0
90 0
91 0
92 0
93 0
94 0
5
0 3 11 4
0 32 4 3
0 46 3 4
0 95 0 1
0 200 -1 0
1
end_operator
begin_operator
move_seg_n1_n2_0_100_seg_n1_a_0_100_north_south_medium airplane_daewh
7
16 0
187 0
188 0
190 0
191 0
192 0
193 0
6
0 0 14 13
0 9 0 1
0 46 4 0
0 47 0 4
0 189 0 1
0 210 -1 0
1
end_operator
begin_operator
move_seg_n1_n2_0_100_seg_n1_a_0_100_north_south_medium airplane_dfboy
7
17 0
187 0
188 0
189 0
191 0
192 0
193 0
6
0 1 14 13
0 10 0 1
0 46 4 1
0 47 1 4
0 190 0 1
0 211 -1 0
1
end_operator
begin_operator
move_seg_n1_n2_0_100_seg_n1_a_0_100_north_south_medium airplane_horst
7
19 0
187 0
188 0
189 0
190 0
191 0
193 0
6
0 2 12 11
0 12 0 1
0 46 4 2
0 47 2 4
0 192 0 1
0 213 -1 0
1
end_operator
begin_operator
move_seg_n1_n2_0_100_seg_n1_a_0_100_north_south_medium airplane_wurst
7
20 0
187 0
188 0
189 0
190 0
191 0
192 0
6
0 3 12 11
0 13 0 1
0 46 4 3
0 47 3 4
0 193 0 1
0 214 -1 0
1
end_operator
begin_operator
move_seg_n2_n3_0_85_seg_n2_n3_6_0_86_north_north_medium airplane_daewh
8
9 0
16 0
243 0
244 0
246 0
247 0
248 0
249 0
5
0 0 15 21
0 48 0 4
0 54 4 0
0 245 0 1
0 252 -1 0
1
end_operator
begin_operator
move_seg_n2_n3_0_85_seg_n2_n3_6_0_86_north_north_medium airplane_dfboy
8
10 0
17 0
243 0
244 0
245 0
247 0
248 0
249 0
5
0 1 15 21
0 48 1 4
0 54 4 1
0 246 0 1
0 253 -1 0
1
end_operator
begin_operator
move_seg_n2_n3_0_85_seg_n2_n3_6_0_86_north_north_medium airplane_horst
8
12 0
19 0
243 0
244 0
245 0
246 0
247 0
249 0
5
0 2 13 19
0 48 2 4
0 54 4 2
0 248 0 1
0 255 -1 0
1
end_operator
begin_operator
move_seg_n2_n3_0_85_seg_n2_n3_6_0_86_north_north_medium airplane_wurst
8
13 0
20 0
243 0
244 0
245 0
246 0
247 0
248 0
5
0 3 13 19
0 48 3 4
0 54 4 3
0 249 0 1
0 256 -1 0
1
end_operator
begin_operator
move_seg_n2_n3_1_0_86_seg_n1_n2_0_100_north_north_medium airplane_daewh
8
9 0
16 0
194 0
195 0
197 0
198 0
199 0
200 0
5
0 0 16 14
0 47 4 0
0 49 0 4
0 196 0 1
0 217 -1 0
1
end_operator
begin_operator
move_seg_n2_n3_1_0_86_seg_n1_n2_0_100_north_north_medium airplane_dfboy
8
10 0
17 0
194 0
195 0
196 0
198 0
199 0
200 0
5
0 1 16 14
0 47 4 1
0 49 1 4
0 197 0 1
0 218 -1 0
1
end_operator
begin_operator
move_seg_n2_n3_1_0_86_seg_n1_n2_0_100_north_north_medium airplane_horst
8
12 0
19 0
194 0
195 0
196 0
197 0
198 0
200 0
5
0 2 14 12
0 47 4 2
0 49 2 4
0 199 0 1
0 220 -1 0
1
end_operator
begin_operator
move_seg_n2_n3_1_0_86_seg_n1_n2_0_100_north_north_medium airplane_wurst
8
13 0
20 0
194 0
195 0
196 0
197 0
198 0
199 0
5
0 3 14 12
0 47 4 3
0 49 3 4
0 200 0 1
0 221 -1 0
1
end_operator
begin_operator
move_seg_n2_n3_2_0_86_seg_n2_n3_1_0_86_north_north_medium airplane_daewh
8
9 0
16 0
208 0
209 0
211 0
212 0
213 0
214 0
5
0 0 17 16
0 49 4 0
0 50 0 4
0 210 0 1
0 224 -1 0
1
end_operator
begin_operator
move_seg_n2_n3_2_0_86_seg_n2_n3_1_0_86_north_north_medium airplane_dfboy
8
10 0
17 0
208 0
209 0
210 0
212 0
213 0
214 0
5
0 1 17 16
0 49 4 1
0 50 1 4
0 211 0 1
0 225 -1 0
1
end_operator
begin_operator
move_seg_n2_n3_2_0_86_seg_n2_n3_1_0_86_north_north_medium airplane_horst
8
12 0
19 0
208 0
209 0
210 0
211 0
212 0
214 0
5
0 2 15 14
0 49 4 2
0 50 2 4
0 213 0 1
0 227 -1 0
1
end_operator
begin_operator
move_seg_n2_n3_2_0_86_seg_n2_n3_1_0_86_north_north_medium airplane_wurst
8
13 0
20 0
208 0
209 0
210 0
211 0
212 0
213 0
5
0 3 15 14
0 49 4 3
0 50 3 4
0 214 0 1
0 228 -1 0
1
end_operator
begin_operator
move_seg_n2_n3_3_0_86_seg_n2_n3_2_0_86_north_north_medium airplane_daewh
8
9 0
16 0
215 0
216 0
218 0
219 0
220 0
221 0
5
0 0 18 17
0 50 4 0
0 51 0 4
0 217 0 1
0 231 -1 0
1
end_operator
begin_operator
move_seg_n2_n3_3_0_86_seg_n2_n3_2_0_86_north_north_medium airplane_dfboy
8
10 0
17 0
215 0
216 0
217 0
219 0
220 0
221 0
5
0 1 18 17
0 50 4 1
0 51 1 4
0 218 0 1
0 232 -1 0
1
end_operator
begin_operator
move_seg_n2_n3_3_0_86_seg_n2_n3_2_0_86_north_north_medium airplane_horst
8
12 0
19 0
215 0
216 0
217 0
218 0
219 0
221 0
5
0 2 16 15
0 50 4 2
0 51 2 4
0 220 0 1
0 234 -1 0
1
end_operator
begin_operator
move_seg_n2_n3_3_0_86_seg_n2_n3_2_0_86_north_north_medium airplane_wurst
8
13 0
20 0
215 0
216 0
217 0
218 0
219 0
220 0
5
0 3 16 15
0 50 4 3
0 51 3 4
0 221 0 1
0 235 -1 0
1
end_operator
begin_operator
move_seg_n2_n3_4_0_85_seg_n2_n3_3_0_86_north_north_medium airplane_daewh
8
9 0
16 0
222 0
223 0
225 0
226 0
227 0
228 0
5
0 0 19 18
0 51 4 0
0 52 0 4
0 224 0 1
0 238 -1 0
1
end_operator
begin_operator
move_seg_n2_n3_4_0_85_seg_n2_n3_3_0_86_north_north_medium airplane_dfboy
8
10 0
17 0
222 0
223 0
224 0
226 0
227 0
228 0
5
0 1 19 18
0 51 4 1
0 52 1 4
0 225 0 1
0 239 -1 0
1
end_operator
begin_operator
move_seg_n2_n3_4_0_85_seg_n2_n3_3_0_86_north_north_medium airplane_horst
8
12 0
19 0
222 0
223 0
224 0
225 0
226 0
228 0
5
0 2 17 16
0 51 4 2
0 52 2 4
0 227 0 1
0 241 -1 0
1
end_operator
begin_operator
move_seg_n2_n3_4_0_85_seg_n2_n3_3_0_86_north_north_medium airplane_wurst
8
13 0
20 0
222 0
223 0
224 0
225 0
226 0
227 0
5
0 3 17 16
0 51 4 3
0 52 3 4
0 228 0 1
0 242 -1 0
1
end_operator
begin_operator
move_seg_n2_n3_5_0_86_seg_n2_n3_4_0_85_north_north_medium airplane_daewh
8
9 0
16 0
229 0
230 0
232 0
233 0
234 0
235 0
5
0 0 20 19
0 52 4 0
0 53 0 4
0 231 0 1
0 245 -1 0
1
end_operator
begin_operator
move_seg_n2_n3_5_0_86_seg_n2_n3_4_0_85_north_north_medium airplane_dfboy
8
10 0
17 0
229 0
230 0
231 0
233 0
234 0
235 0
5
0 1 20 19
0 52 4 1
0 53 1 4
0 232 0 1
0 246 -1 0
1
end_operator
begin_operator
move_seg_n2_n3_5_0_86_seg_n2_n3_4_0_85_north_north_medium airplane_horst
8
12 0
19 0
229 0
230 0
231 0
232 0
233 0
235 0
5
0 2 18 17
0 52 4 2
0 53 2 4
0 234 0 1
0 248 -1 0
1
end_operator
begin_operator
move_seg_n2_n3_5_0_86_seg_n2_n3_4_0_85_north_north_medium airplane_wurst
8
13 0
20 0
229 0
230 0
231 0
232 0
233 0
234 0
5
0 3 18 17
0 52 4 3
0 53 3 4
0 235 0 1
0 249 -1 0
1
end_operator
begin_operator
move_seg_n2_n3_6_0_86_seg_n2_n3_5_0_86_north_north_medium airplane_daewh
8
9 0
16 0
236 0
237 0
239 0
240 0
241 0
242 0
5
0 0 21 20
0 53 4 0
0 54 0 4
0 203 -1 0
0 238 0 1
1
end_operator
begin_operator
move_seg_n2_n3_6_0_86_seg_n2_n3_5_0_86_north_north_medium airplane_dfboy
8
10 0
17 0
236 0
237 0
238 0
240 0
241 0
242 0
5
0 1 21 20
0 53 4 1
0 54 1 4
0 204 -1 0
0 239 0 1
1
end_operator
begin_operator
move_seg_n2_n3_6_0_86_seg_n2_n3_5_0_86_north_north_medium airplane_horst
8
12 0
19 0
236 0
237 0
238 0
239 0
240 0
242 0
5
0 2 19 18
0 53 4 2
0 54 2 4
0 206 -1 0
0 241 0 1
1
end_operator
begin_operator
move_seg_n2_n3_6_0_86_seg_n2_n3_5_0_86_north_north_medium airplane_wurst
8
13 0
20 0
236 0
237 0
238 0
239 0
240 0
241 0
5
0 3 19 18
0 53 4 3
0 54 3 4
0 207 -1 0
0 242 0 1
1
end_operator
begin_operator
move_seg_n3_n_0_100_seg_n2_n3_0_85_north_north_medium airplane_daewh
8
9 0
16 0
201 0
202 0
204 0
205 0
206 0
207 0
6
0 0 22 15
0 48 4 0
0 55 0 4
0 203 0 1
0 322 -1 0
0 329 -1 0
1
end_operator
begin_operator
move_seg_n3_n_0_100_seg_n2_n3_0_85_north_north_medium airplane_dfboy
8
10 0
17 0
201 0
202 0
203 0
205 0
206 0
207 0
6
0 1 22 15
0 48 4 1
0 55 1 4
0 204 0 1
0 323 -1 0
0 330 -1 0
1
end_operator
begin_operator
move_seg_n3_n_0_100_seg_n2_n3_0_85_north_north_medium airplane_horst
8
12 0
19 0
201 0
202 0
203 0
204 0
205 0
207 0
6
0 2 20 13
0 48 4 2
0 55 2 4
0 206 0 1
0 325 -1 0
0 332 -1 0
1
end_operator
begin_operator
move_seg_n3_n_0_100_seg_n2_n3_0_85_north_north_medium airplane_wurst
8
13 0
20 0
201 0
202 0
203 0
204 0
205 0
206 0
6
0 3 20 13
0 48 4 3
0 55 3 4
0 207 0 1
0 326 -1 0
0 333 -1 0
1
end_operator
begin_operator
move_seg_n4_n5_0_86_seg_n4_n5_6_0_86_north_north_medium airplane_4xekd
8
7 0
14 0
300 0
301 0
302 0
303 0
304 0
305 0
5
0 4 6 12
0 22 5 0
0 56 0 5
0 299 0 1
0 306 -1 0
1
end_operator
begin_operator
move_seg_n4_n5_0_86_seg_n4_n5_6_0_86_north_north_medium airplane_daewh
8
9 0
16 0
299 0
300 0
302 0
303 0
304 0
305 0
5
0 0 23 29
0 22 5 1
0 56 1 5
0 301 0 1
0 308 -1 0
1
end_operator
begin_operator
move_seg_n4_n5_0_86_seg_n4_n5_6_0_86_north_north_medium airplane_dfboy
8
10 0
17 0
299 0
300 0
301 0
303 0
304 0
305 0
5
0 1 23 29
0 22 5 2
0 56 2 5
0 302 0 1
0 309 -1 0
1
end_operator
begin_operator
move_seg_n4_n5_0_86_seg_n4_n5_6_0_86_north_north_medium airplane_horst
8
12 0
19 0
299 0
300 0
301 0
302 0
303 0
305 0
5
0 2 21 27
0 22 5 3
0 56 3 5
0 304 0 1
0 311 -1 0
1
end_operator
begin_operator
move_seg_n4_n5_0_86_seg_n4_n5_6_0_86_north_north_medium airplane_wurst
8
13 0
20 0
299 0
300 0
301 0
302 0
303 0
304 0
5
0 3 21 27
0 22 5 4
0 56 4 5
0 305 0 1
0 312 -1 0
1
end_operator
begin_operator
move_seg_n4_n5_1_0_85_seg_n_n4_0_100_north_north_medium airplane_4xekd
8
7 0
14 0
328 0
329 0
330 0
331 0
332 0
333 0
5
0 4 7 16
0 26 7 0
0 57 0 7
0 271 -1 0
0 327 0 1
1
end_operator
begin_operator
move_seg_n4_n5_1_0_85_seg_n_n4_0_100_north_north_medium airplane_cfbeg
8
8 0
15 0
327 0
329 0
330 0
331 0
332 0
333 0
5
0 6 4 6
0 26 7 1
0 57 1 7
0 272 -1 0
0 328 0 1
1
end_operator
begin_operator
move_seg_n4_n5_1_0_85_seg_n_n4_0_100_north_north_medium airplane_daewh
8
9 0
16 0
327 0
328 0
330 0
331 0
332 0
333 0
5
0 0 24 33
0 26 7 2
0 57 2 7
0 273 -1 0
0 329 0 1
1
end_operator
begin_operator
move_seg_n4_n5_1_0_85_seg_n_n4_0_100_north_north_medium airplane_dfboy
8
10 0
17 0
327 0
328 0
329 0
331 0
332 0
333 0
5
0 1 24 33
0 26 7 3
0 57 3 7
0 274 -1 0
0 330 0 1
1
end_operator
begin_operator
move_seg_n4_n5_1_0_85_seg_n_n4_0_100_north_north_medium airplane_holgi
8
11 0
18 0
327 0
328 0
329 0
330 0
332 0
333 0
5
0 5 6 9
0 26 7 4
0 57 4 7
0 275 -1 0
0 331 0 1
1
end_operator
begin_operator
move_seg_n4_n5_1_0_85_seg_n_n4_0_100_north_north_medium airplane_horst
8
12 0
19 0
327 0
328 0
329 0
330 0
331 0
333 0
5
0 2 22 31
0 26 7 5
0 57 5 7
0 276 -1 0
0 332 0 1
1
end_operator
begin_operator
move_seg_n4_n5_1_0_85_seg_n_n4_0_100_north_north_medium airplane_wurst
8
13 0
20 0
327 0
328 0
329 0
330 0
331 0
332 0
5
0 3 22 31
0 26 7 6
0 57 6 7
0 277 -1 0
0 333 0 1
1
end_operator
begin_operator
move_seg_n4_n5_2_0_86_seg_n4_n5_1_0_85_north_north_medium airplane_4xekd
8
7 0
14 0
265 0
266 0
267 0
268 0
269 0
270 0
5
0 4 8 7
0 57 7 0
0 58 0 6
0 264 0 1
0 278 -1 0
1
end_operator
begin_operator
move_seg_n4_n5_2_0_86_seg_n4_n5_1_0_85_north_north_medium airplane_daewh
8
9 0
16 0
264 0
265 0
267 0
268 0
269 0
270 0
5
0 0 25 24
0 57 7 2
0 58 1 6
0 266 0 1
0 280 -1 0
1
end_operator
begin_operator
move_seg_n4_n5_2_0_86_seg_n4_n5_1_0_85_north_north_medium airplane_dfboy
8
10 0
17 0
264 0
265 0
266 0
268 0
269 0
270 0
5
0 1 25 24
0 57 7 3
0 58 2 6
0 267 0 1
0 281 -1 0
1
end_operator
begin_operator
move_seg_n4_n5_2_0_86_seg_n4_n5_1_0_85_north_north_medium airplane_holgi
8
11 0
18 0
264 0
265 0
266 0
267 0
269 0
270 0
5
0 5 7 6
0 57 7 4
0 58 3 6
0 268 0 1
0 282 -1 0
1
end_operator
begin_operator
move_seg_n4_n5_2_0_86_seg_n4_n5_1_0_85_north_north_medium airplane_horst
8
12 0
19 0
264 0
265 0
266 0
267 0
268 0
270 0
5
0 2 23 22
0 57 7 5
0 58 4 6
0 269 0 1
0 283 -1 0
1
end_operator
begin_operator
move_seg_n4_n5_2_0_86_seg_n4_n5_1_0_85_north_north_medium airplane_wurst
8
13 0
20 0
264 0
265 0
266 0
267 0
268 0
269 0
5
0 3 23 22
0 57 7 6
0 58 5 6
0 270 0 1
0 284 -1 0
1
end_operator
begin_operator
move_seg_n4_n5_3_0_86_seg_n4_n5_2_0_86_north_north_medium airplane_4xekd
8
7 0
14 0
272 0
273 0
274 0
275 0
276 0
277 0
5
0 4 9 8
0 58 6 0
0 59 0 5
0 271 0 1
0 285 -1 0
1
end_operator
begin_operator
move_seg_n4_n5_3_0_86_seg_n4_n5_2_0_86_north_north_medium airplane_daewh
8
9 0
16 0
271 0
272 0
274 0
275 0
276 0
277 0
5
0 0 26 25
0 58 6 1
0 59 1 5
0 273 0 1
0 287 -1 0
1
end_operator
begin_operator
move_seg_n4_n5_3_0_86_seg_n4_n5_2_0_86_north_north_medium airplane_dfboy
8
10 0
17 0
271 0
272 0
273 0
275 0
276 0
277 0
5
0 1 26 25
0 58 6 2
0 59 2 5
0 274 0 1
0 288 -1 0
1
end_operator
begin_operator
move_seg_n4_n5_3_0_86_seg_n4_n5_2_0_86_north_north_medium airplane_horst
8
12 0
19 0
271 0
272 0
273 0
274 0
275 0
277 0
5
0 2 24 23
0 58 6 4
0 59 3 5
0 276 0 1
0 290 -1 0
1
end_operator
begin_operator
move_seg_n4_n5_3_0_86_seg_n4_n5_2_0_86_north_north_medium airplane_wurst
8
13 0
20 0
271 0
272 0
273 0
274 0
275 0
276 0
5
0 3 24 23
0 58 6 5
0 59 4 5
0 277 0 1
0 291 -1 0
1
end_operator
begin_operator
move_seg_n4_n5_4_0_85_seg_n4_n5_3_0_86_north_north_medium airplane_4xekd
8
7 0
14 0
279 0
280 0
281 0
282 0
283 0
284 0
5
0 4 10 9
0 59 5 0
0 60 0 5
0 278 0 1
0 292 -1 0
1
end_operator
begin_operator
move_seg_n4_n5_4_0_85_seg_n4_n5_3_0_86_north_north_medium airplane_daewh
8
9 0
16 0
278 0
279 0
281 0
282 0
283 0
284 0
5
0 0 27 26
0 59 5 1
0 60 1 5
0 280 0 1
0 294 -1 0
1
end_operator
begin_operator
move_seg_n4_n5_4_0_85_seg_n4_n5_3_0_86_north_north_medium airplane_dfboy
8
10 0
17 0
278 0
279 0
280 0
282 0
283 0
284 0
5
0 1 27 26
0 59 5 2
0 60 2 5
0 281 0 1
0 295 -1 0
1
end_operator
begin_operator
move_seg_n4_n5_4_0_85_seg_n4_n5_3_0_86_north_north_medium airplane_horst
8
12 0
19 0
278 0
279 0
280 0
281 0
282 0
284 0
5
0 2 25 24
0 59 5 3
0 60 3 5
0 283 0 1
0 297 -1 0
1
end_operator
begin_operator
move_seg_n4_n5_4_0_85_seg_n4_n5_3_0_86_north_north_medium airplane_wurst
8
13 0
20 0
278 0
279 0
280 0
281 0
282 0
283 0
5
0 3 25 24
0 59 5 4
0 60 4 5
0 284 0 1
0 298 -1 0
1
end_operator
begin_operator
move_seg_n4_n5_5_0_86_seg_n4_n5_4_0_85_north_north_medium airplane_4xekd
8
7 0
14 0
286 0
287 0
288 0
289 0
290 0
291 0
5
0 4 11 10
0 21 0 5
0 60 5 0
0 285 0 1
0 299 -1 0
1
end_operator
begin_operator
move_seg_n4_n5_5_0_86_seg_n4_n5_4_0_85_north_north_medium airplane_daewh
8
9 0
16 0
285 0
286 0
288 0
289 0
290 0
291 0
5
0 0 28 27
0 21 1 5
0 60 5 1
0 287 0 1
0 301 -1 0
1
end_operator
begin_operator
move_seg_n4_n5_5_0_86_seg_n4_n5_4_0_85_north_north_medium airplane_dfboy
8
10 0
17 0
285 0
286 0
287 0
289 0
290 0
291 0
5
0 1 28 27
0 21 2 5
0 60 5 2
0 288 0 1
0 302 -1 0
1
end_operator
begin_operator
move_seg_n4_n5_5_0_86_seg_n4_n5_4_0_85_north_north_medium airplane_horst
8
12 0
19 0
285 0
286 0
287 0
288 0
289 0
291 0
5
0 2 26 25
0 21 3 5
0 60 5 3
0 290 0 1
0 304 -1 0
1
end_operator
begin_operator
move_seg_n4_n5_5_0_86_seg_n4_n5_4_0_85_north_north_medium airplane_wurst
8
13 0
20 0
285 0
286 0
287 0
288 0
289 0
290 0
5
0 3 26 25
0 21 4 5
0 60 5 4
0 291 0 1
0 305 -1 0
1
end_operator
begin_operator
move_seg_n4_n5_6_0_86_seg_n4_n5_5_0_86_north_north_medium airplane_4xekd
8
7 0
14 0
293 0
294 0
295 0
296 0
297 0
298 0
5
0 4 12 11
0 21 5 0
0 22 0 5
0 257 -1 0
0 292 0 1
1
end_operator
begin_operator
move_seg_n4_n5_6_0_86_seg_n4_n5_5_0_86_north_north_medium airplane_daewh
8
9 0
16 0
292 0
293 0
295 0
296 0
297 0
298 0
5
0 0 29 28
0 21 5 1
0 22 1 5
0 259 -1 0
0 294 0 1
1
end_operator
begin_operator
move_seg_n4_n5_6_0_86_seg_n4_n5_5_0_86_north_north_medium airplane_dfboy
8
10 0
17 0
292 0
293 0
294 0
296 0
297 0
298 0
5
0 1 29 28
0 21 5 2
0 22 2 5
0 260 -1 0
0 295 0 1
1
end_operator
begin_operator
move_seg_n4_n5_6_0_86_seg_n4_n5_5_0_86_north_north_medium airplane_horst
8
12 0
19 0
292 0
293 0
294 0
295 0
296 0
298 0
5
0 2 27 26
0 21 5 3
0 22 3 5
0 262 -1 0
0 297 0 1
1
end_operator
begin_operator
move_seg_n4_n5_6_0_86_seg_n4_n5_5_0_86_north_north_medium airplane_wurst
8
13 0
20 0
292 0
293 0
294 0
295 0
296 0
297 0
5
0 3 27 26
0 21 5 4
0 22 4 5
0 263 -1 0
0 298 0 1
1
end_operator
begin_operator
move_seg_n5_n6_0_100_seg_n4_n5_0_86_north_north_medium airplane_4xekd
8
7 0
14 0
258 0
259 0
260 0
261 0
262 0
263 0
5
0 4 13 6
0 23 0 5
0 56 5 0
0 257 0 1
0 313 -1 0
1
end_operator
begin_operator
move_seg_n5_n6_0_100_seg_n4_n5_0_86_north_north_medium airplane_daewh
8
9 0
16 0
257 0
258 0
260 0
261 0
262 0
263 0
5
0 0 30 23
0 23 1 5
0 56 5 1
0 259 0 1
0 315 -1 0
1
end_operator
begin_operator
move_seg_n5_n6_0_100_seg_n4_n5_0_86_north_north_medium airplane_dfboy
8
10 0
17 0
257 0
258 0
259 0
261 0
262 0
263 0
5
0 1 30 23
0 23 2 5
0 56 5 2
0 260 0 1
0 316 -1 0
1
end_operator
begin_operator
move_seg_n5_n6_0_100_seg_n4_n5_0_86_north_north_medium airplane_horst
8
12 0
19 0
257 0
258 0
259 0
260 0
261 0
263 0
5
0 2 28 21
0 23 3 5
0 56 5 3
0 262 0 1
0 318 -1 0
1
end_operator
begin_operator
move_seg_n5_n6_0_100_seg_n4_n5_0_86_north_north_medium airplane_wurst
8
13 0
20 0
257 0
258 0
259 0
260 0
261 0
262 0
5
0 3 28 21
0 23 4 5
0 56 5 4
0 263 0 1
0 319 -1 0
1
end_operator
begin_operator
move_seg_n6_b_0_100_seg_n5_n6_0_100_north_north_medium airplane_4xekd
8
7 0
14 0
307 0
308 0
309 0
310 0
311 0
312 0
5
0 4 14 13
0 23 5 0
0 24 0 5
0 110 -1 0
0 306 0 1
1
end_operator
begin_operator
move_seg_n6_b_0_100_seg_n5_n6_0_100_north_north_medium airplane_daewh
8
9 0
16 0
306 0
307 0
309 0
310 0
311 0
312 0
5
0 0 31 30
0 23 5 1
0 24 1 5
0 112 -1 0
0 308 0 1
1
end_operator
begin_operator
move_seg_n6_b_0_100_seg_n5_n6_0_100_north_north_medium airplane_dfboy
8
10 0
17 0
306 0
307 0
308 0
310 0
311 0
312 0
5
0 1 31 30
0 23 5 2
0 24 2 5
0 113 -1 0
0 309 0 1
1
end_operator
begin_operator
move_seg_n6_b_0_100_seg_n5_n6_0_100_north_north_medium airplane_horst
8
12 0
19 0
306 0
307 0
308 0
309 0
310 0
312 0
5
0 2 29 28
0 23 5 3
0 24 3 5
0 115 -1 0
0 311 0 1
1
end_operator
begin_operator
move_seg_n6_b_0_100_seg_n5_n6_0_100_north_north_medium airplane_wurst
8
13 0
20 0
306 0
307 0
308 0
309 0
310 0
311 0
5
0 3 29 28
0 23 5 4
0 24 4 5
0 116 -1 0
0 312 0 1
1
end_operator
begin_operator
move_seg_n_c_0_100_seg_c_c2_0_100_south_south_medium airplane_4xekd
8
7 1
14 0
181 0
182 0
183 0
184 0
185 0
186 0
6
0 4 15 5
0 25 0 7
0 45 7 0
0 180 0 1
0 250 -1 0
0 327 -1 0
1
end_operator
begin_operator
move_seg_n_c_0_100_seg_c_c2_0_100_south_south_medium airplane_cfbeg
8
8 1
15 0
180 0
182 0
183 0
184 0
185 0
186 0
6
0 6 5 3
0 25 1 7
0 45 7 1
0 181 0 1
0 251 -1 0
0 328 -1 0
1
end_operator
begin_operator
move_seg_n_c_0_100_seg_c_c2_0_100_south_south_medium airplane_daewh
8
9 1
16 0
180 0
181 0
183 0
184 0
185 0
186 0
6
0 0 32 12
0 25 2 7
0 45 7 2
0 182 0 1
0 252 -1 0
0 329 -1 0
1
end_operator
begin_operator
move_seg_n_c_0_100_seg_c_c2_0_100_south_south_medium airplane_dfboy
8
10 1
17 0
180 0
181 0
182 0
184 0
185 0
186 0
6
0 1 32 12
0 25 3 7
0 45 7 3
0 183 0 1
0 253 -1 0
0 330 -1 0
1
end_operator
begin_operator
move_seg_n_c_0_100_seg_c_c2_0_100_south_south_medium airplane_holgi
8
11 1
18 0
180 0
181 0
182 0
183 0
185 0
186 0
6
0 5 8 5
0 25 4 7
0 45 7 4
0 184 0 1
0 254 -1 0
0 331 -1 0
1
end_operator
begin_operator
move_seg_n_c_0_100_seg_c_c2_0_100_south_south_medium airplane_horst
8
12 1
19 0
180 0
181 0
182 0
183 0
184 0
186 0
6
0 2 30 10
0 25 5 7
0 45 7 5
0 185 0 1
0 255 -1 0
0 332 -1 0
1
end_operator
begin_operator
move_seg_n_c_0_100_seg_c_c2_0_100_south_south_medium airplane_wurst
8
13 1
20 0
180 0
181 0
182 0
183 0
184 0
185 0
6
0 3 30 10
0 25 6 7
0 45 7 6
0 186 0 1
0 256 -1 0
0 333 -1 0
1
end_operator
begin_operator
move_seg_n_c_0_100_seg_n3_n_0_100_north_north_medium airplane_daewh
9
9 0
16 0
26 7
250 0
251 0
253 0
254 0
255 0
256 0
6
0 0 32 22
0 25 2 7
0 55 4 0
0 182 -1 0
0 252 0 1
0 329 -1 1
1
end_operator
begin_operator
move_seg_n_c_0_100_seg_n3_n_0_100_north_north_medium airplane_dfboy
9
10 0
17 0
26 7
250 0
251 0
252 0
254 0
255 0
256 0
6
0 1 32 22
0 25 3 7
0 55 4 1
0 183 -1 0
0 253 0 1
0 330 -1 1
1
end_operator
begin_operator
move_seg_n_c_0_100_seg_n3_n_0_100_north_north_medium airplane_horst
9
12 0
19 0
26 7
250 0
251 0
252 0
253 0
254 0
256 0
6
0 2 30 20
0 25 5 7
0 55 4 2
0 185 -1 0
0 255 0 1
0 332 -1 1
1
end_operator
begin_operator
move_seg_n_c_0_100_seg_n3_n_0_100_north_north_medium airplane_wurst
9
13 0
20 0
26 7
250 0
251 0
252 0
253 0
254 0
255 0
6
0 3 30 20
0 25 6 7
0 55 4 3
0 186 -1 0
0 256 0 1
0 333 -1 1
1
end_operator
begin_operator
move_seg_n_n4_0_100_seg_n_c_0_100_north_south_medium airplane_4xekd
8
14 0
55 4
321 0
322 0
323 0
324 0
325 0
326 0
7
0 4 16 15
0 7 0 1
0 25 7 0
0 26 0 7
0 250 -1 1
0 264 -1 0
0 320 0 1
1
end_operator
begin_operator
move_seg_n_n4_0_100_seg_n_c_0_100_north_south_medium airplane_cfbeg
8
15 0
55 4
320 0
322 0
323 0
324 0
325 0
326 0
7
0 6 6 5
0 8 0 1
0 25 7 1
0 26 1 7
0 251 -1 1
0 265 -1 0
0 321 0 1
1
end_operator
begin_operator
move_seg_n_n4_0_100_seg_n_c_0_100_north_south_medium airplane_daewh
8
16 0
55 4
320 0
321 0
323 0
324 0
325 0
326 0
7
0 0 33 32
0 9 0 1
0 25 7 2
0 26 2 7
0 252 -1 1
0 266 -1 0
0 322 0 1
1
end_operator
begin_operator
move_seg_n_n4_0_100_seg_n_c_0_100_north_south_medium airplane_dfboy
8
17 0
55 4
320 0
321 0
322 0
324 0
325 0
326 0
7
0 1 33 32
0 10 0 1
0 25 7 3
0 26 3 7
0 253 -1 1
0 267 -1 0
0 323 0 1
1
end_operator
begin_operator
move_seg_n_n4_0_100_seg_n_c_0_100_north_south_medium airplane_holgi
8
18 0
55 4
320 0
321 0
322 0
323 0
325 0
326 0
7
0 5 9 8
0 11 0 1
0 25 7 4
0 26 4 7
0 254 -1 1
0 268 -1 0
0 324 0 1
1
end_operator
begin_operator
move_seg_n_n4_0_100_seg_n_c_0_100_north_south_medium airplane_horst
8
19 0
55 4
320 0
321 0
322 0
323 0
324 0
326 0
7
0 2 31 30
0 12 0 1
0 25 7 5
0 26 5 7
0 255 -1 1
0 269 -1 0
0 325 0 1
1
end_operator
begin_operator
move_seg_n_n4_0_100_seg_n_c_0_100_north_south_medium airplane_wurst
8
20 0
55 4
320 0
321 0
322 0
323 0
324 0
325 0
7
0 3 31 30
0 13 0 1
0 25 7 6
0 26 6 7
0 256 -1 1
0 270 -1 0
0 326 0 1
1
end_operator
begin_operator
move_seg_rwy_0_1300_seg_27_0_150_south_south_medium airplane_4xekd
9
7 1
14 0
28 4
69 0
70 0
71 0
72 0
73 0
74 0
4
0 4 17 0
0 27 0 5
0 29 5 0
0 68 0 1
1
end_operator
begin_operator
move_seg_rwy_0_1300_seg_27_0_150_south_south_medium airplane_daewh
9
9 1
16 0
28 4
68 0
69 0
71 0
72 0
73 0
74 0
4
0 0 34 2
0 27 1 5
0 29 5 1
0 70 0 1
1
end_operator
begin_operator
move_seg_rwy_0_1300_seg_27_0_150_south_south_medium airplane_dfboy
9
10 1
17 0
28 4
68 0
69 0
70 0
72 0
73 0
74 0
4
0 1 34 2
0 27 2 5
0 29 5 2
0 71 0 1
1
end_operator
begin_operator
move_seg_rwy_0_1300_seg_27_0_150_south_south_medium airplane_horst
9
12 1
19 0
28 4
68 0
69 0
70 0
71 0
72 0
74 0
4
0 2 32 2
0 27 3 5
0 29 5 3
0 73 0 1
1
end_operator
begin_operator
move_seg_rwy_0_1300_seg_27_0_150_south_south_medium airplane_wurst
9
13 1
20 0
28 4
68 0
69 0
70 0
71 0
72 0
73 0
4
0 3 32 2
0 27 4 5
0 29 5 4
0 74 0 1
1
end_operator
begin_operator
park_seg_a01_0_100_south airplane_cfbeg
3
6 0
8 1
30 0
2
0 15 0 1
0 132 -1 0
1
end_operator
begin_operator
park_seg_a01_0_100_south airplane_wurst
3
3 3
13 1
30 1
2
0 20 0 2
0 137 -1 0
1
end_operator
begin_operator
park_seg_a02_0_100_south airplane_daewh
3
0 3
9 1
31 0
2
0 16 0 2
0 161 -1 0
1
end_operator
begin_operator
park_seg_b01_0_100_south airplane_4xekd
3
4 1
7 1
33 0
2
0 14 0 1
0 138 -1 0
1
end_operator
begin_operator
park_seg_b01_0_100_south airplane_horst
3
2 4
12 1
33 1
2
0 19 0 2
0 143 -1 0
1
end_operator
begin_operator
park_seg_b02_0_100_south airplane_dfboy
3
1 4
10 1
34 0
2
0 17 0 2
0 169 -1 0
1
end_operator
begin_operator
park_seg_b02_0_100_south airplane_holgi
3
5 0
11 1
34 1
2
0 18 0 1
0 170 -1 0
1
end_operator
begin_operator
pushback_seg_a01_0_100_seg_c3_c_a01_0_100_south_south_medium airplane_wurst
8
13 1
20 1
131 0
132 0
133 0
134 0
135 0
136 0
5
0 3 3 8
0 30 1 2
0 38 2 1
0 81 -1 0
0 137 0 1
1
end_operator
begin_operator
pushback_seg_a02_0_100_seg_c5_c_a02_0_100_south_south_medium airplane_daewh
8
9 1
16 1
159 0
160 0
162 0
163 0
164 0
165 0
5
0 0 3 10
0 31 0 1
0 42 1 0
0 84 -1 0
0 161 0 1
1
end_operator
begin_operator
pushback_seg_b01_0_100_seg_c3_c_b01_0_100_south_south_medium airplane_horst
8
12 1
19 1
138 0
139 0
140 0
141 0
142 0
144 0
5
0 2 4 8
0 33 1 2
0 39 2 1
0 101 -1 0
0 143 0 1
1
end_operator
begin_operator
pushback_seg_b02_0_100_seg_c5_c_b02_0_100_south_south_medium airplane_dfboy
8
10 1
17 1
166 0
167 0
168 0
170 0
171 0
172 0
5
0 1 4 10
0 34 0 2
0 43 2 0
0 106 -1 0
0 169 0 1
1
end_operator
begin_operator
pushback_seg_c3_c4_0_50_seg_c4_c5_0_50_north_north_medium airplane_horst
8
12 0
19 1
145 0
146 0
147 0
148 0
149 0
151 0
5
0 2 7 9
0 37 3 5
0 40 5 3
0 129 -1 0
0 150 0 1
1
end_operator
begin_operator
pushback_seg_c3_c4_0_50_seg_c4_c5_0_50_north_north_medium airplane_wurst
8
13 0
20 1
145 0
146 0
147 0
148 0
149 0
150 0
5
0 3 7 9
0 37 4 5
0 40 5 4
0 130 -1 0
0 151 0 1
1
end_operator
begin_operator
pushback_seg_c3_c_a01_0_100_seg_c3_c4_0_50_south_north_medium airplane_wurst
7
20 1
124 0
125 0
126 0
127 0
128 0
129 0
6
0 3 8 7
0 13 1 0
0 37 5 4
0 38 1 2
0 130 0 1
0 137 -1 0
1
end_operator
begin_operator
pushback_seg_c3_c_b01_0_100_seg_c3_c4_0_50_south_north_medium airplane_horst
7
19 1
124 0
125 0
126 0
127 0
128 0
130 0
6
0 2 8 7
0 12 1 0
0 37 5 3
0 39 1 2
0 129 0 1
0 143 -1 0
1
end_operator
begin_operator
pushback_seg_c5_c6_0_50_seg_c6_c7_0_100_north_north_medium airplane_daewh
8
9 0
16 1
173 0
174 0
176 0
177 0
178 0
179 0
5
0 0 9 11
0 41 0 2
0 44 2 0
0 154 -1 0
0 175 0 1
1
end_operator
begin_operator
pushback_seg_c5_c6_0_50_seg_c6_c7_0_100_north_north_medium airplane_dfboy
8
10 0
17 1
173 0
174 0
175 0
177 0
178 0
179 0
5
0 1 9 11
0 41 1 2
0 44 2 1
0 155 -1 0
0 176 0 1
1
end_operator
begin_operator
pushback_seg_c5_c_a02_0_100_seg_c5_c6_0_50_south_north_medium airplane_daewh
7
16 1
152 0
153 0
155 0
156 0
157 0
158 0
6
0 0 10 9
0 9 1 0
0 41 2 0
0 42 0 1
0 154 0 1
0 161 -1 0
1
end_operator
begin_operator
pushback_seg_c5_c_b02_0_100_seg_c5_c6_0_50_south_north_medium airplane_dfboy
7
17 1
152 0
153 0
154 0
156 0
157 0
158 0
6
0 1 10 9
0 10 1 0
0 41 2 1
0 43 0 2
0 155 0 1
0 169 -1 0
1
end_operator
begin_operator
startup_seg_a01_0_100_north_medium airplane_wurst
2
3 3
30 1
1
0 20 1 0
1
end_operator
begin_operator
startup_seg_a01_0_100_south_medium airplane_wurst
3
3 3
30 1
38 2
2
0 20 1 0
0 137 -1 1
1
end_operator
begin_operator
startup_seg_a02_0_100_north_medium airplane_daewh
2
0 3
31 0
1
0 16 1 0
1
end_operator
begin_operator
startup_seg_a02_0_100_south_medium airplane_daewh
3
0 3
31 0
42 1
2
0 16 1 0
0 161 -1 1
1
end_operator
begin_operator
startup_seg_b01_0_100_north_medium airplane_horst
2
2 4
33 1
1
0 19 1 0
1
end_operator
begin_operator
startup_seg_b01_0_100_south_medium airplane_horst
3
2 4
33 1
39 2
2
0 19 1 0
0 143 -1 1
1
end_operator
begin_operator
startup_seg_b02_0_100_north_medium airplane_dfboy
2
1 4
34 0
1
0 17 1 0
1
end_operator
begin_operator
startup_seg_b02_0_100_south_medium airplane_dfboy
3
1 4
34 0
43 2
2
0 17 1 0
0 169 -1 1
1
end_operator
begin_operator
startup_seg_c3_c4_0_50_north_medium airplane_horst
3
2 7
37 3
40 5
2
0 19 1 0
0 150 -1 1
1
end_operator
begin_operator
startup_seg_c3_c4_0_50_north_medium airplane_wurst
3
3 7
37 4
40 5
2
0 20 1 0
0 151 -1 1
1
end_operator
begin_operator
startup_seg_c3_c4_0_50_south_medium airplane_horst
5
2 7
36 7
37 3
38 2
39 2
4
0 19 1 0
0 122 -1 1
0 136 -1 1
0 143 -1 1
1
end_operator
begin_operator
startup_seg_c3_c4_0_50_south_medium airplane_wurst
5
3 7
36 7
37 4
38 2
39 2
4
0 20 1 0
0 123 -1 1
0 137 -1 1
0 144 -1 1
1
end_operator
begin_operator
startup_seg_c3_c_a01_0_100_north_medium airplane_wurst
3
3 8
30 2
38 1
2
0 20 1 0
0 81 -1 1
1
end_operator
begin_operator
startup_seg_c3_c_a01_0_100_south_medium airplane_wurst
5
3 8
36 7
37 5
38 1
39 2
4
0 20 1 0
0 123 -1 1
0 130 -1 1
0 144 -1 1
1
end_operator
begin_operator
startup_seg_c3_c_b01_0_100_north_medium airplane_horst
3
2 8
33 2
39 1
2
0 19 1 0
0 101 -1 1
1
end_operator
begin_operator
startup_seg_c3_c_b01_0_100_south_medium airplane_horst
5
2 8
36 7
37 5
38 2
39 1
4
0 19 1 0
0 122 -1 1
0 129 -1 1
0 136 -1 1
1
end_operator
begin_operator
startup_seg_c4_c5_0_50_north_medium airplane_horst
5
2 9
40 3
41 2
42 1
43 2
4
0 19 1 0
0 157 -1 1
0 164 -1 1
0 171 -1 1
1
end_operator
begin_operator
startup_seg_c4_c5_0_50_north_medium airplane_wurst
5
3 9
40 4
41 2
42 1
43 2
4
0 20 1 0
0 158 -1 1
0 165 -1 1
0 172 -1 1
1
end_operator
begin_operator
startup_seg_c4_c5_0_50_south_medium airplane_horst
3
2 9
37 5
40 3
2
0 19 1 0
0 129 -1 1
1
end_operator
begin_operator
startup_seg_c4_c5_0_50_south_medium airplane_wurst
3
3 9
37 5
40 4
2
0 20 1 0
0 130 -1 1
1
end_operator
begin_operator
startup_seg_c5_c6_0_50_north_medium airplane_daewh
3
0 9
41 0
44 2
2
0 16 1 0
0 175 -1 1
1
end_operator
begin_operator
startup_seg_c5_c6_0_50_north_medium airplane_dfboy
3
1 9
41 1
44 2
2
0 17 1 0
0 176 -1 1
1
end_operator
begin_operator
startup_seg_c5_c6_0_50_south_medium airplane_daewh
5
0 9
40 5
41 0
42 1
43 2
4
0 16 1 0
0 147 -1 1
0 161 -1 1
0 168 -1 1
1
end_operator
begin_operator
startup_seg_c5_c6_0_50_south_medium airplane_dfboy
5
1 9
40 5
41 1
42 1
43 2
4
0 17 1 0
0 148 -1 1
0 162 -1 1
0 169 -1 1
1
end_operator
begin_operator
startup_seg_c5_c_a02_0_100_north_medium airplane_daewh
3
0 10
31 1
42 0
2
0 16 1 0
0 84 -1 1
1
end_operator
begin_operator
startup_seg_c5_c_a02_0_100_south_medium airplane_daewh
5
0 10
40 5
41 2
42 0
43 2
4
0 16 1 0
0 147 -1 1
0 154 -1 1
0 168 -1 1
1
end_operator
begin_operator
startup_seg_c5_c_b02_0_100_north_medium airplane_dfboy
3
1 10
34 2
43 0
2
0 17 1 0
0 106 -1 1
1
end_operator
begin_operator
startup_seg_c5_c_b02_0_100_south_medium airplane_dfboy
5
1 10
40 5
41 2
42 1
43 0
4
0 17 1 0
0 148 -1 1
0 155 -1 1
0 162 -1 1
1
end_operator
begin_operator
startup_seg_c6_c7_0_100_north_medium airplane_daewh
2
0 11
44 0
1
0 16 1 0
1
end_operator
begin_operator
startup_seg_c6_c7_0_100_north_medium airplane_dfboy
2
1 11
44 1
1
0 17 1 0
1
end_operator
begin_operator
startup_seg_c6_c7_0_100_south_medium airplane_daewh
3
0 11
41 2
44 0
2
0 16 1 0
0 154 -1 1
1
end_operator
begin_operator
startup_seg_c6_c7_0_100_south_medium airplane_dfboy
3
1 11
41 2
44 1
2
0 17 1 0
0 155 -1 1
1
end_operator
begin_operator
takeoff_seg_09_0_150_south airplane_daewh
1
9 1
5
0 0 1 0
0 16 0 2
0 28 0 4
0 63 -1 0
0 91 -1 0
1
end_operator
begin_operator
takeoff_seg_09_0_150_south airplane_dfboy
1
10 1
5
0 1 1 0
0 17 0 2
0 28 1 4
0 64 -1 0
0 92 -1 0
1
end_operator
begin_operator
takeoff_seg_09_0_150_south airplane_horst
1
12 1
5
0 2 1 0
0 19 0 2
0 28 2 4
0 66 -1 0
0 94 -1 0
1
end_operator
begin_operator
takeoff_seg_09_0_150_south airplane_wurst
1
13 1
5
0 3 1 0
0 20 0 2
0 28 3 4
0 67 -1 0
0 95 -1 0
1
end_operator
0
