Maximal 16:
 (robot-has robot1 black) (robot-has robot1 white):=1:fam
 (robot-has robot2 black) (robot-has robot2 white):=1:fam
 (clear tile_0-1) (robot-at robot1 tile_0-1) (robot-at robot2 tile_0-1):fam
 (clear tile_0-2) (robot-at robot1 tile_0-2) (robot-at robot2 tile_0-2):fam
 (clear tile_0-3) (robot-at robot1 tile_0-3) (robot-at robot2 tile_0-3):fam
 (clear tile_1-1) (painted tile_1-1 white) (robot-at robot1 tile_1-1) (robot-at robot2 tile_1-1):fam:G
 (clear tile_1-2) (painted tile_1-2 black) (robot-at robot1 tile_1-2) (robot-at robot2 tile_1-2):fam:G
 (clear tile_1-3) (painted tile_1-3 white) (robot-at robot1 tile_1-3) (robot-at robot2 tile_1-3):fam:G
 (clear tile_2-1) (painted tile_2-1 black) (robot-at robot1 tile_2-1) (robot-at robot2 tile_2-1):fam:G
 (clear tile_2-2) (painted tile_2-2 white) (robot-at robot1 tile_2-2) (robot-at robot2 tile_2-2):fam:G
 (clear tile_2-3) (painted tile_2-3 black) (robot-at robot1 tile_2-3) (robot-at robot2 tile_2-3):fam:G
 (clear tile_3-1) (painted tile_3-1 white) (robot-at robot1 tile_3-1) (robot-at robot2 tile_3-1):fam:G
 (clear tile_3-2) (painted tile_3-2 black) (robot-at robot1 tile_3-2) (robot-at robot2 tile_3-2):fam:G
 (clear tile_3-3) (painted tile_3-3 white) (robot-at robot1 tile_3-3) (robot-at robot2 tile_3-3):fam:G
 (robot-at robot1 tile_0-1) (robot-at robot1 tile_0-2) (robot-at robot1 tile_0-3) (robot-at robot1 tile_1-1) (robot-at robot1 tile_1-2) (robot-at robot1 tile_1-3) (robot-at robot1 tile_2-1) (robot-at robot1 tile_2-2) (robot-at robot1 tile_2-3) (robot-at robot1 tile_3-1) (robot-at robot1 tile_3-2) (robot-at robot1 tile_3-3):=1:fam
 (robot-at robot2 tile_0-1) (robot-at robot2 tile_0-2) (robot-at robot2 tile_0-3) (robot-at robot2 tile_1-1) (robot-at robot2 tile_1-2) (robot-at robot2 tile_1-3) (robot-at robot2 tile_2-1) (robot-at robot2 tile_2-2) (robot-at robot2 tile_2-3) (robot-at robot2 tile_3-1) (robot-at robot2 tile_3-2) (robot-at robot2 tile_3-3):=1:fam


Mutex Group Cover Number: 14
