Reduced 41 -> 31
Domain: upp
Problem: printjob
Require: 200ff
Type[8]:
    [0]: object, parent: -1
    [1]: size_t, parent: 0
    [2]: location_t, parent: 0
    [3]: side_t, parent: 0
    [4]: color_t, parent: 0
    [5]: image_t, parent: 0
    [6]: resource_t, parent: 0
    [7]: sheet_t, parent: 0
Obj-by-Type:
    [0]: 0 1 2 3 4 5 6 7 8 9 10 11 12 13 14 15 16 17 18 19 20 21 22 23 24 25 26 27 28 29 30
    [1]: 0
    [2]: 5 6 7 8 9 10 11 12 13 14
    [3]: 3 4
    [4]: 1 2
    [5]: 30
    [6]: 15 16 17 18 19 20 21 22 23 24 25 26 27
    [7]: 28 29
Obj[31]:
    [0]: letter, type: 1, is-constant: 1, is-private: 0, owner: -1, is-agent: 0
    [1]: black, type: 4, is-constant: 1, is-private: 0, owner: -1, is-agent: 0
    [2]: color, type: 4, is-constant: 1, is-private: 0, owner: -1, is-agent: 0
    [3]: front, type: 3, is-constant: 1, is-private: 0, owner: -1, is-agent: 0
    [4]: back, type: 3, is-constant: 1, is-private: 0, owner: -1, is-agent: 0
    [5]: some_feeder_tray, type: 2, is-constant: 1, is-private: 0, owner: -1, is-agent: 0
    [6]: down_topexit-htmovercolor_entry, type: 2, is-constant: 1, is-private: 0, owner: -1, is-agent: 0
    [7]: htmovercolor_exit-up_topentry, type: 2, is-constant: 1, is-private: 0, owner: -1, is-agent: 0
    [8]: blackcontainer_exittoime-blackprinter_entry, type: 2, is-constant: 1, is-private: 0, owner: -1, is-agent: 0
    [9]: blackprinter_exit-blackcontainer_entryfromime, type: 2, is-constant: 1, is-private: 0, owner: -1, is-agent: 0
    [10]: finisher1_entry-up_topexit, type: 2, is-constant: 1, is-private: 0, owner: -1, is-agent: 0
    [11]: finisher2_entry-finisher1_exit, type: 2, is-constant: 1, is-private: 0, owner: -1, is-agent: 0
    [12]: finisher1_tray, type: 2, is-constant: 1, is-private: 0, owner: -1, is-agent: 0
    [13]: finisher2_exit, type: 2, is-constant: 1, is-private: 0, owner: -1, is-agent: 0
    [14]: finisher2_tray, type: 2, is-constant: 1, is-private: 0, owner: -1, is-agent: 0
    [15]: endcap-rsrc, type: 6, is-constant: 1, is-private: 0, owner: -1, is-agent: 0
    [16]: htmoverblack-rsrc, type: 6, is-constant: 1, is-private: 0, owner: -1, is-agent: 0
    [17]: colorcontainer-rsrc, type: 6, is-constant: 1, is-private: 0, owner: -1, is-agent: 0
    [18]: colorprinter-rsrc, type: 6, is-constant: 1, is-private: 0, owner: -1, is-agent: 0
    [19]: colorfeeder-rsrc, type: 6, is-constant: 1, is-private: 0, owner: -1, is-agent: 0
    [20]: blackfeeder-rsrc, type: 6, is-constant: 1, is-private: 0, owner: -1, is-agent: 0
    [21]: down-rsrc, type: 6, is-constant: 1, is-private: 0, owner: -1, is-agent: 0
    [22]: htmovercolor-rsrc, type: 6, is-constant: 1, is-private: 0, owner: -1, is-agent: 0
    [23]: blackcontainer-rsrc, type: 6, is-constant: 1, is-private: 0, owner: -1, is-agent: 0
    [24]: blackprinter-rsrc, type: 6, is-constant: 1, is-private: 0, owner: -1, is-agent: 0
    [25]: up-rsrc, type: 6, is-constant: 1, is-private: 0, owner: -1, is-agent: 0
    [26]: finisher1-rsrc, type: 6, is-constant: 1, is-private: 0, owner: -1, is-agent: 0
    [27]: finisher2-rsrc, type: 6, is-constant: 1, is-private: 0, owner: -1, is-agent: 0
    [28]: dummy-sheet, type: 7, is-constant: 0, is-private: 0, owner: -1, is-agent: 0
    [29]: sheet1, type: 7, is-constant: 0, is-private: 0, owner: -1, is-agent: 0
    [30]: image-1, type: 5, is-constant: 0, is-private: 0, owner: -1, is-agent: 0
Predicate[12]:
    =: 0 0 :: is-private: 0, owner-param: -1, read: 0, write: 0
    sheetsize: 7 1 :: is-private: 0, owner-param: -1, read: 1, write: 0
    location: 7 2 :: is-private: 0, owner-param: -1, read: 1, write: 1
    hasimage: 7 3 5 :: is-private: 0, owner-param: -1, read: 0, write: 1
    sideup: 7 3 :: is-private: 0, owner-param: -1, read: 1, write: 1
    stackedin: 7 2 :: is-private: 0, owner-param: -1, read: 0, write: 1
    imagecolor: 5 4 :: is-private: 0, owner-param: -1, read: 1, write: 0
    notprintedwith: 7 3 4 :: is-private: 0, owner-param: -1, read: 1, write: 1
    oppositeside: 3 3 :: is-private: 0, owner-param: -1, read: 1, write: 0
    available: 6 :: is-private: 0, owner-param: -1, read: 1, write: 1
    prevsheet: 7 7 :: is-private: 0, owner-param: -1, read: 1, write: 0
    uninitialized: :: is-private: 0, owner-param: -1, read: 1, write: 1
Function[1]:
    total-cost: :: is-private: 0, owner-param: -1, read: 0, write: 0
Action[23]:
    initialize: 
        pre: (and (RW:uninitialized))
        eff: (and (N:RW:uninitialized) (RW:available endcap-rsrc) (RW:available htmoverblack-rsrc) (RW:available colorcontainer-rsrc) (RW:available colorprinter-rsrc) (RW:available colorfeeder-rsrc) (RW:available blackfeeder-rsrc) (RW:available down-rsrc) (RW:available htmovercolor-rsrc) (RW:available blackcontainer-rsrc) (RW:available blackprinter-rsrc) (RW:available up-rsrc) (RW:available finisher1-rsrc) (RW:available finisher2-rsrc))
    endcap-move-letter: ?sheet:7
        pre: (and (RW:available endcap-rsrc) (R:sheetsize ?sheet letter) (RW:location ?sheet some_feeder_tray))
        eff: (and (RW:location ?sheet some_feeder_tray) (N:RW:location ?sheet some_feeder_tray) (RW:available endcap-rsrc) (increase (total-cost) 2000))
    htmoverblack-move-letter: ?sheet:7
        pre: (and (RW:available htmoverblack-rsrc) (R:sheetsize ?sheet letter) (RW:location ?sheet some_feeder_tray))
        eff: (and (RW:location ?sheet some_feeder_tray) (N:RW:location ?sheet some_feeder_tray) (RW:available htmoverblack-rsrc) (increase (total-cost) 17999))
    colorcontainer-toime-letter: ?sheet:7
        pre: (and (RW:available colorcontainer-rsrc) (R:sheetsize ?sheet letter) (RW:location ?sheet some_feeder_tray))
        eff: (and (RW:location ?sheet some_feeder_tray) (N:RW:location ?sheet some_feeder_tray) (RW:available colorcontainer-rsrc) (increase (total-cost) 8000))
    colorcontainer-fromime-letter: ?sheet:7
        pre: (and (RW:available colorcontainer-rsrc) (R:sheetsize ?sheet letter) (RW:location ?sheet some_feeder_tray))
        eff: (and (RW:location ?sheet some_feeder_tray) (N:RW:location ?sheet some_feeder_tray) (RW:available colorcontainer-rsrc) (increase (total-cost) 8000))
    colorprinter-simplex-letter: ?sheet:7 ?face:3 ?image:5
        pre: (and (RW:available colorprinter-rsrc) (R:sheetsize ?sheet letter) (RW:sideup ?sheet ?face) (R:imagecolor ?image color) (RW:location ?sheet some_feeder_tray) (RW:notprintedwith ?sheet ?face color))
        eff: (and (RW:location ?sheet some_feeder_tray) (W:hasimage ?sheet ?face ?image) (N:RW:location ?sheet some_feeder_tray) (N:RW:notprintedwith ?sheet ?face color) (RW:available colorprinter-rsrc) (increase (total-cost) 224040))
    colorprinter-simplexmono-letter: ?sheet:7 ?face:3 ?image:5
        pre: (and (RW:available colorprinter-rsrc) (R:sheetsize ?sheet letter) (RW:sideup ?sheet ?face) (R:imagecolor ?image black) (RW:location ?sheet some_feeder_tray) (RW:notprintedwith ?sheet ?face black))
        eff: (and (RW:location ?sheet some_feeder_tray) (W:hasimage ?sheet ?face ?image) (N:RW:location ?sheet some_feeder_tray) (N:RW:notprintedwith ?sheet ?face black) (RW:available colorprinter-rsrc) (increase (total-cost) 224040))
    colorfeeder-feed-letter: ?sheet:7
        pre: (and (RW:available colorfeeder-rsrc) (R:sheetsize ?sheet letter) (RW:location ?sheet some_feeder_tray))
        eff: (and (RW:location ?sheet some_feeder_tray) (RW:sideup ?sheet front) (N:RW:location ?sheet some_feeder_tray) (RW:available colorfeeder-rsrc) (increase (total-cost) 8000))
    blackfeeder-feed-letter: ?sheet:7
        pre: (and (RW:available blackfeeder-rsrc) (R:sheetsize ?sheet letter) (RW:location ?sheet some_feeder_tray))
        eff: (and (RW:location ?sheet some_feeder_tray) (RW:sideup ?sheet front) (N:RW:location ?sheet some_feeder_tray) (RW:available blackfeeder-rsrc) (increase (total-cost) 8000))
    down-movetop-letter: ?sheet:7
        pre: (and (RW:available down-rsrc) (R:sheetsize ?sheet letter) (RW:location ?sheet some_feeder_tray))
        eff: (and (RW:location ?sheet down_topexit-htmovercolor_entry) (N:RW:location ?sheet some_feeder_tray) (RW:available down-rsrc) (increase (total-cost) 2999))
    down-movebottom-letter: ?sheet:7
        pre: (and (RW:available down-rsrc) (R:sheetsize ?sheet letter) (RW:location ?sheet some_feeder_tray))
        eff: (and (RW:location ?sheet some_feeder_tray) (N:RW:location ?sheet some_feeder_tray) (RW:available down-rsrc) (increase (total-cost) 2999))
    down-movedown-letter: ?sheet:7
        pre: (and (RW:available down-rsrc) (R:sheetsize ?sheet letter) (RW:location ?sheet some_feeder_tray))
        eff: (and (RW:location ?sheet some_feeder_tray) (N:RW:location ?sheet some_feeder_tray) (RW:available down-rsrc) (increase (total-cost) 9999))
    htmovercolor-move-letter: ?sheet:7
        pre: (and (RW:available htmovercolor-rsrc) (R:sheetsize ?sheet letter) (RW:location ?sheet down_topexit-htmovercolor_entry))
        eff: (and (RW:location ?sheet htmovercolor_exit-up_topentry) (N:RW:location ?sheet down_topexit-htmovercolor_entry) (RW:available htmovercolor-rsrc) (increase (total-cost) 9999))
    blackcontainer-toime-letter: ?sheet:7
        pre: (and (RW:available blackcontainer-rsrc) (R:sheetsize ?sheet letter) (RW:location ?sheet some_feeder_tray))
        eff: (and (RW:location ?sheet blackcontainer_exittoime-blackprinter_entry) (N:RW:location ?sheet some_feeder_tray) (RW:available blackcontainer-rsrc) (increase (total-cost) 2000))
    blackcontainer-fromime-letter: ?sheet:7
        pre: (and (RW:available blackcontainer-rsrc) (R:sheetsize ?sheet letter) (RW:location ?sheet blackprinter_exit-blackcontainer_entryfromime))
        eff: (and (RW:location ?sheet some_feeder_tray) (N:RW:location ?sheet blackprinter_exit-blackcontainer_entryfromime) (RW:available blackcontainer-rsrc) (increase (total-cost) 2000))
    blackprinter-simplex-letter: ?sheet:7 ?face:3 ?image:5
        pre: (and (RW:available blackprinter-rsrc) (R:sheetsize ?sheet letter) (RW:sideup ?sheet ?face) (R:imagecolor ?image black) (RW:location ?sheet blackcontainer_exittoime-blackprinter_entry) (RW:notprintedwith ?sheet ?face black))
        eff: (and (RW:location ?sheet blackprinter_exit-blackcontainer_entryfromime) (W:hasimage ?sheet ?face ?image) (N:RW:location ?sheet blackcontainer_exittoime-blackprinter_entry) (N:RW:notprintedwith ?sheet ?face black) (RW:available blackprinter-rsrc) (increase (total-cost) 113013))
    blackprinter-simplexandinvert-letter: ?sheet:7 ?face:3 ?otherface:3 ?image:5
        pre: (and (RW:available blackprinter-rsrc) (R:sheetsize ?sheet letter) (R:oppositeside ?face ?otherface) (R:imagecolor ?image black) (RW:location ?sheet blackcontainer_exittoime-blackprinter_entry) (RW:notprintedwith ?sheet ?face black) (RW:sideup ?sheet ?face))
        eff: (and (RW:location ?sheet blackprinter_exit-blackcontainer_entryfromime) (RW:sideup ?sheet ?otherface) (W:hasimage ?sheet ?face ?image) (N:RW:location ?sheet blackcontainer_exittoime-blackprinter_entry) (N:RW:notprintedwith ?sheet ?face black) (N:RW:sideup ?sheet ?face) (RW:available blackprinter-rsrc) (increase (total-cost) 123013))
    up-movetop-letter: ?sheet:7
        pre: (and (RW:available up-rsrc) (R:sheetsize ?sheet letter) (RW:location ?sheet htmovercolor_exit-up_topentry))
        eff: (and (RW:location ?sheet finisher1_entry-up_topexit) (N:RW:location ?sheet htmovercolor_exit-up_topentry) (RW:available up-rsrc) (increase (total-cost) 2999))
    up-moveup-letter: ?sheet:7
        pre: (and (RW:available up-rsrc) (R:sheetsize ?sheet letter) (RW:location ?sheet some_feeder_tray))
        eff: (and (RW:location ?sheet finisher1_entry-up_topexit) (N:RW:location ?sheet some_feeder_tray) (RW:available up-rsrc) (increase (total-cost) 9999))
    finisher1-passthrough-letter: ?sheet:7
        pre: (and (RW:available finisher1-rsrc) (R:sheetsize ?sheet letter) (RW:location ?sheet finisher1_entry-up_topexit))
        eff: (and (RW:location ?sheet finisher2_entry-finisher1_exit) (N:RW:location ?sheet finisher1_entry-up_topexit) (RW:available finisher1-rsrc) (increase (total-cost) 8000))
    finisher1-stack-letter: ?sheet:7 ?prevsheet:7
        pre: (and (RW:available finisher1-rsrc) (R:prevsheet ?sheet ?prevsheet) (RW:location ?prevsheet some_feeder_tray) (R:sheetsize ?sheet letter) (RW:location ?sheet finisher1_entry-up_topexit))
        eff: (and (RW:location ?sheet some_feeder_tray) (W:stackedin ?sheet finisher1_tray) (N:RW:location ?sheet finisher1_entry-up_topexit) (RW:available finisher1-rsrc) (increase (total-cost) 8000))
    finisher2-passthrough-letter: ?sheet:7
        pre: (and (RW:available finisher2-rsrc) (R:sheetsize ?sheet letter) (RW:location ?sheet finisher2_entry-finisher1_exit))
        eff: (and (RW:location ?sheet finisher2_exit) (N:RW:location ?sheet finisher2_entry-finisher1_exit) (RW:available finisher2-rsrc) (increase (total-cost) 8000))
    finisher2-stack-letter: ?sheet:7 ?prevsheet:7
        pre: (and (RW:available finisher2-rsrc) (R:prevsheet ?sheet ?prevsheet) (RW:location ?prevsheet some_feeder_tray) (R:sheetsize ?sheet letter) (RW:location ?sheet finisher2_entry-finisher1_exit))
        eff: (and (RW:location ?sheet some_feeder_tray) (W:stackedin ?sheet finisher2_tray) (N:RW:location ?sheet finisher2_entry-finisher1_exit) (RW:available finisher2-rsrc) (increase (total-cost) 8000))
Init[12]:
  (uninitialized)
  S:(oppositeside front back)
  S:(oppositeside back front)
  (location dummy-sheet some_feeder_tray)
  S:(prevsheet sheet1 dummy-sheet)
  S:(sheetsize sheet1 letter)
  (location sheet1 some_feeder_tray)
  S:(imagecolor image-1 black)
  (notprintedwith sheet1 front black)
  (notprintedwith sheet1 back black)
  (notprintedwith sheet1 front color)
  (notprintedwith sheet1 back color)
Init[1]:
  (= (total-cost) 0)
Goal: (and (W:hasimage sheet1 front image-1) (RW:notprintedwith sheet1 front color) (RW:notprintedwith sheet1 back black) (RW:notprintedwith sheet1 back color) (RW:sideup sheet1 front) (W:stackedin sheet1 finisher1_tray))
Metric: 1
