Reduced 39 -> 29
Domain: thoughtful-typed
Problem: thoughtful-s5-t4
Require: ff
Type[5]:
    [0]: object, parent: -1
    [1]: card, parent: 0
    [2]: colnum, parent: 0
    [3]: num, parent: 0
    [4]: suittype, parent: 0
Obj-by-Type:
    [0]: 0 1 2 3 4 5 6 7 8 9 10 11 12 13 14 15 16 17 18 19 20 21 22 23 24 25 26 27 28
    [1]: 0 1 2 3 4 5 6 7 8 9 10 11 12 13 14 15 16 17 18 19
    [2]: 20 21 22 23
    [3]: 24 25
    [4]: 26 27 28
Obj[29]:
    [0]: c0, type: 1, is-constant: 0, is-private: 0, owner: -1, is-agent: 0
    [1]: ca, type: 1, is-constant: 0, is-private: 0, owner: -1, is-agent: 0
    [2]: c2, type: 1, is-constant: 0, is-private: 0, owner: -1, is-agent: 0
    [3]: c3, type: 1, is-constant: 0, is-private: 0, owner: -1, is-agent: 0
    [4]: c4, type: 1, is-constant: 0, is-private: 0, owner: -1, is-agent: 0
    [5]: c5, type: 1, is-constant: 0, is-private: 0, owner: -1, is-agent: 0
    [6]: d0, type: 1, is-constant: 0, is-private: 0, owner: -1, is-agent: 0
    [7]: da, type: 1, is-constant: 0, is-private: 0, owner: -1, is-agent: 0
    [8]: d2, type: 1, is-constant: 0, is-private: 0, owner: -1, is-agent: 0
    [9]: h0, type: 1, is-constant: 0, is-private: 0, owner: -1, is-agent: 0
    [10]: ha, type: 1, is-constant: 0, is-private: 0, owner: -1, is-agent: 0
    [11]: h2, type: 1, is-constant: 0, is-private: 0, owner: -1, is-agent: 0
    [12]: h3, type: 1, is-constant: 0, is-private: 0, owner: -1, is-agent: 0
    [13]: h4, type: 1, is-constant: 0, is-private: 0, owner: -1, is-agent: 0
    [14]: s0, type: 1, is-constant: 0, is-private: 0, owner: -1, is-agent: 0
    [15]: sa, type: 1, is-constant: 0, is-private: 0, owner: -1, is-agent: 0
    [16]: s2, type: 1, is-constant: 0, is-private: 0, owner: -1, is-agent: 0
    [17]: s3, type: 1, is-constant: 0, is-private: 0, owner: -1, is-agent: 0
    [18]: s4, type: 1, is-constant: 0, is-private: 0, owner: -1, is-agent: 0
    [19]: s5, type: 1, is-constant: 0, is-private: 0, owner: -1, is-agent: 0
    [20]: coln0, type: 2, is-constant: 0, is-private: 0, owner: -1, is-agent: 0
    [21]: coln1, type: 2, is-constant: 0, is-private: 0, owner: -1, is-agent: 0
    [22]: coln2, type: 2, is-constant: 0, is-private: 0, owner: -1, is-agent: 0
    [23]: coln3, type: 2, is-constant: 0, is-private: 0, owner: -1, is-agent: 0
    [24]: n0, type: 3, is-constant: 0, is-private: 0, owner: -1, is-agent: 0
    [25]: n1, type: 3, is-constant: 0, is-private: 0, owner: -1, is-agent: 0
    [26]: c, type: 4, is-constant: 0, is-private: 0, owner: -1, is-agent: 0
    [27]: d, type: 4, is-constant: 0, is-private: 0, owner: -1, is-agent: 0
    [28]: s, type: 4, is-constant: 0, is-private: 0, owner: -1, is-agent: 0
Predicate[19]:
    =: 0 0 :: is-private: 0, owner-param: -1, read: 0, write: 0
    on: 1 1 :: is-private: 0, owner-param: -1, read: 1, write: 1
    ace: 1 :: is-private: 0, owner-param: -1, read: 0, write: 0
    king: 1 :: is-private: 0, owner-param: -1, read: 1, write: 0
    clear: 1 :: is-private: 0, owner-param: -1, read: 1, write: 1
    colspace: 2 :: is-private: 0, owner-param: -1, read: 1, write: 1
    bottomtalon: 1 :: is-private: 0, owner-param: -1, read: 1, write: 1
    toptalon: 1 :: is-private: 0, owner-param: -1, read: 1, write: 1
    ontalon: 1 1 :: is-private: 0, owner-param: -1, read: 1, write: 1
    talonplayable: 1 :: is-private: 0, owner-param: -1, read: 1, write: 1
    instack: 1 :: is-private: 0, owner-param: -1, read: 0, write: 0
    home: 1 :: is-private: 0, owner-param: -1, read: 1, write: 1
    faceup: 1 :: is-private: 0, owner-param: -1, read: 1, write: 1
    bottomcol: 1 :: is-private: 0, owner-param: -1, read: 1, write: 1
    suit: 1 4 :: is-private: 0, owner-param: -1, read: 1, write: 0
    value: 1 3 :: is-private: 0, owner-param: -1, read: 1, write: 0
    successor: 3 3 :: is-private: 0, owner-param: -1, read: 1, write: 0
    canstack: 1 1 :: is-private: 0, owner-param: -1, read: 1, write: 0
    colsuccessor: 2 2 :: is-private: 0, owner-param: -1, read: 1, write: 0
Function[0]:
Action[21]:
    move-col-to-col: ?card:1 ?oldcard:1 ?newcard:1
        pre: (and (RW:faceup ?card) (RW:clear ?newcard) (R:canstack ?card ?newcard) (RW:on ?card ?oldcard))
        eff: (and (RW:on ?card ?newcard) (RW:clear ?oldcard) (RW:faceup ?oldcard))
    move-col-to-col-b: ?card:1 ?newcard:1 ?cols:2 ?ncols:2
        pre: (and (RW:faceup ?card) (RW:bottomcol ?card) (RW:clear ?newcard) (R:canstack ?card ?newcard) (RW:colspace ?cols) (R:colsuccessor ?ncols ?cols))
        eff: (and (RW:on ?card ?newcard) (RW:colspace ?ncols))
    move-col-to-col-c: ?card:1 ?oldcard:1 ?cols:2 ?ncols:2
        pre: (and (RW:faceup ?card) (R:king ?card) (RW:colspace ?cols) (R:colsuccessor ?cols ?ncols) (RW:on ?card ?oldcard))
        eff: (and (RW:bottomcol ?card) (RW:clear ?oldcard) (RW:faceup ?oldcard) (RW:colspace ?ncols))
    col-to-home: ?card:1 ?oldcard:1 ?suit:4 ?vcard:3 ?homecard:1 ?vhomecard:3
        pre: (and (RW:clear ?card) (RW:on ?card ?oldcard) (RW:home ?homecard) (R:suit ?card ?suit) (R:suit ?homecard ?suit) (R:value ?card ?vcard) (R:value ?homecard ?vhomecard) (R:successor ?vcard ?vhomecard))
        eff: (and (RW:home ?card) (RW:clear ?oldcard) (RW:faceup ?oldcard) (RW:on ?card ?homecard))
    col-to-home-b: ?card:1 ?homecard:1 ?suit:4 ?vcard:3 ?vhomecard:3 ?cols:2 ?ncols:2
        pre: (and (RW:clear ?card) (RW:bottomcol ?card) (RW:home ?homecard) (R:suit ?card ?suit) (R:suit ?homecard ?suit) (R:value ?card ?vcard) (R:value ?homecard ?vhomecard) (R:successor ?vcard ?vhomecard) (RW:colspace ?cols) (R:colsuccessor ?ncols ?cols))
        eff: (and (RW:home ?card) (RW:colspace ?ncols))
    tal-to-col: ?card:1 ?oldcard:1 ?newcard:1 ?cardabove:1
        pre: (and (RW:clear ?newcard) (RW:ontalon ?card ?oldcard) (RW:ontalon ?cardabove ?card) (RW:talonplayable ?card) (R:canstack ?card ?newcard))
        eff: (and (RW:clear ?card) (RW:faceup ?card) (RW:talonplayable ?oldcard) (RW:on ?card ?newcard) (RW:ontalon ?cardabove ?oldcard))
    tal-to-col-b: ?card:1 ?newcard:1 ?cardabove:1
        pre: (and (RW:clear ?newcard) (RW:ontalon ?cardabove ?card) (RW:talonplayable ?card) (RW:bottomtalon ?card) (R:canstack ?card ?newcard))
        eff: (and (RW:clear ?card) (RW:faceup ?card) (RW:on ?card ?newcard) (RW:bottomtalon ?cardabove) (RW:talonplayable ?cardabove))
    tal-to-col-c: ?card:1 ?newcard:1 ?oldcard:1
        pre: (and (RW:clear ?newcard) (RW:ontalon ?card ?oldcard) (R:canstack ?card ?newcard) (RW:talonplayable ?card) (RW:toptalon ?card))
        eff: (and (RW:clear ?card) (RW:faceup ?card) (RW:on ?card ?newcard) (RW:toptalon ?oldcard) (RW:talonplayable ?oldcard))
    tal-to-col-d: ?card:1 ?newcard:1
        pre: (and (RW:clear ?newcard) (R:canstack ?card ?newcard) (RW:bottomtalon ?card) (RW:toptalon ?card) (RW:talonplayable ?card))
        eff: (and (RW:clear ?card) (RW:faceup ?card) (RW:on ?card ?newcard))
    tal-to-col-e: ?card:1 ?oldcard:1 ?cardabove:1 ?cols:2 ?ncols:2
        pre: (and (R:king ?card) (RW:ontalon ?card ?oldcard) (RW:ontalon ?cardabove ?card) (RW:talonplayable ?card) (RW:colspace ?cols) (R:colsuccessor ?cols ?ncols))
        eff: (and (RW:clear ?card) (RW:faceup ?card) (RW:talonplayable ?oldcard) (RW:ontalon ?cardabove ?oldcard) (RW:bottomcol ?card) (RW:colspace ?ncols))
    tal-to-col-f: ?card:1 ?cardabove:1 ?cols:2 ?ncols:2
        pre: (and (R:king ?card) (RW:ontalon ?cardabove ?card) (RW:talonplayable ?card) (RW:bottomtalon ?card) (RW:colspace ?cols) (R:colsuccessor ?cols ?ncols))
        eff: (and (RW:clear ?card) (RW:faceup ?card) (RW:bottomtalon ?cardabove) (RW:talonplayable ?cardabove) (RW:bottomcol ?card) (RW:colspace ?ncols))
    tal-to-col-g: ?card:1 ?oldcard:1 ?cols:2 ?ncols:2
        pre: (and (R:king ?card) (RW:ontalon ?card ?oldcard) (RW:talonplayable ?card) (RW:colspace ?cols) (R:colsuccessor ?cols ?ncols) (RW:toptalon ?card))
        eff: (and (RW:clear ?card) (RW:faceup ?card) (RW:toptalon ?oldcard) (RW:talonplayable ?oldcard) (RW:bottomcol ?card) (RW:colspace ?ncols))
    tal-to-col-h: ?card:1 ?cols:2 ?ncols:2
        pre: (and (R:king ?card) (RW:bottomtalon ?card) (RW:toptalon ?card) (RW:colspace ?cols) (R:colsuccessor ?cols ?ncols) (RW:talonplayable ?card))
        eff: (and (RW:clear ?card) (RW:faceup ?card) (RW:bottomcol ?card) (RW:colspace ?ncols))
    tal-to-home: ?card:1 ?cardabove:1 ?cardbelow:1 ?homecard:1 ?cardsuit:4 ?vcard:3 ?vhomecard:3
        pre: (and (RW:talonplayable ?card) (RW:ontalon ?cardabove ?card) (RW:ontalon ?card ?cardbelow) (R:suit ?card ?cardsuit) (R:suit ?homecard ?cardsuit) (RW:home ?homecard) (R:value ?card ?vcard) (R:value ?homecard ?vhomecard) (R:successor ?vcard ?vhomecard))
        eff: (and (RW:talonplayable ?cardbelow) (RW:ontalon ?cardabove ?cardbelow) (RW:home ?card))
    tal-to-home-b: ?card:1 ?cardabove:1 ?homecard:1 ?cardsuit:4 ?vcard:3 ?vhomecard:3
        pre: (and (RW:talonplayable ?card) (RW:ontalon ?cardabove ?card) (RW:bottomtalon ?card) (RW:home ?homecard) (R:suit ?card ?cardsuit) (R:suit ?homecard ?cardsuit) (R:value ?card ?vcard) (R:value ?homecard ?vhomecard) (R:successor ?vcard ?vhomecard))
        eff: (and (RW:bottomtalon ?cardabove) (RW:talonplayable ?cardabove) (RW:home ?card))
    tal-to-home-c: ?card:1 ?cardbelow:1 ?homecard:1 ?cardsuit:4 ?vcard:3 ?vhomecard:3
        pre: (and (RW:ontalon ?card ?cardbelow) (RW:talonplayable ?card) (RW:toptalon ?card) (RW:home ?homecard) (R:suit ?card ?cardsuit) (R:suit ?homecard ?cardsuit) (R:value ?card ?vcard) (R:value ?homecard ?vhomecard) (R:successor ?vcard ?vhomecard))
        eff: (and (RW:toptalon ?cardbelow) (RW:talonplayable ?cardbelow) (RW:home ?card))
    tal-to-home-d: ?card:1 ?homecard:1 ?cardsuit:4 ?vcard:3 ?vhomecard:3
        pre: (and (RW:bottomtalon ?card) (RW:toptalon ?card) (RW:talonplayable ?card) (RW:home ?homecard) (R:suit ?card ?cardsuit) (R:suit ?homecard ?cardsuit) (R:value ?card ?vcard) (R:value ?homecard ?vhomecard) (R:successor ?vcard ?vhomecard))
        eff: (and (RW:home ?card))
    home-to-col: ?card:1 ?cardbelow:1 ?newcard:1 ?cardsuit:4 ?vcard:3 ?vcardbelow:3
        pre: (and (RW:home ?card) (R:suit ?card ?cardsuit) (R:suit ?cardbelow ?cardsuit) (R:value ?card ?vcard) (R:value ?cardbelow ?vcardbelow) (R:successor ?vcard ?vcardbelow) (R:canstack ?card ?newcard) (RW:clear ?newcard))
        eff: (and (RW:clear ?card) (RW:faceup ?card) (RW:home ?cardbelow) (RW:on ?card ?newcard))
    home-to-col-a: ?card:1 ?cardbelow:1 ?cardsuit:4 ?vcard:3 ?vcardbelow:3 ?cols:2 ?ncols:2
        pre: (and (RW:home ?card) (R:king ?card) (R:suit ?card ?cardsuit) (R:suit ?cardbelow ?cardsuit) (R:value ?card ?vcard) (R:value ?cardbelow ?vcardbelow) (R:successor ?vcard ?vcardbelow) (RW:colspace ?cols) (R:colsuccessor ?cols ?ncols))
        eff: (and (RW:home ?cardbelow) (RW:bottomcol ?card) (RW:clear ?card) (RW:faceup ?card) (RW:colspace ?ncols))
    turn-deck: ?card:1 ?c1:1
        pre: (and (RW:talonplayable ?card) (RW:ontalon ?c1 ?card))
        eff: (and (RW:talonplayable ?c1))
    turn-deck-a: ?card:1 ?c1:1
        pre: (and (RW:talonplayable ?card) (RW:toptalon ?card) (RW:bottomtalon ?c1))
        eff: (and (RW:talonplayable ?c1))
Init[120]:
  S:(value c0 n0)
  S:(value d0 n0)
  S:(value h0 n0)
  S:(value s0 n0)
  S:(value ca n1)
  S:(value da n1)
  S:(value ha n1)
  S:(value sa n1)
  S:(value c2 n0)
  S:(value d2 n0)
  S:(value h2 n0)
  S:(value s2 n0)
  S:(value c3 n1)
  S:(value c3 n1)
  S:(value h3 n1)
  S:(value s3 n1)
  S:(value c4 n0)
  S:(value c4 n0)
  S:(value h4 n0)
  S:(value s4 n0)
  S:(value c5 n1)
  S:(value da n1)
  S:(value h3 n1)
  S:(value s5 n1)
  S:(colsuccessor coln1 coln0)
  S:(colsuccessor coln2 coln1)
  S:(colsuccessor coln3 coln2)
  S:(colsuccessor coln0 coln3)
  S:(successor n1 n0)
  S:(successor n0 n1)
  S:(successor n1 n0)
  S:(successor n0 n1)
  S:(successor n1 n0)
  S:(suit c0 c)
  S:(suit d0 d)
  S:(suit h0 c)
  S:(suit s0 s)
  S:(suit ca c)
  S:(suit da d)
  S:(suit ha c)
  S:(suit sa s)
  S:(suit c2 c)
  S:(suit d2 d)
  S:(suit h2 c)
  S:(suit s2 s)
  S:(suit c3 c)
  S:(suit c3 d)
  S:(suit h3 c)
  S:(suit s3 s)
  S:(suit c4 c)
  S:(suit c4 d)
  S:(suit h4 c)
  S:(suit s4 s)
  S:(suit c5 c)
  S:(suit da d)
  S:(suit h3 c)
  S:(suit s5 s)
  S:(king c5)
  S:(king da)
  S:(king h3)
  S:(king s5)
  S:(canstack c2 c3)
  S:(canstack c2 h3)
  S:(canstack s2 c3)
  S:(canstack s2 h3)
  S:(canstack d2 c3)
  S:(canstack d2 s3)
  S:(canstack h2 c3)
  S:(canstack h2 s3)
  S:(canstack c3 c4)
  S:(canstack c3 h4)
  S:(canstack s3 c4)
  S:(canstack s3 h4)
  S:(canstack c3 c4)
  S:(canstack c3 s4)
  S:(canstack h3 c4)
  S:(canstack h3 s4)
  S:(canstack c4 da)
  S:(canstack c4 h3)
  S:(canstack s4 da)
  S:(canstack s4 h3)
  S:(canstack c4 c5)
  S:(canstack c4 s5)
  S:(canstack h4 c5)
  S:(canstack h4 s5)
  (colspace coln0)
  (bottomcol ha)
  (clear ha)
  (faceup ha)
  (bottomcol h3)
  (on c4 h3)
  (clear c4)
  (faceup c4)
  (bottomcol d2)
  (on h3 d2)
  (on s5 h3)
  (clear s5)
  (faceup s5)
  (bottomcol c4)
  (on c3 c4)
  (on sa c3)
  (on ca sa)
  (clear ca)
  (faceup ca)
  (bottomtalon s3)
  (ontalon c3 s3)
  (ontalon da c3)
  (ontalon h4 da)
  (ontalon c2 h4)
  (ontalon s4 c2)
  (ontalon da s4)
  (ontalon c5 da)
  (ontalon s2 c5)
  (ontalon h2 s2)
  (toptalon h2)
  (talonplayable da)
  (home c0)
  (home d0)
  (home h0)
  (home s0)
Init[0]:
Goal: (and (RW:home c5) (RW:home da) (RW:home h3) (RW:home s5))
Metric: 0
