RSE-Invertible facts:
6:(at truck0 depot0) in-fam-group
7:(at truck0 distributor0) in-fam-group
8:(at truck0 distributor1) in-fam-group
9:(at truck1 depot0) in-fam-group
10:(at truck1 distributor0) in-fam-group
11:(at truck1 distributor1) in-fam-group
17:(clear pallet0) in-fam-group
18:(clear pallet1) in-fam-group
19:(clear pallet2) in-fam-group
20:(in crate0 truck0) in-fam-group
21:(in crate0 truck1) in-fam-group
22:(in crate1 truck0) in-fam-group
23:(in crate1 truck1) in-fam-group
31:(on crate0 pallet0) in-fam-group
32:(on crate0 pallet1) in-fam-group
33:(on crate0 pallet2) in-fam-group
35:(on crate1 pallet0) in-fam-group
36:(on crate1 pallet1) in-fam-group
37:(on crate1 pallet2) in-fam-group
