Maximal 101:
 (NOT-made p1) (made p1):=1:fam
 (NOT-made p10) (made p10):=1:fam
 (NOT-made p11) (made p11):=1:fam
 (NOT-made p12) (made p12):=1:fam
 (NOT-made p13) (made p13):=1:fam
 (NOT-made p14) (made p14):=1:fam
 (NOT-made p15) (made p15):=1:fam
 (NOT-made p16) (made p16):=1:fam
 (NOT-made p17) (made p17):=1:fam
 (NOT-made p18) (made p18):=1:fam
 (NOT-made p19) (made p19):=1:fam
 (NOT-made p2) (made p2):=1:fam
 (NOT-made p20) (made p20):=1:fam
 (NOT-made p21) (made p21):=1:fam
 (NOT-made p22) (made p22):=1:fam
 (NOT-made p23) (made p23):=1:fam
 (NOT-made p24) (made p24):=1:fam
 (NOT-made p25) (made p25):=1:fam
 (NOT-made p26) (made p26):=1:fam
 (NOT-made p27) (made p27):=1:fam
 (NOT-made p28) (made p28):=1:fam
 (NOT-made p29) (made p29):=1:fam
 (NOT-made p3) (made p3):=1:fam
 (NOT-made p30) (made p30):=1:fam
 (NOT-made p31) (made p31):=1:fam
 (NOT-made p32) (made p32):=1:fam
 (NOT-made p33) (made p33):=1:fam
 (NOT-made p34) (made p34):=1:fam
 (NOT-made p35) (made p35):=1:fam
 (NOT-made p36) (made p36):=1:fam
 (NOT-made p37) (made p37):=1:fam
 (NOT-made p38) (made p38):=1:fam
 (NOT-made p39) (made p39):=1:fam
 (NOT-made p4) (made p4):=1:fam
 (NOT-made p40) (made p40):=1:fam
 (NOT-made p41) (made p41):=1:fam
 (NOT-made p42) (made p42):=1:fam
 (NOT-made p43) (made p43):=1:fam
 (NOT-made p44) (made p44):=1:fam
 (NOT-made p45) (made p45):=1:fam
 (NOT-made p46) (made p46):=1:fam
 (NOT-made p47) (made p47):=1:fam
 (NOT-made p48) (made p48):=1:fam
 (NOT-made p49) (made p49):=1:fam
 (NOT-made p5) (made p5):=1:fam
 (NOT-made p50) (made p50):=1:fam
 (NOT-made p6) (made p6):=1:fam
 (NOT-made p7) (made p7):=1:fam
 (NOT-made p8) (made p8):=1:fam
 (NOT-made p9) (made p9):=1:fam
 (shipped o1) (started o1) (waiting o1):=1:fam:G
 (shipped o10) (started o10) (waiting o10):=1:fam:G
 (shipped o11) (started o11) (waiting o11):=1:fam:G
 (shipped o12) (started o12) (waiting o12):=1:fam:G
 (shipped o13) (started o13) (waiting o13):=1:fam:G
 (shipped o14) (started o14) (waiting o14):=1:fam:G
 (shipped o15) (started o15) (waiting o15):=1:fam:G
 (shipped o16) (started o16) (waiting o16):=1:fam:G
 (shipped o17) (started o17) (waiting o17):=1:fam:G
 (shipped o18) (started o18) (waiting o18):=1:fam:G
 (shipped o19) (started o19) (waiting o19):=1:fam:G
 (shipped o2) (started o2) (waiting o2):=1:fam:G
 (shipped o20) (started o20) (waiting o20):=1:fam:G
 (shipped o21) (started o21) (waiting o21):=1:fam:G
 (shipped o22) (started o22) (waiting o22):=1:fam:G
 (shipped o23) (started o23) (waiting o23):=1:fam:G
 (shipped o24) (started o24) (waiting o24):=1:fam:G
 (shipped o25) (started o25) (waiting o25):=1:fam:G
 (shipped o26) (started o26) (waiting o26):=1:fam:G
 (shipped o27) (started o27) (waiting o27):=1:fam:G
 (shipped o28) (started o28) (waiting o28):=1:fam:G
 (shipped o29) (started o29) (waiting o29):=1:fam:G
 (shipped o3) (started o3) (waiting o3):=1:fam:G
 (shipped o30) (started o30) (waiting o30):=1:fam:G
 (shipped o31) (started o31) (waiting o31):=1:fam:G
 (shipped o32) (started o32) (waiting o32):=1:fam:G
 (shipped o33) (started o33) (waiting o33):=1:fam:G
 (shipped o34) (started o34) (waiting o34):=1:fam:G
 (shipped o35) (started o35) (waiting o35):=1:fam:G
 (shipped o36) (started o36) (waiting o36):=1:fam:G
 (shipped o37) (started o37) (waiting o37):=1:fam:G
 (shipped o38) (started o38) (waiting o38):=1:fam:G
 (shipped o39) (started o39) (waiting o39):=1:fam:G
 (shipped o4) (started o4) (waiting o4):=1:fam:G
 (shipped o40) (started o40) (waiting o40):=1:fam:G
 (shipped o41) (started o41) (waiting o41):=1:fam:G
 (shipped o42) (started o42) (waiting o42):=1:fam:G
 (shipped o43) (started o43) (waiting o43):=1:fam:G
 (shipped o44) (started o44) (waiting o44):=1:fam:G
 (shipped o45) (started o45) (waiting o45):=1:fam:G
 (shipped o46) (started o46) (waiting o46):=1:fam:G
 (shipped o47) (started o47) (waiting o47):=1:fam:G
 (shipped o48) (started o48) (waiting o48):=1:fam:G
 (shipped o49) (started o49) (waiting o49):=1:fam:G
 (shipped o5) (started o5) (waiting o5):=1:fam:G
 (shipped o50) (started o50) (waiting o50):=1:fam:G
 (shipped o6) (started o6) (waiting o6):=1:fam:G
 (shipped o7) (started o7) (waiting o7):=1:fam:G
 (shipped o8) (started o8) (waiting o8):=1:fam:G
 (shipped o9) (started o9) (waiting o9):=1:fam:G
 (stacks-avail n0) (stacks-avail n1) (stacks-avail n10) (stacks-avail n11) (stacks-avail n12) (stacks-avail n13) (stacks-avail n14) (stacks-avail n15) (stacks-avail n16) (stacks-avail n17) (stacks-avail n18) (stacks-avail n19) (stacks-avail n2) (stacks-avail n20) (stacks-avail n21) (stacks-avail n22) (stacks-avail n23) (stacks-avail n24) (stacks-avail n25) (stacks-avail n26) (stacks-avail n27) (stacks-avail n28) (stacks-avail n29) (stacks-avail n3) (stacks-avail n30) (stacks-avail n31) (stacks-avail n32) (stacks-avail n33) (stacks-avail n34) (stacks-avail n35) (stacks-avail n36) (stacks-avail n37) (stacks-avail n38) (stacks-avail n39) (stacks-avail n4) (stacks-avail n40) (stacks-avail n41) (stacks-avail n42) (stacks-avail n43) (stacks-avail n44) (stacks-avail n45) (stacks-avail n46) (stacks-avail n47) (stacks-avail n48) (stacks-avail n49) (stacks-avail n5) (stacks-avail n50) (stacks-avail n6) (stacks-avail n7) (stacks-avail n8) (stacks-avail n9):=1:fam


Mutex Group Cover Number: 101
