Init: (location sheet1 some_feeder_tray) (location sheet10 some_feeder_tray) (location sheet2 some_feeder_tray) (location sheet3 some_feeder_tray) (location sheet4 some_feeder_tray) (location sheet5 some_feeder_tray) (location sheet6 some_feeder_tray) (location sheet7 some_feeder_tray) (location sheet8 some_feeder_tray) (location sheet9 some_feeder_tray) (notprintedwith sheet1 back black) (notprintedwith sheet1 back color) (notprintedwith sheet1 front black) (notprintedwith sheet1 front color) (notprintedwith sheet10 back black) (notprintedwith sheet10 back color) (notprintedwith sheet10 front black) (notprintedwith sheet10 front color) (notprintedwith sheet2 back black) (notprintedwith sheet2 back color) (notprintedwith sheet2 front black) (notprintedwith sheet2 front color) (notprintedwith sheet3 back black) (notprintedwith sheet3 back color) (notprintedwith sheet3 front black) (notprintedwith sheet3 front color) (notprintedwith sheet4 back black) (notprintedwith sheet4 back color) (notprintedwith sheet4 front black) (notprintedwith sheet4 front color) (notprintedwith sheet5 back black) (notprintedwith sheet5 back color) (notprintedwith sheet5 front black) (notprintedwith sheet5 front color) (notprintedwith sheet6 back black) (notprintedwith sheet6 back color) (notprintedwith sheet6 front black) (notprintedwith sheet6 front color) (notprintedwith sheet7 back black) (notprintedwith sheet7 back color) (notprintedwith sheet7 front black) (notprintedwith sheet7 front color) (notprintedwith sheet8 back black) (notprintedwith sheet8 back color) (notprintedwith sheet8 front black) (notprintedwith sheet8 front color) (notprintedwith sheet9 back black) (notprintedwith sheet9 back color) (notprintedwith sheet9 front black) (notprintedwith sheet9 front color)
Unreachable facts [255/305]:
  (available fe1-rsrc)
  (available im1-rsrc)
  (available lbe-rsrc)
  (available lc1-rsrc)
  (available lc2-rsrc)
  (available lre-rsrc)
  (available om-rsrc)
  (available rh1-rsrc)
  (available rh2-rsrc)
  (available sys-rsrc)
  (available ube-rsrc)
  (available uc1-rsrc)
  (available uc2-rsrc)
  (available ure-rsrc)
  (hasimage sheet1 front image-1)
  (hasimage sheet10 front image-10)
  (hasimage sheet2 front image-2)
  (hasimage sheet3 front image-3)
  (hasimage sheet4 front image-4)
  (hasimage sheet5 front image-5)
  (hasimage sheet6 front image-6)
  (hasimage sheet7 front image-7)
  (hasimage sheet8 back image-8b)
  (hasimage sheet8 front image-8)
  (hasimage sheet9 front image-9)
  (location sheet1 fe1_exit-im1_feedentry)
  (location sheet1 im1_bottomexit-lc1_entry)
  (location sheet1 lbe_entry-lc1_offramp)
  (location sheet1 lc1_exit-lc2_entry)
  (location sheet1 lc1_onramp-lbe_exit)
  (location sheet1 lc2_onramp-lre_exit)
  (location sheet1 lre_entry-lc2_offramp)
  (location sheet1 om_bottomentry-lc2_exit)
  (location sheet1 om_outputexit-sys_entry)
  (location sheet1 om_returnexit-rh2_entry)
  (location sheet1 rh1_entry-rh2_exit)
  (location sheet1 rh1_exit-im1_returnentry)
  (location sheet1 some_finisher_tray)
  (location sheet1 ube_entry-uc1_offramp)
  (location sheet1 uc1_entry-im1_topexit)
  (location sheet1 uc1_onramp-ube_exit)
  (location sheet1 uc2_entry-uc1_exit)
  (location sheet1 uc2_exit-om_topentry)
  (location sheet1 ure_entry-uc2_offramp)
  (location sheet1 ure_exit-uc2_onramp)
  (location sheet10 fe1_exit-im1_feedentry)
  (location sheet10 im1_bottomexit-lc1_entry)
  (location sheet10 lbe_entry-lc1_offramp)
  (location sheet10 lc1_exit-lc2_entry)
  (location sheet10 lc1_onramp-lbe_exit)
  (location sheet10 lc2_onramp-lre_exit)
  (location sheet10 lre_entry-lc2_offramp)
  (location sheet10 om_bottomentry-lc2_exit)
  (location sheet10 om_outputexit-sys_entry)
  (location sheet10 om_returnexit-rh2_entry)
  (location sheet10 rh1_entry-rh2_exit)
  (location sheet10 rh1_exit-im1_returnentry)
  (location sheet10 ube_entry-uc1_offramp)
  (location sheet10 uc1_entry-im1_topexit)
  (location sheet10 uc1_onramp-ube_exit)
  (location sheet10 uc2_entry-uc1_exit)
  (location sheet10 uc2_exit-om_topentry)
  (location sheet10 ure_entry-uc2_offramp)
  (location sheet10 ure_exit-uc2_onramp)
  (location sheet2 fe1_exit-im1_feedentry)
  (location sheet2 im1_bottomexit-lc1_entry)
  (location sheet2 lbe_entry-lc1_offramp)
  (location sheet2 lc1_exit-lc2_entry)
  (location sheet2 lc1_onramp-lbe_exit)
  (location sheet2 lc2_onramp-lre_exit)
  (location sheet2 lre_entry-lc2_offramp)
  (location sheet2 om_bottomentry-lc2_exit)
  (location sheet2 om_outputexit-sys_entry)
  (location sheet2 om_returnexit-rh2_entry)
  (location sheet2 rh1_entry-rh2_exit)
  (location sheet2 rh1_exit-im1_returnentry)
  (location sheet2 some_finisher_tray)
  (location sheet2 ube_entry-uc1_offramp)
  (location sheet2 uc1_entry-im1_topexit)
  (location sheet2 uc1_onramp-ube_exit)
  (location sheet2 uc2_entry-uc1_exit)
  (location sheet2 uc2_exit-om_topentry)
  (location sheet2 ure_entry-uc2_offramp)
  (location sheet2 ure_exit-uc2_onramp)
  (location sheet3 fe1_exit-im1_feedentry)
  (location sheet3 im1_bottomexit-lc1_entry)
  (location sheet3 lbe_entry-lc1_offramp)
  (location sheet3 lc1_exit-lc2_entry)
  (location sheet3 lc1_onramp-lbe_exit)
  (location sheet3 lc2_onramp-lre_exit)
  (location sheet3 lre_entry-lc2_offramp)
  (location sheet3 om_bottomentry-lc2_exit)
  (location sheet3 om_outputexit-sys_entry)
  (location sheet3 om_returnexit-rh2_entry)
  (location sheet3 rh1_entry-rh2_exit)
  (location sheet3 rh1_exit-im1_returnentry)
  (location sheet3 some_finisher_tray)
  (location sheet3 ube_entry-uc1_offramp)
  (location sheet3 uc1_entry-im1_topexit)
  (location sheet3 uc1_onramp-ube_exit)
  (location sheet3 uc2_entry-uc1_exit)
  (location sheet3 uc2_exit-om_topentry)
  (location sheet3 ure_entry-uc2_offramp)
  (location sheet3 ure_exit-uc2_onramp)
  (location sheet4 fe1_exit-im1_feedentry)
  (location sheet4 im1_bottomexit-lc1_entry)
  (location sheet4 lbe_entry-lc1_offramp)
  (location sheet4 lc1_exit-lc2_entry)
  (location sheet4 lc1_onramp-lbe_exit)
  (location sheet4 lc2_onramp-lre_exit)
  (location sheet4 lre_entry-lc2_offramp)
  (location sheet4 om_bottomentry-lc2_exit)
  (location sheet4 om_outputexit-sys_entry)
  (location sheet4 om_returnexit-rh2_entry)
  (location sheet4 rh1_entry-rh2_exit)
  (location sheet4 rh1_exit-im1_returnentry)
  (location sheet4 some_finisher_tray)
  (location sheet4 ube_entry-uc1_offramp)
  (location sheet4 uc1_entry-im1_topexit)
  (location sheet4 uc1_onramp-ube_exit)
  (location sheet4 uc2_entry-uc1_exit)
  (location sheet4 uc2_exit-om_topentry)
  (location sheet4 ure_entry-uc2_offramp)
  (location sheet4 ure_exit-uc2_onramp)
  (location sheet5 fe1_exit-im1_feedentry)
  (location sheet5 im1_bottomexit-lc1_entry)
  (location sheet5 lbe_entry-lc1_offramp)
  (location sheet5 lc1_exit-lc2_entry)
  (location sheet5 lc1_onramp-lbe_exit)
  (location sheet5 lc2_onramp-lre_exit)
  (location sheet5 lre_entry-lc2_offramp)
  (location sheet5 om_bottomentry-lc2_exit)
  (location sheet5 om_outputexit-sys_entry)
  (location sheet5 om_returnexit-rh2_entry)
  (location sheet5 rh1_entry-rh2_exit)
  (location sheet5 rh1_exit-im1_returnentry)
  (location sheet5 some_finisher_tray)
  (location sheet5 ube_entry-uc1_offramp)
  (location sheet5 uc1_entry-im1_topexit)
  (location sheet5 uc1_onramp-ube_exit)
  (location sheet5 uc2_entry-uc1_exit)
  (location sheet5 uc2_exit-om_topentry)
  (location sheet5 ure_entry-uc2_offramp)
  (location sheet5 ure_exit-uc2_onramp)
  (location sheet6 fe1_exit-im1_feedentry)
  (location sheet6 im1_bottomexit-lc1_entry)
  (location sheet6 lbe_entry-lc1_offramp)
  (location sheet6 lc1_exit-lc2_entry)
  (location sheet6 lc1_onramp-lbe_exit)
  (location sheet6 lc2_onramp-lre_exit)
  (location sheet6 lre_entry-lc2_offramp)
  (location sheet6 om_bottomentry-lc2_exit)
  (location sheet6 om_outputexit-sys_entry)
  (location sheet6 om_returnexit-rh2_entry)
  (location sheet6 rh1_entry-rh2_exit)
  (location sheet6 rh1_exit-im1_returnentry)
  (location sheet6 some_finisher_tray)
  (location sheet6 ube_entry-uc1_offramp)
  (location sheet6 uc1_entry-im1_topexit)
  (location sheet6 uc1_onramp-ube_exit)
  (location sheet6 uc2_entry-uc1_exit)
  (location sheet6 uc2_exit-om_topentry)
  (location sheet6 ure_entry-uc2_offramp)
  (location sheet6 ure_exit-uc2_onramp)
  (location sheet7 fe1_exit-im1_feedentry)
  (location sheet7 im1_bottomexit-lc1_entry)
  (location sheet7 lbe_entry-lc1_offramp)
  (location sheet7 lc1_exit-lc2_entry)
  (location sheet7 lc1_onramp-lbe_exit)
  (location sheet7 lc2_onramp-lre_exit)
  (location sheet7 lre_entry-lc2_offramp)
  (location sheet7 om_bottomentry-lc2_exit)
  (location sheet7 om_outputexit-sys_entry)
  (location sheet7 om_returnexit-rh2_entry)
  (location sheet7 rh1_entry-rh2_exit)
  (location sheet7 rh1_exit-im1_returnentry)
  (location sheet7 some_finisher_tray)
  (location sheet7 ube_entry-uc1_offramp)
  (location sheet7 uc1_entry-im1_topexit)
  (location sheet7 uc1_onramp-ube_exit)
  (location sheet7 uc2_entry-uc1_exit)
  (location sheet7 uc2_exit-om_topentry)
  (location sheet7 ure_entry-uc2_offramp)
  (location sheet7 ure_exit-uc2_onramp)
  (location sheet8 fe1_exit-im1_feedentry)
  (location sheet8 im1_bottomexit-lc1_entry)
  (location sheet8 lbe_entry-lc1_offramp)
  (location sheet8 lc1_exit-lc2_entry)
  (location sheet8 lc1_onramp-lbe_exit)
  (location sheet8 lc2_onramp-lre_exit)
  (location sheet8 lre_entry-lc2_offramp)
  (location sheet8 om_bottomentry-lc2_exit)
  (location sheet8 om_outputexit-sys_entry)
  (location sheet8 om_returnexit-rh2_entry)
  (location sheet8 rh1_entry-rh2_exit)
  (location sheet8 rh1_exit-im1_returnentry)
  (location sheet8 some_finisher_tray)
  (location sheet8 ube_entry-uc1_offramp)
  (location sheet8 uc1_entry-im1_topexit)
  (location sheet8 uc1_onramp-ube_exit)
  (location sheet8 uc2_entry-uc1_exit)
  (location sheet8 uc2_exit-om_topentry)
  (location sheet8 ure_entry-uc2_offramp)
  (location sheet8 ure_exit-uc2_onramp)
  (location sheet9 fe1_exit-im1_feedentry)
  (location sheet9 im1_bottomexit-lc1_entry)
  (location sheet9 lbe_entry-lc1_offramp)
  (location sheet9 lc1_exit-lc2_entry)
  (location sheet9 lc1_onramp-lbe_exit)
  (location sheet9 lc2_onramp-lre_exit)
  (location sheet9 lre_entry-lc2_offramp)
  (location sheet9 om_bottomentry-lc2_exit)
  (location sheet9 om_outputexit-sys_entry)
  (location sheet9 om_returnexit-rh2_entry)
  (location sheet9 rh1_entry-rh2_exit)
  (location sheet9 rh1_exit-im1_returnentry)
  (location sheet9 some_finisher_tray)
  (location sheet9 ube_entry-uc1_offramp)
  (location sheet9 uc1_entry-im1_topexit)
  (location sheet9 uc1_onramp-ube_exit)
  (location sheet9 uc2_entry-uc1_exit)
  (location sheet9 uc2_exit-om_topentry)
  (location sheet9 ure_entry-uc2_offramp)
  (location sheet9 ure_exit-uc2_onramp)
  (sideup sheet1 back)
  (sideup sheet1 front)
  (sideup sheet10 back)
  (sideup sheet10 front)
  (sideup sheet2 back)
  (sideup sheet2 front)
  (sideup sheet3 back)
  (sideup sheet3 front)
  (sideup sheet4 back)
  (sideup sheet4 front)
  (sideup sheet5 back)
  (sideup sheet5 front)
  (sideup sheet6 back)
  (sideup sheet6 front)
  (sideup sheet7 back)
  (sideup sheet7 front)
  (sideup sheet8 back)
  (sideup sheet8 front)
  (sideup sheet9 back)
  (sideup sheet9 front)
  (stackedin sheet1 sys_outputtray)
  (stackedin sheet10 sys_outputtray)
  (stackedin sheet2 sys_outputtray)
  (stackedin sheet3 sys_outputtray)
  (stackedin sheet4 sys_outputtray)
  (stackedin sheet5 sys_outputtray)
  (stackedin sheet6 sys_outputtray)
  (stackedin sheet7 sys_outputtray)
  (stackedin sheet8 sys_outputtray)
  (stackedin sheet9 sys_outputtray)
  (uninitialized)
Unreachable ops [1041/1041]:
  (fe1-feedmsi-letter sheet1)
  (fe1-feedmsi-letter sheet10)
  (fe1-feedmsi-letter sheet2)
  (fe1-feedmsi-letter sheet3)
  (fe1-feedmsi-letter sheet4)
  (fe1-feedmsi-letter sheet5)
  (fe1-feedmsi-letter sheet6)
  (fe1-feedmsi-letter sheet7)
  (fe1-feedmsi-letter sheet8)
  (fe1-feedmsi-letter sheet9)
  (im1-looplower-letter sheet1)
  (im1-looplower-letter sheet10)
  (im1-looplower-letter sheet2)
  (im1-looplower-letter sheet3)
  (im1-looplower-letter sheet4)
  (im1-looplower-letter sheet5)
  (im1-looplower-letter sheet6)
  (im1-looplower-letter sheet7)
  (im1-looplower-letter sheet8)
  (im1-looplower-letter sheet9)
  (im1-loopupper-letter sheet1)
  (im1-loopupper-letter sheet10)
  (im1-loopupper-letter sheet2)
  (im1-loopupper-letter sheet3)
  (im1-loopupper-letter sheet4)
  (im1-loopupper-letter sheet5)
  (im1-loopupper-letter sheet6)
  (im1-loopupper-letter sheet7)
  (im1-loopupper-letter sheet8)
  (im1-loopupper-letter sheet9)
  (im1-movelower-letter sheet1)
  (im1-movelower-letter sheet10)
  (im1-movelower-letter sheet2)
  (im1-movelower-letter sheet3)
  (im1-movelower-letter sheet4)
  (im1-movelower-letter sheet5)
  (im1-movelower-letter sheet6)
  (im1-movelower-letter sheet7)
  (im1-movelower-letter sheet8)
  (im1-movelower-letter sheet9)
  (im1-moveupper-letter sheet1)
  (im1-moveupper-letter sheet10)
  (im1-moveupper-letter sheet2)
  (im1-moveupper-letter sheet3)
  (im1-moveupper-letter sheet4)
  (im1-moveupper-letter sheet5)
  (im1-moveupper-letter sheet6)
  (im1-moveupper-letter sheet7)
  (im1-moveupper-letter sheet8)
  (im1-moveupper-letter sheet9)
  (initialize)
  (lbe-simplex-letter sheet1 back image-10)
  (lbe-simplex-letter sheet1 back image-3)
  (lbe-simplex-letter sheet1 back image-4)
  (lbe-simplex-letter sheet1 back image-5)
  (lbe-simplex-letter sheet1 back image-7)
  (lbe-simplex-letter sheet1 back image-9)
  (lbe-simplex-letter sheet1 front image-10)
  (lbe-simplex-letter sheet1 front image-3)
  (lbe-simplex-letter sheet1 front image-4)
  (lbe-simplex-letter sheet1 front image-5)
  (lbe-simplex-letter sheet1 front image-7)
  (lbe-simplex-letter sheet1 front image-9)
  (lbe-simplex-letter sheet10 back image-10)
  (lbe-simplex-letter sheet10 back image-3)
  (lbe-simplex-letter sheet10 back image-4)
  (lbe-simplex-letter sheet10 back image-5)
  (lbe-simplex-letter sheet10 back image-7)
  (lbe-simplex-letter sheet10 back image-9)
  (lbe-simplex-letter sheet10 front image-10)
  (lbe-simplex-letter sheet10 front image-3)
  (lbe-simplex-letter sheet10 front image-4)
  (lbe-simplex-letter sheet10 front image-5)
  (lbe-simplex-letter sheet10 front image-7)
  (lbe-simplex-letter sheet10 front image-9)
  (lbe-simplex-letter sheet2 back image-10)
  (lbe-simplex-letter sheet2 back image-3)
  (lbe-simplex-letter sheet2 back image-4)
  (lbe-simplex-letter sheet2 back image-5)
  (lbe-simplex-letter sheet2 back image-7)
  (lbe-simplex-letter sheet2 back image-9)
  (lbe-simplex-letter sheet2 front image-10)
  (lbe-simplex-letter sheet2 front image-3)
  (lbe-simplex-letter sheet2 front image-4)
  (lbe-simplex-letter sheet2 front image-5)
  (lbe-simplex-letter sheet2 front image-7)
  (lbe-simplex-letter sheet2 front image-9)
  (lbe-simplex-letter sheet3 back image-10)
  (lbe-simplex-letter sheet3 back image-3)
  (lbe-simplex-letter sheet3 back image-4)
  (lbe-simplex-letter sheet3 back image-5)
  (lbe-simplex-letter sheet3 back image-7)
  (lbe-simplex-letter sheet3 back image-9)
  (lbe-simplex-letter sheet3 front image-10)
  (lbe-simplex-letter sheet3 front image-3)
  (lbe-simplex-letter sheet3 front image-4)
  (lbe-simplex-letter sheet3 front image-5)
  (lbe-simplex-letter sheet3 front image-7)
  (lbe-simplex-letter sheet3 front image-9)
  (lbe-simplex-letter sheet4 back image-10)
  (lbe-simplex-letter sheet4 back image-3)
  (lbe-simplex-letter sheet4 back image-4)
  (lbe-simplex-letter sheet4 back image-5)
  (lbe-simplex-letter sheet4 back image-7)
  (lbe-simplex-letter sheet4 back image-9)
  (lbe-simplex-letter sheet4 front image-10)
  (lbe-simplex-letter sheet4 front image-3)
  (lbe-simplex-letter sheet4 front image-4)
  (lbe-simplex-letter sheet4 front image-5)
  (lbe-simplex-letter sheet4 front image-7)
  (lbe-simplex-letter sheet4 front image-9)
  (lbe-simplex-letter sheet5 back image-10)
  (lbe-simplex-letter sheet5 back image-3)
  (lbe-simplex-letter sheet5 back image-4)
  (lbe-simplex-letter sheet5 back image-5)
  (lbe-simplex-letter sheet5 back image-7)
  (lbe-simplex-letter sheet5 back image-9)
  (lbe-simplex-letter sheet5 front image-10)
  (lbe-simplex-letter sheet5 front image-3)
  (lbe-simplex-letter sheet5 front image-4)
  (lbe-simplex-letter sheet5 front image-5)
  (lbe-simplex-letter sheet5 front image-7)
  (lbe-simplex-letter sheet5 front image-9)
  (lbe-simplex-letter sheet6 back image-10)
  (lbe-simplex-letter sheet6 back image-3)
  (lbe-simplex-letter sheet6 back image-4)
  (lbe-simplex-letter sheet6 back image-5)
  (lbe-simplex-letter sheet6 back image-7)
  (lbe-simplex-letter sheet6 back image-9)
  (lbe-simplex-letter sheet6 front image-10)
  (lbe-simplex-letter sheet6 front image-3)
  (lbe-simplex-letter sheet6 front image-4)
  (lbe-simplex-letter sheet6 front image-5)
  (lbe-simplex-letter sheet6 front image-7)
  (lbe-simplex-letter sheet6 front image-9)
  (lbe-simplex-letter sheet7 back image-10)
  (lbe-simplex-letter sheet7 back image-3)
  (lbe-simplex-letter sheet7 back image-4)
  (lbe-simplex-letter sheet7 back image-5)
  (lbe-simplex-letter sheet7 back image-7)
  (lbe-simplex-letter sheet7 back image-9)
  (lbe-simplex-letter sheet7 front image-10)
  (lbe-simplex-letter sheet7 front image-3)
  (lbe-simplex-letter sheet7 front image-4)
  (lbe-simplex-letter sheet7 front image-5)
  (lbe-simplex-letter sheet7 front image-7)
  (lbe-simplex-letter sheet7 front image-9)
  (lbe-simplex-letter sheet8 back image-10)
  (lbe-simplex-letter sheet8 back image-3)
  (lbe-simplex-letter sheet8 back image-4)
  (lbe-simplex-letter sheet8 back image-5)
  (lbe-simplex-letter sheet8 back image-7)
  (lbe-simplex-letter sheet8 back image-9)
  (lbe-simplex-letter sheet8 front image-10)
  (lbe-simplex-letter sheet8 front image-3)
  (lbe-simplex-letter sheet8 front image-4)
  (lbe-simplex-letter sheet8 front image-5)
  (lbe-simplex-letter sheet8 front image-7)
  (lbe-simplex-letter sheet8 front image-9)
  (lbe-simplex-letter sheet9 back image-10)
  (lbe-simplex-letter sheet9 back image-3)
  (lbe-simplex-letter sheet9 back image-4)
  (lbe-simplex-letter sheet9 back image-5)
  (lbe-simplex-letter sheet9 back image-7)
  (lbe-simplex-letter sheet9 back image-9)
  (lbe-simplex-letter sheet9 front image-10)
  (lbe-simplex-letter sheet9 front image-3)
  (lbe-simplex-letter sheet9 front image-4)
  (lbe-simplex-letter sheet9 front image-5)
  (lbe-simplex-letter sheet9 front image-7)
  (lbe-simplex-letter sheet9 front image-9)
  (lc1-divert-letter sheet1 back front)
  (lc1-divert-letter sheet1 front back)
  (lc1-divert-letter sheet10 back front)
  (lc1-divert-letter sheet10 front back)
  (lc1-divert-letter sheet2 back front)
  (lc1-divert-letter sheet2 front back)
  (lc1-divert-letter sheet3 back front)
  (lc1-divert-letter sheet3 front back)
  (lc1-divert-letter sheet4 back front)
  (lc1-divert-letter sheet4 front back)
  (lc1-divert-letter sheet5 back front)
  (lc1-divert-letter sheet5 front back)
  (lc1-divert-letter sheet6 back front)
  (lc1-divert-letter sheet6 front back)
  (lc1-divert-letter sheet7 back front)
  (lc1-divert-letter sheet7 front back)
  (lc1-divert-letter sheet8 back front)
  (lc1-divert-letter sheet8 front back)
  (lc1-divert-letter sheet9 back front)
  (lc1-divert-letter sheet9 front back)
  (lc1-fmove-letter sheet1)
  (lc1-fmove-letter sheet10)
  (lc1-fmove-letter sheet2)
  (lc1-fmove-letter sheet3)
  (lc1-fmove-letter sheet4)
  (lc1-fmove-letter sheet5)
  (lc1-fmove-letter sheet6)
  (lc1-fmove-letter sheet7)
  (lc1-fmove-letter sheet8)
  (lc1-fmove-letter sheet9)
  (lc1-merge-letter sheet1)
  (lc1-merge-letter sheet10)
  (lc1-merge-letter sheet2)
  (lc1-merge-letter sheet3)
  (lc1-merge-letter sheet4)
  (lc1-merge-letter sheet5)
  (lc1-merge-letter sheet6)
  (lc1-merge-letter sheet7)
  (lc1-merge-letter sheet8)
  (lc1-merge-letter sheet9)
  (lc1-mergeinvert-letter sheet1 back front)
  (lc1-mergeinvert-letter sheet1 front back)
  (lc1-mergeinvert-letter sheet10 back front)
  (lc1-mergeinvert-letter sheet10 front back)
  (lc1-mergeinvert-letter sheet2 back front)
  (lc1-mergeinvert-letter sheet2 front back)
  (lc1-mergeinvert-letter sheet3 back front)
  (lc1-mergeinvert-letter sheet3 front back)
  (lc1-mergeinvert-letter sheet4 back front)
  (lc1-mergeinvert-letter sheet4 front back)
  (lc1-mergeinvert-letter sheet5 back front)
  (lc1-mergeinvert-letter sheet5 front back)
  (lc1-mergeinvert-letter sheet6 back front)
  (lc1-mergeinvert-letter sheet6 front back)
  (lc1-mergeinvert-letter sheet7 back front)
  (lc1-mergeinvert-letter sheet7 front back)
  (lc1-mergeinvert-letter sheet8 back front)
  (lc1-mergeinvert-letter sheet8 front back)
  (lc1-mergeinvert-letter sheet9 back front)
  (lc1-mergeinvert-letter sheet9 front back)
  (lc2-divert-letter sheet1 back front)
  (lc2-divert-letter sheet1 front back)
  (lc2-divert-letter sheet10 back front)
  (lc2-divert-letter sheet10 front back)
  (lc2-divert-letter sheet2 back front)
  (lc2-divert-letter sheet2 front back)
  (lc2-divert-letter sheet3 back front)
  (lc2-divert-letter sheet3 front back)
  (lc2-divert-letter sheet4 back front)
  (lc2-divert-letter sheet4 front back)
  (lc2-divert-letter sheet5 back front)
  (lc2-divert-letter sheet5 front back)
  (lc2-divert-letter sheet6 back front)
  (lc2-divert-letter sheet6 front back)
  (lc2-divert-letter sheet7 back front)
  (lc2-divert-letter sheet7 front back)
  (lc2-divert-letter sheet8 back front)
  (lc2-divert-letter sheet8 front back)
  (lc2-divert-letter sheet9 back front)
  (lc2-divert-letter sheet9 front back)
  (lc2-fmove-letter sheet1)
  (lc2-fmove-letter sheet10)
  (lc2-fmove-letter sheet2)
  (lc2-fmove-letter sheet3)
  (lc2-fmove-letter sheet4)
  (lc2-fmove-letter sheet5)
  (lc2-fmove-letter sheet6)
  (lc2-fmove-letter sheet7)
  (lc2-fmove-letter sheet8)
  (lc2-fmove-letter sheet9)
  (lc2-merge-letter sheet1 back front)
  (lc2-merge-letter sheet1 front back)
  (lc2-merge-letter sheet10 back front)
  (lc2-merge-letter sheet10 front back)
  (lc2-merge-letter sheet2 back front)
  (lc2-merge-letter sheet2 front back)
  (lc2-merge-letter sheet3 back front)
  (lc2-merge-letter sheet3 front back)
  (lc2-merge-letter sheet4 back front)
  (lc2-merge-letter sheet4 front back)
  (lc2-merge-letter sheet5 back front)
  (lc2-merge-letter sheet5 front back)
  (lc2-merge-letter sheet6 back front)
  (lc2-merge-letter sheet6 front back)
  (lc2-merge-letter sheet7 back front)
  (lc2-merge-letter sheet7 front back)
  (lc2-merge-letter sheet8 back front)
  (lc2-merge-letter sheet8 front back)
  (lc2-merge-letter sheet9 back front)
  (lc2-merge-letter sheet9 front back)
  (lc2-mergeinvert-letter sheet1)
  (lc2-mergeinvert-letter sheet10)
  (lc2-mergeinvert-letter sheet2)
  (lc2-mergeinvert-letter sheet3)
  (lc2-mergeinvert-letter sheet4)
  (lc2-mergeinvert-letter sheet5)
  (lc2-mergeinvert-letter sheet6)
  (lc2-mergeinvert-letter sheet7)
  (lc2-mergeinvert-letter sheet8)
  (lc2-mergeinvert-letter sheet9)
  (lre-simplex-letter sheet1 back image-1)
  (lre-simplex-letter sheet1 back image-2)
  (lre-simplex-letter sheet1 back image-6)
  (lre-simplex-letter sheet1 back image-8)
  (lre-simplex-letter sheet1 back image-8b)
  (lre-simplex-letter sheet1 front image-1)
  (lre-simplex-letter sheet1 front image-2)
  (lre-simplex-letter sheet1 front image-6)
  (lre-simplex-letter sheet1 front image-8)
  (lre-simplex-letter sheet1 front image-8b)
  (lre-simplex-letter sheet10 back image-1)
  (lre-simplex-letter sheet10 back image-2)
  (lre-simplex-letter sheet10 back image-6)
  (lre-simplex-letter sheet10 back image-8)
  (lre-simplex-letter sheet10 back image-8b)
  (lre-simplex-letter sheet10 front image-1)
  (lre-simplex-letter sheet10 front image-2)
  (lre-simplex-letter sheet10 front image-6)
  (lre-simplex-letter sheet10 front image-8)
  (lre-simplex-letter sheet10 front image-8b)
  (lre-simplex-letter sheet2 back image-1)
  (lre-simplex-letter sheet2 back image-2)
  (lre-simplex-letter sheet2 back image-6)
  (lre-simplex-letter sheet2 back image-8)
  (lre-simplex-letter sheet2 back image-8b)
  (lre-simplex-letter sheet2 front image-1)
  (lre-simplex-letter sheet2 front image-2)
  (lre-simplex-letter sheet2 front image-6)
  (lre-simplex-letter sheet2 front image-8)
  (lre-simplex-letter sheet2 front image-8b)
  (lre-simplex-letter sheet3 back image-1)
  (lre-simplex-letter sheet3 back image-2)
  (lre-simplex-letter sheet3 back image-6)
  (lre-simplex-letter sheet3 back image-8)
  (lre-simplex-letter sheet3 back image-8b)
  (lre-simplex-letter sheet3 front image-1)
  (lre-simplex-letter sheet3 front image-2)
  (lre-simplex-letter sheet3 front image-6)
  (lre-simplex-letter sheet3 front image-8)
  (lre-simplex-letter sheet3 front image-8b)
  (lre-simplex-letter sheet4 back image-1)
  (lre-simplex-letter sheet4 back image-2)
  (lre-simplex-letter sheet4 back image-6)
  (lre-simplex-letter sheet4 back image-8)
  (lre-simplex-letter sheet4 back image-8b)
  (lre-simplex-letter sheet4 front image-1)
  (lre-simplex-letter sheet4 front image-2)
  (lre-simplex-letter sheet4 front image-6)
  (lre-simplex-letter sheet4 front image-8)
  (lre-simplex-letter sheet4 front image-8b)
  (lre-simplex-letter sheet5 back image-1)
  (lre-simplex-letter sheet5 back image-2)
  (lre-simplex-letter sheet5 back image-6)
  (lre-simplex-letter sheet5 back image-8)
  (lre-simplex-letter sheet5 back image-8b)
  (lre-simplex-letter sheet5 front image-1)
  (lre-simplex-letter sheet5 front image-2)
  (lre-simplex-letter sheet5 front image-6)
  (lre-simplex-letter sheet5 front image-8)
  (lre-simplex-letter sheet5 front image-8b)
  (lre-simplex-letter sheet6 back image-1)
  (lre-simplex-letter sheet6 back image-2)
  (lre-simplex-letter sheet6 back image-6)
  (lre-simplex-letter sheet6 back image-8)
  (lre-simplex-letter sheet6 back image-8b)
  (lre-simplex-letter sheet6 front image-1)
  (lre-simplex-letter sheet6 front image-2)
  (lre-simplex-letter sheet6 front image-6)
  (lre-simplex-letter sheet6 front image-8)
  (lre-simplex-letter sheet6 front image-8b)
  (lre-simplex-letter sheet7 back image-1)
  (lre-simplex-letter sheet7 back image-2)
  (lre-simplex-letter sheet7 back image-6)
  (lre-simplex-letter sheet7 back image-8)
  (lre-simplex-letter sheet7 back image-8b)
  (lre-simplex-letter sheet7 front image-1)
  (lre-simplex-letter sheet7 front image-2)
  (lre-simplex-letter sheet7 front image-6)
  (lre-simplex-letter sheet7 front image-8)
  (lre-simplex-letter sheet7 front image-8b)
  (lre-simplex-letter sheet8 back image-1)
  (lre-simplex-letter sheet8 back image-2)
  (lre-simplex-letter sheet8 back image-6)
  (lre-simplex-letter sheet8 back image-8)
  (lre-simplex-letter sheet8 back image-8b)
  (lre-simplex-letter sheet8 front image-1)
  (lre-simplex-letter sheet8 front image-2)
  (lre-simplex-letter sheet8 front image-6)
  (lre-simplex-letter sheet8 front image-8)
  (lre-simplex-letter sheet8 front image-8b)
  (lre-simplex-letter sheet9 back image-1)
  (lre-simplex-letter sheet9 back image-2)
  (lre-simplex-letter sheet9 back image-6)
  (lre-simplex-letter sheet9 back image-8)
  (lre-simplex-letter sheet9 back image-8b)
  (lre-simplex-letter sheet9 front image-1)
  (lre-simplex-letter sheet9 front image-2)
  (lre-simplex-letter sheet9 front image-6)
  (lre-simplex-letter sheet9 front image-8)
  (lre-simplex-letter sheet9 front image-8b)
  (lre-simplexmono-letter sheet1 back image-10)
  (lre-simplexmono-letter sheet1 back image-3)
  (lre-simplexmono-letter sheet1 back image-4)
  (lre-simplexmono-letter sheet1 back image-5)
  (lre-simplexmono-letter sheet1 back image-7)
  (lre-simplexmono-letter sheet1 back image-9)
  (lre-simplexmono-letter sheet1 front image-10)
  (lre-simplexmono-letter sheet1 front image-3)
  (lre-simplexmono-letter sheet1 front image-4)
  (lre-simplexmono-letter sheet1 front image-5)
  (lre-simplexmono-letter sheet1 front image-7)
  (lre-simplexmono-letter sheet1 front image-9)
  (lre-simplexmono-letter sheet10 back image-10)
  (lre-simplexmono-letter sheet10 back image-3)
  (lre-simplexmono-letter sheet10 back image-4)
  (lre-simplexmono-letter sheet10 back image-5)
  (lre-simplexmono-letter sheet10 back image-7)
  (lre-simplexmono-letter sheet10 back image-9)
  (lre-simplexmono-letter sheet10 front image-10)
  (lre-simplexmono-letter sheet10 front image-3)
  (lre-simplexmono-letter sheet10 front image-4)
  (lre-simplexmono-letter sheet10 front image-5)
  (lre-simplexmono-letter sheet10 front image-7)
  (lre-simplexmono-letter sheet10 front image-9)
  (lre-simplexmono-letter sheet2 back image-10)
  (lre-simplexmono-letter sheet2 back image-3)
  (lre-simplexmono-letter sheet2 back image-4)
  (lre-simplexmono-letter sheet2 back image-5)
  (lre-simplexmono-letter sheet2 back image-7)
  (lre-simplexmono-letter sheet2 back image-9)
  (lre-simplexmono-letter sheet2 front image-10)
  (lre-simplexmono-letter sheet2 front image-3)
  (lre-simplexmono-letter sheet2 front image-4)
  (lre-simplexmono-letter sheet2 front image-5)
  (lre-simplexmono-letter sheet2 front image-7)
  (lre-simplexmono-letter sheet2 front image-9)
  (lre-simplexmono-letter sheet3 back image-10)
  (lre-simplexmono-letter sheet3 back image-3)
  (lre-simplexmono-letter sheet3 back image-4)
  (lre-simplexmono-letter sheet3 back image-5)
  (lre-simplexmono-letter sheet3 back image-7)
  (lre-simplexmono-letter sheet3 back image-9)
  (lre-simplexmono-letter sheet3 front image-10)
  (lre-simplexmono-letter sheet3 front image-3)
  (lre-simplexmono-letter sheet3 front image-4)
  (lre-simplexmono-letter sheet3 front image-5)
  (lre-simplexmono-letter sheet3 front image-7)
  (lre-simplexmono-letter sheet3 front image-9)
  (lre-simplexmono-letter sheet4 back image-10)
  (lre-simplexmono-letter sheet4 back image-3)
  (lre-simplexmono-letter sheet4 back image-4)
  (lre-simplexmono-letter sheet4 back image-5)
  (lre-simplexmono-letter sheet4 back image-7)
  (lre-simplexmono-letter sheet4 back image-9)
  (lre-simplexmono-letter sheet4 front image-10)
  (lre-simplexmono-letter sheet4 front image-3)
  (lre-simplexmono-letter sheet4 front image-4)
  (lre-simplexmono-letter sheet4 front image-5)
  (lre-simplexmono-letter sheet4 front image-7)
  (lre-simplexmono-letter sheet4 front image-9)
  (lre-simplexmono-letter sheet5 back image-10)
  (lre-simplexmono-letter sheet5 back image-3)
  (lre-simplexmono-letter sheet5 back image-4)
  (lre-simplexmono-letter sheet5 back image-5)
  (lre-simplexmono-letter sheet5 back image-7)
  (lre-simplexmono-letter sheet5 back image-9)
  (lre-simplexmono-letter sheet5 front image-10)
  (lre-simplexmono-letter sheet5 front image-3)
  (lre-simplexmono-letter sheet5 front image-4)
  (lre-simplexmono-letter sheet5 front image-5)
  (lre-simplexmono-letter sheet5 front image-7)
  (lre-simplexmono-letter sheet5 front image-9)
  (lre-simplexmono-letter sheet6 back image-10)
  (lre-simplexmono-letter sheet6 back image-3)
  (lre-simplexmono-letter sheet6 back image-4)
  (lre-simplexmono-letter sheet6 back image-5)
  (lre-simplexmono-letter sheet6 back image-7)
  (lre-simplexmono-letter sheet6 back image-9)
  (lre-simplexmono-letter sheet6 front image-10)
  (lre-simplexmono-letter sheet6 front image-3)
  (lre-simplexmono-letter sheet6 front image-4)
  (lre-simplexmono-letter sheet6 front image-5)
  (lre-simplexmono-letter sheet6 front image-7)
  (lre-simplexmono-letter sheet6 front image-9)
  (lre-simplexmono-letter sheet7 back image-10)
  (lre-simplexmono-letter sheet7 back image-3)
  (lre-simplexmono-letter sheet7 back image-4)
  (lre-simplexmono-letter sheet7 back image-5)
  (lre-simplexmono-letter sheet7 back image-7)
  (lre-simplexmono-letter sheet7 back image-9)
  (lre-simplexmono-letter sheet7 front image-10)
  (lre-simplexmono-letter sheet7 front image-3)
  (lre-simplexmono-letter sheet7 front image-4)
  (lre-simplexmono-letter sheet7 front image-5)
  (lre-simplexmono-letter sheet7 front image-7)
  (lre-simplexmono-letter sheet7 front image-9)
  (lre-simplexmono-letter sheet8 back image-10)
  (lre-simplexmono-letter sheet8 back image-3)
  (lre-simplexmono-letter sheet8 back image-4)
  (lre-simplexmono-letter sheet8 back image-5)
  (lre-simplexmono-letter sheet8 back image-7)
  (lre-simplexmono-letter sheet8 back image-9)
  (lre-simplexmono-letter sheet8 front image-10)
  (lre-simplexmono-letter sheet8 front image-3)
  (lre-simplexmono-letter sheet8 front image-4)
  (lre-simplexmono-letter sheet8 front image-5)
  (lre-simplexmono-letter sheet8 front image-7)
  (lre-simplexmono-letter sheet8 front image-9)
  (lre-simplexmono-letter sheet9 back image-10)
  (lre-simplexmono-letter sheet9 back image-3)
  (lre-simplexmono-letter sheet9 back image-4)
  (lre-simplexmono-letter sheet9 back image-5)
  (lre-simplexmono-letter sheet9 back image-7)
  (lre-simplexmono-letter sheet9 back image-9)
  (lre-simplexmono-letter sheet9 front image-10)
  (lre-simplexmono-letter sheet9 front image-3)
  (lre-simplexmono-letter sheet9 front image-4)
  (lre-simplexmono-letter sheet9 front image-5)
  (lre-simplexmono-letter sheet9 front image-7)
  (lre-simplexmono-letter sheet9 front image-9)
  (om-lowerout-letter sheet1)
  (om-lowerout-letter sheet10)
  (om-lowerout-letter sheet2)
  (om-lowerout-letter sheet3)
  (om-lowerout-letter sheet4)
  (om-lowerout-letter sheet5)
  (om-lowerout-letter sheet6)
  (om-lowerout-letter sheet7)
  (om-lowerout-letter sheet8)
  (om-lowerout-letter sheet9)
  (om-lowerreturn-letter sheet1)
  (om-lowerreturn-letter sheet10)
  (om-lowerreturn-letter sheet2)
  (om-lowerreturn-letter sheet3)
  (om-lowerreturn-letter sheet4)
  (om-lowerreturn-letter sheet5)
  (om-lowerreturn-letter sheet6)
  (om-lowerreturn-letter sheet7)
  (om-lowerreturn-letter sheet8)
  (om-lowerreturn-letter sheet9)
  (om-upperout-letter sheet1)
  (om-upperout-letter sheet10)
  (om-upperout-letter sheet2)
  (om-upperout-letter sheet3)
  (om-upperout-letter sheet4)
  (om-upperout-letter sheet5)
  (om-upperout-letter sheet6)
  (om-upperout-letter sheet7)
  (om-upperout-letter sheet8)
  (om-upperout-letter sheet9)
  (om-upperreturn-letter sheet1)
  (om-upperreturn-letter sheet10)
  (om-upperreturn-letter sheet2)
  (om-upperreturn-letter sheet3)
  (om-upperreturn-letter sheet4)
  (om-upperreturn-letter sheet5)
  (om-upperreturn-letter sheet6)
  (om-upperreturn-letter sheet7)
  (om-upperreturn-letter sheet8)
  (om-upperreturn-letter sheet9)
  (rh1-returnmove-letter sheet1)
  (rh1-returnmove-letter sheet10)
  (rh1-returnmove-letter sheet2)
  (rh1-returnmove-letter sheet3)
  (rh1-returnmove-letter sheet4)
  (rh1-returnmove-letter sheet5)
  (rh1-returnmove-letter sheet6)
  (rh1-returnmove-letter sheet7)
  (rh1-returnmove-letter sheet8)
  (rh1-returnmove-letter sheet9)
  (rh2-returnmove-letter sheet1)
  (rh2-returnmove-letter sheet10)
  (rh2-returnmove-letter sheet2)
  (rh2-returnmove-letter sheet3)
  (rh2-returnmove-letter sheet4)
  (rh2-returnmove-letter sheet5)
  (rh2-returnmove-letter sheet6)
  (rh2-returnmove-letter sheet7)
  (rh2-returnmove-letter sheet8)
  (rh2-returnmove-letter sheet9)
  (sys-stack-letter sheet1 dummy-sheet)
  (sys-stack-letter sheet10 sheet9)
  (sys-stack-letter sheet2 sheet1)
  (sys-stack-letter sheet3 sheet2)
  (sys-stack-letter sheet4 sheet3)
  (sys-stack-letter sheet5 sheet4)
  (sys-stack-letter sheet6 sheet5)
  (sys-stack-letter sheet7 sheet6)
  (sys-stack-letter sheet8 sheet7)
  (sys-stack-letter sheet9 sheet8)
  (ube-simplex-letter sheet1 back image-10)
  (ube-simplex-letter sheet1 back image-3)
  (ube-simplex-letter sheet1 back image-4)
  (ube-simplex-letter sheet1 back image-5)
  (ube-simplex-letter sheet1 back image-7)
  (ube-simplex-letter sheet1 back image-9)
  (ube-simplex-letter sheet1 front image-10)
  (ube-simplex-letter sheet1 front image-3)
  (ube-simplex-letter sheet1 front image-4)
  (ube-simplex-letter sheet1 front image-5)
  (ube-simplex-letter sheet1 front image-7)
  (ube-simplex-letter sheet1 front image-9)
  (ube-simplex-letter sheet10 back image-10)
  (ube-simplex-letter sheet10 back image-3)
  (ube-simplex-letter sheet10 back image-4)
  (ube-simplex-letter sheet10 back image-5)
  (ube-simplex-letter sheet10 back image-7)
  (ube-simplex-letter sheet10 back image-9)
  (ube-simplex-letter sheet10 front image-10)
  (ube-simplex-letter sheet10 front image-3)
  (ube-simplex-letter sheet10 front image-4)
  (ube-simplex-letter sheet10 front image-5)
  (ube-simplex-letter sheet10 front image-7)
  (ube-simplex-letter sheet10 front image-9)
  (ube-simplex-letter sheet2 back image-10)
  (ube-simplex-letter sheet2 back image-3)
  (ube-simplex-letter sheet2 back image-4)
  (ube-simplex-letter sheet2 back image-5)
  (ube-simplex-letter sheet2 back image-7)
  (ube-simplex-letter sheet2 back image-9)
  (ube-simplex-letter sheet2 front image-10)
  (ube-simplex-letter sheet2 front image-3)
  (ube-simplex-letter sheet2 front image-4)
  (ube-simplex-letter sheet2 front image-5)
  (ube-simplex-letter sheet2 front image-7)
  (ube-simplex-letter sheet2 front image-9)
  (ube-simplex-letter sheet3 back image-10)
  (ube-simplex-letter sheet3 back image-3)
  (ube-simplex-letter sheet3 back image-4)
  (ube-simplex-letter sheet3 back image-5)
  (ube-simplex-letter sheet3 back image-7)
  (ube-simplex-letter sheet3 back image-9)
  (ube-simplex-letter sheet3 front image-10)
  (ube-simplex-letter sheet3 front image-3)
  (ube-simplex-letter sheet3 front image-4)
  (ube-simplex-letter sheet3 front image-5)
  (ube-simplex-letter sheet3 front image-7)
  (ube-simplex-letter sheet3 front image-9)
  (ube-simplex-letter sheet4 back image-10)
  (ube-simplex-letter sheet4 back image-3)
  (ube-simplex-letter sheet4 back image-4)
  (ube-simplex-letter sheet4 back image-5)
  (ube-simplex-letter sheet4 back image-7)
  (ube-simplex-letter sheet4 back image-9)
  (ube-simplex-letter sheet4 front image-10)
  (ube-simplex-letter sheet4 front image-3)
  (ube-simplex-letter sheet4 front image-4)
  (ube-simplex-letter sheet4 front image-5)
  (ube-simplex-letter sheet4 front image-7)
  (ube-simplex-letter sheet4 front image-9)
  (ube-simplex-letter sheet5 back image-10)
  (ube-simplex-letter sheet5 back image-3)
  (ube-simplex-letter sheet5 back image-4)
  (ube-simplex-letter sheet5 back image-5)
  (ube-simplex-letter sheet5 back image-7)
  (ube-simplex-letter sheet5 back image-9)
  (ube-simplex-letter sheet5 front image-10)
  (ube-simplex-letter sheet5 front image-3)
  (ube-simplex-letter sheet5 front image-4)
  (ube-simplex-letter sheet5 front image-5)
  (ube-simplex-letter sheet5 front image-7)
  (ube-simplex-letter sheet5 front image-9)
  (ube-simplex-letter sheet6 back image-10)
  (ube-simplex-letter sheet6 back image-3)
  (ube-simplex-letter sheet6 back image-4)
  (ube-simplex-letter sheet6 back image-5)
  (ube-simplex-letter sheet6 back image-7)
  (ube-simplex-letter sheet6 back image-9)
  (ube-simplex-letter sheet6 front image-10)
  (ube-simplex-letter sheet6 front image-3)
  (ube-simplex-letter sheet6 front image-4)
  (ube-simplex-letter sheet6 front image-5)
  (ube-simplex-letter sheet6 front image-7)
  (ube-simplex-letter sheet6 front image-9)
  (ube-simplex-letter sheet7 back image-10)
  (ube-simplex-letter sheet7 back image-3)
  (ube-simplex-letter sheet7 back image-4)
  (ube-simplex-letter sheet7 back image-5)
  (ube-simplex-letter sheet7 back image-7)
  (ube-simplex-letter sheet7 back image-9)
  (ube-simplex-letter sheet7 front image-10)
  (ube-simplex-letter sheet7 front image-3)
  (ube-simplex-letter sheet7 front image-4)
  (ube-simplex-letter sheet7 front image-5)
  (ube-simplex-letter sheet7 front image-7)
  (ube-simplex-letter sheet7 front image-9)
  (ube-simplex-letter sheet8 back image-10)
  (ube-simplex-letter sheet8 back image-3)
  (ube-simplex-letter sheet8 back image-4)
  (ube-simplex-letter sheet8 back image-5)
  (ube-simplex-letter sheet8 back image-7)
  (ube-simplex-letter sheet8 back image-9)
  (ube-simplex-letter sheet8 front image-10)
  (ube-simplex-letter sheet8 front image-3)
  (ube-simplex-letter sheet8 front image-4)
  (ube-simplex-letter sheet8 front image-5)
  (ube-simplex-letter sheet8 front image-7)
  (ube-simplex-letter sheet8 front image-9)
  (ube-simplex-letter sheet9 back image-10)
  (ube-simplex-letter sheet9 back image-3)
  (ube-simplex-letter sheet9 back image-4)
  (ube-simplex-letter sheet9 back image-5)
  (ube-simplex-letter sheet9 back image-7)
  (ube-simplex-letter sheet9 back image-9)
  (ube-simplex-letter sheet9 front image-10)
  (ube-simplex-letter sheet9 front image-3)
  (ube-simplex-letter sheet9 front image-4)
  (ube-simplex-letter sheet9 front image-5)
  (ube-simplex-letter sheet9 front image-7)
  (ube-simplex-letter sheet9 front image-9)
  (uc1-divert-letter sheet1 back front)
  (uc1-divert-letter sheet1 front back)
  (uc1-divert-letter sheet10 back front)
  (uc1-divert-letter sheet10 front back)
  (uc1-divert-letter sheet2 back front)
  (uc1-divert-letter sheet2 front back)
  (uc1-divert-letter sheet3 back front)
  (uc1-divert-letter sheet3 front back)
  (uc1-divert-letter sheet4 back front)
  (uc1-divert-letter sheet4 front back)
  (uc1-divert-letter sheet5 back front)
  (uc1-divert-letter sheet5 front back)
  (uc1-divert-letter sheet6 back front)
  (uc1-divert-letter sheet6 front back)
  (uc1-divert-letter sheet7 back front)
  (uc1-divert-letter sheet7 front back)
  (uc1-divert-letter sheet8 back front)
  (uc1-divert-letter sheet8 front back)
  (uc1-divert-letter sheet9 back front)
  (uc1-divert-letter sheet9 front back)
  (uc1-fmove-letter sheet1)
  (uc1-fmove-letter sheet10)
  (uc1-fmove-letter sheet2)
  (uc1-fmove-letter sheet3)
  (uc1-fmove-letter sheet4)
  (uc1-fmove-letter sheet5)
  (uc1-fmove-letter sheet6)
  (uc1-fmove-letter sheet7)
  (uc1-fmove-letter sheet8)
  (uc1-fmove-letter sheet9)
  (uc1-merge-letter sheet1)
  (uc1-merge-letter sheet10)
  (uc1-merge-letter sheet2)
  (uc1-merge-letter sheet3)
  (uc1-merge-letter sheet4)
  (uc1-merge-letter sheet5)
  (uc1-merge-letter sheet6)
  (uc1-merge-letter sheet7)
  (uc1-merge-letter sheet8)
  (uc1-merge-letter sheet9)
  (uc1-mergeinvert-letter sheet1 back front)
  (uc1-mergeinvert-letter sheet1 front back)
  (uc1-mergeinvert-letter sheet10 back front)
  (uc1-mergeinvert-letter sheet10 front back)
  (uc1-mergeinvert-letter sheet2 back front)
  (uc1-mergeinvert-letter sheet2 front back)
  (uc1-mergeinvert-letter sheet3 back front)
  (uc1-mergeinvert-letter sheet3 front back)
  (uc1-mergeinvert-letter sheet4 back front)
  (uc1-mergeinvert-letter sheet4 front back)
  (uc1-mergeinvert-letter sheet5 back front)
  (uc1-mergeinvert-letter sheet5 front back)
  (uc1-mergeinvert-letter sheet6 back front)
  (uc1-mergeinvert-letter sheet6 front back)
  (uc1-mergeinvert-letter sheet7 back front)
  (uc1-mergeinvert-letter sheet7 front back)
  (uc1-mergeinvert-letter sheet8 back front)
  (uc1-mergeinvert-letter sheet8 front back)
  (uc1-mergeinvert-letter sheet9 back front)
  (uc1-mergeinvert-letter sheet9 front back)
  (uc2-divert-letter sheet1 back front)
  (uc2-divert-letter sheet1 front back)
  (uc2-divert-letter sheet10 back front)
  (uc2-divert-letter sheet10 front back)
  (uc2-divert-letter sheet2 back front)
  (uc2-divert-letter sheet2 front back)
  (uc2-divert-letter sheet3 back front)
  (uc2-divert-letter sheet3 front back)
  (uc2-divert-letter sheet4 back front)
  (uc2-divert-letter sheet4 front back)
  (uc2-divert-letter sheet5 back front)
  (uc2-divert-letter sheet5 front back)
  (uc2-divert-letter sheet6 back front)
  (uc2-divert-letter sheet6 front back)
  (uc2-divert-letter sheet7 back front)
  (uc2-divert-letter sheet7 front back)
  (uc2-divert-letter sheet8 back front)
  (uc2-divert-letter sheet8 front back)
  (uc2-divert-letter sheet9 back front)
  (uc2-divert-letter sheet9 front back)
  (uc2-fmove-letter sheet1)
  (uc2-fmove-letter sheet10)
  (uc2-fmove-letter sheet2)
  (uc2-fmove-letter sheet3)
  (uc2-fmove-letter sheet4)
  (uc2-fmove-letter sheet5)
  (uc2-fmove-letter sheet6)
  (uc2-fmove-letter sheet7)
  (uc2-fmove-letter sheet8)
  (uc2-fmove-letter sheet9)
  (uc2-merge-letter sheet1 back front)
  (uc2-merge-letter sheet1 front back)
  (uc2-merge-letter sheet10 back front)
  (uc2-merge-letter sheet10 front back)
  (uc2-merge-letter sheet2 back front)
  (uc2-merge-letter sheet2 front back)
  (uc2-merge-letter sheet3 back front)
  (uc2-merge-letter sheet3 front back)
  (uc2-merge-letter sheet4 back front)
  (uc2-merge-letter sheet4 front back)
  (uc2-merge-letter sheet5 back front)
  (uc2-merge-letter sheet5 front back)
  (uc2-merge-letter sheet6 back front)
  (uc2-merge-letter sheet6 front back)
  (uc2-merge-letter sheet7 back front)
  (uc2-merge-letter sheet7 front back)
  (uc2-merge-letter sheet8 back front)
  (uc2-merge-letter sheet8 front back)
  (uc2-merge-letter sheet9 back front)
  (uc2-merge-letter sheet9 front back)
  (uc2-mergeinvert-letter sheet1)
  (uc2-mergeinvert-letter sheet10)
  (uc2-mergeinvert-letter sheet2)
  (uc2-mergeinvert-letter sheet3)
  (uc2-mergeinvert-letter sheet4)
  (uc2-mergeinvert-letter sheet5)
  (uc2-mergeinvert-letter sheet6)
  (uc2-mergeinvert-letter sheet7)
  (uc2-mergeinvert-letter sheet8)
  (uc2-mergeinvert-letter sheet9)
  (ure-simplex-letter sheet1 back image-1)
  (ure-simplex-letter sheet1 back image-2)
  (ure-simplex-letter sheet1 back image-6)
  (ure-simplex-letter sheet1 back image-8)
  (ure-simplex-letter sheet1 back image-8b)
  (ure-simplex-letter sheet1 front image-1)
  (ure-simplex-letter sheet1 front image-2)
  (ure-simplex-letter sheet1 front image-6)
  (ure-simplex-letter sheet1 front image-8)
  (ure-simplex-letter sheet1 front image-8b)
  (ure-simplex-letter sheet10 back image-1)
  (ure-simplex-letter sheet10 back image-2)
  (ure-simplex-letter sheet10 back image-6)
  (ure-simplex-letter sheet10 back image-8)
  (ure-simplex-letter sheet10 back image-8b)
  (ure-simplex-letter sheet10 front image-1)
  (ure-simplex-letter sheet10 front image-2)
  (ure-simplex-letter sheet10 front image-6)
  (ure-simplex-letter sheet10 front image-8)
  (ure-simplex-letter sheet10 front image-8b)
  (ure-simplex-letter sheet2 back image-1)
  (ure-simplex-letter sheet2 back image-2)
  (ure-simplex-letter sheet2 back image-6)
  (ure-simplex-letter sheet2 back image-8)
  (ure-simplex-letter sheet2 back image-8b)
  (ure-simplex-letter sheet2 front image-1)
  (ure-simplex-letter sheet2 front image-2)
  (ure-simplex-letter sheet2 front image-6)
  (ure-simplex-letter sheet2 front image-8)
  (ure-simplex-letter sheet2 front image-8b)
  (ure-simplex-letter sheet3 back image-1)
  (ure-simplex-letter sheet3 back image-2)
  (ure-simplex-letter sheet3 back image-6)
  (ure-simplex-letter sheet3 back image-8)
  (ure-simplex-letter sheet3 back image-8b)
  (ure-simplex-letter sheet3 front image-1)
  (ure-simplex-letter sheet3 front image-2)
  (ure-simplex-letter sheet3 front image-6)
  (ure-simplex-letter sheet3 front image-8)
  (ure-simplex-letter sheet3 front image-8b)
  (ure-simplex-letter sheet4 back image-1)
  (ure-simplex-letter sheet4 back image-2)
  (ure-simplex-letter sheet4 back image-6)
  (ure-simplex-letter sheet4 back image-8)
  (ure-simplex-letter sheet4 back image-8b)
  (ure-simplex-letter sheet4 front image-1)
  (ure-simplex-letter sheet4 front image-2)
  (ure-simplex-letter sheet4 front image-6)
  (ure-simplex-letter sheet4 front image-8)
  (ure-simplex-letter sheet4 front image-8b)
  (ure-simplex-letter sheet5 back image-1)
  (ure-simplex-letter sheet5 back image-2)
  (ure-simplex-letter sheet5 back image-6)
  (ure-simplex-letter sheet5 back image-8)
  (ure-simplex-letter sheet5 back image-8b)
  (ure-simplex-letter sheet5 front image-1)
  (ure-simplex-letter sheet5 front image-2)
  (ure-simplex-letter sheet5 front image-6)
  (ure-simplex-letter sheet5 front image-8)
  (ure-simplex-letter sheet5 front image-8b)
  (ure-simplex-letter sheet6 back image-1)
  (ure-simplex-letter sheet6 back image-2)
  (ure-simplex-letter sheet6 back image-6)
  (ure-simplex-letter sheet6 back image-8)
  (ure-simplex-letter sheet6 back image-8b)
  (ure-simplex-letter sheet6 front image-1)
  (ure-simplex-letter sheet6 front image-2)
  (ure-simplex-letter sheet6 front image-6)
  (ure-simplex-letter sheet6 front image-8)
  (ure-simplex-letter sheet6 front image-8b)
  (ure-simplex-letter sheet7 back image-1)
  (ure-simplex-letter sheet7 back image-2)
  (ure-simplex-letter sheet7 back image-6)
  (ure-simplex-letter sheet7 back image-8)
  (ure-simplex-letter sheet7 back image-8b)
  (ure-simplex-letter sheet7 front image-1)
  (ure-simplex-letter sheet7 front image-2)
  (ure-simplex-letter sheet7 front image-6)
  (ure-simplex-letter sheet7 front image-8)
  (ure-simplex-letter sheet7 front image-8b)
  (ure-simplex-letter sheet8 back image-1)
  (ure-simplex-letter sheet8 back image-2)
  (ure-simplex-letter sheet8 back image-6)
  (ure-simplex-letter sheet8 back image-8)
  (ure-simplex-letter sheet8 back image-8b)
  (ure-simplex-letter sheet8 front image-1)
  (ure-simplex-letter sheet8 front image-2)
  (ure-simplex-letter sheet8 front image-6)
  (ure-simplex-letter sheet8 front image-8)
  (ure-simplex-letter sheet8 front image-8b)
  (ure-simplex-letter sheet9 back image-1)
  (ure-simplex-letter sheet9 back image-2)
  (ure-simplex-letter sheet9 back image-6)
  (ure-simplex-letter sheet9 back image-8)
  (ure-simplex-letter sheet9 back image-8b)
  (ure-simplex-letter sheet9 front image-1)
  (ure-simplex-letter sheet9 front image-2)
  (ure-simplex-letter sheet9 front image-6)
  (ure-simplex-letter sheet9 front image-8)
  (ure-simplex-letter sheet9 front image-8b)
  (ure-simplexmono-letter sheet1 back image-10)
  (ure-simplexmono-letter sheet1 back image-3)
  (ure-simplexmono-letter sheet1 back image-4)
  (ure-simplexmono-letter sheet1 back image-5)
  (ure-simplexmono-letter sheet1 back image-7)
  (ure-simplexmono-letter sheet1 back image-9)
  (ure-simplexmono-letter sheet1 front image-10)
  (ure-simplexmono-letter sheet1 front image-3)
  (ure-simplexmono-letter sheet1 front image-4)
  (ure-simplexmono-letter sheet1 front image-5)
  (ure-simplexmono-letter sheet1 front image-7)
  (ure-simplexmono-letter sheet1 front image-9)
  (ure-simplexmono-letter sheet10 back image-10)
  (ure-simplexmono-letter sheet10 back image-3)
  (ure-simplexmono-letter sheet10 back image-4)
  (ure-simplexmono-letter sheet10 back image-5)
  (ure-simplexmono-letter sheet10 back image-7)
  (ure-simplexmono-letter sheet10 back image-9)
  (ure-simplexmono-letter sheet10 front image-10)
  (ure-simplexmono-letter sheet10 front image-3)
  (ure-simplexmono-letter sheet10 front image-4)
  (ure-simplexmono-letter sheet10 front image-5)
  (ure-simplexmono-letter sheet10 front image-7)
  (ure-simplexmono-letter sheet10 front image-9)
  (ure-simplexmono-letter sheet2 back image-10)
  (ure-simplexmono-letter sheet2 back image-3)
  (ure-simplexmono-letter sheet2 back image-4)
  (ure-simplexmono-letter sheet2 back image-5)
  (ure-simplexmono-letter sheet2 back image-7)
  (ure-simplexmono-letter sheet2 back image-9)
  (ure-simplexmono-letter sheet2 front image-10)
  (ure-simplexmono-letter sheet2 front image-3)
  (ure-simplexmono-letter sheet2 front image-4)
  (ure-simplexmono-letter sheet2 front image-5)
  (ure-simplexmono-letter sheet2 front image-7)
  (ure-simplexmono-letter sheet2 front image-9)
  (ure-simplexmono-letter sheet3 back image-10)
  (ure-simplexmono-letter sheet3 back image-3)
  (ure-simplexmono-letter sheet3 back image-4)
  (ure-simplexmono-letter sheet3 back image-5)
  (ure-simplexmono-letter sheet3 back image-7)
  (ure-simplexmono-letter sheet3 back image-9)
  (ure-simplexmono-letter sheet3 front image-10)
  (ure-simplexmono-letter sheet3 front image-3)
  (ure-simplexmono-letter sheet3 front image-4)
  (ure-simplexmono-letter sheet3 front image-5)
  (ure-simplexmono-letter sheet3 front image-7)
  (ure-simplexmono-letter sheet3 front image-9)
  (ure-simplexmono-letter sheet4 back image-10)
  (ure-simplexmono-letter sheet4 back image-3)
  (ure-simplexmono-letter sheet4 back image-4)
  (ure-simplexmono-letter sheet4 back image-5)
  (ure-simplexmono-letter sheet4 back image-7)
  (ure-simplexmono-letter sheet4 back image-9)
  (ure-simplexmono-letter sheet4 front image-10)
  (ure-simplexmono-letter sheet4 front image-3)
  (ure-simplexmono-letter sheet4 front image-4)
  (ure-simplexmono-letter sheet4 front image-5)
  (ure-simplexmono-letter sheet4 front image-7)
  (ure-simplexmono-letter sheet4 front image-9)
  (ure-simplexmono-letter sheet5 back image-10)
  (ure-simplexmono-letter sheet5 back image-3)
  (ure-simplexmono-letter sheet5 back image-4)
  (ure-simplexmono-letter sheet5 back image-5)
  (ure-simplexmono-letter sheet5 back image-7)
  (ure-simplexmono-letter sheet5 back image-9)
  (ure-simplexmono-letter sheet5 front image-10)
  (ure-simplexmono-letter sheet5 front image-3)
  (ure-simplexmono-letter sheet5 front image-4)
  (ure-simplexmono-letter sheet5 front image-5)
  (ure-simplexmono-letter sheet5 front image-7)
  (ure-simplexmono-letter sheet5 front image-9)
  (ure-simplexmono-letter sheet6 back image-10)
  (ure-simplexmono-letter sheet6 back image-3)
  (ure-simplexmono-letter sheet6 back image-4)
  (ure-simplexmono-letter sheet6 back image-5)
  (ure-simplexmono-letter sheet6 back image-7)
  (ure-simplexmono-letter sheet6 back image-9)
  (ure-simplexmono-letter sheet6 front image-10)
  (ure-simplexmono-letter sheet6 front image-3)
  (ure-simplexmono-letter sheet6 front image-4)
  (ure-simplexmono-letter sheet6 front image-5)
  (ure-simplexmono-letter sheet6 front image-7)
  (ure-simplexmono-letter sheet6 front image-9)
  (ure-simplexmono-letter sheet7 back image-10)
  (ure-simplexmono-letter sheet7 back image-3)
  (ure-simplexmono-letter sheet7 back image-4)
  (ure-simplexmono-letter sheet7 back image-5)
  (ure-simplexmono-letter sheet7 back image-7)
  (ure-simplexmono-letter sheet7 back image-9)
  (ure-simplexmono-letter sheet7 front image-10)
  (ure-simplexmono-letter sheet7 front image-3)
  (ure-simplexmono-letter sheet7 front image-4)
  (ure-simplexmono-letter sheet7 front image-5)
  (ure-simplexmono-letter sheet7 front image-7)
  (ure-simplexmono-letter sheet7 front image-9)
  (ure-simplexmono-letter sheet8 back image-10)
  (ure-simplexmono-letter sheet8 back image-3)
  (ure-simplexmono-letter sheet8 back image-4)
  (ure-simplexmono-letter sheet8 back image-5)
  (ure-simplexmono-letter sheet8 back image-7)
  (ure-simplexmono-letter sheet8 back image-9)
  (ure-simplexmono-letter sheet8 front image-10)
  (ure-simplexmono-letter sheet8 front image-3)
  (ure-simplexmono-letter sheet8 front image-4)
  (ure-simplexmono-letter sheet8 front image-5)
  (ure-simplexmono-letter sheet8 front image-7)
  (ure-simplexmono-letter sheet8 front image-9)
  (ure-simplexmono-letter sheet9 back image-10)
  (ure-simplexmono-letter sheet9 back image-3)
  (ure-simplexmono-letter sheet9 back image-4)
  (ure-simplexmono-letter sheet9 back image-5)
  (ure-simplexmono-letter sheet9 back image-7)
  (ure-simplexmono-letter sheet9 back image-9)
  (ure-simplexmono-letter sheet9 front image-10)
  (ure-simplexmono-letter sheet9 front image-3)
  (ure-simplexmono-letter sheet9 front image-4)
  (ure-simplexmono-letter sheet9 front image-5)
  (ure-simplexmono-letter sheet9 front image-7)
  (ure-simplexmono-letter sheet9 front image-9)
