Fact[20]:
  (analyzed car-in-1a)
  (analyzed car-in-1b)
  (analyzed car-out-1a)
  (analyzed car-out-1b)
  (on car-in-1a seg-in-1a)
  (on car-in-1a seg-in-1b)
  (on car-in-1a seg-out-1a)
  (on car-in-1a seg-out-1b)
  (on car-in-1b seg-in-1a)
  (on car-in-1b seg-in-1b)
  (on car-in-1b seg-out-1a)
  (on car-in-1b seg-out-1b)
  (on car-out-1a seg-in-1a)
  (on car-out-1a seg-in-1b)
  (on car-out-1a seg-out-1a)
  (on car-out-1a seg-out-1b)
  (on car-out-1b seg-in-1a)
  (on car-out-1b seg-in-1b)
  (on car-out-1b seg-out-1a)
  (on car-out-1b seg-out-1b)
Op[8]:
  (analyze-4 seg-in-1a seg-in-1b seg-out-1a seg-out-1b car-in-1a car-in-1b car-out-1a car-out-1b), cost: 3
    pre: (on car-in-1a seg-in-1a) (on car-in-1b seg-in-1b) (on car-out-1a seg-out-1a) (on car-out-1b seg-out-1b)
    add: (analyzed car-in-1a) (on car-in-1a seg-out-1b) (on car-in-1b seg-in-1a) (on car-out-1a seg-in-1b) (on car-out-1b seg-out-1a)
    del: (on car-in-1a seg-in-1a) (on car-in-1b seg-in-1b) (on car-out-1a seg-out-1a) (on car-out-1b seg-out-1b)
  (analyze-4 seg-in-1a seg-in-1b seg-out-1a seg-out-1b car-in-1b car-out-1a car-out-1b car-in-1a), cost: 3
    pre: (on car-in-1a seg-out-1b) (on car-in-1b seg-in-1a) (on car-out-1a seg-in-1b) (on car-out-1b seg-out-1a)
    add: (analyzed car-in-1b) (on car-in-1a seg-out-1a) (on car-in-1b seg-out-1b) (on car-out-1a seg-in-1a) (on car-out-1b seg-in-1b)
    del: (on car-in-1a seg-out-1b) (on car-in-1b seg-in-1a) (on car-out-1a seg-in-1b) (on car-out-1b seg-out-1a)
  (analyze-4 seg-in-1a seg-in-1b seg-out-1a seg-out-1b car-out-1a car-out-1b car-in-1a car-in-1b), cost: 3
    pre: (on car-in-1a seg-out-1a) (on car-in-1b seg-out-1b) (on car-out-1a seg-in-1a) (on car-out-1b seg-in-1b)
    add: (analyzed car-out-1a) (on car-in-1a seg-in-1b) (on car-in-1b seg-out-1a) (on car-out-1a seg-out-1b) (on car-out-1b seg-in-1a)
    del: (on car-in-1a seg-out-1a) (on car-in-1b seg-out-1b) (on car-out-1a seg-in-1a) (on car-out-1b seg-in-1b)
  (analyze-4 seg-in-1a seg-in-1b seg-out-1a seg-out-1b car-out-1b car-in-1a car-in-1b car-out-1a), cost: 3
    pre: (on car-in-1a seg-in-1b) (on car-in-1b seg-out-1a) (on car-out-1a seg-out-1b) (on car-out-1b seg-in-1a)
    add: (analyzed car-out-1b) (on car-in-1a seg-in-1a) (on car-in-1b seg-in-1b) (on car-out-1a seg-out-1a) (on car-out-1b seg-out-1b)
    del: (on car-in-1a seg-in-1b) (on car-in-1b seg-out-1a) (on car-out-1a seg-out-1b) (on car-out-1b seg-in-1a)
  (rotate-4 seg-in-1a seg-in-1b seg-out-1a seg-out-1b car-in-1a car-in-1b car-out-1a car-out-1b), cost: 1
    pre: (on car-in-1a seg-in-1a) (on car-in-1b seg-in-1b) (on car-out-1a seg-out-1a) (on car-out-1b seg-out-1b)
    add: (on car-in-1a seg-out-1b) (on car-in-1b seg-in-1a) (on car-out-1a seg-in-1b) (on car-out-1b seg-out-1a)
    del: (on car-in-1a seg-in-1a) (on car-in-1b seg-in-1b) (on car-out-1a seg-out-1a) (on car-out-1b seg-out-1b)
  (rotate-4 seg-in-1a seg-in-1b seg-out-1a seg-out-1b car-in-1b car-out-1a car-out-1b car-in-1a), cost: 1
    pre: (on car-in-1a seg-out-1b) (on car-in-1b seg-in-1a) (on car-out-1a seg-in-1b) (on car-out-1b seg-out-1a)
    add: (on car-in-1a seg-out-1a) (on car-in-1b seg-out-1b) (on car-out-1a seg-in-1a) (on car-out-1b seg-in-1b)
    del: (on car-in-1a seg-out-1b) (on car-in-1b seg-in-1a) (on car-out-1a seg-in-1b) (on car-out-1b seg-out-1a)
  (rotate-4 seg-in-1a seg-in-1b seg-out-1a seg-out-1b car-out-1a car-out-1b car-in-1a car-in-1b), cost: 1
    pre: (on car-in-1a seg-out-1a) (on car-in-1b seg-out-1b) (on car-out-1a seg-in-1a) (on car-out-1b seg-in-1b)
    add: (on car-in-1a seg-in-1b) (on car-in-1b seg-out-1a) (on car-out-1a seg-out-1b) (on car-out-1b seg-in-1a)
    del: (on car-in-1a seg-out-1a) (on car-in-1b seg-out-1b) (on car-out-1a seg-in-1a) (on car-out-1b seg-in-1b)
  (rotate-4 seg-in-1a seg-in-1b seg-out-1a seg-out-1b car-out-1b car-in-1a car-in-1b car-out-1a), cost: 1
    pre: (on car-in-1a seg-in-1b) (on car-in-1b seg-out-1a) (on car-out-1a seg-out-1b) (on car-out-1b seg-in-1a)
    add: (on car-in-1a seg-in-1a) (on car-in-1b seg-in-1b) (on car-out-1a seg-out-1a) (on car-out-1b seg-out-1b)
    del: (on car-in-1a seg-in-1b) (on car-in-1b seg-out-1a) (on car-out-1a seg-out-1b) (on car-out-1b seg-in-1a)
Init State: (on car-in-1a seg-in-1a) (on car-in-1b seg-in-1b) (on car-out-1a seg-out-1a) (on car-out-1b seg-out-1b)
Goal: (analyzed car-in-1a) (analyzed car-in-1b) (analyzed car-out-1a) (analyzed car-out-1b) (on car-in-1a seg-out-1b) (on car-in-1b seg-in-1a) (on car-out-1a seg-in-1b) (on car-out-1b seg-out-1a)
