begin_version
3
end_version
begin_metric
1
end_metric
54
begin_variable
var0
-1
12
location sheet1 fe1_exit-hw1_leftentry
location sheet1 hw1_rightexit-sys_entry
location sheet1 hw1_toprightentry-uc1_exit
location sheet1 lc1_entry-hw1_bottomleftexit
location sheet1 lc1_entryfromime-lime_exit
location sheet1 lc1_exit-hw1_bottomrightentry
location sheet1 lime_entry-lc1_exittoime
location sheet1 some_feeder_tray
location sheet1 some_finisher_tray
location sheet1 uc1_entry-hw1_topleftexit
location sheet1 uc1_exittoime-uime_entry
location sheet1 uime_exit-uc1_entryfromime
end_variable
begin_variable
var1
-1
12
location sheet2 fe1_exit-hw1_leftentry
location sheet2 hw1_rightexit-sys_entry
location sheet2 hw1_toprightentry-uc1_exit
location sheet2 lc1_entry-hw1_bottomleftexit
location sheet2 lc1_entryfromime-lime_exit
location sheet2 lc1_exit-hw1_bottomrightentry
location sheet2 lime_entry-lc1_exittoime
location sheet2 some_feeder_tray
location sheet2 some_finisher_tray
location sheet2 uc1_entry-hw1_topleftexit
location sheet2 uc1_exittoime-uime_entry
location sheet2 uime_exit-uc1_entryfromime
end_variable
begin_variable
var2
-1
12
location sheet3 fe1_exit-hw1_leftentry
location sheet3 hw1_rightexit-sys_entry
location sheet3 hw1_toprightentry-uc1_exit
location sheet3 lc1_entry-hw1_bottomleftexit
location sheet3 lc1_entryfromime-lime_exit
location sheet3 lc1_exit-hw1_bottomrightentry
location sheet3 lime_entry-lc1_exittoime
location sheet3 some_feeder_tray
location sheet3 some_finisher_tray
location sheet3 uc1_entry-hw1_topleftexit
location sheet3 uc1_exittoime-uime_entry
location sheet3 uime_exit-uc1_entryfromime
end_variable
begin_variable
var3
-1
12
location sheet4 fe1_exit-hw1_leftentry
location sheet4 hw1_rightexit-sys_entry
location sheet4 hw1_toprightentry-uc1_exit
location sheet4 lc1_entry-hw1_bottomleftexit
location sheet4 lc1_entryfromime-lime_exit
location sheet4 lc1_exit-hw1_bottomrightentry
location sheet4 lime_entry-lc1_exittoime
location sheet4 some_feeder_tray
location sheet4 some_finisher_tray
location sheet4 uc1_entry-hw1_topleftexit
location sheet4 uc1_exittoime-uime_entry
location sheet4 uime_exit-uc1_entryfromime
end_variable
begin_variable
var4
-1
12
location sheet5 fe1_exit-hw1_leftentry
location sheet5 hw1_rightexit-sys_entry
location sheet5 hw1_toprightentry-uc1_exit
location sheet5 lc1_entry-hw1_bottomleftexit
location sheet5 lc1_entryfromime-lime_exit
location sheet5 lc1_exit-hw1_bottomrightentry
location sheet5 lime_entry-lc1_exittoime
location sheet5 some_feeder_tray
location sheet5 uc1_entry-hw1_topleftexit
location sheet5 uc1_exittoime-uime_entry
location sheet5 uime_exit-uc1_entryfromime
none-of-those
end_variable
begin_variable
var5
-1
2
notprintedwith sheet1 back black
none-of-those
end_variable
begin_variable
var6
-1
2
notprintedwith sheet1 back color
none-of-those
end_variable
begin_variable
var7
-1
2
notprintedwith sheet1 front black
none-of-those
end_variable
begin_variable
var8
-1
2
notprintedwith sheet1 front color
none-of-those
end_variable
begin_variable
var9
-1
2
notprintedwith sheet2 back black
none-of-those
end_variable
begin_variable
var10
-1
2
notprintedwith sheet2 back color
none-of-those
end_variable
begin_variable
var11
-1
2
notprintedwith sheet2 front black
none-of-those
end_variable
begin_variable
var12
-1
2
notprintedwith sheet2 front color
none-of-those
end_variable
begin_variable
var13
-1
2
notprintedwith sheet3 back black
none-of-those
end_variable
begin_variable
var14
-1
2
notprintedwith sheet3 back color
none-of-those
end_variable
begin_variable
var15
-1
2
notprintedwith sheet3 front black
none-of-those
end_variable
begin_variable
var16
-1
2
notprintedwith sheet3 front color
none-of-those
end_variable
begin_variable
var17
-1
2
notprintedwith sheet4 back black
none-of-those
end_variable
begin_variable
var18
-1
2
notprintedwith sheet4 back color
none-of-those
end_variable
begin_variable
var19
-1
2
notprintedwith sheet4 front black
none-of-those
end_variable
begin_variable
var20
-1
2
notprintedwith sheet4 front color
none-of-those
end_variable
begin_variable
var21
-1
2
notprintedwith sheet5 back black
none-of-those
end_variable
begin_variable
var22
-1
2
notprintedwith sheet5 back color
none-of-those
end_variable
begin_variable
var23
-1
2
notprintedwith sheet5 front black
none-of-those
end_variable
begin_variable
var24
-1
2
notprintedwith sheet5 front color
none-of-those
end_variable
begin_variable
var25
-1
2
uninitialized
none-of-those
end_variable
begin_variable
var26
-1
2
available fe1-rsrc
none-of-those
end_variable
begin_variable
var27
-1
2
available hw1-rsrc
none-of-those
end_variable
begin_variable
var28
-1
2
available lc1-rsrc
none-of-those
end_variable
begin_variable
var29
-1
2
available lime-rsrc
none-of-those
end_variable
begin_variable
var30
-1
2
available sys-rsrc
none-of-those
end_variable
begin_variable
var31
-1
2
available uc1-rsrc
none-of-those
end_variable
begin_variable
var32
-1
2
available uime-rsrc
none-of-those
end_variable
begin_variable
var33
-1
2
hasimage sheet1 front image-1
none-of-those
end_variable
begin_variable
var34
-1
2
hasimage sheet2 back image-2b
none-of-those
end_variable
begin_variable
var35
-1
2
hasimage sheet2 front image-2
none-of-those
end_variable
begin_variable
var36
-1
2
hasimage sheet3 front image-3
none-of-those
end_variable
begin_variable
var37
-1
2
hasimage sheet4 front image-4
none-of-those
end_variable
begin_variable
var38
-1
2
hasimage sheet5 front image-5
none-of-those
end_variable
begin_variable
var39
-1
2
sideup sheet1 back
none-of-those
end_variable
begin_variable
var40
-1
2
sideup sheet1 front
none-of-those
end_variable
begin_variable
var41
-1
2
sideup sheet2 back
none-of-those
end_variable
begin_variable
var42
-1
2
sideup sheet2 front
none-of-those
end_variable
begin_variable
var43
-1
2
sideup sheet3 back
none-of-those
end_variable
begin_variable
var44
-1
2
sideup sheet3 front
none-of-those
end_variable
begin_variable
var45
-1
2
sideup sheet4 back
none-of-those
end_variable
begin_variable
var46
-1
2
sideup sheet4 front
none-of-those
end_variable
begin_variable
var47
-1
2
sideup sheet5 back
none-of-those
end_variable
begin_variable
var48
-1
2
sideup sheet5 front
none-of-those
end_variable
begin_variable
var49
-1
2
stackedin sheet1 sys_outputtray
none-of-those
end_variable
begin_variable
var50
-1
2
stackedin sheet2 sys_outputtray
none-of-those
end_variable
begin_variable
var51
-1
2
stackedin sheet3 sys_outputtray
none-of-those
end_variable
begin_variable
var52
-1
2
stackedin sheet4 sys_outputtray
none-of-those
end_variable
begin_variable
var53
-1
2
stackedin sheet5 sys_outputtray
none-of-those
end_variable
26
begin_mutex_group
1
5 0
end_mutex_group
begin_mutex_group
1
6 0
end_mutex_group
begin_mutex_group
1
7 0
end_mutex_group
begin_mutex_group
1
8 0
end_mutex_group
begin_mutex_group
1
9 0
end_mutex_group
begin_mutex_group
1
10 0
end_mutex_group
begin_mutex_group
1
11 0
end_mutex_group
begin_mutex_group
1
12 0
end_mutex_group
begin_mutex_group
1
13 0
end_mutex_group
begin_mutex_group
1
14 0
end_mutex_group
begin_mutex_group
1
15 0
end_mutex_group
begin_mutex_group
1
16 0
end_mutex_group
begin_mutex_group
1
17 0
end_mutex_group
begin_mutex_group
1
18 0
end_mutex_group
begin_mutex_group
1
19 0
end_mutex_group
begin_mutex_group
1
20 0
end_mutex_group
begin_mutex_group
1
21 0
end_mutex_group
begin_mutex_group
1
22 0
end_mutex_group
begin_mutex_group
1
23 0
end_mutex_group
begin_mutex_group
1
24 0
end_mutex_group
begin_mutex_group
1
25 0
end_mutex_group
begin_mutex_group
11
4 0
4 1
4 2
4 3
4 4
4 5
4 6
4 7
4 8
4 9
4 10
end_mutex_group
begin_mutex_group
12
0 0
0 1
0 2
0 3
0 4
0 5
0 6
0 7
0 8
0 9
0 10
0 11
end_mutex_group
begin_mutex_group
12
1 0
1 1
1 2
1 3
1 4
1 5
1 6
1 7
1 8
1 9
1 10
1 11
end_mutex_group
begin_mutex_group
12
2 0
2 1
2 2
2 3
2 4
2 5
2 6
2 7
2 8
2 9
2 10
2 11
end_mutex_group
begin_mutex_group
12
3 0
3 1
3 2
3 3
3 4
3 5
3 6
3 7
3 8
3 9
3 10
3 11
end_mutex_group
begin_state
7
7
7
7
7
0
0
0
0
0
0
0
0
0
0
0
0
0
0
0
0
0
0
0
0
0
1
1
1
1
1
1
1
1
1
1
1
1
1
1
1
1
1
1
1
1
1
1
1
1
1
1
1
1
end_state
begin_goal
30
5 0
6 0
8 0
9 0
11 0
13 0
14 0
16 0
17 0
18 0
19 0
21 0
22 0
23 0
33 0
34 0
35 0
36 0
37 0
38 0
40 0
42 0
44 0
46 0
48 0
49 0
50 0
51 0
52 0
53 0
end_goal
191
begin_operator
fe1-feedmsi-letter sheet1
1
26 0
2
0 0 7 0
0 39 -1 0
125
end_operator
begin_operator
fe1-feedmsi-letter sheet2
1
26 0
2
0 1 7 0
0 41 -1 0
125
end_operator
begin_operator
fe1-feedmsi-letter sheet3
1
26 0
2
0 2 7 0
0 43 -1 0
125
end_operator
begin_operator
fe1-feedmsi-letter sheet4
1
26 0
2
0 3 7 0
0 45 -1 0
125
end_operator
begin_operator
fe1-feedmsi-letter sheet5
1
26 0
2
0 4 7 0
0 47 -1 0
125
end_operator
begin_operator
hw1-bottomrightentrytobottomleftexit-letter sheet1
1
27 0
1
0 0 5 3
8999
end_operator
begin_operator
hw1-bottomrightentrytobottomleftexit-letter sheet2
1
27 0
1
0 1 5 3
8999
end_operator
begin_operator
hw1-bottomrightentrytobottomleftexit-letter sheet3
1
27 0
1
0 2 5 3
8999
end_operator
begin_operator
hw1-bottomrightentrytobottomleftexit-letter sheet4
1
27 0
1
0 3 5 3
8999
end_operator
begin_operator
hw1-bottomrightentrytobottomleftexit-letter sheet5
1
27 0
1
0 4 5 3
8999
end_operator
begin_operator
hw1-bottomrightentrytorightexit-letter sheet1
1
27 0
1
0 0 5 1
1499
end_operator
begin_operator
hw1-bottomrightentrytorightexit-letter sheet2
1
27 0
1
0 1 5 1
1499
end_operator
begin_operator
hw1-bottomrightentrytorightexit-letter sheet3
1
27 0
1
0 2 5 1
1499
end_operator
begin_operator
hw1-bottomrightentrytorightexit-letter sheet4
1
27 0
1
0 3 5 1
1499
end_operator
begin_operator
hw1-bottomrightentrytorightexit-letter sheet5
1
27 0
1
0 4 5 1
1499
end_operator
begin_operator
hw1-bottomrightentrytotopleftexit-letter sheet1
1
27 0
1
0 0 5 9
8999
end_operator
begin_operator
hw1-bottomrightentrytotopleftexit-letter sheet2
1
27 0
1
0 1 5 9
8999
end_operator
begin_operator
hw1-bottomrightentrytotopleftexit-letter sheet3
1
27 0
1
0 2 5 9
8999
end_operator
begin_operator
hw1-bottomrightentrytotopleftexit-letter sheet4
1
27 0
1
0 3 5 9
8999
end_operator
begin_operator
hw1-bottomrightentrytotopleftexit-letter sheet5
1
27 0
1
0 4 5 8
8999
end_operator
begin_operator
hw1-leftentrytobottomleftexit-letter sheet1
1
27 0
1
0 0 0 3
1499
end_operator
begin_operator
hw1-leftentrytobottomleftexit-letter sheet2
1
27 0
1
0 1 0 3
1499
end_operator
begin_operator
hw1-leftentrytobottomleftexit-letter sheet3
1
27 0
1
0 2 0 3
1499
end_operator
begin_operator
hw1-leftentrytobottomleftexit-letter sheet4
1
27 0
1
0 3 0 3
1499
end_operator
begin_operator
hw1-leftentrytobottomleftexit-letter sheet5
1
27 0
1
0 4 0 3
1499
end_operator
begin_operator
hw1-leftentrytotopleftexit-letter sheet1
1
27 0
1
0 0 0 9
1499
end_operator
begin_operator
hw1-leftentrytotopleftexit-letter sheet2
1
27 0
1
0 1 0 9
1499
end_operator
begin_operator
hw1-leftentrytotopleftexit-letter sheet3
1
27 0
1
0 2 0 9
1499
end_operator
begin_operator
hw1-leftentrytotopleftexit-letter sheet4
1
27 0
1
0 3 0 9
1499
end_operator
begin_operator
hw1-leftentrytotopleftexit-letter sheet5
1
27 0
1
0 4 0 8
1499
end_operator
begin_operator
hw1-toprightentrytobottomleftexit-letter sheet1
1
27 0
1
0 0 2 3
8999
end_operator
begin_operator
hw1-toprightentrytobottomleftexit-letter sheet2
1
27 0
1
0 1 2 3
8999
end_operator
begin_operator
hw1-toprightentrytobottomleftexit-letter sheet3
1
27 0
1
0 2 2 3
8999
end_operator
begin_operator
hw1-toprightentrytobottomleftexit-letter sheet4
1
27 0
1
0 3 2 3
8999
end_operator
begin_operator
hw1-toprightentrytobottomleftexit-letter sheet5
1
27 0
1
0 4 2 3
8999
end_operator
begin_operator
hw1-toprightentrytorightexit-letter sheet1
1
27 0
1
0 0 2 1
1499
end_operator
begin_operator
hw1-toprightentrytorightexit-letter sheet2
1
27 0
1
0 1 2 1
1499
end_operator
begin_operator
hw1-toprightentrytorightexit-letter sheet3
1
27 0
1
0 2 2 1
1499
end_operator
begin_operator
hw1-toprightentrytorightexit-letter sheet4
1
27 0
1
0 3 2 1
1499
end_operator
begin_operator
hw1-toprightentrytorightexit-letter sheet5
1
27 0
1
0 4 2 1
1499
end_operator
begin_operator
hw1-toprightentrytotopleftexit-letter sheet1
1
27 0
1
0 0 2 9
8999
end_operator
begin_operator
hw1-toprightentrytotopleftexit-letter sheet2
1
27 0
1
0 1 2 9
8999
end_operator
begin_operator
hw1-toprightentrytotopleftexit-letter sheet3
1
27 0
1
0 2 2 9
8999
end_operator
begin_operator
hw1-toprightentrytotopleftexit-letter sheet4
1
27 0
1
0 3 2 9
8999
end_operator
begin_operator
hw1-toprightentrytotopleftexit-letter sheet5
1
27 0
1
0 4 2 8
8999
end_operator
begin_operator
initialize
0
8
0 25 0 1
0 26 -1 0
0 27 -1 0
0 28 -1 0
0 29 -1 0
0 30 -1 0
0 31 -1 0
0 32 -1 0
0
end_operator
begin_operator
lc1-fromime-letter sheet1
1
28 0
1
0 0 4 5
4999
end_operator
begin_operator
lc1-fromime-letter sheet2
1
28 0
1
0 1 4 5
4999
end_operator
begin_operator
lc1-fromime-letter sheet3
1
28 0
1
0 2 4 5
4999
end_operator
begin_operator
lc1-fromime-letter sheet4
1
28 0
1
0 3 4 5
4999
end_operator
begin_operator
lc1-fromime-letter sheet5
1
28 0
1
0 4 4 5
4999
end_operator
begin_operator
lc1-invertfromime-letter sheet1 back front
1
28 0
3
0 0 4 5
0 39 0 1
0 40 -1 0
9999
end_operator
begin_operator
lc1-invertfromime-letter sheet1 front back
1
28 0
3
0 0 4 5
0 39 -1 0
0 40 0 1
9999
end_operator
begin_operator
lc1-invertfromime-letter sheet2 back front
1
28 0
3
0 1 4 5
0 41 0 1
0 42 -1 0
9999
end_operator
begin_operator
lc1-invertfromime-letter sheet2 front back
1
28 0
3
0 1 4 5
0 41 -1 0
0 42 0 1
9999
end_operator
begin_operator
lc1-invertfromime-letter sheet3 back front
1
28 0
3
0 2 4 5
0 43 0 1
0 44 -1 0
9999
end_operator
begin_operator
lc1-invertfromime-letter sheet3 front back
1
28 0
3
0 2 4 5
0 43 -1 0
0 44 0 1
9999
end_operator
begin_operator
lc1-invertfromime-letter sheet4 back front
1
28 0
3
0 3 4 5
0 45 0 1
0 46 -1 0
9999
end_operator
begin_operator
lc1-invertfromime-letter sheet4 front back
1
28 0
3
0 3 4 5
0 45 -1 0
0 46 0 1
9999
end_operator
begin_operator
lc1-invertfromime-letter sheet5 back front
1
28 0
3
0 4 4 5
0 47 0 1
0 48 -1 0
9999
end_operator
begin_operator
lc1-invertfromime-letter sheet5 front back
1
28 0
3
0 4 4 5
0 47 -1 0
0 48 0 1
9999
end_operator
begin_operator
lc1-inverttoime-letter sheet1 back front
1
28 0
3
0 0 3 6
0 39 0 1
0 40 -1 0
9999
end_operator
begin_operator
lc1-inverttoime-letter sheet1 front back
1
28 0
3
0 0 3 6
0 39 -1 0
0 40 0 1
9999
end_operator
begin_operator
lc1-inverttoime-letter sheet2 back front
1
28 0
3
0 1 3 6
0 41 0 1
0 42 -1 0
9999
end_operator
begin_operator
lc1-inverttoime-letter sheet2 front back
1
28 0
3
0 1 3 6
0 41 -1 0
0 42 0 1
9999
end_operator
begin_operator
lc1-inverttoime-letter sheet3 back front
1
28 0
3
0 2 3 6
0 43 0 1
0 44 -1 0
9999
end_operator
begin_operator
lc1-inverttoime-letter sheet3 front back
1
28 0
3
0 2 3 6
0 43 -1 0
0 44 0 1
9999
end_operator
begin_operator
lc1-inverttoime-letter sheet4 back front
1
28 0
3
0 3 3 6
0 45 0 1
0 46 -1 0
9999
end_operator
begin_operator
lc1-inverttoime-letter sheet4 front back
1
28 0
3
0 3 3 6
0 45 -1 0
0 46 0 1
9999
end_operator
begin_operator
lc1-inverttoime-letter sheet5 back front
1
28 0
3
0 4 3 6
0 47 0 1
0 48 -1 0
9999
end_operator
begin_operator
lc1-inverttoime-letter sheet5 front back
1
28 0
3
0 4 3 6
0 47 -1 0
0 48 0 1
9999
end_operator
begin_operator
lc1-toime-letter sheet1
1
28 0
1
0 0 3 6
4999
end_operator
begin_operator
lc1-toime-letter sheet2
1
28 0
1
0 1 3 6
4999
end_operator
begin_operator
lc1-toime-letter sheet3
1
28 0
1
0 2 3 6
4999
end_operator
begin_operator
lc1-toime-letter sheet4
1
28 0
1
0 3 3 6
4999
end_operator
begin_operator
lc1-toime-letter sheet5
1
28 0
1
0 4 3 6
4999
end_operator
begin_operator
lime-simplex-letter sheet1 back image-2
2
29 0
39 0
2
0 0 6 4
0 6 0 1
212790
end_operator
begin_operator
lime-simplex-letter sheet1 back image-2b
2
29 0
39 0
2
0 0 6 4
0 6 0 1
212790
end_operator
begin_operator
lime-simplex-letter sheet1 back image-4
2
29 0
39 0
2
0 0 6 4
0 6 0 1
212790
end_operator
begin_operator
lime-simplex-letter sheet1 back image-5
2
29 0
39 0
2
0 0 6 4
0 6 0 1
212790
end_operator
begin_operator
lime-simplex-letter sheet1 front image-2
2
29 0
40 0
2
0 0 6 4
0 8 0 1
212790
end_operator
begin_operator
lime-simplex-letter sheet1 front image-2b
2
29 0
40 0
2
0 0 6 4
0 8 0 1
212790
end_operator
begin_operator
lime-simplex-letter sheet1 front image-4
2
29 0
40 0
2
0 0 6 4
0 8 0 1
212790
end_operator
begin_operator
lime-simplex-letter sheet1 front image-5
2
29 0
40 0
2
0 0 6 4
0 8 0 1
212790
end_operator
begin_operator
lime-simplex-letter sheet2 back image-2
2
29 0
41 0
2
0 1 6 4
0 10 0 1
212790
end_operator
begin_operator
lime-simplex-letter sheet2 back image-2b
2
29 0
41 0
3
0 1 6 4
0 10 0 1
0 34 -1 0
212790
end_operator
begin_operator
lime-simplex-letter sheet2 back image-4
2
29 0
41 0
2
0 1 6 4
0 10 0 1
212790
end_operator
begin_operator
lime-simplex-letter sheet2 back image-5
2
29 0
41 0
2
0 1 6 4
0 10 0 1
212790
end_operator
begin_operator
lime-simplex-letter sheet2 front image-2
2
29 0
42 0
3
0 1 6 4
0 12 0 1
0 35 -1 0
212790
end_operator
begin_operator
lime-simplex-letter sheet2 front image-2b
2
29 0
42 0
2
0 1 6 4
0 12 0 1
212790
end_operator
begin_operator
lime-simplex-letter sheet2 front image-4
2
29 0
42 0
2
0 1 6 4
0 12 0 1
212790
end_operator
begin_operator
lime-simplex-letter sheet2 front image-5
2
29 0
42 0
2
0 1 6 4
0 12 0 1
212790
end_operator
begin_operator
lime-simplex-letter sheet3 back image-2
2
29 0
43 0
2
0 2 6 4
0 14 0 1
212790
end_operator
begin_operator
lime-simplex-letter sheet3 back image-2b
2
29 0
43 0
2
0 2 6 4
0 14 0 1
212790
end_operator
begin_operator
lime-simplex-letter sheet3 back image-4
2
29 0
43 0
2
0 2 6 4
0 14 0 1
212790
end_operator
begin_operator
lime-simplex-letter sheet3 back image-5
2
29 0
43 0
2
0 2 6 4
0 14 0 1
212790
end_operator
begin_operator
lime-simplex-letter sheet3 front image-2
2
29 0
44 0
2
0 2 6 4
0 16 0 1
212790
end_operator
begin_operator
lime-simplex-letter sheet3 front image-2b
2
29 0
44 0
2
0 2 6 4
0 16 0 1
212790
end_operator
begin_operator
lime-simplex-letter sheet3 front image-4
2
29 0
44 0
2
0 2 6 4
0 16 0 1
212790
end_operator
begin_operator
lime-simplex-letter sheet3 front image-5
2
29 0
44 0
2
0 2 6 4
0 16 0 1
212790
end_operator
begin_operator
lime-simplex-letter sheet4 back image-2
2
29 0
45 0
2
0 3 6 4
0 18 0 1
212790
end_operator
begin_operator
lime-simplex-letter sheet4 back image-2b
2
29 0
45 0
2
0 3 6 4
0 18 0 1
212790
end_operator
begin_operator
lime-simplex-letter sheet4 back image-4
2
29 0
45 0
2
0 3 6 4
0 18 0 1
212790
end_operator
begin_operator
lime-simplex-letter sheet4 back image-5
2
29 0
45 0
2
0 3 6 4
0 18 0 1
212790
end_operator
begin_operator
lime-simplex-letter sheet4 front image-2
2
29 0
46 0
2
0 3 6 4
0 20 0 1
212790
end_operator
begin_operator
lime-simplex-letter sheet4 front image-2b
2
29 0
46 0
2
0 3 6 4
0 20 0 1
212790
end_operator
begin_operator
lime-simplex-letter sheet4 front image-4
2
29 0
46 0
3
0 3 6 4
0 20 0 1
0 37 -1 0
212790
end_operator
begin_operator
lime-simplex-letter sheet4 front image-5
2
29 0
46 0
2
0 3 6 4
0 20 0 1
212790
end_operator
begin_operator
lime-simplex-letter sheet5 back image-2
2
29 0
47 0
2
0 4 6 4
0 22 0 1
212790
end_operator
begin_operator
lime-simplex-letter sheet5 back image-2b
2
29 0
47 0
2
0 4 6 4
0 22 0 1
212790
end_operator
begin_operator
lime-simplex-letter sheet5 back image-4
2
29 0
47 0
2
0 4 6 4
0 22 0 1
212790
end_operator
begin_operator
lime-simplex-letter sheet5 back image-5
2
29 0
47 0
2
0 4 6 4
0 22 0 1
212790
end_operator
begin_operator
lime-simplex-letter sheet5 front image-2
2
29 0
48 0
2
0 4 6 4
0 24 0 1
212790
end_operator
begin_operator
lime-simplex-letter sheet5 front image-2b
2
29 0
48 0
2
0 4 6 4
0 24 0 1
212790
end_operator
begin_operator
lime-simplex-letter sheet5 front image-4
2
29 0
48 0
2
0 4 6 4
0 24 0 1
212790
end_operator
begin_operator
lime-simplex-letter sheet5 front image-5
2
29 0
48 0
3
0 4 6 4
0 24 0 1
0 38 -1 0
212790
end_operator
begin_operator
lime-simplexmono-letter sheet1 back image-1
2
29 0
39 0
2
0 0 6 4
0 5 0 1
212790
end_operator
begin_operator
lime-simplexmono-letter sheet1 back image-3
2
29 0
39 0
2
0 0 6 4
0 5 0 1
212790
end_operator
begin_operator
lime-simplexmono-letter sheet1 front image-1
2
29 0
40 0
3
0 0 6 4
0 7 0 1
0 33 -1 0
212790
end_operator
begin_operator
lime-simplexmono-letter sheet1 front image-3
2
29 0
40 0
2
0 0 6 4
0 7 0 1
212790
end_operator
begin_operator
lime-simplexmono-letter sheet2 back image-1
2
29 0
41 0
2
0 1 6 4
0 9 0 1
212790
end_operator
begin_operator
lime-simplexmono-letter sheet2 back image-3
2
29 0
41 0
2
0 1 6 4
0 9 0 1
212790
end_operator
begin_operator
lime-simplexmono-letter sheet2 front image-1
2
29 0
42 0
2
0 1 6 4
0 11 0 1
212790
end_operator
begin_operator
lime-simplexmono-letter sheet2 front image-3
2
29 0
42 0
2
0 1 6 4
0 11 0 1
212790
end_operator
begin_operator
lime-simplexmono-letter sheet3 back image-1
2
29 0
43 0
2
0 2 6 4
0 13 0 1
212790
end_operator
begin_operator
lime-simplexmono-letter sheet3 back image-3
2
29 0
43 0
2
0 2 6 4
0 13 0 1
212790
end_operator
begin_operator
lime-simplexmono-letter sheet3 front image-1
2
29 0
44 0
2
0 2 6 4
0 15 0 1
212790
end_operator
begin_operator
lime-simplexmono-letter sheet3 front image-3
2
29 0
44 0
3
0 2 6 4
0 15 0 1
0 36 -1 0
212790
end_operator
begin_operator
lime-simplexmono-letter sheet4 back image-1
2
29 0
45 0
2
0 3 6 4
0 17 0 1
212790
end_operator
begin_operator
lime-simplexmono-letter sheet4 back image-3
2
29 0
45 0
2
0 3 6 4
0 17 0 1
212790
end_operator
begin_operator
lime-simplexmono-letter sheet4 front image-1
2
29 0
46 0
2
0 3 6 4
0 19 0 1
212790
end_operator
begin_operator
lime-simplexmono-letter sheet4 front image-3
2
29 0
46 0
2
0 3 6 4
0 19 0 1
212790
end_operator
begin_operator
lime-simplexmono-letter sheet5 back image-1
2
29 0
47 0
2
0 4 6 4
0 21 0 1
212790
end_operator
begin_operator
lime-simplexmono-letter sheet5 back image-3
2
29 0
47 0
2
0 4 6 4
0 21 0 1
212790
end_operator
begin_operator
lime-simplexmono-letter sheet5 front image-1
2
29 0
48 0
2
0 4 6 4
0 23 0 1
212790
end_operator
begin_operator
lime-simplexmono-letter sheet5 front image-3
2
29 0
48 0
2
0 4 6 4
0 23 0 1
212790
end_operator
begin_operator
sys-stack-letter sheet1 dummy-sheet
1
30 0
2
0 0 1 8
0 49 -1 0
1499
end_operator
begin_operator
sys-stack-letter sheet2 sheet1
2
0 8
30 0
2
0 1 1 8
0 50 -1 0
1499
end_operator
begin_operator
sys-stack-letter sheet3 sheet2
2
1 8
30 0
2
0 2 1 8
0 51 -1 0
1499
end_operator
begin_operator
sys-stack-letter sheet4 sheet3
2
2 8
30 0
2
0 3 1 8
0 52 -1 0
1499
end_operator
begin_operator
sys-stack-letter sheet5 sheet4
2
3 8
30 0
2
0 4 1 11
0 53 -1 0
1499
end_operator
begin_operator
uc1-fromime-letter sheet1
1
31 0
1
0 0 11 2
2999
end_operator
begin_operator
uc1-fromime-letter sheet2
1
31 0
1
0 1 11 2
2999
end_operator
begin_operator
uc1-fromime-letter sheet3
1
31 0
1
0 2 11 2
2999
end_operator
begin_operator
uc1-fromime-letter sheet4
1
31 0
1
0 3 11 2
2999
end_operator
begin_operator
uc1-fromime-letter sheet5
1
31 0
1
0 4 10 2
2999
end_operator
begin_operator
uc1-invertfromime-letter sheet1 back front
1
31 0
3
0 0 11 2
0 39 0 1
0 40 -1 0
8000
end_operator
begin_operator
uc1-invertfromime-letter sheet1 front back
1
31 0
3
0 0 11 2
0 39 -1 0
0 40 0 1
8000
end_operator
begin_operator
uc1-invertfromime-letter sheet2 back front
1
31 0
3
0 1 11 2
0 41 0 1
0 42 -1 0
8000
end_operator
begin_operator
uc1-invertfromime-letter sheet2 front back
1
31 0
3
0 1 11 2
0 41 -1 0
0 42 0 1
8000
end_operator
begin_operator
uc1-invertfromime-letter sheet3 back front
1
31 0
3
0 2 11 2
0 43 0 1
0 44 -1 0
8000
end_operator
begin_operator
uc1-invertfromime-letter sheet3 front back
1
31 0
3
0 2 11 2
0 43 -1 0
0 44 0 1
8000
end_operator
begin_operator
uc1-invertfromime-letter sheet4 back front
1
31 0
3
0 3 11 2
0 45 0 1
0 46 -1 0
8000
end_operator
begin_operator
uc1-invertfromime-letter sheet4 front back
1
31 0
3
0 3 11 2
0 45 -1 0
0 46 0 1
8000
end_operator
begin_operator
uc1-invertfromime-letter sheet5 back front
1
31 0
3
0 4 10 2
0 47 0 1
0 48 -1 0
8000
end_operator
begin_operator
uc1-invertfromime-letter sheet5 front back
1
31 0
3
0 4 10 2
0 47 -1 0
0 48 0 1
8000
end_operator
begin_operator
uc1-inverttoime-letter sheet1 back front
1
31 0
3
0 0 9 10
0 39 0 1
0 40 -1 0
8000
end_operator
begin_operator
uc1-inverttoime-letter sheet1 front back
1
31 0
3
0 0 9 10
0 39 -1 0
0 40 0 1
8000
end_operator
begin_operator
uc1-inverttoime-letter sheet2 back front
1
31 0
3
0 1 9 10
0 41 0 1
0 42 -1 0
8000
end_operator
begin_operator
uc1-inverttoime-letter sheet2 front back
1
31 0
3
0 1 9 10
0 41 -1 0
0 42 0 1
8000
end_operator
begin_operator
uc1-inverttoime-letter sheet3 back front
1
31 0
3
0 2 9 10
0 43 0 1
0 44 -1 0
8000
end_operator
begin_operator
uc1-inverttoime-letter sheet3 front back
1
31 0
3
0 2 9 10
0 43 -1 0
0 44 0 1
8000
end_operator
begin_operator
uc1-inverttoime-letter sheet4 back front
1
31 0
3
0 3 9 10
0 45 0 1
0 46 -1 0
8000
end_operator
begin_operator
uc1-inverttoime-letter sheet4 front back
1
31 0
3
0 3 9 10
0 45 -1 0
0 46 0 1
8000
end_operator
begin_operator
uc1-inverttoime-letter sheet5 back front
1
31 0
3
0 4 8 9
0 47 0 1
0 48 -1 0
8000
end_operator
begin_operator
uc1-inverttoime-letter sheet5 front back
1
31 0
3
0 4 8 9
0 47 -1 0
0 48 0 1
8000
end_operator
begin_operator
uc1-toime-letter sheet1
1
31 0
1
0 0 9 10
2999
end_operator
begin_operator
uc1-toime-letter sheet2
1
31 0
1
0 1 9 10
2999
end_operator
begin_operator
uc1-toime-letter sheet3
1
31 0
1
0 2 9 10
2999
end_operator
begin_operator
uc1-toime-letter sheet4
1
31 0
1
0 3 9 10
2999
end_operator
begin_operator
uc1-toime-letter sheet5
1
31 0
1
0 4 8 9
2999
end_operator
begin_operator
uime-simplex-letter sheet1 back image-1
2
32 0
39 0
2
0 0 10 11
0 5 0 1
127790
end_operator
begin_operator
uime-simplex-letter sheet1 back image-3
2
32 0
39 0
2
0 0 10 11
0 5 0 1
127790
end_operator
begin_operator
uime-simplex-letter sheet1 front image-1
2
32 0
40 0
3
0 0 10 11
0 7 0 1
0 33 -1 0
127790
end_operator
begin_operator
uime-simplex-letter sheet1 front image-3
2
32 0
40 0
2
0 0 10 11
0 7 0 1
127790
end_operator
begin_operator
uime-simplex-letter sheet2 back image-1
2
32 0
41 0
2
0 1 10 11
0 9 0 1
127790
end_operator
begin_operator
uime-simplex-letter sheet2 back image-3
2
32 0
41 0
2
0 1 10 11
0 9 0 1
127790
end_operator
begin_operator
uime-simplex-letter sheet2 front image-1
2
32 0
42 0
2
0 1 10 11
0 11 0 1
127790
end_operator
begin_operator
uime-simplex-letter sheet2 front image-3
2
32 0
42 0
2
0 1 10 11
0 11 0 1
127790
end_operator
begin_operator
uime-simplex-letter sheet3 back image-1
2
32 0
43 0
2
0 2 10 11
0 13 0 1
127790
end_operator
begin_operator
uime-simplex-letter sheet3 back image-3
2
32 0
43 0
2
0 2 10 11
0 13 0 1
127790
end_operator
begin_operator
uime-simplex-letter sheet3 front image-1
2
32 0
44 0
2
0 2 10 11
0 15 0 1
127790
end_operator
begin_operator
uime-simplex-letter sheet3 front image-3
2
32 0
44 0
3
0 2 10 11
0 15 0 1
0 36 -1 0
127790
end_operator
begin_operator
uime-simplex-letter sheet4 back image-1
2
32 0
45 0
2
0 3 10 11
0 17 0 1
127790
end_operator
begin_operator
uime-simplex-letter sheet4 back image-3
2
32 0
45 0
2
0 3 10 11
0 17 0 1
127790
end_operator
begin_operator
uime-simplex-letter sheet4 front image-1
2
32 0
46 0
2
0 3 10 11
0 19 0 1
127790
end_operator
begin_operator
uime-simplex-letter sheet4 front image-3
2
32 0
46 0
2
0 3 10 11
0 19 0 1
127790
end_operator
begin_operator
uime-simplex-letter sheet5 back image-1
2
32 0
47 0
2
0 4 9 10
0 21 0 1
127790
end_operator
begin_operator
uime-simplex-letter sheet5 back image-3
2
32 0
47 0
2
0 4 9 10
0 21 0 1
127790
end_operator
begin_operator
uime-simplex-letter sheet5 front image-1
2
32 0
48 0
2
0 4 9 10
0 23 0 1
127790
end_operator
begin_operator
uime-simplex-letter sheet5 front image-3
2
32 0
48 0
2
0 4 9 10
0 23 0 1
127790
end_operator
0
