Collapsing type 1:plane with 20 objects
Reduced 39 -> 20
Domain: maintenance-scheduling-domain
Problem: maintenance-scheduling-1-3-15-20-2-2
Require: ff
Type[4]:
    [0]: object, parent: -1
    [1]: plane, parent: 0
    [2]: day, parent: 0
    [3]: airport, parent: 0
Obj-by-Type:
    [0]: 0 1 2 3 4 5 6 7 8 9 10 11 12 13 14 15 16 17 18 19
    [1]: 19
    [2]: 0 1 2 3 4 5 6 7 8 9 10 11 12 13 14 15
    [3]: 16 17 18
Obj[20]:
    [0]: d1, type: 2, is-constant: 0, is-private: 0, owner: -1, is-agent: 0
    [1]: d2, type: 2, is-constant: 0, is-private: 0, owner: -1, is-agent: 0
    [2]: d3, type: 2, is-constant: 0, is-private: 0, owner: -1, is-agent: 0
    [3]: d4, type: 2, is-constant: 0, is-private: 0, owner: -1, is-agent: 0
    [4]: d5, type: 2, is-constant: 0, is-private: 0, owner: -1, is-agent: 0
    [5]: d6, type: 2, is-constant: 0, is-private: 0, owner: -1, is-agent: 0
    [6]: d7, type: 2, is-constant: 0, is-private: 0, owner: -1, is-agent: 0
    [7]: d8, type: 2, is-constant: 0, is-private: 0, owner: -1, is-agent: 0
    [8]: d9, type: 2, is-constant: 0, is-private: 0, owner: -1, is-agent: 0
    [9]: d10, type: 2, is-constant: 0, is-private: 0, owner: -1, is-agent: 0
    [10]: d11, type: 2, is-constant: 0, is-private: 0, owner: -1, is-agent: 0
    [11]: d12, type: 2, is-constant: 0, is-private: 0, owner: -1, is-agent: 0
    [12]: d13, type: 2, is-constant: 0, is-private: 0, owner: -1, is-agent: 0
    [13]: d14, type: 2, is-constant: 0, is-private: 0, owner: -1, is-agent: 0
    [14]: d15, type: 2, is-constant: 0, is-private: 0, owner: -1, is-agent: 0
    [15]: d16, type: 2, is-constant: 0, is-private: 0, owner: -1, is-agent: 0
    [16]: fra, type: 3, is-constant: 0, is-private: 0, owner: -1, is-agent: 0
    [17]: ber, type: 3, is-constant: 0, is-private: 0, owner: -1, is-agent: 0
    [18]: ham, type: 3, is-constant: 0, is-private: 0, owner: -1, is-agent: 0
    [19]: ap1, type: 1, is-constant: 0, is-private: 0, owner: -1, is-agent: 0
Predicate[5]:
    =: 0 0 :: is-private: 0, owner-param: -1, read: 0, write: 0
    done: 1 :: is-private: 0, owner-param: -1, read: 0, write: 1
    today: 2 :: is-private: 0, owner-param: -1, read: 1, write: 1
    at: 1 2 3 :: is-private: 0, owner-param: -1, read: 1, write: 0
    next: 2 2 :: is-private: 0, owner-param: -1, read: 0, write: 0
Function[0]:
Action[1]:
    workat: ?day:2 ?airport:3
        pre: (and (RW:today ?day))
        eff: (and (N:RW:today ?day) (when (R:at ap1 ?day ?airport) (W:done ap1)) (when (R:at ap1 ?day ?airport) (W:done ap1)) (when (R:at ap1 ?day ?airport) (W:done ap1)) (when (R:at ap1 ?day ?airport) (W:done ap1)) (when (R:at ap1 ?day ?airport) (W:done ap1)) (when (R:at ap1 ?day ?airport) (W:done ap1)) (when (R:at ap1 ?day ?airport) (W:done ap1)) (when (R:at ap1 ?day ?airport) (W:done ap1)) (when (R:at ap1 ?day ?airport) (W:done ap1)) (when (R:at ap1 ?day ?airport) (W:done ap1)) (when (R:at ap1 ?day ?airport) (W:done ap1)) (when (R:at ap1 ?day ?airport) (W:done ap1)) (when (R:at ap1 ?day ?airport) (W:done ap1)) (when (R:at ap1 ?day ?airport) (W:done ap1)) (when (R:at ap1 ?day ?airport) (W:done ap1)) (when (R:at ap1 ?day ?airport) (W:done ap1)) (when (R:at ap1 ?day ?airport) (W:done ap1)) (when (R:at ap1 ?day ?airport) (W:done ap1)) (when (R:at ap1 ?day ?airport) (W:done ap1)) (when (R:at ap1 ?day ?airport) (W:done ap1)))
Init[54]:
  (today d1)
  (today d2)
  (today d3)
  (today d4)
  (today d5)
  (today d6)
  (today d7)
  (today d8)
  (today d9)
  (today d10)
  (today d11)
  (today d12)
  (today d13)
  (today d14)
  (today d15)
  S:(at ap1 d15 ber)
  S:(at ap1 d15 ham)
  S:(at ap1 d14 ber)
  S:(at ap1 d2 ham)
  S:(at ap1 d10 ber)
  S:(at ap1 d15 ber)
  S:(at ap1 d4 fra)
  S:(at ap1 d3 ham)
  S:(at ap1 d3 ber)
  S:(at ap1 d10 ber)
  S:(at ap1 d3 ber)
  S:(at ap1 d8 ham)
  S:(at ap1 d10 ber)
  S:(at ap1 d6 ham)
  S:(at ap1 d9 ber)
  S:(at ap1 d15 ber)
  S:(at ap1 d1 ber)
  S:(at ap1 d9 ham)
  S:(at ap1 d4 fra)
  S:(at ap1 d12 ber)
  S:(at ap1 d14 ber)
  S:(at ap1 d12 ber)
  S:(at ap1 d9 ham)
  S:(at ap1 d4 fra)
  S:(at ap1 d5 ber)
  S:(at ap1 d3 fra)
  S:(at ap1 d10 fra)
  S:(at ap1 d15 fra)
  S:(at ap1 d1 ham)
  S:(at ap1 d6 ham)
  S:(at ap1 d8 ham)
  S:(at ap1 d5 fra)
  S:(at ap1 d6 ham)
  S:(at ap1 d15 ber)
  S:(at ap1 d10 ham)
  S:(at ap1 d8 fra)
  S:(at ap1 d13 ham)
  S:(at ap1 d1 ber)
  S:(at ap1 d9 ham)
Init[0]:
Goal: (and (W:done ap1) (W:done ap1) (W:done ap1) (W:done ap1) (W:done ap1) (W:done ap1) (W:done ap1) (W:done ap1) (W:done ap1) (W:done ap1) (W:done ap1) (W:done ap1) (W:done ap1) (W:done ap1) (W:done ap1) (W:done ap1) (W:done ap1) (W:done ap1) (W:done ap1) (W:done ap1))
Metric: 0
