Monotonicity invariants:
< {lift-at V0:elevator C1:count}
, {passengers V0:elevator C1:count}
, {passenger-at V0:passenger C1:count, boarded V0:passenger C2:elevator}
>
FD Mutex Groups:
< {lift-at V0:elevator C1:count}:=1
, {passengers V0:elevator C1:count}:=1
, {passenger-at V0:passenger C1:count, boarded V0:passenger C2:elevator}:=1
>
FD Goal aware:
< {passenger-at p0 C0:count, boarded p0 C1:elevator}:=1
, {passenger-at p1 C0:count, boarded p1 C1:elevator}:=1
, {passenger-at p2 C0:count, boarded p2 C1:elevator}:=1
, {passenger-at p3 C0:count, boarded p3 C1:elevator}:=1
, {passenger-at p4 C0:count, boarded p4 C1:elevator}:=1
, {passenger-at p5 C0:count, boarded p5 C1:elevator}:=1
, {passenger-at p6 C0:count, boarded p6 C1:elevator}:=1
, {passenger-at p7 C0:count, boarded p7 C1:elevator}:=1
, {passenger-at p8 C0:count, boarded p8 C1:elevator}:=1
, {passenger-at p9 C0:count, boarded p9 C1:elevator}:=1
, {passenger-at p10 C0:count, boarded p10 C1:elevator}:=1
, {passenger-at p11 C0:count, boarded p11 C1:elevator}:=1
, {passenger-at p12 C0:count, boarded p12 C1:elevator}:=1
>
