 (capacity truck-1 capacity-0) (capacity truck-1 capacity-1) (capacity truck-1 capacity-2) (capacity truck-1 capacity-3) (capacity truck-1 capacity-4):=1
 (capacity truck-2 capacity-0) (capacity truck-2 capacity-1) (capacity truck-2 capacity-2) (capacity truck-2 capacity-3) (capacity truck-2 capacity-4):=1
 (at truck-1 city-1-loc-1) (at truck-1 city-1-loc-2) (at truck-1 city-1-loc-3) (at truck-1 city-2-loc-1) (at truck-1 city-2-loc-2) (at truck-1 city-2-loc-3) (at truck-1 city-3-loc-1) (at truck-1 city-3-loc-2) (at truck-1 city-3-loc-3):=1
 (at truck-2 city-1-loc-1) (at truck-2 city-1-loc-2) (at truck-2 city-1-loc-3) (at truck-2 city-2-loc-1) (at truck-2 city-2-loc-2) (at truck-2 city-2-loc-3) (at truck-2 city-3-loc-1) (at truck-2 city-3-loc-2) (at truck-2 city-3-loc-3):=1
 (at package-1 city-1-loc-1) (at package-1 city-1-loc-2) (at package-1 city-1-loc-3) (at package-1 city-2-loc-1) (at package-1 city-2-loc-2) (at package-1 city-2-loc-3) (at package-1 city-3-loc-1) (at package-1 city-3-loc-2) (at package-1 city-3-loc-3) (in package-1 truck-1) (in package-1 truck-2):=1:G
 (at package-2 city-1-loc-1) (at package-2 city-1-loc-2) (at package-2 city-1-loc-3) (at package-2 city-2-loc-1) (at package-2 city-2-loc-2) (at package-2 city-2-loc-3) (at package-2 city-3-loc-1) (at package-2 city-3-loc-2) (at package-2 city-3-loc-3) (in package-2 truck-1) (in package-2 truck-2):=1:G
 (at package-3 city-1-loc-1) (at package-3 city-1-loc-2) (at package-3 city-1-loc-3) (at package-3 city-2-loc-1) (at package-3 city-2-loc-2) (at package-3 city-2-loc-3) (at package-3 city-3-loc-1) (at package-3 city-3-loc-2) (at package-3 city-3-loc-3) (in package-3 truck-1) (in package-3 truck-2):=1:G
 (at package-4 city-1-loc-1) (at package-4 city-1-loc-2) (at package-4 city-1-loc-3) (at package-4 city-2-loc-1) (at package-4 city-2-loc-2) (at package-4 city-2-loc-3) (at package-4 city-3-loc-1) (at package-4 city-3-loc-2) (at package-4 city-3-loc-3) (in package-4 truck-1) (in package-4 truck-2):=1:G

