begin_version
3
end_version
begin_metric
1
end_metric
39
begin_variable
var0
-1
35
robot-at robot1 tile_0-1
robot-at robot1 tile_0-2
robot-at robot1 tile_0-3
robot-at robot1 tile_0-4
robot-at robot1 tile_0-5
robot-at robot1 tile_1-1
robot-at robot1 tile_1-2
robot-at robot1 tile_1-3
robot-at robot1 tile_1-4
robot-at robot1 tile_1-5
robot-at robot1 tile_2-1
robot-at robot1 tile_2-2
robot-at robot1 tile_2-3
robot-at robot1 tile_2-4
robot-at robot1 tile_2-5
robot-at robot1 tile_3-1
robot-at robot1 tile_3-2
robot-at robot1 tile_3-3
robot-at robot1 tile_3-4
robot-at robot1 tile_3-5
robot-at robot1 tile_4-1
robot-at robot1 tile_4-2
robot-at robot1 tile_4-3
robot-at robot1 tile_4-4
robot-at robot1 tile_4-5
robot-at robot1 tile_5-1
robot-at robot1 tile_5-2
robot-at robot1 tile_5-3
robot-at robot1 tile_5-4
robot-at robot1 tile_5-5
robot-at robot1 tile_6-1
robot-at robot1 tile_6-2
robot-at robot1 tile_6-3
robot-at robot1 tile_6-4
robot-at robot1 tile_6-5
end_variable
begin_variable
var1
-1
35
robot-at robot2 tile_0-1
robot-at robot2 tile_0-2
robot-at robot2 tile_0-3
robot-at robot2 tile_0-4
robot-at robot2 tile_0-5
robot-at robot2 tile_1-1
robot-at robot2 tile_1-2
robot-at robot2 tile_1-3
robot-at robot2 tile_1-4
robot-at robot2 tile_1-5
robot-at robot2 tile_2-1
robot-at robot2 tile_2-2
robot-at robot2 tile_2-3
robot-at robot2 tile_2-4
robot-at robot2 tile_2-5
robot-at robot2 tile_3-1
robot-at robot2 tile_3-2
robot-at robot2 tile_3-3
robot-at robot2 tile_3-4
robot-at robot2 tile_3-5
robot-at robot2 tile_4-1
robot-at robot2 tile_4-2
robot-at robot2 tile_4-3
robot-at robot2 tile_4-4
robot-at robot2 tile_4-5
robot-at robot2 tile_5-1
robot-at robot2 tile_5-2
robot-at robot2 tile_5-3
robot-at robot2 tile_5-4
robot-at robot2 tile_5-5
robot-at robot2 tile_6-1
robot-at robot2 tile_6-2
robot-at robot2 tile_6-3
robot-at robot2 tile_6-4
robot-at robot2 tile_6-5
end_variable
begin_variable
var2
-1
3
clear tile_1-1
painted tile_1-1 white
none-of-those
end_variable
begin_variable
var3
-1
3
clear tile_1-2
painted tile_1-2 black
none-of-those
end_variable
begin_variable
var4
-1
3
clear tile_1-3
painted tile_1-3 white
none-of-those
end_variable
begin_variable
var5
-1
3
clear tile_1-4
painted tile_1-4 black
none-of-those
end_variable
begin_variable
var6
-1
3
clear tile_1-5
painted tile_1-5 white
none-of-those
end_variable
begin_variable
var7
-1
3
clear tile_2-1
painted tile_2-1 black
none-of-those
end_variable
begin_variable
var8
-1
3
clear tile_2-2
painted tile_2-2 white
none-of-those
end_variable
begin_variable
var9
-1
3
clear tile_2-3
painted tile_2-3 black
none-of-those
end_variable
begin_variable
var10
-1
3
clear tile_2-4
painted tile_2-4 white
none-of-those
end_variable
begin_variable
var11
-1
3
clear tile_2-5
painted tile_2-5 black
none-of-those
end_variable
begin_variable
var12
-1
3
clear tile_3-1
painted tile_3-1 white
none-of-those
end_variable
begin_variable
var13
-1
3
clear tile_3-2
painted tile_3-2 black
none-of-those
end_variable
begin_variable
var14
-1
3
clear tile_3-3
painted tile_3-3 white
none-of-those
end_variable
begin_variable
var15
-1
3
clear tile_3-4
painted tile_3-4 black
none-of-those
end_variable
begin_variable
var16
-1
3
clear tile_3-5
painted tile_3-5 white
none-of-those
end_variable
begin_variable
var17
-1
3
clear tile_4-1
painted tile_4-1 black
none-of-those
end_variable
begin_variable
var18
-1
3
clear tile_4-2
painted tile_4-2 white
none-of-those
end_variable
begin_variable
var19
-1
3
clear tile_4-3
painted tile_4-3 black
none-of-those
end_variable
begin_variable
var20
-1
3
clear tile_4-4
painted tile_4-4 white
none-of-those
end_variable
begin_variable
var21
-1
3
clear tile_4-5
painted tile_4-5 black
none-of-those
end_variable
begin_variable
var22
-1
3
clear tile_5-1
painted tile_5-1 white
none-of-those
end_variable
begin_variable
var23
-1
3
clear tile_5-2
painted tile_5-2 black
none-of-those
end_variable
begin_variable
var24
-1
3
clear tile_5-3
painted tile_5-3 white
none-of-those
end_variable
begin_variable
var25
-1
3
clear tile_5-4
painted tile_5-4 black
none-of-those
end_variable
begin_variable
var26
-1
3
clear tile_5-5
painted tile_5-5 white
none-of-those
end_variable
begin_variable
var27
-1
3
clear tile_6-1
painted tile_6-1 black
none-of-those
end_variable
begin_variable
var28
-1
3
clear tile_6-2
painted tile_6-2 white
none-of-those
end_variable
begin_variable
var29
-1
3
clear tile_6-3
painted tile_6-3 black
none-of-those
end_variable
begin_variable
var30
-1
3
clear tile_6-4
painted tile_6-4 white
none-of-those
end_variable
begin_variable
var31
-1
3
clear tile_6-5
painted tile_6-5 black
none-of-those
end_variable
begin_variable
var32
-1
2
robot-has robot1 black
robot-has robot1 white
end_variable
begin_variable
var33
-1
2
robot-has robot2 black
robot-has robot2 white
end_variable
begin_variable
var34
-1
2
clear tile_0-1
none-of-those
end_variable
begin_variable
var35
-1
2
clear tile_0-2
none-of-those
end_variable
begin_variable
var36
-1
2
clear tile_0-3
none-of-those
end_variable
begin_variable
var37
-1
2
clear tile_0-4
none-of-those
end_variable
begin_variable
var38
-1
2
clear tile_0-5
none-of-those
end_variable
69
begin_mutex_group
2
32 0
32 1
end_mutex_group
begin_mutex_group
2
33 0
33 1
end_mutex_group
begin_mutex_group
3
34 0
0 0
1 0
end_mutex_group
begin_mutex_group
3
35 0
0 1
1 1
end_mutex_group
begin_mutex_group
3
36 0
0 2
1 2
end_mutex_group
begin_mutex_group
3
37 0
0 3
1 3
end_mutex_group
begin_mutex_group
3
38 0
0 4
1 4
end_mutex_group
begin_mutex_group
3
2 0
0 5
1 5
end_mutex_group
begin_mutex_group
3
3 0
0 6
1 6
end_mutex_group
begin_mutex_group
3
4 0
0 7
1 7
end_mutex_group
begin_mutex_group
3
5 0
0 8
1 8
end_mutex_group
begin_mutex_group
3
6 0
0 9
1 9
end_mutex_group
begin_mutex_group
3
7 0
0 10
1 10
end_mutex_group
begin_mutex_group
3
8 0
0 11
1 11
end_mutex_group
begin_mutex_group
3
9 0
0 12
1 12
end_mutex_group
begin_mutex_group
3
10 0
0 13
1 13
end_mutex_group
begin_mutex_group
3
11 0
0 14
1 14
end_mutex_group
begin_mutex_group
3
12 0
0 15
1 15
end_mutex_group
begin_mutex_group
3
13 0
0 16
1 16
end_mutex_group
begin_mutex_group
3
14 0
0 17
1 17
end_mutex_group
begin_mutex_group
3
15 0
0 18
1 18
end_mutex_group
begin_mutex_group
3
16 0
0 19
1 19
end_mutex_group
begin_mutex_group
3
17 0
0 20
1 20
end_mutex_group
begin_mutex_group
3
18 0
0 21
1 21
end_mutex_group
begin_mutex_group
3
19 0
0 22
1 22
end_mutex_group
begin_mutex_group
3
20 0
0 23
1 23
end_mutex_group
begin_mutex_group
3
21 0
0 24
1 24
end_mutex_group
begin_mutex_group
3
22 0
0 25
1 25
end_mutex_group
begin_mutex_group
3
23 0
0 26
1 26
end_mutex_group
begin_mutex_group
3
24 0
0 27
1 27
end_mutex_group
begin_mutex_group
3
25 0
0 28
1 28
end_mutex_group
begin_mutex_group
3
26 0
0 29
1 29
end_mutex_group
begin_mutex_group
3
27 0
0 30
1 30
end_mutex_group
begin_mutex_group
3
28 0
0 31
1 31
end_mutex_group
begin_mutex_group
3
29 0
0 32
1 32
end_mutex_group
begin_mutex_group
3
30 0
0 33
1 33
end_mutex_group
begin_mutex_group
3
31 0
0 34
1 34
end_mutex_group
begin_mutex_group
4
2 0
2 1
0 5
1 5
end_mutex_group
begin_mutex_group
4
3 0
3 1
0 6
1 6
end_mutex_group
begin_mutex_group
4
4 0
4 1
0 7
1 7
end_mutex_group
begin_mutex_group
4
5 0
5 1
0 8
1 8
end_mutex_group
begin_mutex_group
4
6 0
6 1
0 9
1 9
end_mutex_group
begin_mutex_group
4
7 0
7 1
0 10
1 10
end_mutex_group
begin_mutex_group
4
8 0
8 1
0 11
1 11
end_mutex_group
begin_mutex_group
4
9 0
9 1
0 12
1 12
end_mutex_group
begin_mutex_group
4
10 0
10 1
0 13
1 13
end_mutex_group
begin_mutex_group
4
11 0
11 1
0 14
1 14
end_mutex_group
begin_mutex_group
4
12 0
12 1
0 15
1 15
end_mutex_group
begin_mutex_group
4
13 0
13 1
0 16
1 16
end_mutex_group
begin_mutex_group
4
14 0
14 1
0 17
1 17
end_mutex_group
begin_mutex_group
4
15 0
15 1
0 18
1 18
end_mutex_group
begin_mutex_group
4
16 0
16 1
0 19
1 19
end_mutex_group
begin_mutex_group
4
17 0
17 1
0 20
1 20
end_mutex_group
begin_mutex_group
4
18 0
18 1
0 21
1 21
end_mutex_group
begin_mutex_group
4
19 0
19 1
0 22
1 22
end_mutex_group
begin_mutex_group
4
20 0
20 1
0 23
1 23
end_mutex_group
begin_mutex_group
4
21 0
21 1
0 24
1 24
end_mutex_group
begin_mutex_group
4
22 0
22 1
0 25
1 25
end_mutex_group
begin_mutex_group
4
23 0
23 1
0 26
1 26
end_mutex_group
begin_mutex_group
4
24 0
24 1
0 27
1 27
end_mutex_group
begin_mutex_group
4
25 0
25 1
0 28
1 28
end_mutex_group
begin_mutex_group
4
26 0
26 1
0 29
1 29
end_mutex_group
begin_mutex_group
4
27 0
27 1
0 30
1 30
end_mutex_group
begin_mutex_group
4
28 0
28 1
0 31
1 31
end_mutex_group
begin_mutex_group
4
29 0
29 1
0 32
1 32
end_mutex_group
begin_mutex_group
4
30 0
30 1
0 33
1 33
end_mutex_group
begin_mutex_group
4
31 0
31 1
0 34
1 34
end_mutex_group
begin_mutex_group
35
0 0
0 1
0 2
0 3
0 4
0 5
0 6
0 7
0 8
0 9
0 10
0 11
0 12
0 13
0 14
0 15
0 16
0 17
0 18
0 19
0 20
0 21
0 22
0 23
0 24
0 25
0 26
0 27
0 28
0 29
0 30
0 31
0 32
0 33
0 34
end_mutex_group
begin_mutex_group
35
1 0
1 1
1 2
1 3
1 4
1 5
1 6
1 7
1 8
1 9
1 10
1 11
1 12
1 13
1 14
1 15
1 16
1 17
1 18
1 19
1 20
1 21
1 22
1 23
1 24
1 25
1 26
1 27
1 28
1 29
1 30
1 31
1 32
1 33
1 34
end_mutex_group
begin_state
23
12
0
0
0
0
0
0
0
2
0
0
0
0
0
0
0
0
0
0
2
0
0
0
0
0
0
0
0
0
0
0
1
0
0
0
0
0
0
end_state
begin_goal
30
2 1
3 1
4 1
5 1
6 1
7 1
8 1
9 1
10 1
11 1
12 1
13 1
14 1
15 1
16 1
17 1
18 1
19 1
20 1
21 1
22 1
23 1
24 1
25 1
26 1
27 1
28 1
29 1
30 1
31 1
end_goal
426
begin_operator
change-color robot1 black white
0
1
0 32 0 1
5
end_operator
begin_operator
change-color robot1 white black
0
1
0 32 1 0
5
end_operator
begin_operator
change-color robot2 black white
0
1
0 33 0 1
5
end_operator
begin_operator
change-color robot2 white black
0
1
0 33 1 0
5
end_operator
begin_operator
down robot1 tile_1-1 tile_0-1
0
3
0 0 5 0
0 2 -1 0
0 34 0 1
1
end_operator
begin_operator
down robot1 tile_1-2 tile_0-2
0
3
0 0 6 1
0 3 -1 0
0 35 0 1
1
end_operator
begin_operator
down robot1 tile_1-3 tile_0-3
0
3
0 0 7 2
0 4 -1 0
0 36 0 1
1
end_operator
begin_operator
down robot1 tile_1-4 tile_0-4
0
3
0 0 8 3
0 5 -1 0
0 37 0 1
1
end_operator
begin_operator
down robot1 tile_1-5 tile_0-5
0
3
0 0 9 4
0 6 -1 0
0 38 0 1
1
end_operator
begin_operator
down robot1 tile_2-1 tile_1-1
0
3
0 0 10 5
0 2 0 2
0 7 -1 0
1
end_operator
begin_operator
down robot1 tile_2-2 tile_1-2
0
3
0 0 11 6
0 3 0 2
0 8 -1 0
1
end_operator
begin_operator
down robot1 tile_2-3 tile_1-3
0
3
0 0 12 7
0 4 0 2
0 9 -1 0
1
end_operator
begin_operator
down robot1 tile_2-4 tile_1-4
0
3
0 0 13 8
0 5 0 2
0 10 -1 0
1
end_operator
begin_operator
down robot1 tile_2-5 tile_1-5
0
3
0 0 14 9
0 6 0 2
0 11 -1 0
1
end_operator
begin_operator
down robot1 tile_3-1 tile_2-1
0
3
0 0 15 10
0 7 0 2
0 12 -1 0
1
end_operator
begin_operator
down robot1 tile_3-2 tile_2-2
0
3
0 0 16 11
0 8 0 2
0 13 -1 0
1
end_operator
begin_operator
down robot1 tile_3-3 tile_2-3
0
3
0 0 17 12
0 9 0 2
0 14 -1 0
1
end_operator
begin_operator
down robot1 tile_3-4 tile_2-4
0
3
0 0 18 13
0 10 0 2
0 15 -1 0
1
end_operator
begin_operator
down robot1 tile_3-5 tile_2-5
0
3
0 0 19 14
0 11 0 2
0 16 -1 0
1
end_operator
begin_operator
down robot1 tile_4-1 tile_3-1
0
3
0 0 20 15
0 12 0 2
0 17 -1 0
1
end_operator
begin_operator
down robot1 tile_4-2 tile_3-2
0
3
0 0 21 16
0 13 0 2
0 18 -1 0
1
end_operator
begin_operator
down robot1 tile_4-3 tile_3-3
0
3
0 0 22 17
0 14 0 2
0 19 -1 0
1
end_operator
begin_operator
down robot1 tile_4-4 tile_3-4
0
3
0 0 23 18
0 15 0 2
0 20 -1 0
1
end_operator
begin_operator
down robot1 tile_4-5 tile_3-5
0
3
0 0 24 19
0 16 0 2
0 21 -1 0
1
end_operator
begin_operator
down robot1 tile_5-1 tile_4-1
0
3
0 0 25 20
0 17 0 2
0 22 -1 0
1
end_operator
begin_operator
down robot1 tile_5-2 tile_4-2
0
3
0 0 26 21
0 18 0 2
0 23 -1 0
1
end_operator
begin_operator
down robot1 tile_5-3 tile_4-3
0
3
0 0 27 22
0 19 0 2
0 24 -1 0
1
end_operator
begin_operator
down robot1 tile_5-4 tile_4-4
0
3
0 0 28 23
0 20 0 2
0 25 -1 0
1
end_operator
begin_operator
down robot1 tile_5-5 tile_4-5
0
3
0 0 29 24
0 21 0 2
0 26 -1 0
1
end_operator
begin_operator
down robot1 tile_6-1 tile_5-1
0
3
0 0 30 25
0 22 0 2
0 27 -1 0
1
end_operator
begin_operator
down robot1 tile_6-2 tile_5-2
0
3
0 0 31 26
0 23 0 2
0 28 -1 0
1
end_operator
begin_operator
down robot1 tile_6-3 tile_5-3
0
3
0 0 32 27
0 24 0 2
0 29 -1 0
1
end_operator
begin_operator
down robot1 tile_6-4 tile_5-4
0
3
0 0 33 28
0 25 0 2
0 30 -1 0
1
end_operator
begin_operator
down robot1 tile_6-5 tile_5-5
0
3
0 0 34 29
0 26 0 2
0 31 -1 0
1
end_operator
begin_operator
down robot2 tile_1-1 tile_0-1
0
3
0 1 5 0
0 2 -1 0
0 34 0 1
1
end_operator
begin_operator
down robot2 tile_1-2 tile_0-2
0
3
0 1 6 1
0 3 -1 0
0 35 0 1
1
end_operator
begin_operator
down robot2 tile_1-3 tile_0-3
0
3
0 1 7 2
0 4 -1 0
0 36 0 1
1
end_operator
begin_operator
down robot2 tile_1-4 tile_0-4
0
3
0 1 8 3
0 5 -1 0
0 37 0 1
1
end_operator
begin_operator
down robot2 tile_1-5 tile_0-5
0
3
0 1 9 4
0 6 -1 0
0 38 0 1
1
end_operator
begin_operator
down robot2 tile_2-1 tile_1-1
0
3
0 1 10 5
0 2 0 2
0 7 -1 0
1
end_operator
begin_operator
down robot2 tile_2-2 tile_1-2
0
3
0 1 11 6
0 3 0 2
0 8 -1 0
1
end_operator
begin_operator
down robot2 tile_2-3 tile_1-3
0
3
0 1 12 7
0 4 0 2
0 9 -1 0
1
end_operator
begin_operator
down robot2 tile_2-4 tile_1-4
0
3
0 1 13 8
0 5 0 2
0 10 -1 0
1
end_operator
begin_operator
down robot2 tile_2-5 tile_1-5
0
3
0 1 14 9
0 6 0 2
0 11 -1 0
1
end_operator
begin_operator
down robot2 tile_3-1 tile_2-1
0
3
0 1 15 10
0 7 0 2
0 12 -1 0
1
end_operator
begin_operator
down robot2 tile_3-2 tile_2-2
0
3
0 1 16 11
0 8 0 2
0 13 -1 0
1
end_operator
begin_operator
down robot2 tile_3-3 tile_2-3
0
3
0 1 17 12
0 9 0 2
0 14 -1 0
1
end_operator
begin_operator
down robot2 tile_3-4 tile_2-4
0
3
0 1 18 13
0 10 0 2
0 15 -1 0
1
end_operator
begin_operator
down robot2 tile_3-5 tile_2-5
0
3
0 1 19 14
0 11 0 2
0 16 -1 0
1
end_operator
begin_operator
down robot2 tile_4-1 tile_3-1
0
3
0 1 20 15
0 12 0 2
0 17 -1 0
1
end_operator
begin_operator
down robot2 tile_4-2 tile_3-2
0
3
0 1 21 16
0 13 0 2
0 18 -1 0
1
end_operator
begin_operator
down robot2 tile_4-3 tile_3-3
0
3
0 1 22 17
0 14 0 2
0 19 -1 0
1
end_operator
begin_operator
down robot2 tile_4-4 tile_3-4
0
3
0 1 23 18
0 15 0 2
0 20 -1 0
1
end_operator
begin_operator
down robot2 tile_4-5 tile_3-5
0
3
0 1 24 19
0 16 0 2
0 21 -1 0
1
end_operator
begin_operator
down robot2 tile_5-1 tile_4-1
0
3
0 1 25 20
0 17 0 2
0 22 -1 0
1
end_operator
begin_operator
down robot2 tile_5-2 tile_4-2
0
3
0 1 26 21
0 18 0 2
0 23 -1 0
1
end_operator
begin_operator
down robot2 tile_5-3 tile_4-3
0
3
0 1 27 22
0 19 0 2
0 24 -1 0
1
end_operator
begin_operator
down robot2 tile_5-4 tile_4-4
0
3
0 1 28 23
0 20 0 2
0 25 -1 0
1
end_operator
begin_operator
down robot2 tile_5-5 tile_4-5
0
3
0 1 29 24
0 21 0 2
0 26 -1 0
1
end_operator
begin_operator
down robot2 tile_6-1 tile_5-1
0
3
0 1 30 25
0 22 0 2
0 27 -1 0
1
end_operator
begin_operator
down robot2 tile_6-2 tile_5-2
0
3
0 1 31 26
0 23 0 2
0 28 -1 0
1
end_operator
begin_operator
down robot2 tile_6-3 tile_5-3
0
3
0 1 32 27
0 24 0 2
0 29 -1 0
1
end_operator
begin_operator
down robot2 tile_6-4 tile_5-4
0
3
0 1 33 28
0 25 0 2
0 30 -1 0
1
end_operator
begin_operator
down robot2 tile_6-5 tile_5-5
0
3
0 1 34 29
0 26 0 2
0 31 -1 0
1
end_operator
begin_operator
left robot1 tile_0-2 tile_0-1
0
3
0 0 1 0
0 34 0 1
0 35 -1 0
1
end_operator
begin_operator
left robot1 tile_0-3 tile_0-2
0
3
0 0 2 1
0 35 0 1
0 36 -1 0
1
end_operator
begin_operator
left robot1 tile_0-4 tile_0-3
0
3
0 0 3 2
0 36 0 1
0 37 -1 0
1
end_operator
begin_operator
left robot1 tile_0-5 tile_0-4
0
3
0 0 4 3
0 37 0 1
0 38 -1 0
1
end_operator
begin_operator
left robot1 tile_1-2 tile_1-1
0
3
0 0 6 5
0 2 0 2
0 3 -1 0
1
end_operator
begin_operator
left robot1 tile_1-3 tile_1-2
0
3
0 0 7 6
0 3 0 2
0 4 -1 0
1
end_operator
begin_operator
left robot1 tile_1-4 tile_1-3
0
3
0 0 8 7
0 4 0 2
0 5 -1 0
1
end_operator
begin_operator
left robot1 tile_1-5 tile_1-4
0
3
0 0 9 8
0 5 0 2
0 6 -1 0
1
end_operator
begin_operator
left robot1 tile_2-2 tile_2-1
0
3
0 0 11 10
0 7 0 2
0 8 -1 0
1
end_operator
begin_operator
left robot1 tile_2-3 tile_2-2
0
3
0 0 12 11
0 8 0 2
0 9 -1 0
1
end_operator
begin_operator
left robot1 tile_2-4 tile_2-3
0
3
0 0 13 12
0 9 0 2
0 10 -1 0
1
end_operator
begin_operator
left robot1 tile_2-5 tile_2-4
0
3
0 0 14 13
0 10 0 2
0 11 -1 0
1
end_operator
begin_operator
left robot1 tile_3-2 tile_3-1
0
3
0 0 16 15
0 12 0 2
0 13 -1 0
1
end_operator
begin_operator
left robot1 tile_3-3 tile_3-2
0
3
0 0 17 16
0 13 0 2
0 14 -1 0
1
end_operator
begin_operator
left robot1 tile_3-4 tile_3-3
0
3
0 0 18 17
0 14 0 2
0 15 -1 0
1
end_operator
begin_operator
left robot1 tile_3-5 tile_3-4
0
3
0 0 19 18
0 15 0 2
0 16 -1 0
1
end_operator
begin_operator
left robot1 tile_4-2 tile_4-1
0
3
0 0 21 20
0 17 0 2
0 18 -1 0
1
end_operator
begin_operator
left robot1 tile_4-3 tile_4-2
0
3
0 0 22 21
0 18 0 2
0 19 -1 0
1
end_operator
begin_operator
left robot1 tile_4-4 tile_4-3
0
3
0 0 23 22
0 19 0 2
0 20 -1 0
1
end_operator
begin_operator
left robot1 tile_4-5 tile_4-4
0
3
0 0 24 23
0 20 0 2
0 21 -1 0
1
end_operator
begin_operator
left robot1 tile_5-2 tile_5-1
0
3
0 0 26 25
0 22 0 2
0 23 -1 0
1
end_operator
begin_operator
left robot1 tile_5-3 tile_5-2
0
3
0 0 27 26
0 23 0 2
0 24 -1 0
1
end_operator
begin_operator
left robot1 tile_5-4 tile_5-3
0
3
0 0 28 27
0 24 0 2
0 25 -1 0
1
end_operator
begin_operator
left robot1 tile_5-5 tile_5-4
0
3
0 0 29 28
0 25 0 2
0 26 -1 0
1
end_operator
begin_operator
left robot1 tile_6-2 tile_6-1
0
3
0 0 31 30
0 27 0 2
0 28 -1 0
1
end_operator
begin_operator
left robot1 tile_6-3 tile_6-2
0
3
0 0 32 31
0 28 0 2
0 29 -1 0
1
end_operator
begin_operator
left robot1 tile_6-4 tile_6-3
0
3
0 0 33 32
0 29 0 2
0 30 -1 0
1
end_operator
begin_operator
left robot1 tile_6-5 tile_6-4
0
3
0 0 34 33
0 30 0 2
0 31 -1 0
1
end_operator
begin_operator
left robot2 tile_0-2 tile_0-1
0
3
0 1 1 0
0 34 0 1
0 35 -1 0
1
end_operator
begin_operator
left robot2 tile_0-3 tile_0-2
0
3
0 1 2 1
0 35 0 1
0 36 -1 0
1
end_operator
begin_operator
left robot2 tile_0-4 tile_0-3
0
3
0 1 3 2
0 36 0 1
0 37 -1 0
1
end_operator
begin_operator
left robot2 tile_0-5 tile_0-4
0
3
0 1 4 3
0 37 0 1
0 38 -1 0
1
end_operator
begin_operator
left robot2 tile_1-2 tile_1-1
0
3
0 1 6 5
0 2 0 2
0 3 -1 0
1
end_operator
begin_operator
left robot2 tile_1-3 tile_1-2
0
3
0 1 7 6
0 3 0 2
0 4 -1 0
1
end_operator
begin_operator
left robot2 tile_1-4 tile_1-3
0
3
0 1 8 7
0 4 0 2
0 5 -1 0
1
end_operator
begin_operator
left robot2 tile_1-5 tile_1-4
0
3
0 1 9 8
0 5 0 2
0 6 -1 0
1
end_operator
begin_operator
left robot2 tile_2-2 tile_2-1
0
3
0 1 11 10
0 7 0 2
0 8 -1 0
1
end_operator
begin_operator
left robot2 tile_2-3 tile_2-2
0
3
0 1 12 11
0 8 0 2
0 9 -1 0
1
end_operator
begin_operator
left robot2 tile_2-4 tile_2-3
0
3
0 1 13 12
0 9 0 2
0 10 -1 0
1
end_operator
begin_operator
left robot2 tile_2-5 tile_2-4
0
3
0 1 14 13
0 10 0 2
0 11 -1 0
1
end_operator
begin_operator
left robot2 tile_3-2 tile_3-1
0
3
0 1 16 15
0 12 0 2
0 13 -1 0
1
end_operator
begin_operator
left robot2 tile_3-3 tile_3-2
0
3
0 1 17 16
0 13 0 2
0 14 -1 0
1
end_operator
begin_operator
left robot2 tile_3-4 tile_3-3
0
3
0 1 18 17
0 14 0 2
0 15 -1 0
1
end_operator
begin_operator
left robot2 tile_3-5 tile_3-4
0
3
0 1 19 18
0 15 0 2
0 16 -1 0
1
end_operator
begin_operator
left robot2 tile_4-2 tile_4-1
0
3
0 1 21 20
0 17 0 2
0 18 -1 0
1
end_operator
begin_operator
left robot2 tile_4-3 tile_4-2
0
3
0 1 22 21
0 18 0 2
0 19 -1 0
1
end_operator
begin_operator
left robot2 tile_4-4 tile_4-3
0
3
0 1 23 22
0 19 0 2
0 20 -1 0
1
end_operator
begin_operator
left robot2 tile_4-5 tile_4-4
0
3
0 1 24 23
0 20 0 2
0 21 -1 0
1
end_operator
begin_operator
left robot2 tile_5-2 tile_5-1
0
3
0 1 26 25
0 22 0 2
0 23 -1 0
1
end_operator
begin_operator
left robot2 tile_5-3 tile_5-2
0
3
0 1 27 26
0 23 0 2
0 24 -1 0
1
end_operator
begin_operator
left robot2 tile_5-4 tile_5-3
0
3
0 1 28 27
0 24 0 2
0 25 -1 0
1
end_operator
begin_operator
left robot2 tile_5-5 tile_5-4
0
3
0 1 29 28
0 25 0 2
0 26 -1 0
1
end_operator
begin_operator
left robot2 tile_6-2 tile_6-1
0
3
0 1 31 30
0 27 0 2
0 28 -1 0
1
end_operator
begin_operator
left robot2 tile_6-3 tile_6-2
0
3
0 1 32 31
0 28 0 2
0 29 -1 0
1
end_operator
begin_operator
left robot2 tile_6-4 tile_6-3
0
3
0 1 33 32
0 29 0 2
0 30 -1 0
1
end_operator
begin_operator
left robot2 tile_6-5 tile_6-4
0
3
0 1 34 33
0 30 0 2
0 31 -1 0
1
end_operator
begin_operator
paint-down robot1 tile_0-1 tile_1-1 black
2
0 5
32 0
1
0 34 0 1
2
end_operator
begin_operator
paint-down robot1 tile_0-1 tile_1-1 white
2
0 5
32 1
1
0 34 0 1
2
end_operator
begin_operator
paint-down robot1 tile_0-2 tile_1-2 black
2
0 6
32 0
1
0 35 0 1
2
end_operator
begin_operator
paint-down robot1 tile_0-2 tile_1-2 white
2
0 6
32 1
1
0 35 0 1
2
end_operator
begin_operator
paint-down robot1 tile_0-3 tile_1-3 black
2
0 7
32 0
1
0 36 0 1
2
end_operator
begin_operator
paint-down robot1 tile_0-3 tile_1-3 white
2
0 7
32 1
1
0 36 0 1
2
end_operator
begin_operator
paint-down robot1 tile_0-4 tile_1-4 black
2
0 8
32 0
1
0 37 0 1
2
end_operator
begin_operator
paint-down robot1 tile_0-4 tile_1-4 white
2
0 8
32 1
1
0 37 0 1
2
end_operator
begin_operator
paint-down robot1 tile_0-5 tile_1-5 black
2
0 9
32 0
1
0 38 0 1
2
end_operator
begin_operator
paint-down robot1 tile_0-5 tile_1-5 white
2
0 9
32 1
1
0 38 0 1
2
end_operator
begin_operator
paint-down robot1 tile_1-1 tile_2-1 black
2
0 10
32 0
1
0 2 0 2
2
end_operator
begin_operator
paint-down robot1 tile_1-2 tile_2-2 white
2
0 11
32 1
1
0 3 0 2
2
end_operator
begin_operator
paint-down robot1 tile_1-3 tile_2-3 black
2
0 12
32 0
1
0 4 0 2
2
end_operator
begin_operator
paint-down robot1 tile_1-4 tile_2-4 white
2
0 13
32 1
1
0 5 0 2
2
end_operator
begin_operator
paint-down robot1 tile_1-5 tile_2-5 black
2
0 14
32 0
1
0 6 0 2
2
end_operator
begin_operator
paint-down robot1 tile_2-1 tile_3-1 white
2
0 15
32 1
1
0 7 0 2
2
end_operator
begin_operator
paint-down robot1 tile_2-2 tile_3-2 black
2
0 16
32 0
1
0 8 0 2
2
end_operator
begin_operator
paint-down robot1 tile_2-3 tile_3-3 white
2
0 17
32 1
1
0 9 0 2
2
end_operator
begin_operator
paint-down robot1 tile_2-4 tile_3-4 black
2
0 18
32 0
1
0 10 0 2
2
end_operator
begin_operator
paint-down robot1 tile_2-5 tile_3-5 white
2
0 19
32 1
1
0 11 0 2
2
end_operator
begin_operator
paint-down robot1 tile_3-1 tile_4-1 black
2
0 20
32 0
1
0 12 0 2
2
end_operator
begin_operator
paint-down robot1 tile_3-2 tile_4-2 white
2
0 21
32 1
1
0 13 0 2
2
end_operator
begin_operator
paint-down robot1 tile_3-3 tile_4-3 black
2
0 22
32 0
1
0 14 0 2
2
end_operator
begin_operator
paint-down robot1 tile_3-4 tile_4-4 white
2
0 23
32 1
1
0 15 0 2
2
end_operator
begin_operator
paint-down robot1 tile_3-5 tile_4-5 black
2
0 24
32 0
1
0 16 0 2
2
end_operator
begin_operator
paint-down robot1 tile_4-1 tile_5-1 white
2
0 25
32 1
1
0 17 0 2
2
end_operator
begin_operator
paint-down robot1 tile_4-2 tile_5-2 black
2
0 26
32 0
1
0 18 0 2
2
end_operator
begin_operator
paint-down robot1 tile_4-3 tile_5-3 white
2
0 27
32 1
1
0 19 0 2
2
end_operator
begin_operator
paint-down robot1 tile_4-4 tile_5-4 black
2
0 28
32 0
1
0 20 0 2
2
end_operator
begin_operator
paint-down robot1 tile_4-5 tile_5-5 white
2
0 29
32 1
1
0 21 0 2
2
end_operator
begin_operator
paint-down robot1 tile_5-1 tile_6-1 black
2
0 30
32 0
1
0 22 0 2
2
end_operator
begin_operator
paint-down robot1 tile_5-2 tile_6-2 white
2
0 31
32 1
1
0 23 0 2
2
end_operator
begin_operator
paint-down robot1 tile_5-3 tile_6-3 black
2
0 32
32 0
1
0 24 0 2
2
end_operator
begin_operator
paint-down robot1 tile_5-4 tile_6-4 white
2
0 33
32 1
1
0 25 0 2
2
end_operator
begin_operator
paint-down robot1 tile_5-5 tile_6-5 black
2
0 34
32 0
1
0 26 0 2
2
end_operator
begin_operator
paint-down robot2 tile_0-1 tile_1-1 black
2
1 5
33 0
1
0 34 0 1
2
end_operator
begin_operator
paint-down robot2 tile_0-1 tile_1-1 white
2
1 5
33 1
1
0 34 0 1
2
end_operator
begin_operator
paint-down robot2 tile_0-2 tile_1-2 black
2
1 6
33 0
1
0 35 0 1
2
end_operator
begin_operator
paint-down robot2 tile_0-2 tile_1-2 white
2
1 6
33 1
1
0 35 0 1
2
end_operator
begin_operator
paint-down robot2 tile_0-3 tile_1-3 black
2
1 7
33 0
1
0 36 0 1
2
end_operator
begin_operator
paint-down robot2 tile_0-3 tile_1-3 white
2
1 7
33 1
1
0 36 0 1
2
end_operator
begin_operator
paint-down robot2 tile_0-4 tile_1-4 black
2
1 8
33 0
1
0 37 0 1
2
end_operator
begin_operator
paint-down robot2 tile_0-4 tile_1-4 white
2
1 8
33 1
1
0 37 0 1
2
end_operator
begin_operator
paint-down robot2 tile_0-5 tile_1-5 black
2
1 9
33 0
1
0 38 0 1
2
end_operator
begin_operator
paint-down robot2 tile_0-5 tile_1-5 white
2
1 9
33 1
1
0 38 0 1
2
end_operator
begin_operator
paint-down robot2 tile_1-1 tile_2-1 black
2
1 10
33 0
1
0 2 0 2
2
end_operator
begin_operator
paint-down robot2 tile_1-2 tile_2-2 white
2
1 11
33 1
1
0 3 0 2
2
end_operator
begin_operator
paint-down robot2 tile_1-3 tile_2-3 black
2
1 12
33 0
1
0 4 0 2
2
end_operator
begin_operator
paint-down robot2 tile_1-4 tile_2-4 white
2
1 13
33 1
1
0 5 0 2
2
end_operator
begin_operator
paint-down robot2 tile_1-5 tile_2-5 black
2
1 14
33 0
1
0 6 0 2
2
end_operator
begin_operator
paint-down robot2 tile_2-1 tile_3-1 white
2
1 15
33 1
1
0 7 0 2
2
end_operator
begin_operator
paint-down robot2 tile_2-2 tile_3-2 black
2
1 16
33 0
1
0 8 0 2
2
end_operator
begin_operator
paint-down robot2 tile_2-3 tile_3-3 white
2
1 17
33 1
1
0 9 0 2
2
end_operator
begin_operator
paint-down robot2 tile_2-4 tile_3-4 black
2
1 18
33 0
1
0 10 0 2
2
end_operator
begin_operator
paint-down robot2 tile_2-5 tile_3-5 white
2
1 19
33 1
1
0 11 0 2
2
end_operator
begin_operator
paint-down robot2 tile_3-1 tile_4-1 black
2
1 20
33 0
1
0 12 0 2
2
end_operator
begin_operator
paint-down robot2 tile_3-2 tile_4-2 white
2
1 21
33 1
1
0 13 0 2
2
end_operator
begin_operator
paint-down robot2 tile_3-3 tile_4-3 black
2
1 22
33 0
1
0 14 0 2
2
end_operator
begin_operator
paint-down robot2 tile_3-4 tile_4-4 white
2
1 23
33 1
1
0 15 0 2
2
end_operator
begin_operator
paint-down robot2 tile_3-5 tile_4-5 black
2
1 24
33 0
1
0 16 0 2
2
end_operator
begin_operator
paint-down robot2 tile_4-1 tile_5-1 white
2
1 25
33 1
1
0 17 0 2
2
end_operator
begin_operator
paint-down robot2 tile_4-2 tile_5-2 black
2
1 26
33 0
1
0 18 0 2
2
end_operator
begin_operator
paint-down robot2 tile_4-3 tile_5-3 white
2
1 27
33 1
1
0 19 0 2
2
end_operator
begin_operator
paint-down robot2 tile_4-4 tile_5-4 black
2
1 28
33 0
1
0 20 0 2
2
end_operator
begin_operator
paint-down robot2 tile_4-5 tile_5-5 white
2
1 29
33 1
1
0 21 0 2
2
end_operator
begin_operator
paint-down robot2 tile_5-1 tile_6-1 black
2
1 30
33 0
1
0 22 0 2
2
end_operator
begin_operator
paint-down robot2 tile_5-2 tile_6-2 white
2
1 31
33 1
1
0 23 0 2
2
end_operator
begin_operator
paint-down robot2 tile_5-3 tile_6-3 black
2
1 32
33 0
1
0 24 0 2
2
end_operator
begin_operator
paint-down robot2 tile_5-4 tile_6-4 white
2
1 33
33 1
1
0 25 0 2
2
end_operator
begin_operator
paint-down robot2 tile_5-5 tile_6-5 black
2
1 34
33 0
1
0 26 0 2
2
end_operator
begin_operator
paint-up robot1 tile_1-1 tile_0-1 black
2
0 0
32 0
1
0 2 0 2
2
end_operator
begin_operator
paint-up robot1 tile_1-1 tile_0-1 white
2
0 0
32 1
1
0 2 0 1
2
end_operator
begin_operator
paint-up robot1 tile_1-2 tile_0-2 black
2
0 1
32 0
1
0 3 0 1
2
end_operator
begin_operator
paint-up robot1 tile_1-2 tile_0-2 white
2
0 1
32 1
1
0 3 0 2
2
end_operator
begin_operator
paint-up robot1 tile_1-3 tile_0-3 black
2
0 2
32 0
1
0 4 0 2
2
end_operator
begin_operator
paint-up robot1 tile_1-3 tile_0-3 white
2
0 2
32 1
1
0 4 0 1
2
end_operator
begin_operator
paint-up robot1 tile_1-4 tile_0-4 black
2
0 3
32 0
1
0 5 0 1
2
end_operator
begin_operator
paint-up robot1 tile_1-4 tile_0-4 white
2
0 3
32 1
1
0 5 0 2
2
end_operator
begin_operator
paint-up robot1 tile_1-5 tile_0-5 black
2
0 4
32 0
1
0 6 0 2
2
end_operator
begin_operator
paint-up robot1 tile_1-5 tile_0-5 white
2
0 4
32 1
1
0 6 0 1
2
end_operator
begin_operator
paint-up robot1 tile_2-1 tile_1-1 black
2
0 5
32 0
1
0 7 0 1
2
end_operator
begin_operator
paint-up robot1 tile_2-1 tile_1-1 white
2
0 5
32 1
1
0 7 0 2
2
end_operator
begin_operator
paint-up robot1 tile_2-2 tile_1-2 black
2
0 6
32 0
1
0 8 0 2
2
end_operator
begin_operator
paint-up robot1 tile_2-2 tile_1-2 white
2
0 6
32 1
1
0 8 0 1
2
end_operator
begin_operator
paint-up robot1 tile_2-3 tile_1-3 black
2
0 7
32 0
1
0 9 0 1
2
end_operator
begin_operator
paint-up robot1 tile_2-3 tile_1-3 white
2
0 7
32 1
1
0 9 0 2
2
end_operator
begin_operator
paint-up robot1 tile_2-4 tile_1-4 black
2
0 8
32 0
1
0 10 0 2
2
end_operator
begin_operator
paint-up robot1 tile_2-4 tile_1-4 white
2
0 8
32 1
1
0 10 0 1
2
end_operator
begin_operator
paint-up robot1 tile_2-5 tile_1-5 black
2
0 9
32 0
1
0 11 0 1
2
end_operator
begin_operator
paint-up robot1 tile_2-5 tile_1-5 white
2
0 9
32 1
1
0 11 0 2
2
end_operator
begin_operator
paint-up robot1 tile_3-1 tile_2-1 black
2
0 10
32 0
1
0 12 0 2
2
end_operator
begin_operator
paint-up robot1 tile_3-1 tile_2-1 white
2
0 10
32 1
1
0 12 0 1
2
end_operator
begin_operator
paint-up robot1 tile_3-2 tile_2-2 black
2
0 11
32 0
1
0 13 0 1
2
end_operator
begin_operator
paint-up robot1 tile_3-2 tile_2-2 white
2
0 11
32 1
1
0 13 0 2
2
end_operator
begin_operator
paint-up robot1 tile_3-3 tile_2-3 black
2
0 12
32 0
1
0 14 0 2
2
end_operator
begin_operator
paint-up robot1 tile_3-3 tile_2-3 white
2
0 12
32 1
1
0 14 0 1
2
end_operator
begin_operator
paint-up robot1 tile_3-4 tile_2-4 black
2
0 13
32 0
1
0 15 0 1
2
end_operator
begin_operator
paint-up robot1 tile_3-4 tile_2-4 white
2
0 13
32 1
1
0 15 0 2
2
end_operator
begin_operator
paint-up robot1 tile_3-5 tile_2-5 black
2
0 14
32 0
1
0 16 0 2
2
end_operator
begin_operator
paint-up robot1 tile_3-5 tile_2-5 white
2
0 14
32 1
1
0 16 0 1
2
end_operator
begin_operator
paint-up robot1 tile_4-1 tile_3-1 black
2
0 15
32 0
1
0 17 0 1
2
end_operator
begin_operator
paint-up robot1 tile_4-1 tile_3-1 white
2
0 15
32 1
1
0 17 0 2
2
end_operator
begin_operator
paint-up robot1 tile_4-2 tile_3-2 black
2
0 16
32 0
1
0 18 0 2
2
end_operator
begin_operator
paint-up robot1 tile_4-2 tile_3-2 white
2
0 16
32 1
1
0 18 0 1
2
end_operator
begin_operator
paint-up robot1 tile_4-3 tile_3-3 black
2
0 17
32 0
1
0 19 0 1
2
end_operator
begin_operator
paint-up robot1 tile_4-3 tile_3-3 white
2
0 17
32 1
1
0 19 0 2
2
end_operator
begin_operator
paint-up robot1 tile_4-4 tile_3-4 black
2
0 18
32 0
1
0 20 0 2
2
end_operator
begin_operator
paint-up robot1 tile_4-4 tile_3-4 white
2
0 18
32 1
1
0 20 0 1
2
end_operator
begin_operator
paint-up robot1 tile_4-5 tile_3-5 black
2
0 19
32 0
1
0 21 0 1
2
end_operator
begin_operator
paint-up robot1 tile_4-5 tile_3-5 white
2
0 19
32 1
1
0 21 0 2
2
end_operator
begin_operator
paint-up robot1 tile_5-1 tile_4-1 black
2
0 20
32 0
1
0 22 0 2
2
end_operator
begin_operator
paint-up robot1 tile_5-1 tile_4-1 white
2
0 20
32 1
1
0 22 0 1
2
end_operator
begin_operator
paint-up robot1 tile_5-2 tile_4-2 black
2
0 21
32 0
1
0 23 0 1
2
end_operator
begin_operator
paint-up robot1 tile_5-2 tile_4-2 white
2
0 21
32 1
1
0 23 0 2
2
end_operator
begin_operator
paint-up robot1 tile_5-3 tile_4-3 black
2
0 22
32 0
1
0 24 0 2
2
end_operator
begin_operator
paint-up robot1 tile_5-3 tile_4-3 white
2
0 22
32 1
1
0 24 0 1
2
end_operator
begin_operator
paint-up robot1 tile_5-4 tile_4-4 black
2
0 23
32 0
1
0 25 0 1
2
end_operator
begin_operator
paint-up robot1 tile_5-4 tile_4-4 white
2
0 23
32 1
1
0 25 0 2
2
end_operator
begin_operator
paint-up robot1 tile_5-5 tile_4-5 black
2
0 24
32 0
1
0 26 0 2
2
end_operator
begin_operator
paint-up robot1 tile_5-5 tile_4-5 white
2
0 24
32 1
1
0 26 0 1
2
end_operator
begin_operator
paint-up robot1 tile_6-1 tile_5-1 black
2
0 25
32 0
1
0 27 0 1
2
end_operator
begin_operator
paint-up robot1 tile_6-1 tile_5-1 white
2
0 25
32 1
1
0 27 0 2
2
end_operator
begin_operator
paint-up robot1 tile_6-2 tile_5-2 black
2
0 26
32 0
1
0 28 0 2
2
end_operator
begin_operator
paint-up robot1 tile_6-2 tile_5-2 white
2
0 26
32 1
1
0 28 0 1
2
end_operator
begin_operator
paint-up robot1 tile_6-3 tile_5-3 black
2
0 27
32 0
1
0 29 0 1
2
end_operator
begin_operator
paint-up robot1 tile_6-3 tile_5-3 white
2
0 27
32 1
1
0 29 0 2
2
end_operator
begin_operator
paint-up robot1 tile_6-4 tile_5-4 black
2
0 28
32 0
1
0 30 0 2
2
end_operator
begin_operator
paint-up robot1 tile_6-4 tile_5-4 white
2
0 28
32 1
1
0 30 0 1
2
end_operator
begin_operator
paint-up robot1 tile_6-5 tile_5-5 black
2
0 29
32 0
1
0 31 0 1
2
end_operator
begin_operator
paint-up robot1 tile_6-5 tile_5-5 white
2
0 29
32 1
1
0 31 0 2
2
end_operator
begin_operator
paint-up robot2 tile_1-1 tile_0-1 black
2
1 0
33 0
1
0 2 0 2
2
end_operator
begin_operator
paint-up robot2 tile_1-1 tile_0-1 white
2
1 0
33 1
1
0 2 0 1
2
end_operator
begin_operator
paint-up robot2 tile_1-2 tile_0-2 black
2
1 1
33 0
1
0 3 0 1
2
end_operator
begin_operator
paint-up robot2 tile_1-2 tile_0-2 white
2
1 1
33 1
1
0 3 0 2
2
end_operator
begin_operator
paint-up robot2 tile_1-3 tile_0-3 black
2
1 2
33 0
1
0 4 0 2
2
end_operator
begin_operator
paint-up robot2 tile_1-3 tile_0-3 white
2
1 2
33 1
1
0 4 0 1
2
end_operator
begin_operator
paint-up robot2 tile_1-4 tile_0-4 black
2
1 3
33 0
1
0 5 0 1
2
end_operator
begin_operator
paint-up robot2 tile_1-4 tile_0-4 white
2
1 3
33 1
1
0 5 0 2
2
end_operator
begin_operator
paint-up robot2 tile_1-5 tile_0-5 black
2
1 4
33 0
1
0 6 0 2
2
end_operator
begin_operator
paint-up robot2 tile_1-5 tile_0-5 white
2
1 4
33 1
1
0 6 0 1
2
end_operator
begin_operator
paint-up robot2 tile_2-1 tile_1-1 black
2
1 5
33 0
1
0 7 0 1
2
end_operator
begin_operator
paint-up robot2 tile_2-1 tile_1-1 white
2
1 5
33 1
1
0 7 0 2
2
end_operator
begin_operator
paint-up robot2 tile_2-2 tile_1-2 black
2
1 6
33 0
1
0 8 0 2
2
end_operator
begin_operator
paint-up robot2 tile_2-2 tile_1-2 white
2
1 6
33 1
1
0 8 0 1
2
end_operator
begin_operator
paint-up robot2 tile_2-3 tile_1-3 black
2
1 7
33 0
1
0 9 0 1
2
end_operator
begin_operator
paint-up robot2 tile_2-3 tile_1-3 white
2
1 7
33 1
1
0 9 0 2
2
end_operator
begin_operator
paint-up robot2 tile_2-4 tile_1-4 black
2
1 8
33 0
1
0 10 0 2
2
end_operator
begin_operator
paint-up robot2 tile_2-4 tile_1-4 white
2
1 8
33 1
1
0 10 0 1
2
end_operator
begin_operator
paint-up robot2 tile_2-5 tile_1-5 black
2
1 9
33 0
1
0 11 0 1
2
end_operator
begin_operator
paint-up robot2 tile_2-5 tile_1-5 white
2
1 9
33 1
1
0 11 0 2
2
end_operator
begin_operator
paint-up robot2 tile_3-1 tile_2-1 black
2
1 10
33 0
1
0 12 0 2
2
end_operator
begin_operator
paint-up robot2 tile_3-1 tile_2-1 white
2
1 10
33 1
1
0 12 0 1
2
end_operator
begin_operator
paint-up robot2 tile_3-2 tile_2-2 black
2
1 11
33 0
1
0 13 0 1
2
end_operator
begin_operator
paint-up robot2 tile_3-2 tile_2-2 white
2
1 11
33 1
1
0 13 0 2
2
end_operator
begin_operator
paint-up robot2 tile_3-3 tile_2-3 black
2
1 12
33 0
1
0 14 0 2
2
end_operator
begin_operator
paint-up robot2 tile_3-3 tile_2-3 white
2
1 12
33 1
1
0 14 0 1
2
end_operator
begin_operator
paint-up robot2 tile_3-4 tile_2-4 black
2
1 13
33 0
1
0 15 0 1
2
end_operator
begin_operator
paint-up robot2 tile_3-4 tile_2-4 white
2
1 13
33 1
1
0 15 0 2
2
end_operator
begin_operator
paint-up robot2 tile_3-5 tile_2-5 black
2
1 14
33 0
1
0 16 0 2
2
end_operator
begin_operator
paint-up robot2 tile_3-5 tile_2-5 white
2
1 14
33 1
1
0 16 0 1
2
end_operator
begin_operator
paint-up robot2 tile_4-1 tile_3-1 black
2
1 15
33 0
1
0 17 0 1
2
end_operator
begin_operator
paint-up robot2 tile_4-1 tile_3-1 white
2
1 15
33 1
1
0 17 0 2
2
end_operator
begin_operator
paint-up robot2 tile_4-2 tile_3-2 black
2
1 16
33 0
1
0 18 0 2
2
end_operator
begin_operator
paint-up robot2 tile_4-2 tile_3-2 white
2
1 16
33 1
1
0 18 0 1
2
end_operator
begin_operator
paint-up robot2 tile_4-3 tile_3-3 black
2
1 17
33 0
1
0 19 0 1
2
end_operator
begin_operator
paint-up robot2 tile_4-3 tile_3-3 white
2
1 17
33 1
1
0 19 0 2
2
end_operator
begin_operator
paint-up robot2 tile_4-4 tile_3-4 black
2
1 18
33 0
1
0 20 0 2
2
end_operator
begin_operator
paint-up robot2 tile_4-4 tile_3-4 white
2
1 18
33 1
1
0 20 0 1
2
end_operator
begin_operator
paint-up robot2 tile_4-5 tile_3-5 black
2
1 19
33 0
1
0 21 0 1
2
end_operator
begin_operator
paint-up robot2 tile_4-5 tile_3-5 white
2
1 19
33 1
1
0 21 0 2
2
end_operator
begin_operator
paint-up robot2 tile_5-1 tile_4-1 black
2
1 20
33 0
1
0 22 0 2
2
end_operator
begin_operator
paint-up robot2 tile_5-1 tile_4-1 white
2
1 20
33 1
1
0 22 0 1
2
end_operator
begin_operator
paint-up robot2 tile_5-2 tile_4-2 black
2
1 21
33 0
1
0 23 0 1
2
end_operator
begin_operator
paint-up robot2 tile_5-2 tile_4-2 white
2
1 21
33 1
1
0 23 0 2
2
end_operator
begin_operator
paint-up robot2 tile_5-3 tile_4-3 black
2
1 22
33 0
1
0 24 0 2
2
end_operator
begin_operator
paint-up robot2 tile_5-3 tile_4-3 white
2
1 22
33 1
1
0 24 0 1
2
end_operator
begin_operator
paint-up robot2 tile_5-4 tile_4-4 black
2
1 23
33 0
1
0 25 0 1
2
end_operator
begin_operator
paint-up robot2 tile_5-4 tile_4-4 white
2
1 23
33 1
1
0 25 0 2
2
end_operator
begin_operator
paint-up robot2 tile_5-5 tile_4-5 black
2
1 24
33 0
1
0 26 0 2
2
end_operator
begin_operator
paint-up robot2 tile_5-5 tile_4-5 white
2
1 24
33 1
1
0 26 0 1
2
end_operator
begin_operator
paint-up robot2 tile_6-1 tile_5-1 black
2
1 25
33 0
1
0 27 0 1
2
end_operator
begin_operator
paint-up robot2 tile_6-1 tile_5-1 white
2
1 25
33 1
1
0 27 0 2
2
end_operator
begin_operator
paint-up robot2 tile_6-2 tile_5-2 black
2
1 26
33 0
1
0 28 0 2
2
end_operator
begin_operator
paint-up robot2 tile_6-2 tile_5-2 white
2
1 26
33 1
1
0 28 0 1
2
end_operator
begin_operator
paint-up robot2 tile_6-3 tile_5-3 black
2
1 27
33 0
1
0 29 0 1
2
end_operator
begin_operator
paint-up robot2 tile_6-3 tile_5-3 white
2
1 27
33 1
1
0 29 0 2
2
end_operator
begin_operator
paint-up robot2 tile_6-4 tile_5-4 black
2
1 28
33 0
1
0 30 0 2
2
end_operator
begin_operator
paint-up robot2 tile_6-4 tile_5-4 white
2
1 28
33 1
1
0 30 0 1
2
end_operator
begin_operator
paint-up robot2 tile_6-5 tile_5-5 black
2
1 29
33 0
1
0 31 0 1
2
end_operator
begin_operator
paint-up robot2 tile_6-5 tile_5-5 white
2
1 29
33 1
1
0 31 0 2
2
end_operator
begin_operator
right robot1 tile_0-1 tile_0-2
0
3
0 0 0 1
0 34 -1 0
0 35 0 1
1
end_operator
begin_operator
right robot1 tile_0-2 tile_0-3
0
3
0 0 1 2
0 35 -1 0
0 36 0 1
1
end_operator
begin_operator
right robot1 tile_0-3 tile_0-4
0
3
0 0 2 3
0 36 -1 0
0 37 0 1
1
end_operator
begin_operator
right robot1 tile_0-4 tile_0-5
0
3
0 0 3 4
0 37 -1 0
0 38 0 1
1
end_operator
begin_operator
right robot1 tile_1-1 tile_1-2
0
3
0 0 5 6
0 2 -1 0
0 3 0 2
1
end_operator
begin_operator
right robot1 tile_1-2 tile_1-3
0
3
0 0 6 7
0 3 -1 0
0 4 0 2
1
end_operator
begin_operator
right robot1 tile_1-3 tile_1-4
0
3
0 0 7 8
0 4 -1 0
0 5 0 2
1
end_operator
begin_operator
right robot1 tile_1-4 tile_1-5
0
3
0 0 8 9
0 5 -1 0
0 6 0 2
1
end_operator
begin_operator
right robot1 tile_2-1 tile_2-2
0
3
0 0 10 11
0 7 -1 0
0 8 0 2
1
end_operator
begin_operator
right robot1 tile_2-2 tile_2-3
0
3
0 0 11 12
0 8 -1 0
0 9 0 2
1
end_operator
begin_operator
right robot1 tile_2-3 tile_2-4
0
3
0 0 12 13
0 9 -1 0
0 10 0 2
1
end_operator
begin_operator
right robot1 tile_2-4 tile_2-5
0
3
0 0 13 14
0 10 -1 0
0 11 0 2
1
end_operator
begin_operator
right robot1 tile_3-1 tile_3-2
0
3
0 0 15 16
0 12 -1 0
0 13 0 2
1
end_operator
begin_operator
right robot1 tile_3-2 tile_3-3
0
3
0 0 16 17
0 13 -1 0
0 14 0 2
1
end_operator
begin_operator
right robot1 tile_3-3 tile_3-4
0
3
0 0 17 18
0 14 -1 0
0 15 0 2
1
end_operator
begin_operator
right robot1 tile_3-4 tile_3-5
0
3
0 0 18 19
0 15 -1 0
0 16 0 2
1
end_operator
begin_operator
right robot1 tile_4-1 tile_4-2
0
3
0 0 20 21
0 17 -1 0
0 18 0 2
1
end_operator
begin_operator
right robot1 tile_4-2 tile_4-3
0
3
0 0 21 22
0 18 -1 0
0 19 0 2
1
end_operator
begin_operator
right robot1 tile_4-3 tile_4-4
0
3
0 0 22 23
0 19 -1 0
0 20 0 2
1
end_operator
begin_operator
right robot1 tile_4-4 tile_4-5
0
3
0 0 23 24
0 20 -1 0
0 21 0 2
1
end_operator
begin_operator
right robot1 tile_5-1 tile_5-2
0
3
0 0 25 26
0 22 -1 0
0 23 0 2
1
end_operator
begin_operator
right robot1 tile_5-2 tile_5-3
0
3
0 0 26 27
0 23 -1 0
0 24 0 2
1
end_operator
begin_operator
right robot1 tile_5-3 tile_5-4
0
3
0 0 27 28
0 24 -1 0
0 25 0 2
1
end_operator
begin_operator
right robot1 tile_5-4 tile_5-5
0
3
0 0 28 29
0 25 -1 0
0 26 0 2
1
end_operator
begin_operator
right robot1 tile_6-1 tile_6-2
0
3
0 0 30 31
0 27 -1 0
0 28 0 2
1
end_operator
begin_operator
right robot1 tile_6-2 tile_6-3
0
3
0 0 31 32
0 28 -1 0
0 29 0 2
1
end_operator
begin_operator
right robot1 tile_6-3 tile_6-4
0
3
0 0 32 33
0 29 -1 0
0 30 0 2
1
end_operator
begin_operator
right robot1 tile_6-4 tile_6-5
0
3
0 0 33 34
0 30 -1 0
0 31 0 2
1
end_operator
begin_operator
right robot2 tile_0-1 tile_0-2
0
3
0 1 0 1
0 34 -1 0
0 35 0 1
1
end_operator
begin_operator
right robot2 tile_0-2 tile_0-3
0
3
0 1 1 2
0 35 -1 0
0 36 0 1
1
end_operator
begin_operator
right robot2 tile_0-3 tile_0-4
0
3
0 1 2 3
0 36 -1 0
0 37 0 1
1
end_operator
begin_operator
right robot2 tile_0-4 tile_0-5
0
3
0 1 3 4
0 37 -1 0
0 38 0 1
1
end_operator
begin_operator
right robot2 tile_1-1 tile_1-2
0
3
0 1 5 6
0 2 -1 0
0 3 0 2
1
end_operator
begin_operator
right robot2 tile_1-2 tile_1-3
0
3
0 1 6 7
0 3 -1 0
0 4 0 2
1
end_operator
begin_operator
right robot2 tile_1-3 tile_1-4
0
3
0 1 7 8
0 4 -1 0
0 5 0 2
1
end_operator
begin_operator
right robot2 tile_1-4 tile_1-5
0
3
0 1 8 9
0 5 -1 0
0 6 0 2
1
end_operator
begin_operator
right robot2 tile_2-1 tile_2-2
0
3
0 1 10 11
0 7 -1 0
0 8 0 2
1
end_operator
begin_operator
right robot2 tile_2-2 tile_2-3
0
3
0 1 11 12
0 8 -1 0
0 9 0 2
1
end_operator
begin_operator
right robot2 tile_2-3 tile_2-4
0
3
0 1 12 13
0 9 -1 0
0 10 0 2
1
end_operator
begin_operator
right robot2 tile_2-4 tile_2-5
0
3
0 1 13 14
0 10 -1 0
0 11 0 2
1
end_operator
begin_operator
right robot2 tile_3-1 tile_3-2
0
3
0 1 15 16
0 12 -1 0
0 13 0 2
1
end_operator
begin_operator
right robot2 tile_3-2 tile_3-3
0
3
0 1 16 17
0 13 -1 0
0 14 0 2
1
end_operator
begin_operator
right robot2 tile_3-3 tile_3-4
0
3
0 1 17 18
0 14 -1 0
0 15 0 2
1
end_operator
begin_operator
right robot2 tile_3-4 tile_3-5
0
3
0 1 18 19
0 15 -1 0
0 16 0 2
1
end_operator
begin_operator
right robot2 tile_4-1 tile_4-2
0
3
0 1 20 21
0 17 -1 0
0 18 0 2
1
end_operator
begin_operator
right robot2 tile_4-2 tile_4-3
0
3
0 1 21 22
0 18 -1 0
0 19 0 2
1
end_operator
begin_operator
right robot2 tile_4-3 tile_4-4
0
3
0 1 22 23
0 19 -1 0
0 20 0 2
1
end_operator
begin_operator
right robot2 tile_4-4 tile_4-5
0
3
0 1 23 24
0 20 -1 0
0 21 0 2
1
end_operator
begin_operator
right robot2 tile_5-1 tile_5-2
0
3
0 1 25 26
0 22 -1 0
0 23 0 2
1
end_operator
begin_operator
right robot2 tile_5-2 tile_5-3
0
3
0 1 26 27
0 23 -1 0
0 24 0 2
1
end_operator
begin_operator
right robot2 tile_5-3 tile_5-4
0
3
0 1 27 28
0 24 -1 0
0 25 0 2
1
end_operator
begin_operator
right robot2 tile_5-4 tile_5-5
0
3
0 1 28 29
0 25 -1 0
0 26 0 2
1
end_operator
begin_operator
right robot2 tile_6-1 tile_6-2
0
3
0 1 30 31
0 27 -1 0
0 28 0 2
1
end_operator
begin_operator
right robot2 tile_6-2 tile_6-3
0
3
0 1 31 32
0 28 -1 0
0 29 0 2
1
end_operator
begin_operator
right robot2 tile_6-3 tile_6-4
0
3
0 1 32 33
0 29 -1 0
0 30 0 2
1
end_operator
begin_operator
right robot2 tile_6-4 tile_6-5
0
3
0 1 33 34
0 30 -1 0
0 31 0 2
1
end_operator
begin_operator
up robot1 tile_0-1 tile_1-1
0
3
0 0 0 5
0 2 0 2
0 34 -1 0
3
end_operator
begin_operator
up robot1 tile_0-2 tile_1-2
0
3
0 0 1 6
0 3 0 2
0 35 -1 0
3
end_operator
begin_operator
up robot1 tile_0-3 tile_1-3
0
3
0 0 2 7
0 4 0 2
0 36 -1 0
3
end_operator
begin_operator
up robot1 tile_0-4 tile_1-4
0
3
0 0 3 8
0 5 0 2
0 37 -1 0
3
end_operator
begin_operator
up robot1 tile_0-5 tile_1-5
0
3
0 0 4 9
0 6 0 2
0 38 -1 0
3
end_operator
begin_operator
up robot1 tile_1-1 tile_2-1
0
3
0 0 5 10
0 2 -1 0
0 7 0 2
3
end_operator
begin_operator
up robot1 tile_1-2 tile_2-2
0
3
0 0 6 11
0 3 -1 0
0 8 0 2
3
end_operator
begin_operator
up robot1 tile_1-3 tile_2-3
0
3
0 0 7 12
0 4 -1 0
0 9 0 2
3
end_operator
begin_operator
up robot1 tile_1-4 tile_2-4
0
3
0 0 8 13
0 5 -1 0
0 10 0 2
3
end_operator
begin_operator
up robot1 tile_1-5 tile_2-5
0
3
0 0 9 14
0 6 -1 0
0 11 0 2
3
end_operator
begin_operator
up robot1 tile_2-1 tile_3-1
0
3
0 0 10 15
0 7 -1 0
0 12 0 2
3
end_operator
begin_operator
up robot1 tile_2-2 tile_3-2
0
3
0 0 11 16
0 8 -1 0
0 13 0 2
3
end_operator
begin_operator
up robot1 tile_2-3 tile_3-3
0
3
0 0 12 17
0 9 -1 0
0 14 0 2
3
end_operator
begin_operator
up robot1 tile_2-4 tile_3-4
0
3
0 0 13 18
0 10 -1 0
0 15 0 2
3
end_operator
begin_operator
up robot1 tile_2-5 tile_3-5
0
3
0 0 14 19
0 11 -1 0
0 16 0 2
3
end_operator
begin_operator
up robot1 tile_3-1 tile_4-1
0
3
0 0 15 20
0 12 -1 0
0 17 0 2
3
end_operator
begin_operator
up robot1 tile_3-2 tile_4-2
0
3
0 0 16 21
0 13 -1 0
0 18 0 2
3
end_operator
begin_operator
up robot1 tile_3-3 tile_4-3
0
3
0 0 17 22
0 14 -1 0
0 19 0 2
3
end_operator
begin_operator
up robot1 tile_3-4 tile_4-4
0
3
0 0 18 23
0 15 -1 0
0 20 0 2
3
end_operator
begin_operator
up robot1 tile_3-5 tile_4-5
0
3
0 0 19 24
0 16 -1 0
0 21 0 2
3
end_operator
begin_operator
up robot1 tile_4-1 tile_5-1
0
3
0 0 20 25
0 17 -1 0
0 22 0 2
3
end_operator
begin_operator
up robot1 tile_4-2 tile_5-2
0
3
0 0 21 26
0 18 -1 0
0 23 0 2
3
end_operator
begin_operator
up robot1 tile_4-3 tile_5-3
0
3
0 0 22 27
0 19 -1 0
0 24 0 2
3
end_operator
begin_operator
up robot1 tile_4-4 tile_5-4
0
3
0 0 23 28
0 20 -1 0
0 25 0 2
3
end_operator
begin_operator
up robot1 tile_4-5 tile_5-5
0
3
0 0 24 29
0 21 -1 0
0 26 0 2
3
end_operator
begin_operator
up robot1 tile_5-1 tile_6-1
0
3
0 0 25 30
0 22 -1 0
0 27 0 2
3
end_operator
begin_operator
up robot1 tile_5-2 tile_6-2
0
3
0 0 26 31
0 23 -1 0
0 28 0 2
3
end_operator
begin_operator
up robot1 tile_5-3 tile_6-3
0
3
0 0 27 32
0 24 -1 0
0 29 0 2
3
end_operator
begin_operator
up robot1 tile_5-4 tile_6-4
0
3
0 0 28 33
0 25 -1 0
0 30 0 2
3
end_operator
begin_operator
up robot1 tile_5-5 tile_6-5
0
3
0 0 29 34
0 26 -1 0
0 31 0 2
3
end_operator
begin_operator
up robot2 tile_0-1 tile_1-1
0
3
0 1 0 5
0 2 0 2
0 34 -1 0
3
end_operator
begin_operator
up robot2 tile_0-2 tile_1-2
0
3
0 1 1 6
0 3 0 2
0 35 -1 0
3
end_operator
begin_operator
up robot2 tile_0-3 tile_1-3
0
3
0 1 2 7
0 4 0 2
0 36 -1 0
3
end_operator
begin_operator
up robot2 tile_0-4 tile_1-4
0
3
0 1 3 8
0 5 0 2
0 37 -1 0
3
end_operator
begin_operator
up robot2 tile_0-5 tile_1-5
0
3
0 1 4 9
0 6 0 2
0 38 -1 0
3
end_operator
begin_operator
up robot2 tile_1-1 tile_2-1
0
3
0 1 5 10
0 2 -1 0
0 7 0 2
3
end_operator
begin_operator
up robot2 tile_1-2 tile_2-2
0
3
0 1 6 11
0 3 -1 0
0 8 0 2
3
end_operator
begin_operator
up robot2 tile_1-3 tile_2-3
0
3
0 1 7 12
0 4 -1 0
0 9 0 2
3
end_operator
begin_operator
up robot2 tile_1-4 tile_2-4
0
3
0 1 8 13
0 5 -1 0
0 10 0 2
3
end_operator
begin_operator
up robot2 tile_1-5 tile_2-5
0
3
0 1 9 14
0 6 -1 0
0 11 0 2
3
end_operator
begin_operator
up robot2 tile_2-1 tile_3-1
0
3
0 1 10 15
0 7 -1 0
0 12 0 2
3
end_operator
begin_operator
up robot2 tile_2-2 tile_3-2
0
3
0 1 11 16
0 8 -1 0
0 13 0 2
3
end_operator
begin_operator
up robot2 tile_2-3 tile_3-3
0
3
0 1 12 17
0 9 -1 0
0 14 0 2
3
end_operator
begin_operator
up robot2 tile_2-4 tile_3-4
0
3
0 1 13 18
0 10 -1 0
0 15 0 2
3
end_operator
begin_operator
up robot2 tile_2-5 tile_3-5
0
3
0 1 14 19
0 11 -1 0
0 16 0 2
3
end_operator
begin_operator
up robot2 tile_3-1 tile_4-1
0
3
0 1 15 20
0 12 -1 0
0 17 0 2
3
end_operator
begin_operator
up robot2 tile_3-2 tile_4-2
0
3
0 1 16 21
0 13 -1 0
0 18 0 2
3
end_operator
begin_operator
up robot2 tile_3-3 tile_4-3
0
3
0 1 17 22
0 14 -1 0
0 19 0 2
3
end_operator
begin_operator
up robot2 tile_3-4 tile_4-4
0
3
0 1 18 23
0 15 -1 0
0 20 0 2
3
end_operator
begin_operator
up robot2 tile_3-5 tile_4-5
0
3
0 1 19 24
0 16 -1 0
0 21 0 2
3
end_operator
begin_operator
up robot2 tile_4-1 tile_5-1
0
3
0 1 20 25
0 17 -1 0
0 22 0 2
3
end_operator
begin_operator
up robot2 tile_4-2 tile_5-2
0
3
0 1 21 26
0 18 -1 0
0 23 0 2
3
end_operator
begin_operator
up robot2 tile_4-3 tile_5-3
0
3
0 1 22 27
0 19 -1 0
0 24 0 2
3
end_operator
begin_operator
up robot2 tile_4-4 tile_5-4
0
3
0 1 23 28
0 20 -1 0
0 25 0 2
3
end_operator
begin_operator
up robot2 tile_4-5 tile_5-5
0
3
0 1 24 29
0 21 -1 0
0 26 0 2
3
end_operator
begin_operator
up robot2 tile_5-1 tile_6-1
0
3
0 1 25 30
0 22 -1 0
0 27 0 2
3
end_operator
begin_operator
up robot2 tile_5-2 tile_6-2
0
3
0 1 26 31
0 23 -1 0
0 28 0 2
3
end_operator
begin_operator
up robot2 tile_5-3 tile_6-3
0
3
0 1 27 32
0 24 -1 0
0 29 0 2
3
end_operator
begin_operator
up robot2 tile_5-4 tile_6-4
0
3
0 1 28 33
0 25 -1 0
0 30 0 2
3
end_operator
begin_operator
up robot2 tile_5-5 tile_6-5
0
3
0 1 29 34
0 26 -1 0
0 31 0 2
3
end_operator
0
