 (at plane1 city0) (at plane1 city1) (at plane1 city2):=1:G
 (at person1 city0) (at person1 city1) (at person1 city2) (in person1 plane1):=1:G
 (at person2 city0) (at person2 city1) (at person2 city2) (in person2 plane1):=1:G
 (fuel-level plane1 fl0) (fuel-level plane1 fl1) (fuel-level plane1 fl2) (fuel-level plane1 fl3) (fuel-level plane1 fl4) (fuel-level plane1 fl5) (fuel-level plane1 fl6):=1

