Fact[109]:
  (at player-01 pos-02-03)
  (at player-01 pos-02-04)
  (at player-01 pos-03-02)
  (at player-01 pos-03-03)
  (at player-01 pos-03-04)
  (at player-01 pos-04-02)
  (at player-01 pos-04-03)
  (at player-01 pos-04-04)
  (at player-01 pos-04-05)
  (at player-01 pos-05-02)
  (at player-01 pos-05-03)
  (at player-01 pos-05-04)
  (at player-01 pos-05-05)
  (at player-01 pos-05-06)
  (at player-01 pos-05-07)
  (at player-01 pos-05-08)
  (at player-01 pos-06-02)
  (at player-01 pos-06-03)
  (at player-01 pos-06-04)
  (at player-01 pos-06-07)
  (at player-01 pos-06-08)
  (at player-01 pos-07-06)
  (at player-01 pos-07-07)
  (at player-01 pos-08-06)
  (at player-01 pos-08-07)
  (at player-01 pos-09-06)
  (at player-01 pos-09-07)
  (at stone-01 pos-03-03)
  (at stone-01 pos-03-04)
  (at stone-01 pos-04-02)
  (at stone-01 pos-04-03)
  (at stone-01 pos-04-04)
  (at stone-01 pos-05-02)
  (at stone-01 pos-05-03)
  (at stone-01 pos-05-04)
  (at stone-01 pos-05-05)
  (at stone-01 pos-05-06)
  (at stone-01 pos-05-07)
  (at stone-01 pos-06-03)
  (at stone-02 pos-03-03)
  (at stone-02 pos-03-04)
  (at stone-02 pos-04-02)
  (at stone-02 pos-04-03)
  (at stone-02 pos-04-04)
  (at stone-02 pos-05-02)
  (at stone-02 pos-05-03)
  (at stone-02 pos-05-04)
  (at stone-02 pos-05-05)
  (at stone-02 pos-05-06)
  (at stone-02 pos-05-07)
  (at stone-02 pos-06-03)
  (at stone-03 pos-03-03)
  (at stone-03 pos-03-04)
  (at stone-03 pos-04-02)
  (at stone-03 pos-04-03)
  (at stone-03 pos-04-04)
  (at stone-03 pos-05-02)
  (at stone-03 pos-05-03)
  (at stone-03 pos-05-04)
  (at stone-03 pos-05-05)
  (at stone-03 pos-05-06)
  (at stone-03 pos-05-07)
  (at stone-03 pos-06-03)
  (at stone-04 pos-03-03)
  (at stone-04 pos-03-04)
  (at stone-04 pos-04-02)
  (at stone-04 pos-04-03)
  (at stone-04 pos-04-04)
  (at stone-04 pos-05-02)
  (at stone-04 pos-05-03)
  (at stone-04 pos-05-04)
  (at stone-04 pos-05-05)
  (at stone-04 pos-05-06)
  (at stone-04 pos-05-07)
  (at stone-04 pos-06-03)
  (at stone-04 pos-06-07)
  (at stone-04 pos-07-07)
  (at stone-04 pos-08-07)
  (at-goal stone-01)
  (at-goal stone-02)
  (at-goal stone-03)
  (at-goal stone-04)
  (clear pos-02-03)
  (clear pos-02-04)
  (clear pos-03-02)
  (clear pos-03-03)
  (clear pos-03-04)
  (clear pos-04-02)
  (clear pos-04-03)
  (clear pos-04-04)
  (clear pos-04-05)
  (clear pos-05-02)
  (clear pos-05-03)
  (clear pos-05-04)
  (clear pos-05-05)
  (clear pos-05-06)
  (clear pos-05-07)
  (clear pos-05-08)
  (clear pos-06-02)
  (clear pos-06-03)
  (clear pos-06-04)
  (clear pos-06-07)
  (clear pos-06-08)
  (clear pos-07-06)
  (clear pos-07-07)
  (clear pos-08-06)
  (clear pos-08-07)
  (clear pos-09-06)
  (clear pos-09-07)
Op[205]:
  (move player-01 pos-02-03 pos-02-04 dir-down), cost: 0
    pre: (at player-01 pos-02-03) (clear pos-02-04)
    add: (at player-01 pos-02-04) (clear pos-02-03)
    del: (at player-01 pos-02-03) (clear pos-02-04)
  (move player-01 pos-02-03 pos-03-03 dir-right), cost: 0
    pre: (at player-01 pos-02-03) (clear pos-03-03)
    add: (at player-01 pos-03-03) (clear pos-02-03)
    del: (at player-01 pos-02-03) (clear pos-03-03)
  (move player-01 pos-02-04 pos-02-03 dir-up), cost: 0
    pre: (at player-01 pos-02-04) (clear pos-02-03)
    add: (at player-01 pos-02-03) (clear pos-02-04)
    del: (at player-01 pos-02-04) (clear pos-02-03)
  (move player-01 pos-02-04 pos-03-04 dir-right), cost: 0
    pre: (at player-01 pos-02-04) (clear pos-03-04)
    add: (at player-01 pos-03-04) (clear pos-02-04)
    del: (at player-01 pos-02-04) (clear pos-03-04)
  (move player-01 pos-03-02 pos-03-03 dir-down), cost: 0
    pre: (at player-01 pos-03-02) (clear pos-03-03)
    add: (at player-01 pos-03-03) (clear pos-03-02)
    del: (at player-01 pos-03-02) (clear pos-03-03)
  (move player-01 pos-03-02 pos-04-02 dir-right), cost: 0
    pre: (at player-01 pos-03-02) (clear pos-04-02)
    add: (at player-01 pos-04-02) (clear pos-03-02)
    del: (at player-01 pos-03-02) (clear pos-04-02)
  (move player-01 pos-03-03 pos-02-03 dir-left), cost: 0
    pre: (at player-01 pos-03-03) (clear pos-02-03)
    add: (at player-01 pos-02-03) (clear pos-03-03)
    del: (at player-01 pos-03-03) (clear pos-02-03)
  (move player-01 pos-03-03 pos-03-02 dir-up), cost: 0
    pre: (at player-01 pos-03-03) (clear pos-03-02)
    add: (at player-01 pos-03-02) (clear pos-03-03)
    del: (at player-01 pos-03-03) (clear pos-03-02)
  (move player-01 pos-03-03 pos-03-04 dir-down), cost: 0
    pre: (at player-01 pos-03-03) (clear pos-03-04)
    add: (at player-01 pos-03-04) (clear pos-03-03)
    del: (at player-01 pos-03-03) (clear pos-03-04)
  (move player-01 pos-03-03 pos-04-03 dir-right), cost: 0
    pre: (at player-01 pos-03-03) (clear pos-04-03)
    add: (at player-01 pos-04-03) (clear pos-03-03)
    del: (at player-01 pos-03-03) (clear pos-04-03)
  (move player-01 pos-03-04 pos-02-04 dir-left), cost: 0
    pre: (at player-01 pos-03-04) (clear pos-02-04)
    add: (at player-01 pos-02-04) (clear pos-03-04)
    del: (at player-01 pos-03-04) (clear pos-02-04)
  (move player-01 pos-03-04 pos-03-03 dir-up), cost: 0
    pre: (at player-01 pos-03-04) (clear pos-03-03)
    add: (at player-01 pos-03-03) (clear pos-03-04)
    del: (at player-01 pos-03-04) (clear pos-03-03)
  (move player-01 pos-03-04 pos-04-04 dir-right), cost: 0
    pre: (at player-01 pos-03-04) (clear pos-04-04)
    add: (at player-01 pos-04-04) (clear pos-03-04)
    del: (at player-01 pos-03-04) (clear pos-04-04)
  (move player-01 pos-04-02 pos-03-02 dir-left), cost: 0
    pre: (at player-01 pos-04-02) (clear pos-03-02)
    add: (at player-01 pos-03-02) (clear pos-04-02)
    del: (at player-01 pos-04-02) (clear pos-03-02)
  (move player-01 pos-04-02 pos-04-03 dir-down), cost: 0
    pre: (at player-01 pos-04-02) (clear pos-04-03)
    add: (at player-01 pos-04-03) (clear pos-04-02)
    del: (at player-01 pos-04-02) (clear pos-04-03)
  (move player-01 pos-04-02 pos-05-02 dir-right), cost: 0
    pre: (at player-01 pos-04-02) (clear pos-05-02)
    add: (at player-01 pos-05-02) (clear pos-04-02)
    del: (at player-01 pos-04-02) (clear pos-05-02)
  (move player-01 pos-04-03 pos-03-03 dir-left), cost: 0
    pre: (at player-01 pos-04-03) (clear pos-03-03)
    add: (at player-01 pos-03-03) (clear pos-04-03)
    del: (at player-01 pos-04-03) (clear pos-03-03)
  (move player-01 pos-04-03 pos-04-02 dir-up), cost: 0
    pre: (at player-01 pos-04-03) (clear pos-04-02)
    add: (at player-01 pos-04-02) (clear pos-04-03)
    del: (at player-01 pos-04-03) (clear pos-04-02)
  (move player-01 pos-04-03 pos-04-04 dir-down), cost: 0
    pre: (at player-01 pos-04-03) (clear pos-04-04)
    add: (at player-01 pos-04-04) (clear pos-04-03)
    del: (at player-01 pos-04-03) (clear pos-04-04)
  (move player-01 pos-04-03 pos-05-03 dir-right), cost: 0
    pre: (at player-01 pos-04-03) (clear pos-05-03)
    add: (at player-01 pos-05-03) (clear pos-04-03)
    del: (at player-01 pos-04-03) (clear pos-05-03)
  (move player-01 pos-04-04 pos-03-04 dir-left), cost: 0
    pre: (at player-01 pos-04-04) (clear pos-03-04)
    add: (at player-01 pos-03-04) (clear pos-04-04)
    del: (at player-01 pos-04-04) (clear pos-03-04)
  (move player-01 pos-04-04 pos-04-03 dir-up), cost: 0
    pre: (at player-01 pos-04-04) (clear pos-04-03)
    add: (at player-01 pos-04-03) (clear pos-04-04)
    del: (at player-01 pos-04-04) (clear pos-04-03)
  (move player-01 pos-04-04 pos-04-05 dir-down), cost: 0
    pre: (at player-01 pos-04-04) (clear pos-04-05)
    add: (at player-01 pos-04-05) (clear pos-04-04)
    del: (at player-01 pos-04-04) (clear pos-04-05)
  (move player-01 pos-04-04 pos-05-04 dir-right), cost: 0
    pre: (at player-01 pos-04-04) (clear pos-05-04)
    add: (at player-01 pos-05-04) (clear pos-04-04)
    del: (at player-01 pos-04-04) (clear pos-05-04)
  (move player-01 pos-04-05 pos-04-04 dir-up), cost: 0
    pre: (at player-01 pos-04-05) (clear pos-04-04)
    add: (at player-01 pos-04-04) (clear pos-04-05)
    del: (at player-01 pos-04-05) (clear pos-04-04)
  (move player-01 pos-04-05 pos-05-05 dir-right), cost: 0
    pre: (at player-01 pos-04-05) (clear pos-05-05)
    add: (at player-01 pos-05-05) (clear pos-04-05)
    del: (at player-01 pos-04-05) (clear pos-05-05)
  (move player-01 pos-05-02 pos-04-02 dir-left), cost: 0
    pre: (at player-01 pos-05-02) (clear pos-04-02)
    add: (at player-01 pos-04-02) (clear pos-05-02)
    del: (at player-01 pos-05-02) (clear pos-04-02)
  (move player-01 pos-05-02 pos-05-03 dir-down), cost: 0
    pre: (at player-01 pos-05-02) (clear pos-05-03)
    add: (at player-01 pos-05-03) (clear pos-05-02)
    del: (at player-01 pos-05-02) (clear pos-05-03)
  (move player-01 pos-05-02 pos-06-02 dir-right), cost: 0
    pre: (at player-01 pos-05-02) (clear pos-06-02)
    add: (at player-01 pos-06-02) (clear pos-05-02)
    del: (at player-01 pos-05-02) (clear pos-06-02)
  (move player-01 pos-05-03 pos-04-03 dir-left), cost: 0
    pre: (at player-01 pos-05-03) (clear pos-04-03)
    add: (at player-01 pos-04-03) (clear pos-05-03)
    del: (at player-01 pos-05-03) (clear pos-04-03)
  (move player-01 pos-05-03 pos-05-02 dir-up), cost: 0
    pre: (at player-01 pos-05-03) (clear pos-05-02)
    add: (at player-01 pos-05-02) (clear pos-05-03)
    del: (at player-01 pos-05-03) (clear pos-05-02)
  (move player-01 pos-05-03 pos-05-04 dir-down), cost: 0
    pre: (at player-01 pos-05-03) (clear pos-05-04)
    add: (at player-01 pos-05-04) (clear pos-05-03)
    del: (at player-01 pos-05-03) (clear pos-05-04)
  (move player-01 pos-05-03 pos-06-03 dir-right), cost: 0
    pre: (at player-01 pos-05-03) (clear pos-06-03)
    add: (at player-01 pos-06-03) (clear pos-05-03)
    del: (at player-01 pos-05-03) (clear pos-06-03)
  (move player-01 pos-05-04 pos-04-04 dir-left), cost: 0
    pre: (at player-01 pos-05-04) (clear pos-04-04)
    add: (at player-01 pos-04-04) (clear pos-05-04)
    del: (at player-01 pos-05-04) (clear pos-04-04)
  (move player-01 pos-05-04 pos-05-03 dir-up), cost: 0
    pre: (at player-01 pos-05-04) (clear pos-05-03)
    add: (at player-01 pos-05-03) (clear pos-05-04)
    del: (at player-01 pos-05-04) (clear pos-05-03)
  (move player-01 pos-05-04 pos-05-05 dir-down), cost: 0
    pre: (at player-01 pos-05-04) (clear pos-05-05)
    add: (at player-01 pos-05-05) (clear pos-05-04)
    del: (at player-01 pos-05-04) (clear pos-05-05)
  (move player-01 pos-05-04 pos-06-04 dir-right), cost: 0
    pre: (at player-01 pos-05-04) (clear pos-06-04)
    add: (at player-01 pos-06-04) (clear pos-05-04)
    del: (at player-01 pos-05-04) (clear pos-06-04)
  (move player-01 pos-05-05 pos-04-05 dir-left), cost: 0
    pre: (at player-01 pos-05-05) (clear pos-04-05)
    add: (at player-01 pos-04-05) (clear pos-05-05)
    del: (at player-01 pos-05-05) (clear pos-04-05)
  (move player-01 pos-05-05 pos-05-04 dir-up), cost: 0
    pre: (at player-01 pos-05-05) (clear pos-05-04)
    add: (at player-01 pos-05-04) (clear pos-05-05)
    del: (at player-01 pos-05-05) (clear pos-05-04)
  (move player-01 pos-05-05 pos-05-06 dir-down), cost: 0
    pre: (at player-01 pos-05-05) (clear pos-05-06)
    add: (at player-01 pos-05-06) (clear pos-05-05)
    del: (at player-01 pos-05-05) (clear pos-05-06)
  (move player-01 pos-05-06 pos-05-05 dir-up), cost: 0
    pre: (at player-01 pos-05-06) (clear pos-05-05)
    add: (at player-01 pos-05-05) (clear pos-05-06)
    del: (at player-01 pos-05-06) (clear pos-05-05)
  (move player-01 pos-05-06 pos-05-07 dir-down), cost: 0
    pre: (at player-01 pos-05-06) (clear pos-05-07)
    add: (at player-01 pos-05-07) (clear pos-05-06)
    del: (at player-01 pos-05-06) (clear pos-05-07)
  (move player-01 pos-05-07 pos-05-06 dir-up), cost: 0
    pre: (at player-01 pos-05-07) (clear pos-05-06)
    add: (at player-01 pos-05-06) (clear pos-05-07)
    del: (at player-01 pos-05-07) (clear pos-05-06)
  (move player-01 pos-05-07 pos-05-08 dir-down), cost: 0
    pre: (at player-01 pos-05-07) (clear pos-05-08)
    add: (at player-01 pos-05-08) (clear pos-05-07)
    del: (at player-01 pos-05-07) (clear pos-05-08)
  (move player-01 pos-05-07 pos-06-07 dir-right), cost: 0
    pre: (at player-01 pos-05-07) (clear pos-06-07)
    add: (at player-01 pos-06-07) (clear pos-05-07)
    del: (at player-01 pos-05-07) (clear pos-06-07)
  (move player-01 pos-05-08 pos-05-07 dir-up), cost: 0
    pre: (at player-01 pos-05-08) (clear pos-05-07)
    add: (at player-01 pos-05-07) (clear pos-05-08)
    del: (at player-01 pos-05-08) (clear pos-05-07)
  (move player-01 pos-05-08 pos-06-08 dir-right), cost: 0
    pre: (at player-01 pos-05-08) (clear pos-06-08)
    add: (at player-01 pos-06-08) (clear pos-05-08)
    del: (at player-01 pos-05-08) (clear pos-06-08)
  (move player-01 pos-06-02 pos-05-02 dir-left), cost: 0
    pre: (at player-01 pos-06-02) (clear pos-05-02)
    add: (at player-01 pos-05-02) (clear pos-06-02)
    del: (at player-01 pos-06-02) (clear pos-05-02)
  (move player-01 pos-06-02 pos-06-03 dir-down), cost: 0
    pre: (at player-01 pos-06-02) (clear pos-06-03)
    add: (at player-01 pos-06-03) (clear pos-06-02)
    del: (at player-01 pos-06-02) (clear pos-06-03)
  (move player-01 pos-06-03 pos-05-03 dir-left), cost: 0
    pre: (at player-01 pos-06-03) (clear pos-05-03)
    add: (at player-01 pos-05-03) (clear pos-06-03)
    del: (at player-01 pos-06-03) (clear pos-05-03)
  (move player-01 pos-06-03 pos-06-02 dir-up), cost: 0
    pre: (at player-01 pos-06-03) (clear pos-06-02)
    add: (at player-01 pos-06-02) (clear pos-06-03)
    del: (at player-01 pos-06-03) (clear pos-06-02)
  (move player-01 pos-06-03 pos-06-04 dir-down), cost: 0
    pre: (at player-01 pos-06-03) (clear pos-06-04)
    add: (at player-01 pos-06-04) (clear pos-06-03)
    del: (at player-01 pos-06-03) (clear pos-06-04)
  (move player-01 pos-06-04 pos-05-04 dir-left), cost: 0
    pre: (at player-01 pos-06-04) (clear pos-05-04)
    add: (at player-01 pos-05-04) (clear pos-06-04)
    del: (at player-01 pos-06-04) (clear pos-05-04)
  (move player-01 pos-06-04 pos-06-03 dir-up), cost: 0
    pre: (at player-01 pos-06-04) (clear pos-06-03)
    add: (at player-01 pos-06-03) (clear pos-06-04)
    del: (at player-01 pos-06-04) (clear pos-06-03)
  (move player-01 pos-06-07 pos-05-07 dir-left), cost: 0
    pre: (at player-01 pos-06-07) (clear pos-05-07)
    add: (at player-01 pos-05-07) (clear pos-06-07)
    del: (at player-01 pos-06-07) (clear pos-05-07)
  (move player-01 pos-06-07 pos-06-08 dir-down), cost: 0
    pre: (at player-01 pos-06-07) (clear pos-06-08)
    add: (at player-01 pos-06-08) (clear pos-06-07)
    del: (at player-01 pos-06-07) (clear pos-06-08)
  (move player-01 pos-06-07 pos-07-07 dir-right), cost: 0
    pre: (at player-01 pos-06-07) (clear pos-07-07)
    add: (at player-01 pos-07-07) (clear pos-06-07)
    del: (at player-01 pos-06-07) (clear pos-07-07)
  (move player-01 pos-06-08 pos-05-08 dir-left), cost: 0
    pre: (at player-01 pos-06-08) (clear pos-05-08)
    add: (at player-01 pos-05-08) (clear pos-06-08)
    del: (at player-01 pos-06-08) (clear pos-05-08)
  (move player-01 pos-06-08 pos-06-07 dir-up), cost: 0
    pre: (at player-01 pos-06-08) (clear pos-06-07)
    add: (at player-01 pos-06-07) (clear pos-06-08)
    del: (at player-01 pos-06-08) (clear pos-06-07)
  (move player-01 pos-07-06 pos-07-07 dir-down), cost: 0
    pre: (at player-01 pos-07-06) (clear pos-07-07)
    add: (at player-01 pos-07-07) (clear pos-07-06)
    del: (at player-01 pos-07-06) (clear pos-07-07)
  (move player-01 pos-07-06 pos-08-06 dir-right), cost: 0
    pre: (at player-01 pos-07-06) (clear pos-08-06)
    add: (at player-01 pos-08-06) (clear pos-07-06)
    del: (at player-01 pos-07-06) (clear pos-08-06)
  (move player-01 pos-07-07 pos-06-07 dir-left), cost: 0
    pre: (at player-01 pos-07-07) (clear pos-06-07)
    add: (at player-01 pos-06-07) (clear pos-07-07)
    del: (at player-01 pos-07-07) (clear pos-06-07)
  (move player-01 pos-07-07 pos-07-06 dir-up), cost: 0
    pre: (at player-01 pos-07-07) (clear pos-07-06)
    add: (at player-01 pos-07-06) (clear pos-07-07)
    del: (at player-01 pos-07-07) (clear pos-07-06)
  (move player-01 pos-07-07 pos-08-07 dir-right), cost: 0
    pre: (at player-01 pos-07-07) (clear pos-08-07)
    add: (at player-01 pos-08-07) (clear pos-07-07)
    del: (at player-01 pos-07-07) (clear pos-08-07)
  (move player-01 pos-08-06 pos-07-06 dir-left), cost: 0
    pre: (at player-01 pos-08-06) (clear pos-07-06)
    add: (at player-01 pos-07-06) (clear pos-08-06)
    del: (at player-01 pos-08-06) (clear pos-07-06)
  (move player-01 pos-08-06 pos-08-07 dir-down), cost: 0
    pre: (at player-01 pos-08-06) (clear pos-08-07)
    add: (at player-01 pos-08-07) (clear pos-08-06)
    del: (at player-01 pos-08-06) (clear pos-08-07)
  (move player-01 pos-08-06 pos-09-06 dir-right), cost: 0
    pre: (at player-01 pos-08-06) (clear pos-09-06)
    add: (at player-01 pos-09-06) (clear pos-08-06)
    del: (at player-01 pos-08-06) (clear pos-09-06)
  (move player-01 pos-08-07 pos-07-07 dir-left), cost: 0
    pre: (at player-01 pos-08-07) (clear pos-07-07)
    add: (at player-01 pos-07-07) (clear pos-08-07)
    del: (at player-01 pos-08-07) (clear pos-07-07)
  (move player-01 pos-08-07 pos-08-06 dir-up), cost: 0
    pre: (at player-01 pos-08-07) (clear pos-08-06)
    add: (at player-01 pos-08-06) (clear pos-08-07)
    del: (at player-01 pos-08-07) (clear pos-08-06)
  (move player-01 pos-08-07 pos-09-07 dir-right), cost: 0
    pre: (at player-01 pos-08-07) (clear pos-09-07)
    add: (at player-01 pos-09-07) (clear pos-08-07)
    del: (at player-01 pos-08-07) (clear pos-09-07)
  (move player-01 pos-09-06 pos-08-06 dir-left), cost: 0
    pre: (at player-01 pos-09-06) (clear pos-08-06)
    add: (at player-01 pos-08-06) (clear pos-09-06)
    del: (at player-01 pos-09-06) (clear pos-08-06)
  (move player-01 pos-09-06 pos-09-07 dir-down), cost: 0
    pre: (at player-01 pos-09-06) (clear pos-09-07)
    add: (at player-01 pos-09-07) (clear pos-09-06)
    del: (at player-01 pos-09-06) (clear pos-09-07)
  (move player-01 pos-09-07 pos-08-07 dir-left), cost: 0
    pre: (at player-01 pos-09-07) (clear pos-08-07)
    add: (at player-01 pos-08-07) (clear pos-09-07)
    del: (at player-01 pos-09-07) (clear pos-08-07)
  (move player-01 pos-09-07 pos-09-06 dir-up), cost: 0
    pre: (at player-01 pos-09-07) (clear pos-09-06)
    add: (at player-01 pos-09-06) (clear pos-09-07)
    del: (at player-01 pos-09-07) (clear pos-09-06)
  (push-to-goal player-01 stone-01 pos-05-03 pos-05-04 pos-05-05 dir-down), cost: 1
    pre: (at player-01 pos-05-03) (at stone-01 pos-05-04) (clear pos-05-05)
    add: (at player-01 pos-05-04) (at stone-01 pos-05-05) (at-goal stone-01) (clear pos-05-03)
    del: (at player-01 pos-05-03) (at stone-01 pos-05-04) (clear pos-05-05)
  (push-to-goal player-01 stone-01 pos-05-04 pos-05-05 pos-05-06 dir-down), cost: 1
    pre: (at player-01 pos-05-04) (at stone-01 pos-05-05) (clear pos-05-06)
    add: (at player-01 pos-05-05) (at stone-01 pos-05-06) (at-goal stone-01) (clear pos-05-04)
    del: (at player-01 pos-05-04) (at stone-01 pos-05-05) (clear pos-05-06)
  (push-to-goal player-01 stone-01 pos-05-05 pos-05-06 pos-05-07 dir-down), cost: 1
    pre: (at player-01 pos-05-05) (at stone-01 pos-05-06) (clear pos-05-07)
    add: (at player-01 pos-05-06) (at stone-01 pos-05-07) (at-goal stone-01) (clear pos-05-05)
    del: (at player-01 pos-05-05) (at stone-01 pos-05-06) (clear pos-05-07)
  (push-to-goal player-01 stone-01 pos-05-06 pos-05-07 pos-05-08 dir-down), cost: 1
    pre: (at player-01 pos-05-06) (at stone-01 pos-05-07) (clear pos-05-08)
    add: (at player-01 pos-05-07) (at-goal stone-01) (clear pos-05-06)
    del: (at player-01 pos-05-06) (at stone-01 pos-05-07) (clear pos-05-08)
  (push-to-goal player-01 stone-02 pos-05-03 pos-05-04 pos-05-05 dir-down), cost: 1
    pre: (at player-01 pos-05-03) (at stone-02 pos-05-04) (clear pos-05-05)
    add: (at player-01 pos-05-04) (at stone-02 pos-05-05) (at-goal stone-02) (clear pos-05-03)
    del: (at player-01 pos-05-03) (at stone-02 pos-05-04) (clear pos-05-05)
  (push-to-goal player-01 stone-02 pos-05-04 pos-05-05 pos-05-06 dir-down), cost: 1
    pre: (at player-01 pos-05-04) (at stone-02 pos-05-05) (clear pos-05-06)
    add: (at player-01 pos-05-05) (at stone-02 pos-05-06) (at-goal stone-02) (clear pos-05-04)
    del: (at player-01 pos-05-04) (at stone-02 pos-05-05) (clear pos-05-06)
  (push-to-goal player-01 stone-02 pos-05-05 pos-05-06 pos-05-07 dir-down), cost: 1
    pre: (at player-01 pos-05-05) (at stone-02 pos-05-06) (clear pos-05-07)
    add: (at player-01 pos-05-06) (at stone-02 pos-05-07) (at-goal stone-02) (clear pos-05-05)
    del: (at player-01 pos-05-05) (at stone-02 pos-05-06) (clear pos-05-07)
  (push-to-goal player-01 stone-02 pos-05-06 pos-05-07 pos-05-08 dir-down), cost: 1
    pre: (at player-01 pos-05-06) (at stone-02 pos-05-07) (clear pos-05-08)
    add: (at player-01 pos-05-07) (at-goal stone-02) (clear pos-05-06)
    del: (at player-01 pos-05-06) (at stone-02 pos-05-07) (clear pos-05-08)
  (push-to-goal player-01 stone-03 pos-05-03 pos-05-04 pos-05-05 dir-down), cost: 1
    pre: (at player-01 pos-05-03) (at stone-03 pos-05-04) (clear pos-05-05)
    add: (at player-01 pos-05-04) (at stone-03 pos-05-05) (at-goal stone-03) (clear pos-05-03)
    del: (at player-01 pos-05-03) (at stone-03 pos-05-04) (clear pos-05-05)
  (push-to-goal player-01 stone-03 pos-05-04 pos-05-05 pos-05-06 dir-down), cost: 1
    pre: (at player-01 pos-05-04) (at stone-03 pos-05-05) (clear pos-05-06)
    add: (at player-01 pos-05-05) (at stone-03 pos-05-06) (at-goal stone-03) (clear pos-05-04)
    del: (at player-01 pos-05-04) (at stone-03 pos-05-05) (clear pos-05-06)
  (push-to-goal player-01 stone-03 pos-05-05 pos-05-06 pos-05-07 dir-down), cost: 1
    pre: (at player-01 pos-05-05) (at stone-03 pos-05-06) (clear pos-05-07)
    add: (at player-01 pos-05-06) (at stone-03 pos-05-07) (at-goal stone-03) (clear pos-05-05)
    del: (at player-01 pos-05-05) (at stone-03 pos-05-06) (clear pos-05-07)
  (push-to-goal player-01 stone-03 pos-05-06 pos-05-07 pos-05-08 dir-down), cost: 1
    pre: (at player-01 pos-05-06) (at stone-03 pos-05-07) (clear pos-05-08)
    add: (at player-01 pos-05-07) (at-goal stone-03) (clear pos-05-06)
    del: (at player-01 pos-05-06) (at stone-03 pos-05-07) (clear pos-05-08)
  (push-to-goal player-01 stone-04 pos-05-03 pos-05-04 pos-05-05 dir-down), cost: 1
    pre: (at player-01 pos-05-03) (at stone-04 pos-05-04) (clear pos-05-05)
    add: (at player-01 pos-05-04) (at stone-04 pos-05-05) (at-goal stone-04) (clear pos-05-03)
    del: (at player-01 pos-05-03) (at stone-04 pos-05-04) (clear pos-05-05)
  (push-to-goal player-01 stone-04 pos-05-04 pos-05-05 pos-05-06 dir-down), cost: 1
    pre: (at player-01 pos-05-04) (at stone-04 pos-05-05) (clear pos-05-06)
    add: (at player-01 pos-05-05) (at stone-04 pos-05-06) (at-goal stone-04) (clear pos-05-04)
    del: (at player-01 pos-05-04) (at stone-04 pos-05-05) (clear pos-05-06)
  (push-to-goal player-01 stone-04 pos-05-05 pos-05-06 pos-05-07 dir-down), cost: 1
    pre: (at player-01 pos-05-05) (at stone-04 pos-05-06) (clear pos-05-07)
    add: (at player-01 pos-05-06) (at stone-04 pos-05-07) (at-goal stone-04) (clear pos-05-05)
    del: (at player-01 pos-05-05) (at stone-04 pos-05-06) (clear pos-05-07)
  (push-to-goal player-01 stone-04 pos-05-06 pos-05-07 pos-05-08 dir-down), cost: 1
    pre: (at player-01 pos-05-06) (at stone-04 pos-05-07) (clear pos-05-08)
    add: (at player-01 pos-05-07) (at-goal stone-04) (clear pos-05-06)
    del: (at player-01 pos-05-06) (at stone-04 pos-05-07) (clear pos-05-08)
  (push-to-goal player-01 stone-04 pos-05-07 pos-05-06 pos-05-05 dir-up), cost: 1
    pre: (at player-01 pos-05-07) (at stone-04 pos-05-06) (clear pos-05-05)
    add: (at player-01 pos-05-06) (at stone-04 pos-05-05) (at-goal stone-04) (clear pos-05-07)
    del: (at player-01 pos-05-07) (at stone-04 pos-05-06) (clear pos-05-05)
  (push-to-goal player-01 stone-04 pos-05-08 pos-05-07 pos-05-06 dir-up), cost: 1
    pre: (at player-01 pos-05-08) (at stone-04 pos-05-07) (clear pos-05-06)
    add: (at player-01 pos-05-07) (at stone-04 pos-05-06) (at-goal stone-04) (clear pos-05-08)
    del: (at player-01 pos-05-08) (at stone-04 pos-05-07) (clear pos-05-06)
  (push-to-goal player-01 stone-04 pos-07-07 pos-06-07 pos-05-07 dir-left), cost: 1
    pre: (at player-01 pos-07-07) (at stone-04 pos-06-07) (clear pos-05-07)
    add: (at player-01 pos-06-07) (at stone-04 pos-05-07) (at-goal stone-04) (clear pos-07-07)
    del: (at player-01 pos-07-07) (at stone-04 pos-06-07) (clear pos-05-07)
  (push-to-nongoal player-01 stone-01 pos-02-03 pos-03-03 pos-04-03 dir-right), cost: 1
    pre: (at player-01 pos-02-03) (at stone-01 pos-03-03) (clear pos-04-03)
    add: (at player-01 pos-03-03) (at stone-01 pos-04-03) (clear pos-02-03)
    del: (at player-01 pos-02-03) (at stone-01 pos-03-03) (clear pos-04-03)
  (push-to-nongoal player-01 stone-01 pos-02-04 pos-03-04 pos-04-04 dir-right), cost: 1
    pre: (at player-01 pos-02-04) (at stone-01 pos-03-04) (clear pos-04-04)
    add: (at player-01 pos-03-04) (at stone-01 pos-04-04) (clear pos-02-04)
    del: (at player-01 pos-02-04) (at stone-01 pos-03-04) (clear pos-04-04)
  (push-to-nongoal player-01 stone-01 pos-03-02 pos-03-03 pos-03-04 dir-down), cost: 1
    pre: (at player-01 pos-03-02) (at stone-01 pos-03-03) (clear pos-03-04)
    add: (at player-01 pos-03-03) (at stone-01 pos-03-04) (clear pos-03-02)
    del: (at player-01 pos-03-02) (at stone-01 pos-03-03) (clear pos-03-04)
  (push-to-nongoal player-01 stone-01 pos-03-02 pos-04-02 pos-05-02 dir-right), cost: 1
    pre: (at player-01 pos-03-02) (at stone-01 pos-04-02) (clear pos-05-02)
    add: (at player-01 pos-04-02) (at stone-01 pos-05-02) (clear pos-03-02)
    del: (at player-01 pos-03-02) (at stone-01 pos-04-02) (clear pos-05-02)
  (push-to-nongoal player-01 stone-01 pos-03-03 pos-04-03 pos-05-03 dir-right), cost: 1
    pre: (at player-01 pos-03-03) (at stone-01 pos-04-03) (clear pos-05-03)
    add: (at player-01 pos-04-03) (at stone-01 pos-05-03) (clear pos-03-03)
    del: (at player-01 pos-03-03) (at stone-01 pos-04-03) (clear pos-05-03)
  (push-to-nongoal player-01 stone-01 pos-03-04 pos-03-03 pos-03-02 dir-up), cost: 1
    pre: (at player-01 pos-03-04) (at stone-01 pos-03-03) (clear pos-03-02)
    add: (at player-01 pos-03-03) (clear pos-03-04)
    del: (at player-01 pos-03-04) (at stone-01 pos-03-03) (clear pos-03-02)
  (push-to-nongoal player-01 stone-01 pos-03-04 pos-04-04 pos-05-04 dir-right), cost: 1
    pre: (at player-01 pos-03-04) (at stone-01 pos-04-04) (clear pos-05-04)
    add: (at player-01 pos-04-04) (at stone-01 pos-05-04) (clear pos-03-04)
    del: (at player-01 pos-03-04) (at stone-01 pos-04-04) (clear pos-05-04)
  (push-to-nongoal player-01 stone-01 pos-04-02 pos-04-03 pos-04-04 dir-down), cost: 1
    pre: (at player-01 pos-04-02) (at stone-01 pos-04-03) (clear pos-04-04)
    add: (at player-01 pos-04-03) (at stone-01 pos-04-04) (clear pos-04-02)
    del: (at player-01 pos-04-02) (at stone-01 pos-04-03) (clear pos-04-04)
  (push-to-nongoal player-01 stone-01 pos-04-02 pos-05-02 pos-06-02 dir-right), cost: 1
    pre: (at player-01 pos-04-02) (at stone-01 pos-05-02) (clear pos-06-02)
    add: (at player-01 pos-05-02) (clear pos-04-02)
    del: (at player-01 pos-04-02) (at stone-01 pos-05-02) (clear pos-06-02)
  (push-to-nongoal player-01 stone-01 pos-04-03 pos-03-03 pos-02-03 dir-left), cost: 1
    pre: (at player-01 pos-04-03) (at stone-01 pos-03-03) (clear pos-02-03)
    add: (at player-01 pos-03-03) (clear pos-04-03)
    del: (at player-01 pos-04-03) (at stone-01 pos-03-03) (clear pos-02-03)
  (push-to-nongoal player-01 stone-01 pos-04-03 pos-04-04 pos-04-05 dir-down), cost: 1
    pre: (at player-01 pos-04-03) (at stone-01 pos-04-04) (clear pos-04-05)
    add: (at player-01 pos-04-04) (clear pos-04-03)
    del: (at player-01 pos-04-03) (at stone-01 pos-04-04) (clear pos-04-05)
  (push-to-nongoal player-01 stone-01 pos-04-03 pos-05-03 pos-06-03 dir-right), cost: 1
    pre: (at player-01 pos-04-03) (at stone-01 pos-05-03) (clear pos-06-03)
    add: (at player-01 pos-05-03) (at stone-01 pos-06-03) (clear pos-04-03)
    del: (at player-01 pos-04-03) (at stone-01 pos-05-03) (clear pos-06-03)
  (push-to-nongoal player-01 stone-01 pos-04-04 pos-03-04 pos-02-04 dir-left), cost: 1
    pre: (at player-01 pos-04-04) (at stone-01 pos-03-04) (clear pos-02-04)
    add: (at player-01 pos-03-04) (clear pos-04-04)
    del: (at player-01 pos-04-04) (at stone-01 pos-03-04) (clear pos-02-04)
  (push-to-nongoal player-01 stone-01 pos-04-04 pos-04-03 pos-04-02 dir-up), cost: 1
    pre: (at player-01 pos-04-04) (at stone-01 pos-04-03) (clear pos-04-02)
    add: (at player-01 pos-04-03) (at stone-01 pos-04-02) (clear pos-04-04)
    del: (at player-01 pos-04-04) (at stone-01 pos-04-03) (clear pos-04-02)
  (push-to-nongoal player-01 stone-01 pos-04-04 pos-05-04 pos-06-04 dir-right), cost: 1
    pre: (at player-01 pos-04-04) (at stone-01 pos-05-04) (clear pos-06-04)
    add: (at player-01 pos-05-04) (clear pos-04-04)
    del: (at player-01 pos-04-04) (at stone-01 pos-05-04) (clear pos-06-04)
  (push-to-nongoal player-01 stone-01 pos-04-05 pos-04-04 pos-04-03 dir-up), cost: 1
    pre: (at player-01 pos-04-05) (at stone-01 pos-04-04) (clear pos-04-03)
    add: (at player-01 pos-04-04) (at stone-01 pos-04-03) (clear pos-04-05)
    del: (at player-01 pos-04-05) (at stone-01 pos-04-04) (clear pos-04-03)
  (push-to-nongoal player-01 stone-01 pos-05-02 pos-04-02 pos-03-02 dir-left), cost: 1
    pre: (at player-01 pos-05-02) (at stone-01 pos-04-02) (clear pos-03-02)
    add: (at player-01 pos-04-02) (clear pos-05-02)
    del: (at player-01 pos-05-02) (at stone-01 pos-04-02) (clear pos-03-02)
  (push-to-nongoal player-01 stone-01 pos-05-02 pos-05-03 pos-05-04 dir-down), cost: 1
    pre: (at player-01 pos-05-02) (at stone-01 pos-05-03) (clear pos-05-04)
    add: (at player-01 pos-05-03) (at stone-01 pos-05-04) (clear pos-05-02)
    del: (at player-01 pos-05-02) (at stone-01 pos-05-03) (clear pos-05-04)
  (push-to-nongoal player-01 stone-01 pos-05-03 pos-04-03 pos-03-03 dir-left), cost: 1
    pre: (at player-01 pos-05-03) (at stone-01 pos-04-03) (clear pos-03-03)
    add: (at player-01 pos-04-03) (at stone-01 pos-03-03) (clear pos-05-03)
    del: (at player-01 pos-05-03) (at stone-01 pos-04-03) (clear pos-03-03)
  (push-to-nongoal player-01 stone-01 pos-05-04 pos-04-04 pos-03-04 dir-left), cost: 1
    pre: (at player-01 pos-05-04) (at stone-01 pos-04-04) (clear pos-03-04)
    add: (at player-01 pos-04-04) (at stone-01 pos-03-04) (clear pos-05-04)
    del: (at player-01 pos-05-04) (at stone-01 pos-04-04) (clear pos-03-04)
  (push-to-nongoal player-01 stone-01 pos-05-04 pos-05-03 pos-05-02 dir-up), cost: 1
    pre: (at player-01 pos-05-04) (at stone-01 pos-05-03) (clear pos-05-02)
    add: (at player-01 pos-05-03) (at stone-01 pos-05-02) (clear pos-05-04)
    del: (at player-01 pos-05-04) (at stone-01 pos-05-03) (clear pos-05-02)
  (push-to-nongoal player-01 stone-01 pos-05-05 pos-05-04 pos-05-03 dir-up), cost: 1
    pre: (at player-01 pos-05-05) (at stone-01 pos-05-04) (clear pos-05-03)
    add: (at player-01 pos-05-04) (at stone-01 pos-05-03) (clear pos-05-05)
    del: (at player-01 pos-05-05) (at stone-01 pos-05-04) (clear pos-05-03)
  (push-to-nongoal player-01 stone-01 pos-06-02 pos-05-02 pos-04-02 dir-left), cost: 1
    pre: (at player-01 pos-06-02) (at stone-01 pos-05-02) (clear pos-04-02)
    add: (at player-01 pos-05-02) (at stone-01 pos-04-02) (clear pos-06-02)
    del: (at player-01 pos-06-02) (at stone-01 pos-05-02) (clear pos-04-02)
  (push-to-nongoal player-01 stone-01 pos-06-02 pos-06-03 pos-06-04 dir-down), cost: 1
    pre: (at player-01 pos-06-02) (at stone-01 pos-06-03) (clear pos-06-04)
    add: (at player-01 pos-06-03) (clear pos-06-02)
    del: (at player-01 pos-06-02) (at stone-01 pos-06-03) (clear pos-06-04)
  (push-to-nongoal player-01 stone-01 pos-06-03 pos-05-03 pos-04-03 dir-left), cost: 1
    pre: (at player-01 pos-06-03) (at stone-01 pos-05-03) (clear pos-04-03)
    add: (at player-01 pos-05-03) (at stone-01 pos-04-03) (clear pos-06-03)
    del: (at player-01 pos-06-03) (at stone-01 pos-05-03) (clear pos-04-03)
  (push-to-nongoal player-01 stone-01 pos-06-04 pos-05-04 pos-04-04 dir-left), cost: 1
    pre: (at player-01 pos-06-04) (at stone-01 pos-05-04) (clear pos-04-04)
    add: (at player-01 pos-05-04) (at stone-01 pos-04-04) (clear pos-06-04)
    del: (at player-01 pos-06-04) (at stone-01 pos-05-04) (clear pos-04-04)
  (push-to-nongoal player-01 stone-01 pos-06-04 pos-06-03 pos-06-02 dir-up), cost: 1
    pre: (at player-01 pos-06-04) (at stone-01 pos-06-03) (clear pos-06-02)
    add: (at player-01 pos-06-03) (clear pos-06-04)
    del: (at player-01 pos-06-04) (at stone-01 pos-06-03) (clear pos-06-02)
  (push-to-nongoal player-01 stone-02 pos-02-03 pos-03-03 pos-04-03 dir-right), cost: 1
    pre: (at player-01 pos-02-03) (at stone-02 pos-03-03) (clear pos-04-03)
    add: (at player-01 pos-03-03) (at stone-02 pos-04-03) (clear pos-02-03)
    del: (at player-01 pos-02-03) (at stone-02 pos-03-03) (clear pos-04-03)
  (push-to-nongoal player-01 stone-02 pos-02-04 pos-03-04 pos-04-04 dir-right), cost: 1
    pre: (at player-01 pos-02-04) (at stone-02 pos-03-04) (clear pos-04-04)
    add: (at player-01 pos-03-04) (at stone-02 pos-04-04) (clear pos-02-04)
    del: (at player-01 pos-02-04) (at stone-02 pos-03-04) (clear pos-04-04)
  (push-to-nongoal player-01 stone-02 pos-03-02 pos-03-03 pos-03-04 dir-down), cost: 1
    pre: (at player-01 pos-03-02) (at stone-02 pos-03-03) (clear pos-03-04)
    add: (at player-01 pos-03-03) (at stone-02 pos-03-04) (clear pos-03-02)
    del: (at player-01 pos-03-02) (at stone-02 pos-03-03) (clear pos-03-04)
  (push-to-nongoal player-01 stone-02 pos-03-02 pos-04-02 pos-05-02 dir-right), cost: 1
    pre: (at player-01 pos-03-02) (at stone-02 pos-04-02) (clear pos-05-02)
    add: (at player-01 pos-04-02) (at stone-02 pos-05-02) (clear pos-03-02)
    del: (at player-01 pos-03-02) (at stone-02 pos-04-02) (clear pos-05-02)
  (push-to-nongoal player-01 stone-02 pos-03-03 pos-04-03 pos-05-03 dir-right), cost: 1
    pre: (at player-01 pos-03-03) (at stone-02 pos-04-03) (clear pos-05-03)
    add: (at player-01 pos-04-03) (at stone-02 pos-05-03) (clear pos-03-03)
    del: (at player-01 pos-03-03) (at stone-02 pos-04-03) (clear pos-05-03)
  (push-to-nongoal player-01 stone-02 pos-03-04 pos-03-03 pos-03-02 dir-up), cost: 1
    pre: (at player-01 pos-03-04) (at stone-02 pos-03-03) (clear pos-03-02)
    add: (at player-01 pos-03-03) (clear pos-03-04)
    del: (at player-01 pos-03-04) (at stone-02 pos-03-03) (clear pos-03-02)
  (push-to-nongoal player-01 stone-02 pos-03-04 pos-04-04 pos-05-04 dir-right), cost: 1
    pre: (at player-01 pos-03-04) (at stone-02 pos-04-04) (clear pos-05-04)
    add: (at player-01 pos-04-04) (at stone-02 pos-05-04) (clear pos-03-04)
    del: (at player-01 pos-03-04) (at stone-02 pos-04-04) (clear pos-05-04)
  (push-to-nongoal player-01 stone-02 pos-04-02 pos-04-03 pos-04-04 dir-down), cost: 1
    pre: (at player-01 pos-04-02) (at stone-02 pos-04-03) (clear pos-04-04)
    add: (at player-01 pos-04-03) (at stone-02 pos-04-04) (clear pos-04-02)
    del: (at player-01 pos-04-02) (at stone-02 pos-04-03) (clear pos-04-04)
  (push-to-nongoal player-01 stone-02 pos-04-02 pos-05-02 pos-06-02 dir-right), cost: 1
    pre: (at player-01 pos-04-02) (at stone-02 pos-05-02) (clear pos-06-02)
    add: (at player-01 pos-05-02) (clear pos-04-02)
    del: (at player-01 pos-04-02) (at stone-02 pos-05-02) (clear pos-06-02)
  (push-to-nongoal player-01 stone-02 pos-04-03 pos-03-03 pos-02-03 dir-left), cost: 1
    pre: (at player-01 pos-04-03) (at stone-02 pos-03-03) (clear pos-02-03)
    add: (at player-01 pos-03-03) (clear pos-04-03)
    del: (at player-01 pos-04-03) (at stone-02 pos-03-03) (clear pos-02-03)
  (push-to-nongoal player-01 stone-02 pos-04-03 pos-04-04 pos-04-05 dir-down), cost: 1
    pre: (at player-01 pos-04-03) (at stone-02 pos-04-04) (clear pos-04-05)
    add: (at player-01 pos-04-04) (clear pos-04-03)
    del: (at player-01 pos-04-03) (at stone-02 pos-04-04) (clear pos-04-05)
  (push-to-nongoal player-01 stone-02 pos-04-03 pos-05-03 pos-06-03 dir-right), cost: 1
    pre: (at player-01 pos-04-03) (at stone-02 pos-05-03) (clear pos-06-03)
    add: (at player-01 pos-05-03) (at stone-02 pos-06-03) (clear pos-04-03)
    del: (at player-01 pos-04-03) (at stone-02 pos-05-03) (clear pos-06-03)
  (push-to-nongoal player-01 stone-02 pos-04-04 pos-03-04 pos-02-04 dir-left), cost: 1
    pre: (at player-01 pos-04-04) (at stone-02 pos-03-04) (clear pos-02-04)
    add: (at player-01 pos-03-04) (clear pos-04-04)
    del: (at player-01 pos-04-04) (at stone-02 pos-03-04) (clear pos-02-04)
  (push-to-nongoal player-01 stone-02 pos-04-04 pos-04-03 pos-04-02 dir-up), cost: 1
    pre: (at player-01 pos-04-04) (at stone-02 pos-04-03) (clear pos-04-02)
    add: (at player-01 pos-04-03) (at stone-02 pos-04-02) (clear pos-04-04)
    del: (at player-01 pos-04-04) (at stone-02 pos-04-03) (clear pos-04-02)
  (push-to-nongoal player-01 stone-02 pos-04-04 pos-05-04 pos-06-04 dir-right), cost: 1
    pre: (at player-01 pos-04-04) (at stone-02 pos-05-04) (clear pos-06-04)
    add: (at player-01 pos-05-04) (clear pos-04-04)
    del: (at player-01 pos-04-04) (at stone-02 pos-05-04) (clear pos-06-04)
  (push-to-nongoal player-01 stone-02 pos-04-05 pos-04-04 pos-04-03 dir-up), cost: 1
    pre: (at player-01 pos-04-05) (at stone-02 pos-04-04) (clear pos-04-03)
    add: (at player-01 pos-04-04) (at stone-02 pos-04-03) (clear pos-04-05)
    del: (at player-01 pos-04-05) (at stone-02 pos-04-04) (clear pos-04-03)
  (push-to-nongoal player-01 stone-02 pos-05-02 pos-04-02 pos-03-02 dir-left), cost: 1
    pre: (at player-01 pos-05-02) (at stone-02 pos-04-02) (clear pos-03-02)
    add: (at player-01 pos-04-02) (clear pos-05-02)
    del: (at player-01 pos-05-02) (at stone-02 pos-04-02) (clear pos-03-02)
  (push-to-nongoal player-01 stone-02 pos-05-02 pos-05-03 pos-05-04 dir-down), cost: 1
    pre: (at player-01 pos-05-02) (at stone-02 pos-05-03) (clear pos-05-04)
    add: (at player-01 pos-05-03) (at stone-02 pos-05-04) (clear pos-05-02)
    del: (at player-01 pos-05-02) (at stone-02 pos-05-03) (clear pos-05-04)
  (push-to-nongoal player-01 stone-02 pos-05-03 pos-04-03 pos-03-03 dir-left), cost: 1
    pre: (at player-01 pos-05-03) (at stone-02 pos-04-03) (clear pos-03-03)
    add: (at player-01 pos-04-03) (at stone-02 pos-03-03) (clear pos-05-03)
    del: (at player-01 pos-05-03) (at stone-02 pos-04-03) (clear pos-03-03)
  (push-to-nongoal player-01 stone-02 pos-05-04 pos-04-04 pos-03-04 dir-left), cost: 1
    pre: (at player-01 pos-05-04) (at stone-02 pos-04-04) (clear pos-03-04)
    add: (at player-01 pos-04-04) (at stone-02 pos-03-04) (clear pos-05-04)
    del: (at player-01 pos-05-04) (at stone-02 pos-04-04) (clear pos-03-04)
  (push-to-nongoal player-01 stone-02 pos-05-04 pos-05-03 pos-05-02 dir-up), cost: 1
    pre: (at player-01 pos-05-04) (at stone-02 pos-05-03) (clear pos-05-02)
    add: (at player-01 pos-05-03) (at stone-02 pos-05-02) (clear pos-05-04)
    del: (at player-01 pos-05-04) (at stone-02 pos-05-03) (clear pos-05-02)
  (push-to-nongoal player-01 stone-02 pos-05-05 pos-05-04 pos-05-03 dir-up), cost: 1
    pre: (at player-01 pos-05-05) (at stone-02 pos-05-04) (clear pos-05-03)
    add: (at player-01 pos-05-04) (at stone-02 pos-05-03) (clear pos-05-05)
    del: (at player-01 pos-05-05) (at stone-02 pos-05-04) (clear pos-05-03)
  (push-to-nongoal player-01 stone-02 pos-06-02 pos-05-02 pos-04-02 dir-left), cost: 1
    pre: (at player-01 pos-06-02) (at stone-02 pos-05-02) (clear pos-04-02)
    add: (at player-01 pos-05-02) (at stone-02 pos-04-02) (clear pos-06-02)
    del: (at player-01 pos-06-02) (at stone-02 pos-05-02) (clear pos-04-02)
  (push-to-nongoal player-01 stone-02 pos-06-02 pos-06-03 pos-06-04 dir-down), cost: 1
    pre: (at player-01 pos-06-02) (at stone-02 pos-06-03) (clear pos-06-04)
    add: (at player-01 pos-06-03) (clear pos-06-02)
    del: (at player-01 pos-06-02) (at stone-02 pos-06-03) (clear pos-06-04)
  (push-to-nongoal player-01 stone-02 pos-06-03 pos-05-03 pos-04-03 dir-left), cost: 1
    pre: (at player-01 pos-06-03) (at stone-02 pos-05-03) (clear pos-04-03)
    add: (at player-01 pos-05-03) (at stone-02 pos-04-03) (clear pos-06-03)
    del: (at player-01 pos-06-03) (at stone-02 pos-05-03) (clear pos-04-03)
  (push-to-nongoal player-01 stone-02 pos-06-04 pos-05-04 pos-04-04 dir-left), cost: 1
    pre: (at player-01 pos-06-04) (at stone-02 pos-05-04) (clear pos-04-04)
    add: (at player-01 pos-05-04) (at stone-02 pos-04-04) (clear pos-06-04)
    del: (at player-01 pos-06-04) (at stone-02 pos-05-04) (clear pos-04-04)
  (push-to-nongoal player-01 stone-02 pos-06-04 pos-06-03 pos-06-02 dir-up), cost: 1
    pre: (at player-01 pos-06-04) (at stone-02 pos-06-03) (clear pos-06-02)
    add: (at player-01 pos-06-03) (clear pos-06-04)
    del: (at player-01 pos-06-04) (at stone-02 pos-06-03) (clear pos-06-02)
  (push-to-nongoal player-01 stone-03 pos-02-03 pos-03-03 pos-04-03 dir-right), cost: 1
    pre: (at player-01 pos-02-03) (at stone-03 pos-03-03) (clear pos-04-03)
    add: (at player-01 pos-03-03) (at stone-03 pos-04-03) (clear pos-02-03)
    del: (at player-01 pos-02-03) (at stone-03 pos-03-03) (clear pos-04-03)
  (push-to-nongoal player-01 stone-03 pos-02-04 pos-03-04 pos-04-04 dir-right), cost: 1
    pre: (at player-01 pos-02-04) (at stone-03 pos-03-04) (clear pos-04-04)
    add: (at player-01 pos-03-04) (at stone-03 pos-04-04) (clear pos-02-04)
    del: (at player-01 pos-02-04) (at stone-03 pos-03-04) (clear pos-04-04)
  (push-to-nongoal player-01 stone-03 pos-03-02 pos-03-03 pos-03-04 dir-down), cost: 1
    pre: (at player-01 pos-03-02) (at stone-03 pos-03-03) (clear pos-03-04)
    add: (at player-01 pos-03-03) (at stone-03 pos-03-04) (clear pos-03-02)
    del: (at player-01 pos-03-02) (at stone-03 pos-03-03) (clear pos-03-04)
  (push-to-nongoal player-01 stone-03 pos-03-02 pos-04-02 pos-05-02 dir-right), cost: 1
    pre: (at player-01 pos-03-02) (at stone-03 pos-04-02) (clear pos-05-02)
    add: (at player-01 pos-04-02) (at stone-03 pos-05-02) (clear pos-03-02)
    del: (at player-01 pos-03-02) (at stone-03 pos-04-02) (clear pos-05-02)
  (push-to-nongoal player-01 stone-03 pos-03-03 pos-04-03 pos-05-03 dir-right), cost: 1
    pre: (at player-01 pos-03-03) (at stone-03 pos-04-03) (clear pos-05-03)
    add: (at player-01 pos-04-03) (at stone-03 pos-05-03) (clear pos-03-03)
    del: (at player-01 pos-03-03) (at stone-03 pos-04-03) (clear pos-05-03)
  (push-to-nongoal player-01 stone-03 pos-03-04 pos-03-03 pos-03-02 dir-up), cost: 1
    pre: (at player-01 pos-03-04) (at stone-03 pos-03-03) (clear pos-03-02)
    add: (at player-01 pos-03-03) (clear pos-03-04)
    del: (at player-01 pos-03-04) (at stone-03 pos-03-03) (clear pos-03-02)
  (push-to-nongoal player-01 stone-03 pos-03-04 pos-04-04 pos-05-04 dir-right), cost: 1
    pre: (at player-01 pos-03-04) (at stone-03 pos-04-04) (clear pos-05-04)
    add: (at player-01 pos-04-04) (at stone-03 pos-05-04) (clear pos-03-04)
    del: (at player-01 pos-03-04) (at stone-03 pos-04-04) (clear pos-05-04)
  (push-to-nongoal player-01 stone-03 pos-04-02 pos-04-03 pos-04-04 dir-down), cost: 1
    pre: (at player-01 pos-04-02) (at stone-03 pos-04-03) (clear pos-04-04)
    add: (at player-01 pos-04-03) (at stone-03 pos-04-04) (clear pos-04-02)
    del: (at player-01 pos-04-02) (at stone-03 pos-04-03) (clear pos-04-04)
  (push-to-nongoal player-01 stone-03 pos-04-02 pos-05-02 pos-06-02 dir-right), cost: 1
    pre: (at player-01 pos-04-02) (at stone-03 pos-05-02) (clear pos-06-02)
    add: (at player-01 pos-05-02) (clear pos-04-02)
    del: (at player-01 pos-04-02) (at stone-03 pos-05-02) (clear pos-06-02)
  (push-to-nongoal player-01 stone-03 pos-04-03 pos-03-03 pos-02-03 dir-left), cost: 1
    pre: (at player-01 pos-04-03) (at stone-03 pos-03-03) (clear pos-02-03)
    add: (at player-01 pos-03-03) (clear pos-04-03)
    del: (at player-01 pos-04-03) (at stone-03 pos-03-03) (clear pos-02-03)
  (push-to-nongoal player-01 stone-03 pos-04-03 pos-04-04 pos-04-05 dir-down), cost: 1
    pre: (at player-01 pos-04-03) (at stone-03 pos-04-04) (clear pos-04-05)
    add: (at player-01 pos-04-04) (clear pos-04-03)
    del: (at player-01 pos-04-03) (at stone-03 pos-04-04) (clear pos-04-05)
  (push-to-nongoal player-01 stone-03 pos-04-03 pos-05-03 pos-06-03 dir-right), cost: 1
    pre: (at player-01 pos-04-03) (at stone-03 pos-05-03) (clear pos-06-03)
    add: (at player-01 pos-05-03) (at stone-03 pos-06-03) (clear pos-04-03)
    del: (at player-01 pos-04-03) (at stone-03 pos-05-03) (clear pos-06-03)
  (push-to-nongoal player-01 stone-03 pos-04-04 pos-03-04 pos-02-04 dir-left), cost: 1
    pre: (at player-01 pos-04-04) (at stone-03 pos-03-04) (clear pos-02-04)
    add: (at player-01 pos-03-04) (clear pos-04-04)
    del: (at player-01 pos-04-04) (at stone-03 pos-03-04) (clear pos-02-04)
  (push-to-nongoal player-01 stone-03 pos-04-04 pos-04-03 pos-04-02 dir-up), cost: 1
    pre: (at player-01 pos-04-04) (at stone-03 pos-04-03) (clear pos-04-02)
    add: (at player-01 pos-04-03) (at stone-03 pos-04-02) (clear pos-04-04)
    del: (at player-01 pos-04-04) (at stone-03 pos-04-03) (clear pos-04-02)
  (push-to-nongoal player-01 stone-03 pos-04-04 pos-05-04 pos-06-04 dir-right), cost: 1
    pre: (at player-01 pos-04-04) (at stone-03 pos-05-04) (clear pos-06-04)
    add: (at player-01 pos-05-04) (clear pos-04-04)
    del: (at player-01 pos-04-04) (at stone-03 pos-05-04) (clear pos-06-04)
  (push-to-nongoal player-01 stone-03 pos-04-05 pos-04-04 pos-04-03 dir-up), cost: 1
    pre: (at player-01 pos-04-05) (at stone-03 pos-04-04) (clear pos-04-03)
    add: (at player-01 pos-04-04) (at stone-03 pos-04-03) (clear pos-04-05)
    del: (at player-01 pos-04-05) (at stone-03 pos-04-04) (clear pos-04-03)
  (push-to-nongoal player-01 stone-03 pos-05-02 pos-04-02 pos-03-02 dir-left), cost: 1
    pre: (at player-01 pos-05-02) (at stone-03 pos-04-02) (clear pos-03-02)
    add: (at player-01 pos-04-02) (clear pos-05-02)
    del: (at player-01 pos-05-02) (at stone-03 pos-04-02) (clear pos-03-02)
  (push-to-nongoal player-01 stone-03 pos-05-02 pos-05-03 pos-05-04 dir-down), cost: 1
    pre: (at player-01 pos-05-02) (at stone-03 pos-05-03) (clear pos-05-04)
    add: (at player-01 pos-05-03) (at stone-03 pos-05-04) (clear pos-05-02)
    del: (at player-01 pos-05-02) (at stone-03 pos-05-03) (clear pos-05-04)
  (push-to-nongoal player-01 stone-03 pos-05-03 pos-04-03 pos-03-03 dir-left), cost: 1
    pre: (at player-01 pos-05-03) (at stone-03 pos-04-03) (clear pos-03-03)
    add: (at player-01 pos-04-03) (at stone-03 pos-03-03) (clear pos-05-03)
    del: (at player-01 pos-05-03) (at stone-03 pos-04-03) (clear pos-03-03)
  (push-to-nongoal player-01 stone-03 pos-05-04 pos-04-04 pos-03-04 dir-left), cost: 1
    pre: (at player-01 pos-05-04) (at stone-03 pos-04-04) (clear pos-03-04)
    add: (at player-01 pos-04-04) (at stone-03 pos-03-04) (clear pos-05-04)
    del: (at player-01 pos-05-04) (at stone-03 pos-04-04) (clear pos-03-04)
  (push-to-nongoal player-01 stone-03 pos-05-04 pos-05-03 pos-05-02 dir-up), cost: 1
    pre: (at player-01 pos-05-04) (at stone-03 pos-05-03) (clear pos-05-02)
    add: (at player-01 pos-05-03) (at stone-03 pos-05-02) (clear pos-05-04)
    del: (at player-01 pos-05-04) (at stone-03 pos-05-03) (clear pos-05-02)
  (push-to-nongoal player-01 stone-03 pos-05-05 pos-05-04 pos-05-03 dir-up), cost: 1
    pre: (at player-01 pos-05-05) (at stone-03 pos-05-04) (clear pos-05-03)
    add: (at player-01 pos-05-04) (at stone-03 pos-05-03) (clear pos-05-05)
    del: (at player-01 pos-05-05) (at stone-03 pos-05-04) (clear pos-05-03)
  (push-to-nongoal player-01 stone-03 pos-06-02 pos-05-02 pos-04-02 dir-left), cost: 1
    pre: (at player-01 pos-06-02) (at stone-03 pos-05-02) (clear pos-04-02)
    add: (at player-01 pos-05-02) (at stone-03 pos-04-02) (clear pos-06-02)
    del: (at player-01 pos-06-02) (at stone-03 pos-05-02) (clear pos-04-02)
  (push-to-nongoal player-01 stone-03 pos-06-02 pos-06-03 pos-06-04 dir-down), cost: 1
    pre: (at player-01 pos-06-02) (at stone-03 pos-06-03) (clear pos-06-04)
    add: (at player-01 pos-06-03) (clear pos-06-02)
    del: (at player-01 pos-06-02) (at stone-03 pos-06-03) (clear pos-06-04)
  (push-to-nongoal player-01 stone-03 pos-06-03 pos-05-03 pos-04-03 dir-left), cost: 1
    pre: (at player-01 pos-06-03) (at stone-03 pos-05-03) (clear pos-04-03)
    add: (at player-01 pos-05-03) (at stone-03 pos-04-03) (clear pos-06-03)
    del: (at player-01 pos-06-03) (at stone-03 pos-05-03) (clear pos-04-03)
  (push-to-nongoal player-01 stone-03 pos-06-04 pos-05-04 pos-04-04 dir-left), cost: 1
    pre: (at player-01 pos-06-04) (at stone-03 pos-05-04) (clear pos-04-04)
    add: (at player-01 pos-05-04) (at stone-03 pos-04-04) (clear pos-06-04)
    del: (at player-01 pos-06-04) (at stone-03 pos-05-04) (clear pos-04-04)
  (push-to-nongoal player-01 stone-03 pos-06-04 pos-06-03 pos-06-02 dir-up), cost: 1
    pre: (at player-01 pos-06-04) (at stone-03 pos-06-03) (clear pos-06-02)
    add: (at player-01 pos-06-03) (clear pos-06-04)
    del: (at player-01 pos-06-04) (at stone-03 pos-06-03) (clear pos-06-02)
  (push-to-nongoal player-01 stone-04 pos-02-03 pos-03-03 pos-04-03 dir-right), cost: 1
    pre: (at player-01 pos-02-03) (at stone-04 pos-03-03) (clear pos-04-03)
    add: (at player-01 pos-03-03) (at stone-04 pos-04-03) (clear pos-02-03)
    del: (at player-01 pos-02-03) (at stone-04 pos-03-03) (clear pos-04-03)
  (push-to-nongoal player-01 stone-04 pos-02-04 pos-03-04 pos-04-04 dir-right), cost: 1
    pre: (at player-01 pos-02-04) (at stone-04 pos-03-04) (clear pos-04-04)
    add: (at player-01 pos-03-04) (at stone-04 pos-04-04) (clear pos-02-04)
    del: (at player-01 pos-02-04) (at stone-04 pos-03-04) (clear pos-04-04)
  (push-to-nongoal player-01 stone-04 pos-03-02 pos-03-03 pos-03-04 dir-down), cost: 1
    pre: (at player-01 pos-03-02) (at stone-04 pos-03-03) (clear pos-03-04)
    add: (at player-01 pos-03-03) (at stone-04 pos-03-04) (clear pos-03-02)
    del: (at player-01 pos-03-02) (at stone-04 pos-03-03) (clear pos-03-04)
  (push-to-nongoal player-01 stone-04 pos-03-02 pos-04-02 pos-05-02 dir-right), cost: 1
    pre: (at player-01 pos-03-02) (at stone-04 pos-04-02) (clear pos-05-02)
    add: (at player-01 pos-04-02) (at stone-04 pos-05-02) (clear pos-03-02)
    del: (at player-01 pos-03-02) (at stone-04 pos-04-02) (clear pos-05-02)
  (push-to-nongoal player-01 stone-04 pos-03-03 pos-04-03 pos-05-03 dir-right), cost: 1
    pre: (at player-01 pos-03-03) (at stone-04 pos-04-03) (clear pos-05-03)
    add: (at player-01 pos-04-03) (at stone-04 pos-05-03) (clear pos-03-03)
    del: (at player-01 pos-03-03) (at stone-04 pos-04-03) (clear pos-05-03)
  (push-to-nongoal player-01 stone-04 pos-03-04 pos-03-03 pos-03-02 dir-up), cost: 1
    pre: (at player-01 pos-03-04) (at stone-04 pos-03-03) (clear pos-03-02)
    add: (at player-01 pos-03-03) (clear pos-03-04)
    del: (at player-01 pos-03-04) (at stone-04 pos-03-03) (clear pos-03-02)
  (push-to-nongoal player-01 stone-04 pos-03-04 pos-04-04 pos-05-04 dir-right), cost: 1
    pre: (at player-01 pos-03-04) (at stone-04 pos-04-04) (clear pos-05-04)
    add: (at player-01 pos-04-04) (at stone-04 pos-05-04) (clear pos-03-04)
    del: (at player-01 pos-03-04) (at stone-04 pos-04-04) (clear pos-05-04)
  (push-to-nongoal player-01 stone-04 pos-04-02 pos-04-03 pos-04-04 dir-down), cost: 1
    pre: (at player-01 pos-04-02) (at stone-04 pos-04-03) (clear pos-04-04)
    add: (at player-01 pos-04-03) (at stone-04 pos-04-04) (clear pos-04-02)
    del: (at player-01 pos-04-02) (at stone-04 pos-04-03) (clear pos-04-04)
  (push-to-nongoal player-01 stone-04 pos-04-02 pos-05-02 pos-06-02 dir-right), cost: 1
    pre: (at player-01 pos-04-02) (at stone-04 pos-05-02) (clear pos-06-02)
    add: (at player-01 pos-05-02) (clear pos-04-02)
    del: (at player-01 pos-04-02) (at stone-04 pos-05-02) (clear pos-06-02)
  (push-to-nongoal player-01 stone-04 pos-04-03 pos-03-03 pos-02-03 dir-left), cost: 1
    pre: (at player-01 pos-04-03) (at stone-04 pos-03-03) (clear pos-02-03)
    add: (at player-01 pos-03-03) (clear pos-04-03)
    del: (at player-01 pos-04-03) (at stone-04 pos-03-03) (clear pos-02-03)
  (push-to-nongoal player-01 stone-04 pos-04-03 pos-04-04 pos-04-05 dir-down), cost: 1
    pre: (at player-01 pos-04-03) (at stone-04 pos-04-04) (clear pos-04-05)
    add: (at player-01 pos-04-04) (clear pos-04-03)
    del: (at player-01 pos-04-03) (at stone-04 pos-04-04) (clear pos-04-05)
  (push-to-nongoal player-01 stone-04 pos-04-03 pos-05-03 pos-06-03 dir-right), cost: 1
    pre: (at player-01 pos-04-03) (at stone-04 pos-05-03) (clear pos-06-03)
    add: (at player-01 pos-05-03) (at stone-04 pos-06-03) (clear pos-04-03)
    del: (at player-01 pos-04-03) (at stone-04 pos-05-03) (clear pos-06-03)
  (push-to-nongoal player-01 stone-04 pos-04-04 pos-03-04 pos-02-04 dir-left), cost: 1
    pre: (at player-01 pos-04-04) (at stone-04 pos-03-04) (clear pos-02-04)
    add: (at player-01 pos-03-04) (clear pos-04-04)
    del: (at player-01 pos-04-04) (at stone-04 pos-03-04) (clear pos-02-04)
  (push-to-nongoal player-01 stone-04 pos-04-04 pos-04-03 pos-04-02 dir-up), cost: 1
    pre: (at player-01 pos-04-04) (at stone-04 pos-04-03) (clear pos-04-02)
    add: (at player-01 pos-04-03) (at stone-04 pos-04-02) (clear pos-04-04)
    del: (at player-01 pos-04-04) (at stone-04 pos-04-03) (clear pos-04-02)
  (push-to-nongoal player-01 stone-04 pos-04-04 pos-05-04 pos-06-04 dir-right), cost: 1
    pre: (at player-01 pos-04-04) (at stone-04 pos-05-04) (clear pos-06-04)
    add: (at player-01 pos-05-04) (clear pos-04-04)
    del: (at player-01 pos-04-04) (at stone-04 pos-05-04) (clear pos-06-04)
  (push-to-nongoal player-01 stone-04 pos-04-05 pos-04-04 pos-04-03 dir-up), cost: 1
    pre: (at player-01 pos-04-05) (at stone-04 pos-04-04) (clear pos-04-03)
    add: (at player-01 pos-04-04) (at stone-04 pos-04-03) (clear pos-04-05)
    del: (at player-01 pos-04-05) (at stone-04 pos-04-04) (clear pos-04-03)
  (push-to-nongoal player-01 stone-04 pos-05-02 pos-04-02 pos-03-02 dir-left), cost: 1
    pre: (at player-01 pos-05-02) (at stone-04 pos-04-02) (clear pos-03-02)
    add: (at player-01 pos-04-02) (clear pos-05-02)
    del: (at player-01 pos-05-02) (at stone-04 pos-04-02) (clear pos-03-02)
  (push-to-nongoal player-01 stone-04 pos-05-02 pos-05-03 pos-05-04 dir-down), cost: 1
    pre: (at player-01 pos-05-02) (at stone-04 pos-05-03) (clear pos-05-04)
    add: (at player-01 pos-05-03) (at stone-04 pos-05-04) (clear pos-05-02)
    del: (at player-01 pos-05-02) (at stone-04 pos-05-03) (clear pos-05-04)
  (push-to-nongoal player-01 stone-04 pos-05-03 pos-04-03 pos-03-03 dir-left), cost: 1
    pre: (at player-01 pos-05-03) (at stone-04 pos-04-03) (clear pos-03-03)
    add: (at player-01 pos-04-03) (at stone-04 pos-03-03) (clear pos-05-03)
    del: (at player-01 pos-05-03) (at stone-04 pos-04-03) (clear pos-03-03)
  (push-to-nongoal player-01 stone-04 pos-05-04 pos-04-04 pos-03-04 dir-left), cost: 1
    pre: (at player-01 pos-05-04) (at stone-04 pos-04-04) (clear pos-03-04)
    add: (at player-01 pos-04-04) (at stone-04 pos-03-04) (clear pos-05-04)
    del: (at player-01 pos-05-04) (at stone-04 pos-04-04) (clear pos-03-04)
  (push-to-nongoal player-01 stone-04 pos-05-04 pos-05-03 pos-05-02 dir-up), cost: 1
    pre: (at player-01 pos-05-04) (at stone-04 pos-05-03) (clear pos-05-02)
    add: (at player-01 pos-05-03) (at stone-04 pos-05-02) (clear pos-05-04)
    del: (at player-01 pos-05-04) (at stone-04 pos-05-03) (clear pos-05-02)
  (push-to-nongoal player-01 stone-04 pos-05-05 pos-05-04 pos-05-03 dir-up), cost: 1
    pre: (at player-01 pos-05-05) (at stone-04 pos-05-04) (clear pos-05-03)
    add: (at player-01 pos-05-04) (at stone-04 pos-05-03) (clear pos-05-05)
    del: (at player-01 pos-05-05) (at stone-04 pos-05-04) (clear pos-05-03)
  (push-to-nongoal player-01 stone-04 pos-05-06 pos-05-05 pos-05-04 dir-up), cost: 1
    pre: (at player-01 pos-05-06) (at stone-04 pos-05-05) (clear pos-05-04)
    add: (at player-01 pos-05-05) (at stone-04 pos-05-04) (clear pos-05-06)
    del: (at player-01 pos-05-06) (at stone-04 pos-05-05) (at-goal stone-04) (clear pos-05-04)
  (push-to-nongoal player-01 stone-04 pos-06-02 pos-05-02 pos-04-02 dir-left), cost: 1
    pre: (at player-01 pos-06-02) (at stone-04 pos-05-02) (clear pos-04-02)
    add: (at player-01 pos-05-02) (at stone-04 pos-04-02) (clear pos-06-02)
    del: (at player-01 pos-06-02) (at stone-04 pos-05-02) (clear pos-04-02)
  (push-to-nongoal player-01 stone-04 pos-06-02 pos-06-03 pos-06-04 dir-down), cost: 1
    pre: (at player-01 pos-06-02) (at stone-04 pos-06-03) (clear pos-06-04)
    add: (at player-01 pos-06-03) (clear pos-06-02)
    del: (at player-01 pos-06-02) (at stone-04 pos-06-03) (clear pos-06-04)
  (push-to-nongoal player-01 stone-04 pos-06-03 pos-05-03 pos-04-03 dir-left), cost: 1
    pre: (at player-01 pos-06-03) (at stone-04 pos-05-03) (clear pos-04-03)
    add: (at player-01 pos-05-03) (at stone-04 pos-04-03) (clear pos-06-03)
    del: (at player-01 pos-06-03) (at stone-04 pos-05-03) (clear pos-04-03)
  (push-to-nongoal player-01 stone-04 pos-06-04 pos-05-04 pos-04-04 dir-left), cost: 1
    pre: (at player-01 pos-06-04) (at stone-04 pos-05-04) (clear pos-04-04)
    add: (at player-01 pos-05-04) (at stone-04 pos-04-04) (clear pos-06-04)
    del: (at player-01 pos-06-04) (at stone-04 pos-05-04) (clear pos-04-04)
  (push-to-nongoal player-01 stone-04 pos-06-04 pos-06-03 pos-06-02 dir-up), cost: 1
    pre: (at player-01 pos-06-04) (at stone-04 pos-06-03) (clear pos-06-02)
    add: (at player-01 pos-06-03) (clear pos-06-04)
    del: (at player-01 pos-06-04) (at stone-04 pos-06-03) (clear pos-06-02)
  (push-to-nongoal player-01 stone-04 pos-07-07 pos-08-07 pos-09-07 dir-right), cost: 1
    pre: (at player-01 pos-07-07) (at stone-04 pos-08-07) (clear pos-09-07)
    add: (at player-01 pos-08-07) (clear pos-07-07)
    del: (at player-01 pos-07-07) (at stone-04 pos-08-07) (clear pos-09-07)
  (push-to-nongoal player-01 stone-04 pos-08-07 pos-07-07 pos-06-07 dir-left), cost: 1
    pre: (at player-01 pos-08-07) (at stone-04 pos-07-07) (clear pos-06-07)
    add: (at player-01 pos-07-07) (at stone-04 pos-06-07) (clear pos-08-07)
    del: (at player-01 pos-08-07) (at stone-04 pos-07-07) (clear pos-06-07)
  (push-to-nongoal player-01 stone-04 pos-09-07 pos-08-07 pos-07-07 dir-left), cost: 1
    pre: (at player-01 pos-09-07) (at stone-04 pos-08-07) (clear pos-07-07)
    add: (at player-01 pos-08-07) (at stone-04 pos-07-07) (clear pos-09-07)
    del: (at player-01 pos-09-07) (at stone-04 pos-08-07) (clear pos-07-07)
Init State: (at player-01 pos-08-06) (at stone-01 pos-05-03) (at stone-02 pos-04-04) (at stone-03 pos-05-04) (at stone-04 pos-08-07) (clear pos-02-03) (clear pos-02-04) (clear pos-03-02) (clear pos-03-03) (clear pos-03-04) (clear pos-04-02) (clear pos-04-03) (clear pos-04-05) (clear pos-05-02) (clear pos-05-05) (clear pos-05-06) (clear pos-05-07) (clear pos-05-08) (clear pos-06-02) (clear pos-06-03) (clear pos-06-04) (clear pos-06-07) (clear pos-06-08) (clear pos-07-06) (clear pos-07-07) (clear pos-09-06) (clear pos-09-07)
Goal: (at-goal stone-01) (at-goal stone-02) (at-goal stone-03) (at-goal stone-04)
