Reduced 30 -> 15
Domain: tetris
Problem: tetris-6-4-5911272
Require: 200ff
Type[6]:
    [0]: object, parent: -1
    [1]: pieces, parent: 0
    [2]: one_square, parent: 1
    [3]: two_straight, parent: 1
    [4]: right_l, parent: 1
    [5]: position, parent: 0
Obj-by-Type:
    [0]: 0 1 2 3 4 5 6 7 8 9 10 11 12 13 14
    [1]: 12 13 14
    [2]: 12
    [3]: 13
    [4]: 14
    [5]: 0 1 2 3 4 5 6 7 8 9 10 11
Obj[15]:
    [0]: f0-0f, type: 5, is-constant: 0, is-private: 0, owner: -1, is-agent: 0
    [1]: f0-1f, type: 5, is-constant: 0, is-private: 0, owner: -1, is-agent: 0
    [2]: f0-2f, type: 5, is-constant: 0, is-private: 0, owner: -1, is-agent: 0
    [3]: f0-3f, type: 5, is-constant: 0, is-private: 0, owner: -1, is-agent: 0
    [4]: f1-0f, type: 5, is-constant: 0, is-private: 0, owner: -1, is-agent: 0
    [5]: f1-1f, type: 5, is-constant: 0, is-private: 0, owner: -1, is-agent: 0
    [6]: f1-2f, type: 5, is-constant: 0, is-private: 0, owner: -1, is-agent: 0
    [7]: f1-3f, type: 5, is-constant: 0, is-private: 0, owner: -1, is-agent: 0
    [8]: f2-0f, type: 5, is-constant: 0, is-private: 0, owner: -1, is-agent: 0
    [9]: f2-1f, type: 5, is-constant: 0, is-private: 0, owner: -1, is-agent: 0
    [10]: f2-2f, type: 5, is-constant: 0, is-private: 0, owner: -1, is-agent: 0
    [11]: f2-3f, type: 5, is-constant: 0, is-private: 0, owner: -1, is-agent: 0
    [12]: square0, type: 2, is-constant: 0, is-private: 0, owner: -1, is-agent: 0
    [13]: straight0, type: 3, is-constant: 0, is-private: 0, owner: -1, is-agent: 0
    [14]: rightl0, type: 4, is-constant: 0, is-private: 0, owner: -1, is-agent: 0
Predicate[6]:
    =: 0 0 :: is-private: 0, owner-param: -1, read: 0, write: 0
    clear: 5 :: is-private: 0, owner-param: -1, read: 1, write: 1
    connected: 5 5 :: is-private: 0, owner-param: -1, read: 1, write: 0
    at_square: 2 5 :: is-private: 0, owner-param: -1, read: 1, write: 1
    at_two: 3 5 5 :: is-private: 0, owner-param: -1, read: 1, write: 1
    at_right_l: 4 5 5 5 :: is-private: 0, owner-param: -1, read: 1, write: 1
Function[1]:
    total-cost: :: is-private: 0, owner-param: -1, read: 0, write: 0
Action[6]:
    move_square: ?xy_initial:5 ?xy_final:5 ?element:2
        pre: (and (RW:clear ?xy_final) (RW:at_square ?element ?xy_initial) (R:connected ?xy_initial ?xy_final) (R:connected ?xy_final ?xy_initial))
        eff: (and (RW:clear ?xy_initial) (RW:at_square ?element ?xy_final) (increase (total-cost) 1))
    move_two: ?xy_initial1:5 ?xy_initial2:5 ?xy_final:5 ?element:3
        pre: (and (RW:clear ?xy_final) (RW:at_two ?element ?xy_initial1 ?xy_initial2) (R:connected ?xy_initial2 ?xy_final))
        eff: (and (RW:clear ?xy_initial1) (RW:at_two ?element ?xy_initial2 ?xy_final) (increase (total-cost) 2))
    move_l_right: ?xy_initial1:5 ?xy_initial2:5 ?xy_initial3:5 ?xy_final:5 ?xy_final2:5 ?xy_between_final:5 ?element:4
        pre: (and (RW:clear ?xy_final) (RW:clear ?xy_final2) (RW:at_right_l ?element ?xy_initial1 ?xy_initial2 ?xy_initial3) (R:connected ?xy_initial1 ?xy_final) (R:connected ?xy_initial3 ?xy_final2) (R:connected ?xy_initial3 ?xy_final) (R:connected ?xy_final ?xy_between_final) (R:connected ?xy_final2 ?xy_between_final))
        eff: (and (RW:clear ?xy_initial2) (RW:clear ?xy_initial1) (RW:at_right_l ?element ?xy_final ?xy_initial3 ?xy_final2) (increase (total-cost) 3))
    move_l_left: ?xy_initial1:5 ?xy_initial2:5 ?xy_initial3:5 ?xy_final:5 ?xy_final2:5 ?element:4
        pre: (and (RW:clear ?xy_final) (RW:clear ?xy_final2) (RW:at_right_l ?element ?xy_initial1 ?xy_initial2 ?xy_initial3) (R:connected ?xy_initial1 ?xy_final) (R:connected ?xy_initial2 ?xy_final2) (R:connected ?xy_final2 ?xy_final))
        eff: (and (RW:clear ?xy_initial3) (RW:clear ?xy_initial1) (RW:at_right_l ?element ?xy_final ?xy_final2 ?xy_initial2) (increase (total-cost) 3))
    move_l_up: ?xy_initial1:5 ?xy_initial2:5 ?xy_initial3:5 ?xy_final:5 ?xy_final2:5 ?xy_between_final:5 ?element:4
        pre: (and (RW:clear ?xy_final) (RW:clear ?xy_final2) (RW:at_right_l ?element ?xy_initial1 ?xy_initial2 ?xy_initial3) (R:connected ?xy_initial1 ?xy_final) (R:connected ?xy_initial3 ?xy_final2) (R:connected ?xy_initial1 ?xy_final2) (R:connected ?xy_final ?xy_between_final) (R:connected ?xy_final2 ?xy_between_final))
        eff: (and (RW:clear ?xy_initial2) (RW:clear ?xy_initial3) (RW:at_right_l ?element ?xy_final ?xy_initial1 ?xy_final2) (increase (total-cost) 3))
    move_l_down: ?xy_initial1:5 ?xy_initial2:5 ?xy_initial3:5 ?xy_final:5 ?xy_final2:5 ?element:4
        pre: (and (RW:clear ?xy_final) (RW:clear ?xy_final2) (RW:at_right_l ?element ?xy_initial1 ?xy_initial2 ?xy_initial3) (R:connected ?xy_initial2 ?xy_final) (R:connected ?xy_initial3 ?xy_final2) (R:connected ?xy_final2 ?xy_final))
        eff: (and (RW:clear ?xy_initial3) (RW:clear ?xy_initial1) (RW:at_right_l ?element ?xy_initial2 ?xy_final ?xy_final2) (increase (total-cost) 3))
Init[65]:
  S:(connected f0-0f f0-1f)
  S:(connected f0-1f f0-0f)
  S:(connected f0-1f f0-2f)
  S:(connected f0-2f f0-1f)
  S:(connected f0-2f f0-3f)
  S:(connected f0-3f f0-2f)
  S:(connected f1-0f f1-1f)
  S:(connected f1-1f f1-0f)
  S:(connected f1-1f f1-2f)
  S:(connected f1-2f f1-1f)
  S:(connected f1-2f f1-3f)
  S:(connected f1-3f f1-2f)
  S:(connected f2-0f f2-1f)
  S:(connected f2-1f f2-0f)
  S:(connected f2-1f f2-2f)
  S:(connected f2-2f f2-1f)
  S:(connected f2-2f f2-3f)
  S:(connected f2-3f f2-2f)
  S:(connected f2-1f f2-2f)
  S:(connected f2-2f f2-1f)
  S:(connected f2-2f f2-2f)
  S:(connected f2-2f f2-2f)
  S:(connected f2-2f f2-3f)
  S:(connected f2-3f f2-2f)
  S:(connected f2-3f f2-1f)
  S:(connected f2-1f f2-3f)
  S:(connected f2-3f f2-3f)
  S:(connected f0-0f f1-0f)
  S:(connected f1-0f f0-0f)
  S:(connected f0-1f f1-1f)
  S:(connected f1-1f f0-1f)
  S:(connected f0-2f f1-2f)
  S:(connected f1-2f f0-2f)
  S:(connected f0-3f f1-3f)
  S:(connected f1-3f f0-3f)
  S:(connected f1-0f f2-0f)
  S:(connected f2-0f f1-0f)
  S:(connected f1-1f f2-1f)
  S:(connected f2-1f f1-1f)
  S:(connected f1-2f f2-2f)
  S:(connected f2-2f f1-2f)
  S:(connected f1-3f f2-3f)
  S:(connected f2-3f f1-3f)
  S:(connected f2-0f f2-1f)
  S:(connected f2-1f f2-0f)
  S:(connected f2-1f f2-2f)
  S:(connected f2-2f f2-1f)
  S:(connected f2-2f f2-2f)
  S:(connected f2-2f f2-2f)
  S:(connected f2-3f f2-3f)
  S:(connected f2-3f f2-3f)
  (clear f0-2f)
  (clear f0-3f)
  (clear f1-3f)
  (clear f2-1f)
  (clear f2-3f)
  (clear f2-1f)
  (clear f2-2f)
  (clear f2-3f)
  (at_right_l rightl0 f2-2f f2-2f f2-3f)
  (at_two straight0 f0-0f f1-0f)
  (at_square square0 f0-1f)
  (at_square square0 f1-1f)
  (at_square square0 f1-2f)
  (at_square square0 f2-0f)
Init[0]:
Goal: (and (RW:clear f0-0f) (RW:clear f0-1f) (RW:clear f0-2f) (RW:clear f0-3f) (RW:clear f1-0f) (RW:clear f1-1f) (RW:clear f1-2f) (RW:clear f1-3f) (RW:clear f2-0f) (RW:clear f2-1f) (RW:clear f2-2f) (RW:clear f2-3f))
Metric: 1
