Domain: parking
Problem: parking
Require: 200ff
Type[3]:
    [0]: object, parent: -1
    [1]: car, parent: 0
    [2]: curb, parent: 0
Obj-by-Type:
    [0]: 0 1 2 3 4 5 6 7 8 9 10 11 12 13 14 15 16 17 18 19 20 21 22 23 24 25 26 27 28 29 30
    [1]: 0 1 2 3 4 5 6 7 8 9 10 11 12 13 14 15 16 17 18 19
    [2]: 20 21 22 23 24 25 26 27 28 29 30
Obj[31]:
    [0]: car_00, type: 1, is-constant: 0, is-private: 0, owner: -1, is-agent: 0
    [1]: car_01, type: 1, is-constant: 0, is-private: 0, owner: -1, is-agent: 0
    [2]: car_02, type: 1, is-constant: 0, is-private: 0, owner: -1, is-agent: 0
    [3]: car_03, type: 1, is-constant: 0, is-private: 0, owner: -1, is-agent: 0
    [4]: car_04, type: 1, is-constant: 0, is-private: 0, owner: -1, is-agent: 0
    [5]: car_05, type: 1, is-constant: 0, is-private: 0, owner: -1, is-agent: 0
    [6]: car_06, type: 1, is-constant: 0, is-private: 0, owner: -1, is-agent: 0
    [7]: car_07, type: 1, is-constant: 0, is-private: 0, owner: -1, is-agent: 0
    [8]: car_08, type: 1, is-constant: 0, is-private: 0, owner: -1, is-agent: 0
    [9]: car_09, type: 1, is-constant: 0, is-private: 0, owner: -1, is-agent: 0
    [10]: car_10, type: 1, is-constant: 0, is-private: 0, owner: -1, is-agent: 0
    [11]: car_11, type: 1, is-constant: 0, is-private: 0, owner: -1, is-agent: 0
    [12]: car_12, type: 1, is-constant: 0, is-private: 0, owner: -1, is-agent: 0
    [13]: car_13, type: 1, is-constant: 0, is-private: 0, owner: -1, is-agent: 0
    [14]: car_14, type: 1, is-constant: 0, is-private: 0, owner: -1, is-agent: 0
    [15]: car_15, type: 1, is-constant: 0, is-private: 0, owner: -1, is-agent: 0
    [16]: car_16, type: 1, is-constant: 0, is-private: 0, owner: -1, is-agent: 0
    [17]: car_17, type: 1, is-constant: 0, is-private: 0, owner: -1, is-agent: 0
    [18]: car_18, type: 1, is-constant: 0, is-private: 0, owner: -1, is-agent: 0
    [19]: car_19, type: 1, is-constant: 0, is-private: 0, owner: -1, is-agent: 0
    [20]: curb_00, type: 2, is-constant: 0, is-private: 0, owner: -1, is-agent: 0
    [21]: curb_01, type: 2, is-constant: 0, is-private: 0, owner: -1, is-agent: 0
    [22]: curb_02, type: 2, is-constant: 0, is-private: 0, owner: -1, is-agent: 0
    [23]: curb_03, type: 2, is-constant: 0, is-private: 0, owner: -1, is-agent: 0
    [24]: curb_04, type: 2, is-constant: 0, is-private: 0, owner: -1, is-agent: 0
    [25]: curb_05, type: 2, is-constant: 0, is-private: 0, owner: -1, is-agent: 0
    [26]: curb_06, type: 2, is-constant: 0, is-private: 0, owner: -1, is-agent: 0
    [27]: curb_07, type: 2, is-constant: 0, is-private: 0, owner: -1, is-agent: 0
    [28]: curb_08, type: 2, is-constant: 0, is-private: 0, owner: -1, is-agent: 0
    [29]: curb_09, type: 2, is-constant: 0, is-private: 0, owner: -1, is-agent: 0
    [30]: curb_10, type: 2, is-constant: 0, is-private: 0, owner: -1, is-agent: 0
Predicate[6]:
    =: 0 0 :: is-private: 0, owner-param: -1, read: 0, write: 0
    at-curb: 1 :: is-private: 0, owner-param: -1, read: 1, write: 1
    at-curb-num: 1 2 :: is-private: 0, owner-param: -1, read: 1, write: 1
    behind-car: 1 1 :: is-private: 0, owner-param: -1, read: 1, write: 1
    car-clear: 1 :: is-private: 0, owner-param: -1, read: 1, write: 1
    curb-clear: 2 :: is-private: 0, owner-param: -1, read: 1, write: 1
Function[1]:
    total-cost: :: is-private: 0, owner-param: -1, read: 0, write: 0
Action[4]:
    move-curb-to-curb: ?car:1 ?curbsrc:2 ?curbdest:2
        pre: (and (RW:car-clear ?car) (RW:curb-clear ?curbdest) (RW:at-curb-num ?car ?curbsrc))
        eff: (and (N:RW:curb-clear ?curbdest) (RW:curb-clear ?curbsrc) (RW:at-curb-num ?car ?curbdest) (N:RW:at-curb-num ?car ?curbsrc) (increase (total-cost) 1))
    move-curb-to-car: ?car:1 ?curbsrc:2 ?cardest:1
        pre: (and (RW:car-clear ?car) (RW:car-clear ?cardest) (RW:at-curb-num ?car ?curbsrc) (RW:at-curb ?cardest))
        eff: (and (N:RW:car-clear ?cardest) (RW:curb-clear ?curbsrc) (RW:behind-car ?car ?cardest) (N:RW:at-curb-num ?car ?curbsrc) (N:RW:at-curb ?car) (increase (total-cost) 1))
    move-car-to-curb: ?car:1 ?carsrc:1 ?curbdest:2
        pre: (and (RW:car-clear ?car) (RW:curb-clear ?curbdest) (RW:behind-car ?car ?carsrc))
        eff: (and (N:RW:curb-clear ?curbdest) (RW:car-clear ?carsrc) (RW:at-curb-num ?car ?curbdest) (N:RW:behind-car ?car ?carsrc) (RW:at-curb ?car) (increase (total-cost) 1))
    move-car-to-car: ?car:1 ?carsrc:1 ?cardest:1
        pre: (and (RW:car-clear ?car) (RW:car-clear ?cardest) (RW:behind-car ?car ?carsrc) (RW:at-curb ?cardest))
        eff: (and (N:RW:car-clear ?cardest) (RW:car-clear ?carsrc) (RW:behind-car ?car ?cardest) (N:RW:behind-car ?car ?carsrc) (increase (total-cost) 1))
Init[41]:
  (at-curb car_03)
  (at-curb-num car_03 curb_00)
  (behind-car car_14 car_03)
  (car-clear car_14)
  (at-curb car_12)
  (at-curb-num car_12 curb_01)
  (behind-car car_11 car_12)
  (car-clear car_11)
  (at-curb car_06)
  (at-curb-num car_06 curb_02)
  (behind-car car_08 car_06)
  (car-clear car_08)
  (at-curb car_09)
  (at-curb-num car_09 curb_03)
  (behind-car car_19 car_09)
  (car-clear car_19)
  (at-curb car_10)
  (at-curb-num car_10 curb_04)
  (behind-car car_15 car_10)
  (car-clear car_15)
  (at-curb car_04)
  (at-curb-num car_04 curb_05)
  (behind-car car_07 car_04)
  (car-clear car_07)
  (at-curb car_02)
  (at-curb-num car_02 curb_06)
  (behind-car car_18 car_02)
  (car-clear car_18)
  (at-curb car_01)
  (at-curb-num car_01 curb_07)
  (behind-car car_13 car_01)
  (car-clear car_13)
  (at-curb car_16)
  (at-curb-num car_16 curb_08)
  (behind-car car_05 car_16)
  (car-clear car_05)
  (at-curb car_17)
  (at-curb-num car_17 curb_09)
  (behind-car car_00 car_17)
  (car-clear car_00)
  (curb-clear curb_10)
Init[1]:
  (= (total-cost) 0)
Goal: (and (RW:at-curb-num car_00 curb_00) (RW:behind-car car_11 car_00) (RW:at-curb-num car_01 curb_01) (RW:behind-car car_12 car_01) (RW:at-curb-num car_02 curb_02) (RW:behind-car car_13 car_02) (RW:at-curb-num car_03 curb_03) (RW:behind-car car_14 car_03) (RW:at-curb-num car_04 curb_04) (RW:behind-car car_15 car_04) (RW:at-curb-num car_05 curb_05) (RW:behind-car car_16 car_05) (RW:at-curb-num car_06 curb_06) (RW:behind-car car_17 car_06) (RW:at-curb-num car_07 curb_07) (RW:behind-car car_18 car_07) (RW:at-curb-num car_08 curb_08) (RW:behind-car car_19 car_08) (RW:at-curb-num car_09 curb_09) (RW:at-curb-num car_10 curb_10))
Metric: 1
