Domain: elevators-sequencedstrips
Problem: elevators-sequencedstrips-p12_4_2
Require: 200ff
Type[6]:
    [0]: object, parent: -1
    [1]: elevator, parent: 0
    [2]: slow-elevator, parent: 1
    [3]: fast-elevator, parent: 1
    [4]: passenger, parent: 0
    [5]: count, parent: 0
Obj-by-Type:
    [0]: 0 1 2 3 4 5 6 7 8 9 10 11 12 13 14 15 16 17 18 19 20 21
    [1]: 17 18 19 20 21
    [2]: 19 20 21
    [3]: 17 18
    [4]: 13 14 15 16
    [5]: 0 1 2 3 4 5 6 7 8 9 10 11 12
Obj[22]:
    [0]: n0, type: 5, is-constant: 0, is-private: 0, owner: -1, is-agent: 0
    [1]: n1, type: 5, is-constant: 0, is-private: 0, owner: -1, is-agent: 0
    [2]: n2, type: 5, is-constant: 0, is-private: 0, owner: -1, is-agent: 0
    [3]: n3, type: 5, is-constant: 0, is-private: 0, owner: -1, is-agent: 0
    [4]: n4, type: 5, is-constant: 0, is-private: 0, owner: -1, is-agent: 0
    [5]: n5, type: 5, is-constant: 0, is-private: 0, owner: -1, is-agent: 0
    [6]: n6, type: 5, is-constant: 0, is-private: 0, owner: -1, is-agent: 0
    [7]: n7, type: 5, is-constant: 0, is-private: 0, owner: -1, is-agent: 0
    [8]: n8, type: 5, is-constant: 0, is-private: 0, owner: -1, is-agent: 0
    [9]: n9, type: 5, is-constant: 0, is-private: 0, owner: -1, is-agent: 0
    [10]: n10, type: 5, is-constant: 0, is-private: 0, owner: -1, is-agent: 0
    [11]: n11, type: 5, is-constant: 0, is-private: 0, owner: -1, is-agent: 0
    [12]: n12, type: 5, is-constant: 0, is-private: 0, owner: -1, is-agent: 0
    [13]: p0, type: 4, is-constant: 0, is-private: 0, owner: -1, is-agent: 0
    [14]: p1, type: 4, is-constant: 0, is-private: 0, owner: -1, is-agent: 0
    [15]: p2, type: 4, is-constant: 0, is-private: 0, owner: -1, is-agent: 0
    [16]: p3, type: 4, is-constant: 0, is-private: 0, owner: -1, is-agent: 0
    [17]: fast0, type: 3, is-constant: 0, is-private: 0, owner: -1, is-agent: 0
    [18]: fast1, type: 3, is-constant: 0, is-private: 0, owner: -1, is-agent: 0
    [19]: slow0-0, type: 2, is-constant: 0, is-private: 0, owner: -1, is-agent: 0
    [20]: slow1-0, type: 2, is-constant: 0, is-private: 0, owner: -1, is-agent: 0
    [21]: slow2-0, type: 2, is-constant: 0, is-private: 0, owner: -1, is-agent: 0
Predicate[9]:
    =: 0 0 :: is-private: 0, owner-param: -1, read: 0, write: 0
    passenger-at: 4 5 :: is-private: 0, owner-param: -1, read: 1, write: 1
    boarded: 4 1 :: is-private: 0, owner-param: -1, read: 1, write: 1
    lift-at: 1 5 :: is-private: 0, owner-param: -1, read: 1, write: 1
    reachable-floor: 1 5 :: is-private: 0, owner-param: -1, read: 1, write: 0
    above: 5 5 :: is-private: 0, owner-param: -1, read: 1, write: 0
    passengers: 1 5 :: is-private: 0, owner-param: -1, read: 1, write: 1
    can-hold: 1 5 :: is-private: 0, owner-param: -1, read: 1, write: 0
    next: 5 5 :: is-private: 0, owner-param: -1, read: 1, write: 0
Function[3]:
    total-cost: :: is-private: 0, owner-param: -1, read: 0, write: 0
    travel-slow: 5 5 :: is-private: 0, owner-param: -1, read: 0, write: 0
    travel-fast: 5 5 :: is-private: 0, owner-param: -1, read: 0, write: 0
Action[6]:
    move-up-slow: ?lift:2 ?f1:5 ?f2:5
        pre: (and (RW:lift-at ?lift ?f1) (R:above ?f1 ?f2) (R:reachable-floor ?lift ?f2))
        eff: (and (RW:lift-at ?lift ?f2) (N:RW:lift-at ?lift ?f1) (increase (total-cost) (travel-slow ?f1 ?f2)))
    move-down-slow: ?lift:2 ?f1:5 ?f2:5
        pre: (and (RW:lift-at ?lift ?f1) (R:above ?f2 ?f1) (R:reachable-floor ?lift ?f2))
        eff: (and (RW:lift-at ?lift ?f2) (N:RW:lift-at ?lift ?f1) (increase (total-cost) (travel-slow ?f2 ?f1)))
    move-up-fast: ?lift:3 ?f1:5 ?f2:5
        pre: (and (RW:lift-at ?lift ?f1) (R:above ?f1 ?f2) (R:reachable-floor ?lift ?f2))
        eff: (and (RW:lift-at ?lift ?f2) (N:RW:lift-at ?lift ?f1) (increase (total-cost) (travel-fast ?f1 ?f2)))
    move-down-fast: ?lift:3 ?f1:5 ?f2:5
        pre: (and (RW:lift-at ?lift ?f1) (R:above ?f2 ?f1) (R:reachable-floor ?lift ?f2))
        eff: (and (RW:lift-at ?lift ?f2) (N:RW:lift-at ?lift ?f1) (increase (total-cost) (travel-fast ?f2 ?f1)))
    board: ?p:4 ?lift:1 ?f:5 ?n1:5 ?n2:5
        pre: (and (RW:lift-at ?lift ?f) (RW:passenger-at ?p ?f) (RW:passengers ?lift ?n1) (R:next ?n1 ?n2) (R:can-hold ?lift ?n2))
        eff: (and (N:RW:passenger-at ?p ?f) (RW:boarded ?p ?lift) (N:RW:passengers ?lift ?n1) (RW:passengers ?lift ?n2))
    leave: ?p:4 ?lift:1 ?f:5 ?n1:5 ?n2:5
        pre: (and (RW:lift-at ?lift ?f) (RW:boarded ?p ?lift) (RW:passengers ?lift ?n1) (R:next ?n2 ?n1))
        eff: (and (RW:passenger-at ?p ?f) (N:RW:boarded ?p ?lift) (N:RW:passengers ?lift ?n1) (RW:passengers ?lift ?n2))
Init[145]:
  S:(next n0 n1)
  S:(next n1 n2)
  S:(next n2 n3)
  S:(next n3 n4)
  S:(next n4 n5)
  S:(next n5 n6)
  S:(next n6 n7)
  S:(next n7 n8)
  S:(next n8 n9)
  S:(next n9 n10)
  S:(next n10 n11)
  S:(next n11 n12)
  S:(above n0 n1)
  S:(above n0 n2)
  S:(above n0 n3)
  S:(above n0 n4)
  S:(above n0 n5)
  S:(above n0 n6)
  S:(above n0 n7)
  S:(above n0 n8)
  S:(above n0 n9)
  S:(above n0 n10)
  S:(above n0 n11)
  S:(above n0 n12)
  S:(above n1 n2)
  S:(above n1 n3)
  S:(above n1 n4)
  S:(above n1 n5)
  S:(above n1 n6)
  S:(above n1 n7)
  S:(above n1 n8)
  S:(above n1 n9)
  S:(above n1 n10)
  S:(above n1 n11)
  S:(above n1 n12)
  S:(above n2 n3)
  S:(above n2 n4)
  S:(above n2 n5)
  S:(above n2 n6)
  S:(above n2 n7)
  S:(above n2 n8)
  S:(above n2 n9)
  S:(above n2 n10)
  S:(above n2 n11)
  S:(above n2 n12)
  S:(above n3 n4)
  S:(above n3 n5)
  S:(above n3 n6)
  S:(above n3 n7)
  S:(above n3 n8)
  S:(above n3 n9)
  S:(above n3 n10)
  S:(above n3 n11)
  S:(above n3 n12)
  S:(above n4 n5)
  S:(above n4 n6)
  S:(above n4 n7)
  S:(above n4 n8)
  S:(above n4 n9)
  S:(above n4 n10)
  S:(above n4 n11)
  S:(above n4 n12)
  S:(above n5 n6)
  S:(above n5 n7)
  S:(above n5 n8)
  S:(above n5 n9)
  S:(above n5 n10)
  S:(above n5 n11)
  S:(above n5 n12)
  S:(above n6 n7)
  S:(above n6 n8)
  S:(above n6 n9)
  S:(above n6 n10)
  S:(above n6 n11)
  S:(above n6 n12)
  S:(above n7 n8)
  S:(above n7 n9)
  S:(above n7 n10)
  S:(above n7 n11)
  S:(above n7 n12)
  S:(above n8 n9)
  S:(above n8 n10)
  S:(above n8 n11)
  S:(above n8 n12)
  S:(above n9 n10)
  S:(above n9 n11)
  S:(above n9 n12)
  S:(above n10 n11)
  S:(above n10 n12)
  S:(above n11 n12)
  (lift-at fast0 n10)
  (passengers fast0 n0)
  S:(can-hold fast0 n1)
  S:(can-hold fast0 n2)
  S:(can-hold fast0 n3)
  S:(reachable-floor fast0 n0)
  S:(reachable-floor fast0 n2)
  S:(reachable-floor fast0 n4)
  S:(reachable-floor fast0 n6)
  S:(reachable-floor fast0 n8)
  S:(reachable-floor fast0 n10)
  S:(reachable-floor fast0 n12)
  (lift-at fast1 n2)
  (passengers fast1 n0)
  S:(can-hold fast1 n1)
  S:(can-hold fast1 n2)
  S:(can-hold fast1 n3)
  S:(reachable-floor fast1 n0)
  S:(reachable-floor fast1 n2)
  S:(reachable-floor fast1 n4)
  S:(reachable-floor fast1 n6)
  S:(reachable-floor fast1 n8)
  S:(reachable-floor fast1 n10)
  S:(reachable-floor fast1 n12)
  (lift-at slow0-0 n4)
  (passengers slow0-0 n0)
  S:(can-hold slow0-0 n1)
  S:(can-hold slow0-0 n2)
  S:(reachable-floor slow0-0 n0)
  S:(reachable-floor slow0-0 n1)
  S:(reachable-floor slow0-0 n2)
  S:(reachable-floor slow0-0 n3)
  S:(reachable-floor slow0-0 n4)
  (lift-at slow1-0 n6)
  (passengers slow1-0 n0)
  S:(can-hold slow1-0 n1)
  S:(can-hold slow1-0 n2)
  S:(reachable-floor slow1-0 n4)
  S:(reachable-floor slow1-0 n5)
  S:(reachable-floor slow1-0 n6)
  S:(reachable-floor slow1-0 n7)
  S:(reachable-floor slow1-0 n8)
  (lift-at slow2-0 n11)
  (passengers slow2-0 n0)
  S:(can-hold slow2-0 n1)
  S:(can-hold slow2-0 n2)
  S:(reachable-floor slow2-0 n8)
  S:(reachable-floor slow2-0 n9)
  S:(reachable-floor slow2-0 n10)
  S:(reachable-floor slow2-0 n11)
  S:(reachable-floor slow2-0 n12)
  (passenger-at p0 n2)
  (passenger-at p1 n6)
  (passenger-at p2 n9)
  (passenger-at p3 n9)
Init[52]:
  (= (travel-slow n0 n1) 6)
  (= (travel-slow n0 n2) 7)
  (= (travel-slow n0 n3) 8)
  (= (travel-slow n0 n4) 9)
  (= (travel-slow n1 n2) 6)
  (= (travel-slow n1 n3) 7)
  (= (travel-slow n1 n4) 8)
  (= (travel-slow n2 n3) 6)
  (= (travel-slow n2 n4) 7)
  (= (travel-slow n3 n4) 6)
  (= (travel-slow n4 n5) 6)
  (= (travel-slow n4 n6) 7)
  (= (travel-slow n4 n7) 8)
  (= (travel-slow n4 n8) 9)
  (= (travel-slow n5 n6) 6)
  (= (travel-slow n5 n7) 7)
  (= (travel-slow n5 n8) 8)
  (= (travel-slow n6 n7) 6)
  (= (travel-slow n6 n8) 7)
  (= (travel-slow n7 n8) 6)
  (= (travel-slow n8 n9) 6)
  (= (travel-slow n8 n10) 7)
  (= (travel-slow n8 n11) 8)
  (= (travel-slow n8 n12) 9)
  (= (travel-slow n9 n10) 6)
  (= (travel-slow n9 n11) 7)
  (= (travel-slow n9 n12) 8)
  (= (travel-slow n10 n11) 6)
  (= (travel-slow n10 n12) 7)
  (= (travel-slow n11 n12) 6)
  (= (travel-fast n0 n2) 7)
  (= (travel-fast n0 n4) 13)
  (= (travel-fast n0 n6) 19)
  (= (travel-fast n0 n8) 25)
  (= (travel-fast n0 n10) 31)
  (= (travel-fast n0 n12) 37)
  (= (travel-fast n2 n4) 7)
  (= (travel-fast n2 n6) 13)
  (= (travel-fast n2 n8) 19)
  (= (travel-fast n2 n10) 25)
  (= (travel-fast n2 n12) 31)
  (= (travel-fast n4 n6) 7)
  (= (travel-fast n4 n8) 13)
  (= (travel-fast n4 n10) 19)
  (= (travel-fast n4 n12) 25)
  (= (travel-fast n6 n8) 7)
  (= (travel-fast n6 n10) 13)
  (= (travel-fast n6 n12) 19)
  (= (travel-fast n8 n10) 7)
  (= (travel-fast n8 n12) 13)
  (= (travel-fast n10 n12) 7)
  (= (total-cost) 0)
Goal: (and (RW:passenger-at p0 n7) (RW:passenger-at p1 n10) (RW:passenger-at p2 n5) (RW:passenger-at p3 n4))
Metric: 1
