begin_version
3
end_version
begin_metric
1
end_metric
6
begin_variable
var0
-1
4
at hoist0 container-0-0
at hoist0 depot0-1-1
at hoist0 loadarea
tnf-unknown
end_variable
begin_variable
var1
-1
4
lifting hoist0 crate0
on crate0 container-0-0
on crate0 depot0-1-1
tnf-unknown
end_variable
begin_variable
var2
-1
3
available hoist0
none-of-those
tnf-unkown
end_variable
begin_variable
var3
-1
3
clear container-0-0
none-of-those
tnf-unkown
end_variable
begin_variable
var4
-1
3
clear depot0-1-1
none-of-those
tnf-unkown
end_variable
begin_variable
var5
-1
3
in crate0 depot0
none-of-those
tnf-unkown
end_variable
5
begin_mutex_group
2
2 0
1 0
end_mutex_group
begin_mutex_group
3
0 0
0 1
0 2
end_mutex_group
begin_mutex_group
3
0 0
3 0
1 1
end_mutex_group
begin_mutex_group
3
0 1
4 0
1 2
end_mutex_group
begin_mutex_group
3
1 0
1 1
1 2
end_mutex_group
begin_state
1
1
0
1
1
1
end_state
begin_goal
6
0 3
1 3
2 2
3 2
4 2
5 0
end_goal
22
begin_operator
drop hoist0 crate0 container-0-0 loadarea container0
1
0 2
3
0 1 0 1
0 2 2 0
0 3 0 1
1
end_operator
begin_operator
drop hoist0 crate0 depot0-1-1 loadarea depot0
1
0 2
4
0 1 0 2
0 2 2 0
0 4 0 1
0 5 2 0
1
end_operator
begin_operator
go-in hoist0 loadarea container-0-0
0
2
0 0 2 0
0 3 0 1
1
end_operator
begin_operator
go-in hoist0 loadarea depot0-1-1
0
2
0 0 2 1
0 4 0 1
1
end_operator
begin_operator
go-out hoist0 container-0-0 loadarea
0
2
0 0 0 2
0 3 2 0
1
end_operator
begin_operator
go-out hoist0 depot0-1-1 loadarea
0
2
0 0 1 2
0 4 2 0
1
end_operator
begin_operator
lift hoist0 crate0 container-0-0 loadarea container0
1
0 2
3
0 1 1 0
0 2 0 1
0 3 2 0
1
end_operator
begin_operator
lift hoist0 crate0 depot0-1-1 loadarea depot0
1
0 2
4
0 1 2 0
0 2 0 1
0 4 2 0
0 5 2 1
1
end_operator
begin_operator
tnf-forget-0-0
0
1
0 0 0 3
0
end_operator
begin_operator
tnf-forget-0-1
0
1
0 0 1 3
0
end_operator
begin_operator
tnf-forget-0-2
0
1
0 0 2 3
0
end_operator
begin_operator
tnf-forget-1-0
0
1
0 1 0 3
0
end_operator
begin_operator
tnf-forget-1-1
0
1
0 1 1 3
0
end_operator
begin_operator
tnf-forget-1-2
0
1
0 1 2 3
0
end_operator
begin_operator
tnf-forget-2-0
0
1
0 2 0 2
0
end_operator
begin_operator
tnf-forget-2-1
0
1
0 2 1 2
0
end_operator
begin_operator
tnf-forget-3-0
0
1
0 3 0 2
0
end_operator
begin_operator
tnf-forget-3-1
0
1
0 3 1 2
0
end_operator
begin_operator
tnf-forget-4-0
0
1
0 4 0 2
0
end_operator
begin_operator
tnf-forget-4-1
0
1
0 4 1 2
0
end_operator
begin_operator
tnf-forget-5-0
0
1
0 5 0 2
0
end_operator
begin_operator
tnf-forget-5-1
0
1
0 5 1 2
0
end_operator
0
