< {location V0:sheet_t C1:location_t, location V0:sheet_t C2:location_t}:=1
, {notprintedwith V0:sheet_t V1:side_t V2:color_t}
, {notprintedwith C2:sheet_t V0:side_t V1:color_t, notprintedwith C3:sheet_t V0:side_t V1:color_t}
, {uninitialized}
>
