Fact[68]:
  (clean shaker1)
  (clean shot1)
  (clean shot2)
  (clean shot3)
  (clean shot4)
  (contains shaker1 cocktail1)
  (contains shaker1 cocktail2)
  (contains shaker1 cocktail3)
  (contains shaker1 ingredient1)
  (contains shaker1 ingredient2)
  (contains shaker1 ingredient3)
  (contains shot1 cocktail3)
  (contains shot1 ingredient1)
  (contains shot1 ingredient2)
  (contains shot1 ingredient3)
  (contains shot2 cocktail1)
  (contains shot2 ingredient1)
  (contains shot2 ingredient2)
  (contains shot2 ingredient3)
  (contains shot3 cocktail2)
  (contains shot3 ingredient1)
  (contains shot3 ingredient2)
  (contains shot3 ingredient3)
  (contains shot4 cocktail1)
  (contains shot4 cocktail2)
  (contains shot4 cocktail3)
  (contains shot4 ingredient1)
  (contains shot4 ingredient2)
  (contains shot4 ingredient3)
  (empty shaker1)
  (empty shot1)
  (empty shot2)
  (empty shot3)
  (empty shot4)
  (handempty left)
  (handempty right)
  (holding left shaker1)
  (holding left shot1)
  (holding left shot2)
  (holding left shot3)
  (holding left shot4)
  (holding right shaker1)
  (holding right shot1)
  (holding right shot2)
  (holding right shot3)
  (holding right shot4)
  (ontable shaker1)
  (ontable shot1)
  (ontable shot2)
  (ontable shot3)
  (ontable shot4)
  (shaked shaker1)
  (shaker-level shaker1 l0)
  (shaker-level shaker1 l1)
  (shaker-level shaker1 l2)
  (unshaked shaker1)
  (used shot1 ingredient1)
  (used shot1 ingredient2)
  (used shot1 ingredient3)
  (used shot2 ingredient1)
  (used shot2 ingredient2)
  (used shot2 ingredient3)
  (used shot3 ingredient1)
  (used shot3 ingredient2)
  (used shot3 ingredient3)
  (used shot4 ingredient1)
  (used shot4 ingredient2)
  (used shot4 ingredient3)
Op[274]:
  (clean-shaker left right shaker1), cost: 1
    pre: (empty shaker1) (handempty right) (holding left shaker1)
    add: (clean shaker1)
    del:
  (clean-shaker right left shaker1), cost: 1
    pre: (empty shaker1) (handempty left) (holding right shaker1)
    add: (clean shaker1)
    del:
  (clean-shot shot1 ingredient1 left right), cost: 1
    pre: (empty shot1) (handempty right) (holding left shot1) (used shot1 ingredient1)
    add: (clean shot1)
    del: (used shot1 ingredient1)
  (clean-shot shot1 ingredient1 right left), cost: 1
    pre: (empty shot1) (handempty left) (holding right shot1) (used shot1 ingredient1)
    add: (clean shot1)
    del: (used shot1 ingredient1)
  (clean-shot shot1 ingredient2 left right), cost: 1
    pre: (empty shot1) (handempty right) (holding left shot1) (used shot1 ingredient2)
    add: (clean shot1)
    del: (used shot1 ingredient2)
  (clean-shot shot1 ingredient2 right left), cost: 1
    pre: (empty shot1) (handempty left) (holding right shot1) (used shot1 ingredient2)
    add: (clean shot1)
    del: (used shot1 ingredient2)
  (clean-shot shot1 ingredient3 left right), cost: 1
    pre: (empty shot1) (handempty right) (holding left shot1) (used shot1 ingredient3)
    add: (clean shot1)
    del: (used shot1 ingredient3)
  (clean-shot shot1 ingredient3 right left), cost: 1
    pre: (empty shot1) (handempty left) (holding right shot1) (used shot1 ingredient3)
    add: (clean shot1)
    del: (used shot1 ingredient3)
  (clean-shot shot2 ingredient1 left right), cost: 1
    pre: (empty shot2) (handempty right) (holding left shot2) (used shot2 ingredient1)
    add: (clean shot2)
    del: (used shot2 ingredient1)
  (clean-shot shot2 ingredient1 right left), cost: 1
    pre: (empty shot2) (handempty left) (holding right shot2) (used shot2 ingredient1)
    add: (clean shot2)
    del: (used shot2 ingredient1)
  (clean-shot shot2 ingredient2 left right), cost: 1
    pre: (empty shot2) (handempty right) (holding left shot2) (used shot2 ingredient2)
    add: (clean shot2)
    del: (used shot2 ingredient2)
  (clean-shot shot2 ingredient2 right left), cost: 1
    pre: (empty shot2) (handempty left) (holding right shot2) (used shot2 ingredient2)
    add: (clean shot2)
    del: (used shot2 ingredient2)
  (clean-shot shot2 ingredient3 left right), cost: 1
    pre: (empty shot2) (handempty right) (holding left shot2) (used shot2 ingredient3)
    add: (clean shot2)
    del: (used shot2 ingredient3)
  (clean-shot shot2 ingredient3 right left), cost: 1
    pre: (empty shot2) (handempty left) (holding right shot2) (used shot2 ingredient3)
    add: (clean shot2)
    del: (used shot2 ingredient3)
  (clean-shot shot3 ingredient1 left right), cost: 1
    pre: (empty shot3) (handempty right) (holding left shot3) (used shot3 ingredient1)
    add: (clean shot3)
    del: (used shot3 ingredient1)
  (clean-shot shot3 ingredient1 right left), cost: 1
    pre: (empty shot3) (handempty left) (holding right shot3) (used shot3 ingredient1)
    add: (clean shot3)
    del: (used shot3 ingredient1)
  (clean-shot shot3 ingredient2 left right), cost: 1
    pre: (empty shot3) (handempty right) (holding left shot3) (used shot3 ingredient2)
    add: (clean shot3)
    del: (used shot3 ingredient2)
  (clean-shot shot3 ingredient2 right left), cost: 1
    pre: (empty shot3) (handempty left) (holding right shot3) (used shot3 ingredient2)
    add: (clean shot3)
    del: (used shot3 ingredient2)
  (clean-shot shot3 ingredient3 left right), cost: 1
    pre: (empty shot3) (handempty right) (holding left shot3) (used shot3 ingredient3)
    add: (clean shot3)
    del: (used shot3 ingredient3)
  (clean-shot shot3 ingredient3 right left), cost: 1
    pre: (empty shot3) (handempty left) (holding right shot3) (used shot3 ingredient3)
    add: (clean shot3)
    del: (used shot3 ingredient3)
  (clean-shot shot4 ingredient1 left right), cost: 1
    pre: (empty shot4) (handempty right) (holding left shot4) (used shot4 ingredient1)
    add: (clean shot4)
    del: (used shot4 ingredient1)
  (clean-shot shot4 ingredient1 right left), cost: 1
    pre: (empty shot4) (handempty left) (holding right shot4) (used shot4 ingredient1)
    add: (clean shot4)
    del: (used shot4 ingredient1)
  (clean-shot shot4 ingredient2 left right), cost: 1
    pre: (empty shot4) (handempty right) (holding left shot4) (used shot4 ingredient2)
    add: (clean shot4)
    del: (used shot4 ingredient2)
  (clean-shot shot4 ingredient2 right left), cost: 1
    pre: (empty shot4) (handempty left) (holding right shot4) (used shot4 ingredient2)
    add: (clean shot4)
    del: (used shot4 ingredient2)
  (clean-shot shot4 ingredient3 left right), cost: 1
    pre: (empty shot4) (handempty right) (holding left shot4) (used shot4 ingredient3)
    add: (clean shot4)
    del: (used shot4 ingredient3)
  (clean-shot shot4 ingredient3 right left), cost: 1
    pre: (empty shot4) (handempty left) (holding right shot4) (used shot4 ingredient3)
    add: (clean shot4)
    del: (used shot4 ingredient3)
  (empty-shaker left shaker1 cocktail1 l0 l0), cost: 1
    pre: (contains shaker1 cocktail1) (holding left shaker1) (shaked shaker1) (shaker-level shaker1 l0)
    add: (empty shaker1)
    del: (contains shaker1 cocktail1) (shaked shaker1)
  (empty-shaker left shaker1 cocktail1 l1 l0), cost: 1
    pre: (contains shaker1 cocktail1) (holding left shaker1) (shaked shaker1) (shaker-level shaker1 l1)
    add: (empty shaker1) (shaker-level shaker1 l0)
    del: (contains shaker1 cocktail1) (shaked shaker1) (shaker-level shaker1 l1)
  (empty-shaker left shaker1 cocktail1 l2 l0), cost: 1
    pre: (contains shaker1 cocktail1) (holding left shaker1) (shaked shaker1) (shaker-level shaker1 l2)
    add: (empty shaker1) (shaker-level shaker1 l0)
    del: (contains shaker1 cocktail1) (shaked shaker1) (shaker-level shaker1 l2)
  (empty-shaker left shaker1 cocktail2 l0 l0), cost: 1
    pre: (contains shaker1 cocktail2) (holding left shaker1) (shaked shaker1) (shaker-level shaker1 l0)
    add: (empty shaker1)
    del: (contains shaker1 cocktail2) (shaked shaker1)
  (empty-shaker left shaker1 cocktail2 l1 l0), cost: 1
    pre: (contains shaker1 cocktail2) (holding left shaker1) (shaked shaker1) (shaker-level shaker1 l1)
    add: (empty shaker1) (shaker-level shaker1 l0)
    del: (contains shaker1 cocktail2) (shaked shaker1) (shaker-level shaker1 l1)
  (empty-shaker left shaker1 cocktail2 l2 l0), cost: 1
    pre: (contains shaker1 cocktail2) (holding left shaker1) (shaked shaker1) (shaker-level shaker1 l2)
    add: (empty shaker1) (shaker-level shaker1 l0)
    del: (contains shaker1 cocktail2) (shaked shaker1) (shaker-level shaker1 l2)
  (empty-shaker left shaker1 cocktail3 l0 l0), cost: 1
    pre: (contains shaker1 cocktail3) (holding left shaker1) (shaked shaker1) (shaker-level shaker1 l0)
    add: (empty shaker1)
    del: (contains shaker1 cocktail3) (shaked shaker1)
  (empty-shaker left shaker1 cocktail3 l1 l0), cost: 1
    pre: (contains shaker1 cocktail3) (holding left shaker1) (shaked shaker1) (shaker-level shaker1 l1)
    add: (empty shaker1) (shaker-level shaker1 l0)
    del: (contains shaker1 cocktail3) (shaked shaker1) (shaker-level shaker1 l1)
  (empty-shaker left shaker1 cocktail3 l2 l0), cost: 1
    pre: (contains shaker1 cocktail3) (holding left shaker1) (shaked shaker1) (shaker-level shaker1 l2)
    add: (empty shaker1) (shaker-level shaker1 l0)
    del: (contains shaker1 cocktail3) (shaked shaker1) (shaker-level shaker1 l2)
  (empty-shaker right shaker1 cocktail1 l0 l0), cost: 1
    pre: (contains shaker1 cocktail1) (holding right shaker1) (shaked shaker1) (shaker-level shaker1 l0)
    add: (empty shaker1)
    del: (contains shaker1 cocktail1) (shaked shaker1)
  (empty-shaker right shaker1 cocktail1 l1 l0), cost: 1
    pre: (contains shaker1 cocktail1) (holding right shaker1) (shaked shaker1) (shaker-level shaker1 l1)
    add: (empty shaker1) (shaker-level shaker1 l0)
    del: (contains shaker1 cocktail1) (shaked shaker1) (shaker-level shaker1 l1)
  (empty-shaker right shaker1 cocktail1 l2 l0), cost: 1
    pre: (contains shaker1 cocktail1) (holding right shaker1) (shaked shaker1) (shaker-level shaker1 l2)
    add: (empty shaker1) (shaker-level shaker1 l0)
    del: (contains shaker1 cocktail1) (shaked shaker1) (shaker-level shaker1 l2)
  (empty-shaker right shaker1 cocktail2 l0 l0), cost: 1
    pre: (contains shaker1 cocktail2) (holding right shaker1) (shaked shaker1) (shaker-level shaker1 l0)
    add: (empty shaker1)
    del: (contains shaker1 cocktail2) (shaked shaker1)
  (empty-shaker right shaker1 cocktail2 l1 l0), cost: 1
    pre: (contains shaker1 cocktail2) (holding right shaker1) (shaked shaker1) (shaker-level shaker1 l1)
    add: (empty shaker1) (shaker-level shaker1 l0)
    del: (contains shaker1 cocktail2) (shaked shaker1) (shaker-level shaker1 l1)
  (empty-shaker right shaker1 cocktail2 l2 l0), cost: 1
    pre: (contains shaker1 cocktail2) (holding right shaker1) (shaked shaker1) (shaker-level shaker1 l2)
    add: (empty shaker1) (shaker-level shaker1 l0)
    del: (contains shaker1 cocktail2) (shaked shaker1) (shaker-level shaker1 l2)
  (empty-shaker right shaker1 cocktail3 l0 l0), cost: 1
    pre: (contains shaker1 cocktail3) (holding right shaker1) (shaked shaker1) (shaker-level shaker1 l0)
    add: (empty shaker1)
    del: (contains shaker1 cocktail3) (shaked shaker1)
  (empty-shaker right shaker1 cocktail3 l1 l0), cost: 1
    pre: (contains shaker1 cocktail3) (holding right shaker1) (shaked shaker1) (shaker-level shaker1 l1)
    add: (empty shaker1) (shaker-level shaker1 l0)
    del: (contains shaker1 cocktail3) (shaked shaker1) (shaker-level shaker1 l1)
  (empty-shaker right shaker1 cocktail3 l2 l0), cost: 1
    pre: (contains shaker1 cocktail3) (holding right shaker1) (shaked shaker1) (shaker-level shaker1 l2)
    add: (empty shaker1) (shaker-level shaker1 l0)
    del: (contains shaker1 cocktail3) (shaked shaker1) (shaker-level shaker1 l2)
  (empty-shot left shot1 cocktail3), cost: 1
    pre: (contains shot1 cocktail3) (holding left shot1)
    add: (empty shot1)
    del: (contains shot1 cocktail3)
  (empty-shot left shot1 ingredient1), cost: 1
    pre: (contains shot1 ingredient1) (holding left shot1)
    add: (empty shot1)
    del: (contains shot1 ingredient1)
  (empty-shot left shot1 ingredient2), cost: 1
    pre: (contains shot1 ingredient2) (holding left shot1)
    add: (empty shot1)
    del: (contains shot1 ingredient2)
  (empty-shot left shot1 ingredient3), cost: 1
    pre: (contains shot1 ingredient3) (holding left shot1)
    add: (empty shot1)
    del: (contains shot1 ingredient3)
  (empty-shot left shot2 cocktail1), cost: 1
    pre: (contains shot2 cocktail1) (holding left shot2)
    add: (empty shot2)
    del: (contains shot2 cocktail1)
  (empty-shot left shot2 ingredient1), cost: 1
    pre: (contains shot2 ingredient1) (holding left shot2)
    add: (empty shot2)
    del: (contains shot2 ingredient1)
  (empty-shot left shot2 ingredient2), cost: 1
    pre: (contains shot2 ingredient2) (holding left shot2)
    add: (empty shot2)
    del: (contains shot2 ingredient2)
  (empty-shot left shot2 ingredient3), cost: 1
    pre: (contains shot2 ingredient3) (holding left shot2)
    add: (empty shot2)
    del: (contains shot2 ingredient3)
  (empty-shot left shot3 cocktail2), cost: 1
    pre: (contains shot3 cocktail2) (holding left shot3)
    add: (empty shot3)
    del: (contains shot3 cocktail2)
  (empty-shot left shot3 ingredient1), cost: 1
    pre: (contains shot3 ingredient1) (holding left shot3)
    add: (empty shot3)
    del: (contains shot3 ingredient1)
  (empty-shot left shot3 ingredient2), cost: 1
    pre: (contains shot3 ingredient2) (holding left shot3)
    add: (empty shot3)
    del: (contains shot3 ingredient2)
  (empty-shot left shot3 ingredient3), cost: 1
    pre: (contains shot3 ingredient3) (holding left shot3)
    add: (empty shot3)
    del: (contains shot3 ingredient3)
  (empty-shot left shot4 cocktail1), cost: 1
    pre: (contains shot4 cocktail1) (holding left shot4)
    add: (empty shot4)
    del: (contains shot4 cocktail1)
  (empty-shot left shot4 cocktail2), cost: 1
    pre: (contains shot4 cocktail2) (holding left shot4)
    add: (empty shot4)
    del: (contains shot4 cocktail2)
  (empty-shot left shot4 cocktail3), cost: 1
    pre: (contains shot4 cocktail3) (holding left shot4)
    add: (empty shot4)
    del: (contains shot4 cocktail3)
  (empty-shot left shot4 ingredient1), cost: 1
    pre: (contains shot4 ingredient1) (holding left shot4)
    add: (empty shot4)
    del: (contains shot4 ingredient1)
  (empty-shot left shot4 ingredient2), cost: 1
    pre: (contains shot4 ingredient2) (holding left shot4)
    add: (empty shot4)
    del: (contains shot4 ingredient2)
  (empty-shot left shot4 ingredient3), cost: 1
    pre: (contains shot4 ingredient3) (holding left shot4)
    add: (empty shot4)
    del: (contains shot4 ingredient3)
  (empty-shot right shot1 cocktail3), cost: 1
    pre: (contains shot1 cocktail3) (holding right shot1)
    add: (empty shot1)
    del: (contains shot1 cocktail3)
  (empty-shot right shot1 ingredient1), cost: 1
    pre: (contains shot1 ingredient1) (holding right shot1)
    add: (empty shot1)
    del: (contains shot1 ingredient1)
  (empty-shot right shot1 ingredient2), cost: 1
    pre: (contains shot1 ingredient2) (holding right shot1)
    add: (empty shot1)
    del: (contains shot1 ingredient2)
  (empty-shot right shot1 ingredient3), cost: 1
    pre: (contains shot1 ingredient3) (holding right shot1)
    add: (empty shot1)
    del: (contains shot1 ingredient3)
  (empty-shot right shot2 cocktail1), cost: 1
    pre: (contains shot2 cocktail1) (holding right shot2)
    add: (empty shot2)
    del: (contains shot2 cocktail1)
  (empty-shot right shot2 ingredient1), cost: 1
    pre: (contains shot2 ingredient1) (holding right shot2)
    add: (empty shot2)
    del: (contains shot2 ingredient1)
  (empty-shot right shot2 ingredient2), cost: 1
    pre: (contains shot2 ingredient2) (holding right shot2)
    add: (empty shot2)
    del: (contains shot2 ingredient2)
  (empty-shot right shot2 ingredient3), cost: 1
    pre: (contains shot2 ingredient3) (holding right shot2)
    add: (empty shot2)
    del: (contains shot2 ingredient3)
  (empty-shot right shot3 cocktail2), cost: 1
    pre: (contains shot3 cocktail2) (holding right shot3)
    add: (empty shot3)
    del: (contains shot3 cocktail2)
  (empty-shot right shot3 ingredient1), cost: 1
    pre: (contains shot3 ingredient1) (holding right shot3)
    add: (empty shot3)
    del: (contains shot3 ingredient1)
  (empty-shot right shot3 ingredient2), cost: 1
    pre: (contains shot3 ingredient2) (holding right shot3)
    add: (empty shot3)
    del: (contains shot3 ingredient2)
  (empty-shot right shot3 ingredient3), cost: 1
    pre: (contains shot3 ingredient3) (holding right shot3)
    add: (empty shot3)
    del: (contains shot3 ingredient3)
  (empty-shot right shot4 cocktail1), cost: 1
    pre: (contains shot4 cocktail1) (holding right shot4)
    add: (empty shot4)
    del: (contains shot4 cocktail1)
  (empty-shot right shot4 cocktail2), cost: 1
    pre: (contains shot4 cocktail2) (holding right shot4)
    add: (empty shot4)
    del: (contains shot4 cocktail2)
  (empty-shot right shot4 cocktail3), cost: 1
    pre: (contains shot4 cocktail3) (holding right shot4)
    add: (empty shot4)
    del: (contains shot4 cocktail3)
  (empty-shot right shot4 ingredient1), cost: 1
    pre: (contains shot4 ingredient1) (holding right shot4)
    add: (empty shot4)
    del: (contains shot4 ingredient1)
  (empty-shot right shot4 ingredient2), cost: 1
    pre: (contains shot4 ingredient2) (holding right shot4)
    add: (empty shot4)
    del: (contains shot4 ingredient2)
  (empty-shot right shot4 ingredient3), cost: 1
    pre: (contains shot4 ingredient3) (holding right shot4)
    add: (empty shot4)
    del: (contains shot4 ingredient3)
  (fill-shot shot1 ingredient1 left right dispenser1), cost: 10
    pre: (clean shot1) (empty shot1) (handempty right) (holding left shot1)
    add: (contains shot1 ingredient1) (used shot1 ingredient1)
    del: (clean shot1) (empty shot1)
  (fill-shot shot1 ingredient1 right left dispenser1), cost: 10
    pre: (clean shot1) (empty shot1) (handempty left) (holding right shot1)
    add: (contains shot1 ingredient1) (used shot1 ingredient1)
    del: (clean shot1) (empty shot1)
  (fill-shot shot1 ingredient2 left right dispenser2), cost: 10
    pre: (clean shot1) (empty shot1) (handempty right) (holding left shot1)
    add: (contains shot1 ingredient2) (used shot1 ingredient2)
    del: (clean shot1) (empty shot1)
  (fill-shot shot1 ingredient2 right left dispenser2), cost: 10
    pre: (clean shot1) (empty shot1) (handempty left) (holding right shot1)
    add: (contains shot1 ingredient2) (used shot1 ingredient2)
    del: (clean shot1) (empty shot1)
  (fill-shot shot1 ingredient3 left right dispenser3), cost: 10
    pre: (clean shot1) (empty shot1) (handempty right) (holding left shot1)
    add: (contains shot1 ingredient3) (used shot1 ingredient3)
    del: (clean shot1) (empty shot1)
  (fill-shot shot1 ingredient3 right left dispenser3), cost: 10
    pre: (clean shot1) (empty shot1) (handempty left) (holding right shot1)
    add: (contains shot1 ingredient3) (used shot1 ingredient3)
    del: (clean shot1) (empty shot1)
  (fill-shot shot2 ingredient1 left right dispenser1), cost: 10
    pre: (clean shot2) (empty shot2) (handempty right) (holding left shot2)
    add: (contains shot2 ingredient1) (used shot2 ingredient1)
    del: (clean shot2) (empty shot2)
  (fill-shot shot2 ingredient1 right left dispenser1), cost: 10
    pre: (clean shot2) (empty shot2) (handempty left) (holding right shot2)
    add: (contains shot2 ingredient1) (used shot2 ingredient1)
    del: (clean shot2) (empty shot2)
  (fill-shot shot2 ingredient2 left right dispenser2), cost: 10
    pre: (clean shot2) (empty shot2) (handempty right) (holding left shot2)
    add: (contains shot2 ingredient2) (used shot2 ingredient2)
    del: (clean shot2) (empty shot2)
  (fill-shot shot2 ingredient2 right left dispenser2), cost: 10
    pre: (clean shot2) (empty shot2) (handempty left) (holding right shot2)
    add: (contains shot2 ingredient2) (used shot2 ingredient2)
    del: (clean shot2) (empty shot2)
  (fill-shot shot2 ingredient3 left right dispenser3), cost: 10
    pre: (clean shot2) (empty shot2) (handempty right) (holding left shot2)
    add: (contains shot2 ingredient3) (used shot2 ingredient3)
    del: (clean shot2) (empty shot2)
  (fill-shot shot2 ingredient3 right left dispenser3), cost: 10
    pre: (clean shot2) (empty shot2) (handempty left) (holding right shot2)
    add: (contains shot2 ingredient3) (used shot2 ingredient3)
    del: (clean shot2) (empty shot2)
  (fill-shot shot3 ingredient1 left right dispenser1), cost: 10
    pre: (clean shot3) (empty shot3) (handempty right) (holding left shot3)
    add: (contains shot3 ingredient1) (used shot3 ingredient1)
    del: (clean shot3) (empty shot3)
  (fill-shot shot3 ingredient1 right left dispenser1), cost: 10
    pre: (clean shot3) (empty shot3) (handempty left) (holding right shot3)
    add: (contains shot3 ingredient1) (used shot3 ingredient1)
    del: (clean shot3) (empty shot3)
  (fill-shot shot3 ingredient2 left right dispenser2), cost: 10
    pre: (clean shot3) (empty shot3) (handempty right) (holding left shot3)
    add: (contains shot3 ingredient2) (used shot3 ingredient2)
    del: (clean shot3) (empty shot3)
  (fill-shot shot3 ingredient2 right left dispenser2), cost: 10
    pre: (clean shot3) (empty shot3) (handempty left) (holding right shot3)
    add: (contains shot3 ingredient2) (used shot3 ingredient2)
    del: (clean shot3) (empty shot3)
  (fill-shot shot3 ingredient3 left right dispenser3), cost: 10
    pre: (clean shot3) (empty shot3) (handempty right) (holding left shot3)
    add: (contains shot3 ingredient3) (used shot3 ingredient3)
    del: (clean shot3) (empty shot3)
  (fill-shot shot3 ingredient3 right left dispenser3), cost: 10
    pre: (clean shot3) (empty shot3) (handempty left) (holding right shot3)
    add: (contains shot3 ingredient3) (used shot3 ingredient3)
    del: (clean shot3) (empty shot3)
  (fill-shot shot4 ingredient1 left right dispenser1), cost: 10
    pre: (clean shot4) (empty shot4) (handempty right) (holding left shot4)
    add: (contains shot4 ingredient1) (used shot4 ingredient1)
    del: (clean shot4) (empty shot4)
  (fill-shot shot4 ingredient1 right left dispenser1), cost: 10
    pre: (clean shot4) (empty shot4) (handempty left) (holding right shot4)
    add: (contains shot4 ingredient1) (used shot4 ingredient1)
    del: (clean shot4) (empty shot4)
  (fill-shot shot4 ingredient2 left right dispenser2), cost: 10
    pre: (clean shot4) (empty shot4) (handempty right) (holding left shot4)
    add: (contains shot4 ingredient2) (used shot4 ingredient2)
    del: (clean shot4) (empty shot4)
  (fill-shot shot4 ingredient2 right left dispenser2), cost: 10
    pre: (clean shot4) (empty shot4) (handempty left) (holding right shot4)
    add: (contains shot4 ingredient2) (used shot4 ingredient2)
    del: (clean shot4) (empty shot4)
  (fill-shot shot4 ingredient3 left right dispenser3), cost: 10
    pre: (clean shot4) (empty shot4) (handempty right) (holding left shot4)
    add: (contains shot4 ingredient3) (used shot4 ingredient3)
    del: (clean shot4) (empty shot4)
  (fill-shot shot4 ingredient3 right left dispenser3), cost: 10
    pre: (clean shot4) (empty shot4) (handempty left) (holding right shot4)
    add: (contains shot4 ingredient3) (used shot4 ingredient3)
    del: (clean shot4) (empty shot4)
  (grasp left shaker1), cost: 1
    pre: (handempty left) (ontable shaker1)
    add: (holding left shaker1)
    del: (handempty left) (ontable shaker1)
  (grasp left shot1), cost: 1
    pre: (handempty left) (ontable shot1)
    add: (holding left shot1)
    del: (handempty left) (ontable shot1)
  (grasp left shot2), cost: 1
    pre: (handempty left) (ontable shot2)
    add: (holding left shot2)
    del: (handempty left) (ontable shot2)
  (grasp left shot3), cost: 1
    pre: (handempty left) (ontable shot3)
    add: (holding left shot3)
    del: (handempty left) (ontable shot3)
  (grasp left shot4), cost: 1
    pre: (handempty left) (ontable shot4)
    add: (holding left shot4)
    del: (handempty left) (ontable shot4)
  (grasp right shaker1), cost: 1
    pre: (handempty right) (ontable shaker1)
    add: (holding right shaker1)
    del: (handempty right) (ontable shaker1)
  (grasp right shot1), cost: 1
    pre: (handempty right) (ontable shot1)
    add: (holding right shot1)
    del: (handempty right) (ontable shot1)
  (grasp right shot2), cost: 1
    pre: (handempty right) (ontable shot2)
    add: (holding right shot2)
    del: (handempty right) (ontable shot2)
  (grasp right shot3), cost: 1
    pre: (handempty right) (ontable shot3)
    add: (holding right shot3)
    del: (handempty right) (ontable shot3)
  (grasp right shot4), cost: 1
    pre: (handempty right) (ontable shot4)
    add: (holding right shot4)
    del: (handempty right) (ontable shot4)
  (leave left shaker1), cost: 1
    pre: (holding left shaker1)
    add: (handempty left) (ontable shaker1)
    del: (holding left shaker1)
  (leave left shot1), cost: 1
    pre: (holding left shot1)
    add: (handempty left) (ontable shot1)
    del: (holding left shot1)
  (leave left shot2), cost: 1
    pre: (holding left shot2)
    add: (handempty left) (ontable shot2)
    del: (holding left shot2)
  (leave left shot3), cost: 1
    pre: (holding left shot3)
    add: (handempty left) (ontable shot3)
    del: (holding left shot3)
  (leave left shot4), cost: 1
    pre: (holding left shot4)
    add: (handempty left) (ontable shot4)
    del: (holding left shot4)
  (leave right shaker1), cost: 1
    pre: (holding right shaker1)
    add: (handempty right) (ontable shaker1)
    del: (holding right shaker1)
  (leave right shot1), cost: 1
    pre: (holding right shot1)
    add: (handempty right) (ontable shot1)
    del: (holding right shot1)
  (leave right shot2), cost: 1
    pre: (holding right shot2)
    add: (handempty right) (ontable shot2)
    del: (holding right shot2)
  (leave right shot3), cost: 1
    pre: (holding right shot3)
    add: (handempty right) (ontable shot3)
    del: (holding right shot3)
  (leave right shot4), cost: 1
    pre: (holding right shot4)
    add: (handempty right) (ontable shot4)
    del: (holding right shot4)
  (pour-shaker-to-shot cocktail1 shot2 left shaker1 l1 l0), cost: 1
    pre: (clean shot2) (contains shaker1 cocktail1) (empty shot2) (holding left shaker1) (shaked shaker1) (shaker-level shaker1 l1)
    add: (contains shot2 cocktail1) (shaker-level shaker1 l0)
    del: (clean shot2) (empty shot2) (shaker-level shaker1 l1)
  (pour-shaker-to-shot cocktail1 shot2 left shaker1 l2 l1), cost: 1
    pre: (clean shot2) (contains shaker1 cocktail1) (empty shot2) (holding left shaker1) (shaked shaker1) (shaker-level shaker1 l2)
    add: (contains shot2 cocktail1) (shaker-level shaker1 l1)
    del: (clean shot2) (empty shot2) (shaker-level shaker1 l2)
  (pour-shaker-to-shot cocktail1 shot2 right shaker1 l1 l0), cost: 1
    pre: (clean shot2) (contains shaker1 cocktail1) (empty shot2) (holding right shaker1) (shaked shaker1) (shaker-level shaker1 l1)
    add: (contains shot2 cocktail1) (shaker-level shaker1 l0)
    del: (clean shot2) (empty shot2) (shaker-level shaker1 l1)
  (pour-shaker-to-shot cocktail1 shot2 right shaker1 l2 l1), cost: 1
    pre: (clean shot2) (contains shaker1 cocktail1) (empty shot2) (holding right shaker1) (shaked shaker1) (shaker-level shaker1 l2)
    add: (contains shot2 cocktail1) (shaker-level shaker1 l1)
    del: (clean shot2) (empty shot2) (shaker-level shaker1 l2)
  (pour-shaker-to-shot cocktail1 shot4 left shaker1 l1 l0), cost: 1
    pre: (clean shot4) (contains shaker1 cocktail1) (empty shot4) (holding left shaker1) (shaked shaker1) (shaker-level shaker1 l1)
    add: (contains shot4 cocktail1) (shaker-level shaker1 l0)
    del: (clean shot4) (empty shot4) (shaker-level shaker1 l1)
  (pour-shaker-to-shot cocktail1 shot4 left shaker1 l2 l1), cost: 1
    pre: (clean shot4) (contains shaker1 cocktail1) (empty shot4) (holding left shaker1) (shaked shaker1) (shaker-level shaker1 l2)
    add: (contains shot4 cocktail1) (shaker-level shaker1 l1)
    del: (clean shot4) (empty shot4) (shaker-level shaker1 l2)
  (pour-shaker-to-shot cocktail1 shot4 right shaker1 l1 l0), cost: 1
    pre: (clean shot4) (contains shaker1 cocktail1) (empty shot4) (holding right shaker1) (shaked shaker1) (shaker-level shaker1 l1)
    add: (contains shot4 cocktail1) (shaker-level shaker1 l0)
    del: (clean shot4) (empty shot4) (shaker-level shaker1 l1)
  (pour-shaker-to-shot cocktail1 shot4 right shaker1 l2 l1), cost: 1
    pre: (clean shot4) (contains shaker1 cocktail1) (empty shot4) (holding right shaker1) (shaked shaker1) (shaker-level shaker1 l2)
    add: (contains shot4 cocktail1) (shaker-level shaker1 l1)
    del: (clean shot4) (empty shot4) (shaker-level shaker1 l2)
  (pour-shaker-to-shot cocktail2 shot3 left shaker1 l1 l0), cost: 1
    pre: (clean shot3) (contains shaker1 cocktail2) (empty shot3) (holding left shaker1) (shaked shaker1) (shaker-level shaker1 l1)
    add: (contains shot3 cocktail2) (shaker-level shaker1 l0)
    del: (clean shot3) (empty shot3) (shaker-level shaker1 l1)
  (pour-shaker-to-shot cocktail2 shot3 left shaker1 l2 l1), cost: 1
    pre: (clean shot3) (contains shaker1 cocktail2) (empty shot3) (holding left shaker1) (shaked shaker1) (shaker-level shaker1 l2)
    add: (contains shot3 cocktail2) (shaker-level shaker1 l1)
    del: (clean shot3) (empty shot3) (shaker-level shaker1 l2)
  (pour-shaker-to-shot cocktail2 shot3 right shaker1 l1 l0), cost: 1
    pre: (clean shot3) (contains shaker1 cocktail2) (empty shot3) (holding right shaker1) (shaked shaker1) (shaker-level shaker1 l1)
    add: (contains shot3 cocktail2) (shaker-level shaker1 l0)
    del: (clean shot3) (empty shot3) (shaker-level shaker1 l1)
  (pour-shaker-to-shot cocktail2 shot3 right shaker1 l2 l1), cost: 1
    pre: (clean shot3) (contains shaker1 cocktail2) (empty shot3) (holding right shaker1) (shaked shaker1) (shaker-level shaker1 l2)
    add: (contains shot3 cocktail2) (shaker-level shaker1 l1)
    del: (clean shot3) (empty shot3) (shaker-level shaker1 l2)
  (pour-shaker-to-shot cocktail2 shot4 left shaker1 l1 l0), cost: 1
    pre: (clean shot4) (contains shaker1 cocktail2) (empty shot4) (holding left shaker1) (shaked shaker1) (shaker-level shaker1 l1)
    add: (contains shot4 cocktail2) (shaker-level shaker1 l0)
    del: (clean shot4) (empty shot4) (shaker-level shaker1 l1)
  (pour-shaker-to-shot cocktail2 shot4 left shaker1 l2 l1), cost: 1
    pre: (clean shot4) (contains shaker1 cocktail2) (empty shot4) (holding left shaker1) (shaked shaker1) (shaker-level shaker1 l2)
    add: (contains shot4 cocktail2) (shaker-level shaker1 l1)
    del: (clean shot4) (empty shot4) (shaker-level shaker1 l2)
  (pour-shaker-to-shot cocktail2 shot4 right shaker1 l1 l0), cost: 1
    pre: (clean shot4) (contains shaker1 cocktail2) (empty shot4) (holding right shaker1) (shaked shaker1) (shaker-level shaker1 l1)
    add: (contains shot4 cocktail2) (shaker-level shaker1 l0)
    del: (clean shot4) (empty shot4) (shaker-level shaker1 l1)
  (pour-shaker-to-shot cocktail2 shot4 right shaker1 l2 l1), cost: 1
    pre: (clean shot4) (contains shaker1 cocktail2) (empty shot4) (holding right shaker1) (shaked shaker1) (shaker-level shaker1 l2)
    add: (contains shot4 cocktail2) (shaker-level shaker1 l1)
    del: (clean shot4) (empty shot4) (shaker-level shaker1 l2)
  (pour-shaker-to-shot cocktail3 shot1 left shaker1 l1 l0), cost: 1
    pre: (clean shot1) (contains shaker1 cocktail3) (empty shot1) (holding left shaker1) (shaked shaker1) (shaker-level shaker1 l1)
    add: (contains shot1 cocktail3) (shaker-level shaker1 l0)
    del: (clean shot1) (empty shot1) (shaker-level shaker1 l1)
  (pour-shaker-to-shot cocktail3 shot1 left shaker1 l2 l1), cost: 1
    pre: (clean shot1) (contains shaker1 cocktail3) (empty shot1) (holding left shaker1) (shaked shaker1) (shaker-level shaker1 l2)
    add: (contains shot1 cocktail3) (shaker-level shaker1 l1)
    del: (clean shot1) (empty shot1) (shaker-level shaker1 l2)
  (pour-shaker-to-shot cocktail3 shot1 right shaker1 l1 l0), cost: 1
    pre: (clean shot1) (contains shaker1 cocktail3) (empty shot1) (holding right shaker1) (shaked shaker1) (shaker-level shaker1 l1)
    add: (contains shot1 cocktail3) (shaker-level shaker1 l0)
    del: (clean shot1) (empty shot1) (shaker-level shaker1 l1)
  (pour-shaker-to-shot cocktail3 shot1 right shaker1 l2 l1), cost: 1
    pre: (clean shot1) (contains shaker1 cocktail3) (empty shot1) (holding right shaker1) (shaked shaker1) (shaker-level shaker1 l2)
    add: (contains shot1 cocktail3) (shaker-level shaker1 l1)
    del: (clean shot1) (empty shot1) (shaker-level shaker1 l2)
  (pour-shaker-to-shot cocktail3 shot4 left shaker1 l1 l0), cost: 1
    pre: (clean shot4) (contains shaker1 cocktail3) (empty shot4) (holding left shaker1) (shaked shaker1) (shaker-level shaker1 l1)
    add: (contains shot4 cocktail3) (shaker-level shaker1 l0)
    del: (clean shot4) (empty shot4) (shaker-level shaker1 l1)
  (pour-shaker-to-shot cocktail3 shot4 left shaker1 l2 l1), cost: 1
    pre: (clean shot4) (contains shaker1 cocktail3) (empty shot4) (holding left shaker1) (shaked shaker1) (shaker-level shaker1 l2)
    add: (contains shot4 cocktail3) (shaker-level shaker1 l1)
    del: (clean shot4) (empty shot4) (shaker-level shaker1 l2)
  (pour-shaker-to-shot cocktail3 shot4 right shaker1 l1 l0), cost: 1
    pre: (clean shot4) (contains shaker1 cocktail3) (empty shot4) (holding right shaker1) (shaked shaker1) (shaker-level shaker1 l1)
    add: (contains shot4 cocktail3) (shaker-level shaker1 l0)
    del: (clean shot4) (empty shot4) (shaker-level shaker1 l1)
  (pour-shaker-to-shot cocktail3 shot4 right shaker1 l2 l1), cost: 1
    pre: (clean shot4) (contains shaker1 cocktail3) (empty shot4) (holding right shaker1) (shaked shaker1) (shaker-level shaker1 l2)
    add: (contains shot4 cocktail3) (shaker-level shaker1 l1)
    del: (clean shot4) (empty shot4) (shaker-level shaker1 l2)
  (pour-shaker-to-shot ingredient1 shot1 left shaker1 l1 l0), cost: 1
    pre: (clean shot1) (contains shaker1 ingredient1) (empty shot1) (holding left shaker1) (shaked shaker1) (shaker-level shaker1 l1)
    add: (contains shot1 ingredient1) (shaker-level shaker1 l0)
    del: (clean shot1) (empty shot1) (shaker-level shaker1 l1)
  (pour-shaker-to-shot ingredient1 shot1 left shaker1 l2 l1), cost: 1
    pre: (clean shot1) (contains shaker1 ingredient1) (empty shot1) (holding left shaker1) (shaked shaker1) (shaker-level shaker1 l2)
    add: (contains shot1 ingredient1) (shaker-level shaker1 l1)
    del: (clean shot1) (empty shot1) (shaker-level shaker1 l2)
  (pour-shaker-to-shot ingredient1 shot1 right shaker1 l1 l0), cost: 1
    pre: (clean shot1) (contains shaker1 ingredient1) (empty shot1) (holding right shaker1) (shaked shaker1) (shaker-level shaker1 l1)
    add: (contains shot1 ingredient1) (shaker-level shaker1 l0)
    del: (clean shot1) (empty shot1) (shaker-level shaker1 l1)
  (pour-shaker-to-shot ingredient1 shot1 right shaker1 l2 l1), cost: 1
    pre: (clean shot1) (contains shaker1 ingredient1) (empty shot1) (holding right shaker1) (shaked shaker1) (shaker-level shaker1 l2)
    add: (contains shot1 ingredient1) (shaker-level shaker1 l1)
    del: (clean shot1) (empty shot1) (shaker-level shaker1 l2)
  (pour-shaker-to-shot ingredient1 shot2 left shaker1 l1 l0), cost: 1
    pre: (clean shot2) (contains shaker1 ingredient1) (empty shot2) (holding left shaker1) (shaked shaker1) (shaker-level shaker1 l1)
    add: (contains shot2 ingredient1) (shaker-level shaker1 l0)
    del: (clean shot2) (empty shot2) (shaker-level shaker1 l1)
  (pour-shaker-to-shot ingredient1 shot2 left shaker1 l2 l1), cost: 1
    pre: (clean shot2) (contains shaker1 ingredient1) (empty shot2) (holding left shaker1) (shaked shaker1) (shaker-level shaker1 l2)
    add: (contains shot2 ingredient1) (shaker-level shaker1 l1)
    del: (clean shot2) (empty shot2) (shaker-level shaker1 l2)
  (pour-shaker-to-shot ingredient1 shot2 right shaker1 l1 l0), cost: 1
    pre: (clean shot2) (contains shaker1 ingredient1) (empty shot2) (holding right shaker1) (shaked shaker1) (shaker-level shaker1 l1)
    add: (contains shot2 ingredient1) (shaker-level shaker1 l0)
    del: (clean shot2) (empty shot2) (shaker-level shaker1 l1)
  (pour-shaker-to-shot ingredient1 shot2 right shaker1 l2 l1), cost: 1
    pre: (clean shot2) (contains shaker1 ingredient1) (empty shot2) (holding right shaker1) (shaked shaker1) (shaker-level shaker1 l2)
    add: (contains shot2 ingredient1) (shaker-level shaker1 l1)
    del: (clean shot2) (empty shot2) (shaker-level shaker1 l2)
  (pour-shaker-to-shot ingredient1 shot3 left shaker1 l1 l0), cost: 1
    pre: (clean shot3) (contains shaker1 ingredient1) (empty shot3) (holding left shaker1) (shaked shaker1) (shaker-level shaker1 l1)
    add: (contains shot3 ingredient1) (shaker-level shaker1 l0)
    del: (clean shot3) (empty shot3) (shaker-level shaker1 l1)
  (pour-shaker-to-shot ingredient1 shot3 left shaker1 l2 l1), cost: 1
    pre: (clean shot3) (contains shaker1 ingredient1) (empty shot3) (holding left shaker1) (shaked shaker1) (shaker-level shaker1 l2)
    add: (contains shot3 ingredient1) (shaker-level shaker1 l1)
    del: (clean shot3) (empty shot3) (shaker-level shaker1 l2)
  (pour-shaker-to-shot ingredient1 shot3 right shaker1 l1 l0), cost: 1
    pre: (clean shot3) (contains shaker1 ingredient1) (empty shot3) (holding right shaker1) (shaked shaker1) (shaker-level shaker1 l1)
    add: (contains shot3 ingredient1) (shaker-level shaker1 l0)
    del: (clean shot3) (empty shot3) (shaker-level shaker1 l1)
  (pour-shaker-to-shot ingredient1 shot3 right shaker1 l2 l1), cost: 1
    pre: (clean shot3) (contains shaker1 ingredient1) (empty shot3) (holding right shaker1) (shaked shaker1) (shaker-level shaker1 l2)
    add: (contains shot3 ingredient1) (shaker-level shaker1 l1)
    del: (clean shot3) (empty shot3) (shaker-level shaker1 l2)
  (pour-shaker-to-shot ingredient1 shot4 left shaker1 l1 l0), cost: 1
    pre: (clean shot4) (contains shaker1 ingredient1) (empty shot4) (holding left shaker1) (shaked shaker1) (shaker-level shaker1 l1)
    add: (contains shot4 ingredient1) (shaker-level shaker1 l0)
    del: (clean shot4) (empty shot4) (shaker-level shaker1 l1)
  (pour-shaker-to-shot ingredient1 shot4 left shaker1 l2 l1), cost: 1
    pre: (clean shot4) (contains shaker1 ingredient1) (empty shot4) (holding left shaker1) (shaked shaker1) (shaker-level shaker1 l2)
    add: (contains shot4 ingredient1) (shaker-level shaker1 l1)
    del: (clean shot4) (empty shot4) (shaker-level shaker1 l2)
  (pour-shaker-to-shot ingredient1 shot4 right shaker1 l1 l0), cost: 1
    pre: (clean shot4) (contains shaker1 ingredient1) (empty shot4) (holding right shaker1) (shaked shaker1) (shaker-level shaker1 l1)
    add: (contains shot4 ingredient1) (shaker-level shaker1 l0)
    del: (clean shot4) (empty shot4) (shaker-level shaker1 l1)
  (pour-shaker-to-shot ingredient1 shot4 right shaker1 l2 l1), cost: 1
    pre: (clean shot4) (contains shaker1 ingredient1) (empty shot4) (holding right shaker1) (shaked shaker1) (shaker-level shaker1 l2)
    add: (contains shot4 ingredient1) (shaker-level shaker1 l1)
    del: (clean shot4) (empty shot4) (shaker-level shaker1 l2)
  (pour-shaker-to-shot ingredient2 shot1 left shaker1 l1 l0), cost: 1
    pre: (clean shot1) (contains shaker1 ingredient2) (empty shot1) (holding left shaker1) (shaked shaker1) (shaker-level shaker1 l1)
    add: (contains shot1 ingredient2) (shaker-level shaker1 l0)
    del: (clean shot1) (empty shot1) (shaker-level shaker1 l1)
  (pour-shaker-to-shot ingredient2 shot1 left shaker1 l2 l1), cost: 1
    pre: (clean shot1) (contains shaker1 ingredient2) (empty shot1) (holding left shaker1) (shaked shaker1) (shaker-level shaker1 l2)
    add: (contains shot1 ingredient2) (shaker-level shaker1 l1)
    del: (clean shot1) (empty shot1) (shaker-level shaker1 l2)
  (pour-shaker-to-shot ingredient2 shot1 right shaker1 l1 l0), cost: 1
    pre: (clean shot1) (contains shaker1 ingredient2) (empty shot1) (holding right shaker1) (shaked shaker1) (shaker-level shaker1 l1)
    add: (contains shot1 ingredient2) (shaker-level shaker1 l0)
    del: (clean shot1) (empty shot1) (shaker-level shaker1 l1)
  (pour-shaker-to-shot ingredient2 shot1 right shaker1 l2 l1), cost: 1
    pre: (clean shot1) (contains shaker1 ingredient2) (empty shot1) (holding right shaker1) (shaked shaker1) (shaker-level shaker1 l2)
    add: (contains shot1 ingredient2) (shaker-level shaker1 l1)
    del: (clean shot1) (empty shot1) (shaker-level shaker1 l2)
  (pour-shaker-to-shot ingredient2 shot2 left shaker1 l1 l0), cost: 1
    pre: (clean shot2) (contains shaker1 ingredient2) (empty shot2) (holding left shaker1) (shaked shaker1) (shaker-level shaker1 l1)
    add: (contains shot2 ingredient2) (shaker-level shaker1 l0)
    del: (clean shot2) (empty shot2) (shaker-level shaker1 l1)
  (pour-shaker-to-shot ingredient2 shot2 left shaker1 l2 l1), cost: 1
    pre: (clean shot2) (contains shaker1 ingredient2) (empty shot2) (holding left shaker1) (shaked shaker1) (shaker-level shaker1 l2)
    add: (contains shot2 ingredient2) (shaker-level shaker1 l1)
    del: (clean shot2) (empty shot2) (shaker-level shaker1 l2)
  (pour-shaker-to-shot ingredient2 shot2 right shaker1 l1 l0), cost: 1
    pre: (clean shot2) (contains shaker1 ingredient2) (empty shot2) (holding right shaker1) (shaked shaker1) (shaker-level shaker1 l1)
    add: (contains shot2 ingredient2) (shaker-level shaker1 l0)
    del: (clean shot2) (empty shot2) (shaker-level shaker1 l1)
  (pour-shaker-to-shot ingredient2 shot2 right shaker1 l2 l1), cost: 1
    pre: (clean shot2) (contains shaker1 ingredient2) (empty shot2) (holding right shaker1) (shaked shaker1) (shaker-level shaker1 l2)
    add: (contains shot2 ingredient2) (shaker-level shaker1 l1)
    del: (clean shot2) (empty shot2) (shaker-level shaker1 l2)
  (pour-shaker-to-shot ingredient2 shot3 left shaker1 l1 l0), cost: 1
    pre: (clean shot3) (contains shaker1 ingredient2) (empty shot3) (holding left shaker1) (shaked shaker1) (shaker-level shaker1 l1)
    add: (contains shot3 ingredient2) (shaker-level shaker1 l0)
    del: (clean shot3) (empty shot3) (shaker-level shaker1 l1)
  (pour-shaker-to-shot ingredient2 shot3 left shaker1 l2 l1), cost: 1
    pre: (clean shot3) (contains shaker1 ingredient2) (empty shot3) (holding left shaker1) (shaked shaker1) (shaker-level shaker1 l2)
    add: (contains shot3 ingredient2) (shaker-level shaker1 l1)
    del: (clean shot3) (empty shot3) (shaker-level shaker1 l2)
  (pour-shaker-to-shot ingredient2 shot3 right shaker1 l1 l0), cost: 1
    pre: (clean shot3) (contains shaker1 ingredient2) (empty shot3) (holding right shaker1) (shaked shaker1) (shaker-level shaker1 l1)
    add: (contains shot3 ingredient2) (shaker-level shaker1 l0)
    del: (clean shot3) (empty shot3) (shaker-level shaker1 l1)
  (pour-shaker-to-shot ingredient2 shot3 right shaker1 l2 l1), cost: 1
    pre: (clean shot3) (contains shaker1 ingredient2) (empty shot3) (holding right shaker1) (shaked shaker1) (shaker-level shaker1 l2)
    add: (contains shot3 ingredient2) (shaker-level shaker1 l1)
    del: (clean shot3) (empty shot3) (shaker-level shaker1 l2)
  (pour-shaker-to-shot ingredient2 shot4 left shaker1 l1 l0), cost: 1
    pre: (clean shot4) (contains shaker1 ingredient2) (empty shot4) (holding left shaker1) (shaked shaker1) (shaker-level shaker1 l1)
    add: (contains shot4 ingredient2) (shaker-level shaker1 l0)
    del: (clean shot4) (empty shot4) (shaker-level shaker1 l1)
  (pour-shaker-to-shot ingredient2 shot4 left shaker1 l2 l1), cost: 1
    pre: (clean shot4) (contains shaker1 ingredient2) (empty shot4) (holding left shaker1) (shaked shaker1) (shaker-level shaker1 l2)
    add: (contains shot4 ingredient2) (shaker-level shaker1 l1)
    del: (clean shot4) (empty shot4) (shaker-level shaker1 l2)
  (pour-shaker-to-shot ingredient2 shot4 right shaker1 l1 l0), cost: 1
    pre: (clean shot4) (contains shaker1 ingredient2) (empty shot4) (holding right shaker1) (shaked shaker1) (shaker-level shaker1 l1)
    add: (contains shot4 ingredient2) (shaker-level shaker1 l0)
    del: (clean shot4) (empty shot4) (shaker-level shaker1 l1)
  (pour-shaker-to-shot ingredient2 shot4 right shaker1 l2 l1), cost: 1
    pre: (clean shot4) (contains shaker1 ingredient2) (empty shot4) (holding right shaker1) (shaked shaker1) (shaker-level shaker1 l2)
    add: (contains shot4 ingredient2) (shaker-level shaker1 l1)
    del: (clean shot4) (empty shot4) (shaker-level shaker1 l2)
  (pour-shaker-to-shot ingredient3 shot1 left shaker1 l1 l0), cost: 1
    pre: (clean shot1) (contains shaker1 ingredient3) (empty shot1) (holding left shaker1) (shaked shaker1) (shaker-level shaker1 l1)
    add: (contains shot1 ingredient3) (shaker-level shaker1 l0)
    del: (clean shot1) (empty shot1) (shaker-level shaker1 l1)
  (pour-shaker-to-shot ingredient3 shot1 left shaker1 l2 l1), cost: 1
    pre: (clean shot1) (contains shaker1 ingredient3) (empty shot1) (holding left shaker1) (shaked shaker1) (shaker-level shaker1 l2)
    add: (contains shot1 ingredient3) (shaker-level shaker1 l1)
    del: (clean shot1) (empty shot1) (shaker-level shaker1 l2)
  (pour-shaker-to-shot ingredient3 shot1 right shaker1 l1 l0), cost: 1
    pre: (clean shot1) (contains shaker1 ingredient3) (empty shot1) (holding right shaker1) (shaked shaker1) (shaker-level shaker1 l1)
    add: (contains shot1 ingredient3) (shaker-level shaker1 l0)
    del: (clean shot1) (empty shot1) (shaker-level shaker1 l1)
  (pour-shaker-to-shot ingredient3 shot1 right shaker1 l2 l1), cost: 1
    pre: (clean shot1) (contains shaker1 ingredient3) (empty shot1) (holding right shaker1) (shaked shaker1) (shaker-level shaker1 l2)
    add: (contains shot1 ingredient3) (shaker-level shaker1 l1)
    del: (clean shot1) (empty shot1) (shaker-level shaker1 l2)
  (pour-shaker-to-shot ingredient3 shot2 left shaker1 l1 l0), cost: 1
    pre: (clean shot2) (contains shaker1 ingredient3) (empty shot2) (holding left shaker1) (shaked shaker1) (shaker-level shaker1 l1)
    add: (contains shot2 ingredient3) (shaker-level shaker1 l0)
    del: (clean shot2) (empty shot2) (shaker-level shaker1 l1)
  (pour-shaker-to-shot ingredient3 shot2 left shaker1 l2 l1), cost: 1
    pre: (clean shot2) (contains shaker1 ingredient3) (empty shot2) (holding left shaker1) (shaked shaker1) (shaker-level shaker1 l2)
    add: (contains shot2 ingredient3) (shaker-level shaker1 l1)
    del: (clean shot2) (empty shot2) (shaker-level shaker1 l2)
  (pour-shaker-to-shot ingredient3 shot2 right shaker1 l1 l0), cost: 1
    pre: (clean shot2) (contains shaker1 ingredient3) (empty shot2) (holding right shaker1) (shaked shaker1) (shaker-level shaker1 l1)
    add: (contains shot2 ingredient3) (shaker-level shaker1 l0)
    del: (clean shot2) (empty shot2) (shaker-level shaker1 l1)
  (pour-shaker-to-shot ingredient3 shot2 right shaker1 l2 l1), cost: 1
    pre: (clean shot2) (contains shaker1 ingredient3) (empty shot2) (holding right shaker1) (shaked shaker1) (shaker-level shaker1 l2)
    add: (contains shot2 ingredient3) (shaker-level shaker1 l1)
    del: (clean shot2) (empty shot2) (shaker-level shaker1 l2)
  (pour-shaker-to-shot ingredient3 shot3 left shaker1 l1 l0), cost: 1
    pre: (clean shot3) (contains shaker1 ingredient3) (empty shot3) (holding left shaker1) (shaked shaker1) (shaker-level shaker1 l1)
    add: (contains shot3 ingredient3) (shaker-level shaker1 l0)
    del: (clean shot3) (empty shot3) (shaker-level shaker1 l1)
  (pour-shaker-to-shot ingredient3 shot3 left shaker1 l2 l1), cost: 1
    pre: (clean shot3) (contains shaker1 ingredient3) (empty shot3) (holding left shaker1) (shaked shaker1) (shaker-level shaker1 l2)
    add: (contains shot3 ingredient3) (shaker-level shaker1 l1)
    del: (clean shot3) (empty shot3) (shaker-level shaker1 l2)
  (pour-shaker-to-shot ingredient3 shot3 right shaker1 l1 l0), cost: 1
    pre: (clean shot3) (contains shaker1 ingredient3) (empty shot3) (holding right shaker1) (shaked shaker1) (shaker-level shaker1 l1)
    add: (contains shot3 ingredient3) (shaker-level shaker1 l0)
    del: (clean shot3) (empty shot3) (shaker-level shaker1 l1)
  (pour-shaker-to-shot ingredient3 shot3 right shaker1 l2 l1), cost: 1
    pre: (clean shot3) (contains shaker1 ingredient3) (empty shot3) (holding right shaker1) (shaked shaker1) (shaker-level shaker1 l2)
    add: (contains shot3 ingredient3) (shaker-level shaker1 l1)
    del: (clean shot3) (empty shot3) (shaker-level shaker1 l2)
  (pour-shaker-to-shot ingredient3 shot4 left shaker1 l1 l0), cost: 1
    pre: (clean shot4) (contains shaker1 ingredient3) (empty shot4) (holding left shaker1) (shaked shaker1) (shaker-level shaker1 l1)
    add: (contains shot4 ingredient3) (shaker-level shaker1 l0)
    del: (clean shot4) (empty shot4) (shaker-level shaker1 l1)
  (pour-shaker-to-shot ingredient3 shot4 left shaker1 l2 l1), cost: 1
    pre: (clean shot4) (contains shaker1 ingredient3) (empty shot4) (holding left shaker1) (shaked shaker1) (shaker-level shaker1 l2)
    add: (contains shot4 ingredient3) (shaker-level shaker1 l1)
    del: (clean shot4) (empty shot4) (shaker-level shaker1 l2)
  (pour-shaker-to-shot ingredient3 shot4 right shaker1 l1 l0), cost: 1
    pre: (clean shot4) (contains shaker1 ingredient3) (empty shot4) (holding right shaker1) (shaked shaker1) (shaker-level shaker1 l1)
    add: (contains shot4 ingredient3) (shaker-level shaker1 l0)
    del: (clean shot4) (empty shot4) (shaker-level shaker1 l1)
  (pour-shaker-to-shot ingredient3 shot4 right shaker1 l2 l1), cost: 1
    pre: (clean shot4) (contains shaker1 ingredient3) (empty shot4) (holding right shaker1) (shaked shaker1) (shaker-level shaker1 l2)
    add: (contains shot4 ingredient3) (shaker-level shaker1 l1)
    del: (clean shot4) (empty shot4) (shaker-level shaker1 l2)
  (pour-shot-to-clean-shaker shot1 ingredient1 shaker1 left l0 l1), cost: 1
    pre: (clean shaker1) (contains shot1 ingredient1) (empty shaker1) (holding left shot1) (shaker-level shaker1 l0)
    add: (contains shaker1 ingredient1) (empty shot1) (shaker-level shaker1 l1) (unshaked shaker1)
    del: (clean shaker1) (contains shot1 ingredient1) (empty shaker1) (shaker-level shaker1 l0)
  (pour-shot-to-clean-shaker shot1 ingredient1 shaker1 right l0 l1), cost: 1
    pre: (clean shaker1) (contains shot1 ingredient1) (empty shaker1) (holding right shot1) (shaker-level shaker1 l0)
    add: (contains shaker1 ingredient1) (empty shot1) (shaker-level shaker1 l1) (unshaked shaker1)
    del: (clean shaker1) (contains shot1 ingredient1) (empty shaker1) (shaker-level shaker1 l0)
  (pour-shot-to-clean-shaker shot1 ingredient2 shaker1 left l0 l1), cost: 1
    pre: (clean shaker1) (contains shot1 ingredient2) (empty shaker1) (holding left shot1) (shaker-level shaker1 l0)
    add: (contains shaker1 ingredient2) (empty shot1) (shaker-level shaker1 l1) (unshaked shaker1)
    del: (clean shaker1) (contains shot1 ingredient2) (empty shaker1) (shaker-level shaker1 l0)
  (pour-shot-to-clean-shaker shot1 ingredient2 shaker1 right l0 l1), cost: 1
    pre: (clean shaker1) (contains shot1 ingredient2) (empty shaker1) (holding right shot1) (shaker-level shaker1 l0)
    add: (contains shaker1 ingredient2) (empty shot1) (shaker-level shaker1 l1) (unshaked shaker1)
    del: (clean shaker1) (contains shot1 ingredient2) (empty shaker1) (shaker-level shaker1 l0)
  (pour-shot-to-clean-shaker shot1 ingredient3 shaker1 left l0 l1), cost: 1
    pre: (clean shaker1) (contains shot1 ingredient3) (empty shaker1) (holding left shot1) (shaker-level shaker1 l0)
    add: (contains shaker1 ingredient3) (empty shot1) (shaker-level shaker1 l1) (unshaked shaker1)
    del: (clean shaker1) (contains shot1 ingredient3) (empty shaker1) (shaker-level shaker1 l0)
  (pour-shot-to-clean-shaker shot1 ingredient3 shaker1 right l0 l1), cost: 1
    pre: (clean shaker1) (contains shot1 ingredient3) (empty shaker1) (holding right shot1) (shaker-level shaker1 l0)
    add: (contains shaker1 ingredient3) (empty shot1) (shaker-level shaker1 l1) (unshaked shaker1)
    del: (clean shaker1) (contains shot1 ingredient3) (empty shaker1) (shaker-level shaker1 l0)
  (pour-shot-to-clean-shaker shot2 ingredient1 shaker1 left l0 l1), cost: 1
    pre: (clean shaker1) (contains shot2 ingredient1) (empty shaker1) (holding left shot2) (shaker-level shaker1 l0)
    add: (contains shaker1 ingredient1) (empty shot2) (shaker-level shaker1 l1) (unshaked shaker1)
    del: (clean shaker1) (contains shot2 ingredient1) (empty shaker1) (shaker-level shaker1 l0)
  (pour-shot-to-clean-shaker shot2 ingredient1 shaker1 right l0 l1), cost: 1
    pre: (clean shaker1) (contains shot2 ingredient1) (empty shaker1) (holding right shot2) (shaker-level shaker1 l0)
    add: (contains shaker1 ingredient1) (empty shot2) (shaker-level shaker1 l1) (unshaked shaker1)
    del: (clean shaker1) (contains shot2 ingredient1) (empty shaker1) (shaker-level shaker1 l0)
  (pour-shot-to-clean-shaker shot2 ingredient2 shaker1 left l0 l1), cost: 1
    pre: (clean shaker1) (contains shot2 ingredient2) (empty shaker1) (holding left shot2) (shaker-level shaker1 l0)
    add: (contains shaker1 ingredient2) (empty shot2) (shaker-level shaker1 l1) (unshaked shaker1)
    del: (clean shaker1) (contains shot2 ingredient2) (empty shaker1) (shaker-level shaker1 l0)
  (pour-shot-to-clean-shaker shot2 ingredient2 shaker1 right l0 l1), cost: 1
    pre: (clean shaker1) (contains shot2 ingredient2) (empty shaker1) (holding right shot2) (shaker-level shaker1 l0)
    add: (contains shaker1 ingredient2) (empty shot2) (shaker-level shaker1 l1) (unshaked shaker1)
    del: (clean shaker1) (contains shot2 ingredient2) (empty shaker1) (shaker-level shaker1 l0)
  (pour-shot-to-clean-shaker shot2 ingredient3 shaker1 left l0 l1), cost: 1
    pre: (clean shaker1) (contains shot2 ingredient3) (empty shaker1) (holding left shot2) (shaker-level shaker1 l0)
    add: (contains shaker1 ingredient3) (empty shot2) (shaker-level shaker1 l1) (unshaked shaker1)
    del: (clean shaker1) (contains shot2 ingredient3) (empty shaker1) (shaker-level shaker1 l0)
  (pour-shot-to-clean-shaker shot2 ingredient3 shaker1 right l0 l1), cost: 1
    pre: (clean shaker1) (contains shot2 ingredient3) (empty shaker1) (holding right shot2) (shaker-level shaker1 l0)
    add: (contains shaker1 ingredient3) (empty shot2) (shaker-level shaker1 l1) (unshaked shaker1)
    del: (clean shaker1) (contains shot2 ingredient3) (empty shaker1) (shaker-level shaker1 l0)
  (pour-shot-to-clean-shaker shot3 ingredient1 shaker1 left l0 l1), cost: 1
    pre: (clean shaker1) (contains shot3 ingredient1) (empty shaker1) (holding left shot3) (shaker-level shaker1 l0)
    add: (contains shaker1 ingredient1) (empty shot3) (shaker-level shaker1 l1) (unshaked shaker1)
    del: (clean shaker1) (contains shot3 ingredient1) (empty shaker1) (shaker-level shaker1 l0)
  (pour-shot-to-clean-shaker shot3 ingredient1 shaker1 right l0 l1), cost: 1
    pre: (clean shaker1) (contains shot3 ingredient1) (empty shaker1) (holding right shot3) (shaker-level shaker1 l0)
    add: (contains shaker1 ingredient1) (empty shot3) (shaker-level shaker1 l1) (unshaked shaker1)
    del: (clean shaker1) (contains shot3 ingredient1) (empty shaker1) (shaker-level shaker1 l0)
  (pour-shot-to-clean-shaker shot3 ingredient2 shaker1 left l0 l1), cost: 1
    pre: (clean shaker1) (contains shot3 ingredient2) (empty shaker1) (holding left shot3) (shaker-level shaker1 l0)
    add: (contains shaker1 ingredient2) (empty shot3) (shaker-level shaker1 l1) (unshaked shaker1)
    del: (clean shaker1) (contains shot3 ingredient2) (empty shaker1) (shaker-level shaker1 l0)
  (pour-shot-to-clean-shaker shot3 ingredient2 shaker1 right l0 l1), cost: 1
    pre: (clean shaker1) (contains shot3 ingredient2) (empty shaker1) (holding right shot3) (shaker-level shaker1 l0)
    add: (contains shaker1 ingredient2) (empty shot3) (shaker-level shaker1 l1) (unshaked shaker1)
    del: (clean shaker1) (contains shot3 ingredient2) (empty shaker1) (shaker-level shaker1 l0)
  (pour-shot-to-clean-shaker shot3 ingredient3 shaker1 left l0 l1), cost: 1
    pre: (clean shaker1) (contains shot3 ingredient3) (empty shaker1) (holding left shot3) (shaker-level shaker1 l0)
    add: (contains shaker1 ingredient3) (empty shot3) (shaker-level shaker1 l1) (unshaked shaker1)
    del: (clean shaker1) (contains shot3 ingredient3) (empty shaker1) (shaker-level shaker1 l0)
  (pour-shot-to-clean-shaker shot3 ingredient3 shaker1 right l0 l1), cost: 1
    pre: (clean shaker1) (contains shot3 ingredient3) (empty shaker1) (holding right shot3) (shaker-level shaker1 l0)
    add: (contains shaker1 ingredient3) (empty shot3) (shaker-level shaker1 l1) (unshaked shaker1)
    del: (clean shaker1) (contains shot3 ingredient3) (empty shaker1) (shaker-level shaker1 l0)
  (pour-shot-to-clean-shaker shot4 ingredient1 shaker1 left l0 l1), cost: 1
    pre: (clean shaker1) (contains shot4 ingredient1) (empty shaker1) (holding left shot4) (shaker-level shaker1 l0)
    add: (contains shaker1 ingredient1) (empty shot4) (shaker-level shaker1 l1) (unshaked shaker1)
    del: (clean shaker1) (contains shot4 ingredient1) (empty shaker1) (shaker-level shaker1 l0)
  (pour-shot-to-clean-shaker shot4 ingredient1 shaker1 right l0 l1), cost: 1
    pre: (clean shaker1) (contains shot4 ingredient1) (empty shaker1) (holding right shot4) (shaker-level shaker1 l0)
    add: (contains shaker1 ingredient1) (empty shot4) (shaker-level shaker1 l1) (unshaked shaker1)
    del: (clean shaker1) (contains shot4 ingredient1) (empty shaker1) (shaker-level shaker1 l0)
  (pour-shot-to-clean-shaker shot4 ingredient2 shaker1 left l0 l1), cost: 1
    pre: (clean shaker1) (contains shot4 ingredient2) (empty shaker1) (holding left shot4) (shaker-level shaker1 l0)
    add: (contains shaker1 ingredient2) (empty shot4) (shaker-level shaker1 l1) (unshaked shaker1)
    del: (clean shaker1) (contains shot4 ingredient2) (empty shaker1) (shaker-level shaker1 l0)
  (pour-shot-to-clean-shaker shot4 ingredient2 shaker1 right l0 l1), cost: 1
    pre: (clean shaker1) (contains shot4 ingredient2) (empty shaker1) (holding right shot4) (shaker-level shaker1 l0)
    add: (contains shaker1 ingredient2) (empty shot4) (shaker-level shaker1 l1) (unshaked shaker1)
    del: (clean shaker1) (contains shot4 ingredient2) (empty shaker1) (shaker-level shaker1 l0)
  (pour-shot-to-clean-shaker shot4 ingredient3 shaker1 left l0 l1), cost: 1
    pre: (clean shaker1) (contains shot4 ingredient3) (empty shaker1) (holding left shot4) (shaker-level shaker1 l0)
    add: (contains shaker1 ingredient3) (empty shot4) (shaker-level shaker1 l1) (unshaked shaker1)
    del: (clean shaker1) (contains shot4 ingredient3) (empty shaker1) (shaker-level shaker1 l0)
  (pour-shot-to-clean-shaker shot4 ingredient3 shaker1 right l0 l1), cost: 1
    pre: (clean shaker1) (contains shot4 ingredient3) (empty shaker1) (holding right shot4) (shaker-level shaker1 l0)
    add: (contains shaker1 ingredient3) (empty shot4) (shaker-level shaker1 l1) (unshaked shaker1)
    del: (clean shaker1) (contains shot4 ingredient3) (empty shaker1) (shaker-level shaker1 l0)
  (pour-shot-to-used-shaker shot1 ingredient1 shaker1 left l1 l2), cost: 1
    pre: (contains shot1 ingredient1) (holding left shot1) (shaker-level shaker1 l1) (unshaked shaker1)
    add: (contains shaker1 ingredient1) (empty shot1) (shaker-level shaker1 l2)
    del: (contains shot1 ingredient1) (shaker-level shaker1 l1)
  (pour-shot-to-used-shaker shot1 ingredient1 shaker1 right l1 l2), cost: 1
    pre: (contains shot1 ingredient1) (holding right shot1) (shaker-level shaker1 l1) (unshaked shaker1)
    add: (contains shaker1 ingredient1) (empty shot1) (shaker-level shaker1 l2)
    del: (contains shot1 ingredient1) (shaker-level shaker1 l1)
  (pour-shot-to-used-shaker shot1 ingredient2 shaker1 left l1 l2), cost: 1
    pre: (contains shot1 ingredient2) (holding left shot1) (shaker-level shaker1 l1) (unshaked shaker1)
    add: (contains shaker1 ingredient2) (empty shot1) (shaker-level shaker1 l2)
    del: (contains shot1 ingredient2) (shaker-level shaker1 l1)
  (pour-shot-to-used-shaker shot1 ingredient2 shaker1 right l1 l2), cost: 1
    pre: (contains shot1 ingredient2) (holding right shot1) (shaker-level shaker1 l1) (unshaked shaker1)
    add: (contains shaker1 ingredient2) (empty shot1) (shaker-level shaker1 l2)
    del: (contains shot1 ingredient2) (shaker-level shaker1 l1)
  (pour-shot-to-used-shaker shot1 ingredient3 shaker1 left l1 l2), cost: 1
    pre: (contains shot1 ingredient3) (holding left shot1) (shaker-level shaker1 l1) (unshaked shaker1)
    add: (contains shaker1 ingredient3) (empty shot1) (shaker-level shaker1 l2)
    del: (contains shot1 ingredient3) (shaker-level shaker1 l1)
  (pour-shot-to-used-shaker shot1 ingredient3 shaker1 right l1 l2), cost: 1
    pre: (contains shot1 ingredient3) (holding right shot1) (shaker-level shaker1 l1) (unshaked shaker1)
    add: (contains shaker1 ingredient3) (empty shot1) (shaker-level shaker1 l2)
    del: (contains shot1 ingredient3) (shaker-level shaker1 l1)
  (pour-shot-to-used-shaker shot2 ingredient1 shaker1 left l1 l2), cost: 1
    pre: (contains shot2 ingredient1) (holding left shot2) (shaker-level shaker1 l1) (unshaked shaker1)
    add: (contains shaker1 ingredient1) (empty shot2) (shaker-level shaker1 l2)
    del: (contains shot2 ingredient1) (shaker-level shaker1 l1)
  (pour-shot-to-used-shaker shot2 ingredient1 shaker1 right l1 l2), cost: 1
    pre: (contains shot2 ingredient1) (holding right shot2) (shaker-level shaker1 l1) (unshaked shaker1)
    add: (contains shaker1 ingredient1) (empty shot2) (shaker-level shaker1 l2)
    del: (contains shot2 ingredient1) (shaker-level shaker1 l1)
  (pour-shot-to-used-shaker shot2 ingredient2 shaker1 left l1 l2), cost: 1
    pre: (contains shot2 ingredient2) (holding left shot2) (shaker-level shaker1 l1) (unshaked shaker1)
    add: (contains shaker1 ingredient2) (empty shot2) (shaker-level shaker1 l2)
    del: (contains shot2 ingredient2) (shaker-level shaker1 l1)
  (pour-shot-to-used-shaker shot2 ingredient2 shaker1 right l1 l2), cost: 1
    pre: (contains shot2 ingredient2) (holding right shot2) (shaker-level shaker1 l1) (unshaked shaker1)
    add: (contains shaker1 ingredient2) (empty shot2) (shaker-level shaker1 l2)
    del: (contains shot2 ingredient2) (shaker-level shaker1 l1)
  (pour-shot-to-used-shaker shot2 ingredient3 shaker1 left l1 l2), cost: 1
    pre: (contains shot2 ingredient3) (holding left shot2) (shaker-level shaker1 l1) (unshaked shaker1)
    add: (contains shaker1 ingredient3) (empty shot2) (shaker-level shaker1 l2)
    del: (contains shot2 ingredient3) (shaker-level shaker1 l1)
  (pour-shot-to-used-shaker shot2 ingredient3 shaker1 right l1 l2), cost: 1
    pre: (contains shot2 ingredient3) (holding right shot2) (shaker-level shaker1 l1) (unshaked shaker1)
    add: (contains shaker1 ingredient3) (empty shot2) (shaker-level shaker1 l2)
    del: (contains shot2 ingredient3) (shaker-level shaker1 l1)
  (pour-shot-to-used-shaker shot3 ingredient1 shaker1 left l1 l2), cost: 1
    pre: (contains shot3 ingredient1) (holding left shot3) (shaker-level shaker1 l1) (unshaked shaker1)
    add: (contains shaker1 ingredient1) (empty shot3) (shaker-level shaker1 l2)
    del: (contains shot3 ingredient1) (shaker-level shaker1 l1)
  (pour-shot-to-used-shaker shot3 ingredient1 shaker1 right l1 l2), cost: 1
    pre: (contains shot3 ingredient1) (holding right shot3) (shaker-level shaker1 l1) (unshaked shaker1)
    add: (contains shaker1 ingredient1) (empty shot3) (shaker-level shaker1 l2)
    del: (contains shot3 ingredient1) (shaker-level shaker1 l1)
  (pour-shot-to-used-shaker shot3 ingredient2 shaker1 left l1 l2), cost: 1
    pre: (contains shot3 ingredient2) (holding left shot3) (shaker-level shaker1 l1) (unshaked shaker1)
    add: (contains shaker1 ingredient2) (empty shot3) (shaker-level shaker1 l2)
    del: (contains shot3 ingredient2) (shaker-level shaker1 l1)
  (pour-shot-to-used-shaker shot3 ingredient2 shaker1 right l1 l2), cost: 1
    pre: (contains shot3 ingredient2) (holding right shot3) (shaker-level shaker1 l1) (unshaked shaker1)
    add: (contains shaker1 ingredient2) (empty shot3) (shaker-level shaker1 l2)
    del: (contains shot3 ingredient2) (shaker-level shaker1 l1)
  (pour-shot-to-used-shaker shot3 ingredient3 shaker1 left l1 l2), cost: 1
    pre: (contains shot3 ingredient3) (holding left shot3) (shaker-level shaker1 l1) (unshaked shaker1)
    add: (contains shaker1 ingredient3) (empty shot3) (shaker-level shaker1 l2)
    del: (contains shot3 ingredient3) (shaker-level shaker1 l1)
  (pour-shot-to-used-shaker shot3 ingredient3 shaker1 right l1 l2), cost: 1
    pre: (contains shot3 ingredient3) (holding right shot3) (shaker-level shaker1 l1) (unshaked shaker1)
    add: (contains shaker1 ingredient3) (empty shot3) (shaker-level shaker1 l2)
    del: (contains shot3 ingredient3) (shaker-level shaker1 l1)
  (pour-shot-to-used-shaker shot4 ingredient1 shaker1 left l1 l2), cost: 1
    pre: (contains shot4 ingredient1) (holding left shot4) (shaker-level shaker1 l1) (unshaked shaker1)
    add: (contains shaker1 ingredient1) (empty shot4) (shaker-level shaker1 l2)
    del: (contains shot4 ingredient1) (shaker-level shaker1 l1)
  (pour-shot-to-used-shaker shot4 ingredient1 shaker1 right l1 l2), cost: 1
    pre: (contains shot4 ingredient1) (holding right shot4) (shaker-level shaker1 l1) (unshaked shaker1)
    add: (contains shaker1 ingredient1) (empty shot4) (shaker-level shaker1 l2)
    del: (contains shot4 ingredient1) (shaker-level shaker1 l1)
  (pour-shot-to-used-shaker shot4 ingredient2 shaker1 left l1 l2), cost: 1
    pre: (contains shot4 ingredient2) (holding left shot4) (shaker-level shaker1 l1) (unshaked shaker1)
    add: (contains shaker1 ingredient2) (empty shot4) (shaker-level shaker1 l2)
    del: (contains shot4 ingredient2) (shaker-level shaker1 l1)
  (pour-shot-to-used-shaker shot4 ingredient2 shaker1 right l1 l2), cost: 1
    pre: (contains shot4 ingredient2) (holding right shot4) (shaker-level shaker1 l1) (unshaked shaker1)
    add: (contains shaker1 ingredient2) (empty shot4) (shaker-level shaker1 l2)
    del: (contains shot4 ingredient2) (shaker-level shaker1 l1)
  (pour-shot-to-used-shaker shot4 ingredient3 shaker1 left l1 l2), cost: 1
    pre: (contains shot4 ingredient3) (holding left shot4) (shaker-level shaker1 l1) (unshaked shaker1)
    add: (contains shaker1 ingredient3) (empty shot4) (shaker-level shaker1 l2)
    del: (contains shot4 ingredient3) (shaker-level shaker1 l1)
  (pour-shot-to-used-shaker shot4 ingredient3 shaker1 right l1 l2), cost: 1
    pre: (contains shot4 ingredient3) (holding right shot4) (shaker-level shaker1 l1) (unshaked shaker1)
    add: (contains shaker1 ingredient3) (empty shot4) (shaker-level shaker1 l2)
    del: (contains shot4 ingredient3) (shaker-level shaker1 l1)
  (refill-shot shot1 ingredient1 left right dispenser1), cost: 10
    pre: (empty shot1) (handempty right) (holding left shot1) (used shot1 ingredient1)
    add: (contains shot1 ingredient1)
    del: (empty shot1)
  (refill-shot shot1 ingredient1 right left dispenser1), cost: 10
    pre: (empty shot1) (handempty left) (holding right shot1) (used shot1 ingredient1)
    add: (contains shot1 ingredient1)
    del: (empty shot1)
  (refill-shot shot1 ingredient2 left right dispenser2), cost: 10
    pre: (empty shot1) (handempty right) (holding left shot1) (used shot1 ingredient2)
    add: (contains shot1 ingredient2)
    del: (empty shot1)
  (refill-shot shot1 ingredient2 right left dispenser2), cost: 10
    pre: (empty shot1) (handempty left) (holding right shot1) (used shot1 ingredient2)
    add: (contains shot1 ingredient2)
    del: (empty shot1)
  (refill-shot shot1 ingredient3 left right dispenser3), cost: 10
    pre: (empty shot1) (handempty right) (holding left shot1) (used shot1 ingredient3)
    add: (contains shot1 ingredient3)
    del: (empty shot1)
  (refill-shot shot1 ingredient3 right left dispenser3), cost: 10
    pre: (empty shot1) (handempty left) (holding right shot1) (used shot1 ingredient3)
    add: (contains shot1 ingredient3)
    del: (empty shot1)
  (refill-shot shot2 ingredient1 left right dispenser1), cost: 10
    pre: (empty shot2) (handempty right) (holding left shot2) (used shot2 ingredient1)
    add: (contains shot2 ingredient1)
    del: (empty shot2)
  (refill-shot shot2 ingredient1 right left dispenser1), cost: 10
    pre: (empty shot2) (handempty left) (holding right shot2) (used shot2 ingredient1)
    add: (contains shot2 ingredient1)
    del: (empty shot2)
  (refill-shot shot2 ingredient2 left right dispenser2), cost: 10
    pre: (empty shot2) (handempty right) (holding left shot2) (used shot2 ingredient2)
    add: (contains shot2 ingredient2)
    del: (empty shot2)
  (refill-shot shot2 ingredient2 right left dispenser2), cost: 10
    pre: (empty shot2) (handempty left) (holding right shot2) (used shot2 ingredient2)
    add: (contains shot2 ingredient2)
    del: (empty shot2)
  (refill-shot shot2 ingredient3 left right dispenser3), cost: 10
    pre: (empty shot2) (handempty right) (holding left shot2) (used shot2 ingredient3)
    add: (contains shot2 ingredient3)
    del: (empty shot2)
  (refill-shot shot2 ingredient3 right left dispenser3), cost: 10
    pre: (empty shot2) (handempty left) (holding right shot2) (used shot2 ingredient3)
    add: (contains shot2 ingredient3)
    del: (empty shot2)
  (refill-shot shot3 ingredient1 left right dispenser1), cost: 10
    pre: (empty shot3) (handempty right) (holding left shot3) (used shot3 ingredient1)
    add: (contains shot3 ingredient1)
    del: (empty shot3)
  (refill-shot shot3 ingredient1 right left dispenser1), cost: 10
    pre: (empty shot3) (handempty left) (holding right shot3) (used shot3 ingredient1)
    add: (contains shot3 ingredient1)
    del: (empty shot3)
  (refill-shot shot3 ingredient2 left right dispenser2), cost: 10
    pre: (empty shot3) (handempty right) (holding left shot3) (used shot3 ingredient2)
    add: (contains shot3 ingredient2)
    del: (empty shot3)
  (refill-shot shot3 ingredient2 right left dispenser2), cost: 10
    pre: (empty shot3) (handempty left) (holding right shot3) (used shot3 ingredient2)
    add: (contains shot3 ingredient2)
    del: (empty shot3)
  (refill-shot shot3 ingredient3 left right dispenser3), cost: 10
    pre: (empty shot3) (handempty right) (holding left shot3) (used shot3 ingredient3)
    add: (contains shot3 ingredient3)
    del: (empty shot3)
  (refill-shot shot3 ingredient3 right left dispenser3), cost: 10
    pre: (empty shot3) (handempty left) (holding right shot3) (used shot3 ingredient3)
    add: (contains shot3 ingredient3)
    del: (empty shot3)
  (refill-shot shot4 ingredient1 left right dispenser1), cost: 10
    pre: (empty shot4) (handempty right) (holding left shot4) (used shot4 ingredient1)
    add: (contains shot4 ingredient1)
    del: (empty shot4)
  (refill-shot shot4 ingredient1 right left dispenser1), cost: 10
    pre: (empty shot4) (handempty left) (holding right shot4) (used shot4 ingredient1)
    add: (contains shot4 ingredient1)
    del: (empty shot4)
  (refill-shot shot4 ingredient2 left right dispenser2), cost: 10
    pre: (empty shot4) (handempty right) (holding left shot4) (used shot4 ingredient2)
    add: (contains shot4 ingredient2)
    del: (empty shot4)
  (refill-shot shot4 ingredient2 right left dispenser2), cost: 10
    pre: (empty shot4) (handempty left) (holding right shot4) (used shot4 ingredient2)
    add: (contains shot4 ingredient2)
    del: (empty shot4)
  (refill-shot shot4 ingredient3 left right dispenser3), cost: 10
    pre: (empty shot4) (handempty right) (holding left shot4) (used shot4 ingredient3)
    add: (contains shot4 ingredient3)
    del: (empty shot4)
  (refill-shot shot4 ingredient3 right left dispenser3), cost: 10
    pre: (empty shot4) (handempty left) (holding right shot4) (used shot4 ingredient3)
    add: (contains shot4 ingredient3)
    del: (empty shot4)
  (shake cocktail1 ingredient3 ingredient1 shaker1 left right), cost: 1
    pre: (contains shaker1 ingredient1) (contains shaker1 ingredient3) (handempty right) (holding left shaker1) (unshaked shaker1)
    add: (contains shaker1 cocktail1) (shaked shaker1)
    del: (contains shaker1 ingredient1) (contains shaker1 ingredient3) (unshaked shaker1)
  (shake cocktail1 ingredient3 ingredient1 shaker1 right left), cost: 1
    pre: (contains shaker1 ingredient1) (contains shaker1 ingredient3) (handempty left) (holding right shaker1) (unshaked shaker1)
    add: (contains shaker1 cocktail1) (shaked shaker1)
    del: (contains shaker1 ingredient1) (contains shaker1 ingredient3) (unshaked shaker1)
  (shake cocktail2 ingredient2 ingredient3 shaker1 left right), cost: 1
    pre: (contains shaker1 ingredient2) (contains shaker1 ingredient3) (handempty right) (holding left shaker1) (unshaked shaker1)
    add: (contains shaker1 cocktail2) (shaked shaker1)
    del: (contains shaker1 ingredient2) (contains shaker1 ingredient3) (unshaked shaker1)
  (shake cocktail2 ingredient2 ingredient3 shaker1 right left), cost: 1
    pre: (contains shaker1 ingredient2) (contains shaker1 ingredient3) (handempty left) (holding right shaker1) (unshaked shaker1)
    add: (contains shaker1 cocktail2) (shaked shaker1)
    del: (contains shaker1 ingredient2) (contains shaker1 ingredient3) (unshaked shaker1)
  (shake cocktail3 ingredient1 ingredient2 shaker1 left right), cost: 1
    pre: (contains shaker1 ingredient1) (contains shaker1 ingredient2) (handempty right) (holding left shaker1) (unshaked shaker1)
    add: (contains shaker1 cocktail3) (shaked shaker1)
    del: (contains shaker1 ingredient1) (contains shaker1 ingredient2) (unshaked shaker1)
  (shake cocktail3 ingredient1 ingredient2 shaker1 right left), cost: 1
    pre: (contains shaker1 ingredient1) (contains shaker1 ingredient2) (handempty left) (holding right shaker1) (unshaked shaker1)
    add: (contains shaker1 cocktail3) (shaked shaker1)
    del: (contains shaker1 ingredient1) (contains shaker1 ingredient2) (unshaked shaker1)
Init State: (clean shaker1) (clean shot1) (clean shot2) (clean shot3) (clean shot4) (empty shaker1) (empty shot1) (empty shot2) (empty shot3) (empty shot4) (handempty left) (handempty right) (ontable shaker1) (ontable shot1) (ontable shot2) (ontable shot3) (ontable shot4) (shaker-level shaker1 l0)
Goal: (contains shot1 cocktail3) (contains shot2 cocktail1) (contains shot3 cocktail2)
