 (NOT-made p1) (made p1):=1
 (NOT-made p1) (shipped o23):G
 (NOT-made p1) (shipped o25):G
 (NOT-made p1) (shipped o42):G
 (NOT-made p1) (shipped o6):G
 (NOT-made p10) (made p10):=1
 (NOT-made p10) (shipped o25):G
 (NOT-made p10) (shipped o46):G
 (NOT-made p10) (shipped o6):G
 (NOT-made p10) (shipped o8):G
 (NOT-made p11) (made p11):=1
 (NOT-made p11) (shipped o18):G
 (NOT-made p11) (shipped o27):G
 (NOT-made p11) (shipped o3):G
 (NOT-made p11) (shipped o39):G
 (NOT-made p12) (made p12):=1
 (NOT-made p12) (shipped o12):G
 (NOT-made p12) (shipped o15):G
 (NOT-made p12) (shipped o28):G
 (NOT-made p12) (shipped o29):G
 (NOT-made p12) (shipped o41):G
 (NOT-made p12) (shipped o47):G
 (NOT-made p12) (shipped o49):G
 (NOT-made p13) (made p13):=1
 (NOT-made p13) (shipped o45):G
 (NOT-made p13) (shipped o7):G
 (NOT-made p14) (made p14):=1
 (NOT-made p14) (shipped o31):G
 (NOT-made p14) (shipped o33):G
 (NOT-made p14) (shipped o36):G
 (NOT-made p14) (shipped o49):G
 (NOT-made p15) (made p15):=1
 (NOT-made p15) (shipped o18):G
 (NOT-made p15) (shipped o3):G
 (NOT-made p15) (shipped o37):G
 (NOT-made p15) (shipped o4):G
 (NOT-made p15) (shipped o8):G
 (NOT-made p16) (made p16):=1
 (NOT-made p16) (shipped o13):G
 (NOT-made p16) (shipped o29):G
 (NOT-made p16) (shipped o33):G
 (NOT-made p16) (shipped o43):G
 (NOT-made p16) (shipped o6):G
 (NOT-made p17) (made p17):=1
 (NOT-made p17) (shipped o10):G
 (NOT-made p17) (shipped o14):G
 (NOT-made p17) (shipped o20):G
 (NOT-made p17) (shipped o22):G
 (NOT-made p17) (shipped o25):G
 (NOT-made p17) (shipped o26):G
 (NOT-made p17) (shipped o4):G
 (NOT-made p17) (shipped o40):G
 (NOT-made p17) (shipped o7):G
 (NOT-made p18) (made p18):=1
 (NOT-made p18) (shipped o14):G
 (NOT-made p18) (shipped o17):G
 (NOT-made p18) (shipped o25):G
 (NOT-made p18) (shipped o3):G
 (NOT-made p18) (shipped o4):G
 (NOT-made p18) (shipped o48):G
 (NOT-made p18) (shipped o9):G
 (NOT-made p19) (made p19):=1
 (NOT-made p19) (shipped o26):G
 (NOT-made p19) (shipped o27):G
 (NOT-made p19) (shipped o4):G
 (NOT-made p19) (shipped o42):G
 (NOT-made p2) (made p2):=1
 (NOT-made p2) (shipped o28):G
 (NOT-made p2) (shipped o32):G
 (NOT-made p2) (shipped o34):G
 (NOT-made p20) (made p20):=1
 (NOT-made p20) (shipped o19):G
 (NOT-made p20) (shipped o31):G
 (NOT-made p20) (shipped o40):G
 (NOT-made p20) (shipped o50):G
 (NOT-made p21) (made p21):=1
 (NOT-made p21) (shipped o25):G
 (NOT-made p21) (shipped o30):G
 (NOT-made p22) (made p22):=1
 (NOT-made p22) (shipped o14):G
 (NOT-made p22) (shipped o26):G
 (NOT-made p22) (shipped o40):G
 (NOT-made p22) (shipped o9):G
 (NOT-made p23) (made p23):=1
 (NOT-made p23) (shipped o13):G
 (NOT-made p23) (shipped o15):G
 (NOT-made p23) (shipped o19):G
 (NOT-made p23) (shipped o29):G
 (NOT-made p23) (shipped o34):G
 (NOT-made p23) (shipped o41):G
 (NOT-made p23) (shipped o47):G
 (NOT-made p24) (made p24):=1
 (NOT-made p24) (shipped o24):G
 (NOT-made p24) (shipped o46):G
 (NOT-made p25) (made p25):=1
 (NOT-made p25) (shipped o10):G
 (NOT-made p25) (shipped o13):G
 (NOT-made p25) (shipped o14):G
 (NOT-made p25) (shipped o16):G
 (NOT-made p25) (shipped o22):G
 (NOT-made p25) (shipped o37):G
 (NOT-made p25) (shipped o40):G
 (NOT-made p25) (shipped o42):G
 (NOT-made p26) (made p26):=1
 (NOT-made p26) (shipped o22):G
 (NOT-made p26) (shipped o28):G
 (NOT-made p26) (shipped o43):G
 (NOT-made p26) (shipped o50):G
 (NOT-made p27) (made p27):=1
 (NOT-made p27) (shipped o34):G
 (NOT-made p27) (shipped o36):G
 (NOT-made p27) (shipped o38):G
 (NOT-made p27) (shipped o49):G
 (NOT-made p28) (made p28):=1
 (NOT-made p28) (shipped o12):G
 (NOT-made p28) (shipped o13):G
 (NOT-made p28) (shipped o15):G
 (NOT-made p28) (shipped o29):G
 (NOT-made p28) (shipped o32):G
 (NOT-made p28) (shipped o45):G
 (NOT-made p29) (made p29):=1
 (NOT-made p29) (shipped o41):G
 (NOT-made p3) (made p3):=1
 (NOT-made p3) (shipped o15):G
 (NOT-made p3) (shipped o32):G
 (NOT-made p3) (shipped o34):G
 (NOT-made p3) (shipped o43):G
 (NOT-made p3) (shipped o44):G
 (NOT-made p30) (made p30):=1
 (NOT-made p30) (shipped o16):G
 (NOT-made p30) (shipped o25):G
 (NOT-made p30) (shipped o36):G
 (NOT-made p30) (shipped o43):G
 (NOT-made p31) (made p31):=1
 (NOT-made p31) (shipped o15):G
 (NOT-made p31) (shipped o20):G
 (NOT-made p31) (shipped o50):G
 (NOT-made p32) (made p32):=1
 (NOT-made p32) (shipped o12):G
 (NOT-made p32) (shipped o15):G
 (NOT-made p32) (shipped o33):G
 (NOT-made p32) (shipped o38):G
 (NOT-made p33) (made p33):=1
 (NOT-made p33) (shipped o10):G
 (NOT-made p33) (shipped o42):G
 (NOT-made p34) (made p34):=1
 (NOT-made p34) (shipped o10):G
 (NOT-made p34) (shipped o19):G
 (NOT-made p34) (shipped o25):G
 (NOT-made p34) (shipped o3):G
 (NOT-made p34) (shipped o33):G
 (NOT-made p34) (shipped o45):G
 (NOT-made p34) (shipped o8):G
 (NOT-made p35) (made p35):=1
 (NOT-made p35) (shipped o11):G
 (NOT-made p35) (shipped o18):G
 (NOT-made p35) (shipped o26):G
 (NOT-made p36) (made p36):=1
 (NOT-made p36) (shipped o1):G
 (NOT-made p36) (shipped o21):G
 (NOT-made p36) (shipped o36):G
 (NOT-made p36) (shipped o47):G
 (NOT-made p37) (made p37):=1
 (NOT-made p37) (shipped o44):G
 (NOT-made p38) (made p38):=1
 (NOT-made p38) (shipped o11):G
 (NOT-made p38) (shipped o22):G
 (NOT-made p38) (shipped o3):G
 (NOT-made p38) (shipped o37):G
 (NOT-made p38) (shipped o4):G
 (NOT-made p39) (made p39):=1
 (NOT-made p39) (shipped o1):G
 (NOT-made p39) (shipped o16):G
 (NOT-made p39) (shipped o19):G
 (NOT-made p39) (shipped o33):G
 (NOT-made p39) (shipped o34):G
 (NOT-made p4) (made p4):=1
 (NOT-made p4) (shipped o2):G
 (NOT-made p4) (shipped o20):G
 (NOT-made p4) (shipped o39):G
 (NOT-made p4) (shipped o8):G
 (NOT-made p40) (made p40):=1
 (NOT-made p40) (shipped o25):G
 (NOT-made p40) (shipped o27):G
 (NOT-made p40) (shipped o42):G
 (NOT-made p40) (shipped o50):G
 (NOT-made p41) (made p41):=1
 (NOT-made p41) (shipped o24):G
 (NOT-made p41) (shipped o29):G
 (NOT-made p41) (shipped o40):G
 (NOT-made p41) (shipped o44):G
 (NOT-made p41) (shipped o46):G
 (NOT-made p42) (made p42):=1
 (NOT-made p42) (shipped o17):G
 (NOT-made p42) (shipped o20):G
 (NOT-made p42) (shipped o40):G
 (NOT-made p42) (shipped o9):G
 (NOT-made p43) (made p43):=1
 (NOT-made p43) (shipped o1):G
 (NOT-made p43) (shipped o19):G
 (NOT-made p43) (shipped o20):G
 (NOT-made p44) (made p44):=1
 (NOT-made p44) (shipped o24):G
 (NOT-made p44) (shipped o29):G
 (NOT-made p44) (shipped o47):G
 (NOT-made p44) (shipped o50):G
 (NOT-made p44) (shipped o9):G
 (NOT-made p45) (made p45):=1
 (NOT-made p45) (shipped o1):G
 (NOT-made p45) (shipped o19):G
 (NOT-made p45) (shipped o43):G
 (NOT-made p45) (shipped o47):G
 (NOT-made p46) (made p46):=1
 (NOT-made p46) (shipped o17):G
 (NOT-made p46) (shipped o4):G
 (NOT-made p46) (shipped o42):G
 (NOT-made p47) (made p47):=1
 (NOT-made p47) (shipped o19):G
 (NOT-made p47) (shipped o27):G
 (NOT-made p47) (shipped o34):G
 (NOT-made p47) (shipped o41):G
 (NOT-made p47) (shipped o47):G
 (NOT-made p47) (shipped o49):G
 (NOT-made p48) (made p48):=1
 (NOT-made p48) (shipped o11):G
 (NOT-made p48) (shipped o2):G
 (NOT-made p48) (shipped o26):G
 (NOT-made p48) (shipped o8):G
 (NOT-made p49) (made p49):=1
 (NOT-made p49) (shipped o21):G
 (NOT-made p5) (made p5):=1
 (NOT-made p5) (shipped o11):G
 (NOT-made p5) (shipped o37):G
 (NOT-made p5) (shipped o7):G
 (NOT-made p50) (made p50):=1
 (NOT-made p50) (shipped o1):G
 (NOT-made p50) (shipped o15):G
 (NOT-made p50) (shipped o28):G
 (NOT-made p50) (shipped o34):G
 (NOT-made p50) (shipped o35):G
 (NOT-made p50) (shipped o36):G
 (NOT-made p50) (shipped o46):G
 (NOT-made p50) (shipped o47):G
 (NOT-made p50) (shipped o9):G
 (NOT-made p6) (made p6):=1
 (NOT-made p6) (shipped o28):G
 (NOT-made p6) (shipped o36):G
 (NOT-made p6) (shipped o47):G
 (NOT-made p6) (shipped o5):G
 (NOT-made p7) (made p7):=1
 (NOT-made p7) (shipped o13):G
 (NOT-made p7) (shipped o22):G
 (NOT-made p7) (shipped o29):G
 (NOT-made p7) (shipped o34):G
 (NOT-made p7) (shipped o45):G
 (NOT-made p7) (shipped o48):G
 (NOT-made p8) (made p8):=1
 (NOT-made p8) (shipped o1):G
 (NOT-made p8) (shipped o13):G
 (NOT-made p8) (shipped o32):G
 (NOT-made p9) (made p9):=1
 (NOT-made p9) (shipped o10):G
 (NOT-made p9) (shipped o14):G
 (NOT-made p9) (shipped o16):G
 (NOT-made p9) (shipped o17):G
 (NOT-made p9) (shipped o2):G
 (NOT-made p9) (shipped o26):G
 (NOT-made p9) (shipped o37):G
 (NOT-made p9) (shipped o4):G
 (NOT-made p9) (shipped o46):G
 (NOT-made p9) (shipped o9):G
 (made p1) (waiting o23)
 (made p1) (waiting o25)
 (made p1) (waiting o42)
 (made p1) (waiting o6)
 (made p10) (waiting o25)
 (made p10) (waiting o46)
 (made p10) (waiting o6)
 (made p10) (waiting o8)
 (made p11) (waiting o18)
 (made p11) (waiting o27)
 (made p11) (waiting o3)
 (made p11) (waiting o39)
 (made p12) (waiting o15)
 (made p12) (waiting o28)
 (made p12) (waiting o29)
 (made p12) (waiting o41)
 (made p12) (waiting o47)
 (made p12) (waiting o49)
 (made p12) (waiting o12)
 (made p13) (waiting o45)
 (made p13) (waiting o7)
 (made p14) (waiting o31)
 (made p14) (waiting o33)
 (made p14) (waiting o36)
 (made p14) (waiting o49)
 (made p15) (waiting o18)
 (made p15) (waiting o3)
 (made p15) (waiting o37)
 (made p15) (waiting o4)
 (made p15) (waiting o8)
 (made p16) (waiting o29)
 (made p16) (waiting o33)
 (made p16) (waiting o43)
 (made p16) (waiting o6)
 (made p16) (waiting o13)
 (made p17) (waiting o14)
 (made p17) (waiting o20)
 (made p17) (waiting o22)
 (made p17) (waiting o25)
 (made p17) (waiting o26)
 (made p17) (waiting o4)
 (made p17) (waiting o40)
 (made p17) (waiting o7)
 (made p17) (waiting o10)
 (made p18) (waiting o14)
 (made p18) (waiting o17)
 (made p18) (waiting o25)
 (made p18) (waiting o3)
 (made p18) (waiting o4)
 (made p18) (waiting o48)
 (made p18) (waiting o9)
 (made p19) (waiting o26)
 (made p19) (waiting o27)
 (made p19) (waiting o4)
 (made p19) (waiting o42)
 (made p2) (waiting o28)
 (made p2) (waiting o32)
 (made p2) (waiting o34)
 (made p20) (waiting o19)
 (made p20) (waiting o31)
 (made p20) (waiting o40)
 (made p20) (waiting o50)
 (made p21) (waiting o25)
 (made p21) (waiting o30)
 (made p22) (waiting o14)
 (made p22) (waiting o26)
 (made p22) (waiting o40)
 (made p22) (waiting o9)
 (made p23) (waiting o15)
 (made p23) (waiting o19)
 (made p23) (waiting o29)
 (made p23) (waiting o34)
 (made p23) (waiting o41)
 (made p23) (waiting o47)
 (made p23) (waiting o13)
 (made p24) (waiting o24)
 (made p24) (waiting o46)
 (made p25) (waiting o14)
 (made p25) (waiting o16)
 (made p25) (waiting o22)
 (made p25) (waiting o37)
 (made p25) (waiting o40)
 (made p25) (waiting o42)
 (made p25) (waiting o10)
 (made p25) (waiting o13)
 (made p26) (waiting o22)
 (made p26) (waiting o28)
 (made p26) (waiting o43)
 (made p26) (waiting o50)
 (made p27) (waiting o34)
 (made p27) (waiting o36)
 (made p27) (waiting o38)
 (made p27) (waiting o49)
 (made p28) (waiting o15)
 (made p28) (waiting o29)
 (made p28) (waiting o32)
 (made p28) (waiting o45)
 (made p28) (waiting o12)
 (made p28) (waiting o13)
 (made p29) (waiting o41)
 (made p3) (waiting o15)
 (made p3) (waiting o32)
 (made p3) (waiting o34)
 (made p3) (waiting o43)
 (made p3) (waiting o44)
 (made p30) (waiting o16)
 (made p30) (waiting o25)
 (made p30) (waiting o36)
 (made p30) (waiting o43)
 (made p31) (waiting o15)
 (made p31) (waiting o20)
 (made p31) (waiting o50)
 (made p32) (waiting o15)
 (made p32) (waiting o33)
 (made p32) (waiting o38)
 (made p32) (waiting o12)
 (made p33) (waiting o42)
 (made p33) (waiting o10)
 (made p34) (waiting o19)
 (made p34) (waiting o25)
 (made p34) (waiting o3)
 (made p34) (waiting o33)
 (made p34) (waiting o45)
 (made p34) (waiting o8)
 (made p34) (waiting o10)
 (made p35) (waiting o18)
 (made p35) (waiting o26)
 (made p35) (waiting o11)
 (made p36) (waiting o21)
 (made p36) (waiting o36)
 (made p36) (waiting o47)
 (made p36) (waiting o1)
 (made p37) (waiting o44)
 (made p38) (waiting o22)
 (made p38) (waiting o3)
 (made p38) (waiting o37)
 (made p38) (waiting o4)
 (made p38) (waiting o11)
 (made p39) (waiting o16)
 (made p39) (waiting o19)
 (made p39) (waiting o33)
 (made p39) (waiting o34)
 (made p39) (waiting o1)
 (made p4) (waiting o2)
 (made p4) (waiting o20)
 (made p4) (waiting o39)
 (made p4) (waiting o8)
 (made p40) (waiting o25)
 (made p40) (waiting o27)
 (made p40) (waiting o42)
 (made p40) (waiting o50)
 (made p41) (waiting o24)
 (made p41) (waiting o29)
 (made p41) (waiting o40)
 (made p41) (waiting o44)
 (made p41) (waiting o46)
 (made p42) (waiting o17)
 (made p42) (waiting o20)
 (made p42) (waiting o40)
 (made p42) (waiting o9)
 (made p43) (waiting o19)
 (made p43) (waiting o20)
 (made p43) (waiting o1)
 (made p44) (waiting o24)
 (made p44) (waiting o29)
 (made p44) (waiting o47)
 (made p44) (waiting o50)
 (made p44) (waiting o9)
 (made p45) (waiting o19)
 (made p45) (waiting o43)
 (made p45) (waiting o47)
 (made p45) (waiting o1)
 (made p46) (waiting o17)
 (made p46) (waiting o4)
 (made p46) (waiting o42)
 (made p47) (waiting o19)
 (made p47) (waiting o27)
 (made p47) (waiting o34)
 (made p47) (waiting o41)
 (made p47) (waiting o47)
 (made p47) (waiting o49)
 (made p48) (waiting o2)
 (made p48) (waiting o26)
 (made p48) (waiting o8)
 (made p48) (waiting o11)
 (made p49) (waiting o21)
 (made p5) (waiting o37)
 (made p5) (waiting o7)
 (made p5) (waiting o11)
 (made p50) (waiting o15)
 (made p50) (waiting o28)
 (made p50) (waiting o34)
 (made p50) (waiting o35)
 (made p50) (waiting o36)
 (made p50) (waiting o46)
 (made p50) (waiting o47)
 (made p50) (waiting o9)
 (made p50) (waiting o1)
 (made p6) (waiting o28)
 (made p6) (waiting o36)
 (made p6) (waiting o47)
 (made p6) (waiting o5)
 (made p7) (waiting o22)
 (made p7) (waiting o29)
 (made p7) (waiting o34)
 (made p7) (waiting o45)
 (made p7) (waiting o48)
 (made p7) (waiting o13)
 (made p8) (waiting o32)
 (made p8) (waiting o1)
 (made p8) (waiting o13)
 (made p9) (waiting o14)
 (made p9) (waiting o16)
 (made p9) (waiting o17)
 (made p9) (waiting o2)
 (made p9) (waiting o26)
 (made p9) (waiting o37)
 (made p9) (waiting o4)
 (made p9) (waiting o46)
 (made p9) (waiting o9)
 (made p9) (waiting o10)
 (shipped o1) (waiting o15):G
 (shipped o1) (waiting o16):G
 (shipped o1) (waiting o19):G
 (shipped o1) (waiting o20):G
 (shipped o1) (waiting o21):G
 (shipped o1) (waiting o28):G
 (shipped o1) (waiting o32):G
 (shipped o1) (waiting o33):G
 (shipped o1) (waiting o34):G
 (shipped o1) (waiting o35):G
 (shipped o1) (waiting o36):G
 (shipped o1) (waiting o43):G
 (shipped o1) (waiting o46):G
 (shipped o1) (waiting o47):G
 (shipped o1) (waiting o9):G
 (shipped o1) (waiting o13):G
 (shipped o10) (waiting o14):G
 (shipped o10) (waiting o16):G
 (shipped o10) (waiting o17):G
 (shipped o10) (waiting o19):G
 (shipped o10) (waiting o2):G
 (shipped o10) (waiting o20):G
 (shipped o10) (waiting o22):G
 (shipped o10) (waiting o25):G
 (shipped o10) (waiting o26):G
 (shipped o10) (waiting o3):G
 (shipped o10) (waiting o33):G
 (shipped o10) (waiting o37):G
 (shipped o10) (waiting o4):G
 (shipped o10) (waiting o40):G
 (shipped o10) (waiting o42):G
 (shipped o10) (waiting o45):G
 (shipped o10) (waiting o46):G
 (shipped o10) (waiting o7):G
 (shipped o10) (waiting o8):G
 (shipped o10) (waiting o9):G
 (shipped o10) (waiting o13):G
 (shipped o11) (waiting o18):G
 (shipped o11) (waiting o2):G
 (shipped o11) (waiting o22):G
 (shipped o11) (waiting o26):G
 (shipped o11) (waiting o3):G
 (shipped o11) (waiting o37):G
 (shipped o11) (waiting o4):G
 (shipped o11) (waiting o7):G
 (shipped o11) (waiting o8):G
 (shipped o12) (waiting o15):G
 (shipped o12) (waiting o28):G
 (shipped o12) (waiting o29):G
 (shipped o12) (waiting o32):G
 (shipped o12) (waiting o33):G
 (shipped o12) (waiting o38):G
 (shipped o12) (waiting o41):G
 (shipped o12) (waiting o45):G
 (shipped o12) (waiting o47):G
 (shipped o12) (waiting o49):G
 (shipped o12) (waiting o13):G
 (shipped o13) (waiting o14):G
 (shipped o13) (waiting o15):G
 (shipped o13) (waiting o16):G
 (shipped o13) (waiting o19):G
 (shipped o13) (waiting o22):G
 (shipped o13) (waiting o29):G
 (shipped o13) (waiting o32):G
 (shipped o13) (waiting o33):G
 (shipped o13) (waiting o34):G
 (shipped o13) (waiting o37):G
 (shipped o13) (waiting o40):G
 (shipped o13) (waiting o41):G
 (shipped o13) (waiting o42):G
 (shipped o13) (waiting o43):G
 (shipped o13) (waiting o45):G
 (shipped o13) (waiting o47):G
 (shipped o13) (waiting o48):G
 (shipped o13) (waiting o6):G
 (shipped o13) (waiting o1):G
 (shipped o13) (waiting o10):G
 (shipped o13) (waiting o12):G
 (shipped o14) (waiting o16):G
 (shipped o14) (waiting o17):G
 (shipped o14) (waiting o2):G
 (shipped o14) (waiting o20):G
 (shipped o14) (waiting o22):G
 (shipped o14) (waiting o25):G
 (shipped o14) (waiting o26):G
 (shipped o14) (waiting o3):G
 (shipped o14) (waiting o37):G
 (shipped o14) (waiting o4):G
 (shipped o14) (waiting o40):G
 (shipped o14) (waiting o42):G
 (shipped o14) (waiting o46):G
 (shipped o14) (waiting o48):G
 (shipped o14) (waiting o7):G
 (shipped o14) (waiting o9):G
 (shipped o14) (waiting o10):G
 (shipped o14) (waiting o13):G
 (shipped o15) (waiting o19):G
 (shipped o15) (waiting o20):G
 (shipped o15) (waiting o28):G
 (shipped o15) (waiting o29):G
 (shipped o15) (waiting o32):G
 (shipped o15) (waiting o33):G
 (shipped o15) (waiting o34):G
 (shipped o15) (waiting o35):G
 (shipped o15) (waiting o36):G
 (shipped o15) (waiting o38):G
 (shipped o15) (waiting o41):G
 (shipped o15) (waiting o43):G
 (shipped o15) (waiting o44):G
 (shipped o15) (waiting o45):G
 (shipped o15) (waiting o46):G
 (shipped o15) (waiting o47):G
 (shipped o15) (waiting o49):G
 (shipped o15) (waiting o50):G
 (shipped o15) (waiting o9):G
 (shipped o15) (waiting o1):G
 (shipped o15) (waiting o12):G
 (shipped o15) (waiting o13):G
 (shipped o16) (waiting o14):G
 (shipped o16) (waiting o17):G
 (shipped o16) (waiting o19):G
 (shipped o16) (waiting o2):G
 (shipped o16) (waiting o22):G
 (shipped o16) (waiting o25):G
 (shipped o16) (waiting o26):G
 (shipped o16) (waiting o33):G
 (shipped o16) (waiting o34):G
 (shipped o16) (waiting o36):G
 (shipped o16) (waiting o37):G
 (shipped o16) (waiting o4):G
 (shipped o16) (waiting o40):G
 (shipped o16) (waiting o42):G
 (shipped o16) (waiting o43):G
 (shipped o16) (waiting o46):G
 (shipped o16) (waiting o9):G
 (shipped o16) (waiting o1):G
 (shipped o16) (waiting o10):G
 (shipped o16) (waiting o13):G
 (shipped o17) (waiting o14):G
 (shipped o17) (waiting o16):G
 (shipped o17) (waiting o2):G
 (shipped o17) (waiting o20):G
 (shipped o17) (waiting o25):G
 (shipped o17) (waiting o26):G
 (shipped o17) (waiting o3):G
 (shipped o17) (waiting o37):G
 (shipped o17) (waiting o4):G
 (shipped o17) (waiting o40):G
 (shipped o17) (waiting o42):G
 (shipped o17) (waiting o46):G
 (shipped o17) (waiting o48):G
 (shipped o17) (waiting o9):G
 (shipped o17) (waiting o10):G
 (shipped o18) (waiting o26):G
 (shipped o18) (waiting o27):G
 (shipped o18) (waiting o3):G
 (shipped o18) (waiting o37):G
 (shipped o18) (waiting o39):G
 (shipped o18) (waiting o4):G
 (shipped o18) (waiting o8):G
 (shipped o18) (waiting o11):G
 (shipped o19) (waiting o15):G
 (shipped o19) (waiting o16):G
 (shipped o19) (waiting o20):G
 (shipped o19) (waiting o25):G
 (shipped o19) (waiting o27):G
 (shipped o19) (waiting o29):G
 (shipped o19) (waiting o3):G
 (shipped o19) (waiting o31):G
 (shipped o19) (waiting o33):G
 (shipped o19) (waiting o34):G
 (shipped o19) (waiting o40):G
 (shipped o19) (waiting o41):G
 (shipped o19) (waiting o43):G
 (shipped o19) (waiting o45):G
 (shipped o19) (waiting o47):G
 (shipped o19) (waiting o49):G
 (shipped o19) (waiting o50):G
 (shipped o19) (waiting o8):G
 (shipped o19) (waiting o1):G
 (shipped o19) (waiting o10):G
 (shipped o19) (waiting o13):G
 (shipped o2) (waiting o14):G
 (shipped o2) (waiting o16):G
 (shipped o2) (waiting o17):G
 (shipped o2) (waiting o20):G
 (shipped o2) (waiting o26):G
 (shipped o2) (waiting o37):G
 (shipped o2) (waiting o39):G
 (shipped o2) (waiting o4):G
 (shipped o2) (waiting o46):G
 (shipped o2) (waiting o8):G
 (shipped o2) (waiting o9):G
 (shipped o2) (waiting o10):G
 (shipped o2) (waiting o11):G
 (shipped o20) (waiting o14):G
 (shipped o20) (waiting o15):G
 (shipped o20) (waiting o17):G
 (shipped o20) (waiting o19):G
 (shipped o20) (waiting o2):G
 (shipped o20) (waiting o22):G
 (shipped o20) (waiting o25):G
 (shipped o20) (waiting o26):G
 (shipped o20) (waiting o39):G
 (shipped o20) (waiting o4):G
 (shipped o20) (waiting o40):G
 (shipped o20) (waiting o50):G
 (shipped o20) (waiting o7):G
 (shipped o20) (waiting o8):G
 (shipped o20) (waiting o9):G
 (shipped o20) (waiting o1):G
 (shipped o20) (waiting o10):G
 (shipped o21) (waiting o36):G
 (shipped o21) (waiting o47):G
 (shipped o21) (waiting o1):G
 (shipped o22) (waiting o14):G
 (shipped o22) (waiting o16):G
 (shipped o22) (waiting o20):G
 (shipped o22) (waiting o25):G
 (shipped o22) (waiting o26):G
 (shipped o22) (waiting o28):G
 (shipped o22) (waiting o29):G
 (shipped o22) (waiting o3):G
 (shipped o22) (waiting o34):G
 (shipped o22) (waiting o37):G
 (shipped o22) (waiting o4):G
 (shipped o22) (waiting o40):G
 (shipped o22) (waiting o42):G
 (shipped o22) (waiting o43):G
 (shipped o22) (waiting o45):G
 (shipped o22) (waiting o48):G
 (shipped o22) (waiting o50):G
 (shipped o22) (waiting o7):G
 (shipped o22) (waiting o10):G
 (shipped o22) (waiting o11):G
 (shipped o22) (waiting o13):G
 (shipped o23) (waiting o25):G
 (shipped o23) (waiting o42):G
 (shipped o23) (waiting o6):G
 (shipped o24) (waiting o29):G
 (shipped o24) (waiting o40):G
 (shipped o24) (waiting o44):G
 (shipped o24) (waiting o46):G
 (shipped o24) (waiting o47):G
 (shipped o24) (waiting o50):G
 (shipped o24) (waiting o9):G
 (shipped o25) (waiting o14):G
 (shipped o25) (waiting o16):G
 (shipped o25) (waiting o17):G
 (shipped o25) (waiting o19):G
 (shipped o25) (waiting o20):G
 (shipped o25) (waiting o22):G
 (shipped o25) (waiting o23):G
 (shipped o25) (waiting o26):G
 (shipped o25) (waiting o27):G
 (shipped o25) (waiting o3):G
 (shipped o25) (waiting o30):G
 (shipped o25) (waiting o33):G
 (shipped o25) (waiting o36):G
 (shipped o25) (waiting o4):G
 (shipped o25) (waiting o40):G
 (shipped o25) (waiting o42):G
 (shipped o25) (waiting o43):G
 (shipped o25) (waiting o45):G
 (shipped o25) (waiting o46):G
 (shipped o25) (waiting o48):G
 (shipped o25) (waiting o50):G
 (shipped o25) (waiting o6):G
 (shipped o25) (waiting o7):G
 (shipped o25) (waiting o8):G
 (shipped o25) (waiting o9):G
 (shipped o25) (waiting o10):G
 (shipped o26) (waiting o14):G
 (shipped o26) (waiting o16):G
 (shipped o26) (waiting o17):G
 (shipped o26) (waiting o18):G
 (shipped o26) (waiting o2):G
 (shipped o26) (waiting o20):G
 (shipped o26) (waiting o22):G
 (shipped o26) (waiting o25):G
 (shipped o26) (waiting o27):G
 (shipped o26) (waiting o37):G
 (shipped o26) (waiting o4):G
 (shipped o26) (waiting o40):G
 (shipped o26) (waiting o42):G
 (shipped o26) (waiting o46):G
 (shipped o26) (waiting o7):G
 (shipped o26) (waiting o8):G
 (shipped o26) (waiting o9):G
 (shipped o26) (waiting o10):G
 (shipped o26) (waiting o11):G
 (shipped o27) (waiting o18):G
 (shipped o27) (waiting o19):G
 (shipped o27) (waiting o25):G
 (shipped o27) (waiting o26):G
 (shipped o27) (waiting o3):G
 (shipped o27) (waiting o34):G
 (shipped o27) (waiting o39):G
 (shipped o27) (waiting o4):G
 (shipped o27) (waiting o41):G
 (shipped o27) (waiting o42):G
 (shipped o27) (waiting o47):G
 (shipped o27) (waiting o49):G
 (shipped o27) (waiting o50):G
 (shipped o28) (waiting o15):G
 (shipped o28) (waiting o22):G
 (shipped o28) (waiting o29):G
 (shipped o28) (waiting o32):G
 (shipped o28) (waiting o34):G
 (shipped o28) (waiting o35):G
 (shipped o28) (waiting o36):G
 (shipped o28) (waiting o41):G
 (shipped o28) (waiting o43):G
 (shipped o28) (waiting o46):G
 (shipped o28) (waiting o47):G
 (shipped o28) (waiting o49):G
 (shipped o28) (waiting o5):G
 (shipped o28) (waiting o50):G
 (shipped o28) (waiting o9):G
 (shipped o28) (waiting o1):G
 (shipped o28) (waiting o12):G
 (shipped o29) (waiting o15):G
 (shipped o29) (waiting o19):G
 (shipped o29) (waiting o22):G
 (shipped o29) (waiting o24):G
 (shipped o29) (waiting o28):G
 (shipped o29) (waiting o32):G
 (shipped o29) (waiting o33):G
 (shipped o29) (waiting o34):G
 (shipped o29) (waiting o40):G
 (shipped o29) (waiting o41):G
 (shipped o29) (waiting o43):G
 (shipped o29) (waiting o44):G
 (shipped o29) (waiting o45):G
 (shipped o29) (waiting o46):G
 (shipped o29) (waiting o47):G
 (shipped o29) (waiting o48):G
 (shipped o29) (waiting o49):G
 (shipped o29) (waiting o50):G
 (shipped o29) (waiting o6):G
 (shipped o29) (waiting o9):G
 (shipped o29) (waiting o12):G
 (shipped o29) (waiting o13):G
 (shipped o3) (waiting o14):G
 (shipped o3) (waiting o17):G
 (shipped o3) (waiting o18):G
 (shipped o3) (waiting o19):G
 (shipped o3) (waiting o22):G
 (shipped o3) (waiting o25):G
 (shipped o3) (waiting o27):G
 (shipped o3) (waiting o33):G
 (shipped o3) (waiting o37):G
 (shipped o3) (waiting o39):G
 (shipped o3) (waiting o4):G
 (shipped o3) (waiting o45):G
 (shipped o3) (waiting o48):G
 (shipped o3) (waiting o8):G
 (shipped o3) (waiting o9):G
 (shipped o3) (waiting o10):G
 (shipped o3) (waiting o11):G
 (shipped o30) (waiting o25):G
 (shipped o31) (waiting o19):G
 (shipped o31) (waiting o33):G
 (shipped o31) (waiting o36):G
 (shipped o31) (waiting o40):G
 (shipped o31) (waiting o49):G
 (shipped o31) (waiting o50):G
 (shipped o32) (waiting o15):G
 (shipped o32) (waiting o28):G
 (shipped o32) (waiting o29):G
 (shipped o32) (waiting o34):G
 (shipped o32) (waiting o43):G
 (shipped o32) (waiting o44):G
 (shipped o32) (waiting o45):G
 (shipped o32) (waiting o1):G
 (shipped o32) (waiting o12):G
 (shipped o32) (waiting o13):G
 (shipped o33) (waiting o15):G
 (shipped o33) (waiting o16):G
 (shipped o33) (waiting o19):G
 (shipped o33) (waiting o25):G
 (shipped o33) (waiting o29):G
 (shipped o33) (waiting o3):G
 (shipped o33) (waiting o31):G
 (shipped o33) (waiting o34):G
 (shipped o33) (waiting o36):G
 (shipped o33) (waiting o38):G
 (shipped o33) (waiting o43):G
 (shipped o33) (waiting o45):G
 (shipped o33) (waiting o49):G
 (shipped o33) (waiting o6):G
 (shipped o33) (waiting o8):G
 (shipped o33) (waiting o1):G
 (shipped o33) (waiting o10):G
 (shipped o33) (waiting o12):G
 (shipped o33) (waiting o13):G
 (shipped o34) (waiting o15):G
 (shipped o34) (waiting o16):G
 (shipped o34) (waiting o19):G
 (shipped o34) (waiting o22):G
 (shipped o34) (waiting o27):G
 (shipped o34) (waiting o28):G
 (shipped o34) (waiting o29):G
 (shipped o34) (waiting o32):G
 (shipped o34) (waiting o33):G
 (shipped o34) (waiting o35):G
 (shipped o34) (waiting o36):G
 (shipped o34) (waiting o38):G
 (shipped o34) (waiting o41):G
 (shipped o34) (waiting o43):G
 (shipped o34) (waiting o44):G
 (shipped o34) (waiting o45):G
 (shipped o34) (waiting o46):G
 (shipped o34) (waiting o47):G
 (shipped o34) (waiting o48):G
 (shipped o34) (waiting o49):G
 (shipped o34) (waiting o9):G
 (shipped o34) (waiting o1):G
 (shipped o34) (waiting o13):G
 (shipped o35) (waiting o15):G
 (shipped o35) (waiting o28):G
 (shipped o35) (waiting o34):G
 (shipped o35) (waiting o36):G
 (shipped o35) (waiting o46):G
 (shipped o35) (waiting o47):G
 (shipped o35) (waiting o9):G
 (shipped o35) (waiting o1):G
 (shipped o36) (waiting o15):G
 (shipped o36) (waiting o16):G
 (shipped o36) (waiting o21):G
 (shipped o36) (waiting o25):G
 (shipped o36) (waiting o28):G
 (shipped o36) (waiting o31):G
 (shipped o36) (waiting o33):G
 (shipped o36) (waiting o34):G
 (shipped o36) (waiting o35):G
 (shipped o36) (waiting o38):G
 (shipped o36) (waiting o43):G
 (shipped o36) (waiting o46):G
 (shipped o36) (waiting o47):G
 (shipped o36) (waiting o49):G
 (shipped o36) (waiting o5):G
 (shipped o36) (waiting o9):G
 (shipped o36) (waiting o1):G
 (shipped o37) (waiting o14):G
 (shipped o37) (waiting o16):G
 (shipped o37) (waiting o17):G
 (shipped o37) (waiting o18):G
 (shipped o37) (waiting o2):G
 (shipped o37) (waiting o22):G
 (shipped o37) (waiting o26):G
 (shipped o37) (waiting o3):G
 (shipped o37) (waiting o4):G
 (shipped o37) (waiting o40):G
 (shipped o37) (waiting o42):G
 (shipped o37) (waiting o46):G
 (shipped o37) (waiting o7):G
 (shipped o37) (waiting o8):G
 (shipped o37) (waiting o9):G
 (shipped o37) (waiting o10):G
 (shipped o37) (waiting o11):G
 (shipped o37) (waiting o13):G
 (shipped o38) (waiting o15):G
 (shipped o38) (waiting o33):G
 (shipped o38) (waiting o34):G
 (shipped o38) (waiting o36):G
 (shipped o38) (waiting o49):G
 (shipped o38) (waiting o12):G
 (shipped o39) (waiting o18):G
 (shipped o39) (waiting o2):G
 (shipped o39) (waiting o20):G
 (shipped o39) (waiting o27):G
 (shipped o39) (waiting o3):G
 (shipped o39) (waiting o8):G
 (shipped o4) (waiting o14):G
 (shipped o4) (waiting o16):G
 (shipped o4) (waiting o17):G
 (shipped o4) (waiting o18):G
 (shipped o4) (waiting o2):G
 (shipped o4) (waiting o20):G
 (shipped o4) (waiting o22):G
 (shipped o4) (waiting o25):G
 (shipped o4) (waiting o26):G
 (shipped o4) (waiting o27):G
 (shipped o4) (waiting o3):G
 (shipped o4) (waiting o37):G
 (shipped o4) (waiting o40):G
 (shipped o4) (waiting o42):G
 (shipped o4) (waiting o46):G
 (shipped o4) (waiting o48):G
 (shipped o4) (waiting o7):G
 (shipped o4) (waiting o8):G
 (shipped o4) (waiting o9):G
 (shipped o4) (waiting o10):G
 (shipped o4) (waiting o11):G
 (shipped o40) (waiting o14):G
 (shipped o40) (waiting o16):G
 (shipped o40) (waiting o17):G
 (shipped o40) (waiting o19):G
 (shipped o40) (waiting o20):G
 (shipped o40) (waiting o22):G
 (shipped o40) (waiting o24):G
 (shipped o40) (waiting o25):G
 (shipped o40) (waiting o26):G
 (shipped o40) (waiting o29):G
 (shipped o40) (waiting o31):G
 (shipped o40) (waiting o37):G
 (shipped o40) (waiting o4):G
 (shipped o40) (waiting o42):G
 (shipped o40) (waiting o44):G
 (shipped o40) (waiting o46):G
 (shipped o40) (waiting o50):G
 (shipped o40) (waiting o7):G
 (shipped o40) (waiting o9):G
 (shipped o40) (waiting o10):G
 (shipped o40) (waiting o13):G
 (shipped o41) (waiting o15):G
 (shipped o41) (waiting o19):G
 (shipped o41) (waiting o27):G
 (shipped o41) (waiting o28):G
 (shipped o41) (waiting o29):G
 (shipped o41) (waiting o34):G
 (shipped o41) (waiting o47):G
 (shipped o41) (waiting o49):G
 (shipped o41) (waiting o12):G
 (shipped o41) (waiting o13):G
 (shipped o42) (waiting o14):G
 (shipped o42) (waiting o16):G
 (shipped o42) (waiting o17):G
 (shipped o42) (waiting o22):G
 (shipped o42) (waiting o23):G
 (shipped o42) (waiting o25):G
 (shipped o42) (waiting o26):G
 (shipped o42) (waiting o27):G
 (shipped o42) (waiting o37):G
 (shipped o42) (waiting o4):G
 (shipped o42) (waiting o40):G
 (shipped o42) (waiting o50):G
 (shipped o42) (waiting o6):G
 (shipped o42) (waiting o10):G
 (shipped o42) (waiting o13):G
 (shipped o43) (waiting o15):G
 (shipped o43) (waiting o16):G
 (shipped o43) (waiting o19):G
 (shipped o43) (waiting o22):G
 (shipped o43) (waiting o25):G
 (shipped o43) (waiting o28):G
 (shipped o43) (waiting o29):G
 (shipped o43) (waiting o32):G
 (shipped o43) (waiting o33):G
 (shipped o43) (waiting o34):G
 (shipped o43) (waiting o36):G
 (shipped o43) (waiting o44):G
 (shipped o43) (waiting o47):G
 (shipped o43) (waiting o50):G
 (shipped o43) (waiting o6):G
 (shipped o43) (waiting o1):G
 (shipped o43) (waiting o13):G
 (shipped o44) (waiting o15):G
 (shipped o44) (waiting o24):G
 (shipped o44) (waiting o29):G
 (shipped o44) (waiting o32):G
 (shipped o44) (waiting o34):G
 (shipped o44) (waiting o40):G
 (shipped o44) (waiting o43):G
 (shipped o44) (waiting o46):G
 (shipped o45) (waiting o15):G
 (shipped o45) (waiting o19):G
 (shipped o45) (waiting o22):G
 (shipped o45) (waiting o25):G
 (shipped o45) (waiting o29):G
 (shipped o45) (waiting o3):G
 (shipped o45) (waiting o32):G
 (shipped o45) (waiting o33):G
 (shipped o45) (waiting o34):G
 (shipped o45) (waiting o48):G
 (shipped o45) (waiting o7):G
 (shipped o45) (waiting o8):G
 (shipped o45) (waiting o10):G
 (shipped o45) (waiting o12):G
 (shipped o45) (waiting o13):G
 (shipped o46) (waiting o14):G
 (shipped o46) (waiting o15):G
 (shipped o46) (waiting o16):G
 (shipped o46) (waiting o17):G
 (shipped o46) (waiting o2):G
 (shipped o46) (waiting o24):G
 (shipped o46) (waiting o25):G
 (shipped o46) (waiting o26):G
 (shipped o46) (waiting o28):G
 (shipped o46) (waiting o29):G
 (shipped o46) (waiting o34):G
 (shipped o46) (waiting o35):G
 (shipped o46) (waiting o36):G
 (shipped o46) (waiting o37):G
 (shipped o46) (waiting o4):G
 (shipped o46) (waiting o40):G
 (shipped o46) (waiting o44):G
 (shipped o46) (waiting o47):G
 (shipped o46) (waiting o6):G
 (shipped o46) (waiting o8):G
 (shipped o46) (waiting o9):G
 (shipped o46) (waiting o1):G
 (shipped o46) (waiting o10):G
 (shipped o47) (waiting o15):G
 (shipped o47) (waiting o19):G
 (shipped o47) (waiting o21):G
 (shipped o47) (waiting o24):G
 (shipped o47) (waiting o27):G
 (shipped o47) (waiting o28):G
 (shipped o47) (waiting o29):G
 (shipped o47) (waiting o34):G
 (shipped o47) (waiting o35):G
 (shipped o47) (waiting o36):G
 (shipped o47) (waiting o41):G
 (shipped o47) (waiting o43):G
 (shipped o47) (waiting o46):G
 (shipped o47) (waiting o49):G
 (shipped o47) (waiting o5):G
 (shipped o47) (waiting o50):G
 (shipped o47) (waiting o9):G
 (shipped o47) (waiting o1):G
 (shipped o47) (waiting o12):G
 (shipped o47) (waiting o13):G
 (shipped o48) (waiting o14):G
 (shipped o48) (waiting o17):G
 (shipped o48) (waiting o22):G
 (shipped o48) (waiting o25):G
 (shipped o48) (waiting o29):G
 (shipped o48) (waiting o3):G
 (shipped o48) (waiting o34):G
 (shipped o48) (waiting o4):G
 (shipped o48) (waiting o45):G
 (shipped o48) (waiting o9):G
 (shipped o48) (waiting o13):G
 (shipped o49) (waiting o15):G
 (shipped o49) (waiting o19):G
 (shipped o49) (waiting o27):G
 (shipped o49) (waiting o28):G
 (shipped o49) (waiting o29):G
 (shipped o49) (waiting o31):G
 (shipped o49) (waiting o33):G
 (shipped o49) (waiting o34):G
 (shipped o49) (waiting o36):G
 (shipped o49) (waiting o38):G
 (shipped o49) (waiting o41):G
 (shipped o49) (waiting o47):G
 (shipped o49) (waiting o12):G
 (shipped o5) (waiting o28):G
 (shipped o5) (waiting o36):G
 (shipped o5) (waiting o47):G
 (shipped o50) (waiting o15):G
 (shipped o50) (waiting o19):G
 (shipped o50) (waiting o20):G
 (shipped o50) (waiting o22):G
 (shipped o50) (waiting o24):G
 (shipped o50) (waiting o25):G
 (shipped o50) (waiting o27):G
 (shipped o50) (waiting o28):G
 (shipped o50) (waiting o29):G
 (shipped o50) (waiting o31):G
 (shipped o50) (waiting o40):G
 (shipped o50) (waiting o42):G
 (shipped o50) (waiting o43):G
 (shipped o50) (waiting o47):G
 (shipped o50) (waiting o9):G
 (shipped o6) (waiting o23):G
 (shipped o6) (waiting o25):G
 (shipped o6) (waiting o29):G
 (shipped o6) (waiting o33):G
 (shipped o6) (waiting o42):G
 (shipped o6) (waiting o43):G
 (shipped o6) (waiting o46):G
 (shipped o6) (waiting o8):G
 (shipped o6) (waiting o13):G
 (shipped o7) (waiting o14):G
 (shipped o7) (waiting o20):G
 (shipped o7) (waiting o22):G
 (shipped o7) (waiting o25):G
 (shipped o7) (waiting o26):G
 (shipped o7) (waiting o37):G
 (shipped o7) (waiting o4):G
 (shipped o7) (waiting o40):G
 (shipped o7) (waiting o45):G
 (shipped o7) (waiting o10):G
 (shipped o7) (waiting o11):G
 (shipped o8) (waiting o18):G
 (shipped o8) (waiting o19):G
 (shipped o8) (waiting o2):G
 (shipped o8) (waiting o20):G
 (shipped o8) (waiting o25):G
 (shipped o8) (waiting o26):G
 (shipped o8) (waiting o3):G
 (shipped o8) (waiting o33):G
 (shipped o8) (waiting o37):G
 (shipped o8) (waiting o39):G
 (shipped o8) (waiting o4):G
 (shipped o8) (waiting o45):G
 (shipped o8) (waiting o46):G
 (shipped o8) (waiting o6):G
 (shipped o8) (waiting o10):G
 (shipped o8) (waiting o11):G
 (shipped o9) (waiting o14):G
 (shipped o9) (waiting o15):G
 (shipped o9) (waiting o16):G
 (shipped o9) (waiting o17):G
 (shipped o9) (waiting o2):G
 (shipped o9) (waiting o20):G
 (shipped o9) (waiting o24):G
 (shipped o9) (waiting o25):G
 (shipped o9) (waiting o26):G
 (shipped o9) (waiting o28):G
 (shipped o9) (waiting o29):G
 (shipped o9) (waiting o3):G
 (shipped o9) (waiting o34):G
 (shipped o9) (waiting o35):G
 (shipped o9) (waiting o36):G
 (shipped o9) (waiting o37):G
 (shipped o9) (waiting o4):G
 (shipped o9) (waiting o40):G
 (shipped o9) (waiting o46):G
 (shipped o9) (waiting o47):G
 (shipped o9) (waiting o48):G
 (shipped o9) (waiting o50):G
 (shipped o9) (waiting o1):G
 (shipped o9) (waiting o10):G
 (shipped o1) (started o1) (waiting o1):=1:G
 (shipped o10) (started o10) (waiting o10):=1:G
 (shipped o11) (started o11) (waiting o11):=1:G
 (shipped o12) (started o12) (waiting o12):=1:G
 (shipped o13) (started o13) (waiting o13):=1:G
 (shipped o14) (started o14) (waiting o14):=1:G
 (shipped o15) (started o15) (waiting o15):=1:G
 (shipped o16) (started o16) (waiting o16):=1:G
 (shipped o17) (started o17) (waiting o17):=1:G
 (shipped o18) (started o18) (waiting o18):=1:G
 (shipped o19) (started o19) (waiting o19):=1:G
 (shipped o2) (started o2) (waiting o2):=1:G
 (shipped o20) (started o20) (waiting o20):=1:G
 (shipped o21) (started o21) (waiting o21):=1:G
 (shipped o22) (started o22) (waiting o22):=1:G
 (shipped o23) (started o23) (waiting o23):=1:G
 (shipped o24) (started o24) (waiting o24):=1:G
 (shipped o25) (started o25) (waiting o25):=1:G
 (shipped o26) (started o26) (waiting o26):=1:G
 (shipped o27) (started o27) (waiting o27):=1:G
 (shipped o28) (started o28) (waiting o28):=1:G
 (shipped o29) (started o29) (waiting o29):=1:G
 (shipped o3) (started o3) (waiting o3):=1:G
 (shipped o30) (started o30) (waiting o30):=1:G
 (shipped o31) (started o31) (waiting o31):=1:G
 (shipped o32) (started o32) (waiting o32):=1:G
 (shipped o33) (started o33) (waiting o33):=1:G
 (shipped o34) (started o34) (waiting o34):=1:G
 (shipped o35) (started o35) (waiting o35):=1:G
 (shipped o36) (started o36) (waiting o36):=1:G
 (shipped o37) (started o37) (waiting o37):=1:G
 (shipped o38) (started o38) (waiting o38):=1:G
 (shipped o39) (started o39) (waiting o39):=1:G
 (shipped o4) (started o4) (waiting o4):=1:G
 (shipped o40) (started o40) (waiting o40):=1:G
 (shipped o41) (started o41) (waiting o41):=1:G
 (shipped o42) (started o42) (waiting o42):=1:G
 (shipped o43) (started o43) (waiting o43):=1:G
 (shipped o44) (started o44) (waiting o44):=1:G
 (shipped o45) (started o45) (waiting o45):=1:G
 (shipped o46) (started o46) (waiting o46):=1:G
 (shipped o47) (started o47) (waiting o47):=1:G
 (shipped o48) (started o48) (waiting o48):=1:G
 (shipped o49) (started o49) (waiting o49):=1:G
 (shipped o5) (started o5) (waiting o5):=1:G
 (shipped o50) (started o50) (waiting o50):=1:G
 (shipped o6) (started o6) (waiting o6):=1:G
 (shipped o7) (started o7) (waiting o7):=1:G
 (shipped o8) (started o8) (waiting o8):=1:G
 (shipped o9) (started o9) (waiting o9):=1:G
 (stacks-avail n0) (stacks-avail n1) (stacks-avail n10) (stacks-avail n11) (stacks-avail n12) (stacks-avail n13) (stacks-avail n14) (stacks-avail n15) (stacks-avail n16) (stacks-avail n17) (stacks-avail n18) (stacks-avail n19) (stacks-avail n2) (stacks-avail n20) (stacks-avail n21) (stacks-avail n22) (stacks-avail n23) (stacks-avail n24) (stacks-avail n25) (stacks-avail n26) (stacks-avail n27) (stacks-avail n28) (stacks-avail n29) (stacks-avail n3) (stacks-avail n30) (stacks-avail n31) (stacks-avail n32) (stacks-avail n33) (stacks-avail n34) (stacks-avail n35) (stacks-avail n36) (stacks-avail n37) (stacks-avail n38) (stacks-avail n39) (stacks-avail n4) (stacks-avail n40) (stacks-avail n41) (stacks-avail n42) (stacks-avail n43) (stacks-avail n44) (stacks-avail n45) (stacks-avail n46) (stacks-avail n47) (stacks-avail n48) (stacks-avail n49) (stacks-avail n5) (stacks-avail n50) (stacks-avail n6) (stacks-avail n7) (stacks-avail n8) (stacks-avail n9):=1

