Reduced 48 -> 38
Domain: etipp
Problem: printjob
Require: 200ff
Type[8]:
    [0]: object, parent: -1
    [1]: size_t, parent: 0
    [2]: location_t, parent: 0
    [3]: side_t, parent: 0
    [4]: color_t, parent: 0
    [5]: image_t, parent: 0
    [6]: resource_t, parent: 0
    [7]: sheet_t, parent: 0
Obj-by-Type:
    [0]: 0 1 2 3 4 5 6 7 8 9 10 11 12 13 14 15 16 17 18 19 20 21 22 23 24 25 26 27 28 29 30 31 32 33 34 35 36 37
    [1]: 0
    [2]: 5 6 7 8 9 10 11 12 13 14 15
    [3]: 3 4
    [4]: 1 2
    [5]: 28 29 30 31 32 33 34 35 36 37
    [6]: 16 17 18 19 20 21
    [7]: 22 23 24 25 26 27
Obj[38]:
    [0]: letter, type: 1, is-constant: 1, is-private: 0, owner: -1, is-agent: 0
    [1]: black, type: 4, is-constant: 1, is-private: 0, owner: -1, is-agent: 0
    [2]: color, type: 4, is-constant: 1, is-private: 0, owner: -1, is-agent: 0
    [3]: front, type: 3, is-constant: 1, is-private: 0, owner: -1, is-agent: 0
    [4]: back, type: 3, is-constant: 1, is-private: 0, owner: -1, is-agent: 0
    [5]: some_feeder_tray, type: 2, is-constant: 1, is-private: 0, owner: -1, is-agent: 0
    [6]: some_finisher_tray, type: 2, is-constant: 1, is-private: 0, owner: -1, is-agent: 0
    [7]: some_purge_tray, type: 2, is-constant: 1, is-private: 0, owner: -1, is-agent: 0
    [8]: fe1_exit-hw1_leftentry, type: 2, is-constant: 1, is-private: 0, owner: -1, is-agent: 0
    [9]: hw1_rightexit-sys_entry, type: 2, is-constant: 1, is-private: 0, owner: -1, is-agent: 0
    [10]: uc1_entry-hw1_topleftexit, type: 2, is-constant: 1, is-private: 0, owner: -1, is-agent: 0
    [11]: lc1_entry-hw1_bottomleftexit, type: 2, is-constant: 1, is-private: 0, owner: -1, is-agent: 0
    [12]: hw1_toprightentry-uc1_exit, type: 2, is-constant: 1, is-private: 0, owner: -1, is-agent: 0
    [13]: lc1_exit-hw1_bottomrightentry, type: 2, is-constant: 1, is-private: 0, owner: -1, is-agent: 0
    [14]: uime_exit-uc1_entryfromime, type: 2, is-constant: 1, is-private: 0, owner: -1, is-agent: 0
    [15]: lime_entry-lc1_exittoime, type: 2, is-constant: 1, is-private: 0, owner: -1, is-agent: 0
    [16]: fe1-rsrc, type: 6, is-constant: 1, is-private: 0, owner: -1, is-agent: 0
    [17]: hw1-rsrc, type: 6, is-constant: 1, is-private: 0, owner: -1, is-agent: 0
    [18]: uc1-rsrc, type: 6, is-constant: 1, is-private: 0, owner: -1, is-agent: 0
    [19]: uime-rsrc, type: 6, is-constant: 1, is-private: 0, owner: -1, is-agent: 0
    [20]: lc1-rsrc, type: 6, is-constant: 1, is-private: 0, owner: -1, is-agent: 0
    [21]: sys-rsrc, type: 6, is-constant: 1, is-private: 0, owner: -1, is-agent: 0
    [22]: dummy-sheet, type: 7, is-constant: 0, is-private: 0, owner: -1, is-agent: 0
    [23]: sheet1, type: 7, is-constant: 0, is-private: 0, owner: -1, is-agent: 0
    [24]: sheet3, type: 7, is-constant: 0, is-private: 0, owner: -1, is-agent: 0
    [25]: sheet4, type: 7, is-constant: 0, is-private: 0, owner: -1, is-agent: 0
    [26]: sheet5, type: 7, is-constant: 0, is-private: 0, owner: -1, is-agent: 0
    [27]: sheet10, type: 7, is-constant: 0, is-private: 0, owner: -1, is-agent: 0
    [28]: image-1, type: 5, is-constant: 0, is-private: 0, owner: -1, is-agent: 0
    [29]: image-2, type: 5, is-constant: 0, is-private: 0, owner: -1, is-agent: 0
    [30]: image-3, type: 5, is-constant: 0, is-private: 0, owner: -1, is-agent: 0
    [31]: image-4, type: 5, is-constant: 0, is-private: 0, owner: -1, is-agent: 0
    [32]: image-5, type: 5, is-constant: 0, is-private: 0, owner: -1, is-agent: 0
    [33]: image-6, type: 5, is-constant: 0, is-private: 0, owner: -1, is-agent: 0
    [34]: image-8, type: 5, is-constant: 0, is-private: 0, owner: -1, is-agent: 0
    [35]: image-8b, type: 5, is-constant: 0, is-private: 0, owner: -1, is-agent: 0
    [36]: image-9, type: 5, is-constant: 0, is-private: 0, owner: -1, is-agent: 0
    [37]: image-10, type: 5, is-constant: 0, is-private: 0, owner: -1, is-agent: 0
Predicate[12]:
    =: 0 0 :: is-private: 0, owner-param: -1, read: 0, write: 0
    sheetsize: 7 1 :: is-private: 0, owner-param: -1, read: 1, write: 0
    location: 7 2 :: is-private: 0, owner-param: -1, read: 1, write: 1
    hasimage: 7 3 5 :: is-private: 0, owner-param: -1, read: 0, write: 1
    sideup: 7 3 :: is-private: 0, owner-param: -1, read: 1, write: 1
    stackedin: 7 2 :: is-private: 0, owner-param: -1, read: 0, write: 1
    imagecolor: 5 4 :: is-private: 0, owner-param: -1, read: 1, write: 0
    notprintedwith: 7 3 4 :: is-private: 0, owner-param: -1, read: 1, write: 1
    oppositeside: 3 3 :: is-private: 0, owner-param: -1, read: 1, write: 0
    available: 6 :: is-private: 0, owner-param: -1, read: 1, write: 1
    prevsheet: 7 7 :: is-private: 0, owner-param: -1, read: 1, write: 0
    uninitialized: :: is-private: 0, owner-param: -1, read: 1, write: 1
Function[1]:
    total-cost: :: is-private: 0, owner-param: -1, read: 0, write: 0
Action[23]:
    initialize: 
        pre: (and (RW:uninitialized))
        eff: (and (N:RW:uninitialized) (RW:available fe1-rsrc) (RW:available hw1-rsrc) (RW:available uc1-rsrc) (RW:available uime-rsrc) (RW:available lc1-rsrc) (RW:available fe1-rsrc) (RW:available sys-rsrc))
    fe1-feedmsi-letter: ?sheet:7
        pre: (and (RW:available fe1-rsrc) (R:sheetsize ?sheet letter) (RW:location ?sheet some_feeder_tray))
        eff: (and (RW:location ?sheet fe1_exit-hw1_leftentry) (RW:sideup ?sheet back) (RW:available fe1-rsrc) (increase (total-cost) 125))
    fe1-feed-letter: ?sheet:7
        pre: (and (RW:available fe1-rsrc) (R:sheetsize ?sheet letter) (RW:location ?sheet some_feeder_tray))
        eff: (and (RW:location ?sheet fe1_exit-hw1_leftentry) (RW:sideup ?sheet back) (RW:available fe1-rsrc) (increase (total-cost) 224))
    hw1-leftentrytotopleftexit-letter: ?sheet:7
        pre: (and (RW:available hw1-rsrc) (R:sheetsize ?sheet letter) (RW:location ?sheet fe1_exit-hw1_leftentry))
        eff: (and (RW:location ?sheet uc1_entry-hw1_topleftexit) (RW:available hw1-rsrc) (increase (total-cost) 1499))
    hw1-leftentrytobottomleftexit-letter: ?sheet:7
        pre: (and (RW:available hw1-rsrc) (R:sheetsize ?sheet letter) (RW:location ?sheet fe1_exit-hw1_leftentry))
        eff: (and (RW:location ?sheet lc1_entry-hw1_bottomleftexit) (RW:available hw1-rsrc) (increase (total-cost) 1499))
    hw1-toprightentrytotopleftexit-letter: ?sheet:7
        pre: (and (RW:available hw1-rsrc) (R:sheetsize ?sheet letter) (RW:location ?sheet hw1_toprightentry-uc1_exit))
        eff: (and (RW:location ?sheet uc1_entry-hw1_topleftexit) (RW:available hw1-rsrc) (increase (total-cost) 8999))
    hw1-toprightentrytobottomleftexit-letter: ?sheet:7
        pre: (and (RW:available hw1-rsrc) (R:sheetsize ?sheet letter) (RW:location ?sheet hw1_toprightentry-uc1_exit))
        eff: (and (RW:location ?sheet lc1_entry-hw1_bottomleftexit) (RW:available hw1-rsrc) (increase (total-cost) 8999))
    hw1-bottomrightentrytotopleftexit-letter: ?sheet:7
        pre: (and (RW:available hw1-rsrc) (R:sheetsize ?sheet letter) (RW:location ?sheet lc1_exit-hw1_bottomrightentry))
        eff: (and (RW:location ?sheet uc1_entry-hw1_topleftexit) (RW:available hw1-rsrc) (increase (total-cost) 8999))
    hw1-bottomrightentrytobottomleftexit-letter: ?sheet:7
        pre: (and (RW:available hw1-rsrc) (R:sheetsize ?sheet letter) (RW:location ?sheet lc1_exit-hw1_bottomrightentry))
        eff: (and (RW:location ?sheet lc1_entry-hw1_bottomleftexit) (RW:available hw1-rsrc) (increase (total-cost) 8999))
    hw1-toprightentrytorightexit-letter: ?sheet:7
        pre: (and (RW:available hw1-rsrc) (R:sheetsize ?sheet letter) (RW:location ?sheet hw1_toprightentry-uc1_exit))
        eff: (and (RW:location ?sheet hw1_rightexit-sys_entry) (RW:available hw1-rsrc) (increase (total-cost) 1499))
    hw1-bottomrightentrytorightexit-letter: ?sheet:7
        pre: (and (RW:available hw1-rsrc) (R:sheetsize ?sheet letter) (RW:location ?sheet lc1_exit-hw1_bottomrightentry))
        eff: (and (RW:location ?sheet hw1_rightexit-sys_entry) (RW:available hw1-rsrc) (increase (total-cost) 1499))
    uc1-toime-letter: ?sheet:7
        pre: (and (RW:available uc1-rsrc) (R:sheetsize ?sheet letter) (RW:location ?sheet uc1_entry-hw1_topleftexit))
        eff: (and (RW:location ?sheet lc1_entry-hw1_bottomleftexit) (RW:available uc1-rsrc) (increase (total-cost) 2999))
    uc1-inverttoime-letter: ?sheet:7 ?face:3 ?otherface:3
        pre: (and (RW:available uc1-rsrc) (R:sheetsize ?sheet letter) (R:oppositeside ?face ?otherface) (RW:location ?sheet uc1_entry-hw1_topleftexit) (RW:sideup ?sheet ?face))
        eff: (and (RW:location ?sheet lc1_entry-hw1_bottomleftexit) (RW:sideup ?sheet ?otherface) (RW:available uc1-rsrc) (increase (total-cost) 8000))
    uc1-fromime-letter: ?sheet:7
        pre: (and (RW:available uc1-rsrc) (R:sheetsize ?sheet letter) (RW:location ?sheet uime_exit-uc1_entryfromime))
        eff: (and (RW:location ?sheet hw1_toprightentry-uc1_exit) (RW:available uc1-rsrc) (increase (total-cost) 2999))
    uc1-invertfromime-letter: ?sheet:7 ?face:3 ?otherface:3
        pre: (and (RW:available uc1-rsrc) (R:sheetsize ?sheet letter) (R:oppositeside ?face ?otherface) (RW:location ?sheet uime_exit-uc1_entryfromime) (RW:sideup ?sheet ?face))
        eff: (and (RW:location ?sheet hw1_toprightentry-uc1_exit) (RW:sideup ?sheet ?otherface) (RW:available uc1-rsrc) (increase (total-cost) 8000))
    uime-simplex-letter: ?sheet:7 ?face:3 ?image:5
        pre: (and (RW:available uime-rsrc) (R:sheetsize ?sheet letter) (RW:sideup ?sheet ?face) (R:imagecolor ?image black) (RW:location ?sheet lc1_entry-hw1_bottomleftexit) (RW:notprintedwith ?sheet ?face black))
        eff: (and (RW:location ?sheet uime_exit-uc1_entryfromime) (W:hasimage ?sheet ?face ?image) (RW:available uime-rsrc) (increase (total-cost) 127790))
    lc1-toime-letter: ?sheet:7
        pre: (and (RW:available lc1-rsrc) (R:sheetsize ?sheet letter) (RW:location ?sheet lc1_entry-hw1_bottomleftexit))
        eff: (and (RW:location ?sheet lime_entry-lc1_exittoime) (RW:available lc1-rsrc) (increase (total-cost) 4999))
    lc1-inverttoime-letter: ?sheet:7 ?face:3 ?otherface:3
        pre: (and (RW:available lc1-rsrc) (R:sheetsize ?sheet letter) (R:oppositeside ?face ?otherface) (RW:location ?sheet lc1_entry-hw1_bottomleftexit) (RW:sideup ?sheet ?face))
        eff: (and (RW:location ?sheet lime_entry-lc1_exittoime) (RW:sideup ?sheet ?otherface) (RW:available lc1-rsrc) (increase (total-cost) 9999))
    lc1-fromime-letter: ?sheet:7
        pre: (and (RW:available lc1-rsrc) (R:sheetsize ?sheet letter) (RW:location ?sheet some_finisher_tray))
        eff: (and (RW:location ?sheet lc1_exit-hw1_bottomrightentry) (RW:available lc1-rsrc) (increase (total-cost) 4999))
    lc1-invertfromime-letter: ?sheet:7 ?face:3 ?otherface:3
        pre: (and (RW:available lc1-rsrc) (R:sheetsize ?sheet letter) (R:oppositeside ?face ?otherface) (RW:location ?sheet some_finisher_tray) (RW:sideup ?sheet ?face))
        eff: (and (RW:location ?sheet lc1_exit-hw1_bottomrightentry) (RW:sideup ?sheet ?otherface) (RW:available lc1-rsrc) (increase (total-cost) 9999))
    lime-simplex-letter: ?sheet:7 ?face:3 ?image:5
        pre: (and (RW:available fe1-rsrc) (R:sheetsize ?sheet letter) (RW:sideup ?sheet ?face) (R:imagecolor ?image color) (RW:location ?sheet lime_entry-lc1_exittoime) (RW:notprintedwith ?sheet ?face color))
        eff: (and (RW:location ?sheet some_finisher_tray) (W:hasimage ?sheet ?face ?image) (RW:available fe1-rsrc) (increase (total-cost) 212790))
    lime-simplexmono-letter: ?sheet:7 ?face:3 ?image:5
        pre: (and (RW:available fe1-rsrc) (R:sheetsize ?sheet letter) (RW:sideup ?sheet ?face) (R:imagecolor ?image black) (RW:location ?sheet lime_entry-lc1_exittoime) (RW:notprintedwith ?sheet ?face black))
        eff: (and (RW:location ?sheet some_finisher_tray) (W:hasimage ?sheet ?face ?image) (RW:available fe1-rsrc) (increase (total-cost) 212790))
    sys-stack-letter: ?sheet:7 ?prevsheet:7
        pre: (and (RW:available sys-rsrc) (R:prevsheet ?sheet ?prevsheet) (RW:location ?prevsheet some_finisher_tray) (R:sheetsize ?sheet letter) (RW:location ?sheet hw1_rightexit-sys_entry))
        eff: (and (RW:location ?sheet some_finisher_tray) (W:stackedin ?sheet some_purge_tray) (RW:available sys-rsrc) (increase (total-cost) 1499))
Init[85]:
  (uninitialized)
  S:(oppositeside front back)
  S:(oppositeside back front)
  (location dummy-sheet some_finisher_tray)
  S:(prevsheet sheet1 dummy-sheet)
  S:(prevsheet dummy-sheet sheet1)
  S:(prevsheet sheet3 dummy-sheet)
  S:(prevsheet sheet4 sheet3)
  S:(prevsheet sheet5 sheet4)
  S:(prevsheet sheet1 sheet5)
  S:(prevsheet sheet1 sheet1)
  S:(prevsheet sheet1 sheet1)
  S:(prevsheet dummy-sheet sheet1)
  S:(prevsheet sheet10 dummy-sheet)
  S:(sheetsize sheet1 letter)
  S:(sheetsize dummy-sheet letter)
  S:(sheetsize sheet3 letter)
  S:(sheetsize sheet4 letter)
  S:(sheetsize sheet5 letter)
  S:(sheetsize sheet1 letter)
  S:(sheetsize sheet1 letter)
  S:(sheetsize sheet1 letter)
  S:(sheetsize dummy-sheet letter)
  S:(sheetsize sheet10 letter)
  (location sheet1 some_feeder_tray)
  (location dummy-sheet some_feeder_tray)
  (location sheet3 some_feeder_tray)
  (location sheet4 some_feeder_tray)
  (location sheet5 some_feeder_tray)
  (location sheet1 some_feeder_tray)
  (location sheet1 some_feeder_tray)
  (location sheet1 some_feeder_tray)
  (location dummy-sheet some_feeder_tray)
  (location sheet10 some_feeder_tray)
  S:(imagecolor image-1 color)
  S:(imagecolor image-2 color)
  S:(imagecolor image-3 black)
  S:(imagecolor image-4 black)
  S:(imagecolor image-5 black)
  S:(imagecolor image-6 color)
  S:(imagecolor image-3 black)
  S:(imagecolor image-8 color)
  S:(imagecolor image-8b color)
  S:(imagecolor image-9 black)
  S:(imagecolor image-10 black)
  (notprintedwith sheet1 front black)
  (notprintedwith sheet1 back black)
  (notprintedwith sheet1 front color)
  (notprintedwith sheet1 back color)
  (notprintedwith dummy-sheet front black)
  (notprintedwith dummy-sheet back black)
  (notprintedwith dummy-sheet front color)
  (notprintedwith dummy-sheet back color)
  (notprintedwith sheet3 front black)
  (notprintedwith sheet3 back black)
  (notprintedwith sheet3 front color)
  (notprintedwith sheet3 back color)
  (notprintedwith sheet4 front black)
  (notprintedwith sheet4 back black)
  (notprintedwith sheet4 front color)
  (notprintedwith sheet4 back color)
  (notprintedwith sheet5 front black)
  (notprintedwith sheet5 back black)
  (notprintedwith sheet5 front color)
  (notprintedwith sheet5 back color)
  (notprintedwith sheet1 front black)
  (notprintedwith sheet1 back black)
  (notprintedwith sheet1 front color)
  (notprintedwith sheet1 back color)
  (notprintedwith sheet1 front black)
  (notprintedwith sheet1 back black)
  (notprintedwith sheet1 front color)
  (notprintedwith sheet1 back color)
  (notprintedwith sheet1 front black)
  (notprintedwith sheet1 back black)
  (notprintedwith sheet1 front color)
  (notprintedwith sheet1 back color)
  (notprintedwith dummy-sheet front black)
  (notprintedwith dummy-sheet back black)
  (notprintedwith dummy-sheet front color)
  (notprintedwith dummy-sheet back color)
  (notprintedwith sheet10 front black)
  (notprintedwith sheet10 back black)
  (notprintedwith sheet10 front color)
  (notprintedwith sheet10 back color)
Init[1]:
  (= (total-cost) 0)
Goal: (and (W:hasimage sheet1 front image-1) (RW:notprintedwith sheet1 front black) (RW:notprintedwith sheet1 back black) (RW:notprintedwith sheet1 back color) (W:hasimage dummy-sheet front image-2) (RW:notprintedwith dummy-sheet front black) (RW:notprintedwith dummy-sheet back black) (RW:notprintedwith dummy-sheet back color) (W:hasimage sheet3 front image-3) (RW:notprintedwith sheet3 front color) (RW:notprintedwith sheet3 back black) (RW:notprintedwith sheet3 back color) (W:hasimage sheet4 front image-4) (RW:notprintedwith sheet4 front color) (RW:notprintedwith sheet4 back black) (RW:notprintedwith sheet4 back color) (W:hasimage sheet5 front image-5) (RW:notprintedwith sheet5 front color) (RW:notprintedwith sheet5 back black) (RW:notprintedwith sheet5 back color) (W:hasimage sheet1 front image-6) (RW:notprintedwith sheet1 front black) (RW:notprintedwith sheet1 back black) (RW:notprintedwith sheet1 back color) (W:hasimage sheet1 front image-3) (RW:notprintedwith sheet1 front color) (RW:notprintedwith sheet1 back black) (RW:notprintedwith sheet1 back color) (W:hasimage sheet1 front image-8) (W:hasimage sheet1 back image-8b) (RW:notprintedwith sheet1 front black) (RW:notprintedwith sheet1 back black) (W:hasimage dummy-sheet front image-9) (RW:notprintedwith dummy-sheet front color) (RW:notprintedwith dummy-sheet back black) (RW:notprintedwith dummy-sheet back color) (W:hasimage sheet10 front image-10) (RW:notprintedwith sheet10 front color) (RW:notprintedwith sheet10 back black) (RW:notprintedwith sheet10 back color) (RW:sideup sheet1 front) (RW:sideup dummy-sheet front) (RW:sideup sheet3 front) (RW:sideup sheet4 front) (RW:sideup sheet5 front) (RW:sideup sheet1 front) (RW:sideup sheet1 front) (RW:sideup sheet1 front) (RW:sideup dummy-sheet front) (RW:sideup sheet10 front) (W:stackedin sheet1 some_purge_tray) (W:stackedin dummy-sheet some_purge_tray) (W:stackedin sheet3 some_purge_tray) (W:stackedin sheet4 some_purge_tray) (W:stackedin sheet5 some_purge_tray) (W:stackedin sheet1 some_purge_tray) (W:stackedin sheet1 some_purge_tray) (W:stackedin sheet1 some_purge_tray) (W:stackedin dummy-sheet some_purge_tray) (W:stackedin sheet10 some_purge_tray))
Metric: 1
