Collapsing type 1:order with 20 objects
Reduced 61 -> 42
Domain: openstacks-sequencedstrips-adl
Problem: os-sequencedstrips-p20_1
Require: 200ff
Type[4]:
    [0]: object, parent: -1
    [1]: order, parent: 0
    [2]: product, parent: 0
    [3]: count, parent: 0
Obj-by-Type:
    [0]: 0 1 2 3 4 5 6 7 8 9 10 11 12 13 14 15 16 17 18 19 20 21 22 23 24 25 26 27 28 29 30 31 32 33 34 35 36 37 38 39 40 41
    [1]: 21
    [2]: 22 23 24 25 26 27 28 29 30 31 32 33 34 35 36 37 38 39 40 41
    [3]: 0 1 2 3 4 5 6 7 8 9 10 11 12 13 14 15 16 17 18 19 20
Obj[42]:
    [0]: n0, type: 3, is-constant: 0, is-private: 0, owner: -1, is-agent: 0
    [1]: n1, type: 3, is-constant: 0, is-private: 0, owner: -1, is-agent: 0
    [2]: n2, type: 3, is-constant: 0, is-private: 0, owner: -1, is-agent: 0
    [3]: n3, type: 3, is-constant: 0, is-private: 0, owner: -1, is-agent: 0
    [4]: n4, type: 3, is-constant: 0, is-private: 0, owner: -1, is-agent: 0
    [5]: n5, type: 3, is-constant: 0, is-private: 0, owner: -1, is-agent: 0
    [6]: n6, type: 3, is-constant: 0, is-private: 0, owner: -1, is-agent: 0
    [7]: n7, type: 3, is-constant: 0, is-private: 0, owner: -1, is-agent: 0
    [8]: n8, type: 3, is-constant: 0, is-private: 0, owner: -1, is-agent: 0
    [9]: n9, type: 3, is-constant: 0, is-private: 0, owner: -1, is-agent: 0
    [10]: n10, type: 3, is-constant: 0, is-private: 0, owner: -1, is-agent: 0
    [11]: n11, type: 3, is-constant: 0, is-private: 0, owner: -1, is-agent: 0
    [12]: n12, type: 3, is-constant: 0, is-private: 0, owner: -1, is-agent: 0
    [13]: n13, type: 3, is-constant: 0, is-private: 0, owner: -1, is-agent: 0
    [14]: n14, type: 3, is-constant: 0, is-private: 0, owner: -1, is-agent: 0
    [15]: n15, type: 3, is-constant: 0, is-private: 0, owner: -1, is-agent: 0
    [16]: n16, type: 3, is-constant: 0, is-private: 0, owner: -1, is-agent: 0
    [17]: n17, type: 3, is-constant: 0, is-private: 0, owner: -1, is-agent: 0
    [18]: n18, type: 3, is-constant: 0, is-private: 0, owner: -1, is-agent: 0
    [19]: n19, type: 3, is-constant: 0, is-private: 0, owner: -1, is-agent: 0
    [20]: n20, type: 3, is-constant: 0, is-private: 0, owner: -1, is-agent: 0
    [21]: o1, type: 1, is-constant: 0, is-private: 0, owner: -1, is-agent: 0
    [22]: p1, type: 2, is-constant: 0, is-private: 0, owner: -1, is-agent: 0
    [23]: p2, type: 2, is-constant: 0, is-private: 0, owner: -1, is-agent: 0
    [24]: p3, type: 2, is-constant: 0, is-private: 0, owner: -1, is-agent: 0
    [25]: p4, type: 2, is-constant: 0, is-private: 0, owner: -1, is-agent: 0
    [26]: p5, type: 2, is-constant: 0, is-private: 0, owner: -1, is-agent: 0
    [27]: p6, type: 2, is-constant: 0, is-private: 0, owner: -1, is-agent: 0
    [28]: p7, type: 2, is-constant: 0, is-private: 0, owner: -1, is-agent: 0
    [29]: p8, type: 2, is-constant: 0, is-private: 0, owner: -1, is-agent: 0
    [30]: p9, type: 2, is-constant: 0, is-private: 0, owner: -1, is-agent: 0
    [31]: p10, type: 2, is-constant: 0, is-private: 0, owner: -1, is-agent: 0
    [32]: p11, type: 2, is-constant: 0, is-private: 0, owner: -1, is-agent: 0
    [33]: p12, type: 2, is-constant: 0, is-private: 0, owner: -1, is-agent: 0
    [34]: p13, type: 2, is-constant: 0, is-private: 0, owner: -1, is-agent: 0
    [35]: p14, type: 2, is-constant: 0, is-private: 0, owner: -1, is-agent: 0
    [36]: p15, type: 2, is-constant: 0, is-private: 0, owner: -1, is-agent: 0
    [37]: p16, type: 2, is-constant: 0, is-private: 0, owner: -1, is-agent: 0
    [38]: p17, type: 2, is-constant: 0, is-private: 0, owner: -1, is-agent: 0
    [39]: p18, type: 2, is-constant: 0, is-private: 0, owner: -1, is-agent: 0
    [40]: p19, type: 2, is-constant: 0, is-private: 0, owner: -1, is-agent: 0
    [41]: p20, type: 2, is-constant: 0, is-private: 0, owner: -1, is-agent: 0
Predicate[9]:
    =: 0 0 :: is-private: 0, owner-param: -1, read: 1, write: 0
    includes: 1 2 :: is-private: 0, owner-param: -1, read: 0, write: 0
    waiting: 1 :: is-private: 0, owner-param: -1, read: 1, write: 1
    started: 1 :: is-private: 0, owner-param: -1, read: 1, write: 1
    shipped: 1 :: is-private: 0, owner-param: -1, read: 0, write: 1
    made: 2 :: is-private: 0, owner-param: -1, read: 1, write: 1, neg-of: 8
    stacks-avail: 3 :: is-private: 0, owner-param: -1, read: 1, write: 1
    next-count: 3 3 :: is-private: 0, owner-param: -1, read: 1, write: 0
    NOT-made: 2 :: is-private: 0, owner-param: -1, read: 1, write: 1, neg-of: 5
Function[1]:
    total-cost: :: is-private: 0, owner-param: -1, read: 0, write: 0
Action[42]:
    make-product: ?p:2
        pre: (and (R:= ?p p1) (RW:NOT-made p1) (RW:started o1))
        eff: (and (RW:made p1) (N:RW:NOT-made p1))
    start-order: ?o:1 ?avail:3 ?new-avail:3
        pre: (and (RW:waiting ?o) (RW:stacks-avail ?avail) (R:next-count ?new-avail ?avail))
        eff: (and (RW:started ?o) (N:RW:stacks-avail ?avail) (RW:stacks-avail ?new-avail))
    ship-order: ?o:1 ?avail:3 ?new-avail:3
        pre: (and (R:= ?o o1) (RW:started o1) (RW:made p2) (RW:stacks-avail ?avail) (R:next-count ?avail ?new-avail))
        eff: (and (N:RW:started o1) (W:shipped o1) (N:RW:stacks-avail ?avail) (RW:stacks-avail ?new-avail))
    open-new-stack: ?open:3 ?new-open:3
        pre: (and (RW:stacks-avail ?open) (R:next-count ?open ?new-open))
        eff: (and (N:RW:stacks-avail ?open) (RW:stacks-avail ?new-open) (increase (total-cost) 1))
    make-product: ?p:2
        pre: (and (R:= ?p p2) (RW:NOT-made p2) (RW:started o1))
        eff: (and (RW:made p2) (N:RW:NOT-made p2))
    make-product: ?p:2
        pre: (and (R:= ?p p3) (RW:NOT-made p3) (RW:started o1) (RW:started o1))
        eff: (and (RW:made p3) (N:RW:NOT-made p3))
    make-product: ?p:2
        pre: (and (R:= ?p p4) (RW:NOT-made p4) (RW:started o1) (RW:started o1) (RW:started o1) (RW:started o1))
        eff: (and (RW:made p4) (N:RW:NOT-made p4))
    make-product: ?p:2
        pre: (and (R:= ?p p5) (RW:NOT-made p5) (RW:started o1) (RW:started o1))
        eff: (and (RW:made p5) (N:RW:NOT-made p5))
    make-product: ?p:2
        pre: (and (R:= ?p p6) (RW:NOT-made p6) (RW:started o1) (RW:started o1))
        eff: (and (RW:made p6) (N:RW:NOT-made p6))
    make-product: ?p:2
        pre: (and (R:= ?p p7) (RW:NOT-made p7) (RW:started o1))
        eff: (and (RW:made p7) (N:RW:NOT-made p7))
    make-product: ?p:2
        pre: (and (R:= ?p p8) (RW:NOT-made p8) (RW:started o1))
        eff: (and (RW:made p8) (N:RW:NOT-made p8))
    make-product: ?p:2
        pre: (and (R:= ?p p9) (RW:NOT-made p9) (RW:started o1))
        eff: (and (RW:made p9) (N:RW:NOT-made p9))
    make-product: ?p:2
        pre: (and (R:= ?p p10) (RW:NOT-made p10) (RW:started o1) (RW:started o1))
        eff: (and (RW:made p10) (N:RW:NOT-made p10))
    make-product: ?p:2
        pre: (and (R:= ?p p11) (RW:NOT-made p11) (RW:started o1))
        eff: (and (RW:made p11) (N:RW:NOT-made p11))
    make-product: ?p:2
        pre: (and (R:= ?p p12) (RW:NOT-made p12) (RW:started o1) (RW:started o1) (RW:started o1) (RW:started o1))
        eff: (and (RW:made p12) (N:RW:NOT-made p12))
    make-product: ?p:2
        pre: (and (R:= ?p p13) (RW:NOT-made p13) (RW:started o1))
        eff: (and (RW:made p13) (N:RW:NOT-made p13))
    make-product: ?p:2
        pre: (and (R:= ?p p14) (RW:NOT-made p14) (RW:started o1))
        eff: (and (RW:made p14) (N:RW:NOT-made p14))
    make-product: ?p:2
        pre: (and (R:= ?p p15) (RW:NOT-made p15) (RW:started o1) (RW:started o1))
        eff: (and (RW:made p15) (N:RW:NOT-made p15))
    make-product: ?p:2
        pre: (and (R:= ?p p16) (RW:NOT-made p16) (RW:started o1) (RW:started o1) (RW:started o1))
        eff: (and (RW:made p16) (N:RW:NOT-made p16))
    make-product: ?p:2
        pre: (and (R:= ?p p17) (RW:NOT-made p17) (RW:started o1))
        eff: (and (RW:made p17) (N:RW:NOT-made p17))
    make-product: ?p:2
        pre: (and (R:= ?p p18) (RW:NOT-made p18) (RW:started o1) (RW:started o1))
        eff: (and (RW:made p18) (N:RW:NOT-made p18))
    make-product: ?p:2
        pre: (and (R:= ?p p19) (RW:NOT-made p19) (RW:started o1))
        eff: (and (RW:made p19) (N:RW:NOT-made p19))
    make-product: ?p:2
        pre: (and (R:= ?p p20) (RW:NOT-made p20) (RW:started o1))
        eff: (and (RW:made p20) (N:RW:NOT-made p20))
    ship-order: ?o:1 ?avail:3 ?new-avail:3
        pre: (and (R:= ?o o1) (RW:started o1) (RW:stacks-avail ?avail) (R:next-count ?avail ?new-avail) (RW:made p3) (RW:made p4) (RW:made p5) (RW:made p7))
        eff: (and (N:RW:started o1) (W:shipped o1) (N:RW:stacks-avail ?avail) (RW:stacks-avail ?new-avail))
    ship-order: ?o:1 ?avail:3 ?new-avail:3
        pre: (and (R:= ?o o1) (RW:started o1) (RW:stacks-avail ?avail) (R:next-count ?avail ?new-avail) (RW:made p5) (RW:made p6) (RW:made p8))
        eff: (and (N:RW:started o1) (W:shipped o1) (N:RW:stacks-avail ?avail) (RW:stacks-avail ?new-avail))
    ship-order: ?o:1 ?avail:3 ?new-avail:3
        pre: (and (R:= ?o o1) (RW:started o1) (RW:made p16) (RW:stacks-avail ?avail) (R:next-count ?avail ?new-avail))
        eff: (and (N:RW:started o1) (W:shipped o1) (N:RW:stacks-avail ?avail) (RW:stacks-avail ?new-avail))
    ship-order: ?o:1 ?avail:3 ?new-avail:3
        pre: (and (R:= ?o o1) (RW:started o1) (RW:made p10) (RW:stacks-avail ?avail) (R:next-count ?avail ?new-avail))
        eff: (and (N:RW:started o1) (W:shipped o1) (N:RW:stacks-avail ?avail) (RW:stacks-avail ?new-avail))
    ship-order: ?o:1 ?avail:3 ?new-avail:3
        pre: (and (R:= ?o o1) (RW:started o1) (RW:made p16) (RW:stacks-avail ?avail) (R:next-count ?avail ?new-avail))
        eff: (and (N:RW:started o1) (W:shipped o1) (N:RW:stacks-avail ?avail) (RW:stacks-avail ?new-avail))
    ship-order: ?o:1 ?avail:3 ?new-avail:3
        pre: (and (R:= ?o o1) (RW:started o1) (RW:made p12) (RW:stacks-avail ?avail) (R:next-count ?avail ?new-avail))
        eff: (and (N:RW:started o1) (W:shipped o1) (N:RW:stacks-avail ?avail) (RW:stacks-avail ?new-avail))
    ship-order: ?o:1 ?avail:3 ?new-avail:3
        pre: (and (R:= ?o o1) (RW:started o1) (RW:stacks-avail ?avail) (R:next-count ?avail ?new-avail) (RW:made p4) (RW:made p12) (RW:made p13) (RW:made p17))
        eff: (and (N:RW:started o1) (W:shipped o1) (N:RW:stacks-avail ?avail) (RW:stacks-avail ?new-avail))
    ship-order: ?o:1 ?avail:3 ?new-avail:3
        pre: (and (R:= ?o o1) (RW:started o1) (RW:made p4) (RW:stacks-avail ?avail) (R:next-count ?avail ?new-avail))
        eff: (and (N:RW:started o1) (W:shipped o1) (N:RW:stacks-avail ?avail) (RW:stacks-avail ?new-avail))
    ship-order: ?o:1 ?avail:3 ?new-avail:3
        pre: (and (R:= ?o o1) (RW:started o1) (RW:stacks-avail ?avail) (R:next-count ?avail ?new-avail) (RW:made p4) (RW:made p10))
        eff: (and (N:RW:started o1) (W:shipped o1) (N:RW:stacks-avail ?avail) (RW:stacks-avail ?new-avail))
    ship-order: ?o:1 ?avail:3 ?new-avail:3
        pre: (and (R:= ?o o1) (RW:started o1) (RW:made p12) (RW:stacks-avail ?avail) (R:next-count ?avail ?new-avail))
        eff: (and (N:RW:started o1) (W:shipped o1) (N:RW:stacks-avail ?avail) (RW:stacks-avail ?new-avail))
    ship-order: ?o:1 ?avail:3 ?new-avail:3
        pre: (and (R:= ?o o1) (RW:started o1) (RW:made p3) (RW:stacks-avail ?avail) (R:next-count ?avail ?new-avail))
        eff: (and (N:RW:started o1) (W:shipped o1) (N:RW:stacks-avail ?avail) (RW:stacks-avail ?new-avail))
    ship-order: ?o:1 ?avail:3 ?new-avail:3
        pre: (and (R:= ?o o1) (RW:started o1) (RW:made p6) (RW:stacks-avail ?avail) (R:next-count ?avail ?new-avail))
        eff: (and (N:RW:started o1) (W:shipped o1) (N:RW:stacks-avail ?avail) (RW:stacks-avail ?new-avail))
    ship-order: ?o:1 ?avail:3 ?new-avail:3
        pre: (and (R:= ?o o1) (RW:started o1) (RW:made p18) (RW:stacks-avail ?avail) (R:next-count ?avail ?new-avail))
        eff: (and (N:RW:started o1) (W:shipped o1) (N:RW:stacks-avail ?avail) (RW:stacks-avail ?new-avail))
    ship-order: ?o:1 ?avail:3 ?new-avail:3
        pre: (and (R:= ?o o1) (RW:started o1) (RW:stacks-avail ?avail) (R:next-count ?avail ?new-avail) (RW:made p12) (RW:made p14) (RW:made p16) (RW:made p18))
        eff: (and (N:RW:started o1) (W:shipped o1) (N:RW:stacks-avail ?avail) (RW:stacks-avail ?new-avail))
    ship-order: ?o:1 ?avail:3 ?new-avail:3
        pre: (and (R:= ?o o1) (RW:started o1) (RW:stacks-avail ?avail) (R:next-count ?avail ?new-avail) (RW:made p11) (RW:made p20))
        eff: (and (N:RW:started o1) (W:shipped o1) (N:RW:stacks-avail ?avail) (RW:stacks-avail ?new-avail))
    ship-order: ?o:1 ?avail:3 ?new-avail:3
        pre: (and (R:= ?o o1) (RW:started o1) (RW:made p1) (RW:stacks-avail ?avail) (R:next-count ?avail ?new-avail))
        eff: (and (N:RW:started o1) (W:shipped o1) (N:RW:stacks-avail ?avail) (RW:stacks-avail ?new-avail))
    ship-order: ?o:1 ?avail:3 ?new-avail:3
        pre: (and (R:= ?o o1) (RW:started o1) (RW:made p9) (RW:stacks-avail ?avail) (R:next-count ?avail ?new-avail))
        eff: (and (N:RW:started o1) (W:shipped o1) (N:RW:stacks-avail ?avail) (RW:stacks-avail ?new-avail))
    ship-order: ?o:1 ?avail:3 ?new-avail:3
        pre: (and (R:= ?o o1) (RW:started o1) (RW:made p15) (RW:stacks-avail ?avail) (R:next-count ?avail ?new-avail))
        eff: (and (N:RW:started o1) (W:shipped o1) (N:RW:stacks-avail ?avail) (RW:stacks-avail ?new-avail))
    ship-order: ?o:1 ?avail:3 ?new-avail:3
        pre: (and (R:= ?o o1) (RW:started o1) (RW:stacks-avail ?avail) (R:next-count ?avail ?new-avail) (RW:made p15) (RW:made p19))
        eff: (and (N:RW:started o1) (W:shipped o1) (N:RW:stacks-avail ?avail) (RW:stacks-avail ?new-avail))
Init[95]:
  S:(next-count n0 n1)
  S:(next-count n1 n2)
  S:(next-count n2 n3)
  S:(next-count n3 n4)
  S:(next-count n4 n5)
  S:(next-count n5 n6)
  S:(next-count n6 n7)
  S:(next-count n7 n8)
  S:(next-count n8 n9)
  S:(next-count n9 n10)
  S:(next-count n10 n11)
  S:(next-count n11 n12)
  S:(next-count n12 n13)
  S:(next-count n13 n14)
  S:(next-count n14 n15)
  S:(next-count n15 n16)
  S:(next-count n16 n17)
  S:(next-count n17 n18)
  S:(next-count n18 n19)
  S:(next-count n19 n20)
  (stacks-avail n0)
  (waiting o1)
  S:(includes o1 p2)
  (waiting o1)
  S:(includes o1 p3)
  S:(includes o1 p4)
  S:(includes o1 p5)
  S:(includes o1 p7)
  (waiting o1)
  S:(includes o1 p5)
  S:(includes o1 p6)
  S:(includes o1 p8)
  (waiting o1)
  S:(includes o1 p16)
  (waiting o1)
  S:(includes o1 p10)
  (waiting o1)
  S:(includes o1 p16)
  (waiting o1)
  S:(includes o1 p12)
  (waiting o1)
  S:(includes o1 p4)
  S:(includes o1 p12)
  S:(includes o1 p13)
  S:(includes o1 p17)
  (waiting o1)
  S:(includes o1 p4)
  (waiting o1)
  S:(includes o1 p4)
  S:(includes o1 p10)
  (waiting o1)
  S:(includes o1 p12)
  (waiting o1)
  S:(includes o1 p3)
  (waiting o1)
  S:(includes o1 p6)
  (waiting o1)
  S:(includes o1 p18)
  (waiting o1)
  S:(includes o1 p12)
  S:(includes o1 p14)
  S:(includes o1 p16)
  S:(includes o1 p18)
  (waiting o1)
  S:(includes o1 p11)
  S:(includes o1 p20)
  (waiting o1)
  S:(includes o1 p1)
  (waiting o1)
  S:(includes o1 p9)
  (waiting o1)
  S:(includes o1 p15)
  (waiting o1)
  S:(includes o1 p15)
  S:(includes o1 p19)
  (NOT-made p1)
  (NOT-made p2)
  (NOT-made p3)
  (NOT-made p4)
  (NOT-made p5)
  (NOT-made p6)
  (NOT-made p7)
  (NOT-made p8)
  (NOT-made p9)
  (NOT-made p10)
  (NOT-made p11)
  (NOT-made p12)
  (NOT-made p13)
  (NOT-made p14)
  (NOT-made p15)
  (NOT-made p16)
  (NOT-made p17)
  (NOT-made p18)
  (NOT-made p19)
  (NOT-made p20)
Init[1]:
  (= (total-cost) 0)
Goal: (and (W:shipped o1) (W:shipped o1) (W:shipped o1) (W:shipped o1) (W:shipped o1) (W:shipped o1) (W:shipped o1) (W:shipped o1) (W:shipped o1) (W:shipped o1) (W:shipped o1) (W:shipped o1) (W:shipped o1) (W:shipped o1) (W:shipped o1) (W:shipped o1) (W:shipped o1) (W:shipped o1) (W:shipped o1) (W:shipped o1))
Metric: 1
