begin_version
3
end_version
begin_metric
1
end_metric
42
begin_variable
var0
-1
7
at rover0 waypoint0
at rover0 waypoint1
at rover0 waypoint2
at rover0 waypoint3
at rover0 waypoint4
at rover0 waypoint5
at rover0 waypoint6
end_variable
begin_variable
var1
-1
7
at rover3 waypoint0
at rover3 waypoint1
at rover3 waypoint2
at rover3 waypoint3
at rover3 waypoint4
at rover3 waypoint5
at rover3 waypoint6
end_variable
begin_variable
var2
-1
6
at rover2 waypoint0
at rover2 waypoint1
at rover2 waypoint2
at rover2 waypoint3
at rover2 waypoint4
at rover2 waypoint5
end_variable
begin_variable
var3
-1
4
at rover1 waypoint0
at rover1 waypoint1
at rover1 waypoint2
at rover1 waypoint6
end_variable
begin_variable
var4
-1
4
at_rock_sample waypoint0
have_rock_analysis rover0 waypoint0
have_rock_analysis rover2 waypoint0
have_rock_analysis rover3 waypoint0
end_variable
begin_variable
var5
-1
4
at_rock_sample waypoint1
have_rock_analysis rover0 waypoint1
have_rock_analysis rover2 waypoint1
have_rock_analysis rover3 waypoint1
end_variable
begin_variable
var6
-1
4
at_rock_sample waypoint3
have_rock_analysis rover0 waypoint3
have_rock_analysis rover2 waypoint3
have_rock_analysis rover3 waypoint3
end_variable
begin_variable
var7
-1
4
at_rock_sample waypoint4
have_rock_analysis rover0 waypoint4
have_rock_analysis rover2 waypoint4
have_rock_analysis rover3 waypoint4
end_variable
begin_variable
var8
-1
4
at_soil_sample waypoint0
have_soil_analysis rover0 waypoint0
have_soil_analysis rover1 waypoint0
have_soil_analysis rover3 waypoint0
end_variable
begin_variable
var9
-1
4
at_soil_sample waypoint6
have_soil_analysis rover0 waypoint6
have_soil_analysis rover1 waypoint6
have_soil_analysis rover3 waypoint6
end_variable
begin_variable
var10
-1
3
at_soil_sample waypoint3
have_soil_analysis rover0 waypoint3
have_soil_analysis rover3 waypoint3
end_variable
begin_variable
var11
-1
3
at_soil_sample waypoint4
have_soil_analysis rover0 waypoint4
have_soil_analysis rover3 waypoint4
end_variable
begin_variable
var12
-1
2
empty rover0store
full rover0store
end_variable
begin_variable
var13
-1
2
empty rover1store
full rover1store
end_variable
begin_variable
var14
-1
2
empty rover2store
full rover2store
end_variable
begin_variable
var15
-1
2
empty rover3store
full rover3store
end_variable
begin_variable
var16
-1
2
at_rock_sample waypoint6
none-of-those
end_variable
begin_variable
var17
-1
2
calibrated camera0 rover1
none-of-those
end_variable
begin_variable
var18
-1
2
calibrated camera1 rover1
none-of-those
end_variable
begin_variable
var19
-1
2
calibrated camera2 rover1
none-of-those
end_variable
begin_variable
var20
-1
2
calibrated camera3 rover1
none-of-those
end_variable
begin_variable
var21
-1
2
calibrated camera4 rover2
none-of-those
end_variable
begin_variable
var22
-1
2
calibrated camera5 rover3
none-of-those
end_variable
begin_variable
var23
-1
2
communicated_image_data objective2 colour
none-of-those
end_variable
begin_variable
var24
-1
2
communicated_image_data objective3 colour
none-of-those
end_variable
begin_variable
var25
-1
2
communicated_image_data objective3 low_res
none-of-those
end_variable
begin_variable
var26
-1
2
communicated_rock_data waypoint0
none-of-those
end_variable
begin_variable
var27
-1
2
communicated_rock_data waypoint1
none-of-those
end_variable
begin_variable
var28
-1
2
communicated_rock_data waypoint3
none-of-those
end_variable
begin_variable
var29
-1
2
communicated_rock_data waypoint4
none-of-those
end_variable
begin_variable
var30
-1
2
communicated_soil_data waypoint0
none-of-those
end_variable
begin_variable
var31
-1
2
communicated_soil_data waypoint3
none-of-those
end_variable
begin_variable
var32
-1
2
communicated_soil_data waypoint4
none-of-those
end_variable
begin_variable
var33
-1
2
communicated_soil_data waypoint6
none-of-those
end_variable
begin_variable
var34
-1
2
have_image rover1 objective2 colour
none-of-those
end_variable
begin_variable
var35
-1
2
have_image rover1 objective3 colour
none-of-those
end_variable
begin_variable
var36
-1
2
have_image rover1 objective3 low_res
none-of-those
end_variable
begin_variable
var37
-1
2
have_image rover2 objective2 colour
none-of-those
end_variable
begin_variable
var38
-1
2
have_image rover2 objective3 colour
none-of-those
end_variable
begin_variable
var39
-1
2
have_image rover3 objective2 colour
none-of-those
end_variable
begin_variable
var40
-1
2
have_image rover3 objective3 colour
none-of-those
end_variable
begin_variable
var41
-1
2
have_image rover3 objective3 low_res
none-of-those
end_variable
25
begin_mutex_group
1
4 0
end_mutex_group
begin_mutex_group
1
5 0
end_mutex_group
begin_mutex_group
1
6 0
end_mutex_group
begin_mutex_group
1
7 0
end_mutex_group
begin_mutex_group
1
16 0
end_mutex_group
begin_mutex_group
1
8 0
end_mutex_group
begin_mutex_group
1
10 0
end_mutex_group
begin_mutex_group
1
11 0
end_mutex_group
begin_mutex_group
1
9 0
end_mutex_group
begin_mutex_group
2
12 0
12 1
end_mutex_group
begin_mutex_group
2
13 0
13 1
end_mutex_group
begin_mutex_group
2
14 0
14 1
end_mutex_group
begin_mutex_group
2
15 0
15 1
end_mutex_group
begin_mutex_group
3
10 0
10 1
10 2
end_mutex_group
begin_mutex_group
3
11 0
11 1
11 2
end_mutex_group
begin_mutex_group
4
3 0
3 1
3 2
3 3
end_mutex_group
begin_mutex_group
4
4 0
4 1
4 2
4 3
end_mutex_group
begin_mutex_group
4
5 0
5 1
5 2
5 3
end_mutex_group
begin_mutex_group
4
6 0
6 1
6 2
6 3
end_mutex_group
begin_mutex_group
4
7 0
7 1
7 2
7 3
end_mutex_group
begin_mutex_group
4
8 0
8 1
8 2
8 3
end_mutex_group
begin_mutex_group
4
9 0
9 1
9 2
9 3
end_mutex_group
begin_mutex_group
6
2 0
2 1
2 2
2 3
2 4
2 5
end_mutex_group
begin_mutex_group
7
0 0
0 1
0 2
0 3
0 4
0 5
0 6
end_mutex_group
begin_mutex_group
7
1 0
1 1
1 2
1 3
1 4
1 5
1 6
end_mutex_group
begin_state
4
1
3
0
0
0
0
0
0
0
0
0
0
0
0
0
0
1
1
1
1
1
1
1
1
1
1
1
1
1
1
1
1
1
1
1
1
1
1
1
1
1
end_state
begin_goal
11
23 0
24 0
25 0
26 0
27 0
28 0
29 0
30 0
31 0
32 0
33 0
end_goal
312
begin_operator
calibrate rover1 camera0 objective2 waypoint0
1
3 0
1
0 17 -1 0
1
end_operator
begin_operator
calibrate rover1 camera0 objective2 waypoint1
1
3 1
1
0 17 -1 0
1
end_operator
begin_operator
calibrate rover1 camera0 objective2 waypoint2
1
3 2
1
0 17 -1 0
1
end_operator
begin_operator
calibrate rover1 camera1 objective3 waypoint0
1
3 0
1
0 18 -1 0
1
end_operator
begin_operator
calibrate rover1 camera1 objective3 waypoint1
1
3 1
1
0 18 -1 0
1
end_operator
begin_operator
calibrate rover1 camera1 objective3 waypoint2
1
3 2
1
0 18 -1 0
1
end_operator
begin_operator
calibrate rover1 camera2 objective1 waypoint0
1
3 0
1
0 19 -1 0
1
end_operator
begin_operator
calibrate rover1 camera2 objective1 waypoint1
1
3 1
1
0 19 -1 0
1
end_operator
begin_operator
calibrate rover1 camera2 objective1 waypoint2
1
3 2
1
0 19 -1 0
1
end_operator
begin_operator
calibrate rover1 camera3 objective2 waypoint0
1
3 0
1
0 20 -1 0
1
end_operator
begin_operator
calibrate rover1 camera3 objective2 waypoint1
1
3 1
1
0 20 -1 0
1
end_operator
begin_operator
calibrate rover1 camera3 objective2 waypoint2
1
3 2
1
0 20 -1 0
1
end_operator
begin_operator
calibrate rover2 camera4 objective0 waypoint0
1
2 0
1
0 21 -1 0
1
end_operator
begin_operator
calibrate rover3 camera5 objective0 waypoint0
1
1 0
1
0 22 -1 0
1
end_operator
begin_operator
communicate_image_data rover1 general objective2 colour waypoint0 waypoint1
2
3 0
34 0
1
0 23 -1 0
1
end_operator
begin_operator
communicate_image_data rover1 general objective2 colour waypoint2 waypoint1
2
3 2
34 0
1
0 23 -1 0
1
end_operator
begin_operator
communicate_image_data rover1 general objective3 colour waypoint0 waypoint1
2
3 0
35 0
1
0 24 -1 0
1
end_operator
begin_operator
communicate_image_data rover1 general objective3 colour waypoint2 waypoint1
2
3 2
35 0
1
0 24 -1 0
1
end_operator
begin_operator
communicate_image_data rover1 general objective3 low_res waypoint0 waypoint1
2
3 0
36 0
1
0 25 -1 0
1
end_operator
begin_operator
communicate_image_data rover1 general objective3 low_res waypoint2 waypoint1
2
3 2
36 0
1
0 25 -1 0
1
end_operator
begin_operator
communicate_image_data rover2 general objective2 colour waypoint0 waypoint1
2
2 0
37 0
1
0 23 -1 0
1
end_operator
begin_operator
communicate_image_data rover2 general objective2 colour waypoint2 waypoint1
2
2 2
37 0
1
0 23 -1 0
1
end_operator
begin_operator
communicate_image_data rover2 general objective2 colour waypoint4 waypoint1
2
2 4
37 0
1
0 23 -1 0
1
end_operator
begin_operator
communicate_image_data rover2 general objective2 colour waypoint5 waypoint1
2
2 5
37 0
1
0 23 -1 0
1
end_operator
begin_operator
communicate_image_data rover2 general objective3 colour waypoint0 waypoint1
2
2 0
38 0
1
0 24 -1 0
1
end_operator
begin_operator
communicate_image_data rover2 general objective3 colour waypoint2 waypoint1
2
2 2
38 0
1
0 24 -1 0
1
end_operator
begin_operator
communicate_image_data rover2 general objective3 colour waypoint4 waypoint1
2
2 4
38 0
1
0 24 -1 0
1
end_operator
begin_operator
communicate_image_data rover2 general objective3 colour waypoint5 waypoint1
2
2 5
38 0
1
0 24 -1 0
1
end_operator
begin_operator
communicate_image_data rover3 general objective2 colour waypoint0 waypoint1
2
1 0
39 0
1
0 23 -1 0
1
end_operator
begin_operator
communicate_image_data rover3 general objective2 colour waypoint2 waypoint1
2
1 2
39 0
1
0 23 -1 0
1
end_operator
begin_operator
communicate_image_data rover3 general objective2 colour waypoint4 waypoint1
2
1 4
39 0
1
0 23 -1 0
1
end_operator
begin_operator
communicate_image_data rover3 general objective2 colour waypoint5 waypoint1
2
1 5
39 0
1
0 23 -1 0
1
end_operator
begin_operator
communicate_image_data rover3 general objective3 colour waypoint0 waypoint1
2
1 0
40 0
1
0 24 -1 0
1
end_operator
begin_operator
communicate_image_data rover3 general objective3 colour waypoint2 waypoint1
2
1 2
40 0
1
0 24 -1 0
1
end_operator
begin_operator
communicate_image_data rover3 general objective3 colour waypoint4 waypoint1
2
1 4
40 0
1
0 24 -1 0
1
end_operator
begin_operator
communicate_image_data rover3 general objective3 colour waypoint5 waypoint1
2
1 5
40 0
1
0 24 -1 0
1
end_operator
begin_operator
communicate_image_data rover3 general objective3 low_res waypoint0 waypoint1
2
1 0
41 0
1
0 25 -1 0
1
end_operator
begin_operator
communicate_image_data rover3 general objective3 low_res waypoint2 waypoint1
2
1 2
41 0
1
0 25 -1 0
1
end_operator
begin_operator
communicate_image_data rover3 general objective3 low_res waypoint4 waypoint1
2
1 4
41 0
1
0 25 -1 0
1
end_operator
begin_operator
communicate_image_data rover3 general objective3 low_res waypoint5 waypoint1
2
1 5
41 0
1
0 25 -1 0
1
end_operator
begin_operator
communicate_rock_data rover0 general waypoint0 waypoint0 waypoint1
2
0 0
4 1
1
0 26 -1 0
1
end_operator
begin_operator
communicate_rock_data rover0 general waypoint0 waypoint2 waypoint1
2
0 2
4 1
1
0 26 -1 0
1
end_operator
begin_operator
communicate_rock_data rover0 general waypoint0 waypoint4 waypoint1
2
0 4
4 1
1
0 26 -1 0
1
end_operator
begin_operator
communicate_rock_data rover0 general waypoint0 waypoint5 waypoint1
2
0 5
4 1
1
0 26 -1 0
1
end_operator
begin_operator
communicate_rock_data rover0 general waypoint1 waypoint0 waypoint1
2
0 0
5 1
1
0 27 -1 0
1
end_operator
begin_operator
communicate_rock_data rover0 general waypoint1 waypoint2 waypoint1
2
0 2
5 1
1
0 27 -1 0
1
end_operator
begin_operator
communicate_rock_data rover0 general waypoint1 waypoint4 waypoint1
2
0 4
5 1
1
0 27 -1 0
1
end_operator
begin_operator
communicate_rock_data rover0 general waypoint1 waypoint5 waypoint1
2
0 5
5 1
1
0 27 -1 0
1
end_operator
begin_operator
communicate_rock_data rover0 general waypoint3 waypoint0 waypoint1
2
0 0
6 1
1
0 28 -1 0
1
end_operator
begin_operator
communicate_rock_data rover0 general waypoint3 waypoint2 waypoint1
2
0 2
6 1
1
0 28 -1 0
1
end_operator
begin_operator
communicate_rock_data rover0 general waypoint3 waypoint4 waypoint1
2
0 4
6 1
1
0 28 -1 0
1
end_operator
begin_operator
communicate_rock_data rover0 general waypoint3 waypoint5 waypoint1
2
0 5
6 1
1
0 28 -1 0
1
end_operator
begin_operator
communicate_rock_data rover0 general waypoint4 waypoint0 waypoint1
2
0 0
7 1
1
0 29 -1 0
1
end_operator
begin_operator
communicate_rock_data rover0 general waypoint4 waypoint2 waypoint1
2
0 2
7 1
1
0 29 -1 0
1
end_operator
begin_operator
communicate_rock_data rover0 general waypoint4 waypoint4 waypoint1
2
0 4
7 1
1
0 29 -1 0
1
end_operator
begin_operator
communicate_rock_data rover0 general waypoint4 waypoint5 waypoint1
2
0 5
7 1
1
0 29 -1 0
1
end_operator
begin_operator
communicate_rock_data rover2 general waypoint0 waypoint0 waypoint1
2
2 0
4 2
1
0 26 -1 0
1
end_operator
begin_operator
communicate_rock_data rover2 general waypoint0 waypoint2 waypoint1
2
2 2
4 2
1
0 26 -1 0
1
end_operator
begin_operator
communicate_rock_data rover2 general waypoint0 waypoint4 waypoint1
2
2 4
4 2
1
0 26 -1 0
1
end_operator
begin_operator
communicate_rock_data rover2 general waypoint0 waypoint5 waypoint1
2
2 5
4 2
1
0 26 -1 0
1
end_operator
begin_operator
communicate_rock_data rover2 general waypoint1 waypoint0 waypoint1
2
2 0
5 2
1
0 27 -1 0
1
end_operator
begin_operator
communicate_rock_data rover2 general waypoint1 waypoint2 waypoint1
2
2 2
5 2
1
0 27 -1 0
1
end_operator
begin_operator
communicate_rock_data rover2 general waypoint1 waypoint4 waypoint1
2
2 4
5 2
1
0 27 -1 0
1
end_operator
begin_operator
communicate_rock_data rover2 general waypoint1 waypoint5 waypoint1
2
2 5
5 2
1
0 27 -1 0
1
end_operator
begin_operator
communicate_rock_data rover2 general waypoint3 waypoint0 waypoint1
2
2 0
6 2
1
0 28 -1 0
1
end_operator
begin_operator
communicate_rock_data rover2 general waypoint3 waypoint2 waypoint1
2
2 2
6 2
1
0 28 -1 0
1
end_operator
begin_operator
communicate_rock_data rover2 general waypoint3 waypoint4 waypoint1
2
2 4
6 2
1
0 28 -1 0
1
end_operator
begin_operator
communicate_rock_data rover2 general waypoint3 waypoint5 waypoint1
2
2 5
6 2
1
0 28 -1 0
1
end_operator
begin_operator
communicate_rock_data rover2 general waypoint4 waypoint0 waypoint1
2
2 0
7 2
1
0 29 -1 0
1
end_operator
begin_operator
communicate_rock_data rover2 general waypoint4 waypoint2 waypoint1
2
2 2
7 2
1
0 29 -1 0
1
end_operator
begin_operator
communicate_rock_data rover2 general waypoint4 waypoint4 waypoint1
2
2 4
7 2
1
0 29 -1 0
1
end_operator
begin_operator
communicate_rock_data rover2 general waypoint4 waypoint5 waypoint1
2
2 5
7 2
1
0 29 -1 0
1
end_operator
begin_operator
communicate_rock_data rover3 general waypoint0 waypoint0 waypoint1
2
1 0
4 3
1
0 26 -1 0
1
end_operator
begin_operator
communicate_rock_data rover3 general waypoint0 waypoint2 waypoint1
2
1 2
4 3
1
0 26 -1 0
1
end_operator
begin_operator
communicate_rock_data rover3 general waypoint0 waypoint4 waypoint1
2
1 4
4 3
1
0 26 -1 0
1
end_operator
begin_operator
communicate_rock_data rover3 general waypoint0 waypoint5 waypoint1
2
1 5
4 3
1
0 26 -1 0
1
end_operator
begin_operator
communicate_rock_data rover3 general waypoint1 waypoint0 waypoint1
2
1 0
5 3
1
0 27 -1 0
1
end_operator
begin_operator
communicate_rock_data rover3 general waypoint1 waypoint2 waypoint1
2
1 2
5 3
1
0 27 -1 0
1
end_operator
begin_operator
communicate_rock_data rover3 general waypoint1 waypoint4 waypoint1
2
1 4
5 3
1
0 27 -1 0
1
end_operator
begin_operator
communicate_rock_data rover3 general waypoint1 waypoint5 waypoint1
2
1 5
5 3
1
0 27 -1 0
1
end_operator
begin_operator
communicate_rock_data rover3 general waypoint3 waypoint0 waypoint1
2
1 0
6 3
1
0 28 -1 0
1
end_operator
begin_operator
communicate_rock_data rover3 general waypoint3 waypoint2 waypoint1
2
1 2
6 3
1
0 28 -1 0
1
end_operator
begin_operator
communicate_rock_data rover3 general waypoint3 waypoint4 waypoint1
2
1 4
6 3
1
0 28 -1 0
1
end_operator
begin_operator
communicate_rock_data rover3 general waypoint3 waypoint5 waypoint1
2
1 5
6 3
1
0 28 -1 0
1
end_operator
begin_operator
communicate_rock_data rover3 general waypoint4 waypoint0 waypoint1
2
1 0
7 3
1
0 29 -1 0
1
end_operator
begin_operator
communicate_rock_data rover3 general waypoint4 waypoint2 waypoint1
2
1 2
7 3
1
0 29 -1 0
1
end_operator
begin_operator
communicate_rock_data rover3 general waypoint4 waypoint4 waypoint1
2
1 4
7 3
1
0 29 -1 0
1
end_operator
begin_operator
communicate_rock_data rover3 general waypoint4 waypoint5 waypoint1
2
1 5
7 3
1
0 29 -1 0
1
end_operator
begin_operator
communicate_soil_data rover0 general waypoint0 waypoint0 waypoint1
2
0 0
8 1
1
0 30 -1 0
1
end_operator
begin_operator
communicate_soil_data rover0 general waypoint0 waypoint2 waypoint1
2
0 2
8 1
1
0 30 -1 0
1
end_operator
begin_operator
communicate_soil_data rover0 general waypoint0 waypoint4 waypoint1
2
0 4
8 1
1
0 30 -1 0
1
end_operator
begin_operator
communicate_soil_data rover0 general waypoint0 waypoint5 waypoint1
2
0 5
8 1
1
0 30 -1 0
1
end_operator
begin_operator
communicate_soil_data rover0 general waypoint3 waypoint0 waypoint1
2
0 0
10 1
1
0 31 -1 0
1
end_operator
begin_operator
communicate_soil_data rover0 general waypoint3 waypoint2 waypoint1
2
0 2
10 1
1
0 31 -1 0
1
end_operator
begin_operator
communicate_soil_data rover0 general waypoint3 waypoint4 waypoint1
2
0 4
10 1
1
0 31 -1 0
1
end_operator
begin_operator
communicate_soil_data rover0 general waypoint3 waypoint5 waypoint1
2
0 5
10 1
1
0 31 -1 0
1
end_operator
begin_operator
communicate_soil_data rover0 general waypoint4 waypoint0 waypoint1
2
0 0
11 1
1
0 32 -1 0
1
end_operator
begin_operator
communicate_soil_data rover0 general waypoint4 waypoint2 waypoint1
2
0 2
11 1
1
0 32 -1 0
1
end_operator
begin_operator
communicate_soil_data rover0 general waypoint4 waypoint4 waypoint1
2
0 4
11 1
1
0 32 -1 0
1
end_operator
begin_operator
communicate_soil_data rover0 general waypoint4 waypoint5 waypoint1
2
0 5
11 1
1
0 32 -1 0
1
end_operator
begin_operator
communicate_soil_data rover0 general waypoint6 waypoint0 waypoint1
2
0 0
9 1
1
0 33 -1 0
1
end_operator
begin_operator
communicate_soil_data rover0 general waypoint6 waypoint2 waypoint1
2
0 2
9 1
1
0 33 -1 0
1
end_operator
begin_operator
communicate_soil_data rover0 general waypoint6 waypoint4 waypoint1
2
0 4
9 1
1
0 33 -1 0
1
end_operator
begin_operator
communicate_soil_data rover0 general waypoint6 waypoint5 waypoint1
2
0 5
9 1
1
0 33 -1 0
1
end_operator
begin_operator
communicate_soil_data rover1 general waypoint0 waypoint0 waypoint1
2
3 0
8 2
1
0 30 -1 0
1
end_operator
begin_operator
communicate_soil_data rover1 general waypoint0 waypoint2 waypoint1
2
3 2
8 2
1
0 30 -1 0
1
end_operator
begin_operator
communicate_soil_data rover1 general waypoint6 waypoint0 waypoint1
2
3 0
9 2
1
0 33 -1 0
1
end_operator
begin_operator
communicate_soil_data rover1 general waypoint6 waypoint2 waypoint1
2
3 2
9 2
1
0 33 -1 0
1
end_operator
begin_operator
communicate_soil_data rover3 general waypoint0 waypoint0 waypoint1
2
1 0
8 3
1
0 30 -1 0
1
end_operator
begin_operator
communicate_soil_data rover3 general waypoint0 waypoint2 waypoint1
2
1 2
8 3
1
0 30 -1 0
1
end_operator
begin_operator
communicate_soil_data rover3 general waypoint0 waypoint4 waypoint1
2
1 4
8 3
1
0 30 -1 0
1
end_operator
begin_operator
communicate_soil_data rover3 general waypoint0 waypoint5 waypoint1
2
1 5
8 3
1
0 30 -1 0
1
end_operator
begin_operator
communicate_soil_data rover3 general waypoint3 waypoint0 waypoint1
2
1 0
10 2
1
0 31 -1 0
1
end_operator
begin_operator
communicate_soil_data rover3 general waypoint3 waypoint2 waypoint1
2
1 2
10 2
1
0 31 -1 0
1
end_operator
begin_operator
communicate_soil_data rover3 general waypoint3 waypoint4 waypoint1
2
1 4
10 2
1
0 31 -1 0
1
end_operator
begin_operator
communicate_soil_data rover3 general waypoint3 waypoint5 waypoint1
2
1 5
10 2
1
0 31 -1 0
1
end_operator
begin_operator
communicate_soil_data rover3 general waypoint4 waypoint0 waypoint1
2
1 0
11 2
1
0 32 -1 0
1
end_operator
begin_operator
communicate_soil_data rover3 general waypoint4 waypoint2 waypoint1
2
1 2
11 2
1
0 32 -1 0
1
end_operator
begin_operator
communicate_soil_data rover3 general waypoint4 waypoint4 waypoint1
2
1 4
11 2
1
0 32 -1 0
1
end_operator
begin_operator
communicate_soil_data rover3 general waypoint4 waypoint5 waypoint1
2
1 5
11 2
1
0 32 -1 0
1
end_operator
begin_operator
communicate_soil_data rover3 general waypoint6 waypoint0 waypoint1
2
1 0
9 3
1
0 33 -1 0
1
end_operator
begin_operator
communicate_soil_data rover3 general waypoint6 waypoint2 waypoint1
2
1 2
9 3
1
0 33 -1 0
1
end_operator
begin_operator
communicate_soil_data rover3 general waypoint6 waypoint4 waypoint1
2
1 4
9 3
1
0 33 -1 0
1
end_operator
begin_operator
communicate_soil_data rover3 general waypoint6 waypoint5 waypoint1
2
1 5
9 3
1
0 33 -1 0
1
end_operator
begin_operator
drop rover0 rover0store
0
1
0 12 1 0
1
end_operator
begin_operator
drop rover1 rover1store
0
1
0 13 1 0
1
end_operator
begin_operator
drop rover2 rover2store
0
1
0 14 1 0
1
end_operator
begin_operator
drop rover3 rover3store
0
1
0 15 1 0
1
end_operator
begin_operator
navigate rover0 waypoint0 waypoint4
0
1
0 0 0 4
1
end_operator
begin_operator
navigate rover0 waypoint1 waypoint4
0
1
0 0 1 4
1
end_operator
begin_operator
navigate rover0 waypoint1 waypoint5
0
1
0 0 1 5
1
end_operator
begin_operator
navigate rover0 waypoint2 waypoint4
0
1
0 0 2 4
1
end_operator
begin_operator
navigate rover0 waypoint3 waypoint4
0
1
0 0 3 4
1
end_operator
begin_operator
navigate rover0 waypoint4 waypoint0
0
1
0 0 4 0
1
end_operator
begin_operator
navigate rover0 waypoint4 waypoint1
0
1
0 0 4 1
1
end_operator
begin_operator
navigate rover0 waypoint4 waypoint2
0
1
0 0 4 2
1
end_operator
begin_operator
navigate rover0 waypoint4 waypoint3
0
1
0 0 4 3
1
end_operator
begin_operator
navigate rover0 waypoint4 waypoint6
0
1
0 0 4 6
1
end_operator
begin_operator
navigate rover0 waypoint5 waypoint1
0
1
0 0 5 1
1
end_operator
begin_operator
navigate rover0 waypoint6 waypoint4
0
1
0 0 6 4
1
end_operator
begin_operator
navigate rover1 waypoint0 waypoint1
0
1
0 3 0 1
1
end_operator
begin_operator
navigate rover1 waypoint0 waypoint2
0
1
0 3 0 2
1
end_operator
begin_operator
navigate rover1 waypoint0 waypoint6
0
1
0 3 0 3
1
end_operator
begin_operator
navigate rover1 waypoint1 waypoint0
0
1
0 3 1 0
1
end_operator
begin_operator
navigate rover1 waypoint2 waypoint0
0
1
0 3 2 0
1
end_operator
begin_operator
navigate rover1 waypoint6 waypoint0
0
1
0 3 3 0
1
end_operator
begin_operator
navigate rover2 waypoint0 waypoint4
0
1
0 2 0 4
1
end_operator
begin_operator
navigate rover2 waypoint1 waypoint4
0
1
0 2 1 4
1
end_operator
begin_operator
navigate rover2 waypoint2 waypoint4
0
1
0 2 2 4
1
end_operator
begin_operator
navigate rover2 waypoint3 waypoint4
0
1
0 2 3 4
1
end_operator
begin_operator
navigate rover2 waypoint3 waypoint5
0
1
0 2 3 5
1
end_operator
begin_operator
navigate rover2 waypoint4 waypoint0
0
1
0 2 4 0
1
end_operator
begin_operator
navigate rover2 waypoint4 waypoint1
0
1
0 2 4 1
1
end_operator
begin_operator
navigate rover2 waypoint4 waypoint2
0
1
0 2 4 2
1
end_operator
begin_operator
navigate rover2 waypoint4 waypoint3
0
1
0 2 4 3
1
end_operator
begin_operator
navigate rover2 waypoint5 waypoint3
0
1
0 2 5 3
1
end_operator
begin_operator
navigate rover3 waypoint0 waypoint1
0
1
0 1 0 1
1
end_operator
begin_operator
navigate rover3 waypoint0 waypoint2
0
1
0 1 0 2
1
end_operator
begin_operator
navigate rover3 waypoint0 waypoint4
0
1
0 1 0 4
1
end_operator
begin_operator
navigate rover3 waypoint0 waypoint6
0
1
0 1 0 6
1
end_operator
begin_operator
navigate rover3 waypoint1 waypoint0
0
1
0 1 1 0
1
end_operator
begin_operator
navigate rover3 waypoint2 waypoint0
0
1
0 1 2 0
1
end_operator
begin_operator
navigate rover3 waypoint3 waypoint4
0
1
0 1 3 4
1
end_operator
begin_operator
navigate rover3 waypoint4 waypoint0
0
1
0 1 4 0
1
end_operator
begin_operator
navigate rover3 waypoint4 waypoint3
0
1
0 1 4 3
1
end_operator
begin_operator
navigate rover3 waypoint5 waypoint6
0
1
0 1 5 6
1
end_operator
begin_operator
navigate rover3 waypoint6 waypoint0
0
1
0 1 6 0
1
end_operator
begin_operator
navigate rover3 waypoint6 waypoint5
0
1
0 1 6 5
1
end_operator
begin_operator
sample_rock rover0 rover0store waypoint0
1
0 0
2
0 4 0 1
0 12 0 1
1
end_operator
begin_operator
sample_rock rover0 rover0store waypoint1
1
0 1
2
0 5 0 1
0 12 0 1
1
end_operator
begin_operator
sample_rock rover0 rover0store waypoint3
1
0 3
2
0 6 0 1
0 12 0 1
1
end_operator
begin_operator
sample_rock rover0 rover0store waypoint4
1
0 4
2
0 7 0 1
0 12 0 1
1
end_operator
begin_operator
sample_rock rover0 rover0store waypoint6
1
0 6
2
0 12 0 1
0 16 0 1
1
end_operator
begin_operator
sample_rock rover2 rover2store waypoint0
1
2 0
2
0 4 0 2
0 14 0 1
1
end_operator
begin_operator
sample_rock rover2 rover2store waypoint1
1
2 1
2
0 5 0 2
0 14 0 1
1
end_operator
begin_operator
sample_rock rover2 rover2store waypoint3
1
2 3
2
0 6 0 2
0 14 0 1
1
end_operator
begin_operator
sample_rock rover2 rover2store waypoint4
1
2 4
2
0 7 0 2
0 14 0 1
1
end_operator
begin_operator
sample_rock rover3 rover3store waypoint0
1
1 0
2
0 4 0 3
0 15 0 1
1
end_operator
begin_operator
sample_rock rover3 rover3store waypoint1
1
1 1
2
0 5 0 3
0 15 0 1
1
end_operator
begin_operator
sample_rock rover3 rover3store waypoint3
1
1 3
2
0 6 0 3
0 15 0 1
1
end_operator
begin_operator
sample_rock rover3 rover3store waypoint4
1
1 4
2
0 7 0 3
0 15 0 1
1
end_operator
begin_operator
sample_rock rover3 rover3store waypoint6
1
1 6
2
0 15 0 1
0 16 0 1
1
end_operator
begin_operator
sample_soil rover0 rover0store waypoint0
1
0 0
2
0 8 0 1
0 12 0 1
1
end_operator
begin_operator
sample_soil rover0 rover0store waypoint3
1
0 3
2
0 10 0 1
0 12 0 1
1
end_operator
begin_operator
sample_soil rover0 rover0store waypoint4
1
0 4
2
0 11 0 1
0 12 0 1
1
end_operator
begin_operator
sample_soil rover0 rover0store waypoint6
1
0 6
2
0 9 0 1
0 12 0 1
1
end_operator
begin_operator
sample_soil rover1 rover1store waypoint0
1
3 0
2
0 8 0 2
0 13 0 1
1
end_operator
begin_operator
sample_soil rover1 rover1store waypoint6
1
3 3
2
0 9 0 2
0 13 0 1
1
end_operator
begin_operator
sample_soil rover3 rover3store waypoint0
1
1 0
2
0 8 0 3
0 15 0 1
1
end_operator
begin_operator
sample_soil rover3 rover3store waypoint3
1
1 3
2
0 10 0 2
0 15 0 1
1
end_operator
begin_operator
sample_soil rover3 rover3store waypoint4
1
1 4
2
0 11 0 2
0 15 0 1
1
end_operator
begin_operator
sample_soil rover3 rover3store waypoint6
1
1 6
2
0 9 0 3
0 15 0 1
1
end_operator
begin_operator
take_image rover1 waypoint0 objective0 camera0 low_res
1
3 0
1
0 17 0 1
1
end_operator
begin_operator
take_image rover1 waypoint0 objective0 camera1 colour
1
3 0
1
0 18 0 1
1
end_operator
begin_operator
take_image rover1 waypoint0 objective0 camera2 colour
1
3 0
1
0 19 0 1
1
end_operator
begin_operator
take_image rover1 waypoint0 objective0 camera2 low_res
1
3 0
1
0 19 0 1
1
end_operator
begin_operator
take_image rover1 waypoint0 objective0 camera3 high_res
1
3 0
1
0 20 0 1
1
end_operator
begin_operator
take_image rover1 waypoint0 objective0 camera3 low_res
1
3 0
1
0 20 0 1
1
end_operator
begin_operator
take_image rover1 waypoint0 objective1 camera0 low_res
1
3 0
1
0 17 0 1
1
end_operator
begin_operator
take_image rover1 waypoint0 objective1 camera1 colour
1
3 0
1
0 18 0 1
1
end_operator
begin_operator
take_image rover1 waypoint0 objective1 camera2 colour
1
3 0
1
0 19 0 1
1
end_operator
begin_operator
take_image rover1 waypoint0 objective1 camera2 low_res
1
3 0
1
0 19 0 1
1
end_operator
begin_operator
take_image rover1 waypoint0 objective1 camera3 high_res
1
3 0
1
0 20 0 1
1
end_operator
begin_operator
take_image rover1 waypoint0 objective1 camera3 low_res
1
3 0
1
0 20 0 1
1
end_operator
begin_operator
take_image rover1 waypoint0 objective2 camera0 low_res
1
3 0
1
0 17 0 1
1
end_operator
begin_operator
take_image rover1 waypoint0 objective2 camera1 colour
1
3 0
2
0 18 0 1
0 34 -1 0
1
end_operator
begin_operator
take_image rover1 waypoint0 objective2 camera2 colour
1
3 0
2
0 19 0 1
0 34 -1 0
1
end_operator
begin_operator
take_image rover1 waypoint0 objective2 camera2 low_res
1
3 0
1
0 19 0 1
1
end_operator
begin_operator
take_image rover1 waypoint0 objective2 camera3 high_res
1
3 0
1
0 20 0 1
1
end_operator
begin_operator
take_image rover1 waypoint0 objective2 camera3 low_res
1
3 0
1
0 20 0 1
1
end_operator
begin_operator
take_image rover1 waypoint0 objective3 camera0 low_res
1
3 0
2
0 17 0 1
0 36 -1 0
1
end_operator
begin_operator
take_image rover1 waypoint0 objective3 camera1 colour
1
3 0
2
0 18 0 1
0 35 -1 0
1
end_operator
begin_operator
take_image rover1 waypoint0 objective3 camera2 colour
1
3 0
2
0 19 0 1
0 35 -1 0
1
end_operator
begin_operator
take_image rover1 waypoint0 objective3 camera2 low_res
1
3 0
2
0 19 0 1
0 36 -1 0
1
end_operator
begin_operator
take_image rover1 waypoint0 objective3 camera3 high_res
1
3 0
1
0 20 0 1
1
end_operator
begin_operator
take_image rover1 waypoint0 objective3 camera3 low_res
1
3 0
2
0 20 0 1
0 36 -1 0
1
end_operator
begin_operator
take_image rover1 waypoint1 objective1 camera0 low_res
1
3 1
1
0 17 0 1
1
end_operator
begin_operator
take_image rover1 waypoint1 objective1 camera1 colour
1
3 1
1
0 18 0 1
1
end_operator
begin_operator
take_image rover1 waypoint1 objective1 camera2 colour
1
3 1
1
0 19 0 1
1
end_operator
begin_operator
take_image rover1 waypoint1 objective1 camera2 low_res
1
3 1
1
0 19 0 1
1
end_operator
begin_operator
take_image rover1 waypoint1 objective1 camera3 high_res
1
3 1
1
0 20 0 1
1
end_operator
begin_operator
take_image rover1 waypoint1 objective1 camera3 low_res
1
3 1
1
0 20 0 1
1
end_operator
begin_operator
take_image rover1 waypoint1 objective2 camera0 low_res
1
3 1
1
0 17 0 1
1
end_operator
begin_operator
take_image rover1 waypoint1 objective2 camera1 colour
1
3 1
2
0 18 0 1
0 34 -1 0
1
end_operator
begin_operator
take_image rover1 waypoint1 objective2 camera2 colour
1
3 1
2
0 19 0 1
0 34 -1 0
1
end_operator
begin_operator
take_image rover1 waypoint1 objective2 camera2 low_res
1
3 1
1
0 19 0 1
1
end_operator
begin_operator
take_image rover1 waypoint1 objective2 camera3 high_res
1
3 1
1
0 20 0 1
1
end_operator
begin_operator
take_image rover1 waypoint1 objective2 camera3 low_res
1
3 1
1
0 20 0 1
1
end_operator
begin_operator
take_image rover1 waypoint1 objective3 camera0 low_res
1
3 1
2
0 17 0 1
0 36 -1 0
1
end_operator
begin_operator
take_image rover1 waypoint1 objective3 camera1 colour
1
3 1
2
0 18 0 1
0 35 -1 0
1
end_operator
begin_operator
take_image rover1 waypoint1 objective3 camera2 colour
1
3 1
2
0 19 0 1
0 35 -1 0
1
end_operator
begin_operator
take_image rover1 waypoint1 objective3 camera2 low_res
1
3 1
2
0 19 0 1
0 36 -1 0
1
end_operator
begin_operator
take_image rover1 waypoint1 objective3 camera3 high_res
1
3 1
1
0 20 0 1
1
end_operator
begin_operator
take_image rover1 waypoint1 objective3 camera3 low_res
1
3 1
2
0 20 0 1
0 36 -1 0
1
end_operator
begin_operator
take_image rover1 waypoint2 objective1 camera0 low_res
1
3 2
1
0 17 0 1
1
end_operator
begin_operator
take_image rover1 waypoint2 objective1 camera1 colour
1
3 2
1
0 18 0 1
1
end_operator
begin_operator
take_image rover1 waypoint2 objective1 camera2 colour
1
3 2
1
0 19 0 1
1
end_operator
begin_operator
take_image rover1 waypoint2 objective1 camera2 low_res
1
3 2
1
0 19 0 1
1
end_operator
begin_operator
take_image rover1 waypoint2 objective1 camera3 high_res
1
3 2
1
0 20 0 1
1
end_operator
begin_operator
take_image rover1 waypoint2 objective1 camera3 low_res
1
3 2
1
0 20 0 1
1
end_operator
begin_operator
take_image rover1 waypoint2 objective2 camera0 low_res
1
3 2
1
0 17 0 1
1
end_operator
begin_operator
take_image rover1 waypoint2 objective2 camera1 colour
1
3 2
2
0 18 0 1
0 34 -1 0
1
end_operator
begin_operator
take_image rover1 waypoint2 objective2 camera2 colour
1
3 2
2
0 19 0 1
0 34 -1 0
1
end_operator
begin_operator
take_image rover1 waypoint2 objective2 camera2 low_res
1
3 2
1
0 19 0 1
1
end_operator
begin_operator
take_image rover1 waypoint2 objective2 camera3 high_res
1
3 2
1
0 20 0 1
1
end_operator
begin_operator
take_image rover1 waypoint2 objective2 camera3 low_res
1
3 2
1
0 20 0 1
1
end_operator
begin_operator
take_image rover1 waypoint2 objective3 camera0 low_res
1
3 2
2
0 17 0 1
0 36 -1 0
1
end_operator
begin_operator
take_image rover1 waypoint2 objective3 camera1 colour
1
3 2
2
0 18 0 1
0 35 -1 0
1
end_operator
begin_operator
take_image rover1 waypoint2 objective3 camera2 colour
1
3 2
2
0 19 0 1
0 35 -1 0
1
end_operator
begin_operator
take_image rover1 waypoint2 objective3 camera2 low_res
1
3 2
2
0 19 0 1
0 36 -1 0
1
end_operator
begin_operator
take_image rover1 waypoint2 objective3 camera3 high_res
1
3 2
1
0 20 0 1
1
end_operator
begin_operator
take_image rover1 waypoint2 objective3 camera3 low_res
1
3 2
2
0 20 0 1
0 36 -1 0
1
end_operator
begin_operator
take_image rover2 waypoint0 objective0 camera4 colour
1
2 0
1
0 21 0 1
1
end_operator
begin_operator
take_image rover2 waypoint0 objective1 camera4 colour
1
2 0
1
0 21 0 1
1
end_operator
begin_operator
take_image rover2 waypoint0 objective2 camera4 colour
1
2 0
2
0 21 0 1
0 37 -1 0
1
end_operator
begin_operator
take_image rover2 waypoint0 objective3 camera4 colour
1
2 0
2
0 21 0 1
0 38 -1 0
1
end_operator
begin_operator
take_image rover2 waypoint1 objective1 camera4 colour
1
2 1
1
0 21 0 1
1
end_operator
begin_operator
take_image rover2 waypoint1 objective2 camera4 colour
1
2 1
2
0 21 0 1
0 37 -1 0
1
end_operator
begin_operator
take_image rover2 waypoint1 objective3 camera4 colour
1
2 1
2
0 21 0 1
0 38 -1 0
1
end_operator
begin_operator
take_image rover2 waypoint2 objective1 camera4 colour
1
2 2
1
0 21 0 1
1
end_operator
begin_operator
take_image rover2 waypoint2 objective2 camera4 colour
1
2 2
2
0 21 0 1
0 37 -1 0
1
end_operator
begin_operator
take_image rover2 waypoint2 objective3 camera4 colour
1
2 2
2
0 21 0 1
0 38 -1 0
1
end_operator
begin_operator
take_image rover2 waypoint3 objective1 camera4 colour
1
2 3
1
0 21 0 1
1
end_operator
begin_operator
take_image rover2 waypoint3 objective2 camera4 colour
1
2 3
2
0 21 0 1
0 37 -1 0
1
end_operator
begin_operator
take_image rover2 waypoint3 objective3 camera4 colour
1
2 3
2
0 21 0 1
0 38 -1 0
1
end_operator
begin_operator
take_image rover2 waypoint4 objective3 camera4 colour
1
2 4
2
0 21 0 1
0 38 -1 0
1
end_operator
begin_operator
take_image rover2 waypoint5 objective3 camera4 colour
1
2 5
2
0 21 0 1
0 38 -1 0
1
end_operator
begin_operator
take_image rover3 waypoint0 objective0 camera5 colour
1
1 0
1
0 22 0 1
1
end_operator
begin_operator
take_image rover3 waypoint0 objective0 camera5 high_res
1
1 0
1
0 22 0 1
1
end_operator
begin_operator
take_image rover3 waypoint0 objective0 camera5 low_res
1
1 0
1
0 22 0 1
1
end_operator
begin_operator
take_image rover3 waypoint0 objective1 camera5 colour
1
1 0
1
0 22 0 1
1
end_operator
begin_operator
take_image rover3 waypoint0 objective1 camera5 high_res
1
1 0
1
0 22 0 1
1
end_operator
begin_operator
take_image rover3 waypoint0 objective1 camera5 low_res
1
1 0
1
0 22 0 1
1
end_operator
begin_operator
take_image rover3 waypoint0 objective2 camera5 colour
1
1 0
2
0 22 0 1
0 39 -1 0
1
end_operator
begin_operator
take_image rover3 waypoint0 objective2 camera5 high_res
1
1 0
1
0 22 0 1
1
end_operator
begin_operator
take_image rover3 waypoint0 objective2 camera5 low_res
1
1 0
1
0 22 0 1
1
end_operator
begin_operator
take_image rover3 waypoint0 objective3 camera5 colour
1
1 0
2
0 22 0 1
0 40 -1 0
1
end_operator
begin_operator
take_image rover3 waypoint0 objective3 camera5 high_res
1
1 0
1
0 22 0 1
1
end_operator
begin_operator
take_image rover3 waypoint0 objective3 camera5 low_res
1
1 0
2
0 22 0 1
0 41 -1 0
1
end_operator
begin_operator
take_image rover3 waypoint1 objective1 camera5 colour
1
1 1
1
0 22 0 1
1
end_operator
begin_operator
take_image rover3 waypoint1 objective1 camera5 high_res
1
1 1
1
0 22 0 1
1
end_operator
begin_operator
take_image rover3 waypoint1 objective1 camera5 low_res
1
1 1
1
0 22 0 1
1
end_operator
begin_operator
take_image rover3 waypoint1 objective2 camera5 colour
1
1 1
2
0 22 0 1
0 39 -1 0
1
end_operator
begin_operator
take_image rover3 waypoint1 objective2 camera5 high_res
1
1 1
1
0 22 0 1
1
end_operator
begin_operator
take_image rover3 waypoint1 objective2 camera5 low_res
1
1 1
1
0 22 0 1
1
end_operator
begin_operator
take_image rover3 waypoint1 objective3 camera5 colour
1
1 1
2
0 22 0 1
0 40 -1 0
1
end_operator
begin_operator
take_image rover3 waypoint1 objective3 camera5 high_res
1
1 1
1
0 22 0 1
1
end_operator
begin_operator
take_image rover3 waypoint1 objective3 camera5 low_res
1
1 1
2
0 22 0 1
0 41 -1 0
1
end_operator
begin_operator
take_image rover3 waypoint2 objective1 camera5 colour
1
1 2
1
0 22 0 1
1
end_operator
begin_operator
take_image rover3 waypoint2 objective1 camera5 high_res
1
1 2
1
0 22 0 1
1
end_operator
begin_operator
take_image rover3 waypoint2 objective1 camera5 low_res
1
1 2
1
0 22 0 1
1
end_operator
begin_operator
take_image rover3 waypoint2 objective2 camera5 colour
1
1 2
2
0 22 0 1
0 39 -1 0
1
end_operator
begin_operator
take_image rover3 waypoint2 objective2 camera5 high_res
1
1 2
1
0 22 0 1
1
end_operator
begin_operator
take_image rover3 waypoint2 objective2 camera5 low_res
1
1 2
1
0 22 0 1
1
end_operator
begin_operator
take_image rover3 waypoint2 objective3 camera5 colour
1
1 2
2
0 22 0 1
0 40 -1 0
1
end_operator
begin_operator
take_image rover3 waypoint2 objective3 camera5 high_res
1
1 2
1
0 22 0 1
1
end_operator
begin_operator
take_image rover3 waypoint2 objective3 camera5 low_res
1
1 2
2
0 22 0 1
0 41 -1 0
1
end_operator
begin_operator
take_image rover3 waypoint3 objective1 camera5 colour
1
1 3
1
0 22 0 1
1
end_operator
begin_operator
take_image rover3 waypoint3 objective1 camera5 high_res
1
1 3
1
0 22 0 1
1
end_operator
begin_operator
take_image rover3 waypoint3 objective1 camera5 low_res
1
1 3
1
0 22 0 1
1
end_operator
begin_operator
take_image rover3 waypoint3 objective2 camera5 colour
1
1 3
2
0 22 0 1
0 39 -1 0
1
end_operator
begin_operator
take_image rover3 waypoint3 objective2 camera5 high_res
1
1 3
1
0 22 0 1
1
end_operator
begin_operator
take_image rover3 waypoint3 objective2 camera5 low_res
1
1 3
1
0 22 0 1
1
end_operator
begin_operator
take_image rover3 waypoint3 objective3 camera5 colour
1
1 3
2
0 22 0 1
0 40 -1 0
1
end_operator
begin_operator
take_image rover3 waypoint3 objective3 camera5 high_res
1
1 3
1
0 22 0 1
1
end_operator
begin_operator
take_image rover3 waypoint3 objective3 camera5 low_res
1
1 3
2
0 22 0 1
0 41 -1 0
1
end_operator
begin_operator
take_image rover3 waypoint4 objective3 camera5 colour
1
1 4
2
0 22 0 1
0 40 -1 0
1
end_operator
begin_operator
take_image rover3 waypoint4 objective3 camera5 high_res
1
1 4
1
0 22 0 1
1
end_operator
begin_operator
take_image rover3 waypoint4 objective3 camera5 low_res
1
1 4
2
0 22 0 1
0 41 -1 0
1
end_operator
begin_operator
take_image rover3 waypoint5 objective3 camera5 colour
1
1 5
2
0 22 0 1
0 40 -1 0
1
end_operator
begin_operator
take_image rover3 waypoint5 objective3 camera5 high_res
1
1 5
1
0 22 0 1
1
end_operator
begin_operator
take_image rover3 waypoint5 objective3 camera5 low_res
1
1 5
2
0 22 0 1
0 41 -1 0
1
end_operator
0
