RSE-Invertible facts:
65:(robot-at robot1 tile_0-1) in-fam-group
66:(robot-at robot1 tile_0-2) in-fam-group
67:(robot-at robot1 tile_0-3) in-fam-group
68:(robot-at robot1 tile_0-4) in-fam-group
69:(robot-at robot1 tile_0-5) in-fam-group
70:(robot-at robot1 tile_1-1) in-fam-group
71:(robot-at robot1 tile_1-2) in-fam-group
72:(robot-at robot1 tile_1-3) in-fam-group
73:(robot-at robot1 tile_1-4) in-fam-group
74:(robot-at robot1 tile_1-5) in-fam-group
75:(robot-at robot1 tile_2-1) in-fam-group
76:(robot-at robot1 tile_2-2) in-fam-group
77:(robot-at robot1 tile_2-3) in-fam-group
78:(robot-at robot1 tile_2-4) in-fam-group
79:(robot-at robot1 tile_2-5) in-fam-group
80:(robot-at robot1 tile_3-1) in-fam-group
81:(robot-at robot1 tile_3-2) in-fam-group
82:(robot-at robot1 tile_3-3) in-fam-group
83:(robot-at robot1 tile_3-4) in-fam-group
84:(robot-at robot1 tile_3-5) in-fam-group
85:(robot-at robot1 tile_4-1) in-fam-group
86:(robot-at robot1 tile_4-2) in-fam-group
87:(robot-at robot1 tile_4-3) in-fam-group
88:(robot-at robot1 tile_4-4) in-fam-group
89:(robot-at robot1 tile_4-5) in-fam-group
90:(robot-at robot1 tile_5-1) in-fam-group
91:(robot-at robot1 tile_5-2) in-fam-group
92:(robot-at robot1 tile_5-3) in-fam-group
93:(robot-at robot1 tile_5-4) in-fam-group
94:(robot-at robot1 tile_5-5) in-fam-group
95:(robot-at robot1 tile_6-1) in-fam-group
96:(robot-at robot1 tile_6-2) in-fam-group
97:(robot-at robot1 tile_6-3) in-fam-group
98:(robot-at robot1 tile_6-4) in-fam-group
99:(robot-at robot1 tile_6-5) in-fam-group
100:(robot-at robot2 tile_0-1) in-fam-group
101:(robot-at robot2 tile_0-2) in-fam-group
102:(robot-at robot2 tile_0-3) in-fam-group
103:(robot-at robot2 tile_0-4) in-fam-group
104:(robot-at robot2 tile_0-5) in-fam-group
105:(robot-at robot2 tile_1-1) in-fam-group
106:(robot-at robot2 tile_1-2) in-fam-group
107:(robot-at robot2 tile_1-3) in-fam-group
108:(robot-at robot2 tile_1-4) in-fam-group
109:(robot-at robot2 tile_1-5) in-fam-group
110:(robot-at robot2 tile_2-1) in-fam-group
111:(robot-at robot2 tile_2-2) in-fam-group
112:(robot-at robot2 tile_2-3) in-fam-group
113:(robot-at robot2 tile_2-4) in-fam-group
114:(robot-at robot2 tile_2-5) in-fam-group
115:(robot-at robot2 tile_3-1) in-fam-group
116:(robot-at robot2 tile_3-2) in-fam-group
117:(robot-at robot2 tile_3-3) in-fam-group
118:(robot-at robot2 tile_3-4) in-fam-group
119:(robot-at robot2 tile_3-5) in-fam-group
120:(robot-at robot2 tile_4-1) in-fam-group
121:(robot-at robot2 tile_4-2) in-fam-group
122:(robot-at robot2 tile_4-3) in-fam-group
123:(robot-at robot2 tile_4-4) in-fam-group
124:(robot-at robot2 tile_4-5) in-fam-group
125:(robot-at robot2 tile_5-1) in-fam-group
126:(robot-at robot2 tile_5-2) in-fam-group
127:(robot-at robot2 tile_5-3) in-fam-group
128:(robot-at robot2 tile_5-4) in-fam-group
129:(robot-at robot2 tile_5-5) in-fam-group
130:(robot-at robot2 tile_6-1) in-fam-group
131:(robot-at robot2 tile_6-2) in-fam-group
132:(robot-at robot2 tile_6-3) in-fam-group
133:(robot-at robot2 tile_6-4) in-fam-group
134:(robot-at robot2 tile_6-5) in-fam-group
135:(robot-has robot1 black) in-fam-group
136:(robot-has robot1 white) in-fam-group
137:(robot-has robot2 black) in-fam-group
138:(robot-has robot2 white) in-fam-group
