 (at_two straight0 f0-2f f0-3f) (at_two straight0 f0-3f f0-2f) (at_two straight0 f0-3f f1-3f) (at_two straight0 f1-3f f0-3f) (at_two straight1 f0-2f f0-3f) (at_two straight1 f0-3f f0-2f) (at_two straight1 f0-3f f1-3f) (at_two straight1 f1-3f f0-3f) (at_two straight2 f0-2f f0-3f) (at_two straight2 f0-3f f0-2f) (at_two straight2 f0-3f f1-3f) (at_two straight2 f1-3f f0-3f) (at_two straight3 f0-2f f0-3f) (at_two straight3 f0-3f f0-2f) (at_two straight3 f0-3f f1-3f) (at_two straight3 f1-3f f0-3f) (clear f0-3f):=1:fam:G
 (at_right_l rightl0 f0-0f f1-0f f1-1f) (at_right_l rightl1 f0-0f f1-0f f1-1f) (at_right_l rightl2 f0-0f f1-0f f1-1f) (at_two straight0 f0-0f f0-1f) (at_two straight0 f0-0f f1-0f) (at_two straight0 f0-1f f0-0f) (at_two straight0 f1-0f f0-0f) (at_two straight1 f0-0f f0-1f) (at_two straight1 f0-0f f1-0f) (at_two straight1 f0-1f f0-0f) (at_two straight1 f1-0f f0-0f) (at_two straight2 f0-0f f0-1f) (at_two straight2 f0-0f f1-0f) (at_two straight2 f0-1f f0-0f) (at_two straight2 f1-0f f0-0f) (at_two straight3 f0-0f f0-1f) (at_two straight3 f0-0f f1-0f) (at_two straight3 f0-1f f0-0f) (at_two straight3 f1-0f f0-0f) (clear f0-0f):=1:fam:G
 (at_right_l rightl0 f8-0f f9-0f f9-1f) (at_right_l rightl1 f8-0f f9-0f f9-1f) (at_right_l rightl2 f8-0f f9-0f f9-1f) (at_two straight0 f8-0f f9-0f) (at_two straight0 f9-0f f8-0f) (at_two straight0 f9-0f f9-1f) (at_two straight0 f9-1f f9-0f) (at_two straight1 f8-0f f9-0f) (at_two straight1 f9-0f f8-0f) (at_two straight1 f9-0f f9-1f) (at_two straight1 f9-1f f9-0f) (at_two straight2 f8-0f f9-0f) (at_two straight2 f9-0f f8-0f) (at_two straight2 f9-0f f9-1f) (at_two straight2 f9-1f f9-0f) (at_two straight3 f8-0f f9-0f) (at_two straight3 f9-0f f8-0f) (at_two straight3 f9-0f f9-1f) (at_two straight3 f9-1f f9-0f) (clear f9-0f):=1:fam
 (at_right_l rightl0 f8-2f f9-2f f9-3f) (at_right_l rightl1 f8-2f f9-2f f9-3f) (at_right_l rightl2 f8-2f f9-2f f9-3f) (at_two straight0 f8-3f f9-3f) (at_two straight0 f9-2f f9-3f) (at_two straight0 f9-3f f8-3f) (at_two straight0 f9-3f f9-2f) (at_two straight1 f8-3f f9-3f) (at_two straight1 f9-2f f9-3f) (at_two straight1 f9-3f f8-3f) (at_two straight1 f9-3f f9-2f) (at_two straight2 f8-3f f9-3f) (at_two straight2 f9-2f f9-3f) (at_two straight2 f9-3f f8-3f) (at_two straight2 f9-3f f9-2f) (at_two straight3 f8-3f f9-3f) (at_two straight3 f9-2f f9-3f) (at_two straight3 f9-3f f8-3f) (at_two straight3 f9-3f f9-2f) (clear f9-3f):=1:fam
 (at_right_l rightl0 f0-0f f1-0f f1-1f) (at_right_l rightl0 f0-1f f1-1f f1-2f) (at_right_l rightl0 f0-2f f1-2f f1-3f) (at_right_l rightl0 f1-0f f2-0f f2-1f) (at_right_l rightl0 f1-1f f2-1f f2-2f) (at_right_l rightl0 f1-2f f2-2f f2-3f) (at_right_l rightl0 f2-0f f3-0f f3-1f) (at_right_l rightl0 f2-1f f3-1f f3-2f) (at_right_l rightl0 f2-2f f3-2f f3-3f) (at_right_l rightl0 f3-0f f4-0f f4-1f) (at_right_l rightl0 f3-1f f4-1f f4-2f) (at_right_l rightl0 f3-2f f4-2f f4-3f) (at_right_l rightl0 f4-0f f5-0f f5-1f) (at_right_l rightl0 f4-1f f5-1f f5-2f) (at_right_l rightl0 f4-2f f5-2f f5-3f) (at_right_l rightl0 f5-0f f6-0f f6-1f) (at_right_l rightl0 f5-1f f6-1f f6-2f) (at_right_l rightl0 f5-2f f6-2f f6-3f) (at_right_l rightl0 f6-0f f7-0f f7-1f) (at_right_l rightl0 f6-1f f7-1f f7-2f) (at_right_l rightl0 f6-2f f7-2f f7-3f) (at_right_l rightl0 f7-0f f8-0f f8-1f) (at_right_l rightl0 f7-1f f8-1f f8-2f) (at_right_l rightl0 f7-2f f8-2f f8-3f) (at_right_l rightl0 f8-0f f9-0f f9-1f) (at_right_l rightl0 f8-1f f9-1f f9-2f) (at_right_l rightl0 f8-2f f9-2f f9-3f):=1:fam
 (at_right_l rightl1 f0-0f f1-0f f1-1f) (at_right_l rightl1 f0-1f f1-1f f1-2f) (at_right_l rightl1 f0-2f f1-2f f1-3f) (at_right_l rightl1 f1-0f f2-0f f2-1f) (at_right_l rightl1 f1-1f f2-1f f2-2f) (at_right_l rightl1 f1-2f f2-2f f2-3f) (at_right_l rightl1 f2-0f f3-0f f3-1f) (at_right_l rightl1 f2-1f f3-1f f3-2f) (at_right_l rightl1 f2-2f f3-2f f3-3f) (at_right_l rightl1 f3-0f f4-0f f4-1f) (at_right_l rightl1 f3-1f f4-1f f4-2f) (at_right_l rightl1 f3-2f f4-2f f4-3f) (at_right_l rightl1 f4-0f f5-0f f5-1f) (at_right_l rightl1 f4-1f f5-1f f5-2f) (at_right_l rightl1 f4-2f f5-2f f5-3f) (at_right_l rightl1 f5-0f f6-0f f6-1f) (at_right_l rightl1 f5-1f f6-1f f6-2f) (at_right_l rightl1 f5-2f f6-2f f6-3f) (at_right_l rightl1 f6-0f f7-0f f7-1f) (at_right_l rightl1 f6-1f f7-1f f7-2f) (at_right_l rightl1 f6-2f f7-2f f7-3f) (at_right_l rightl1 f7-0f f8-0f f8-1f) (at_right_l rightl1 f7-1f f8-1f f8-2f) (at_right_l rightl1 f7-2f f8-2f f8-3f) (at_right_l rightl1 f8-0f f9-0f f9-1f) (at_right_l rightl1 f8-1f f9-1f f9-2f) (at_right_l rightl1 f8-2f f9-2f f9-3f):=1:fam
 (at_right_l rightl2 f0-0f f1-0f f1-1f) (at_right_l rightl2 f0-1f f1-1f f1-2f) (at_right_l rightl2 f0-2f f1-2f f1-3f) (at_right_l rightl2 f1-0f f2-0f f2-1f) (at_right_l rightl2 f1-1f f2-1f f2-2f) (at_right_l rightl2 f1-2f f2-2f f2-3f) (at_right_l rightl2 f2-0f f3-0f f3-1f) (at_right_l rightl2 f2-1f f3-1f f3-2f) (at_right_l rightl2 f2-2f f3-2f f3-3f) (at_right_l rightl2 f3-0f f4-0f f4-1f) (at_right_l rightl2 f3-1f f4-1f f4-2f) (at_right_l rightl2 f3-2f f4-2f f4-3f) (at_right_l rightl2 f4-0f f5-0f f5-1f) (at_right_l rightl2 f4-1f f5-1f f5-2f) (at_right_l rightl2 f4-2f f5-2f f5-3f) (at_right_l rightl2 f5-0f f6-0f f6-1f) (at_right_l rightl2 f5-1f f6-1f f6-2f) (at_right_l rightl2 f5-2f f6-2f f6-3f) (at_right_l rightl2 f6-0f f7-0f f7-1f) (at_right_l rightl2 f6-1f f7-1f f7-2f) (at_right_l rightl2 f6-2f f7-2f f7-3f) (at_right_l rightl2 f7-0f f8-0f f8-1f) (at_right_l rightl2 f7-1f f8-1f f8-2f) (at_right_l rightl2 f7-2f f8-2f f8-3f) (at_right_l rightl2 f8-0f f9-0f f9-1f) (at_right_l rightl2 f8-1f f9-1f f9-2f) (at_right_l rightl2 f8-2f f9-2f f9-3f):=1:fam
 (at_right_l rightl0 f0-1f f1-1f f1-2f) (at_right_l rightl1 f0-1f f1-1f f1-2f) (at_right_l rightl2 f0-1f f1-1f f1-2f) (at_two straight0 f0-0f f0-1f) (at_two straight0 f0-1f f0-0f) (at_two straight0 f0-1f f0-2f) (at_two straight0 f0-1f f1-1f) (at_two straight0 f0-2f f0-1f) (at_two straight0 f1-1f f0-1f) (at_two straight1 f0-0f f0-1f) (at_two straight1 f0-1f f0-0f) (at_two straight1 f0-1f f0-2f) (at_two straight1 f0-1f f1-1f) (at_two straight1 f0-2f f0-1f) (at_two straight1 f1-1f f0-1f) (at_two straight2 f0-0f f0-1f) (at_two straight2 f0-1f f0-0f) (at_two straight2 f0-1f f0-2f) (at_two straight2 f0-1f f1-1f) (at_two straight2 f0-2f f0-1f) (at_two straight2 f1-1f f0-1f) (at_two straight3 f0-0f f0-1f) (at_two straight3 f0-1f f0-0f) (at_two straight3 f0-1f f0-2f) (at_two straight3 f0-1f f1-1f) (at_two straight3 f0-2f f0-1f) (at_two straight3 f1-1f f0-1f) (clear f0-1f):=1:fam:G
 (at_right_l rightl0 f0-2f f1-2f f1-3f) (at_right_l rightl1 f0-2f f1-2f f1-3f) (at_right_l rightl2 f0-2f f1-2f f1-3f) (at_two straight0 f0-1f f0-2f) (at_two straight0 f0-2f f0-1f) (at_two straight0 f0-2f f0-3f) (at_two straight0 f0-2f f1-2f) (at_two straight0 f0-3f f0-2f) (at_two straight0 f1-2f f0-2f) (at_two straight1 f0-1f f0-2f) (at_two straight1 f0-2f f0-1f) (at_two straight1 f0-2f f0-3f) (at_two straight1 f0-2f f1-2f) (at_two straight1 f0-3f f0-2f) (at_two straight1 f1-2f f0-2f) (at_two straight2 f0-1f f0-2f) (at_two straight2 f0-2f f0-1f) (at_two straight2 f0-2f f0-3f) (at_two straight2 f0-2f f1-2f) (at_two straight2 f0-3f f0-2f) (at_two straight2 f1-2f f0-2f) (at_two straight3 f0-1f f0-2f) (at_two straight3 f0-2f f0-1f) (at_two straight3 f0-2f f0-3f) (at_two straight3 f0-2f f1-2f) (at_two straight3 f0-3f f0-2f) (at_two straight3 f1-2f f0-2f) (clear f0-2f):=1:fam:G
 (at_right_l rightl0 f0-2f f1-2f f1-3f) (at_right_l rightl1 f0-2f f1-2f f1-3f) (at_right_l rightl2 f0-2f f1-2f f1-3f) (at_two straight0 f0-3f f1-3f) (at_two straight0 f1-2f f1-3f) (at_two straight0 f1-3f f0-3f) (at_two straight0 f1-3f f1-2f) (at_two straight0 f1-3f f2-3f) (at_two straight0 f2-3f f1-3f) (at_two straight1 f0-3f f1-3f) (at_two straight1 f1-2f f1-3f) (at_two straight1 f1-3f f0-3f) (at_two straight1 f1-3f f1-2f) (at_two straight1 f1-3f f2-3f) (at_two straight1 f2-3f f1-3f) (at_two straight2 f0-3f f1-3f) (at_two straight2 f1-2f f1-3f) (at_two straight2 f1-3f f0-3f) (at_two straight2 f1-3f f1-2f) (at_two straight2 f1-3f f2-3f) (at_two straight2 f2-3f f1-3f) (at_two straight3 f0-3f f1-3f) (at_two straight3 f1-2f f1-3f) (at_two straight3 f1-3f f0-3f) (at_two straight3 f1-3f f1-2f) (at_two straight3 f1-3f f2-3f) (at_two straight3 f2-3f f1-3f) (clear f1-3f):=1:fam:G
 (at_right_l rightl0 f1-2f f2-2f f2-3f) (at_right_l rightl1 f1-2f f2-2f f2-3f) (at_right_l rightl2 f1-2f f2-2f f2-3f) (at_two straight0 f1-3f f2-3f) (at_two straight0 f2-2f f2-3f) (at_two straight0 f2-3f f1-3f) (at_two straight0 f2-3f f2-2f) (at_two straight0 f2-3f f3-3f) (at_two straight0 f3-3f f2-3f) (at_two straight1 f1-3f f2-3f) (at_two straight1 f2-2f f2-3f) (at_two straight1 f2-3f f1-3f) (at_two straight1 f2-3f f2-2f) (at_two straight1 f2-3f f3-3f) (at_two straight1 f3-3f f2-3f) (at_two straight2 f1-3f f2-3f) (at_two straight2 f2-2f f2-3f) (at_two straight2 f2-3f f1-3f) (at_two straight2 f2-3f f2-2f) (at_two straight2 f2-3f f3-3f) (at_two straight2 f3-3f f2-3f) (at_two straight3 f1-3f f2-3f) (at_two straight3 f2-2f f2-3f) (at_two straight3 f2-3f f1-3f) (at_two straight3 f2-3f f2-2f) (at_two straight3 f2-3f f3-3f) (at_two straight3 f3-3f f2-3f) (clear f2-3f):=1:fam:G
 (at_right_l rightl0 f2-2f f3-2f f3-3f) (at_right_l rightl1 f2-2f f3-2f f3-3f) (at_right_l rightl2 f2-2f f3-2f f3-3f) (at_two straight0 f2-3f f3-3f) (at_two straight0 f3-2f f3-3f) (at_two straight0 f3-3f f2-3f) (at_two straight0 f3-3f f3-2f) (at_two straight0 f3-3f f4-3f) (at_two straight0 f4-3f f3-3f) (at_two straight1 f2-3f f3-3f) (at_two straight1 f3-2f f3-3f) (at_two straight1 f3-3f f2-3f) (at_two straight1 f3-3f f3-2f) (at_two straight1 f3-3f f4-3f) (at_two straight1 f4-3f f3-3f) (at_two straight2 f2-3f f3-3f) (at_two straight2 f3-2f f3-3f) (at_two straight2 f3-3f f2-3f) (at_two straight2 f3-3f f3-2f) (at_two straight2 f3-3f f4-3f) (at_two straight2 f4-3f f3-3f) (at_two straight3 f2-3f f3-3f) (at_two straight3 f3-2f f3-3f) (at_two straight3 f3-3f f2-3f) (at_two straight3 f3-3f f3-2f) (at_two straight3 f3-3f f4-3f) (at_two straight3 f4-3f f3-3f) (clear f3-3f):=1:fam:G
 (at_right_l rightl0 f3-2f f4-2f f4-3f) (at_right_l rightl1 f3-2f f4-2f f4-3f) (at_right_l rightl2 f3-2f f4-2f f4-3f) (at_two straight0 f3-3f f4-3f) (at_two straight0 f4-2f f4-3f) (at_two straight0 f4-3f f3-3f) (at_two straight0 f4-3f f4-2f) (at_two straight0 f4-3f f5-3f) (at_two straight0 f5-3f f4-3f) (at_two straight1 f3-3f f4-3f) (at_two straight1 f4-2f f4-3f) (at_two straight1 f4-3f f3-3f) (at_two straight1 f4-3f f4-2f) (at_two straight1 f4-3f f5-3f) (at_two straight1 f5-3f f4-3f) (at_two straight2 f3-3f f4-3f) (at_two straight2 f4-2f f4-3f) (at_two straight2 f4-3f f3-3f) (at_two straight2 f4-3f f4-2f) (at_two straight2 f4-3f f5-3f) (at_two straight2 f5-3f f4-3f) (at_two straight3 f3-3f f4-3f) (at_two straight3 f4-2f f4-3f) (at_two straight3 f4-3f f3-3f) (at_two straight3 f4-3f f4-2f) (at_two straight3 f4-3f f5-3f) (at_two straight3 f5-3f f4-3f) (clear f4-3f):=1:fam:G
 (at_right_l rightl0 f4-2f f5-2f f5-3f) (at_right_l rightl1 f4-2f f5-2f f5-3f) (at_right_l rightl2 f4-2f f5-2f f5-3f) (at_two straight0 f4-3f f5-3f) (at_two straight0 f5-2f f5-3f) (at_two straight0 f5-3f f4-3f) (at_two straight0 f5-3f f5-2f) (at_two straight0 f5-3f f6-3f) (at_two straight0 f6-3f f5-3f) (at_two straight1 f4-3f f5-3f) (at_two straight1 f5-2f f5-3f) (at_two straight1 f5-3f f4-3f) (at_two straight1 f5-3f f5-2f) (at_two straight1 f5-3f f6-3f) (at_two straight1 f6-3f f5-3f) (at_two straight2 f4-3f f5-3f) (at_two straight2 f5-2f f5-3f) (at_two straight2 f5-3f f4-3f) (at_two straight2 f5-3f f5-2f) (at_two straight2 f5-3f f6-3f) (at_two straight2 f6-3f f5-3f) (at_two straight3 f4-3f f5-3f) (at_two straight3 f5-2f f5-3f) (at_two straight3 f5-3f f4-3f) (at_two straight3 f5-3f f5-2f) (at_two straight3 f5-3f f6-3f) (at_two straight3 f6-3f f5-3f) (clear f5-3f):=1:fam
 (at_right_l rightl0 f5-2f f6-2f f6-3f) (at_right_l rightl1 f5-2f f6-2f f6-3f) (at_right_l rightl2 f5-2f f6-2f f6-3f) (at_two straight0 f5-3f f6-3f) (at_two straight0 f6-2f f6-3f) (at_two straight0 f6-3f f5-3f) (at_two straight0 f6-3f f6-2f) (at_two straight0 f6-3f f7-3f) (at_two straight0 f7-3f f6-3f) (at_two straight1 f5-3f f6-3f) (at_two straight1 f6-2f f6-3f) (at_two straight1 f6-3f f5-3f) (at_two straight1 f6-3f f6-2f) (at_two straight1 f6-3f f7-3f) (at_two straight1 f7-3f f6-3f) (at_two straight2 f5-3f f6-3f) (at_two straight2 f6-2f f6-3f) (at_two straight2 f6-3f f5-3f) (at_two straight2 f6-3f f6-2f) (at_two straight2 f6-3f f7-3f) (at_two straight2 f7-3f f6-3f) (at_two straight3 f5-3f f6-3f) (at_two straight3 f6-2f f6-3f) (at_two straight3 f6-3f f5-3f) (at_two straight3 f6-3f f6-2f) (at_two straight3 f6-3f f7-3f) (at_two straight3 f7-3f f6-3f) (clear f6-3f):=1:fam
 (at_right_l rightl0 f6-2f f7-2f f7-3f) (at_right_l rightl1 f6-2f f7-2f f7-3f) (at_right_l rightl2 f6-2f f7-2f f7-3f) (at_two straight0 f6-3f f7-3f) (at_two straight0 f7-2f f7-3f) (at_two straight0 f7-3f f6-3f) (at_two straight0 f7-3f f7-2f) (at_two straight0 f7-3f f8-3f) (at_two straight0 f8-3f f7-3f) (at_two straight1 f6-3f f7-3f) (at_two straight1 f7-2f f7-3f) (at_two straight1 f7-3f f6-3f) (at_two straight1 f7-3f f7-2f) (at_two straight1 f7-3f f8-3f) (at_two straight1 f8-3f f7-3f) (at_two straight2 f6-3f f7-3f) (at_two straight2 f7-2f f7-3f) (at_two straight2 f7-3f f6-3f) (at_two straight2 f7-3f f7-2f) (at_two straight2 f7-3f f8-3f) (at_two straight2 f8-3f f7-3f) (at_two straight3 f6-3f f7-3f) (at_two straight3 f7-2f f7-3f) (at_two straight3 f7-3f f6-3f) (at_two straight3 f7-3f f7-2f) (at_two straight3 f7-3f f8-3f) (at_two straight3 f8-3f f7-3f) (clear f7-3f):=1:fam
 (at_right_l rightl0 f7-2f f8-2f f8-3f) (at_right_l rightl1 f7-2f f8-2f f8-3f) (at_right_l rightl2 f7-2f f8-2f f8-3f) (at_two straight0 f7-3f f8-3f) (at_two straight0 f8-2f f8-3f) (at_two straight0 f8-3f f7-3f) (at_two straight0 f8-3f f8-2f) (at_two straight0 f8-3f f9-3f) (at_two straight0 f9-3f f8-3f) (at_two straight1 f7-3f f8-3f) (at_two straight1 f8-2f f8-3f) (at_two straight1 f8-3f f7-3f) (at_two straight1 f8-3f f8-2f) (at_two straight1 f8-3f f9-3f) (at_two straight1 f9-3f f8-3f) (at_two straight2 f7-3f f8-3f) (at_two straight2 f8-2f f8-3f) (at_two straight2 f8-3f f7-3f) (at_two straight2 f8-3f f8-2f) (at_two straight2 f8-3f f9-3f) (at_two straight2 f9-3f f8-3f) (at_two straight3 f7-3f f8-3f) (at_two straight3 f8-2f f8-3f) (at_two straight3 f8-3f f7-3f) (at_two straight3 f8-3f f8-2f) (at_two straight3 f8-3f f9-3f) (at_two straight3 f9-3f f8-3f) (clear f8-3f):=1:fam
 (at_right_l rightl0 f0-0f f1-0f f1-1f) (at_right_l rightl0 f1-0f f2-0f f2-1f) (at_right_l rightl1 f0-0f f1-0f f1-1f) (at_right_l rightl1 f1-0f f2-0f f2-1f) (at_right_l rightl2 f0-0f f1-0f f1-1f) (at_right_l rightl2 f1-0f f2-0f f2-1f) (at_two straight0 f0-0f f1-0f) (at_two straight0 f1-0f f0-0f) (at_two straight0 f1-0f f1-1f) (at_two straight0 f1-0f f2-0f) (at_two straight0 f1-1f f1-0f) (at_two straight0 f2-0f f1-0f) (at_two straight1 f0-0f f1-0f) (at_two straight1 f1-0f f0-0f) (at_two straight1 f1-0f f1-1f) (at_two straight1 f1-0f f2-0f) (at_two straight1 f1-1f f1-0f) (at_two straight1 f2-0f f1-0f) (at_two straight2 f0-0f f1-0f) (at_two straight2 f1-0f f0-0f) (at_two straight2 f1-0f f1-1f) (at_two straight2 f1-0f f2-0f) (at_two straight2 f1-1f f1-0f) (at_two straight2 f2-0f f1-0f) (at_two straight3 f0-0f f1-0f) (at_two straight3 f1-0f f0-0f) (at_two straight3 f1-0f f1-1f) (at_two straight3 f1-0f f2-0f) (at_two straight3 f1-1f f1-0f) (at_two straight3 f2-0f f1-0f) (clear f1-0f):=1:fam:G
 (at_right_l rightl0 f1-0f f2-0f f2-1f) (at_right_l rightl0 f2-0f f3-0f f3-1f) (at_right_l rightl1 f1-0f f2-0f f2-1f) (at_right_l rightl1 f2-0f f3-0f f3-1f) (at_right_l rightl2 f1-0f f2-0f f2-1f) (at_right_l rightl2 f2-0f f3-0f f3-1f) (at_two straight0 f1-0f f2-0f) (at_two straight0 f2-0f f1-0f) (at_two straight0 f2-0f f2-1f) (at_two straight0 f2-0f f3-0f) (at_two straight0 f2-1f f2-0f) (at_two straight0 f3-0f f2-0f) (at_two straight1 f1-0f f2-0f) (at_two straight1 f2-0f f1-0f) (at_two straight1 f2-0f f2-1f) (at_two straight1 f2-0f f3-0f) (at_two straight1 f2-1f f2-0f) (at_two straight1 f3-0f f2-0f) (at_two straight2 f1-0f f2-0f) (at_two straight2 f2-0f f1-0f) (at_two straight2 f2-0f f2-1f) (at_two straight2 f2-0f f3-0f) (at_two straight2 f2-1f f2-0f) (at_two straight2 f3-0f f2-0f) (at_two straight3 f1-0f f2-0f) (at_two straight3 f2-0f f1-0f) (at_two straight3 f2-0f f2-1f) (at_two straight3 f2-0f f3-0f) (at_two straight3 f2-1f f2-0f) (at_two straight3 f3-0f f2-0f) (clear f2-0f):=1:fam:G
 (at_right_l rightl0 f2-0f f3-0f f3-1f) (at_right_l rightl0 f3-0f f4-0f f4-1f) (at_right_l rightl1 f2-0f f3-0f f3-1f) (at_right_l rightl1 f3-0f f4-0f f4-1f) (at_right_l rightl2 f2-0f f3-0f f3-1f) (at_right_l rightl2 f3-0f f4-0f f4-1f) (at_two straight0 f2-0f f3-0f) (at_two straight0 f3-0f f2-0f) (at_two straight0 f3-0f f3-1f) (at_two straight0 f3-0f f4-0f) (at_two straight0 f3-1f f3-0f) (at_two straight0 f4-0f f3-0f) (at_two straight1 f2-0f f3-0f) (at_two straight1 f3-0f f2-0f) (at_two straight1 f3-0f f3-1f) (at_two straight1 f3-0f f4-0f) (at_two straight1 f3-1f f3-0f) (at_two straight1 f4-0f f3-0f) (at_two straight2 f2-0f f3-0f) (at_two straight2 f3-0f f2-0f) (at_two straight2 f3-0f f3-1f) (at_two straight2 f3-0f f4-0f) (at_two straight2 f3-1f f3-0f) (at_two straight2 f4-0f f3-0f) (at_two straight3 f2-0f f3-0f) (at_two straight3 f3-0f f2-0f) (at_two straight3 f3-0f f3-1f) (at_two straight3 f3-0f f4-0f) (at_two straight3 f3-1f f3-0f) (at_two straight3 f4-0f f3-0f) (clear f3-0f):=1:fam:G
 (at_right_l rightl0 f3-0f f4-0f f4-1f) (at_right_l rightl0 f4-0f f5-0f f5-1f) (at_right_l rightl1 f3-0f f4-0f f4-1f) (at_right_l rightl1 f4-0f f5-0f f5-1f) (at_right_l rightl2 f3-0f f4-0f f4-1f) (at_right_l rightl2 f4-0f f5-0f f5-1f) (at_two straight0 f3-0f f4-0f) (at_two straight0 f4-0f f3-0f) (at_two straight0 f4-0f f4-1f) (at_two straight0 f4-0f f5-0f) (at_two straight0 f4-1f f4-0f) (at_two straight0 f5-0f f4-0f) (at_two straight1 f3-0f f4-0f) (at_two straight1 f4-0f f3-0f) (at_two straight1 f4-0f f4-1f) (at_two straight1 f4-0f f5-0f) (at_two straight1 f4-1f f4-0f) (at_two straight1 f5-0f f4-0f) (at_two straight2 f3-0f f4-0f) (at_two straight2 f4-0f f3-0f) (at_two straight2 f4-0f f4-1f) (at_two straight2 f4-0f f5-0f) (at_two straight2 f4-1f f4-0f) (at_two straight2 f5-0f f4-0f) (at_two straight3 f3-0f f4-0f) (at_two straight3 f4-0f f3-0f) (at_two straight3 f4-0f f4-1f) (at_two straight3 f4-0f f5-0f) (at_two straight3 f4-1f f4-0f) (at_two straight3 f5-0f f4-0f) (clear f4-0f):=1:fam:G
 (at_right_l rightl0 f4-0f f5-0f f5-1f) (at_right_l rightl0 f5-0f f6-0f f6-1f) (at_right_l rightl1 f4-0f f5-0f f5-1f) (at_right_l rightl1 f5-0f f6-0f f6-1f) (at_right_l rightl2 f4-0f f5-0f f5-1f) (at_right_l rightl2 f5-0f f6-0f f6-1f) (at_two straight0 f4-0f f5-0f) (at_two straight0 f5-0f f4-0f) (at_two straight0 f5-0f f5-1f) (at_two straight0 f5-0f f6-0f) (at_two straight0 f5-1f f5-0f) (at_two straight0 f6-0f f5-0f) (at_two straight1 f4-0f f5-0f) (at_two straight1 f5-0f f4-0f) (at_two straight1 f5-0f f5-1f) (at_two straight1 f5-0f f6-0f) (at_two straight1 f5-1f f5-0f) (at_two straight1 f6-0f f5-0f) (at_two straight2 f4-0f f5-0f) (at_two straight2 f5-0f f4-0f) (at_two straight2 f5-0f f5-1f) (at_two straight2 f5-0f f6-0f) (at_two straight2 f5-1f f5-0f) (at_two straight2 f6-0f f5-0f) (at_two straight3 f4-0f f5-0f) (at_two straight3 f5-0f f4-0f) (at_two straight3 f5-0f f5-1f) (at_two straight3 f5-0f f6-0f) (at_two straight3 f5-1f f5-0f) (at_two straight3 f6-0f f5-0f) (clear f5-0f):=1:fam
 (at_right_l rightl0 f5-0f f6-0f f6-1f) (at_right_l rightl0 f6-0f f7-0f f7-1f) (at_right_l rightl1 f5-0f f6-0f f6-1f) (at_right_l rightl1 f6-0f f7-0f f7-1f) (at_right_l rightl2 f5-0f f6-0f f6-1f) (at_right_l rightl2 f6-0f f7-0f f7-1f) (at_two straight0 f5-0f f6-0f) (at_two straight0 f6-0f f5-0f) (at_two straight0 f6-0f f6-1f) (at_two straight0 f6-0f f7-0f) (at_two straight0 f6-1f f6-0f) (at_two straight0 f7-0f f6-0f) (at_two straight1 f5-0f f6-0f) (at_two straight1 f6-0f f5-0f) (at_two straight1 f6-0f f6-1f) (at_two straight1 f6-0f f7-0f) (at_two straight1 f6-1f f6-0f) (at_two straight1 f7-0f f6-0f) (at_two straight2 f5-0f f6-0f) (at_two straight2 f6-0f f5-0f) (at_two straight2 f6-0f f6-1f) (at_two straight2 f6-0f f7-0f) (at_two straight2 f6-1f f6-0f) (at_two straight2 f7-0f f6-0f) (at_two straight3 f5-0f f6-0f) (at_two straight3 f6-0f f5-0f) (at_two straight3 f6-0f f6-1f) (at_two straight3 f6-0f f7-0f) (at_two straight3 f6-1f f6-0f) (at_two straight3 f7-0f f6-0f) (clear f6-0f):=1:fam
 (at_right_l rightl0 f6-0f f7-0f f7-1f) (at_right_l rightl0 f7-0f f8-0f f8-1f) (at_right_l rightl1 f6-0f f7-0f f7-1f) (at_right_l rightl1 f7-0f f8-0f f8-1f) (at_right_l rightl2 f6-0f f7-0f f7-1f) (at_right_l rightl2 f7-0f f8-0f f8-1f) (at_two straight0 f6-0f f7-0f) (at_two straight0 f7-0f f6-0f) (at_two straight0 f7-0f f7-1f) (at_two straight0 f7-0f f8-0f) (at_two straight0 f7-1f f7-0f) (at_two straight0 f8-0f f7-0f) (at_two straight1 f6-0f f7-0f) (at_two straight1 f7-0f f6-0f) (at_two straight1 f7-0f f7-1f) (at_two straight1 f7-0f f8-0f) (at_two straight1 f7-1f f7-0f) (at_two straight1 f8-0f f7-0f) (at_two straight2 f6-0f f7-0f) (at_two straight2 f7-0f f6-0f) (at_two straight2 f7-0f f7-1f) (at_two straight2 f7-0f f8-0f) (at_two straight2 f7-1f f7-0f) (at_two straight2 f8-0f f7-0f) (at_two straight3 f6-0f f7-0f) (at_two straight3 f7-0f f6-0f) (at_two straight3 f7-0f f7-1f) (at_two straight3 f7-0f f8-0f) (at_two straight3 f7-1f f7-0f) (at_two straight3 f8-0f f7-0f) (clear f7-0f):=1:fam
 (at_right_l rightl0 f7-0f f8-0f f8-1f) (at_right_l rightl0 f8-0f f9-0f f9-1f) (at_right_l rightl1 f7-0f f8-0f f8-1f) (at_right_l rightl1 f8-0f f9-0f f9-1f) (at_right_l rightl2 f7-0f f8-0f f8-1f) (at_right_l rightl2 f8-0f f9-0f f9-1f) (at_two straight0 f7-0f f8-0f) (at_two straight0 f8-0f f7-0f) (at_two straight0 f8-0f f8-1f) (at_two straight0 f8-0f f9-0f) (at_two straight0 f8-1f f8-0f) (at_two straight0 f9-0f f8-0f) (at_two straight1 f7-0f f8-0f) (at_two straight1 f8-0f f7-0f) (at_two straight1 f8-0f f8-1f) (at_two straight1 f8-0f f9-0f) (at_two straight1 f8-1f f8-0f) (at_two straight1 f9-0f f8-0f) (at_two straight2 f7-0f f8-0f) (at_two straight2 f8-0f f7-0f) (at_two straight2 f8-0f f8-1f) (at_two straight2 f8-0f f9-0f) (at_two straight2 f8-1f f8-0f) (at_two straight2 f9-0f f8-0f) (at_two straight3 f7-0f f8-0f) (at_two straight3 f8-0f f7-0f) (at_two straight3 f8-0f f8-1f) (at_two straight3 f8-0f f9-0f) (at_two straight3 f8-1f f8-0f) (at_two straight3 f9-0f f8-0f) (clear f8-0f):=1:fam
 (at_right_l rightl0 f8-0f f9-0f f9-1f) (at_right_l rightl0 f8-1f f9-1f f9-2f) (at_right_l rightl1 f8-0f f9-0f f9-1f) (at_right_l rightl1 f8-1f f9-1f f9-2f) (at_right_l rightl2 f8-0f f9-0f f9-1f) (at_right_l rightl2 f8-1f f9-1f f9-2f) (at_two straight0 f8-1f f9-1f) (at_two straight0 f9-0f f9-1f) (at_two straight0 f9-1f f8-1f) (at_two straight0 f9-1f f9-0f) (at_two straight0 f9-1f f9-2f) (at_two straight0 f9-2f f9-1f) (at_two straight1 f8-1f f9-1f) (at_two straight1 f9-0f f9-1f) (at_two straight1 f9-1f f8-1f) (at_two straight1 f9-1f f9-0f) (at_two straight1 f9-1f f9-2f) (at_two straight1 f9-2f f9-1f) (at_two straight2 f8-1f f9-1f) (at_two straight2 f9-0f f9-1f) (at_two straight2 f9-1f f8-1f) (at_two straight2 f9-1f f9-0f) (at_two straight2 f9-1f f9-2f) (at_two straight2 f9-2f f9-1f) (at_two straight3 f8-1f f9-1f) (at_two straight3 f9-0f f9-1f) (at_two straight3 f9-1f f8-1f) (at_two straight3 f9-1f f9-0f) (at_two straight3 f9-1f f9-2f) (at_two straight3 f9-2f f9-1f) (clear f9-1f):=1:fam
 (at_right_l rightl0 f8-1f f9-1f f9-2f) (at_right_l rightl0 f8-2f f9-2f f9-3f) (at_right_l rightl1 f8-1f f9-1f f9-2f) (at_right_l rightl1 f8-2f f9-2f f9-3f) (at_right_l rightl2 f8-1f f9-1f f9-2f) (at_right_l rightl2 f8-2f f9-2f f9-3f) (at_two straight0 f8-2f f9-2f) (at_two straight0 f9-1f f9-2f) (at_two straight0 f9-2f f8-2f) (at_two straight0 f9-2f f9-1f) (at_two straight0 f9-2f f9-3f) (at_two straight0 f9-3f f9-2f) (at_two straight1 f8-2f f9-2f) (at_two straight1 f9-1f f9-2f) (at_two straight1 f9-2f f8-2f) (at_two straight1 f9-2f f9-1f) (at_two straight1 f9-2f f9-3f) (at_two straight1 f9-3f f9-2f) (at_two straight2 f8-2f f9-2f) (at_two straight2 f9-1f f9-2f) (at_two straight2 f9-2f f8-2f) (at_two straight2 f9-2f f9-1f) (at_two straight2 f9-2f f9-3f) (at_two straight2 f9-3f f9-2f) (at_two straight3 f8-2f f9-2f) (at_two straight3 f9-1f f9-2f) (at_two straight3 f9-2f f8-2f) (at_two straight3 f9-2f f9-1f) (at_two straight3 f9-2f f9-3f) (at_two straight3 f9-3f f9-2f) (clear f9-2f):=1:fam
 (at_right_l rightl0 f0-0f f1-0f f1-1f) (at_right_l rightl0 f0-1f f1-1f f1-2f) (at_right_l rightl0 f1-1f f2-1f f2-2f) (at_right_l rightl1 f0-0f f1-0f f1-1f) (at_right_l rightl1 f0-1f f1-1f f1-2f) (at_right_l rightl1 f1-1f f2-1f f2-2f) (at_right_l rightl2 f0-0f f1-0f f1-1f) (at_right_l rightl2 f0-1f f1-1f f1-2f) (at_right_l rightl2 f1-1f f2-1f f2-2f) (at_two straight0 f0-1f f1-1f) (at_two straight0 f1-0f f1-1f) (at_two straight0 f1-1f f0-1f) (at_two straight0 f1-1f f1-0f) (at_two straight0 f1-1f f1-2f) (at_two straight0 f1-1f f2-1f) (at_two straight0 f1-2f f1-1f) (at_two straight0 f2-1f f1-1f) (at_two straight1 f0-1f f1-1f) (at_two straight1 f1-0f f1-1f) (at_two straight1 f1-1f f0-1f) (at_two straight1 f1-1f f1-0f) (at_two straight1 f1-1f f1-2f) (at_two straight1 f1-1f f2-1f) (at_two straight1 f1-2f f1-1f) (at_two straight1 f2-1f f1-1f) (at_two straight2 f0-1f f1-1f) (at_two straight2 f1-0f f1-1f) (at_two straight2 f1-1f f0-1f) (at_two straight2 f1-1f f1-0f) (at_two straight2 f1-1f f1-2f) (at_two straight2 f1-1f f2-1f) (at_two straight2 f1-2f f1-1f) (at_two straight2 f2-1f f1-1f) (at_two straight3 f0-1f f1-1f) (at_two straight3 f1-0f f1-1f) (at_two straight3 f1-1f f0-1f) (at_two straight3 f1-1f f1-0f) (at_two straight3 f1-1f f1-2f) (at_two straight3 f1-1f f2-1f) (at_two straight3 f1-2f f1-1f) (at_two straight3 f2-1f f1-1f) (clear f1-1f):=1:fam:G
 (at_right_l rightl0 f0-1f f1-1f f1-2f) (at_right_l rightl0 f0-2f f1-2f f1-3f) (at_right_l rightl0 f1-2f f2-2f f2-3f) (at_right_l rightl1 f0-1f f1-1f f1-2f) (at_right_l rightl1 f0-2f f1-2f f1-3f) (at_right_l rightl1 f1-2f f2-2f f2-3f) (at_right_l rightl2 f0-1f f1-1f f1-2f) (at_right_l rightl2 f0-2f f1-2f f1-3f) (at_right_l rightl2 f1-2f f2-2f f2-3f) (at_two straight0 f0-2f f1-2f) (at_two straight0 f1-1f f1-2f) (at_two straight0 f1-2f f0-2f) (at_two straight0 f1-2f f1-1f) (at_two straight0 f1-2f f1-3f) (at_two straight0 f1-2f f2-2f) (at_two straight0 f1-3f f1-2f) (at_two straight0 f2-2f f1-2f) (at_two straight1 f0-2f f1-2f) (at_two straight1 f1-1f f1-2f) (at_two straight1 f1-2f f0-2f) (at_two straight1 f1-2f f1-1f) (at_two straight1 f1-2f f1-3f) (at_two straight1 f1-2f f2-2f) (at_two straight1 f1-3f f1-2f) (at_two straight1 f2-2f f1-2f) (at_two straight2 f0-2f f1-2f) (at_two straight2 f1-1f f1-2f) (at_two straight2 f1-2f f0-2f) (at_two straight2 f1-2f f1-1f) (at_two straight2 f1-2f f1-3f) (at_two straight2 f1-2f f2-2f) (at_two straight2 f1-3f f1-2f) (at_two straight2 f2-2f f1-2f) (at_two straight3 f0-2f f1-2f) (at_two straight3 f1-1f f1-2f) (at_two straight3 f1-2f f0-2f) (at_two straight3 f1-2f f1-1f) (at_two straight3 f1-2f f1-3f) (at_two straight3 f1-2f f2-2f) (at_two straight3 f1-3f f1-2f) (at_two straight3 f2-2f f1-2f) (clear f1-2f):=1:fam:G
 (at_right_l rightl0 f1-0f f2-0f f2-1f) (at_right_l rightl0 f1-1f f2-1f f2-2f) (at_right_l rightl0 f2-1f f3-1f f3-2f) (at_right_l rightl1 f1-0f f2-0f f2-1f) (at_right_l rightl1 f1-1f f2-1f f2-2f) (at_right_l rightl1 f2-1f f3-1f f3-2f) (at_right_l rightl2 f1-0f f2-0f f2-1f) (at_right_l rightl2 f1-1f f2-1f f2-2f) (at_right_l rightl2 f2-1f f3-1f f3-2f) (at_two straight0 f1-1f f2-1f) (at_two straight0 f2-0f f2-1f) (at_two straight0 f2-1f f1-1f) (at_two straight0 f2-1f f2-0f) (at_two straight0 f2-1f f2-2f) (at_two straight0 f2-1f f3-1f) (at_two straight0 f2-2f f2-1f) (at_two straight0 f3-1f f2-1f) (at_two straight1 f1-1f f2-1f) (at_two straight1 f2-0f f2-1f) (at_two straight1 f2-1f f1-1f) (at_two straight1 f2-1f f2-0f) (at_two straight1 f2-1f f2-2f) (at_two straight1 f2-1f f3-1f) (at_two straight1 f2-2f f2-1f) (at_two straight1 f3-1f f2-1f) (at_two straight2 f1-1f f2-1f) (at_two straight2 f2-0f f2-1f) (at_two straight2 f2-1f f1-1f) (at_two straight2 f2-1f f2-0f) (at_two straight2 f2-1f f2-2f) (at_two straight2 f2-1f f3-1f) (at_two straight2 f2-2f f2-1f) (at_two straight2 f3-1f f2-1f) (at_two straight3 f1-1f f2-1f) (at_two straight3 f2-0f f2-1f) (at_two straight3 f2-1f f1-1f) (at_two straight3 f2-1f f2-0f) (at_two straight3 f2-1f f2-2f) (at_two straight3 f2-1f f3-1f) (at_two straight3 f2-2f f2-1f) (at_two straight3 f3-1f f2-1f) (clear f2-1f):=1:fam:G
 (at_right_l rightl0 f1-1f f2-1f f2-2f) (at_right_l rightl0 f1-2f f2-2f f2-3f) (at_right_l rightl0 f2-2f f3-2f f3-3f) (at_right_l rightl1 f1-1f f2-1f f2-2f) (at_right_l rightl1 f1-2f f2-2f f2-3f) (at_right_l rightl1 f2-2f f3-2f f3-3f) (at_right_l rightl2 f1-1f f2-1f f2-2f) (at_right_l rightl2 f1-2f f2-2f f2-3f) (at_right_l rightl2 f2-2f f3-2f f3-3f) (at_two straight0 f1-2f f2-2f) (at_two straight0 f2-1f f2-2f) (at_two straight0 f2-2f f1-2f) (at_two straight0 f2-2f f2-1f) (at_two straight0 f2-2f f2-3f) (at_two straight0 f2-2f f3-2f) (at_two straight0 f2-3f f2-2f) (at_two straight0 f3-2f f2-2f) (at_two straight1 f1-2f f2-2f) (at_two straight1 f2-1f f2-2f) (at_two straight1 f2-2f f1-2f) (at_two straight1 f2-2f f2-1f) (at_two straight1 f2-2f f2-3f) (at_two straight1 f2-2f f3-2f) (at_two straight1 f2-3f f2-2f) (at_two straight1 f3-2f f2-2f) (at_two straight2 f1-2f f2-2f) (at_two straight2 f2-1f f2-2f) (at_two straight2 f2-2f f1-2f) (at_two straight2 f2-2f f2-1f) (at_two straight2 f2-2f f2-3f) (at_two straight2 f2-2f f3-2f) (at_two straight2 f2-3f f2-2f) (at_two straight2 f3-2f f2-2f) (at_two straight3 f1-2f f2-2f) (at_two straight3 f2-1f f2-2f) (at_two straight3 f2-2f f1-2f) (at_two straight3 f2-2f f2-1f) (at_two straight3 f2-2f f2-3f) (at_two straight3 f2-2f f3-2f) (at_two straight3 f2-3f f2-2f) (at_two straight3 f3-2f f2-2f) (clear f2-2f):=1:fam:G
 (at_right_l rightl0 f2-0f f3-0f f3-1f) (at_right_l rightl0 f2-1f f3-1f f3-2f) (at_right_l rightl0 f3-1f f4-1f f4-2f) (at_right_l rightl1 f2-0f f3-0f f3-1f) (at_right_l rightl1 f2-1f f3-1f f3-2f) (at_right_l rightl1 f3-1f f4-1f f4-2f) (at_right_l rightl2 f2-0f f3-0f f3-1f) (at_right_l rightl2 f2-1f f3-1f f3-2f) (at_right_l rightl2 f3-1f f4-1f f4-2f) (at_two straight0 f2-1f f3-1f) (at_two straight0 f3-0f f3-1f) (at_two straight0 f3-1f f2-1f) (at_two straight0 f3-1f f3-0f) (at_two straight0 f3-1f f3-2f) (at_two straight0 f3-1f f4-1f) (at_two straight0 f3-2f f3-1f) (at_two straight0 f4-1f f3-1f) (at_two straight1 f2-1f f3-1f) (at_two straight1 f3-0f f3-1f) (at_two straight1 f3-1f f2-1f) (at_two straight1 f3-1f f3-0f) (at_two straight1 f3-1f f3-2f) (at_two straight1 f3-1f f4-1f) (at_two straight1 f3-2f f3-1f) (at_two straight1 f4-1f f3-1f) (at_two straight2 f2-1f f3-1f) (at_two straight2 f3-0f f3-1f) (at_two straight2 f3-1f f2-1f) (at_two straight2 f3-1f f3-0f) (at_two straight2 f3-1f f3-2f) (at_two straight2 f3-1f f4-1f) (at_two straight2 f3-2f f3-1f) (at_two straight2 f4-1f f3-1f) (at_two straight3 f2-1f f3-1f) (at_two straight3 f3-0f f3-1f) (at_two straight3 f3-1f f2-1f) (at_two straight3 f3-1f f3-0f) (at_two straight3 f3-1f f3-2f) (at_two straight3 f3-1f f4-1f) (at_two straight3 f3-2f f3-1f) (at_two straight3 f4-1f f3-1f) (clear f3-1f):=1:fam:G
 (at_right_l rightl0 f2-1f f3-1f f3-2f) (at_right_l rightl0 f2-2f f3-2f f3-3f) (at_right_l rightl0 f3-2f f4-2f f4-3f) (at_right_l rightl1 f2-1f f3-1f f3-2f) (at_right_l rightl1 f2-2f f3-2f f3-3f) (at_right_l rightl1 f3-2f f4-2f f4-3f) (at_right_l rightl2 f2-1f f3-1f f3-2f) (at_right_l rightl2 f2-2f f3-2f f3-3f) (at_right_l rightl2 f3-2f f4-2f f4-3f) (at_two straight0 f2-2f f3-2f) (at_two straight0 f3-1f f3-2f) (at_two straight0 f3-2f f2-2f) (at_two straight0 f3-2f f3-1f) (at_two straight0 f3-2f f3-3f) (at_two straight0 f3-2f f4-2f) (at_two straight0 f3-3f f3-2f) (at_two straight0 f4-2f f3-2f) (at_two straight1 f2-2f f3-2f) (at_two straight1 f3-1f f3-2f) (at_two straight1 f3-2f f2-2f) (at_two straight1 f3-2f f3-1f) (at_two straight1 f3-2f f3-3f) (at_two straight1 f3-2f f4-2f) (at_two straight1 f3-3f f3-2f) (at_two straight1 f4-2f f3-2f) (at_two straight2 f2-2f f3-2f) (at_two straight2 f3-1f f3-2f) (at_two straight2 f3-2f f2-2f) (at_two straight2 f3-2f f3-1f) (at_two straight2 f3-2f f3-3f) (at_two straight2 f3-2f f4-2f) (at_two straight2 f3-3f f3-2f) (at_two straight2 f4-2f f3-2f) (at_two straight3 f2-2f f3-2f) (at_two straight3 f3-1f f3-2f) (at_two straight3 f3-2f f2-2f) (at_two straight3 f3-2f f3-1f) (at_two straight3 f3-2f f3-3f) (at_two straight3 f3-2f f4-2f) (at_two straight3 f3-3f f3-2f) (at_two straight3 f4-2f f3-2f) (clear f3-2f):=1:fam:G
 (at_right_l rightl0 f3-0f f4-0f f4-1f) (at_right_l rightl0 f3-1f f4-1f f4-2f) (at_right_l rightl0 f4-1f f5-1f f5-2f) (at_right_l rightl1 f3-0f f4-0f f4-1f) (at_right_l rightl1 f3-1f f4-1f f4-2f) (at_right_l rightl1 f4-1f f5-1f f5-2f) (at_right_l rightl2 f3-0f f4-0f f4-1f) (at_right_l rightl2 f3-1f f4-1f f4-2f) (at_right_l rightl2 f4-1f f5-1f f5-2f) (at_two straight0 f3-1f f4-1f) (at_two straight0 f4-0f f4-1f) (at_two straight0 f4-1f f3-1f) (at_two straight0 f4-1f f4-0f) (at_two straight0 f4-1f f4-2f) (at_two straight0 f4-1f f5-1f) (at_two straight0 f4-2f f4-1f) (at_two straight0 f5-1f f4-1f) (at_two straight1 f3-1f f4-1f) (at_two straight1 f4-0f f4-1f) (at_two straight1 f4-1f f3-1f) (at_two straight1 f4-1f f4-0f) (at_two straight1 f4-1f f4-2f) (at_two straight1 f4-1f f5-1f) (at_two straight1 f4-2f f4-1f) (at_two straight1 f5-1f f4-1f) (at_two straight2 f3-1f f4-1f) (at_two straight2 f4-0f f4-1f) (at_two straight2 f4-1f f3-1f) (at_two straight2 f4-1f f4-0f) (at_two straight2 f4-1f f4-2f) (at_two straight2 f4-1f f5-1f) (at_two straight2 f4-2f f4-1f) (at_two straight2 f5-1f f4-1f) (at_two straight3 f3-1f f4-1f) (at_two straight3 f4-0f f4-1f) (at_two straight3 f4-1f f3-1f) (at_two straight3 f4-1f f4-0f) (at_two straight3 f4-1f f4-2f) (at_two straight3 f4-1f f5-1f) (at_two straight3 f4-2f f4-1f) (at_two straight3 f5-1f f4-1f) (clear f4-1f):=1:fam:G
 (at_right_l rightl0 f3-1f f4-1f f4-2f) (at_right_l rightl0 f3-2f f4-2f f4-3f) (at_right_l rightl0 f4-2f f5-2f f5-3f) (at_right_l rightl1 f3-1f f4-1f f4-2f) (at_right_l rightl1 f3-2f f4-2f f4-3f) (at_right_l rightl1 f4-2f f5-2f f5-3f) (at_right_l rightl2 f3-1f f4-1f f4-2f) (at_right_l rightl2 f3-2f f4-2f f4-3f) (at_right_l rightl2 f4-2f f5-2f f5-3f) (at_two straight0 f3-2f f4-2f) (at_two straight0 f4-1f f4-2f) (at_two straight0 f4-2f f3-2f) (at_two straight0 f4-2f f4-1f) (at_two straight0 f4-2f f4-3f) (at_two straight0 f4-2f f5-2f) (at_two straight0 f4-3f f4-2f) (at_two straight0 f5-2f f4-2f) (at_two straight1 f3-2f f4-2f) (at_two straight1 f4-1f f4-2f) (at_two straight1 f4-2f f3-2f) (at_two straight1 f4-2f f4-1f) (at_two straight1 f4-2f f4-3f) (at_two straight1 f4-2f f5-2f) (at_two straight1 f4-3f f4-2f) (at_two straight1 f5-2f f4-2f) (at_two straight2 f3-2f f4-2f) (at_two straight2 f4-1f f4-2f) (at_two straight2 f4-2f f3-2f) (at_two straight2 f4-2f f4-1f) (at_two straight2 f4-2f f4-3f) (at_two straight2 f4-2f f5-2f) (at_two straight2 f4-3f f4-2f) (at_two straight2 f5-2f f4-2f) (at_two straight3 f3-2f f4-2f) (at_two straight3 f4-1f f4-2f) (at_two straight3 f4-2f f3-2f) (at_two straight3 f4-2f f4-1f) (at_two straight3 f4-2f f4-3f) (at_two straight3 f4-2f f5-2f) (at_two straight3 f4-3f f4-2f) (at_two straight3 f5-2f f4-2f) (clear f4-2f):=1:fam:G
 (at_right_l rightl0 f4-0f f5-0f f5-1f) (at_right_l rightl0 f4-1f f5-1f f5-2f) (at_right_l rightl0 f5-1f f6-1f f6-2f) (at_right_l rightl1 f4-0f f5-0f f5-1f) (at_right_l rightl1 f4-1f f5-1f f5-2f) (at_right_l rightl1 f5-1f f6-1f f6-2f) (at_right_l rightl2 f4-0f f5-0f f5-1f) (at_right_l rightl2 f4-1f f5-1f f5-2f) (at_right_l rightl2 f5-1f f6-1f f6-2f) (at_two straight0 f4-1f f5-1f) (at_two straight0 f5-0f f5-1f) (at_two straight0 f5-1f f4-1f) (at_two straight0 f5-1f f5-0f) (at_two straight0 f5-1f f5-2f) (at_two straight0 f5-1f f6-1f) (at_two straight0 f5-2f f5-1f) (at_two straight0 f6-1f f5-1f) (at_two straight1 f4-1f f5-1f) (at_two straight1 f5-0f f5-1f) (at_two straight1 f5-1f f4-1f) (at_two straight1 f5-1f f5-0f) (at_two straight1 f5-1f f5-2f) (at_two straight1 f5-1f f6-1f) (at_two straight1 f5-2f f5-1f) (at_two straight1 f6-1f f5-1f) (at_two straight2 f4-1f f5-1f) (at_two straight2 f5-0f f5-1f) (at_two straight2 f5-1f f4-1f) (at_two straight2 f5-1f f5-0f) (at_two straight2 f5-1f f5-2f) (at_two straight2 f5-1f f6-1f) (at_two straight2 f5-2f f5-1f) (at_two straight2 f6-1f f5-1f) (at_two straight3 f4-1f f5-1f) (at_two straight3 f5-0f f5-1f) (at_two straight3 f5-1f f4-1f) (at_two straight3 f5-1f f5-0f) (at_two straight3 f5-1f f5-2f) (at_two straight3 f5-1f f6-1f) (at_two straight3 f5-2f f5-1f) (at_two straight3 f6-1f f5-1f) (clear f5-1f):=1:fam
 (at_right_l rightl0 f4-1f f5-1f f5-2f) (at_right_l rightl0 f4-2f f5-2f f5-3f) (at_right_l rightl0 f5-2f f6-2f f6-3f) (at_right_l rightl1 f4-1f f5-1f f5-2f) (at_right_l rightl1 f4-2f f5-2f f5-3f) (at_right_l rightl1 f5-2f f6-2f f6-3f) (at_right_l rightl2 f4-1f f5-1f f5-2f) (at_right_l rightl2 f4-2f f5-2f f5-3f) (at_right_l rightl2 f5-2f f6-2f f6-3f) (at_two straight0 f4-2f f5-2f) (at_two straight0 f5-1f f5-2f) (at_two straight0 f5-2f f4-2f) (at_two straight0 f5-2f f5-1f) (at_two straight0 f5-2f f5-3f) (at_two straight0 f5-2f f6-2f) (at_two straight0 f5-3f f5-2f) (at_two straight0 f6-2f f5-2f) (at_two straight1 f4-2f f5-2f) (at_two straight1 f5-1f f5-2f) (at_two straight1 f5-2f f4-2f) (at_two straight1 f5-2f f5-1f) (at_two straight1 f5-2f f5-3f) (at_two straight1 f5-2f f6-2f) (at_two straight1 f5-3f f5-2f) (at_two straight1 f6-2f f5-2f) (at_two straight2 f4-2f f5-2f) (at_two straight2 f5-1f f5-2f) (at_two straight2 f5-2f f4-2f) (at_two straight2 f5-2f f5-1f) (at_two straight2 f5-2f f5-3f) (at_two straight2 f5-2f f6-2f) (at_two straight2 f5-3f f5-2f) (at_two straight2 f6-2f f5-2f) (at_two straight3 f4-2f f5-2f) (at_two straight3 f5-1f f5-2f) (at_two straight3 f5-2f f4-2f) (at_two straight3 f5-2f f5-1f) (at_two straight3 f5-2f f5-3f) (at_two straight3 f5-2f f6-2f) (at_two straight3 f5-3f f5-2f) (at_two straight3 f6-2f f5-2f) (clear f5-2f):=1:fam
 (at_right_l rightl0 f5-0f f6-0f f6-1f) (at_right_l rightl0 f5-1f f6-1f f6-2f) (at_right_l rightl0 f6-1f f7-1f f7-2f) (at_right_l rightl1 f5-0f f6-0f f6-1f) (at_right_l rightl1 f5-1f f6-1f f6-2f) (at_right_l rightl1 f6-1f f7-1f f7-2f) (at_right_l rightl2 f5-0f f6-0f f6-1f) (at_right_l rightl2 f5-1f f6-1f f6-2f) (at_right_l rightl2 f6-1f f7-1f f7-2f) (at_two straight0 f5-1f f6-1f) (at_two straight0 f6-0f f6-1f) (at_two straight0 f6-1f f5-1f) (at_two straight0 f6-1f f6-0f) (at_two straight0 f6-1f f6-2f) (at_two straight0 f6-1f f7-1f) (at_two straight0 f6-2f f6-1f) (at_two straight0 f7-1f f6-1f) (at_two straight1 f5-1f f6-1f) (at_two straight1 f6-0f f6-1f) (at_two straight1 f6-1f f5-1f) (at_two straight1 f6-1f f6-0f) (at_two straight1 f6-1f f6-2f) (at_two straight1 f6-1f f7-1f) (at_two straight1 f6-2f f6-1f) (at_two straight1 f7-1f f6-1f) (at_two straight2 f5-1f f6-1f) (at_two straight2 f6-0f f6-1f) (at_two straight2 f6-1f f5-1f) (at_two straight2 f6-1f f6-0f) (at_two straight2 f6-1f f6-2f) (at_two straight2 f6-1f f7-1f) (at_two straight2 f6-2f f6-1f) (at_two straight2 f7-1f f6-1f) (at_two straight3 f5-1f f6-1f) (at_two straight3 f6-0f f6-1f) (at_two straight3 f6-1f f5-1f) (at_two straight3 f6-1f f6-0f) (at_two straight3 f6-1f f6-2f) (at_two straight3 f6-1f f7-1f) (at_two straight3 f6-2f f6-1f) (at_two straight3 f7-1f f6-1f) (clear f6-1f):=1:fam
 (at_right_l rightl0 f5-1f f6-1f f6-2f) (at_right_l rightl0 f5-2f f6-2f f6-3f) (at_right_l rightl0 f6-2f f7-2f f7-3f) (at_right_l rightl1 f5-1f f6-1f f6-2f) (at_right_l rightl1 f5-2f f6-2f f6-3f) (at_right_l rightl1 f6-2f f7-2f f7-3f) (at_right_l rightl2 f5-1f f6-1f f6-2f) (at_right_l rightl2 f5-2f f6-2f f6-3f) (at_right_l rightl2 f6-2f f7-2f f7-3f) (at_two straight0 f5-2f f6-2f) (at_two straight0 f6-1f f6-2f) (at_two straight0 f6-2f f5-2f) (at_two straight0 f6-2f f6-1f) (at_two straight0 f6-2f f6-3f) (at_two straight0 f6-2f f7-2f) (at_two straight0 f6-3f f6-2f) (at_two straight0 f7-2f f6-2f) (at_two straight1 f5-2f f6-2f) (at_two straight1 f6-1f f6-2f) (at_two straight1 f6-2f f5-2f) (at_two straight1 f6-2f f6-1f) (at_two straight1 f6-2f f6-3f) (at_two straight1 f6-2f f7-2f) (at_two straight1 f6-3f f6-2f) (at_two straight1 f7-2f f6-2f) (at_two straight2 f5-2f f6-2f) (at_two straight2 f6-1f f6-2f) (at_two straight2 f6-2f f5-2f) (at_two straight2 f6-2f f6-1f) (at_two straight2 f6-2f f6-3f) (at_two straight2 f6-2f f7-2f) (at_two straight2 f6-3f f6-2f) (at_two straight2 f7-2f f6-2f) (at_two straight3 f5-2f f6-2f) (at_two straight3 f6-1f f6-2f) (at_two straight3 f6-2f f5-2f) (at_two straight3 f6-2f f6-1f) (at_two straight3 f6-2f f6-3f) (at_two straight3 f6-2f f7-2f) (at_two straight3 f6-3f f6-2f) (at_two straight3 f7-2f f6-2f) (clear f6-2f):=1:fam
 (at_right_l rightl0 f6-0f f7-0f f7-1f) (at_right_l rightl0 f6-1f f7-1f f7-2f) (at_right_l rightl0 f7-1f f8-1f f8-2f) (at_right_l rightl1 f6-0f f7-0f f7-1f) (at_right_l rightl1 f6-1f f7-1f f7-2f) (at_right_l rightl1 f7-1f f8-1f f8-2f) (at_right_l rightl2 f6-0f f7-0f f7-1f) (at_right_l rightl2 f6-1f f7-1f f7-2f) (at_right_l rightl2 f7-1f f8-1f f8-2f) (at_two straight0 f6-1f f7-1f) (at_two straight0 f7-0f f7-1f) (at_two straight0 f7-1f f6-1f) (at_two straight0 f7-1f f7-0f) (at_two straight0 f7-1f f7-2f) (at_two straight0 f7-1f f8-1f) (at_two straight0 f7-2f f7-1f) (at_two straight0 f8-1f f7-1f) (at_two straight1 f6-1f f7-1f) (at_two straight1 f7-0f f7-1f) (at_two straight1 f7-1f f6-1f) (at_two straight1 f7-1f f7-0f) (at_two straight1 f7-1f f7-2f) (at_two straight1 f7-1f f8-1f) (at_two straight1 f7-2f f7-1f) (at_two straight1 f8-1f f7-1f) (at_two straight2 f6-1f f7-1f) (at_two straight2 f7-0f f7-1f) (at_two straight2 f7-1f f6-1f) (at_two straight2 f7-1f f7-0f) (at_two straight2 f7-1f f7-2f) (at_two straight2 f7-1f f8-1f) (at_two straight2 f7-2f f7-1f) (at_two straight2 f8-1f f7-1f) (at_two straight3 f6-1f f7-1f) (at_two straight3 f7-0f f7-1f) (at_two straight3 f7-1f f6-1f) (at_two straight3 f7-1f f7-0f) (at_two straight3 f7-1f f7-2f) (at_two straight3 f7-1f f8-1f) (at_two straight3 f7-2f f7-1f) (at_two straight3 f8-1f f7-1f) (clear f7-1f):=1:fam
 (at_right_l rightl0 f6-1f f7-1f f7-2f) (at_right_l rightl0 f6-2f f7-2f f7-3f) (at_right_l rightl0 f7-2f f8-2f f8-3f) (at_right_l rightl1 f6-1f f7-1f f7-2f) (at_right_l rightl1 f6-2f f7-2f f7-3f) (at_right_l rightl1 f7-2f f8-2f f8-3f) (at_right_l rightl2 f6-1f f7-1f f7-2f) (at_right_l rightl2 f6-2f f7-2f f7-3f) (at_right_l rightl2 f7-2f f8-2f f8-3f) (at_two straight0 f6-2f f7-2f) (at_two straight0 f7-1f f7-2f) (at_two straight0 f7-2f f6-2f) (at_two straight0 f7-2f f7-1f) (at_two straight0 f7-2f f7-3f) (at_two straight0 f7-2f f8-2f) (at_two straight0 f7-3f f7-2f) (at_two straight0 f8-2f f7-2f) (at_two straight1 f6-2f f7-2f) (at_two straight1 f7-1f f7-2f) (at_two straight1 f7-2f f6-2f) (at_two straight1 f7-2f f7-1f) (at_two straight1 f7-2f f7-3f) (at_two straight1 f7-2f f8-2f) (at_two straight1 f7-3f f7-2f) (at_two straight1 f8-2f f7-2f) (at_two straight2 f6-2f f7-2f) (at_two straight2 f7-1f f7-2f) (at_two straight2 f7-2f f6-2f) (at_two straight2 f7-2f f7-1f) (at_two straight2 f7-2f f7-3f) (at_two straight2 f7-2f f8-2f) (at_two straight2 f7-3f f7-2f) (at_two straight2 f8-2f f7-2f) (at_two straight3 f6-2f f7-2f) (at_two straight3 f7-1f f7-2f) (at_two straight3 f7-2f f6-2f) (at_two straight3 f7-2f f7-1f) (at_two straight3 f7-2f f7-3f) (at_two straight3 f7-2f f8-2f) (at_two straight3 f7-3f f7-2f) (at_two straight3 f8-2f f7-2f) (clear f7-2f):=1:fam
 (at_right_l rightl0 f7-0f f8-0f f8-1f) (at_right_l rightl0 f7-1f f8-1f f8-2f) (at_right_l rightl0 f8-1f f9-1f f9-2f) (at_right_l rightl1 f7-0f f8-0f f8-1f) (at_right_l rightl1 f7-1f f8-1f f8-2f) (at_right_l rightl1 f8-1f f9-1f f9-2f) (at_right_l rightl2 f7-0f f8-0f f8-1f) (at_right_l rightl2 f7-1f f8-1f f8-2f) (at_right_l rightl2 f8-1f f9-1f f9-2f) (at_two straight0 f7-1f f8-1f) (at_two straight0 f8-0f f8-1f) (at_two straight0 f8-1f f7-1f) (at_two straight0 f8-1f f8-0f) (at_two straight0 f8-1f f8-2f) (at_two straight0 f8-1f f9-1f) (at_two straight0 f8-2f f8-1f) (at_two straight0 f9-1f f8-1f) (at_two straight1 f7-1f f8-1f) (at_two straight1 f8-0f f8-1f) (at_two straight1 f8-1f f7-1f) (at_two straight1 f8-1f f8-0f) (at_two straight1 f8-1f f8-2f) (at_two straight1 f8-1f f9-1f) (at_two straight1 f8-2f f8-1f) (at_two straight1 f9-1f f8-1f) (at_two straight2 f7-1f f8-1f) (at_two straight2 f8-0f f8-1f) (at_two straight2 f8-1f f7-1f) (at_two straight2 f8-1f f8-0f) (at_two straight2 f8-1f f8-2f) (at_two straight2 f8-1f f9-1f) (at_two straight2 f8-2f f8-1f) (at_two straight2 f9-1f f8-1f) (at_two straight3 f7-1f f8-1f) (at_two straight3 f8-0f f8-1f) (at_two straight3 f8-1f f7-1f) (at_two straight3 f8-1f f8-0f) (at_two straight3 f8-1f f8-2f) (at_two straight3 f8-1f f9-1f) (at_two straight3 f8-2f f8-1f) (at_two straight3 f9-1f f8-1f) (clear f8-1f):=1:fam
 (at_right_l rightl0 f7-1f f8-1f f8-2f) (at_right_l rightl0 f7-2f f8-2f f8-3f) (at_right_l rightl0 f8-2f f9-2f f9-3f) (at_right_l rightl1 f7-1f f8-1f f8-2f) (at_right_l rightl1 f7-2f f8-2f f8-3f) (at_right_l rightl1 f8-2f f9-2f f9-3f) (at_right_l rightl2 f7-1f f8-1f f8-2f) (at_right_l rightl2 f7-2f f8-2f f8-3f) (at_right_l rightl2 f8-2f f9-2f f9-3f) (at_two straight0 f7-2f f8-2f) (at_two straight0 f8-1f f8-2f) (at_two straight0 f8-2f f7-2f) (at_two straight0 f8-2f f8-1f) (at_two straight0 f8-2f f8-3f) (at_two straight0 f8-2f f9-2f) (at_two straight0 f8-3f f8-2f) (at_two straight0 f9-2f f8-2f) (at_two straight1 f7-2f f8-2f) (at_two straight1 f8-1f f8-2f) (at_two straight1 f8-2f f7-2f) (at_two straight1 f8-2f f8-1f) (at_two straight1 f8-2f f8-3f) (at_two straight1 f8-2f f9-2f) (at_two straight1 f8-3f f8-2f) (at_two straight1 f9-2f f8-2f) (at_two straight2 f7-2f f8-2f) (at_two straight2 f8-1f f8-2f) (at_two straight2 f8-2f f7-2f) (at_two straight2 f8-2f f8-1f) (at_two straight2 f8-2f f8-3f) (at_two straight2 f8-2f f9-2f) (at_two straight2 f8-3f f8-2f) (at_two straight2 f9-2f f8-2f) (at_two straight3 f7-2f f8-2f) (at_two straight3 f8-1f f8-2f) (at_two straight3 f8-2f f7-2f) (at_two straight3 f8-2f f8-1f) (at_two straight3 f8-2f f8-3f) (at_two straight3 f8-2f f9-2f) (at_two straight3 f8-3f f8-2f) (at_two straight3 f9-2f f8-2f) (clear f8-2f):=1:fam
 (at_two straight0 f0-0f f0-1f) (at_two straight0 f0-0f f1-0f) (at_two straight0 f0-1f f0-0f) (at_two straight0 f0-1f f0-2f) (at_two straight0 f0-1f f1-1f) (at_two straight0 f0-2f f0-1f) (at_two straight0 f0-2f f0-3f) (at_two straight0 f0-2f f1-2f) (at_two straight0 f0-3f f0-2f) (at_two straight0 f0-3f f1-3f) (at_two straight0 f1-0f f0-0f) (at_two straight0 f1-0f f1-1f) (at_two straight0 f1-0f f2-0f) (at_two straight0 f1-1f f0-1f) (at_two straight0 f1-1f f1-0f) (at_two straight0 f1-1f f1-2f) (at_two straight0 f1-1f f2-1f) (at_two straight0 f1-2f f0-2f) (at_two straight0 f1-2f f1-1f) (at_two straight0 f1-2f f1-3f) (at_two straight0 f1-2f f2-2f) (at_two straight0 f1-3f f0-3f) (at_two straight0 f1-3f f1-2f) (at_two straight0 f1-3f f2-3f) (at_two straight0 f2-0f f1-0f) (at_two straight0 f2-0f f2-1f) (at_two straight0 f2-0f f3-0f) (at_two straight0 f2-1f f1-1f) (at_two straight0 f2-1f f2-0f) (at_two straight0 f2-1f f2-2f) (at_two straight0 f2-1f f3-1f) (at_two straight0 f2-2f f1-2f) (at_two straight0 f2-2f f2-1f) (at_two straight0 f2-2f f2-3f) (at_two straight0 f2-2f f3-2f) (at_two straight0 f2-3f f1-3f) (at_two straight0 f2-3f f2-2f) (at_two straight0 f2-3f f3-3f) (at_two straight0 f3-0f f2-0f) (at_two straight0 f3-0f f3-1f) (at_two straight0 f3-0f f4-0f) (at_two straight0 f3-1f f2-1f) (at_two straight0 f3-1f f3-0f) (at_two straight0 f3-1f f3-2f) (at_two straight0 f3-1f f4-1f) (at_two straight0 f3-2f f2-2f) (at_two straight0 f3-2f f3-1f) (at_two straight0 f3-2f f3-3f) (at_two straight0 f3-2f f4-2f) (at_two straight0 f3-3f f2-3f) (at_two straight0 f3-3f f3-2f) (at_two straight0 f3-3f f4-3f) (at_two straight0 f4-0f f3-0f) (at_two straight0 f4-0f f4-1f) (at_two straight0 f4-0f f5-0f) (at_two straight0 f4-1f f3-1f) (at_two straight0 f4-1f f4-0f) (at_two straight0 f4-1f f4-2f) (at_two straight0 f4-1f f5-1f) (at_two straight0 f4-2f f3-2f) (at_two straight0 f4-2f f4-1f) (at_two straight0 f4-2f f4-3f) (at_two straight0 f4-2f f5-2f) (at_two straight0 f4-3f f3-3f) (at_two straight0 f4-3f f4-2f) (at_two straight0 f4-3f f5-3f) (at_two straight0 f5-0f f4-0f) (at_two straight0 f5-0f f5-1f) (at_two straight0 f5-0f f6-0f) (at_two straight0 f5-1f f4-1f) (at_two straight0 f5-1f f5-0f) (at_two straight0 f5-1f f5-2f) (at_two straight0 f5-1f f6-1f) (at_two straight0 f5-2f f4-2f) (at_two straight0 f5-2f f5-1f) (at_two straight0 f5-2f f5-3f) (at_two straight0 f5-2f f6-2f) (at_two straight0 f5-3f f4-3f) (at_two straight0 f5-3f f5-2f) (at_two straight0 f5-3f f6-3f) (at_two straight0 f6-0f f5-0f) (at_two straight0 f6-0f f6-1f) (at_two straight0 f6-0f f7-0f) (at_two straight0 f6-1f f5-1f) (at_two straight0 f6-1f f6-0f) (at_two straight0 f6-1f f6-2f) (at_two straight0 f6-1f f7-1f) (at_two straight0 f6-2f f5-2f) (at_two straight0 f6-2f f6-1f) (at_two straight0 f6-2f f6-3f) (at_two straight0 f6-2f f7-2f) (at_two straight0 f6-3f f5-3f) (at_two straight0 f6-3f f6-2f) (at_two straight0 f6-3f f7-3f) (at_two straight0 f7-0f f6-0f) (at_two straight0 f7-0f f7-1f) (at_two straight0 f7-0f f8-0f) (at_two straight0 f7-1f f6-1f) (at_two straight0 f7-1f f7-0f) (at_two straight0 f7-1f f7-2f) (at_two straight0 f7-1f f8-1f) (at_two straight0 f7-2f f6-2f) (at_two straight0 f7-2f f7-1f) (at_two straight0 f7-2f f7-3f) (at_two straight0 f7-2f f8-2f) (at_two straight0 f7-3f f6-3f) (at_two straight0 f7-3f f7-2f) (at_two straight0 f7-3f f8-3f) (at_two straight0 f8-0f f7-0f) (at_two straight0 f8-0f f8-1f) (at_two straight0 f8-0f f9-0f) (at_two straight0 f8-1f f7-1f) (at_two straight0 f8-1f f8-0f) (at_two straight0 f8-1f f8-2f) (at_two straight0 f8-1f f9-1f) (at_two straight0 f8-2f f7-2f) (at_two straight0 f8-2f f8-1f) (at_two straight0 f8-2f f8-3f) (at_two straight0 f8-2f f9-2f) (at_two straight0 f8-3f f7-3f) (at_two straight0 f8-3f f8-2f) (at_two straight0 f8-3f f9-3f) (at_two straight0 f9-0f f8-0f) (at_two straight0 f9-0f f9-1f) (at_two straight0 f9-1f f8-1f) (at_two straight0 f9-1f f9-0f) (at_two straight0 f9-1f f9-2f) (at_two straight0 f9-2f f8-2f) (at_two straight0 f9-2f f9-1f) (at_two straight0 f9-2f f9-3f) (at_two straight0 f9-3f f8-3f) (at_two straight0 f9-3f f9-2f):=1:fam
 (at_two straight2 f0-0f f0-1f) (at_two straight2 f0-0f f1-0f) (at_two straight2 f0-1f f0-0f) (at_two straight2 f0-1f f0-2f) (at_two straight2 f0-1f f1-1f) (at_two straight2 f0-2f f0-1f) (at_two straight2 f0-2f f0-3f) (at_two straight2 f0-2f f1-2f) (at_two straight2 f0-3f f0-2f) (at_two straight2 f0-3f f1-3f) (at_two straight2 f1-0f f0-0f) (at_two straight2 f1-0f f1-1f) (at_two straight2 f1-0f f2-0f) (at_two straight2 f1-1f f0-1f) (at_two straight2 f1-1f f1-0f) (at_two straight2 f1-1f f1-2f) (at_two straight2 f1-1f f2-1f) (at_two straight2 f1-2f f0-2f) (at_two straight2 f1-2f f1-1f) (at_two straight2 f1-2f f1-3f) (at_two straight2 f1-2f f2-2f) (at_two straight2 f1-3f f0-3f) (at_two straight2 f1-3f f1-2f) (at_two straight2 f1-3f f2-3f) (at_two straight2 f2-0f f1-0f) (at_two straight2 f2-0f f2-1f) (at_two straight2 f2-0f f3-0f) (at_two straight2 f2-1f f1-1f) (at_two straight2 f2-1f f2-0f) (at_two straight2 f2-1f f2-2f) (at_two straight2 f2-1f f3-1f) (at_two straight2 f2-2f f1-2f) (at_two straight2 f2-2f f2-1f) (at_two straight2 f2-2f f2-3f) (at_two straight2 f2-2f f3-2f) (at_two straight2 f2-3f f1-3f) (at_two straight2 f2-3f f2-2f) (at_two straight2 f2-3f f3-3f) (at_two straight2 f3-0f f2-0f) (at_two straight2 f3-0f f3-1f) (at_two straight2 f3-0f f4-0f) (at_two straight2 f3-1f f2-1f) (at_two straight2 f3-1f f3-0f) (at_two straight2 f3-1f f3-2f) (at_two straight2 f3-1f f4-1f) (at_two straight2 f3-2f f2-2f) (at_two straight2 f3-2f f3-1f) (at_two straight2 f3-2f f3-3f) (at_two straight2 f3-2f f4-2f) (at_two straight2 f3-3f f2-3f) (at_two straight2 f3-3f f3-2f) (at_two straight2 f3-3f f4-3f) (at_two straight2 f4-0f f3-0f) (at_two straight2 f4-0f f4-1f) (at_two straight2 f4-0f f5-0f) (at_two straight2 f4-1f f3-1f) (at_two straight2 f4-1f f4-0f) (at_two straight2 f4-1f f4-2f) (at_two straight2 f4-1f f5-1f) (at_two straight2 f4-2f f3-2f) (at_two straight2 f4-2f f4-1f) (at_two straight2 f4-2f f4-3f) (at_two straight2 f4-2f f5-2f) (at_two straight2 f4-3f f3-3f) (at_two straight2 f4-3f f4-2f) (at_two straight2 f4-3f f5-3f) (at_two straight2 f5-0f f4-0f) (at_two straight2 f5-0f f5-1f) (at_two straight2 f5-0f f6-0f) (at_two straight2 f5-1f f4-1f) (at_two straight2 f5-1f f5-0f) (at_two straight2 f5-1f f5-2f) (at_two straight2 f5-1f f6-1f) (at_two straight2 f5-2f f4-2f) (at_two straight2 f5-2f f5-1f) (at_two straight2 f5-2f f5-3f) (at_two straight2 f5-2f f6-2f) (at_two straight2 f5-3f f4-3f) (at_two straight2 f5-3f f5-2f) (at_two straight2 f5-3f f6-3f) (at_two straight2 f6-0f f5-0f) (at_two straight2 f6-0f f6-1f) (at_two straight2 f6-0f f7-0f) (at_two straight2 f6-1f f5-1f) (at_two straight2 f6-1f f6-0f) (at_two straight2 f6-1f f6-2f) (at_two straight2 f6-1f f7-1f) (at_two straight2 f6-2f f5-2f) (at_two straight2 f6-2f f6-1f) (at_two straight2 f6-2f f6-3f) (at_two straight2 f6-2f f7-2f) (at_two straight2 f6-3f f5-3f) (at_two straight2 f6-3f f6-2f) (at_two straight2 f6-3f f7-3f) (at_two straight2 f7-0f f6-0f) (at_two straight2 f7-0f f7-1f) (at_two straight2 f7-0f f8-0f) (at_two straight2 f7-1f f6-1f) (at_two straight2 f7-1f f7-0f) (at_two straight2 f7-1f f7-2f) (at_two straight2 f7-1f f8-1f) (at_two straight2 f7-2f f6-2f) (at_two straight2 f7-2f f7-1f) (at_two straight2 f7-2f f7-3f) (at_two straight2 f7-2f f8-2f) (at_two straight2 f7-3f f6-3f) (at_two straight2 f7-3f f7-2f) (at_two straight2 f7-3f f8-3f) (at_two straight2 f8-0f f7-0f) (at_two straight2 f8-0f f8-1f) (at_two straight2 f8-0f f9-0f) (at_two straight2 f8-1f f7-1f) (at_two straight2 f8-1f f8-0f) (at_two straight2 f8-1f f8-2f) (at_two straight2 f8-1f f9-1f) (at_two straight2 f8-2f f7-2f) (at_two straight2 f8-2f f8-1f) (at_two straight2 f8-2f f8-3f) (at_two straight2 f8-2f f9-2f) (at_two straight2 f8-3f f7-3f) (at_two straight2 f8-3f f8-2f) (at_two straight2 f8-3f f9-3f) (at_two straight2 f9-0f f8-0f) (at_two straight2 f9-0f f9-1f) (at_two straight2 f9-1f f8-1f) (at_two straight2 f9-1f f9-0f) (at_two straight2 f9-1f f9-2f) (at_two straight2 f9-2f f8-2f) (at_two straight2 f9-2f f9-1f) (at_two straight2 f9-2f f9-3f) (at_two straight2 f9-3f f8-3f) (at_two straight2 f9-3f f9-2f):=1:fam
 (at_two straight1 f0-0f f0-1f) (at_two straight1 f0-0f f1-0f) (at_two straight1 f0-1f f0-0f) (at_two straight1 f0-1f f0-2f) (at_two straight1 f0-1f f1-1f) (at_two straight1 f0-2f f0-1f) (at_two straight1 f0-2f f0-3f) (at_two straight1 f0-2f f1-2f) (at_two straight1 f0-3f f0-2f) (at_two straight1 f0-3f f1-3f) (at_two straight1 f1-0f f0-0f) (at_two straight1 f1-0f f1-1f) (at_two straight1 f1-0f f2-0f) (at_two straight1 f1-1f f0-1f) (at_two straight1 f1-1f f1-0f) (at_two straight1 f1-1f f1-2f) (at_two straight1 f1-1f f2-1f) (at_two straight1 f1-2f f0-2f) (at_two straight1 f1-2f f1-1f) (at_two straight1 f1-2f f1-3f) (at_two straight1 f1-2f f2-2f) (at_two straight1 f1-3f f0-3f) (at_two straight1 f1-3f f1-2f) (at_two straight1 f1-3f f2-3f) (at_two straight1 f2-0f f1-0f) (at_two straight1 f2-0f f2-1f) (at_two straight1 f2-0f f3-0f) (at_two straight1 f2-1f f1-1f) (at_two straight1 f2-1f f2-0f) (at_two straight1 f2-1f f2-2f) (at_two straight1 f2-1f f3-1f) (at_two straight1 f2-2f f1-2f) (at_two straight1 f2-2f f2-1f) (at_two straight1 f2-2f f2-3f) (at_two straight1 f2-2f f3-2f) (at_two straight1 f2-3f f1-3f) (at_two straight1 f2-3f f2-2f) (at_two straight1 f2-3f f3-3f) (at_two straight1 f3-0f f2-0f) (at_two straight1 f3-0f f3-1f) (at_two straight1 f3-0f f4-0f) (at_two straight1 f3-1f f2-1f) (at_two straight1 f3-1f f3-0f) (at_two straight1 f3-1f f3-2f) (at_two straight1 f3-1f f4-1f) (at_two straight1 f3-2f f2-2f) (at_two straight1 f3-2f f3-1f) (at_two straight1 f3-2f f3-3f) (at_two straight1 f3-2f f4-2f) (at_two straight1 f3-3f f2-3f) (at_two straight1 f3-3f f3-2f) (at_two straight1 f3-3f f4-3f) (at_two straight1 f4-0f f3-0f) (at_two straight1 f4-0f f4-1f) (at_two straight1 f4-0f f5-0f) (at_two straight1 f4-1f f3-1f) (at_two straight1 f4-1f f4-0f) (at_two straight1 f4-1f f4-2f) (at_two straight1 f4-1f f5-1f) (at_two straight1 f4-2f f3-2f) (at_two straight1 f4-2f f4-1f) (at_two straight1 f4-2f f4-3f) (at_two straight1 f4-2f f5-2f) (at_two straight1 f4-3f f3-3f) (at_two straight1 f4-3f f4-2f) (at_two straight1 f4-3f f5-3f) (at_two straight1 f5-0f f4-0f) (at_two straight1 f5-0f f5-1f) (at_two straight1 f5-0f f6-0f) (at_two straight1 f5-1f f4-1f) (at_two straight1 f5-1f f5-0f) (at_two straight1 f5-1f f5-2f) (at_two straight1 f5-1f f6-1f) (at_two straight1 f5-2f f4-2f) (at_two straight1 f5-2f f5-1f) (at_two straight1 f5-2f f5-3f) (at_two straight1 f5-2f f6-2f) (at_two straight1 f5-3f f4-3f) (at_two straight1 f5-3f f5-2f) (at_two straight1 f5-3f f6-3f) (at_two straight1 f6-0f f5-0f) (at_two straight1 f6-0f f6-1f) (at_two straight1 f6-0f f7-0f) (at_two straight1 f6-1f f5-1f) (at_two straight1 f6-1f f6-0f) (at_two straight1 f6-1f f6-2f) (at_two straight1 f6-1f f7-1f) (at_two straight1 f6-2f f5-2f) (at_two straight1 f6-2f f6-1f) (at_two straight1 f6-2f f6-3f) (at_two straight1 f6-2f f7-2f) (at_two straight1 f6-3f f5-3f) (at_two straight1 f6-3f f6-2f) (at_two straight1 f6-3f f7-3f) (at_two straight1 f7-0f f6-0f) (at_two straight1 f7-0f f7-1f) (at_two straight1 f7-0f f8-0f) (at_two straight1 f7-1f f6-1f) (at_two straight1 f7-1f f7-0f) (at_two straight1 f7-1f f7-2f) (at_two straight1 f7-1f f8-1f) (at_two straight1 f7-2f f6-2f) (at_two straight1 f7-2f f7-1f) (at_two straight1 f7-2f f7-3f) (at_two straight1 f7-2f f8-2f) (at_two straight1 f7-3f f6-3f) (at_two straight1 f7-3f f7-2f) (at_two straight1 f7-3f f8-3f) (at_two straight1 f8-0f f7-0f) (at_two straight1 f8-0f f8-1f) (at_two straight1 f8-0f f9-0f) (at_two straight1 f8-1f f7-1f) (at_two straight1 f8-1f f8-0f) (at_two straight1 f8-1f f8-2f) (at_two straight1 f8-1f f9-1f) (at_two straight1 f8-2f f7-2f) (at_two straight1 f8-2f f8-1f) (at_two straight1 f8-2f f8-3f) (at_two straight1 f8-2f f9-2f) (at_two straight1 f8-3f f7-3f) (at_two straight1 f8-3f f8-2f) (at_two straight1 f8-3f f9-3f) (at_two straight1 f9-0f f8-0f) (at_two straight1 f9-0f f9-1f) (at_two straight1 f9-1f f8-1f) (at_two straight1 f9-1f f9-0f) (at_two straight1 f9-1f f9-2f) (at_two straight1 f9-2f f8-2f) (at_two straight1 f9-2f f9-1f) (at_two straight1 f9-2f f9-3f) (at_two straight1 f9-3f f8-3f) (at_two straight1 f9-3f f9-2f):=1:fam
 (at_two straight3 f0-0f f0-1f) (at_two straight3 f0-0f f1-0f) (at_two straight3 f0-1f f0-0f) (at_two straight3 f0-1f f0-2f) (at_two straight3 f0-1f f1-1f) (at_two straight3 f0-2f f0-1f) (at_two straight3 f0-2f f0-3f) (at_two straight3 f0-2f f1-2f) (at_two straight3 f0-3f f0-2f) (at_two straight3 f0-3f f1-3f) (at_two straight3 f1-0f f0-0f) (at_two straight3 f1-0f f1-1f) (at_two straight3 f1-0f f2-0f) (at_two straight3 f1-1f f0-1f) (at_two straight3 f1-1f f1-0f) (at_two straight3 f1-1f f1-2f) (at_two straight3 f1-1f f2-1f) (at_two straight3 f1-2f f0-2f) (at_two straight3 f1-2f f1-1f) (at_two straight3 f1-2f f1-3f) (at_two straight3 f1-2f f2-2f) (at_two straight3 f1-3f f0-3f) (at_two straight3 f1-3f f1-2f) (at_two straight3 f1-3f f2-3f) (at_two straight3 f2-0f f1-0f) (at_two straight3 f2-0f f2-1f) (at_two straight3 f2-0f f3-0f) (at_two straight3 f2-1f f1-1f) (at_two straight3 f2-1f f2-0f) (at_two straight3 f2-1f f2-2f) (at_two straight3 f2-1f f3-1f) (at_two straight3 f2-2f f1-2f) (at_two straight3 f2-2f f2-1f) (at_two straight3 f2-2f f2-3f) (at_two straight3 f2-2f f3-2f) (at_two straight3 f2-3f f1-3f) (at_two straight3 f2-3f f2-2f) (at_two straight3 f2-3f f3-3f) (at_two straight3 f3-0f f2-0f) (at_two straight3 f3-0f f3-1f) (at_two straight3 f3-0f f4-0f) (at_two straight3 f3-1f f2-1f) (at_two straight3 f3-1f f3-0f) (at_two straight3 f3-1f f3-2f) (at_two straight3 f3-1f f4-1f) (at_two straight3 f3-2f f2-2f) (at_two straight3 f3-2f f3-1f) (at_two straight3 f3-2f f3-3f) (at_two straight3 f3-2f f4-2f) (at_two straight3 f3-3f f2-3f) (at_two straight3 f3-3f f3-2f) (at_two straight3 f3-3f f4-3f) (at_two straight3 f4-0f f3-0f) (at_two straight3 f4-0f f4-1f) (at_two straight3 f4-0f f5-0f) (at_two straight3 f4-1f f3-1f) (at_two straight3 f4-1f f4-0f) (at_two straight3 f4-1f f4-2f) (at_two straight3 f4-1f f5-1f) (at_two straight3 f4-2f f3-2f) (at_two straight3 f4-2f f4-1f) (at_two straight3 f4-2f f4-3f) (at_two straight3 f4-2f f5-2f) (at_two straight3 f4-3f f3-3f) (at_two straight3 f4-3f f4-2f) (at_two straight3 f4-3f f5-3f) (at_two straight3 f5-0f f4-0f) (at_two straight3 f5-0f f5-1f) (at_two straight3 f5-0f f6-0f) (at_two straight3 f5-1f f4-1f) (at_two straight3 f5-1f f5-0f) (at_two straight3 f5-1f f5-2f) (at_two straight3 f5-1f f6-1f) (at_two straight3 f5-2f f4-2f) (at_two straight3 f5-2f f5-1f) (at_two straight3 f5-2f f5-3f) (at_two straight3 f5-2f f6-2f) (at_two straight3 f5-3f f4-3f) (at_two straight3 f5-3f f5-2f) (at_two straight3 f5-3f f6-3f) (at_two straight3 f6-0f f5-0f) (at_two straight3 f6-0f f6-1f) (at_two straight3 f6-0f f7-0f) (at_two straight3 f6-1f f5-1f) (at_two straight3 f6-1f f6-0f) (at_two straight3 f6-1f f6-2f) (at_two straight3 f6-1f f7-1f) (at_two straight3 f6-2f f5-2f) (at_two straight3 f6-2f f6-1f) (at_two straight3 f6-2f f6-3f) (at_two straight3 f6-2f f7-2f) (at_two straight3 f6-3f f5-3f) (at_two straight3 f6-3f f6-2f) (at_two straight3 f6-3f f7-3f) (at_two straight3 f7-0f f6-0f) (at_two straight3 f7-0f f7-1f) (at_two straight3 f7-0f f8-0f) (at_two straight3 f7-1f f6-1f) (at_two straight3 f7-1f f7-0f) (at_two straight3 f7-1f f7-2f) (at_two straight3 f7-1f f8-1f) (at_two straight3 f7-2f f6-2f) (at_two straight3 f7-2f f7-1f) (at_two straight3 f7-2f f7-3f) (at_two straight3 f7-2f f8-2f) (at_two straight3 f7-3f f6-3f) (at_two straight3 f7-3f f7-2f) (at_two straight3 f7-3f f8-3f) (at_two straight3 f8-0f f7-0f) (at_two straight3 f8-0f f8-1f) (at_two straight3 f8-0f f9-0f) (at_two straight3 f8-1f f7-1f) (at_two straight3 f8-1f f8-0f) (at_two straight3 f8-1f f8-2f) (at_two straight3 f8-1f f9-1f) (at_two straight3 f8-2f f7-2f) (at_two straight3 f8-2f f8-1f) (at_two straight3 f8-2f f8-3f) (at_two straight3 f8-2f f9-2f) (at_two straight3 f8-3f f7-3f) (at_two straight3 f8-3f f8-2f) (at_two straight3 f8-3f f9-3f) (at_two straight3 f9-0f f8-0f) (at_two straight3 f9-0f f9-1f) (at_two straight3 f9-1f f8-1f) (at_two straight3 f9-1f f9-0f) (at_two straight3 f9-1f f9-2f) (at_two straight3 f9-2f f8-2f) (at_two straight3 f9-2f f9-1f) (at_two straight3 f9-2f f9-3f) (at_two straight3 f9-3f f8-3f) (at_two straight3 f9-3f f9-2f):=1:fam

