Reduced 37 -> 27
Domain: woodworking
Problem: wood-prob
Require: 200ff
Type[18]:
    [0]: object, parent: -1
    [1]: acolour, parent: 0
    [2]: awood, parent: 0
    [3]: woodobj, parent: 0
    [4]: machine, parent: 0
    [5]: surface, parent: 0
    [6]: treatmentstatus, parent: 0
    [7]: aboardsize, parent: 0
    [8]: apartsize, parent: 0
    [9]: highspeed-saw, parent: 4
    [10]: glazer, parent: 4
    [11]: grinder, parent: 4
    [12]: immersion-varnisher, parent: 4
    [13]: planer, parent: 4
    [14]: saw, parent: 4
    [15]: spray-varnisher, parent: 4
    [16]: board, parent: 3
    [17]: part, parent: 3
Obj-by-Type:
    [0]: 0 1 2 3 4 5 6 7 8 9 10 11 12 13 14 15 16 17 18 19 20 21 22 23 24 25 26
    [1]: 4 15 16 17 18
    [2]: 19 20
    [3]: 21 22 23 24 25
    [4]: 8 9 10 11 12 13 14
    [5]: 0 1 2
    [6]: 3
    [7]: 26
    [8]: 5 6 7
    [9]: 12
    [10]: 9
    [11]: 8
    [12]: 10
    [13]: 11
    [14]: 14
    [15]: 13
    [16]: 24 25
    [17]: 21 22 23
Obj[27]:
    [0]: verysmooth, type: 5, is-constant: 1, is-private: 0, owner: -1, is-agent: 0
    [1]: smooth, type: 5, is-constant: 1, is-private: 0, owner: -1, is-agent: 0
    [2]: rough, type: 5, is-constant: 1, is-private: 0, owner: -1, is-agent: 0
    [3]: varnished, type: 6, is-constant: 1, is-private: 0, owner: -1, is-agent: 0
    [4]: natural, type: 1, is-constant: 1, is-private: 0, owner: -1, is-agent: 0
    [5]: small, type: 8, is-constant: 1, is-private: 0, owner: -1, is-agent: 0
    [6]: medium, type: 8, is-constant: 1, is-private: 0, owner: -1, is-agent: 0
    [7]: large, type: 8, is-constant: 1, is-private: 0, owner: -1, is-agent: 0
    [8]: grinder0, type: 11, is-constant: 0, is-private: 0, owner: -1, is-agent: 0
    [9]: glazer0, type: 10, is-constant: 0, is-private: 0, owner: -1, is-agent: 0
    [10]: immersion-varnisher0, type: 12, is-constant: 0, is-private: 0, owner: -1, is-agent: 0
    [11]: planer0, type: 13, is-constant: 0, is-private: 0, owner: -1, is-agent: 0
    [12]: highspeed-saw0, type: 9, is-constant: 0, is-private: 0, owner: -1, is-agent: 0
    [13]: spray-varnisher0, type: 15, is-constant: 0, is-private: 0, owner: -1, is-agent: 0
    [14]: saw0, type: 14, is-constant: 0, is-private: 0, owner: -1, is-agent: 0
    [15]: green, type: 1, is-constant: 0, is-private: 0, owner: -1, is-agent: 0
    [16]: white, type: 1, is-constant: 0, is-private: 0, owner: -1, is-agent: 0
    [17]: red, type: 1, is-constant: 0, is-private: 0, owner: -1, is-agent: 0
    [18]: black, type: 1, is-constant: 0, is-private: 0, owner: -1, is-agent: 0
    [19]: teak, type: 2, is-constant: 0, is-private: 0, owner: -1, is-agent: 0
    [20]: mahogany, type: 2, is-constant: 0, is-private: 0, owner: -1, is-agent: 0
    [21]: p0, type: 17, is-constant: 0, is-private: 0, owner: -1, is-agent: 0
    [22]: p1, type: 17, is-constant: 0, is-private: 0, owner: -1, is-agent: 0
    [23]: p3, type: 17, is-constant: 0, is-private: 0, owner: -1, is-agent: 0
    [24]: b0, type: 16, is-constant: 0, is-private: 0, owner: -1, is-agent: 0
    [25]: b1, type: 16, is-constant: 0, is-private: 0, owner: -1, is-agent: 0
    [26]: s0, type: 7, is-constant: 0, is-private: 0, owner: -1, is-agent: 0
Predicate[16]:
    =: 0 0 :: is-private: 0, owner-param: -1, read: 0, write: 0
    unused: 17 :: is-private: 0, owner-param: -1, read: 1, write: 1
    available: 3 :: is-private: 0, owner-param: -1, read: 1, write: 1
    surface-condition: 3 5 :: is-private: 0, owner-param: -1, read: 1, write: 1
    treatment: 17 6 :: is-private: 0, owner-param: -1, read: 1, write: 1
    colour: 17 1 :: is-private: 0, owner-param: -1, read: 1, write: 1
    wood: 3 2 :: is-private: 0, owner-param: -1, read: 1, write: 1
    boardsize: 16 7 :: is-private: 0, owner-param: -1, read: 1, write: 1
    goalsize: 17 8 :: is-private: 0, owner-param: -1, read: 1, write: 0
    boardsize-successor: 7 7 :: is-private: 0, owner-param: -1, read: 1, write: 0
    in-highspeed-saw: 16 9 :: is-private: 0, owner-param: -1, read: 1, write: 1
    empty: 9 :: is-private: 0, owner-param: -1, read: 1, write: 1
    has-colour: 4 1 :: is-private: 0, owner-param: -1, read: 1, write: 0
    contains-part: 16 17 :: is-private: 0, owner-param: -1, read: 0, write: 0
    grind-treatment-change: 6 6 :: is-private: 0, owner-param: -1, read: 1, write: 0
    is-smooth: 5 :: is-private: 0, owner-param: -1, read: 1, write: 0
Function[5]:
    total-cost: :: is-private: 0, owner-param: -1, read: 0, write: 0
    spray-varnish-cost: 17 :: is-private: 0, owner-param: -1, read: 0, write: 0
    glaze-cost: 17 :: is-private: 0, owner-param: -1, read: 0, write: 0
    grind-cost: 17 :: is-private: 0, owner-param: -1, read: 0, write: 0
    plane-cost: 17 :: is-private: 0, owner-param: -1, read: 0, write: 0
Action[13]:
    do-immersion-varnish: ?x:17 ?m:12 ?newcolour:1 ?surface:5
        pre: (and (RW:available ?x) (R:has-colour ?m ?newcolour) (RW:surface-condition ?x ?surface) (R:is-smooth ?surface) (RW:treatment ?x varnished))
        eff: (and (increase (total-cost) 10) (RW:treatment ?x varnished) (RW:colour ?x ?newcolour))
    do-spray-varnish: ?x:17 ?m:15 ?newcolour:1 ?surface:5
        pre: (and (RW:available ?x) (R:has-colour ?m ?newcolour) (RW:surface-condition ?x ?surface) (R:is-smooth ?surface) (RW:treatment ?x varnished))
        eff: (and (increase (total-cost) (spray-varnish-cost ?x)) (RW:treatment ?x varnished) (RW:colour ?x ?newcolour))
    do-glaze: ?x:17 ?m:10 ?newcolour:1
        pre: (and (RW:available ?x) (R:has-colour ?m ?newcolour) (RW:treatment ?x varnished))
        eff: (and (increase (total-cost) (glaze-cost ?x)) (RW:treatment ?x varnished) (RW:colour ?x ?newcolour))
    do-grind: ?x:17 ?m:11 ?oldsurface:5 ?oldcolour:1 ?oldtreatment:6 ?newtreatment:6
        pre: (and (RW:available ?x) (RW:surface-condition ?x ?oldsurface) (R:is-smooth ?oldsurface) (RW:colour ?x ?oldcolour) (RW:treatment ?x ?oldtreatment) (R:grind-treatment-change ?oldtreatment ?newtreatment))
        eff: (and (increase (total-cost) (grind-cost ?x)) (RW:surface-condition ?x verysmooth) (RW:treatment ?x ?newtreatment) (RW:colour ?x natural))
    do-plane: ?x:17 ?m:13 ?oldsurface:5 ?oldcolour:1 ?oldtreatment:6
        pre: (and (RW:available ?x) (RW:surface-condition ?x ?oldsurface) (RW:treatment ?x ?oldtreatment) (RW:colour ?x ?oldcolour))
        eff: (and (increase (total-cost) (plane-cost ?x)) (RW:surface-condition ?x smooth) (RW:treatment ?x varnished) (RW:colour ?x natural))
    load-highspeed-saw: ?b:16 ?m:9
        pre: (and (RW:empty ?m) (RW:available ?b))
        eff: (and (increase (total-cost) 30) (N:RW:available ?b) (N:RW:empty ?m) (RW:in-highspeed-saw ?b ?m))
    unload-highspeed-saw: ?b:16 ?m:9
        pre: (and (RW:in-highspeed-saw ?b ?m))
        eff: (and (increase (total-cost) 10) (RW:available ?b) (N:RW:in-highspeed-saw ?b ?m) (RW:empty ?m))
    cut-board-small: ?b:16 ?p:17 ?m:9 ?w:2 ?surface:5 ?size_before:7 ?size_after:7
        pre: (and (RW:unused ?p) (R:goalsize ?p small) (RW:in-highspeed-saw ?b ?m) (RW:wood ?b ?w) (RW:surface-condition ?b ?surface) (RW:boardsize ?b ?size_before) (R:boardsize-successor ?size_after ?size_before))
        eff: (and (increase (total-cost) 10) (RW:available ?p) (RW:wood ?p ?w) (RW:surface-condition ?p ?surface) (RW:colour ?p natural) (RW:treatment ?p varnished) (RW:boardsize ?b ?size_after))
    cut-board-medium: ?b:16 ?p:17 ?m:9 ?w:2 ?surface:5 ?size_before:7 ?s1:7 ?size_after:7
        pre: (and (RW:unused ?p) (R:goalsize ?p medium) (RW:in-highspeed-saw ?b ?m) (RW:wood ?b ?w) (RW:surface-condition ?b ?surface) (RW:boardsize ?b ?size_before) (R:boardsize-successor ?size_after ?s1) (R:boardsize-successor ?s1 ?size_before))
        eff: (and (increase (total-cost) 10) (RW:available ?p) (RW:wood ?p ?w) (RW:surface-condition ?p ?surface) (RW:colour ?p natural) (RW:treatment ?p varnished) (RW:boardsize ?b ?size_after))
    cut-board-large: ?b:16 ?p:17 ?m:9 ?w:2 ?surface:5 ?size_before:7 ?s1:7 ?s2:7 ?size_after:7
        pre: (and (RW:unused ?p) (R:goalsize ?p large) (RW:in-highspeed-saw ?b ?m) (RW:wood ?b ?w) (RW:surface-condition ?b ?surface) (RW:boardsize ?b ?size_before) (R:boardsize-successor ?size_after ?s1) (R:boardsize-successor ?s1 ?s2) (R:boardsize-successor ?s2 ?size_before))
        eff: (and (increase (total-cost) 10) (RW:available ?p) (RW:wood ?p ?w) (RW:surface-condition ?p ?surface) (RW:colour ?p natural) (RW:treatment ?p varnished) (RW:boardsize ?b ?size_after))
    do-saw-small: ?b:16 ?p:17 ?m:14 ?w:2 ?surface:5 ?size_before:7 ?size_after:7
        pre: (and (RW:unused ?p) (R:goalsize ?p small) (RW:available ?b) (RW:wood ?b ?w) (RW:surface-condition ?b ?surface) (RW:boardsize ?b ?size_before) (R:boardsize-successor ?size_after ?size_before))
        eff: (and (increase (total-cost) 30) (RW:available ?p) (RW:wood ?p ?w) (RW:surface-condition ?p ?surface) (RW:colour ?p natural) (RW:treatment ?p varnished) (RW:boardsize ?b ?size_after))
    do-saw-medium: ?b:16 ?p:17 ?m:14 ?w:2 ?surface:5 ?size_before:7 ?s1:7 ?size_after:7
        pre: (and (RW:unused ?p) (R:goalsize ?p medium) (RW:available ?b) (RW:wood ?b ?w) (RW:surface-condition ?b ?surface) (RW:boardsize ?b ?size_before) (R:boardsize-successor ?size_after ?s1) (R:boardsize-successor ?s1 ?size_before))
        eff: (and (increase (total-cost) 30) (RW:available ?p) (RW:wood ?p ?w) (RW:surface-condition ?p ?surface) (RW:colour ?p natural) (RW:treatment ?p varnished) (RW:boardsize ?b ?size_after))
    do-saw-large: ?b:16 ?p:17 ?m:14 ?w:2 ?surface:5 ?size_before:7 ?s1:7 ?s2:7 ?size_after:7
        pre: (and (RW:unused ?p) (R:goalsize ?p large) (RW:available ?b) (RW:wood ?b ?w) (RW:surface-condition ?b ?surface) (RW:boardsize ?b ?size_before) (R:boardsize-successor ?size_after ?s1) (R:boardsize-successor ?s1 ?s2) (R:boardsize-successor ?s2 ?size_before))
        eff: (and (increase (total-cost) 30) (RW:available ?p) (RW:wood ?p ?w) (RW:surface-condition ?p ?surface) (RW:colour ?p natural) (RW:treatment ?p varnished) (RW:boardsize ?b ?size_after))
Init[37]:
  S:(grind-treatment-change varnished varnished)
  S:(grind-treatment-change varnished varnished)
  S:(grind-treatment-change varnished varnished)
  S:(grind-treatment-change varnished varnished)
  S:(is-smooth smooth)
  S:(is-smooth verysmooth)
  S:(boardsize-successor s0 s0)
  S:(boardsize-successor s0 s0)
  S:(boardsize-successor s0 s0)
  S:(boardsize-successor s0 s0)
  S:(boardsize-successor s0 s0)
  S:(has-colour glazer0 green)
  S:(has-colour immersion-varnisher0 green)
  (empty highspeed-saw0)
  S:(has-colour spray-varnisher0 green)
  (unused p0)
  S:(goalsize p0 medium)
  (unused p1)
  S:(goalsize p1 small)
  (available p1)
  (colour p1 black)
  (wood p1 mahogany)
  (surface-condition p1 rough)
  (treatment p1 varnished)
  S:(goalsize p1 small)
  (unused p3)
  S:(goalsize p3 large)
  (unused p0)
  S:(goalsize p0 medium)
  (boardsize b0 s0)
  (wood b0 teak)
  (surface-condition b0 rough)
  (available b0)
  (boardsize b1 s0)
  (wood b1 mahogany)
  (surface-condition b1 rough)
  (available b1)
Init[21]:
  (= (total-cost) 0)
  (= (spray-varnish-cost p0) 10)
  (= (glaze-cost p0) 15)
  (= (grind-cost p0) 30)
  (= (plane-cost p0) 20)
  (= (spray-varnish-cost p1) 5)
  (= (glaze-cost p1) 10)
  (= (grind-cost p1) 15)
  (= (plane-cost p1) 10)
  (= (spray-varnish-cost p1) 5)
  (= (glaze-cost p1) 10)
  (= (grind-cost p1) 15)
  (= (plane-cost p1) 10)
  (= (spray-varnish-cost p3) 15)
  (= (glaze-cost p3) 20)
  (= (grind-cost p3) 45)
  (= (plane-cost p3) 30)
  (= (spray-varnish-cost p0) 10)
  (= (glaze-cost p0) 15)
  (= (grind-cost p0) 30)
  (= (plane-cost p0) 20)
Goal: (and (RW:available p0) (RW:surface-condition p0 smooth) (RW:treatment p0 varnished) (RW:available p1) (RW:wood p1 teak) (RW:surface-condition p1 smooth) (RW:treatment p1 varnished) (RW:available p1) (RW:colour p1 green) (RW:surface-condition p1 smooth) (RW:available p3) (RW:wood p3 mahogany) (RW:surface-condition p3 smooth) (RW:available p0) (RW:wood p0 teak) (RW:treatment p0 varnished))
Metric: 1
