Init: (at player-01 pos-6-4) (at stone-01 pos-3-4) (at stone-02 pos-4-4) (at stone-03 pos-5-4) (at-goal stone-01) (at-goal stone-02) (clear pos-2-3) (clear pos-2-4) (clear pos-2-5) (clear pos-3-2) (clear pos-3-3) (clear pos-3-5) (clear pos-3-6) (clear pos-4-2) (clear pos-4-3) (clear pos-4-5) (clear pos-4-6) (clear pos-5-3)
Unreachable facts [46/64]:
  (at player-01 pos-2-3)
  (at player-01 pos-2-4)
  (at player-01 pos-2-5)
  (at player-01 pos-3-2)
  (at player-01 pos-3-3)
  (at player-01 pos-3-4)
  (at player-01 pos-3-5)
  (at player-01 pos-3-6)
  (at player-01 pos-4-2)
  (at player-01 pos-4-3)
  (at player-01 pos-4-4)
  (at player-01 pos-4-5)
  (at player-01 pos-4-6)
  (at player-01 pos-5-3)
  (at player-01 pos-5-4)
  (at player-01 pos-6-3)
  (at stone-01 pos-2-4)
  (at stone-01 pos-3-3)
  (at stone-01 pos-3-5)
  (at stone-01 pos-4-3)
  (at stone-01 pos-4-4)
  (at stone-01 pos-4-5)
  (at stone-01 pos-5-3)
  (at stone-01 pos-5-4)
  (at stone-02 pos-2-4)
  (at stone-02 pos-3-3)
  (at stone-02 pos-3-4)
  (at stone-02 pos-3-5)
  (at stone-02 pos-4-3)
  (at stone-02 pos-4-5)
  (at stone-02 pos-5-3)
  (at stone-02 pos-5-4)
  (at stone-03 pos-2-4)
  (at stone-03 pos-3-3)
  (at stone-03 pos-3-4)
  (at stone-03 pos-3-5)
  (at stone-03 pos-4-3)
  (at stone-03 pos-4-4)
  (at stone-03 pos-4-5)
  (at stone-03 pos-5-3)
  (at-goal stone-03)
  (clear pos-3-4)
  (clear pos-4-4)
  (clear pos-5-4)
  (clear pos-6-3)
  (clear pos-6-4)
Unreachable ops [132/132]:
  (move player-01 pos-2-3 pos-2-4 dir-down)
  (move player-01 pos-2-3 pos-3-3 dir-right)
  (move player-01 pos-2-4 pos-2-3 dir-up)
  (move player-01 pos-2-4 pos-2-5 dir-down)
  (move player-01 pos-2-4 pos-3-4 dir-right)
  (move player-01 pos-2-5 pos-2-4 dir-up)
  (move player-01 pos-2-5 pos-3-5 dir-right)
  (move player-01 pos-3-2 pos-3-3 dir-down)
  (move player-01 pos-3-2 pos-4-2 dir-right)
  (move player-01 pos-3-3 pos-2-3 dir-left)
  (move player-01 pos-3-3 pos-3-2 dir-up)
  (move player-01 pos-3-3 pos-3-4 dir-down)
  (move player-01 pos-3-3 pos-4-3 dir-right)
  (move player-01 pos-3-4 pos-2-4 dir-left)
  (move player-01 pos-3-4 pos-3-3 dir-up)
  (move player-01 pos-3-4 pos-3-5 dir-down)
  (move player-01 pos-3-4 pos-4-4 dir-right)
  (move player-01 pos-3-5 pos-2-5 dir-left)
  (move player-01 pos-3-5 pos-3-4 dir-up)
  (move player-01 pos-3-5 pos-3-6 dir-down)
  (move player-01 pos-3-5 pos-4-5 dir-right)
  (move player-01 pos-3-6 pos-3-5 dir-up)
  (move player-01 pos-3-6 pos-4-6 dir-right)
  (move player-01 pos-4-2 pos-3-2 dir-left)
  (move player-01 pos-4-2 pos-4-3 dir-down)
  (move player-01 pos-4-3 pos-3-3 dir-left)
  (move player-01 pos-4-3 pos-4-2 dir-up)
  (move player-01 pos-4-3 pos-4-4 dir-down)
  (move player-01 pos-4-3 pos-5-3 dir-right)
  (move player-01 pos-4-4 pos-3-4 dir-left)
  (move player-01 pos-4-4 pos-4-3 dir-up)
  (move player-01 pos-4-4 pos-4-5 dir-down)
  (move player-01 pos-4-4 pos-5-4 dir-right)
  (move player-01 pos-4-5 pos-3-5 dir-left)
  (move player-01 pos-4-5 pos-4-4 dir-up)
  (move player-01 pos-4-5 pos-4-6 dir-down)
  (move player-01 pos-4-6 pos-3-6 dir-left)
  (move player-01 pos-4-6 pos-4-5 dir-up)
  (move player-01 pos-5-3 pos-4-3 dir-left)
  (move player-01 pos-5-3 pos-5-4 dir-down)
  (move player-01 pos-5-3 pos-6-3 dir-right)
  (move player-01 pos-5-4 pos-4-4 dir-left)
  (move player-01 pos-5-4 pos-5-3 dir-up)
  (move player-01 pos-5-4 pos-6-4 dir-right)
  (move player-01 pos-6-3 pos-5-3 dir-left)
  (move player-01 pos-6-3 pos-6-4 dir-down)
  (move player-01 pos-6-4 pos-5-4 dir-left)
  (move player-01 pos-6-4 pos-6-3 dir-up)
  (push-to-goal player-01 stone-01 pos-2-4 pos-3-4 pos-4-4 dir-right)
  (push-to-goal player-01 stone-01 pos-3-2 pos-3-3 pos-3-4 dir-down)
  (push-to-goal player-01 stone-01 pos-3-6 pos-3-5 pos-3-4 dir-up)
  (push-to-goal player-01 stone-01 pos-4-2 pos-4-3 pos-4-4 dir-down)
  (push-to-goal player-01 stone-01 pos-4-4 pos-3-4 pos-2-4 dir-left)
  (push-to-goal player-01 stone-01 pos-4-6 pos-4-5 pos-4-4 dir-up)
  (push-to-goal player-01 stone-01 pos-5-4 pos-4-4 pos-3-4 dir-left)
  (push-to-goal player-01 stone-01 pos-6-4 pos-5-4 pos-4-4 dir-left)
  (push-to-goal player-01 stone-02 pos-2-4 pos-3-4 pos-4-4 dir-right)
  (push-to-goal player-01 stone-02 pos-3-2 pos-3-3 pos-3-4 dir-down)
  (push-to-goal player-01 stone-02 pos-3-6 pos-3-5 pos-3-4 dir-up)
  (push-to-goal player-01 stone-02 pos-4-2 pos-4-3 pos-4-4 dir-down)
  (push-to-goal player-01 stone-02 pos-4-4 pos-3-4 pos-2-4 dir-left)
  (push-to-goal player-01 stone-02 pos-4-6 pos-4-5 pos-4-4 dir-up)
  (push-to-goal player-01 stone-02 pos-5-4 pos-4-4 pos-3-4 dir-left)
  (push-to-goal player-01 stone-02 pos-6-4 pos-5-4 pos-4-4 dir-left)
  (push-to-goal player-01 stone-03 pos-2-4 pos-3-4 pos-4-4 dir-right)
  (push-to-goal player-01 stone-03 pos-3-2 pos-3-3 pos-3-4 dir-down)
  (push-to-goal player-01 stone-03 pos-3-6 pos-3-5 pos-3-4 dir-up)
  (push-to-goal player-01 stone-03 pos-4-2 pos-4-3 pos-4-4 dir-down)
  (push-to-goal player-01 stone-03 pos-4-4 pos-3-4 pos-2-4 dir-left)
  (push-to-goal player-01 stone-03 pos-4-6 pos-4-5 pos-4-4 dir-up)
  (push-to-goal player-01 stone-03 pos-5-4 pos-4-4 pos-3-4 dir-left)
  (push-to-goal player-01 stone-03 pos-6-4 pos-5-4 pos-4-4 dir-left)
  (push-to-nongoal player-01 stone-01 pos-2-3 pos-2-4 pos-2-5 dir-down)
  (push-to-nongoal player-01 stone-01 pos-2-3 pos-3-3 pos-4-3 dir-right)
  (push-to-nongoal player-01 stone-01 pos-2-5 pos-2-4 pos-2-3 dir-up)
  (push-to-nongoal player-01 stone-01 pos-2-5 pos-3-5 pos-4-5 dir-right)
  (push-to-nongoal player-01 stone-01 pos-3-3 pos-3-4 pos-3-5 dir-down)
  (push-to-nongoal player-01 stone-01 pos-3-3 pos-4-3 pos-5-3 dir-right)
  (push-to-nongoal player-01 stone-01 pos-3-4 pos-3-3 pos-3-2 dir-up)
  (push-to-nongoal player-01 stone-01 pos-3-4 pos-3-5 pos-3-6 dir-down)
  (push-to-nongoal player-01 stone-01 pos-3-4 pos-4-4 pos-5-4 dir-right)
  (push-to-nongoal player-01 stone-01 pos-3-5 pos-3-4 pos-3-3 dir-up)
  (push-to-nongoal player-01 stone-01 pos-4-3 pos-3-3 pos-2-3 dir-left)
  (push-to-nongoal player-01 stone-01 pos-4-3 pos-4-4 pos-4-5 dir-down)
  (push-to-nongoal player-01 stone-01 pos-4-3 pos-5-3 pos-6-3 dir-right)
  (push-to-nongoal player-01 stone-01 pos-4-4 pos-4-3 pos-4-2 dir-up)
  (push-to-nongoal player-01 stone-01 pos-4-4 pos-4-5 pos-4-6 dir-down)
  (push-to-nongoal player-01 stone-01 pos-4-4 pos-5-4 pos-6-4 dir-right)
  (push-to-nongoal player-01 stone-01 pos-4-5 pos-3-5 pos-2-5 dir-left)
  (push-to-nongoal player-01 stone-01 pos-4-5 pos-4-4 pos-4-3 dir-up)
  (push-to-nongoal player-01 stone-01 pos-5-3 pos-4-3 pos-3-3 dir-left)
  (push-to-nongoal player-01 stone-01 pos-6-3 pos-5-3 pos-4-3 dir-left)
  (push-to-nongoal player-01 stone-02 pos-2-3 pos-2-4 pos-2-5 dir-down)
  (push-to-nongoal player-01 stone-02 pos-2-3 pos-3-3 pos-4-3 dir-right)
  (push-to-nongoal player-01 stone-02 pos-2-5 pos-2-4 pos-2-3 dir-up)
  (push-to-nongoal player-01 stone-02 pos-2-5 pos-3-5 pos-4-5 dir-right)
  (push-to-nongoal player-01 stone-02 pos-3-3 pos-3-4 pos-3-5 dir-down)
  (push-to-nongoal player-01 stone-02 pos-3-3 pos-4-3 pos-5-3 dir-right)
  (push-to-nongoal player-01 stone-02 pos-3-4 pos-3-3 pos-3-2 dir-up)
  (push-to-nongoal player-01 stone-02 pos-3-4 pos-3-5 pos-3-6 dir-down)
  (push-to-nongoal player-01 stone-02 pos-3-4 pos-4-4 pos-5-4 dir-right)
  (push-to-nongoal player-01 stone-02 pos-3-5 pos-3-4 pos-3-3 dir-up)
  (push-to-nongoal player-01 stone-02 pos-4-3 pos-3-3 pos-2-3 dir-left)
  (push-to-nongoal player-01 stone-02 pos-4-3 pos-4-4 pos-4-5 dir-down)
  (push-to-nongoal player-01 stone-02 pos-4-3 pos-5-3 pos-6-3 dir-right)
  (push-to-nongoal player-01 stone-02 pos-4-4 pos-4-3 pos-4-2 dir-up)
  (push-to-nongoal player-01 stone-02 pos-4-4 pos-4-5 pos-4-6 dir-down)
  (push-to-nongoal player-01 stone-02 pos-4-4 pos-5-4 pos-6-4 dir-right)
  (push-to-nongoal player-01 stone-02 pos-4-5 pos-3-5 pos-2-5 dir-left)
  (push-to-nongoal player-01 stone-02 pos-4-5 pos-4-4 pos-4-3 dir-up)
  (push-to-nongoal player-01 stone-02 pos-5-3 pos-4-3 pos-3-3 dir-left)
  (push-to-nongoal player-01 stone-02 pos-6-3 pos-5-3 pos-4-3 dir-left)
  (push-to-nongoal player-01 stone-03 pos-2-3 pos-2-4 pos-2-5 dir-down)
  (push-to-nongoal player-01 stone-03 pos-2-3 pos-3-3 pos-4-3 dir-right)
  (push-to-nongoal player-01 stone-03 pos-2-5 pos-2-4 pos-2-3 dir-up)
  (push-to-nongoal player-01 stone-03 pos-2-5 pos-3-5 pos-4-5 dir-right)
  (push-to-nongoal player-01 stone-03 pos-3-3 pos-3-4 pos-3-5 dir-down)
  (push-to-nongoal player-01 stone-03 pos-3-3 pos-4-3 pos-5-3 dir-right)
  (push-to-nongoal player-01 stone-03 pos-3-4 pos-3-3 pos-3-2 dir-up)
  (push-to-nongoal player-01 stone-03 pos-3-4 pos-3-5 pos-3-6 dir-down)
  (push-to-nongoal player-01 stone-03 pos-3-4 pos-4-4 pos-5-4 dir-right)
  (push-to-nongoal player-01 stone-03 pos-3-5 pos-3-4 pos-3-3 dir-up)
  (push-to-nongoal player-01 stone-03 pos-4-3 pos-3-3 pos-2-3 dir-left)
  (push-to-nongoal player-01 stone-03 pos-4-3 pos-4-4 pos-4-5 dir-down)
  (push-to-nongoal player-01 stone-03 pos-4-3 pos-5-3 pos-6-3 dir-right)
  (push-to-nongoal player-01 stone-03 pos-4-4 pos-4-3 pos-4-2 dir-up)
  (push-to-nongoal player-01 stone-03 pos-4-4 pos-4-5 pos-4-6 dir-down)
  (push-to-nongoal player-01 stone-03 pos-4-4 pos-5-4 pos-6-4 dir-right)
  (push-to-nongoal player-01 stone-03 pos-4-5 pos-3-5 pos-2-5 dir-left)
  (push-to-nongoal player-01 stone-03 pos-4-5 pos-4-4 pos-4-3 dir-up)
  (push-to-nongoal player-01 stone-03 pos-5-3 pos-4-3 pos-3-3 dir-left)
  (push-to-nongoal player-01 stone-03 pos-6-3 pos-5-3 pos-4-3 dir-left)
