Mutex groups: 7
 (available hoist0) (lifting hoist0 crate0)
 (at hoist0 container-0-0) (at hoist0 depot0-1-1) (at hoist0 loadarea)
 (at hoist0 container-0-0) (clear container-0-0) (on crate0 container-0-0)
 (at hoist0 depot0-1-1) (clear depot0-1-1) (in crate0 depot0)
 (at hoist0 depot0-1-1) (clear depot0-1-1) (on crate0 depot0-1-1)
 (in crate0 depot0) (lifting hoist0 crate0) (on crate0 container-0-0)
 (lifting hoist0 crate0) (on crate0 container-0-0) (on crate0 depot0-1-1)

