Maximal 13:
 (capacity truck-1 capacity-0) (capacity truck-1 capacity-1) (capacity truck-1 capacity-2) (capacity truck-1 capacity-3) (capacity truck-1 capacity-4):=1:fam
 (capacity truck-2 capacity-0) (capacity truck-2 capacity-1) (capacity truck-2 capacity-2) (capacity truck-2 capacity-3) (capacity truck-2 capacity-4):=1:fam
 (capacity truck-3 capacity-0) (capacity truck-3 capacity-1) (capacity truck-3 capacity-2) (capacity truck-3 capacity-3) (capacity truck-3 capacity-4):=1:fam
 (at truck-1 city-loc-1) (at truck-1 city-loc-10) (at truck-1 city-loc-11) (at truck-1 city-loc-12) (at truck-1 city-loc-13) (at truck-1 city-loc-14) (at truck-1 city-loc-2) (at truck-1 city-loc-3) (at truck-1 city-loc-4) (at truck-1 city-loc-5) (at truck-1 city-loc-6) (at truck-1 city-loc-7) (at truck-1 city-loc-8) (at truck-1 city-loc-9):=1:fam
 (at truck-2 city-loc-1) (at truck-2 city-loc-10) (at truck-2 city-loc-11) (at truck-2 city-loc-12) (at truck-2 city-loc-13) (at truck-2 city-loc-14) (at truck-2 city-loc-2) (at truck-2 city-loc-3) (at truck-2 city-loc-4) (at truck-2 city-loc-5) (at truck-2 city-loc-6) (at truck-2 city-loc-7) (at truck-2 city-loc-8) (at truck-2 city-loc-9):=1:fam
 (at truck-3 city-loc-1) (at truck-3 city-loc-10) (at truck-3 city-loc-11) (at truck-3 city-loc-12) (at truck-3 city-loc-13) (at truck-3 city-loc-14) (at truck-3 city-loc-2) (at truck-3 city-loc-3) (at truck-3 city-loc-4) (at truck-3 city-loc-5) (at truck-3 city-loc-6) (at truck-3 city-loc-7) (at truck-3 city-loc-8) (at truck-3 city-loc-9):=1:fam
 (at package-1 city-loc-1) (at package-1 city-loc-10) (at package-1 city-loc-11) (at package-1 city-loc-12) (at package-1 city-loc-13) (at package-1 city-loc-14) (at package-1 city-loc-2) (at package-1 city-loc-3) (at package-1 city-loc-4) (at package-1 city-loc-5) (at package-1 city-loc-6) (at package-1 city-loc-7) (at package-1 city-loc-8) (at package-1 city-loc-9) (in package-1 truck-1) (in package-1 truck-2) (in package-1 truck-3):=1:fam:G
 (at package-2 city-loc-1) (at package-2 city-loc-10) (at package-2 city-loc-11) (at package-2 city-loc-12) (at package-2 city-loc-13) (at package-2 city-loc-14) (at package-2 city-loc-2) (at package-2 city-loc-3) (at package-2 city-loc-4) (at package-2 city-loc-5) (at package-2 city-loc-6) (at package-2 city-loc-7) (at package-2 city-loc-8) (at package-2 city-loc-9) (in package-2 truck-1) (in package-2 truck-2) (in package-2 truck-3):=1:fam:G
 (at package-3 city-loc-1) (at package-3 city-loc-10) (at package-3 city-loc-11) (at package-3 city-loc-12) (at package-3 city-loc-13) (at package-3 city-loc-14) (at package-3 city-loc-2) (at package-3 city-loc-3) (at package-3 city-loc-4) (at package-3 city-loc-5) (at package-3 city-loc-6) (at package-3 city-loc-7) (at package-3 city-loc-8) (at package-3 city-loc-9) (in package-3 truck-1) (in package-3 truck-2) (in package-3 truck-3):=1:fam:G
 (at package-4 city-loc-1) (at package-4 city-loc-10) (at package-4 city-loc-11) (at package-4 city-loc-12) (at package-4 city-loc-13) (at package-4 city-loc-14) (at package-4 city-loc-2) (at package-4 city-loc-3) (at package-4 city-loc-4) (at package-4 city-loc-5) (at package-4 city-loc-6) (at package-4 city-loc-7) (at package-4 city-loc-8) (at package-4 city-loc-9) (in package-4 truck-1) (in package-4 truck-2) (in package-4 truck-3):=1:fam:G
 (at package-5 city-loc-1) (at package-5 city-loc-10) (at package-5 city-loc-11) (at package-5 city-loc-12) (at package-5 city-loc-13) (at package-5 city-loc-14) (at package-5 city-loc-2) (at package-5 city-loc-3) (at package-5 city-loc-4) (at package-5 city-loc-5) (at package-5 city-loc-6) (at package-5 city-loc-7) (at package-5 city-loc-8) (at package-5 city-loc-9) (in package-5 truck-1) (in package-5 truck-2) (in package-5 truck-3):=1:fam:G
 (at package-6 city-loc-1) (at package-6 city-loc-10) (at package-6 city-loc-11) (at package-6 city-loc-12) (at package-6 city-loc-13) (at package-6 city-loc-14) (at package-6 city-loc-2) (at package-6 city-loc-3) (at package-6 city-loc-4) (at package-6 city-loc-5) (at package-6 city-loc-6) (at package-6 city-loc-7) (at package-6 city-loc-8) (at package-6 city-loc-9) (in package-6 truck-1) (in package-6 truck-2) (in package-6 truck-3):=1:fam:G
 (at package-7 city-loc-1) (at package-7 city-loc-10) (at package-7 city-loc-11) (at package-7 city-loc-12) (at package-7 city-loc-13) (at package-7 city-loc-14) (at package-7 city-loc-2) (at package-7 city-loc-3) (at package-7 city-loc-4) (at package-7 city-loc-5) (at package-7 city-loc-6) (at package-7 city-loc-7) (at package-7 city-loc-8) (at package-7 city-loc-9) (in package-7 truck-1) (in package-7 truck-2) (in package-7 truck-3):=1:fam:G


Mutex Group Cover Number: 13
