Domain: scanalyzer3d
Problem: scanalyzer3d-52
Require: 200ff
Type[3]:
    [0]: object, parent: -1
    [1]: segment, parent: 0
    [2]: car, parent: 0
Obj-by-Type:
    [0]: 0 1 2 3 4 5 6 7
    [1]: 4 5 6 7
    [2]: 0 1 2 3
Obj[8]:
    [0]: car-in-1a, type: 2, is-constant: 0, is-private: 0, owner: -1, is-agent: 0
    [1]: car-in-1b, type: 2, is-constant: 0, is-private: 0, owner: -1, is-agent: 0
    [2]: car-out-1a, type: 2, is-constant: 0, is-private: 0, owner: -1, is-agent: 0
    [3]: car-out-1b, type: 2, is-constant: 0, is-private: 0, owner: -1, is-agent: 0
    [4]: seg-in-1a, type: 1, is-constant: 0, is-private: 0, owner: -1, is-agent: 0
    [5]: seg-in-1b, type: 1, is-constant: 0, is-private: 0, owner: -1, is-agent: 0
    [6]: seg-out-1a, type: 1, is-constant: 0, is-private: 0, owner: -1, is-agent: 0
    [7]: seg-out-1b, type: 1, is-constant: 0, is-private: 0, owner: -1, is-agent: 0
Predicate[7]:
    =: 0 0 :: is-private: 0, owner-param: -1, read: 0, write: 0
    on: 2 1 :: is-private: 0, owner-param: -1, read: 1, write: 1
    analyzed: 2 :: is-private: 0, owner-param: -1, read: 0, write: 1
    cycle-2: 1 1 :: is-private: 0, owner-param: -1, read: 0, write: 0
    cycle-4: 1 1 1 1 :: is-private: 0, owner-param: -1, read: 1, write: 0
    cycle-2-with-analysis: 1 1 :: is-private: 0, owner-param: -1, read: 0, write: 0
    cycle-4-with-analysis: 1 1 1 1 :: is-private: 0, owner-param: -1, read: 1, write: 0
Function[1]:
    total-cost: :: is-private: 0, owner-param: -1, read: 0, write: 0
Action[2]:
    rotate-4: ?s1:1 ?s2:1 ?s3:1 ?s4:1 ?c1:2 ?c2:2 ?c3:2 ?c4:2
        pre: (and (R:cycle-4 ?s1 ?s2 ?s3 ?s4) (RW:on ?c1 ?s1) (RW:on ?c2 ?s2) (RW:on ?c3 ?s3) (RW:on ?c4 ?s4))
        eff: (and (N:RW:on ?c1 ?s1) (N:RW:on ?c2 ?s2) (N:RW:on ?c3 ?s3) (N:RW:on ?c4 ?s4) (RW:on ?c1 ?s4) (RW:on ?c2 ?s1) (RW:on ?c3 ?s2) (RW:on ?c4 ?s3) (increase (total-cost) 1))
    analyze-4: ?s1:1 ?s2:1 ?s3:1 ?s4:1 ?c1:2 ?c2:2 ?c3:2 ?c4:2
        pre: (and (R:cycle-4-with-analysis ?s1 ?s2 ?s3 ?s4) (RW:on ?c1 ?s1) (RW:on ?c2 ?s2) (RW:on ?c3 ?s3) (RW:on ?c4 ?s4))
        eff: (and (N:RW:on ?c1 ?s1) (N:RW:on ?c2 ?s2) (N:RW:on ?c3 ?s3) (N:RW:on ?c4 ?s4) (RW:on ?c1 ?s4) (RW:on ?c2 ?s1) (RW:on ?c3 ?s2) (RW:on ?c4 ?s3) (W:analyzed ?c1) (increase (total-cost) 3))
Init[6]:
  S:(cycle-4 seg-in-1a seg-in-1b seg-out-1a seg-out-1b)
  S:(cycle-4-with-analysis seg-in-1a seg-in-1b seg-out-1a seg-out-1b)
  (on car-in-1a seg-in-1a)
  (on car-in-1b seg-in-1b)
  (on car-out-1a seg-out-1a)
  (on car-out-1b seg-out-1b)
Init[1]:
  (= (total-cost) 0)
Goal: (and (W:analyzed car-in-1a) (W:analyzed car-in-1b) (W:analyzed car-out-1a) (W:analyzed car-out-1b) (RW:on car-in-1a seg-out-1b) (RW:on car-in-1b seg-in-1a) (RW:on car-out-1a seg-in-1b) (RW:on car-out-1b seg-out-1a))
Metric: 1
