< {normal V0:object, inverted V0:object}:=1
, {idle, last-cut-point C0:object, last-cut-point C1:object}:=1
, {idle, cutting, have-cut, finished, splice-point-1 C0:object, splice-point-1 C1:object}:=1
, {idle, cutting, have-cut, finished, splice-point-2 C0:object, splice-point-2 C1:object}:=1
, {idle, have-cut, finished, cut-point-1 C0:object, splice-point-1 C1:object, cut-point-1 C2:object, splice-point-1 C3:object}:=1
, {idle, have-cut, finished, cut-point-1 C0:object, splice-point-2 C1:object, cut-point-1 C2:object, splice-point-2 C3:object}:=1
, {idle, splicing-last, inverse-splicing-last, finished, s-first C0:object, s-first C1:object}:=1
, {idle, splicing-last, inverse-splicing-last, finished, s-last C0:object, s-last C1:object}:=1
, {cw C1:object V0:object, splice-next V0:object, inverse-splice-next V0:object, cut-point-2 V0:object, splice-point-2 V0:object, s-first V0:object, s-next C2:object V0:object, cw C3:object V0:object, s-next C4:object V0:object}:=1
, {cw C1:object V0:object, splice-next V0:object, inverse-splice-next V0:object, cut-point-2 V0:object, splice-point-2 V0:object, s-next V0:object C2:object, s-last V0:object, cw C3:object V0:object, s-next V0:object C4:object}:=1
, {idle, cutting, have-cut, splicing, splice-next C0:object, splicing-last, inverse-splicing, inverse-splice-next C1:object, inverse-splicing-last, finished, splice-next C2:object, inverse-splice-next C3:object}:=1
, {idle, have-cut, splicing, splice-next C0:object, splicing-last, inverse-splicing, inverse-splice-next C1:object, inverse-splicing-last, finished, cut-point-1 C2:object, splice-next C3:object, inverse-splice-next C4:object, cut-point-1 C5:object}:=1
>
