begin_version
3
end_version
begin_metric
1
end_metric
104
begin_variable
var0
-1
5
not-has_process-yeti-proc_0
running_prog-yeti-proc_0-iexplorer
running_prog-yeti-proc_0-troj_master
running_prog-yeti-proc_0-wexplorer
none-of-those
end_variable
begin_variable
var1
-1
5
not-has_process-yeti-proc_1
running_prog-yeti-proc_1-iexplorer
running_prog-yeti-proc_1-troj_master
running_prog-yeti-proc_1-wexplorer
none-of-those
end_variable
begin_variable
var2
-1
5
not-has_process-yeti-proc_2
running_prog-yeti-proc_2-iexplorer
running_prog-yeti-proc_2-troj_master
running_prog-yeti-proc_2-wexplorer
none-of-those
end_variable
begin_variable
var3
-1
5
not-has_process-yeti-proc_3
running_prog-yeti-proc_3-iexplorer
running_prog-yeti-proc_3-troj_master
running_prog-yeti-proc_3-wexplorer
none-of-those
end_variable
begin_variable
var4
-1
4
not-has_process-sherpa-proc_0
running_prog-sherpa-proc_0-iexplorer
running_prog-sherpa-proc_0-wexplorer
none-of-those
end_variable
begin_variable
var5
-1
4
not-has_process-sherpa-proc_1
running_prog-sherpa-proc_1-iexplorer
running_prog-sherpa-proc_1-wexplorer
none-of-those
end_variable
begin_variable
var6
-1
4
not-has_process-sherpa-proc_2
running_prog-sherpa-proc_2-iexplorer
running_prog-sherpa-proc_2-wexplorer
none-of-those
end_variable
begin_variable
var7
-1
4
not-has_process-sherpa-proc_3
running_prog-sherpa-proc_3-iexplorer
running_prog-sherpa-proc_3-wexplorer
none-of-those
end_variable
begin_variable
var8
-1
2
authenticated-adam_uid-bigfoot
not-authenticated-adam_uid-bigfoot
end_variable
begin_variable
var9
-1
2
authenticated-bob_uid-yeti
not-authenticated-bob_uid-yeti
end_variable
begin_variable
var10
-1
2
authenticated-greg_uid-sherpa
not-authenticated-greg_uid-sherpa
end_variable
begin_variable
var11
-1
2
connected-dmss1
not-connected-dmss1
end_variable
begin_variable
var12
-1
2
connected-dmss2
not-connected-dmss2
end_variable
begin_variable
var13
-1
2
connecting-dmss1
not-connecting-dmss1
end_variable
begin_variable
var14
-1
2
connecting-dmss2
not-connecting-dmss2
end_variable
begin_variable
var15
-1
3
console_user-adam-adam_uid-bigfoot
console_user-nobody-nouid-bigfoot
none-of-those
end_variable
begin_variable
var16
-1
3
console_user-bob-bob_uid-yeti
console_user-nobody-nouid-yeti
none-of-those
end_variable
begin_variable
var17
-1
3
console_user-greg-greg_uid-sherpa
console_user-nobody-nouid-sherpa
none-of-those
end_variable
begin_variable
var18
-1
2
dms_authenticated-dmss2-greg_uid
not-dms_established-dmss2
end_variable
begin_variable
var19
-1
2
dms_established-dmss1
not-dms_established-dmss1
end_variable
begin_variable
var20
-1
2
euid-bigfoot-proc_0-adam_uid
not-has_process-bigfoot-proc_0
end_variable
begin_variable
var21
-1
2
euid-bigfoot-proc_1-adam_uid
not-has_process-bigfoot-proc_1
end_variable
begin_variable
var22
-1
2
euid-bigfoot-proc_2-adam_uid
not-has_process-bigfoot-proc_2
end_variable
begin_variable
var23
-1
2
euid-bigfoot-proc_3-adam_uid
not-has_process-bigfoot-proc_3
end_variable
begin_variable
var24
-1
2
mandatory_step-bob
not-mandatory_step-bob
end_variable
begin_variable
var25
-1
2
dms_established-dmss2
none-of-those
end_variable
begin_variable
var26
-1
2
euid-sherpa-proc_0-greg_uid
none-of-those
end_variable
begin_variable
var27
-1
2
euid-sherpa-proc_1-greg_uid
none-of-those
end_variable
begin_variable
var28
-1
2
euid-sherpa-proc_2-greg_uid
none-of-those
end_variable
begin_variable
var29
-1
2
euid-sherpa-proc_3-greg_uid
none-of-those
end_variable
begin_variable
var30
-1
2
euid-yeti-proc_0-bob_uid
none-of-those
end_variable
begin_variable
var31
-1
2
euid-yeti-proc_1-bob_uid
none-of-those
end_variable
begin_variable
var32
-1
2
euid-yeti-proc_2-bob_uid
none-of-those
end_variable
begin_variable
var33
-1
2
euid-yeti-proc_3-bob_uid
none-of-those
end_variable
begin_variable
var34
-1
2
has_process-bigfoot-proc_0
none-of-those
end_variable
begin_variable
var35
-1
2
has_process-bigfoot-proc_1
none-of-those
end_variable
begin_variable
var36
-1
2
has_process-bigfoot-proc_2
none-of-those
end_variable
begin_variable
var37
-1
2
has_process-bigfoot-proc_3
none-of-those
end_variable
begin_variable
var38
-1
2
has_process-sherpa-proc_0
none-of-those
end_variable
begin_variable
var39
-1
2
has_process-sherpa-proc_1
none-of-those
end_variable
begin_variable
var40
-1
2
has_process-sherpa-proc_2
none-of-those
end_variable
begin_variable
var41
-1
2
has_process-sherpa-proc_3
none-of-those
end_variable
begin_variable
var42
-1
2
has_process-yeti-proc_0
none-of-those
end_variable
begin_variable
var43
-1
2
has_process-yeti-proc_1
none-of-those
end_variable
begin_variable
var44
-1
2
has_process-yeti-proc_2
none-of-those
end_variable
begin_variable
var45
-1
2
has_process-yeti-proc_3
none-of-those
end_variable
begin_variable
var46
-1
2
not-host_locked-sherpa
none-of-those
end_variable
begin_variable
var47
-1
2
not-host_locked-yeti
none-of-those
end_variable
begin_variable
var48
-1
2
running_prog-bigfoot-proc_0-wexplorer
none-of-those
end_variable
begin_variable
var49
-1
2
running_prog-bigfoot-proc_1-wexplorer
none-of-those
end_variable
begin_variable
var50
-1
2
running_prog-bigfoot-proc_2-wexplorer
none-of-those
end_variable
begin_variable
var51
-1
2
running_prog-bigfoot-proc_3-wexplorer
none-of-those
end_variable
begin_variable
var52
-1
2
running_prog-yeti-proc_0-winbork
none-of-those
end_variable
begin_variable
var53
-1
2
running_prog-yeti-proc_1-winbork
none-of-those
end_variable
begin_variable
var54
-1
2
running_prog-yeti-proc_2-winbork
none-of-those
end_variable
begin_variable
var55
-1
2
running_prog-yeti-proc_3-winbork
none-of-those
end_variable
begin_variable
var56
-1
2
at_host-adam-bigfoot
none-of-those
end_variable
begin_variable
var57
-1
2
at_host-bob-yeti
none-of-those
end_variable
begin_variable
var58
-1
2
at_host-greg-sherpa
none-of-those
end_variable
begin_variable
var59
-1
2
at_host-nobody-bigfoot
none-of-those
end_variable
begin_variable
var60
-1
2
at_host-nobody-sherpa
none-of-those
end_variable
begin_variable
var61
-1
2
at_host-nobody-yeti
none-of-those
end_variable
begin_variable
var62
-1
2
dms_request_in_progress-dmss2
none-of-those
end_variable
begin_variable
var63
-1
2
dms_requesting-dmss2-e_secret_doc
none-of-those
end_variable
begin_variable
var64
-1
2
dms_session_client-dmss1-yeti
none-of-those
end_variable
begin_variable
var65
-1
2
dms_session_client-dmss2-sherpa
none-of-those
end_variable
begin_variable
var66
-1
2
dms_session_cproc-dmss2-proc_0
none-of-those
end_variable
begin_variable
var67
-1
2
dms_session_cproc-dmss2-proc_1
none-of-those
end_variable
begin_variable
var68
-1
2
dms_session_cproc-dmss2-proc_2
none-of-those
end_variable
begin_variable
var69
-1
2
dms_session_cproc-dmss2-proc_3
none-of-those
end_variable
begin_variable
var70
-1
2
dms_session_pwd-dmss1-bob_dms_pwd
none-of-those
end_variable
begin_variable
var71
-1
2
dms_session_pwd-dmss2-greg_dms_pwd
none-of-those
end_variable
begin_variable
var72
-1
2
dms_session_real_user-dmss1-bob
none-of-those
end_variable
begin_variable
var73
-1
2
dms_session_real_user-dmss2-greg
none-of-those
end_variable
begin_variable
var74
-1
2
dms_session_server-dmss1-everest
none-of-those
end_variable
begin_variable
var75
-1
2
dms_session_server-dmss2-everest
none-of-those
end_variable
begin_variable
var76
-1
2
forking-bigfoot-adam_uid
none-of-those
end_variable
begin_variable
var77
-1
2
forking-sherpa-greg_uid
none-of-those
end_variable
begin_variable
var78
-1
2
forking-yeti-bob_uid
none-of-those
end_variable
begin_variable
var79
-1
2
knows-bob-secret_info
none-of-those
end_variable
begin_variable
var80
-1
2
knows-greg-secret_info
none-of-those
end_variable
begin_variable
var81
-1
2
pmode-m_dms_access
none-of-those
end_variable
begin_variable
var82
-1
2
pmode-m_dms_auth
none-of-those
end_variable
begin_variable
var83
-1
2
pmode-m_dms_connect
none-of-those
end_variable
begin_variable
var84
-1
2
pmode-m_dms_know
none-of-those
end_variable
begin_variable
var85
-1
2
pmode-m_dms_request
none-of-those
end_variable
begin_variable
var86
-1
2
pmode-m_dms_send
none-of-those
end_variable
begin_variable
var87
-1
2
pmode-m_dms_sess
none-of-those
end_variable
begin_variable
var88
-1
2
pmode-m_free
none-of-those
end_variable
begin_variable
var89
-1
2
pmode-m_wait_fork
none-of-those
end_variable
begin_variable
var90
-1
2
pmode-m_wait_pass
none-of-those
end_variable
begin_variable
var91
-1
2
pmode-m_wait_shell
none-of-those
end_variable
begin_variable
var92
-1
2
running_prog-sherpa-proc_0-fb_virus
none-of-those
end_variable
begin_variable
var93
-1
2
running_prog-sherpa-proc_1-fb_virus
none-of-those
end_variable
begin_variable
var94
-1
2
running_prog-sherpa-proc_2-fb_virus
none-of-those
end_variable
begin_variable
var95
-1
2
running_prog-sherpa-proc_3-fb_virus
none-of-those
end_variable
begin_variable
var96
-1
2
viewing_doc-sherpa-proc_0-e_secret_doc
none-of-those
end_variable
begin_variable
var97
-1
2
viewing_doc-sherpa-proc_1-e_secret_doc
none-of-those
end_variable
begin_variable
var98
-1
2
viewing_doc-sherpa-proc_2-e_secret_doc
none-of-those
end_variable
begin_variable
var99
-1
2
viewing_doc-sherpa-proc_3-e_secret_doc
none-of-those
end_variable
begin_variable
var100
-1
2
viewing_doc-yeti-proc_0-e_secret_doc
none-of-those
end_variable
begin_variable
var101
-1
2
viewing_doc-yeti-proc_1-e_secret_doc
none-of-those
end_variable
begin_variable
var102
-1
2
viewing_doc-yeti-proc_2-e_secret_doc
none-of-those
end_variable
begin_variable
var103
-1
2
viewing_doc-yeti-proc_3-e_secret_doc
none-of-those
end_variable
137
begin_mutex_group
1
15 1
end_mutex_group
begin_mutex_group
1
17 1
end_mutex_group
begin_mutex_group
1
16 1
end_mutex_group
begin_mutex_group
1
8 1
end_mutex_group
begin_mutex_group
1
9 1
end_mutex_group
begin_mutex_group
1
10 1
end_mutex_group
begin_mutex_group
1
11 1
end_mutex_group
begin_mutex_group
1
12 1
end_mutex_group
begin_mutex_group
1
13 1
end_mutex_group
begin_mutex_group
1
14 1
end_mutex_group
begin_mutex_group
1
19 1
end_mutex_group
begin_mutex_group
1
18 1
end_mutex_group
begin_mutex_group
1
20 1
end_mutex_group
begin_mutex_group
1
21 1
end_mutex_group
begin_mutex_group
1
22 1
end_mutex_group
begin_mutex_group
1
23 1
end_mutex_group
begin_mutex_group
1
4 0
end_mutex_group
begin_mutex_group
1
5 0
end_mutex_group
begin_mutex_group
1
6 0
end_mutex_group
begin_mutex_group
1
7 0
end_mutex_group
begin_mutex_group
1
0 0
end_mutex_group
begin_mutex_group
1
1 0
end_mutex_group
begin_mutex_group
1
2 0
end_mutex_group
begin_mutex_group
1
3 0
end_mutex_group
begin_mutex_group
1
46 0
end_mutex_group
begin_mutex_group
1
47 0
end_mutex_group
begin_mutex_group
1
24 1
end_mutex_group
begin_mutex_group
2
8 0
8 1
end_mutex_group
begin_mutex_group
2
9 0
9 1
end_mutex_group
begin_mutex_group
2
10 0
10 1
end_mutex_group
begin_mutex_group
2
11 0
11 1
end_mutex_group
begin_mutex_group
2
12 0
12 1
end_mutex_group
begin_mutex_group
2
13 0
13 1
end_mutex_group
begin_mutex_group
2
14 0
14 1
end_mutex_group
begin_mutex_group
2
15 0
15 1
end_mutex_group
begin_mutex_group
2
16 0
16 1
end_mutex_group
begin_mutex_group
2
17 0
17 1
end_mutex_group
begin_mutex_group
2
18 0
18 1
end_mutex_group
begin_mutex_group
2
19 0
19 1
end_mutex_group
begin_mutex_group
2
25 0
18 1
end_mutex_group
begin_mutex_group
2
20 0
20 1
end_mutex_group
begin_mutex_group
2
21 0
21 1
end_mutex_group
begin_mutex_group
2
22 0
22 1
end_mutex_group
begin_mutex_group
2
23 0
23 1
end_mutex_group
begin_mutex_group
2
26 0
4 0
end_mutex_group
begin_mutex_group
2
27 0
5 0
end_mutex_group
begin_mutex_group
2
28 0
6 0
end_mutex_group
begin_mutex_group
2
29 0
7 0
end_mutex_group
begin_mutex_group
2
30 0
0 0
end_mutex_group
begin_mutex_group
2
31 0
1 0
end_mutex_group
begin_mutex_group
2
32 0
2 0
end_mutex_group
begin_mutex_group
2
33 0
3 0
end_mutex_group
begin_mutex_group
2
34 0
20 1
end_mutex_group
begin_mutex_group
2
35 0
21 1
end_mutex_group
begin_mutex_group
2
36 0
22 1
end_mutex_group
begin_mutex_group
2
37 0
23 1
end_mutex_group
begin_mutex_group
2
38 0
4 0
end_mutex_group
begin_mutex_group
2
39 0
5 0
end_mutex_group
begin_mutex_group
2
40 0
6 0
end_mutex_group
begin_mutex_group
2
41 0
7 0
end_mutex_group
begin_mutex_group
2
42 0
0 0
end_mutex_group
begin_mutex_group
2
43 0
1 0
end_mutex_group
begin_mutex_group
2
44 0
2 0
end_mutex_group
begin_mutex_group
2
45 0
3 0
end_mutex_group
begin_mutex_group
2
24 0
24 1
end_mutex_group
begin_mutex_group
2
20 1
48 0
end_mutex_group
begin_mutex_group
2
21 1
49 0
end_mutex_group
begin_mutex_group
2
22 1
50 0
end_mutex_group
begin_mutex_group
2
23 1
51 0
end_mutex_group
begin_mutex_group
2
4 0
4 1
end_mutex_group
begin_mutex_group
2
4 0
4 2
end_mutex_group
begin_mutex_group
2
5 0
5 1
end_mutex_group
begin_mutex_group
2
5 0
5 2
end_mutex_group
begin_mutex_group
2
6 0
6 1
end_mutex_group
begin_mutex_group
2
6 0
6 2
end_mutex_group
begin_mutex_group
2
7 0
7 1
end_mutex_group
begin_mutex_group
2
7 0
7 2
end_mutex_group
begin_mutex_group
2
0 0
0 1
end_mutex_group
begin_mutex_group
2
0 0
0 2
end_mutex_group
begin_mutex_group
2
0 0
0 3
end_mutex_group
begin_mutex_group
2
0 0
52 0
end_mutex_group
begin_mutex_group
2
1 0
1 1
end_mutex_group
begin_mutex_group
2
1 0
1 2
end_mutex_group
begin_mutex_group
2
1 0
1 3
end_mutex_group
begin_mutex_group
2
1 0
53 0
end_mutex_group
begin_mutex_group
2
2 0
2 1
end_mutex_group
begin_mutex_group
2
2 0
2 2
end_mutex_group
begin_mutex_group
2
2 0
2 3
end_mutex_group
begin_mutex_group
2
2 0
54 0
end_mutex_group
begin_mutex_group
2
3 0
3 1
end_mutex_group
begin_mutex_group
2
3 0
3 2
end_mutex_group
begin_mutex_group
2
3 0
3 3
end_mutex_group
begin_mutex_group
2
3 0
55 0
end_mutex_group
begin_mutex_group
3
4 0
4 1
4 2
end_mutex_group
begin_mutex_group
3
5 0
5 1
5 2
end_mutex_group
begin_mutex_group
3
6 0
6 1
6 2
end_mutex_group
begin_mutex_group
3
7 0
7 1
7 2
end_mutex_group
begin_mutex_group
3
0 0
0 1
0 2
end_mutex_group
begin_mutex_group
3
0 0
0 1
0 3
end_mutex_group
begin_mutex_group
3
0 0
0 1
52 0
end_mutex_group
begin_mutex_group
3
0 0
0 2
0 3
end_mutex_group
begin_mutex_group
3
0 0
0 2
52 0
end_mutex_group
begin_mutex_group
3
0 0
0 3
52 0
end_mutex_group
begin_mutex_group
3
1 0
1 1
1 2
end_mutex_group
begin_mutex_group
3
1 0
1 1
1 3
end_mutex_group
begin_mutex_group
3
1 0
1 1
53 0
end_mutex_group
begin_mutex_group
3
1 0
1 2
1 3
end_mutex_group
begin_mutex_group
3
1 0
1 2
53 0
end_mutex_group
begin_mutex_group
3
1 0
1 3
53 0
end_mutex_group
begin_mutex_group
3
2 0
2 1
2 2
end_mutex_group
begin_mutex_group
3
2 0
2 1
2 3
end_mutex_group
begin_mutex_group
3
2 0
2 1
54 0
end_mutex_group
begin_mutex_group
3
2 0
2 2
2 3
end_mutex_group
begin_mutex_group
3
2 0
2 2
54 0
end_mutex_group
begin_mutex_group
3
2 0
2 3
54 0
end_mutex_group
begin_mutex_group
3
3 0
3 1
3 2
end_mutex_group
begin_mutex_group
3
3 0
3 1
3 3
end_mutex_group
begin_mutex_group
3
3 0
3 1
55 0
end_mutex_group
begin_mutex_group
3
3 0
3 2
3 3
end_mutex_group
begin_mutex_group
3
3 0
3 2
55 0
end_mutex_group
begin_mutex_group
3
3 0
3 3
55 0
end_mutex_group
begin_mutex_group
4
0 0
0 1
0 2
0 3
end_mutex_group
begin_mutex_group
4
0 0
0 1
0 2
52 0
end_mutex_group
begin_mutex_group
4
0 0
0 1
0 3
52 0
end_mutex_group
begin_mutex_group
4
0 0
0 2
0 3
52 0
end_mutex_group
begin_mutex_group
4
1 0
1 1
1 2
1 3
end_mutex_group
begin_mutex_group
4
1 0
1 1
1 2
53 0
end_mutex_group
begin_mutex_group
4
1 0
1 1
1 3
53 0
end_mutex_group
begin_mutex_group
4
1 0
1 2
1 3
53 0
end_mutex_group
begin_mutex_group
4
2 0
2 1
2 2
2 3
end_mutex_group
begin_mutex_group
4
2 0
2 1
2 2
54 0
end_mutex_group
begin_mutex_group
4
2 0
2 1
2 3
54 0
end_mutex_group
begin_mutex_group
4
2 0
2 2
2 3
54 0
end_mutex_group
begin_mutex_group
4
3 0
3 1
3 2
3 3
end_mutex_group
begin_mutex_group
4
3 0
3 1
3 2
55 0
end_mutex_group
begin_mutex_group
4
3 0
3 1
3 3
55 0
end_mutex_group
begin_mutex_group
4
3 0
3 2
3 3
55 0
end_mutex_group
begin_state
0
0
0
0
0
0
0
0
1
1
1
1
1
1
1
1
1
1
1
1
1
1
1
1
1
1
1
1
1
1
1
1
1
1
1
1
1
1
1
1
1
1
1
1
1
1
0
0
1
1
1
1
1
1
1
1
1
1
1
0
0
0
1
1
1
1
1
1
1
1
1
1
1
1
1
1
1
1
1
1
1
1
1
1
1
1
1
1
0
1
1
1
1
1
1
1
1
1
1
1
1
1
1
1
end_state
begin_goal
2
24 0
79 0
end_goal
207
begin_operator
auth_to_dms-everest-bob_dms_pwd-bob_uid-dmss1
2
11 0
70 0
3
0 19 1 0
0 82 0 1
0 88 -1 0
0
end_operator
begin_operator
auth_to_dms-everest-greg_dms_pwd-greg_uid-dmss2
2
12 0
71 0
4
0 18 1 0
0 25 -1 0
0 82 0 1
0 88 -1 0
0
end_operator
begin_operator
dms_begin_session-dmss1
0
3
0 13 1 0
0 87 -1 0
0 88 0 1
0
end_operator
begin_operator
dms_begin_session-dmss2
0
3
0 14 1 0
0 87 -1 0
0 88 0 1
0
end_operator
begin_operator
dms_client_find-sherpa-proc_0-iexplorer-greg-dmss2
6
4 1
12 1
14 0
18 1
38 0
58 0
5
0 65 -1 0
0 66 -1 0
0 73 -1 0
0 81 -1 0
0 87 0 1
0
end_operator
begin_operator
dms_client_find-sherpa-proc_1-iexplorer-greg-dmss2
6
5 1
12 1
14 0
18 1
39 0
58 0
5
0 65 -1 0
0 67 -1 0
0 73 -1 0
0 81 -1 0
0 87 0 1
0
end_operator
begin_operator
dms_client_find-sherpa-proc_2-iexplorer-greg-dmss2
6
6 1
12 1
14 0
18 1
40 0
58 0
5
0 65 -1 0
0 68 -1 0
0 73 -1 0
0 81 -1 0
0 87 0 1
0
end_operator
begin_operator
dms_client_find-sherpa-proc_3-iexplorer-greg-dmss2
6
7 1
12 1
14 0
18 1
41 0
58 0
5
0 65 -1 0
0 69 -1 0
0 73 -1 0
0 81 -1 0
0 87 0 1
0
end_operator
begin_operator
dms_client_find-yeti-proc_0-iexplorer-bob-dmss1
6
0 1
11 1
13 0
19 1
42 0
57 0
4
0 64 -1 0
0 72 -1 0
0 81 -1 0
0 87 0 1
0
end_operator
begin_operator
dms_client_find-yeti-proc_1-iexplorer-bob-dmss1
6
1 1
11 1
13 0
19 1
43 0
57 0
4
0 64 -1 0
0 72 -1 0
0 81 -1 0
0 87 0 1
0
end_operator
begin_operator
dms_client_find-yeti-proc_2-iexplorer-bob-dmss1
6
2 1
11 1
13 0
19 1
44 0
57 0
4
0 64 -1 0
0 72 -1 0
0 81 -1 0
0 87 0 1
0
end_operator
begin_operator
dms_client_find-yeti-proc_3-iexplorer-bob-dmss1
6
3 1
11 1
13 0
19 1
45 0
57 0
4
0 64 -1 0
0 72 -1 0
0 81 -1 0
0 87 0 1
0
end_operator
begin_operator
dms_connect-proc_0-everest-nes-dmss1
2
11 1
19 1
3
0 74 -1 0
0 81 0 1
0 83 -1 0
0
end_operator
begin_operator
dms_connect-proc_0-everest-nes-dmss2
2
12 1
18 1
3
0 75 -1 0
0 81 0 1
0 83 -1 0
0
end_operator
begin_operator
dms_enter_password-bob-yeti-bob_dms_pwd-dmss1
3
19 1
64 0
72 0
3
0 70 -1 0
0 82 -1 0
0 84 0 1
0
end_operator
begin_operator
dms_enter_password-bob-yeti-bob_pgp_pwd-dmss1
3
19 1
64 0
72 0
2
0 82 -1 0
0 84 0 1
0
end_operator
begin_operator
dms_enter_password-bob-yeti-bob_pwd-dmss1
3
19 1
64 0
72 0
2
0 82 -1 0
0 84 0 1
0
end_operator
begin_operator
dms_enter_password-bob-yeti-secret_info-dmss1
4
19 1
64 0
72 0
79 0
2
0 82 -1 0
0 84 0 1
0
end_operator
begin_operator
dms_enter_password-greg-sherpa-greg_dms_pwd-dmss2
3
18 1
65 0
73 0
3
0 71 -1 0
0 82 -1 0
0 84 0 1
0
end_operator
begin_operator
dms_enter_password-greg-sherpa-greg_pwd-dmss2
3
18 1
65 0
73 0
2
0 82 -1 0
0 84 0 1
0
end_operator
begin_operator
dms_req_begin-dmss1-bob-yeti
3
19 0
57 0
64 0
2
0 85 -1 0
0 88 0 1
0
end_operator
begin_operator
dms_req_begin-dmss2-greg-sherpa
3
25 0
58 0
65 0
3
0 62 -1 0
0 85 -1 0
0 88 0 1
0
end_operator
begin_operator
dms_request-dmss2-e_secret_doc-everest-greg_uid-admin_gid
3
18 0
62 0
75 0
3
0 63 -1 0
0 85 0 1
0 86 -1 0
0
end_operator
begin_operator
dms_route-sherpa-everest-dmss2
3
18 1
65 0
75 0
3
0 12 1 0
0 83 0 1
0 84 -1 0
0
end_operator
begin_operator
dms_route-yeti-everest-dmss1
3
19 1
64 0
74 0
3
0 11 1 0
0 83 0 1
0 84 -1 0
0
end_operator
begin_operator
dms_send-dmss2-sherpa-proc_0-e_secret_doc
2
65 0
66 0
5
0 62 0 1
0 63 0 1
0 86 0 1
0 88 -1 0
0 96 -1 0
0
end_operator
begin_operator
dms_send-dmss2-sherpa-proc_1-e_secret_doc
2
65 0
67 0
5
0 62 0 1
0 63 0 1
0 86 0 1
0 88 -1 0
0 97 -1 0
0
end_operator
begin_operator
dms_send-dmss2-sherpa-proc_2-e_secret_doc
2
65 0
68 0
5
0 62 0 1
0 63 0 1
0 86 0 1
0 88 -1 0
0 98 -1 0
0
end_operator
begin_operator
dms_send-dmss2-sherpa-proc_3-e_secret_doc
2
65 0
69 0
5
0 62 0 1
0 63 0 1
0 86 0 1
0 88 -1 0
0 99 -1 0
0
end_operator
begin_operator
enter_password-adam-adam_uid-bigfoot-adam_pwd
1
15 0
3
0 8 1 0
0 90 0 1
0 91 -1 0
0
end_operator
begin_operator
enter_password-bob-bob_uid-yeti-bob_pwd
1
16 0
3
0 9 1 0
0 90 0 1
0 91 -1 0
0
end_operator
begin_operator
enter_password-greg-greg_uid-sherpa-greg_pwd
1
17 0
3
0 10 1 0
0 90 0 1
0 91 -1 0
0
end_operator
begin_operator
enter_uname-adam-adam_uid-bigfoot
1
56 0
3
0 15 1 0
0 88 0 1
0 90 -1 0
0
end_operator
begin_operator
enter_uname-adam-bob_uid-bigfoot
1
56 0
3
0 15 1 2
0 88 0 1
0 90 -1 0
0
end_operator
begin_operator
enter_uname-adam-dms_uid-bigfoot
1
56 0
3
0 15 1 2
0 88 0 1
0 90 -1 0
0
end_operator
begin_operator
enter_uname-adam-greg_uid-bigfoot
1
56 0
3
0 15 1 2
0 88 0 1
0 90 -1 0
0
end_operator
begin_operator
enter_uname-adam-nouid-bigfoot
1
56 0
3
0 15 1 2
0 88 0 1
0 90 -1 0
0
end_operator
begin_operator
enter_uname-adam-sys_uid-bigfoot
1
56 0
3
0 15 1 2
0 88 0 1
0 90 -1 0
0
end_operator
begin_operator
enter_uname-bob-adam_uid-yeti
1
57 0
3
0 16 1 2
0 88 0 1
0 90 -1 0
0
end_operator
begin_operator
enter_uname-bob-bob_uid-yeti
1
57 0
3
0 16 1 0
0 88 0 1
0 90 -1 0
0
end_operator
begin_operator
enter_uname-bob-dms_uid-yeti
1
57 0
3
0 16 1 2
0 88 0 1
0 90 -1 0
0
end_operator
begin_operator
enter_uname-bob-greg_uid-yeti
1
57 0
3
0 16 1 2
0 88 0 1
0 90 -1 0
0
end_operator
begin_operator
enter_uname-bob-nouid-yeti
1
57 0
3
0 16 1 2
0 88 0 1
0 90 -1 0
0
end_operator
begin_operator
enter_uname-bob-sys_uid-yeti
1
57 0
3
0 16 1 2
0 88 0 1
0 90 -1 0
0
end_operator
begin_operator
enter_uname-greg-adam_uid-sherpa
1
58 0
3
0 17 1 2
0 88 0 1
0 90 -1 0
0
end_operator
begin_operator
enter_uname-greg-bob_uid-sherpa
1
58 0
3
0 17 1 2
0 88 0 1
0 90 -1 0
0
end_operator
begin_operator
enter_uname-greg-dms_uid-sherpa
1
58 0
3
0 17 1 2
0 88 0 1
0 90 -1 0
0
end_operator
begin_operator
enter_uname-greg-greg_uid-sherpa
1
58 0
3
0 17 1 0
0 88 0 1
0 90 -1 0
0
end_operator
begin_operator
enter_uname-greg-nouid-sherpa
1
58 0
3
0 17 1 2
0 88 0 1
0 90 -1 0
0
end_operator
begin_operator
enter_uname-greg-sys_uid-sherpa
1
58 0
3
0 17 1 2
0 88 0 1
0 90 -1 0
0
end_operator
begin_operator
exec_file-bigfoot-adam-adam_uid-admin_gid-proc_0-b_iexplore
1
56 0
5
0 20 1 0
0 34 -1 0
0 76 0 1
0 88 -1 0
0 89 0 1
0
end_operator
begin_operator
exec_file-bigfoot-adam-adam_uid-admin_gid-proc_0-b_outlook
1
56 0
5
0 20 1 0
0 34 -1 0
0 76 0 1
0 88 -1 0
0 89 0 1
0
end_operator
begin_operator
exec_file-bigfoot-adam-adam_uid-admin_gid-proc_0-b_wexplore
1
56 0
6
0 20 1 0
0 34 -1 0
0 48 -1 0
0 76 0 1
0 88 -1 0
0 89 0 1
0
end_operator
begin_operator
exec_file-bigfoot-adam-adam_uid-admin_gid-proc_1-b_iexplore
1
56 0
5
0 21 1 0
0 35 -1 0
0 76 0 1
0 88 -1 0
0 89 0 1
0
end_operator
begin_operator
exec_file-bigfoot-adam-adam_uid-admin_gid-proc_1-b_outlook
1
56 0
5
0 21 1 0
0 35 -1 0
0 76 0 1
0 88 -1 0
0 89 0 1
0
end_operator
begin_operator
exec_file-bigfoot-adam-adam_uid-admin_gid-proc_1-b_wexplore
1
56 0
6
0 21 1 0
0 35 -1 0
0 49 -1 0
0 76 0 1
0 88 -1 0
0 89 0 1
0
end_operator
begin_operator
exec_file-bigfoot-adam-adam_uid-admin_gid-proc_2-b_iexplore
1
56 0
5
0 22 1 0
0 36 -1 0
0 76 0 1
0 88 -1 0
0 89 0 1
0
end_operator
begin_operator
exec_file-bigfoot-adam-adam_uid-admin_gid-proc_2-b_outlook
1
56 0
5
0 22 1 0
0 36 -1 0
0 76 0 1
0 88 -1 0
0 89 0 1
0
end_operator
begin_operator
exec_file-bigfoot-adam-adam_uid-admin_gid-proc_2-b_wexplore
1
56 0
6
0 22 1 0
0 36 -1 0
0 50 -1 0
0 76 0 1
0 88 -1 0
0 89 0 1
0
end_operator
begin_operator
exec_file-bigfoot-adam-adam_uid-admin_gid-proc_3-b_iexplore
1
56 0
5
0 23 1 0
0 37 -1 0
0 76 0 1
0 88 -1 0
0 89 0 1
0
end_operator
begin_operator
exec_file-bigfoot-adam-adam_uid-admin_gid-proc_3-b_outlook
1
56 0
5
0 23 1 0
0 37 -1 0
0 76 0 1
0 88 -1 0
0 89 0 1
0
end_operator
begin_operator
exec_file-bigfoot-adam-adam_uid-admin_gid-proc_3-b_wexplore
1
56 0
6
0 23 1 0
0 37 -1 0
0 51 -1 0
0 76 0 1
0 88 -1 0
0 89 0 1
0
end_operator
begin_operator
exec_file-sherpa-greg-greg_uid-everyone-proc_0-s_iexplore
1
58 0
6
0 4 0 1
0 26 -1 0
0 38 -1 0
0 77 0 1
0 88 -1 0
0 89 0 1
0
end_operator
begin_operator
exec_file-sherpa-greg-greg_uid-everyone-proc_0-s_outlook
1
58 0
6
0 4 0 3
0 26 -1 0
0 38 -1 0
0 77 0 1
0 88 -1 0
0 89 0 1
0
end_operator
begin_operator
exec_file-sherpa-greg-greg_uid-everyone-proc_0-s_wexplore
1
58 0
6
0 4 0 2
0 26 -1 0
0 38 -1 0
0 77 0 1
0 88 -1 0
0 89 0 1
0
end_operator
begin_operator
exec_file-sherpa-greg-greg_uid-everyone-proc_1-s_iexplore
1
58 0
6
0 5 0 1
0 27 -1 0
0 39 -1 0
0 77 0 1
0 88 -1 0
0 89 0 1
0
end_operator
begin_operator
exec_file-sherpa-greg-greg_uid-everyone-proc_1-s_outlook
1
58 0
6
0 5 0 3
0 27 -1 0
0 39 -1 0
0 77 0 1
0 88 -1 0
0 89 0 1
0
end_operator
begin_operator
exec_file-sherpa-greg-greg_uid-everyone-proc_1-s_wexplore
1
58 0
6
0 5 0 2
0 27 -1 0
0 39 -1 0
0 77 0 1
0 88 -1 0
0 89 0 1
0
end_operator
begin_operator
exec_file-sherpa-greg-greg_uid-everyone-proc_2-s_iexplore
1
58 0
6
0 6 0 1
0 28 -1 0
0 40 -1 0
0 77 0 1
0 88 -1 0
0 89 0 1
0
end_operator
begin_operator
exec_file-sherpa-greg-greg_uid-everyone-proc_2-s_outlook
1
58 0
6
0 6 0 3
0 28 -1 0
0 40 -1 0
0 77 0 1
0 88 -1 0
0 89 0 1
0
end_operator
begin_operator
exec_file-sherpa-greg-greg_uid-everyone-proc_2-s_wexplore
1
58 0
6
0 6 0 2
0 28 -1 0
0 40 -1 0
0 77 0 1
0 88 -1 0
0 89 0 1
0
end_operator
begin_operator
exec_file-sherpa-greg-greg_uid-everyone-proc_3-s_iexplore
1
58 0
6
0 7 0 1
0 29 -1 0
0 41 -1 0
0 77 0 1
0 88 -1 0
0 89 0 1
0
end_operator
begin_operator
exec_file-sherpa-greg-greg_uid-everyone-proc_3-s_outlook
1
58 0
6
0 7 0 3
0 29 -1 0
0 41 -1 0
0 77 0 1
0 88 -1 0
0 89 0 1
0
end_operator
begin_operator
exec_file-sherpa-greg-greg_uid-everyone-proc_3-s_wexplore
1
58 0
6
0 7 0 2
0 29 -1 0
0 41 -1 0
0 77 0 1
0 88 -1 0
0 89 0 1
0
end_operator
begin_operator
exec_file-yeti-bob-bob_uid-east_gid-proc_0-new_file
1
57 0
6
0 0 0 4
0 30 -1 0
0 42 -1 0
0 78 0 1
0 88 -1 0
0 89 0 1
0
end_operator
begin_operator
exec_file-yeti-bob-bob_uid-east_gid-proc_0-y_ethereal
1
57 0
6
0 0 0 4
0 30 -1 0
0 42 -1 0
0 78 0 1
0 88 -1 0
0 89 0 1
0
end_operator
begin_operator
exec_file-yeti-bob-bob_uid-east_gid-proc_0-y_iexplore
1
57 0
6
0 0 0 1
0 30 -1 0
0 42 -1 0
0 78 0 1
0 88 -1 0
0 89 0 1
0
end_operator
begin_operator
exec_file-yeti-bob-bob_uid-east_gid-proc_0-y_outlook
1
57 0
6
0 0 0 4
0 30 -1 0
0 42 -1 0
0 78 0 1
0 88 -1 0
0 89 0 1
0
end_operator
begin_operator
exec_file-yeti-bob-bob_uid-east_gid-proc_0-y_tmaster
1
57 0
6
0 0 0 2
0 30 -1 0
0 42 -1 0
0 78 0 1
0 88 -1 0
0 89 0 1
0
end_operator
begin_operator
exec_file-yeti-bob-bob_uid-east_gid-proc_0-y_wexplore
1
57 0
6
0 0 0 3
0 30 -1 0
0 42 -1 0
0 78 0 1
0 88 -1 0
0 89 0 1
0
end_operator
begin_operator
exec_file-yeti-bob-bob_uid-east_gid-proc_0-y_winbork
1
57 0
7
0 0 0 4
0 30 -1 0
0 42 -1 0
0 52 -1 0
0 78 0 1
0 88 -1 0
0 89 0 1
0
end_operator
begin_operator
exec_file-yeti-bob-bob_uid-east_gid-proc_1-new_file
1
57 0
6
0 1 0 4
0 31 -1 0
0 43 -1 0
0 78 0 1
0 88 -1 0
0 89 0 1
0
end_operator
begin_operator
exec_file-yeti-bob-bob_uid-east_gid-proc_1-y_ethereal
1
57 0
6
0 1 0 4
0 31 -1 0
0 43 -1 0
0 78 0 1
0 88 -1 0
0 89 0 1
0
end_operator
begin_operator
exec_file-yeti-bob-bob_uid-east_gid-proc_1-y_iexplore
1
57 0
6
0 1 0 1
0 31 -1 0
0 43 -1 0
0 78 0 1
0 88 -1 0
0 89 0 1
0
end_operator
begin_operator
exec_file-yeti-bob-bob_uid-east_gid-proc_1-y_outlook
1
57 0
6
0 1 0 4
0 31 -1 0
0 43 -1 0
0 78 0 1
0 88 -1 0
0 89 0 1
0
end_operator
begin_operator
exec_file-yeti-bob-bob_uid-east_gid-proc_1-y_tmaster
1
57 0
6
0 1 0 2
0 31 -1 0
0 43 -1 0
0 78 0 1
0 88 -1 0
0 89 0 1
0
end_operator
begin_operator
exec_file-yeti-bob-bob_uid-east_gid-proc_1-y_wexplore
1
57 0
6
0 1 0 3
0 31 -1 0
0 43 -1 0
0 78 0 1
0 88 -1 0
0 89 0 1
0
end_operator
begin_operator
exec_file-yeti-bob-bob_uid-east_gid-proc_1-y_winbork
1
57 0
7
0 1 0 4
0 31 -1 0
0 43 -1 0
0 53 -1 0
0 78 0 1
0 88 -1 0
0 89 0 1
0
end_operator
begin_operator
exec_file-yeti-bob-bob_uid-east_gid-proc_2-new_file
1
57 0
6
0 2 0 4
0 32 -1 0
0 44 -1 0
0 78 0 1
0 88 -1 0
0 89 0 1
0
end_operator
begin_operator
exec_file-yeti-bob-bob_uid-east_gid-proc_2-y_ethereal
1
57 0
6
0 2 0 4
0 32 -1 0
0 44 -1 0
0 78 0 1
0 88 -1 0
0 89 0 1
0
end_operator
begin_operator
exec_file-yeti-bob-bob_uid-east_gid-proc_2-y_iexplore
1
57 0
6
0 2 0 1
0 32 -1 0
0 44 -1 0
0 78 0 1
0 88 -1 0
0 89 0 1
0
end_operator
begin_operator
exec_file-yeti-bob-bob_uid-east_gid-proc_2-y_outlook
1
57 0
6
0 2 0 4
0 32 -1 0
0 44 -1 0
0 78 0 1
0 88 -1 0
0 89 0 1
0
end_operator
begin_operator
exec_file-yeti-bob-bob_uid-east_gid-proc_2-y_tmaster
1
57 0
6
0 2 0 2
0 32 -1 0
0 44 -1 0
0 78 0 1
0 88 -1 0
0 89 0 1
0
end_operator
begin_operator
exec_file-yeti-bob-bob_uid-east_gid-proc_2-y_wexplore
1
57 0
6
0 2 0 3
0 32 -1 0
0 44 -1 0
0 78 0 1
0 88 -1 0
0 89 0 1
0
end_operator
begin_operator
exec_file-yeti-bob-bob_uid-east_gid-proc_2-y_winbork
1
57 0
7
0 2 0 4
0 32 -1 0
0 44 -1 0
0 54 -1 0
0 78 0 1
0 88 -1 0
0 89 0 1
0
end_operator
begin_operator
exec_file-yeti-bob-bob_uid-east_gid-proc_3-new_file
1
57 0
6
0 3 0 4
0 33 -1 0
0 45 -1 0
0 78 0 1
0 88 -1 0
0 89 0 1
0
end_operator
begin_operator
exec_file-yeti-bob-bob_uid-east_gid-proc_3-y_ethereal
1
57 0
6
0 3 0 4
0 33 -1 0
0 45 -1 0
0 78 0 1
0 88 -1 0
0 89 0 1
0
end_operator
begin_operator
exec_file-yeti-bob-bob_uid-east_gid-proc_3-y_iexplore
1
57 0
6
0 3 0 1
0 33 -1 0
0 45 -1 0
0 78 0 1
0 88 -1 0
0 89 0 1
0
end_operator
begin_operator
exec_file-yeti-bob-bob_uid-east_gid-proc_3-y_outlook
1
57 0
6
0 3 0 4
0 33 -1 0
0 45 -1 0
0 78 0 1
0 88 -1 0
0 89 0 1
0
end_operator
begin_operator
exec_file-yeti-bob-bob_uid-east_gid-proc_3-y_tmaster
1
57 0
6
0 3 0 2
0 33 -1 0
0 45 -1 0
0 78 0 1
0 88 -1 0
0 89 0 1
0
end_operator
begin_operator
exec_file-yeti-bob-bob_uid-east_gid-proc_3-y_wexplore
1
57 0
6
0 3 0 3
0 33 -1 0
0 45 -1 0
0 78 0 1
0 88 -1 0
0 89 0 1
0
end_operator
begin_operator
exec_file-yeti-bob-bob_uid-east_gid-proc_3-y_winbork
1
57 0
7
0 3 0 4
0 33 -1 0
0 45 -1 0
0 55 -1 0
0 78 0 1
0 88 -1 0
0 89 0 1
0
end_operator
begin_operator
inject_code-yeti-proc_0-winbork-sherpa-proc_0-wexplorer-bob-fb_virus
4
4 2
52 0
57 0
88 0
1
0 92 -1 0
1
end_operator
begin_operator
inject_code-yeti-proc_0-winbork-sherpa-proc_1-wexplorer-bob-fb_virus
4
5 2
52 0
57 0
88 0
1
0 93 -1 0
1
end_operator
begin_operator
inject_code-yeti-proc_0-winbork-sherpa-proc_2-wexplorer-bob-fb_virus
4
6 2
52 0
57 0
88 0
1
0 94 -1 0
1
end_operator
begin_operator
inject_code-yeti-proc_0-winbork-sherpa-proc_3-wexplorer-bob-fb_virus
4
7 2
52 0
57 0
88 0
1
0 95 -1 0
1
end_operator
begin_operator
inject_code-yeti-proc_1-winbork-sherpa-proc_0-wexplorer-bob-fb_virus
4
4 2
53 0
57 0
88 0
1
0 92 -1 0
1
end_operator
begin_operator
inject_code-yeti-proc_1-winbork-sherpa-proc_1-wexplorer-bob-fb_virus
4
5 2
53 0
57 0
88 0
1
0 93 -1 0
1
end_operator
begin_operator
inject_code-yeti-proc_1-winbork-sherpa-proc_2-wexplorer-bob-fb_virus
4
6 2
53 0
57 0
88 0
1
0 94 -1 0
1
end_operator
begin_operator
inject_code-yeti-proc_1-winbork-sherpa-proc_3-wexplorer-bob-fb_virus
4
7 2
53 0
57 0
88 0
1
0 95 -1 0
1
end_operator
begin_operator
inject_code-yeti-proc_2-winbork-sherpa-proc_0-wexplorer-bob-fb_virus
4
4 2
54 0
57 0
88 0
1
0 92 -1 0
1
end_operator
begin_operator
inject_code-yeti-proc_2-winbork-sherpa-proc_1-wexplorer-bob-fb_virus
4
5 2
54 0
57 0
88 0
1
0 93 -1 0
1
end_operator
begin_operator
inject_code-yeti-proc_2-winbork-sherpa-proc_2-wexplorer-bob-fb_virus
4
6 2
54 0
57 0
88 0
1
0 94 -1 0
1
end_operator
begin_operator
inject_code-yeti-proc_2-winbork-sherpa-proc_3-wexplorer-bob-fb_virus
4
7 2
54 0
57 0
88 0
1
0 95 -1 0
1
end_operator
begin_operator
inject_code-yeti-proc_3-winbork-sherpa-proc_0-wexplorer-bob-fb_virus
4
4 2
55 0
57 0
88 0
1
0 92 -1 0
1
end_operator
begin_operator
inject_code-yeti-proc_3-winbork-sherpa-proc_1-wexplorer-bob-fb_virus
4
5 2
55 0
57 0
88 0
1
0 93 -1 0
1
end_operator
begin_operator
inject_code-yeti-proc_3-winbork-sherpa-proc_2-wexplorer-bob-fb_virus
4
6 2
55 0
57 0
88 0
1
0 94 -1 0
1
end_operator
begin_operator
inject_code-yeti-proc_3-winbork-sherpa-proc_3-wexplorer-bob-fb_virus
4
7 2
55 0
57 0
88 0
1
0 95 -1 0
1
end_operator
begin_operator
launch_shell-adam_uid-bigfoot-b_wexplore-proc_0
1
8 0
5
0 20 1 0
0 34 -1 0
0 48 -1 0
0 88 -1 0
0 91 0 1
0
end_operator
begin_operator
launch_shell-adam_uid-bigfoot-b_wexplore-proc_1
1
8 0
5
0 21 1 0
0 35 -1 0
0 49 -1 0
0 88 -1 0
0 91 0 1
0
end_operator
begin_operator
launch_shell-adam_uid-bigfoot-b_wexplore-proc_2
1
8 0
5
0 22 1 0
0 36 -1 0
0 50 -1 0
0 88 -1 0
0 91 0 1
0
end_operator
begin_operator
launch_shell-adam_uid-bigfoot-b_wexplore-proc_3
1
8 0
5
0 23 1 0
0 37 -1 0
0 51 -1 0
0 88 -1 0
0 91 0 1
0
end_operator
begin_operator
launch_shell-bob_uid-yeti-y_wexplore-proc_0
1
9 0
5
0 0 0 3
0 30 -1 0
0 42 -1 0
0 88 -1 0
0 91 0 1
0
end_operator
begin_operator
launch_shell-bob_uid-yeti-y_wexplore-proc_1
1
9 0
5
0 1 0 3
0 31 -1 0
0 43 -1 0
0 88 -1 0
0 91 0 1
0
end_operator
begin_operator
launch_shell-bob_uid-yeti-y_wexplore-proc_2
1
9 0
5
0 2 0 3
0 32 -1 0
0 44 -1 0
0 88 -1 0
0 91 0 1
0
end_operator
begin_operator
launch_shell-bob_uid-yeti-y_wexplore-proc_3
1
9 0
5
0 3 0 3
0 33 -1 0
0 45 -1 0
0 88 -1 0
0 91 0 1
0
end_operator
begin_operator
launch_shell-greg_uid-sherpa-s_wexplore-proc_0
1
10 0
5
0 4 0 2
0 26 -1 0
0 38 -1 0
0 88 -1 0
0 91 0 1
0
end_operator
begin_operator
launch_shell-greg_uid-sherpa-s_wexplore-proc_1
1
10 0
5
0 5 0 2
0 27 -1 0
0 39 -1 0
0 88 -1 0
0 91 0 1
0
end_operator
begin_operator
launch_shell-greg_uid-sherpa-s_wexplore-proc_2
1
10 0
5
0 6 0 2
0 28 -1 0
0 40 -1 0
0 88 -1 0
0 91 0 1
0
end_operator
begin_operator
launch_shell-greg_uid-sherpa-s_wexplore-proc_3
1
10 0
5
0 7 0 2
0 29 -1 0
0 41 -1 0
0 88 -1 0
0 91 0 1
0
end_operator
begin_operator
leave_host-adam-bigfoot
2
59 0
88 0
0
0
end_operator
begin_operator
leave_host-bob-yeti
2
61 0
88 0
0
0
end_operator
begin_operator
leave_host-greg-sherpa
2
60 0
88 0
0
0
end_operator
begin_operator
lock_screen-bob-yeti-bob_uid
3
9 0
57 0
88 0
1
0 47 0 1
0
end_operator
begin_operator
lock_screen-greg-sherpa-greg_uid
3
10 0
58 0
88 0
1
0 46 0 1
0
end_operator
begin_operator
mandatory-bob
1
88 0
1
0 24 1 0
1
end_operator
begin_operator
proc_fork-bigfoot-adam_uid-proc_0-wexplorer
3
20 0
34 0
48 0
3
0 76 -1 0
0 88 0 1
0 89 -1 0
0
end_operator
begin_operator
proc_fork-bigfoot-adam_uid-proc_1-wexplorer
3
21 0
35 0
49 0
3
0 76 -1 0
0 88 0 1
0 89 -1 0
0
end_operator
begin_operator
proc_fork-bigfoot-adam_uid-proc_2-wexplorer
3
22 0
36 0
50 0
3
0 76 -1 0
0 88 0 1
0 89 -1 0
0
end_operator
begin_operator
proc_fork-bigfoot-adam_uid-proc_3-wexplorer
3
23 0
37 0
51 0
3
0 76 -1 0
0 88 0 1
0 89 -1 0
0
end_operator
begin_operator
proc_fork-sherpa-greg_uid-proc_0-wexplorer
3
4 2
26 0
38 0
3
0 77 -1 0
0 88 0 1
0 89 -1 0
0
end_operator
begin_operator
proc_fork-sherpa-greg_uid-proc_1-wexplorer
3
5 2
27 0
39 0
3
0 77 -1 0
0 88 0 1
0 89 -1 0
0
end_operator
begin_operator
proc_fork-sherpa-greg_uid-proc_2-wexplorer
3
6 2
28 0
40 0
3
0 77 -1 0
0 88 0 1
0 89 -1 0
0
end_operator
begin_operator
proc_fork-sherpa-greg_uid-proc_3-wexplorer
3
7 2
29 0
41 0
3
0 77 -1 0
0 88 0 1
0 89 -1 0
0
end_operator
begin_operator
proc_fork-yeti-bob_uid-proc_0-wexplorer
3
0 3
30 0
42 0
3
0 78 -1 0
0 88 0 1
0 89 -1 0
0
end_operator
begin_operator
proc_fork-yeti-bob_uid-proc_1-wexplorer
3
1 3
31 0
43 0
3
0 78 -1 0
0 88 0 1
0 89 -1 0
0
end_operator
begin_operator
proc_fork-yeti-bob_uid-proc_2-wexplorer
3
2 3
32 0
44 0
3
0 78 -1 0
0 88 0 1
0 89 -1 0
0
end_operator
begin_operator
proc_fork-yeti-bob_uid-proc_3-wexplorer
3
3 3
33 0
45 0
3
0 78 -1 0
0 88 0 1
0 89 -1 0
0
end_operator
begin_operator
read_doc-bob-yeti-proc_0-e_secret_doc-bobs_office-secret_info
3
47 0
88 0
100 0
1
0 79 -1 0
0
end_operator
begin_operator
read_doc-bob-yeti-proc_1-e_secret_doc-bobs_office-secret_info
3
47 0
88 0
101 0
1
0 79 -1 0
0
end_operator
begin_operator
read_doc-bob-yeti-proc_2-e_secret_doc-bobs_office-secret_info
3
47 0
88 0
102 0
1
0 79 -1 0
0
end_operator
begin_operator
read_doc-bob-yeti-proc_3-e_secret_doc-bobs_office-secret_info
3
47 0
88 0
103 0
1
0 79 -1 0
0
end_operator
begin_operator
read_doc-greg-sherpa-proc_0-e_secret_doc-gregs_office-secret_info
3
46 0
88 0
96 0
1
0 80 -1 0
0
end_operator
begin_operator
read_doc-greg-sherpa-proc_1-e_secret_doc-gregs_office-secret_info
3
46 0
88 0
97 0
1
0 80 -1 0
0
end_operator
begin_operator
read_doc-greg-sherpa-proc_2-e_secret_doc-gregs_office-secret_info
3
46 0
88 0
98 0
1
0 80 -1 0
0
end_operator
begin_operator
read_doc-greg-sherpa-proc_3-e_secret_doc-gregs_office-secret_info
3
46 0
88 0
99 0
1
0 80 -1 0
0
end_operator
begin_operator
relay_viewed_doc-e_secret_doc-bob-sherpa-proc_0-proc_1-fb_virus-yeti-proc_0-troj_master
5
0 2
57 0
88 0
93 0
96 0
1
0 100 -1 0
1
end_operator
begin_operator
relay_viewed_doc-e_secret_doc-bob-sherpa-proc_0-proc_1-fb_virus-yeti-proc_1-troj_master
5
1 2
57 0
88 0
93 0
96 0
1
0 101 -1 0
1
end_operator
begin_operator
relay_viewed_doc-e_secret_doc-bob-sherpa-proc_0-proc_1-fb_virus-yeti-proc_2-troj_master
5
2 2
57 0
88 0
93 0
96 0
1
0 102 -1 0
1
end_operator
begin_operator
relay_viewed_doc-e_secret_doc-bob-sherpa-proc_0-proc_1-fb_virus-yeti-proc_3-troj_master
5
3 2
57 0
88 0
93 0
96 0
1
0 103 -1 0
1
end_operator
begin_operator
relay_viewed_doc-e_secret_doc-bob-sherpa-proc_0-proc_2-fb_virus-yeti-proc_0-troj_master
5
0 2
57 0
88 0
94 0
96 0
1
0 100 -1 0
1
end_operator
begin_operator
relay_viewed_doc-e_secret_doc-bob-sherpa-proc_0-proc_2-fb_virus-yeti-proc_1-troj_master
5
1 2
57 0
88 0
94 0
96 0
1
0 101 -1 0
1
end_operator
begin_operator
relay_viewed_doc-e_secret_doc-bob-sherpa-proc_0-proc_2-fb_virus-yeti-proc_2-troj_master
5
2 2
57 0
88 0
94 0
96 0
1
0 102 -1 0
1
end_operator
begin_operator
relay_viewed_doc-e_secret_doc-bob-sherpa-proc_0-proc_2-fb_virus-yeti-proc_3-troj_master
5
3 2
57 0
88 0
94 0
96 0
1
0 103 -1 0
1
end_operator
begin_operator
relay_viewed_doc-e_secret_doc-bob-sherpa-proc_0-proc_3-fb_virus-yeti-proc_0-troj_master
5
0 2
57 0
88 0
95 0
96 0
1
0 100 -1 0
1
end_operator
begin_operator
relay_viewed_doc-e_secret_doc-bob-sherpa-proc_0-proc_3-fb_virus-yeti-proc_1-troj_master
5
1 2
57 0
88 0
95 0
96 0
1
0 101 -1 0
1
end_operator
begin_operator
relay_viewed_doc-e_secret_doc-bob-sherpa-proc_0-proc_3-fb_virus-yeti-proc_2-troj_master
5
2 2
57 0
88 0
95 0
96 0
1
0 102 -1 0
1
end_operator
begin_operator
relay_viewed_doc-e_secret_doc-bob-sherpa-proc_0-proc_3-fb_virus-yeti-proc_3-troj_master
5
3 2
57 0
88 0
95 0
96 0
1
0 103 -1 0
1
end_operator
begin_operator
relay_viewed_doc-e_secret_doc-bob-sherpa-proc_1-proc_0-fb_virus-yeti-proc_0-troj_master
5
0 2
57 0
88 0
92 0
97 0
1
0 100 -1 0
1
end_operator
begin_operator
relay_viewed_doc-e_secret_doc-bob-sherpa-proc_1-proc_0-fb_virus-yeti-proc_1-troj_master
5
1 2
57 0
88 0
92 0
97 0
1
0 101 -1 0
1
end_operator
begin_operator
relay_viewed_doc-e_secret_doc-bob-sherpa-proc_1-proc_0-fb_virus-yeti-proc_2-troj_master
5
2 2
57 0
88 0
92 0
97 0
1
0 102 -1 0
1
end_operator
begin_operator
relay_viewed_doc-e_secret_doc-bob-sherpa-proc_1-proc_0-fb_virus-yeti-proc_3-troj_master
5
3 2
57 0
88 0
92 0
97 0
1
0 103 -1 0
1
end_operator
begin_operator
relay_viewed_doc-e_secret_doc-bob-sherpa-proc_1-proc_2-fb_virus-yeti-proc_0-troj_master
5
0 2
57 0
88 0
94 0
97 0
1
0 100 -1 0
1
end_operator
begin_operator
relay_viewed_doc-e_secret_doc-bob-sherpa-proc_1-proc_2-fb_virus-yeti-proc_1-troj_master
5
1 2
57 0
88 0
94 0
97 0
1
0 101 -1 0
1
end_operator
begin_operator
relay_viewed_doc-e_secret_doc-bob-sherpa-proc_1-proc_2-fb_virus-yeti-proc_2-troj_master
5
2 2
57 0
88 0
94 0
97 0
1
0 102 -1 0
1
end_operator
begin_operator
relay_viewed_doc-e_secret_doc-bob-sherpa-proc_1-proc_2-fb_virus-yeti-proc_3-troj_master
5
3 2
57 0
88 0
94 0
97 0
1
0 103 -1 0
1
end_operator
begin_operator
relay_viewed_doc-e_secret_doc-bob-sherpa-proc_1-proc_3-fb_virus-yeti-proc_0-troj_master
5
0 2
57 0
88 0
95 0
97 0
1
0 100 -1 0
1
end_operator
begin_operator
relay_viewed_doc-e_secret_doc-bob-sherpa-proc_1-proc_3-fb_virus-yeti-proc_1-troj_master
5
1 2
57 0
88 0
95 0
97 0
1
0 101 -1 0
1
end_operator
begin_operator
relay_viewed_doc-e_secret_doc-bob-sherpa-proc_1-proc_3-fb_virus-yeti-proc_2-troj_master
5
2 2
57 0
88 0
95 0
97 0
1
0 102 -1 0
1
end_operator
begin_operator
relay_viewed_doc-e_secret_doc-bob-sherpa-proc_1-proc_3-fb_virus-yeti-proc_3-troj_master
5
3 2
57 0
88 0
95 0
97 0
1
0 103 -1 0
1
end_operator
begin_operator
relay_viewed_doc-e_secret_doc-bob-sherpa-proc_2-proc_0-fb_virus-yeti-proc_0-troj_master
5
0 2
57 0
88 0
92 0
98 0
1
0 100 -1 0
1
end_operator
begin_operator
relay_viewed_doc-e_secret_doc-bob-sherpa-proc_2-proc_0-fb_virus-yeti-proc_1-troj_master
5
1 2
57 0
88 0
92 0
98 0
1
0 101 -1 0
1
end_operator
begin_operator
relay_viewed_doc-e_secret_doc-bob-sherpa-proc_2-proc_0-fb_virus-yeti-proc_2-troj_master
5
2 2
57 0
88 0
92 0
98 0
1
0 102 -1 0
1
end_operator
begin_operator
relay_viewed_doc-e_secret_doc-bob-sherpa-proc_2-proc_0-fb_virus-yeti-proc_3-troj_master
5
3 2
57 0
88 0
92 0
98 0
1
0 103 -1 0
1
end_operator
begin_operator
relay_viewed_doc-e_secret_doc-bob-sherpa-proc_2-proc_1-fb_virus-yeti-proc_0-troj_master
5
0 2
57 0
88 0
93 0
98 0
1
0 100 -1 0
1
end_operator
begin_operator
relay_viewed_doc-e_secret_doc-bob-sherpa-proc_2-proc_1-fb_virus-yeti-proc_1-troj_master
5
1 2
57 0
88 0
93 0
98 0
1
0 101 -1 0
1
end_operator
begin_operator
relay_viewed_doc-e_secret_doc-bob-sherpa-proc_2-proc_1-fb_virus-yeti-proc_2-troj_master
5
2 2
57 0
88 0
93 0
98 0
1
0 102 -1 0
1
end_operator
begin_operator
relay_viewed_doc-e_secret_doc-bob-sherpa-proc_2-proc_1-fb_virus-yeti-proc_3-troj_master
5
3 2
57 0
88 0
93 0
98 0
1
0 103 -1 0
1
end_operator
begin_operator
relay_viewed_doc-e_secret_doc-bob-sherpa-proc_2-proc_3-fb_virus-yeti-proc_0-troj_master
5
0 2
57 0
88 0
95 0
98 0
1
0 100 -1 0
1
end_operator
begin_operator
relay_viewed_doc-e_secret_doc-bob-sherpa-proc_2-proc_3-fb_virus-yeti-proc_1-troj_master
5
1 2
57 0
88 0
95 0
98 0
1
0 101 -1 0
1
end_operator
begin_operator
relay_viewed_doc-e_secret_doc-bob-sherpa-proc_2-proc_3-fb_virus-yeti-proc_2-troj_master
5
2 2
57 0
88 0
95 0
98 0
1
0 102 -1 0
1
end_operator
begin_operator
relay_viewed_doc-e_secret_doc-bob-sherpa-proc_2-proc_3-fb_virus-yeti-proc_3-troj_master
5
3 2
57 0
88 0
95 0
98 0
1
0 103 -1 0
1
end_operator
begin_operator
relay_viewed_doc-e_secret_doc-bob-sherpa-proc_3-proc_0-fb_virus-yeti-proc_0-troj_master
5
0 2
57 0
88 0
92 0
99 0
1
0 100 -1 0
1
end_operator
begin_operator
relay_viewed_doc-e_secret_doc-bob-sherpa-proc_3-proc_0-fb_virus-yeti-proc_1-troj_master
5
1 2
57 0
88 0
92 0
99 0
1
0 101 -1 0
1
end_operator
begin_operator
relay_viewed_doc-e_secret_doc-bob-sherpa-proc_3-proc_0-fb_virus-yeti-proc_2-troj_master
5
2 2
57 0
88 0
92 0
99 0
1
0 102 -1 0
1
end_operator
begin_operator
relay_viewed_doc-e_secret_doc-bob-sherpa-proc_3-proc_0-fb_virus-yeti-proc_3-troj_master
5
3 2
57 0
88 0
92 0
99 0
1
0 103 -1 0
1
end_operator
begin_operator
relay_viewed_doc-e_secret_doc-bob-sherpa-proc_3-proc_1-fb_virus-yeti-proc_0-troj_master
5
0 2
57 0
88 0
93 0
99 0
1
0 100 -1 0
1
end_operator
begin_operator
relay_viewed_doc-e_secret_doc-bob-sherpa-proc_3-proc_1-fb_virus-yeti-proc_1-troj_master
5
1 2
57 0
88 0
93 0
99 0
1
0 101 -1 0
1
end_operator
begin_operator
relay_viewed_doc-e_secret_doc-bob-sherpa-proc_3-proc_1-fb_virus-yeti-proc_2-troj_master
5
2 2
57 0
88 0
93 0
99 0
1
0 102 -1 0
1
end_operator
begin_operator
relay_viewed_doc-e_secret_doc-bob-sherpa-proc_3-proc_1-fb_virus-yeti-proc_3-troj_master
5
3 2
57 0
88 0
93 0
99 0
1
0 103 -1 0
1
end_operator
begin_operator
relay_viewed_doc-e_secret_doc-bob-sherpa-proc_3-proc_2-fb_virus-yeti-proc_0-troj_master
5
0 2
57 0
88 0
94 0
99 0
1
0 100 -1 0
1
end_operator
begin_operator
relay_viewed_doc-e_secret_doc-bob-sherpa-proc_3-proc_2-fb_virus-yeti-proc_1-troj_master
5
1 2
57 0
88 0
94 0
99 0
1
0 101 -1 0
1
end_operator
begin_operator
relay_viewed_doc-e_secret_doc-bob-sherpa-proc_3-proc_2-fb_virus-yeti-proc_2-troj_master
5
2 2
57 0
88 0
94 0
99 0
1
0 102 -1 0
1
end_operator
begin_operator
relay_viewed_doc-e_secret_doc-bob-sherpa-proc_3-proc_2-fb_virus-yeti-proc_3-troj_master
5
3 2
57 0
88 0
94 0
99 0
1
0 103 -1 0
1
end_operator
begin_operator
sit_at_host-adam-bigfoot-adams_office
1
88 0
2
0 56 -1 0
0 59 0 1
0
end_operator
begin_operator
sit_at_host-bob-yeti-bobs_office
1
88 0
2
0 57 -1 0
0 61 0 1
0
end_operator
begin_operator
sit_at_host-greg-sherpa-gregs_office
1
88 0
2
0 58 -1 0
0 60 0 1
0
end_operator
0
