Reduced 31 -> 21
Domain: pipesworld_strips
Problem: p01-net1-b6-g2_rt0_instance
Require: ff
Type[6]:
    [0]: object, parent: -1
    [1]: pipe, parent: 0
    [2]: area, parent: 0
    [3]: product, parent: 0
    [4]: batch-atom, parent: 0
    [5]: tank-slot, parent: 0
Obj-by-Type:
    [0]: 0 1 2 3 4 5 6 7 8 9 10 11 12 13 14 15 16 17 18 19 20
    [1]: 4 5
    [2]: 3
    [3]: 0
    [4]: 1 2
    [5]: 6 7 8 9 10 11 12 13 14 15 16 17 18 19 20
Obj[21]:
    [0]: lco, type: 3, is-constant: 1, is-private: 0, owner: -1, is-agent: 0
    [1]: b0, type: 4, is-constant: 0, is-private: 0, owner: -1, is-agent: 0
    [2]: b5, type: 4, is-constant: 0, is-private: 0, owner: -1, is-agent: 0
    [3]: a1, type: 2, is-constant: 0, is-private: 0, owner: -1, is-agent: 0
    [4]: s12, type: 1, is-constant: 0, is-private: 0, owner: -1, is-agent: 0
    [5]: s13, type: 1, is-constant: 0, is-private: 0, owner: -1, is-agent: 0
    [6]: ta1-1-lco, type: 5, is-constant: 0, is-private: 0, owner: -1, is-agent: 0
    [7]: ta1-1-gasoleo, type: 5, is-constant: 0, is-private: 0, owner: -1, is-agent: 0
    [8]: ta1-1-rat-a, type: 5, is-constant: 0, is-private: 0, owner: -1, is-agent: 0
    [9]: ta1-1-oca1, type: 5, is-constant: 0, is-private: 0, owner: -1, is-agent: 0
    [10]: ta1-1-oc1b, type: 5, is-constant: 0, is-private: 0, owner: -1, is-agent: 0
    [11]: ta2-1-lco, type: 5, is-constant: 0, is-private: 0, owner: -1, is-agent: 0
    [12]: ta2-1-gasoleo, type: 5, is-constant: 0, is-private: 0, owner: -1, is-agent: 0
    [13]: ta2-1-rat-a, type: 5, is-constant: 0, is-private: 0, owner: -1, is-agent: 0
    [14]: ta2-1-oca1, type: 5, is-constant: 0, is-private: 0, owner: -1, is-agent: 0
    [15]: ta2-1-oc1b, type: 5, is-constant: 0, is-private: 0, owner: -1, is-agent: 0
    [16]: ta3-1-lco, type: 5, is-constant: 0, is-private: 0, owner: -1, is-agent: 0
    [17]: ta3-1-gasoleo, type: 5, is-constant: 0, is-private: 0, owner: -1, is-agent: 0
    [18]: ta3-1-rat-a, type: 5, is-constant: 0, is-private: 0, owner: -1, is-agent: 0
    [19]: ta3-1-oca1, type: 5, is-constant: 0, is-private: 0, owner: -1, is-agent: 0
    [20]: ta3-1-oc1b, type: 5, is-constant: 0, is-private: 0, owner: -1, is-agent: 0
Predicate[16]:
    =: 0 0 :: is-private: 0, owner-param: -1, read: 0, write: 0
    connect: 2 2 1 :: is-private: 0, owner-param: -1, read: 1, write: 0
    unitary: 1 :: is-private: 0, owner-param: -1, read: 1, write: 0
    not-unitary: 1 :: is-private: 0, owner-param: -1, read: 0, write: 0
    last: 4 1 :: is-private: 0, owner-param: -1, read: 0, write: 1
    first: 4 1 :: is-private: 0, owner-param: -1, read: 1, write: 1
    follow: 4 4 :: is-private: 0, owner-param: -1, read: 0, write: 0
    is-product: 4 3 :: is-private: 0, owner-param: -1, read: 1, write: 0
    on: 4 2 :: is-private: 0, owner-param: -1, read: 1, write: 1
    may-interface: 3 3 :: is-private: 0, owner-param: -1, read: 1, write: 0
    normal: 1 :: is-private: 0, owner-param: -1, read: 0, write: 0
    push-updating: 1 :: is-private: 0, owner-param: -1, read: 0, write: 0
    pop-updating: 1 :: is-private: 0, owner-param: -1, read: 0, write: 0
    tank-slot-product-location: 5 3 2 :: is-private: 0, owner-param: -1, read: 1, write: 0
    occupied: 5 :: is-private: 0, owner-param: -1, read: 1, write: 1
    not-occupied: 5 :: is-private: 0, owner-param: -1, read: 1, write: 1
Function[0]:
Action[2]:
    pop-unitarypipe: ?pipe:1 ?batch-atom-in:4 ?from-area:2 ?to-area:2 ?first-batch-atom:4 ?product-batch-atom-in:3 ?product-first-batch:3 ?from-tank-slot:5 ?to-tank-slot:5
        pre: (and (RW:first ?first-batch-atom ?pipe) (R:connect ?from-area ?to-area ?pipe) (RW:on ?batch-atom-in ?to-area) (R:unitary ?pipe) (R:is-product ?batch-atom-in ?product-batch-atom-in) (R:is-product ?first-batch-atom ?product-first-batch) (R:may-interface ?product-batch-atom-in ?product-first-batch) (R:tank-slot-product-location ?to-tank-slot ?product-batch-atom-in ?to-area) (RW:occupied ?to-tank-slot) (R:tank-slot-product-location ?from-tank-slot ?product-first-batch ?from-area) (RW:not-occupied ?from-tank-slot))
        eff: (and (W:last ?batch-atom-in ?pipe) (RW:first ?batch-atom-in ?pipe) (N:RW:occupied ?to-tank-slot) (RW:not-occupied ?to-tank-slot) (RW:on ?first-batch-atom ?from-area) (RW:occupied ?from-tank-slot) (N:RW:not-occupied ?from-tank-slot))
    push-unitarypipe: ?pipe:1 ?batch-atom-in:4 ?from-area:2 ?to-area:2 ?first-batch-atom:4 ?product-batch-atom-in:3 ?product-first-batch:3 ?from-tank-slot:5 ?to-tank-slot:5
        pre: (and (RW:first ?first-batch-atom ?pipe) (R:connect ?from-area ?to-area ?pipe) (RW:on ?batch-atom-in ?from-area) (R:unitary ?pipe) (R:is-product ?batch-atom-in ?product-batch-atom-in) (R:is-product ?first-batch-atom ?product-first-batch) (R:may-interface ?product-batch-atom-in ?product-first-batch) (R:tank-slot-product-location ?from-tank-slot ?product-batch-atom-in ?from-area) (RW:occupied ?from-tank-slot) (R:tank-slot-product-location ?to-tank-slot ?product-first-batch ?to-area) (RW:not-occupied ?to-tank-slot))
        eff: (and (RW:first ?batch-atom-in ?pipe) (W:last ?batch-atom-in ?pipe) (N:RW:occupied ?from-tank-slot) (RW:not-occupied ?from-tank-slot) (RW:on ?first-batch-atom ?to-area) (RW:occupied ?to-tank-slot) (N:RW:not-occupied ?to-tank-slot))
Init[71]:
  S:(normal s12)
  S:(normal s13)
  S:(may-interface lco lco)
  S:(may-interface lco lco)
  S:(may-interface lco lco)
  S:(may-interface lco lco)
  S:(may-interface lco lco)
  S:(may-interface lco lco)
  S:(may-interface lco lco)
  S:(may-interface lco lco)
  S:(may-interface lco lco)
  S:(may-interface lco lco)
  S:(may-interface lco lco)
  S:(may-interface lco lco)
  S:(may-interface lco lco)
  S:(may-interface lco lco)
  S:(may-interface lco lco)
  S:(may-interface lco lco)
  S:(may-interface lco lco)
  S:(may-interface lco lco)
  S:(may-interface lco lco)
  S:(may-interface lco lco)
  S:(may-interface lco lco)
  S:(connect a1 a1 s12)
  S:(connect a1 a1 s13)
  S:(tank-slot-product-location ta1-1-lco lco a1)
  S:(tank-slot-product-location ta1-1-gasoleo lco a1)
  S:(tank-slot-product-location ta1-1-rat-a lco a1)
  S:(tank-slot-product-location ta1-1-oca1 lco a1)
  S:(tank-slot-product-location ta1-1-oc1b lco a1)
  S:(tank-slot-product-location ta2-1-lco lco a1)
  S:(tank-slot-product-location ta2-1-gasoleo lco a1)
  S:(tank-slot-product-location ta2-1-rat-a lco a1)
  S:(tank-slot-product-location ta2-1-oca1 lco a1)
  S:(tank-slot-product-location ta2-1-oc1b lco a1)
  S:(tank-slot-product-location ta3-1-lco lco a1)
  S:(tank-slot-product-location ta3-1-gasoleo lco a1)
  S:(tank-slot-product-location ta3-1-rat-a lco a1)
  S:(tank-slot-product-location ta3-1-oca1 lco a1)
  S:(tank-slot-product-location ta3-1-oc1b lco a1)
  S:(is-product b0 lco)
  S:(is-product b0 lco)
  S:(is-product b0 lco)
  S:(is-product b0 lco)
  S:(is-product b0 lco)
  S:(is-product b5 lco)
  (on b0 a1)
  (occupied ta1-1-oc1b)
  (on b0 a1)
  (occupied ta1-1-rat-a)
  (on b0 a1)
  (occupied ta3-1-lco)
  (on b0 a1)
  (occupied ta1-1-gasoleo)
  (not-occupied ta1-1-lco)
  (not-occupied ta1-1-oca1)
  (not-occupied ta2-1-lco)
  (not-occupied ta2-1-gasoleo)
  (not-occupied ta2-1-rat-a)
  (not-occupied ta2-1-oca1)
  (not-occupied ta2-1-oc1b)
  (not-occupied ta3-1-gasoleo)
  (not-occupied ta3-1-rat-a)
  (not-occupied ta3-1-oca1)
  (not-occupied ta3-1-oc1b)
  (first b0 s12)
  (last b0 s12)
  (first b5 s13)
  (last b5 s13)
  S:(unitary s12)
  S:(unitary s13)
Init[0]:
Goal: (and (RW:on b0 a1) (RW:on b5 a1))
Metric: 0
