Maximal 16:
 (available b0) (in-highspeed-saw b0 highspeed-saw0):=1:fam
 (available b1) (in-highspeed-saw b1 highspeed-saw0):=1:fam
 (available p0) (unused p0):=1:fam:G
 (available p1) (unused p1):=1:fam:G
 (surface-condition p2 smooth) (surface-condition p2 verysmooth):=1:fam
 (unused p0) (wood p0 beech):fam:G
 (unused p1) (wood p1 cherry):fam:G
 (empty highspeed-saw0) (in-highspeed-saw b0 highspeed-saw0) (in-highspeed-saw b1 highspeed-saw0):=1:fam
 (colour p2 green) (colour p2 mauve) (treatment p2 colourfragments) (treatment p2 untreated):=1:fam:G
 (surface-condition p0 rough) (surface-condition p0 smooth) (surface-condition p0 verysmooth) (unused p0):=1:fam:G
 (surface-condition p1 rough) (surface-condition p1 smooth) (surface-condition p1 verysmooth) (unused p1):=1:fam:G
 (treatment p2 colourfragments) (treatment p2 glazed) (treatment p2 untreated) (treatment p2 varnished):=1:fam
 (colour p0 green) (colour p0 mauve) (treatment p0 colourfragments) (treatment p0 untreated) (unused p0):=1:fam:G
 (colour p1 green) (colour p1 mauve) (treatment p1 colourfragments) (treatment p1 untreated) (unused p1):=1:fam:G
 (treatment p0 colourfragments) (treatment p0 glazed) (treatment p0 untreated) (treatment p0 varnished) (unused p0):=1:fam:G
 (treatment p1 colourfragments) (treatment p1 glazed) (treatment p1 untreated) (treatment p1 varnished) (unused p1):=1:fam:G


Mutex Group Cover Number: 19
