Domain: etipp
Problem: printjob
Require: 200ff
Type[8]:
    [0]: object, parent: -1
    [1]: size_t, parent: 0
    [2]: location_t, parent: 0
    [3]: side_t, parent: 0
    [4]: color_t, parent: 0
    [5]: image_t, parent: 0
    [6]: resource_t, parent: 0
    [7]: sheet_t, parent: 0
Obj-by-Type:
    [0]: 0 1 2 3 4 5 6 7 8 9 10 11 12 13 14 15 16 17 18 19 20 21 22 23 24 25 26 27 28 29 30 31 32 33 34 35 36 37 38 39 40 41 42 43 44 45 46 47 48 49 50 51 52 53 54 55 56 57 58 59 60 61 62 63 64 65 66
    [1]: 0
    [2]: 5 6 7 8 9 10 11 12 13 14 15 16 17 18 19 20 21 22 23 24 25 26 27 28 29 30
    [3]: 3 4
    [4]: 1 2
    [5]: 56 57 58 59 60 61 62 63 64 65 66
    [6]: 31 32 33 34 35 36 37 38 39 40 41 42 43 44
    [7]: 45 46 47 48 49 50 51 52 53 54 55
Obj[67]:
    [0]: letter, type: 1, is-constant: 1, is-private: 0, owner: -1, is-agent: 0
    [1]: black, type: 4, is-constant: 1, is-private: 0, owner: -1, is-agent: 0
    [2]: color, type: 4, is-constant: 1, is-private: 0, owner: -1, is-agent: 0
    [3]: front, type: 3, is-constant: 1, is-private: 0, owner: -1, is-agent: 0
    [4]: back, type: 3, is-constant: 1, is-private: 0, owner: -1, is-agent: 0
    [5]: some_feeder_tray, type: 2, is-constant: 1, is-private: 0, owner: -1, is-agent: 0
    [6]: some_finisher_tray, type: 2, is-constant: 1, is-private: 0, owner: -1, is-agent: 0
    [7]: fe1_exit-im1_feedentry, type: 2, is-constant: 1, is-private: 0, owner: -1, is-agent: 0
    [8]: rh1_exit-im1_returnentry, type: 2, is-constant: 1, is-private: 0, owner: -1, is-agent: 0
    [9]: uc1_entry-im1_topexit, type: 2, is-constant: 1, is-private: 0, owner: -1, is-agent: 0
    [10]: im1_bottomexit-lc1_entry, type: 2, is-constant: 1, is-private: 0, owner: -1, is-agent: 0
    [11]: ube_entry-uc1_offramp, type: 2, is-constant: 1, is-private: 0, owner: -1, is-agent: 0
    [12]: uc1_onramp-ube_exit, type: 2, is-constant: 1, is-private: 0, owner: -1, is-agent: 0
    [13]: uc2_entry-uc1_exit, type: 2, is-constant: 1, is-private: 0, owner: -1, is-agent: 0
    [14]: lbe_entry-lc1_offramp, type: 2, is-constant: 1, is-private: 0, owner: -1, is-agent: 0
    [15]: lc1_onramp-lbe_exit, type: 2, is-constant: 1, is-private: 0, owner: -1, is-agent: 0
    [16]: lc1_exit-lc2_entry, type: 2, is-constant: 1, is-private: 0, owner: -1, is-agent: 0
    [17]: rh1_entry-rh2_exit, type: 2, is-constant: 1, is-private: 0, owner: -1, is-agent: 0
    [18]: ure_entry-uc2_offramp, type: 2, is-constant: 1, is-private: 0, owner: -1, is-agent: 0
    [19]: ure_exit-uc2_onramp, type: 2, is-constant: 1, is-private: 0, owner: -1, is-agent: 0
    [20]: uc2_exit-om_topentry, type: 2, is-constant: 1, is-private: 0, owner: -1, is-agent: 0
    [21]: ure_rodantray1, type: 2, is-constant: 1, is-private: 0, owner: -1, is-agent: 0
    [22]: ure_rodantray2, type: 2, is-constant: 1, is-private: 0, owner: -1, is-agent: 0
    [23]: lre_entry-lc2_offramp, type: 2, is-constant: 1, is-private: 0, owner: -1, is-agent: 0
    [24]: lc2_onramp-lre_exit, type: 2, is-constant: 1, is-private: 0, owner: -1, is-agent: 0
    [25]: om_bottomentry-lc2_exit, type: 2, is-constant: 1, is-private: 0, owner: -1, is-agent: 0
    [26]: lre_rodantray1, type: 2, is-constant: 1, is-private: 0, owner: -1, is-agent: 0
    [27]: lre_rodantray2, type: 2, is-constant: 1, is-private: 0, owner: -1, is-agent: 0
    [28]: om_returnexit-rh2_entry, type: 2, is-constant: 1, is-private: 0, owner: -1, is-agent: 0
    [29]: om_outputexit-sys_entry, type: 2, is-constant: 1, is-private: 0, owner: -1, is-agent: 0
    [30]: sys_outputtray, type: 2, is-constant: 1, is-private: 0, owner: -1, is-agent: 0
    [31]: fe1-rsrc, type: 6, is-constant: 1, is-private: 0, owner: -1, is-agent: 0
    [32]: im1-rsrc, type: 6, is-constant: 1, is-private: 0, owner: -1, is-agent: 0
    [33]: uc1-rsrc, type: 6, is-constant: 1, is-private: 0, owner: -1, is-agent: 0
    [34]: ube-rsrc, type: 6, is-constant: 1, is-private: 0, owner: -1, is-agent: 0
    [35]: lc1-rsrc, type: 6, is-constant: 1, is-private: 0, owner: -1, is-agent: 0
    [36]: lbe-rsrc, type: 6, is-constant: 1, is-private: 0, owner: -1, is-agent: 0
    [37]: rh1-rsrc, type: 6, is-constant: 1, is-private: 0, owner: -1, is-agent: 0
    [38]: uc2-rsrc, type: 6, is-constant: 1, is-private: 0, owner: -1, is-agent: 0
    [39]: ure-rsrc, type: 6, is-constant: 1, is-private: 0, owner: -1, is-agent: 0
    [40]: lc2-rsrc, type: 6, is-constant: 1, is-private: 0, owner: -1, is-agent: 0
    [41]: lre-rsrc, type: 6, is-constant: 1, is-private: 0, owner: -1, is-agent: 0
    [42]: rh2-rsrc, type: 6, is-constant: 1, is-private: 0, owner: -1, is-agent: 0
    [43]: om-rsrc, type: 6, is-constant: 1, is-private: 0, owner: -1, is-agent: 0
    [44]: sys-rsrc, type: 6, is-constant: 1, is-private: 0, owner: -1, is-agent: 0
    [45]: dummy-sheet, type: 7, is-constant: 0, is-private: 0, owner: -1, is-agent: 0
    [46]: sheet1, type: 7, is-constant: 0, is-private: 0, owner: -1, is-agent: 0
    [47]: sheet2, type: 7, is-constant: 0, is-private: 0, owner: -1, is-agent: 0
    [48]: sheet3, type: 7, is-constant: 0, is-private: 0, owner: -1, is-agent: 0
    [49]: sheet4, type: 7, is-constant: 0, is-private: 0, owner: -1, is-agent: 0
    [50]: sheet5, type: 7, is-constant: 0, is-private: 0, owner: -1, is-agent: 0
    [51]: sheet6, type: 7, is-constant: 0, is-private: 0, owner: -1, is-agent: 0
    [52]: sheet7, type: 7, is-constant: 0, is-private: 0, owner: -1, is-agent: 0
    [53]: sheet8, type: 7, is-constant: 0, is-private: 0, owner: -1, is-agent: 0
    [54]: sheet9, type: 7, is-constant: 0, is-private: 0, owner: -1, is-agent: 0
    [55]: sheet10, type: 7, is-constant: 0, is-private: 0, owner: -1, is-agent: 0
    [56]: image-1, type: 5, is-constant: 0, is-private: 0, owner: -1, is-agent: 0
    [57]: image-2, type: 5, is-constant: 0, is-private: 0, owner: -1, is-agent: 0
    [58]: image-3, type: 5, is-constant: 0, is-private: 0, owner: -1, is-agent: 0
    [59]: image-4, type: 5, is-constant: 0, is-private: 0, owner: -1, is-agent: 0
    [60]: image-5, type: 5, is-constant: 0, is-private: 0, owner: -1, is-agent: 0
    [61]: image-6, type: 5, is-constant: 0, is-private: 0, owner: -1, is-agent: 0
    [62]: image-7, type: 5, is-constant: 0, is-private: 0, owner: -1, is-agent: 0
    [63]: image-8, type: 5, is-constant: 0, is-private: 0, owner: -1, is-agent: 0
    [64]: image-8b, type: 5, is-constant: 0, is-private: 0, owner: -1, is-agent: 0
    [65]: image-9, type: 5, is-constant: 0, is-private: 0, owner: -1, is-agent: 0
    [66]: image-10, type: 5, is-constant: 0, is-private: 0, owner: -1, is-agent: 0
Predicate[12]:
    =: 0 0 :: is-private: 0, owner-param: -1, read: 0, write: 0
    sheetsize: 7 1 :: is-private: 0, owner-param: -1, read: 1, write: 0
    location: 7 2 :: is-private: 0, owner-param: -1, read: 1, write: 1
    hasimage: 7 3 5 :: is-private: 0, owner-param: -1, read: 0, write: 1
    sideup: 7 3 :: is-private: 0, owner-param: -1, read: 1, write: 1
    stackedin: 7 2 :: is-private: 0, owner-param: -1, read: 0, write: 1
    imagecolor: 5 4 :: is-private: 0, owner-param: -1, read: 1, write: 0
    notprintedwith: 7 3 4 :: is-private: 0, owner-param: -1, read: 1, write: 1
    oppositeside: 3 3 :: is-private: 0, owner-param: -1, read: 1, write: 0
    available: 6 :: is-private: 0, owner-param: -1, read: 1, write: 1
    prevsheet: 7 7 :: is-private: 0, owner-param: -1, read: 1, write: 0
    uninitialized: :: is-private: 0, owner-param: -1, read: 1, write: 1
Function[1]:
    total-cost: :: is-private: 0, owner-param: -1, read: 0, write: 0
Action[36]:
    initialize: 
        pre: (and (RW:uninitialized))
        eff: (and (N:RW:uninitialized) (RW:available fe1-rsrc) (RW:available im1-rsrc) (RW:available uc1-rsrc) (RW:available ube-rsrc) (RW:available lc1-rsrc) (RW:available lbe-rsrc) (RW:available rh1-rsrc) (RW:available uc2-rsrc) (RW:available ure-rsrc) (RW:available lc2-rsrc) (RW:available lre-rsrc) (RW:available rh2-rsrc) (RW:available om-rsrc) (RW:available sys-rsrc))
    fe1-feedmsi-letter: ?sheet:7
        pre: (and (RW:available fe1-rsrc) (R:sheetsize ?sheet letter) (RW:location ?sheet some_feeder_tray))
        eff: (and (RW:location ?sheet fe1_exit-im1_feedentry) (RW:sideup ?sheet back) (N:RW:location ?sheet some_feeder_tray) (RW:available fe1-rsrc))
    fe1-feed-letter: ?sheet:7
        pre: (and (RW:available fe1-rsrc) (R:sheetsize ?sheet letter) (RW:location ?sheet some_feeder_tray))
        eff: (and (RW:location ?sheet fe1_exit-im1_feedentry) (RW:sideup ?sheet back) (N:RW:location ?sheet some_feeder_tray) (RW:available fe1-rsrc))
    im1-moveupper-letter: ?sheet:7
        pre: (and (RW:available im1-rsrc) (R:sheetsize ?sheet letter) (RW:location ?sheet fe1_exit-im1_feedentry))
        eff: (and (RW:location ?sheet uc1_entry-im1_topexit) (N:RW:location ?sheet fe1_exit-im1_feedentry) (RW:available im1-rsrc))
    im1-movelower-letter: ?sheet:7
        pre: (and (RW:available im1-rsrc) (R:sheetsize ?sheet letter) (RW:location ?sheet fe1_exit-im1_feedentry))
        eff: (and (RW:location ?sheet im1_bottomexit-lc1_entry) (N:RW:location ?sheet fe1_exit-im1_feedentry) (RW:available im1-rsrc))
    im1-loopupper-letter: ?sheet:7
        pre: (and (RW:available im1-rsrc) (R:sheetsize ?sheet letter) (RW:location ?sheet rh1_exit-im1_returnentry))
        eff: (and (RW:location ?sheet uc1_entry-im1_topexit) (N:RW:location ?sheet rh1_exit-im1_returnentry) (RW:available im1-rsrc))
    im1-looplower-letter: ?sheet:7
        pre: (and (RW:available im1-rsrc) (R:sheetsize ?sheet letter) (RW:location ?sheet rh1_exit-im1_returnentry))
        eff: (and (RW:location ?sheet im1_bottomexit-lc1_entry) (N:RW:location ?sheet rh1_exit-im1_returnentry) (RW:available im1-rsrc))
    uc1-fmove-letter: ?sheet:7
        pre: (and (RW:available uc1-rsrc) (R:sheetsize ?sheet letter) (RW:location ?sheet uc1_entry-im1_topexit))
        eff: (and (RW:location ?sheet uc2_entry-uc1_exit) (N:RW:location ?sheet uc1_entry-im1_topexit) (RW:available uc1-rsrc))
    uc1-divert-letter: ?sheet:7 ?face:3 ?otherface:3
        pre: (and (RW:available uc1-rsrc) (R:sheetsize ?sheet letter) (R:oppositeside ?face ?otherface) (RW:location ?sheet uc1_entry-im1_topexit) (RW:sideup ?sheet ?face))
        eff: (and (RW:location ?sheet ube_entry-uc1_offramp) (RW:sideup ?sheet ?otherface) (N:RW:location ?sheet uc1_entry-im1_topexit) (N:RW:sideup ?sheet ?face) (RW:available uc1-rsrc))
    uc1-merge-letter: ?sheet:7
        pre: (and (RW:available uc1-rsrc) (R:sheetsize ?sheet letter) (RW:location ?sheet uc1_onramp-ube_exit))
        eff: (and (RW:location ?sheet uc2_entry-uc1_exit) (N:RW:location ?sheet uc1_onramp-ube_exit) (RW:available uc1-rsrc))
    uc1-mergeinvert-letter: ?sheet:7 ?face:3 ?otherface:3
        pre: (and (RW:available uc1-rsrc) (R:sheetsize ?sheet letter) (R:oppositeside ?face ?otherface) (RW:location ?sheet uc1_onramp-ube_exit) (RW:sideup ?sheet ?face))
        eff: (and (RW:location ?sheet uc2_entry-uc1_exit) (RW:sideup ?sheet ?otherface) (N:RW:location ?sheet uc1_onramp-ube_exit) (N:RW:sideup ?sheet ?face) (RW:available uc1-rsrc))
    ube-simplex-letter: ?sheet:7 ?face:3 ?image:5
        pre: (and (RW:available ube-rsrc) (R:sheetsize ?sheet letter) (RW:sideup ?sheet ?face) (R:imagecolor ?image black) (RW:location ?sheet ube_entry-uc1_offramp) (RW:notprintedwith ?sheet ?face black))
        eff: (and (RW:location ?sheet uc1_onramp-ube_exit) (W:hasimage ?sheet ?face ?image) (N:RW:location ?sheet ube_entry-uc1_offramp) (N:RW:notprintedwith ?sheet ?face black) (RW:available ube-rsrc))
    lc1-fmove-letter: ?sheet:7
        pre: (and (RW:available lc1-rsrc) (R:sheetsize ?sheet letter) (RW:location ?sheet im1_bottomexit-lc1_entry))
        eff: (and (RW:location ?sheet lc1_exit-lc2_entry) (N:RW:location ?sheet im1_bottomexit-lc1_entry) (RW:available lc1-rsrc))
    lc1-divert-letter: ?sheet:7 ?face:3 ?otherface:3
        pre: (and (RW:available lc1-rsrc) (R:sheetsize ?sheet letter) (R:oppositeside ?face ?otherface) (RW:location ?sheet im1_bottomexit-lc1_entry) (RW:sideup ?sheet ?face))
        eff: (and (RW:location ?sheet lbe_entry-lc1_offramp) (RW:sideup ?sheet ?otherface) (N:RW:location ?sheet im1_bottomexit-lc1_entry) (N:RW:sideup ?sheet ?face) (RW:available lc1-rsrc))
    lc1-merge-letter: ?sheet:7
        pre: (and (RW:available lc1-rsrc) (R:sheetsize ?sheet letter) (RW:location ?sheet lc1_onramp-lbe_exit))
        eff: (and (RW:location ?sheet lc1_exit-lc2_entry) (N:RW:location ?sheet lc1_onramp-lbe_exit) (RW:available lc1-rsrc))
    lc1-mergeinvert-letter: ?sheet:7 ?face:3 ?otherface:3
        pre: (and (RW:available lc1-rsrc) (R:sheetsize ?sheet letter) (R:oppositeside ?face ?otherface) (RW:location ?sheet lc1_onramp-lbe_exit) (RW:sideup ?sheet ?face))
        eff: (and (RW:location ?sheet lc1_exit-lc2_entry) (RW:sideup ?sheet ?otherface) (N:RW:location ?sheet lc1_onramp-lbe_exit) (N:RW:sideup ?sheet ?face) (RW:available lc1-rsrc))
    lbe-simplex-letter: ?sheet:7 ?face:3 ?image:5
        pre: (and (RW:available lbe-rsrc) (R:sheetsize ?sheet letter) (RW:sideup ?sheet ?face) (R:imagecolor ?image black) (RW:location ?sheet lbe_entry-lc1_offramp) (RW:notprintedwith ?sheet ?face black))
        eff: (and (RW:location ?sheet lc1_onramp-lbe_exit) (W:hasimage ?sheet ?face ?image) (N:RW:location ?sheet lbe_entry-lc1_offramp) (N:RW:notprintedwith ?sheet ?face black) (RW:available lbe-rsrc))
    rh1-returnmove-letter: ?sheet:7
        pre: (and (RW:available rh1-rsrc) (R:sheetsize ?sheet letter) (RW:location ?sheet rh1_entry-rh2_exit))
        eff: (and (RW:location ?sheet rh1_exit-im1_returnentry) (N:RW:location ?sheet rh1_entry-rh2_exit) (RW:available rh1-rsrc))
    uc2-fmove-letter: ?sheet:7
        pre: (and (RW:available uc2-rsrc) (R:sheetsize ?sheet letter) (RW:location ?sheet uc2_entry-uc1_exit))
        eff: (and (RW:location ?sheet uc2_exit-om_topentry) (N:RW:location ?sheet uc2_entry-uc1_exit) (RW:available uc2-rsrc))
    uc2-divert-letter: ?sheet:7 ?face:3 ?otherface:3
        pre: (and (RW:available uc2-rsrc) (R:sheetsize ?sheet letter) (R:oppositeside ?face ?otherface) (RW:location ?sheet uc2_entry-uc1_exit) (RW:sideup ?sheet ?face))
        eff: (and (RW:location ?sheet ure_entry-uc2_offramp) (RW:sideup ?sheet ?otherface) (N:RW:location ?sheet uc2_entry-uc1_exit) (N:RW:sideup ?sheet ?face) (RW:available uc2-rsrc))
    uc2-merge-letter: ?sheet:7 ?face:3 ?otherface:3
        pre: (and (RW:available uc2-rsrc) (R:sheetsize ?sheet letter) (R:oppositeside ?face ?otherface) (RW:location ?sheet ure_exit-uc2_onramp) (RW:sideup ?sheet ?face))
        eff: (and (RW:location ?sheet uc2_exit-om_topentry) (RW:sideup ?sheet ?otherface) (N:RW:location ?sheet ure_exit-uc2_onramp) (N:RW:sideup ?sheet ?face) (RW:available uc2-rsrc))
    uc2-mergeinvert-letter: ?sheet:7
        pre: (and (RW:available uc2-rsrc) (R:sheetsize ?sheet letter) (RW:location ?sheet ure_exit-uc2_onramp))
        eff: (and (RW:location ?sheet uc2_exit-om_topentry) (N:RW:location ?sheet ure_exit-uc2_onramp) (RW:available uc2-rsrc))
    ure-simplex-letter: ?sheet:7 ?face:3 ?image:5
        pre: (and (RW:available ure-rsrc) (R:sheetsize ?sheet letter) (RW:sideup ?sheet ?face) (R:imagecolor ?image color) (RW:location ?sheet ure_entry-uc2_offramp) (RW:notprintedwith ?sheet ?face color))
        eff: (and (RW:location ?sheet ure_exit-uc2_onramp) (W:hasimage ?sheet ?face ?image) (N:RW:location ?sheet ure_entry-uc2_offramp) (N:RW:notprintedwith ?sheet ?face color) (RW:available ure-rsrc))
    ure-simplexmono-letter: ?sheet:7 ?face:3 ?image:5
        pre: (and (RW:available ure-rsrc) (R:sheetsize ?sheet letter) (RW:sideup ?sheet ?face) (R:imagecolor ?image black) (RW:location ?sheet ure_entry-uc2_offramp) (RW:notprintedwith ?sheet ?face black))
        eff: (and (RW:location ?sheet ure_exit-uc2_onramp) (W:hasimage ?sheet ?face ?image) (N:RW:location ?sheet ure_entry-uc2_offramp) (N:RW:notprintedwith ?sheet ?face black) (RW:available ure-rsrc))
    lc2-fmove-letter: ?sheet:7
        pre: (and (RW:available lc2-rsrc) (R:sheetsize ?sheet letter) (RW:location ?sheet lc1_exit-lc2_entry))
        eff: (and (RW:location ?sheet om_bottomentry-lc2_exit) (N:RW:location ?sheet lc1_exit-lc2_entry) (RW:available lc2-rsrc))
    lc2-divert-letter: ?sheet:7 ?face:3 ?otherface:3
        pre: (and (RW:available lc2-rsrc) (R:sheetsize ?sheet letter) (R:oppositeside ?face ?otherface) (RW:location ?sheet lc1_exit-lc2_entry) (RW:sideup ?sheet ?face))
        eff: (and (RW:location ?sheet lre_entry-lc2_offramp) (RW:sideup ?sheet ?otherface) (N:RW:location ?sheet lc1_exit-lc2_entry) (N:RW:sideup ?sheet ?face) (RW:available lc2-rsrc))
    lc2-merge-letter: ?sheet:7 ?face:3 ?otherface:3
        pre: (and (RW:available lc2-rsrc) (R:sheetsize ?sheet letter) (R:oppositeside ?face ?otherface) (RW:location ?sheet lc2_onramp-lre_exit) (RW:sideup ?sheet ?face))
        eff: (and (RW:location ?sheet om_bottomentry-lc2_exit) (RW:sideup ?sheet ?otherface) (N:RW:location ?sheet lc2_onramp-lre_exit) (N:RW:sideup ?sheet ?face) (RW:available lc2-rsrc))
    lc2-mergeinvert-letter: ?sheet:7
        pre: (and (RW:available lc2-rsrc) (R:sheetsize ?sheet letter) (RW:location ?sheet lc2_onramp-lre_exit))
        eff: (and (RW:location ?sheet om_bottomentry-lc2_exit) (N:RW:location ?sheet lc2_onramp-lre_exit) (RW:available lc2-rsrc))
    lre-simplex-letter: ?sheet:7 ?face:3 ?image:5
        pre: (and (RW:available lre-rsrc) (R:sheetsize ?sheet letter) (RW:sideup ?sheet ?face) (R:imagecolor ?image color) (RW:location ?sheet lre_entry-lc2_offramp) (RW:notprintedwith ?sheet ?face color))
        eff: (and (RW:location ?sheet lc2_onramp-lre_exit) (W:hasimage ?sheet ?face ?image) (N:RW:location ?sheet lre_entry-lc2_offramp) (N:RW:notprintedwith ?sheet ?face color) (RW:available lre-rsrc))
    lre-simplexmono-letter: ?sheet:7 ?face:3 ?image:5
        pre: (and (RW:available lre-rsrc) (R:sheetsize ?sheet letter) (RW:sideup ?sheet ?face) (R:imagecolor ?image black) (RW:location ?sheet lre_entry-lc2_offramp) (RW:notprintedwith ?sheet ?face black))
        eff: (and (RW:location ?sheet lc2_onramp-lre_exit) (W:hasimage ?sheet ?face ?image) (N:RW:location ?sheet lre_entry-lc2_offramp) (N:RW:notprintedwith ?sheet ?face black) (RW:available lre-rsrc))
    rh2-returnmove-letter: ?sheet:7
        pre: (and (RW:available rh2-rsrc) (R:sheetsize ?sheet letter) (RW:location ?sheet om_returnexit-rh2_entry))
        eff: (and (RW:location ?sheet rh1_entry-rh2_exit) (N:RW:location ?sheet om_returnexit-rh2_entry) (RW:available rh2-rsrc))
    om-upperout-letter: ?sheet:7
        pre: (and (RW:available om-rsrc) (R:sheetsize ?sheet letter) (RW:location ?sheet uc2_exit-om_topentry))
        eff: (and (RW:location ?sheet om_outputexit-sys_entry) (N:RW:location ?sheet uc2_exit-om_topentry) (RW:available om-rsrc))
    om-lowerout-letter: ?sheet:7
        pre: (and (RW:available om-rsrc) (R:sheetsize ?sheet letter) (RW:location ?sheet om_bottomentry-lc2_exit))
        eff: (and (RW:location ?sheet om_outputexit-sys_entry) (N:RW:location ?sheet om_bottomentry-lc2_exit) (RW:available om-rsrc))
    om-upperreturn-letter: ?sheet:7
        pre: (and (RW:available om-rsrc) (R:sheetsize ?sheet letter) (RW:location ?sheet uc2_exit-om_topentry))
        eff: (and (RW:location ?sheet om_returnexit-rh2_entry) (N:RW:location ?sheet uc2_exit-om_topentry) (RW:available om-rsrc))
    om-lowerreturn-letter: ?sheet:7
        pre: (and (RW:available om-rsrc) (R:sheetsize ?sheet letter) (RW:location ?sheet om_bottomentry-lc2_exit))
        eff: (and (RW:location ?sheet om_returnexit-rh2_entry) (N:RW:location ?sheet om_bottomentry-lc2_exit) (RW:available om-rsrc))
    sys-stack-letter: ?sheet:7 ?prevsheet:7
        pre: (and (RW:available sys-rsrc) (R:prevsheet ?sheet ?prevsheet) (RW:location ?prevsheet some_finisher_tray) (R:sheetsize ?sheet letter) (RW:location ?sheet om_outputexit-sys_entry))
        eff: (and (RW:location ?sheet some_finisher_tray) (W:stackedin ?sheet sys_outputtray) (N:RW:location ?sheet om_outputexit-sys_entry) (RW:available sys-rsrc))
Init[85]:
  (uninitialized)
  S:(oppositeside front back)
  S:(oppositeside back front)
  (location dummy-sheet some_finisher_tray)
  S:(prevsheet sheet1 dummy-sheet)
  S:(prevsheet sheet2 sheet1)
  S:(prevsheet sheet3 sheet2)
  S:(prevsheet sheet4 sheet3)
  S:(prevsheet sheet5 sheet4)
  S:(prevsheet sheet6 sheet5)
  S:(prevsheet sheet7 sheet6)
  S:(prevsheet sheet8 sheet7)
  S:(prevsheet sheet9 sheet8)
  S:(prevsheet sheet10 sheet9)
  S:(sheetsize sheet1 letter)
  S:(sheetsize sheet2 letter)
  S:(sheetsize sheet3 letter)
  S:(sheetsize sheet4 letter)
  S:(sheetsize sheet5 letter)
  S:(sheetsize sheet6 letter)
  S:(sheetsize sheet7 letter)
  S:(sheetsize sheet8 letter)
  S:(sheetsize sheet9 letter)
  S:(sheetsize sheet10 letter)
  (location sheet1 some_feeder_tray)
  (location sheet2 some_feeder_tray)
  (location sheet3 some_feeder_tray)
  (location sheet4 some_feeder_tray)
  (location sheet5 some_feeder_tray)
  (location sheet6 some_feeder_tray)
  (location sheet7 some_feeder_tray)
  (location sheet8 some_feeder_tray)
  (location sheet9 some_feeder_tray)
  (location sheet10 some_feeder_tray)
  S:(imagecolor image-1 color)
  S:(imagecolor image-2 color)
  S:(imagecolor image-3 black)
  S:(imagecolor image-4 black)
  S:(imagecolor image-5 black)
  S:(imagecolor image-6 color)
  S:(imagecolor image-7 black)
  S:(imagecolor image-8 color)
  S:(imagecolor image-8b color)
  S:(imagecolor image-9 black)
  S:(imagecolor image-10 black)
  (notprintedwith sheet1 front black)
  (notprintedwith sheet1 back black)
  (notprintedwith sheet1 front color)
  (notprintedwith sheet1 back color)
  (notprintedwith sheet2 front black)
  (notprintedwith sheet2 back black)
  (notprintedwith sheet2 front color)
  (notprintedwith sheet2 back color)
  (notprintedwith sheet3 front black)
  (notprintedwith sheet3 back black)
  (notprintedwith sheet3 front color)
  (notprintedwith sheet3 back color)
  (notprintedwith sheet4 front black)
  (notprintedwith sheet4 back black)
  (notprintedwith sheet4 front color)
  (notprintedwith sheet4 back color)
  (notprintedwith sheet5 front black)
  (notprintedwith sheet5 back black)
  (notprintedwith sheet5 front color)
  (notprintedwith sheet5 back color)
  (notprintedwith sheet6 front black)
  (notprintedwith sheet6 back black)
  (notprintedwith sheet6 front color)
  (notprintedwith sheet6 back color)
  (notprintedwith sheet7 front black)
  (notprintedwith sheet7 back black)
  (notprintedwith sheet7 front color)
  (notprintedwith sheet7 back color)
  (notprintedwith sheet8 front black)
  (notprintedwith sheet8 back black)
  (notprintedwith sheet8 front color)
  (notprintedwith sheet8 back color)
  (notprintedwith sheet9 front black)
  (notprintedwith sheet9 back black)
  (notprintedwith sheet9 front color)
  (notprintedwith sheet9 back color)
  (notprintedwith sheet10 front black)
  (notprintedwith sheet10 back black)
  (notprintedwith sheet10 front color)
  (notprintedwith sheet10 back color)
Init[0]:
Goal: (and (W:hasimage sheet1 front image-1) (RW:notprintedwith sheet1 front black) (RW:notprintedwith sheet1 back black) (RW:notprintedwith sheet1 back color) (W:hasimage sheet2 front image-2) (RW:notprintedwith sheet2 front black) (RW:notprintedwith sheet2 back black) (RW:notprintedwith sheet2 back color) (W:hasimage sheet3 front image-3) (RW:notprintedwith sheet3 front color) (RW:notprintedwith sheet3 back black) (RW:notprintedwith sheet3 back color) (W:hasimage sheet4 front image-4) (RW:notprintedwith sheet4 front color) (RW:notprintedwith sheet4 back black) (RW:notprintedwith sheet4 back color) (W:hasimage sheet5 front image-5) (RW:notprintedwith sheet5 front color) (RW:notprintedwith sheet5 back black) (RW:notprintedwith sheet5 back color) (W:hasimage sheet6 front image-6) (RW:notprintedwith sheet6 front black) (RW:notprintedwith sheet6 back black) (RW:notprintedwith sheet6 back color) (W:hasimage sheet7 front image-7) (RW:notprintedwith sheet7 front color) (RW:notprintedwith sheet7 back black) (RW:notprintedwith sheet7 back color) (W:hasimage sheet8 front image-8) (W:hasimage sheet8 back image-8b) (RW:notprintedwith sheet8 front black) (RW:notprintedwith sheet8 back black) (W:hasimage sheet9 front image-9) (RW:notprintedwith sheet9 front color) (RW:notprintedwith sheet9 back black) (RW:notprintedwith sheet9 back color) (W:hasimage sheet10 front image-10) (RW:notprintedwith sheet10 front color) (RW:notprintedwith sheet10 back black) (RW:notprintedwith sheet10 back color) (RW:sideup sheet1 front) (RW:sideup sheet2 front) (RW:sideup sheet3 front) (RW:sideup sheet4 front) (RW:sideup sheet5 front) (RW:sideup sheet6 front) (RW:sideup sheet7 front) (RW:sideup sheet8 front) (RW:sideup sheet9 front) (RW:sideup sheet10 front) (W:stackedin sheet1 sys_outputtray) (W:stackedin sheet2 sys_outputtray) (W:stackedin sheet3 sys_outputtray) (W:stackedin sheet4 sys_outputtray) (W:stackedin sheet5 sys_outputtray) (W:stackedin sheet6 sys_outputtray) (W:stackedin sheet7 sys_outputtray) (W:stackedin sheet8 sys_outputtray) (W:stackedin sheet9 sys_outputtray) (W:stackedin sheet10 sys_outputtray))
Metric: 0
