Fact[61]:
  (made p1)
  (made p10)
  (made p2)
  (made p3)
  (made p4)
  (made p5)
  (made p6)
  (made p7)
  (made p8)
  (made p9)
  (not-made p1)
  (not-made p10)
  (not-made p2)
  (not-made p3)
  (not-made p4)
  (not-made p5)
  (not-made p6)
  (not-made p7)
  (not-made p8)
  (not-made p9)
  (shipped o1)
  (shipped o10)
  (shipped o2)
  (shipped o3)
  (shipped o4)
  (shipped o5)
  (shipped o6)
  (shipped o7)
  (shipped o8)
  (shipped o9)
  (stacks-avail n0)
  (stacks-avail n1)
  (stacks-avail n10)
  (stacks-avail n2)
  (stacks-avail n3)
  (stacks-avail n4)
  (stacks-avail n5)
  (stacks-avail n6)
  (stacks-avail n7)
  (stacks-avail n8)
  (stacks-avail n9)
  (started o1)
  (started o10)
  (started o2)
  (started o3)
  (started o4)
  (started o5)
  (started o6)
  (started o7)
  (started o8)
  (started o9)
  (waiting o1)
  (waiting o10)
  (waiting o2)
  (waiting o3)
  (waiting o4)
  (waiting o5)
  (waiting o6)
  (waiting o7)
  (waiting o8)
  (waiting o9)
Op[220]:
  (make-product-p1), cost: 1
    pre: (not-made p1) (started o3) (started o9)
    add: (made p1)
    del: (not-made p1)
  (make-product-p10), cost: 1
    pre: (not-made p10) (started o1) (started o2)
    add: (made p10)
    del: (not-made p10)
  (make-product-p2), cost: 1
    pre: (not-made p2) (started o2)
    add: (made p2)
    del: (not-made p2)
  (make-product-p3), cost: 1
    pre: (not-made p3) (started o5) (started o8)
    add: (made p3)
    del: (not-made p3)
  (make-product-p4), cost: 1
    pre: (not-made p4) (started o4)
    add: (made p4)
    del: (not-made p4)
  (make-product-p5), cost: 1
    pre: (not-made p5) (started o6) (started o7)
    add: (made p5)
    del: (not-made p5)
  (make-product-p6), cost: 1
    pre: (not-made p6) (started o1)
    add: (made p6)
    del: (not-made p6)
  (make-product-p7), cost: 1
    pre: (not-made p7) (started o3)
    add: (made p7)
    del: (not-made p7)
  (make-product-p8), cost: 1
    pre: (not-made p8) (started o3)
    add: (made p8)
    del: (not-made p8)
  (make-product-p9), cost: 1
    pre: (not-made p9) (started o1) (started o10)
    add: (made p9)
    del: (not-made p9)
  (open-new-stack n0 n1), cost: 1
    pre: (stacks-avail n0)
    add: (stacks-avail n1)
    del: (stacks-avail n0)
  (open-new-stack n1 n2), cost: 1
    pre: (stacks-avail n1)
    add: (stacks-avail n2)
    del: (stacks-avail n1)
  (open-new-stack n2 n3), cost: 1
    pre: (stacks-avail n2)
    add: (stacks-avail n3)
    del: (stacks-avail n2)
  (open-new-stack n3 n4), cost: 1
    pre: (stacks-avail n3)
    add: (stacks-avail n4)
    del: (stacks-avail n3)
  (open-new-stack n4 n5), cost: 1
    pre: (stacks-avail n4)
    add: (stacks-avail n5)
    del: (stacks-avail n4)
  (open-new-stack n5 n6), cost: 1
    pre: (stacks-avail n5)
    add: (stacks-avail n6)
    del: (stacks-avail n5)
  (open-new-stack n6 n7), cost: 1
    pre: (stacks-avail n6)
    add: (stacks-avail n7)
    del: (stacks-avail n6)
  (open-new-stack n7 n8), cost: 1
    pre: (stacks-avail n7)
    add: (stacks-avail n8)
    del: (stacks-avail n7)
  (open-new-stack n8 n9), cost: 1
    pre: (stacks-avail n8)
    add: (stacks-avail n9)
    del: (stacks-avail n8)
  (open-new-stack n9 n10), cost: 1
    pre: (stacks-avail n9)
    add: (stacks-avail n10)
    del: (stacks-avail n9)
  (ship-order-o1 n0 n1), cost: 1
    pre: (made p10) (made p6) (made p9) (stacks-avail n0) (started o1)
    add: (shipped o1) (stacks-avail n1)
    del: (stacks-avail n0) (started o1)
  (ship-order-o1 n1 n2), cost: 1
    pre: (made p10) (made p6) (made p9) (stacks-avail n1) (started o1)
    add: (shipped o1) (stacks-avail n2)
    del: (stacks-avail n1) (started o1)
  (ship-order-o1 n2 n3), cost: 1
    pre: (made p10) (made p6) (made p9) (stacks-avail n2) (started o1)
    add: (shipped o1) (stacks-avail n3)
    del: (stacks-avail n2) (started o1)
  (ship-order-o1 n3 n4), cost: 1
    pre: (made p10) (made p6) (made p9) (stacks-avail n3) (started o1)
    add: (shipped o1) (stacks-avail n4)
    del: (stacks-avail n3) (started o1)
  (ship-order-o1 n4 n5), cost: 1
    pre: (made p10) (made p6) (made p9) (stacks-avail n4) (started o1)
    add: (shipped o1) (stacks-avail n5)
    del: (stacks-avail n4) (started o1)
  (ship-order-o1 n5 n6), cost: 1
    pre: (made p10) (made p6) (made p9) (stacks-avail n5) (started o1)
    add: (shipped o1) (stacks-avail n6)
    del: (stacks-avail n5) (started o1)
  (ship-order-o1 n6 n7), cost: 1
    pre: (made p10) (made p6) (made p9) (stacks-avail n6) (started o1)
    add: (shipped o1) (stacks-avail n7)
    del: (stacks-avail n6) (started o1)
  (ship-order-o1 n7 n8), cost: 1
    pre: (made p10) (made p6) (made p9) (stacks-avail n7) (started o1)
    add: (shipped o1) (stacks-avail n8)
    del: (stacks-avail n7) (started o1)
  (ship-order-o1 n8 n9), cost: 1
    pre: (made p10) (made p6) (made p9) (stacks-avail n8) (started o1)
    add: (shipped o1) (stacks-avail n9)
    del: (stacks-avail n8) (started o1)
  (ship-order-o1 n9 n10), cost: 1
    pre: (made p10) (made p6) (made p9) (stacks-avail n9) (started o1)
    add: (shipped o1) (stacks-avail n10)
    del: (stacks-avail n9) (started o1)
  (ship-order-o10 n0 n1), cost: 1
    pre: (made p9) (stacks-avail n0) (started o10)
    add: (shipped o10) (stacks-avail n1)
    del: (stacks-avail n0) (started o10)
  (ship-order-o10 n1 n2), cost: 1
    pre: (made p9) (stacks-avail n1) (started o10)
    add: (shipped o10) (stacks-avail n2)
    del: (stacks-avail n1) (started o10)
  (ship-order-o10 n2 n3), cost: 1
    pre: (made p9) (stacks-avail n2) (started o10)
    add: (shipped o10) (stacks-avail n3)
    del: (stacks-avail n2) (started o10)
  (ship-order-o10 n3 n4), cost: 1
    pre: (made p9) (stacks-avail n3) (started o10)
    add: (shipped o10) (stacks-avail n4)
    del: (stacks-avail n3) (started o10)
  (ship-order-o10 n4 n5), cost: 1
    pre: (made p9) (stacks-avail n4) (started o10)
    add: (shipped o10) (stacks-avail n5)
    del: (stacks-avail n4) (started o10)
  (ship-order-o10 n5 n6), cost: 1
    pre: (made p9) (stacks-avail n5) (started o10)
    add: (shipped o10) (stacks-avail n6)
    del: (stacks-avail n5) (started o10)
  (ship-order-o10 n6 n7), cost: 1
    pre: (made p9) (stacks-avail n6) (started o10)
    add: (shipped o10) (stacks-avail n7)
    del: (stacks-avail n6) (started o10)
  (ship-order-o10 n7 n8), cost: 1
    pre: (made p9) (stacks-avail n7) (started o10)
    add: (shipped o10) (stacks-avail n8)
    del: (stacks-avail n7) (started o10)
  (ship-order-o10 n8 n9), cost: 1
    pre: (made p9) (stacks-avail n8) (started o10)
    add: (shipped o10) (stacks-avail n9)
    del: (stacks-avail n8) (started o10)
  (ship-order-o10 n9 n10), cost: 1
    pre: (made p9) (stacks-avail n9) (started o10)
    add: (shipped o10) (stacks-avail n10)
    del: (stacks-avail n9) (started o10)
  (ship-order-o2 n0 n1), cost: 1
    pre: (made p10) (made p2) (stacks-avail n0) (started o2)
    add: (shipped o2) (stacks-avail n1)
    del: (stacks-avail n0) (started o2)
  (ship-order-o2 n1 n2), cost: 1
    pre: (made p10) (made p2) (stacks-avail n1) (started o2)
    add: (shipped o2) (stacks-avail n2)
    del: (stacks-avail n1) (started o2)
  (ship-order-o2 n2 n3), cost: 1
    pre: (made p10) (made p2) (stacks-avail n2) (started o2)
    add: (shipped o2) (stacks-avail n3)
    del: (stacks-avail n2) (started o2)
  (ship-order-o2 n3 n4), cost: 1
    pre: (made p10) (made p2) (stacks-avail n3) (started o2)
    add: (shipped o2) (stacks-avail n4)
    del: (stacks-avail n3) (started o2)
  (ship-order-o2 n4 n5), cost: 1
    pre: (made p10) (made p2) (stacks-avail n4) (started o2)
    add: (shipped o2) (stacks-avail n5)
    del: (stacks-avail n4) (started o2)
  (ship-order-o2 n5 n6), cost: 1
    pre: (made p10) (made p2) (stacks-avail n5) (started o2)
    add: (shipped o2) (stacks-avail n6)
    del: (stacks-avail n5) (started o2)
  (ship-order-o2 n6 n7), cost: 1
    pre: (made p10) (made p2) (stacks-avail n6) (started o2)
    add: (shipped o2) (stacks-avail n7)
    del: (stacks-avail n6) (started o2)
  (ship-order-o2 n7 n8), cost: 1
    pre: (made p10) (made p2) (stacks-avail n7) (started o2)
    add: (shipped o2) (stacks-avail n8)
    del: (stacks-avail n7) (started o2)
  (ship-order-o2 n8 n9), cost: 1
    pre: (made p10) (made p2) (stacks-avail n8) (started o2)
    add: (shipped o2) (stacks-avail n9)
    del: (stacks-avail n8) (started o2)
  (ship-order-o2 n9 n10), cost: 1
    pre: (made p10) (made p2) (stacks-avail n9) (started o2)
    add: (shipped o2) (stacks-avail n10)
    del: (stacks-avail n9) (started o2)
  (ship-order-o3 n0 n1), cost: 1
    pre: (made p1) (made p7) (made p8) (stacks-avail n0) (started o3)
    add: (shipped o3) (stacks-avail n1)
    del: (stacks-avail n0) (started o3)
  (ship-order-o3 n1 n2), cost: 1
    pre: (made p1) (made p7) (made p8) (stacks-avail n1) (started o3)
    add: (shipped o3) (stacks-avail n2)
    del: (stacks-avail n1) (started o3)
  (ship-order-o3 n2 n3), cost: 1
    pre: (made p1) (made p7) (made p8) (stacks-avail n2) (started o3)
    add: (shipped o3) (stacks-avail n3)
    del: (stacks-avail n2) (started o3)
  (ship-order-o3 n3 n4), cost: 1
    pre: (made p1) (made p7) (made p8) (stacks-avail n3) (started o3)
    add: (shipped o3) (stacks-avail n4)
    del: (stacks-avail n3) (started o3)
  (ship-order-o3 n4 n5), cost: 1
    pre: (made p1) (made p7) (made p8) (stacks-avail n4) (started o3)
    add: (shipped o3) (stacks-avail n5)
    del: (stacks-avail n4) (started o3)
  (ship-order-o3 n5 n6), cost: 1
    pre: (made p1) (made p7) (made p8) (stacks-avail n5) (started o3)
    add: (shipped o3) (stacks-avail n6)
    del: (stacks-avail n5) (started o3)
  (ship-order-o3 n6 n7), cost: 1
    pre: (made p1) (made p7) (made p8) (stacks-avail n6) (started o3)
    add: (shipped o3) (stacks-avail n7)
    del: (stacks-avail n6) (started o3)
  (ship-order-o3 n7 n8), cost: 1
    pre: (made p1) (made p7) (made p8) (stacks-avail n7) (started o3)
    add: (shipped o3) (stacks-avail n8)
    del: (stacks-avail n7) (started o3)
  (ship-order-o3 n8 n9), cost: 1
    pre: (made p1) (made p7) (made p8) (stacks-avail n8) (started o3)
    add: (shipped o3) (stacks-avail n9)
    del: (stacks-avail n8) (started o3)
  (ship-order-o3 n9 n10), cost: 1
    pre: (made p1) (made p7) (made p8) (stacks-avail n9) (started o3)
    add: (shipped o3) (stacks-avail n10)
    del: (stacks-avail n9) (started o3)
  (ship-order-o4 n0 n1), cost: 1
    pre: (made p4) (stacks-avail n0) (started o4)
    add: (shipped o4) (stacks-avail n1)
    del: (stacks-avail n0) (started o4)
  (ship-order-o4 n1 n2), cost: 1
    pre: (made p4) (stacks-avail n1) (started o4)
    add: (shipped o4) (stacks-avail n2)
    del: (stacks-avail n1) (started o4)
  (ship-order-o4 n2 n3), cost: 1
    pre: (made p4) (stacks-avail n2) (started o4)
    add: (shipped o4) (stacks-avail n3)
    del: (stacks-avail n2) (started o4)
  (ship-order-o4 n3 n4), cost: 1
    pre: (made p4) (stacks-avail n3) (started o4)
    add: (shipped o4) (stacks-avail n4)
    del: (stacks-avail n3) (started o4)
  (ship-order-o4 n4 n5), cost: 1
    pre: (made p4) (stacks-avail n4) (started o4)
    add: (shipped o4) (stacks-avail n5)
    del: (stacks-avail n4) (started o4)
  (ship-order-o4 n5 n6), cost: 1
    pre: (made p4) (stacks-avail n5) (started o4)
    add: (shipped o4) (stacks-avail n6)
    del: (stacks-avail n5) (started o4)
  (ship-order-o4 n6 n7), cost: 1
    pre: (made p4) (stacks-avail n6) (started o4)
    add: (shipped o4) (stacks-avail n7)
    del: (stacks-avail n6) (started o4)
  (ship-order-o4 n7 n8), cost: 1
    pre: (made p4) (stacks-avail n7) (started o4)
    add: (shipped o4) (stacks-avail n8)
    del: (stacks-avail n7) (started o4)
  (ship-order-o4 n8 n9), cost: 1
    pre: (made p4) (stacks-avail n8) (started o4)
    add: (shipped o4) (stacks-avail n9)
    del: (stacks-avail n8) (started o4)
  (ship-order-o4 n9 n10), cost: 1
    pre: (made p4) (stacks-avail n9) (started o4)
    add: (shipped o4) (stacks-avail n10)
    del: (stacks-avail n9) (started o4)
  (ship-order-o5 n0 n1), cost: 1
    pre: (made p3) (stacks-avail n0) (started o5)
    add: (shipped o5) (stacks-avail n1)
    del: (stacks-avail n0) (started o5)
  (ship-order-o5 n1 n2), cost: 1
    pre: (made p3) (stacks-avail n1) (started o5)
    add: (shipped o5) (stacks-avail n2)
    del: (stacks-avail n1) (started o5)
  (ship-order-o5 n2 n3), cost: 1
    pre: (made p3) (stacks-avail n2) (started o5)
    add: (shipped o5) (stacks-avail n3)
    del: (stacks-avail n2) (started o5)
  (ship-order-o5 n3 n4), cost: 1
    pre: (made p3) (stacks-avail n3) (started o5)
    add: (shipped o5) (stacks-avail n4)
    del: (stacks-avail n3) (started o5)
  (ship-order-o5 n4 n5), cost: 1
    pre: (made p3) (stacks-avail n4) (started o5)
    add: (shipped o5) (stacks-avail n5)
    del: (stacks-avail n4) (started o5)
  (ship-order-o5 n5 n6), cost: 1
    pre: (made p3) (stacks-avail n5) (started o5)
    add: (shipped o5) (stacks-avail n6)
    del: (stacks-avail n5) (started o5)
  (ship-order-o5 n6 n7), cost: 1
    pre: (made p3) (stacks-avail n6) (started o5)
    add: (shipped o5) (stacks-avail n7)
    del: (stacks-avail n6) (started o5)
  (ship-order-o5 n7 n8), cost: 1
    pre: (made p3) (stacks-avail n7) (started o5)
    add: (shipped o5) (stacks-avail n8)
    del: (stacks-avail n7) (started o5)
  (ship-order-o5 n8 n9), cost: 1
    pre: (made p3) (stacks-avail n8) (started o5)
    add: (shipped o5) (stacks-avail n9)
    del: (stacks-avail n8) (started o5)
  (ship-order-o5 n9 n10), cost: 1
    pre: (made p3) (stacks-avail n9) (started o5)
    add: (shipped o5) (stacks-avail n10)
    del: (stacks-avail n9) (started o5)
  (ship-order-o6 n0 n1), cost: 1
    pre: (made p5) (stacks-avail n0) (started o6)
    add: (shipped o6) (stacks-avail n1)
    del: (stacks-avail n0) (started o6)
  (ship-order-o6 n1 n2), cost: 1
    pre: (made p5) (stacks-avail n1) (started o6)
    add: (shipped o6) (stacks-avail n2)
    del: (stacks-avail n1) (started o6)
  (ship-order-o6 n2 n3), cost: 1
    pre: (made p5) (stacks-avail n2) (started o6)
    add: (shipped o6) (stacks-avail n3)
    del: (stacks-avail n2) (started o6)
  (ship-order-o6 n3 n4), cost: 1
    pre: (made p5) (stacks-avail n3) (started o6)
    add: (shipped o6) (stacks-avail n4)
    del: (stacks-avail n3) (started o6)
  (ship-order-o6 n4 n5), cost: 1
    pre: (made p5) (stacks-avail n4) (started o6)
    add: (shipped o6) (stacks-avail n5)
    del: (stacks-avail n4) (started o6)
  (ship-order-o6 n5 n6), cost: 1
    pre: (made p5) (stacks-avail n5) (started o6)
    add: (shipped o6) (stacks-avail n6)
    del: (stacks-avail n5) (started o6)
  (ship-order-o6 n6 n7), cost: 1
    pre: (made p5) (stacks-avail n6) (started o6)
    add: (shipped o6) (stacks-avail n7)
    del: (stacks-avail n6) (started o6)
  (ship-order-o6 n7 n8), cost: 1
    pre: (made p5) (stacks-avail n7) (started o6)
    add: (shipped o6) (stacks-avail n8)
    del: (stacks-avail n7) (started o6)
  (ship-order-o6 n8 n9), cost: 1
    pre: (made p5) (stacks-avail n8) (started o6)
    add: (shipped o6) (stacks-avail n9)
    del: (stacks-avail n8) (started o6)
  (ship-order-o6 n9 n10), cost: 1
    pre: (made p5) (stacks-avail n9) (started o6)
    add: (shipped o6) (stacks-avail n10)
    del: (stacks-avail n9) (started o6)
  (ship-order-o7 n0 n1), cost: 1
    pre: (made p5) (stacks-avail n0) (started o7)
    add: (shipped o7) (stacks-avail n1)
    del: (stacks-avail n0) (started o7)
  (ship-order-o7 n1 n2), cost: 1
    pre: (made p5) (stacks-avail n1) (started o7)
    add: (shipped o7) (stacks-avail n2)
    del: (stacks-avail n1) (started o7)
  (ship-order-o7 n2 n3), cost: 1
    pre: (made p5) (stacks-avail n2) (started o7)
    add: (shipped o7) (stacks-avail n3)
    del: (stacks-avail n2) (started o7)
  (ship-order-o7 n3 n4), cost: 1
    pre: (made p5) (stacks-avail n3) (started o7)
    add: (shipped o7) (stacks-avail n4)
    del: (stacks-avail n3) (started o7)
  (ship-order-o7 n4 n5), cost: 1
    pre: (made p5) (stacks-avail n4) (started o7)
    add: (shipped o7) (stacks-avail n5)
    del: (stacks-avail n4) (started o7)
  (ship-order-o7 n5 n6), cost: 1
    pre: (made p5) (stacks-avail n5) (started o7)
    add: (shipped o7) (stacks-avail n6)
    del: (stacks-avail n5) (started o7)
  (ship-order-o7 n6 n7), cost: 1
    pre: (made p5) (stacks-avail n6) (started o7)
    add: (shipped o7) (stacks-avail n7)
    del: (stacks-avail n6) (started o7)
  (ship-order-o7 n7 n8), cost: 1
    pre: (made p5) (stacks-avail n7) (started o7)
    add: (shipped o7) (stacks-avail n8)
    del: (stacks-avail n7) (started o7)
  (ship-order-o7 n8 n9), cost: 1
    pre: (made p5) (stacks-avail n8) (started o7)
    add: (shipped o7) (stacks-avail n9)
    del: (stacks-avail n8) (started o7)
  (ship-order-o7 n9 n10), cost: 1
    pre: (made p5) (stacks-avail n9) (started o7)
    add: (shipped o7) (stacks-avail n10)
    del: (stacks-avail n9) (started o7)
  (ship-order-o8 n0 n1), cost: 1
    pre: (made p3) (stacks-avail n0) (started o8)
    add: (shipped o8) (stacks-avail n1)
    del: (stacks-avail n0) (started o8)
  (ship-order-o8 n1 n2), cost: 1
    pre: (made p3) (stacks-avail n1) (started o8)
    add: (shipped o8) (stacks-avail n2)
    del: (stacks-avail n1) (started o8)
  (ship-order-o8 n2 n3), cost: 1
    pre: (made p3) (stacks-avail n2) (started o8)
    add: (shipped o8) (stacks-avail n3)
    del: (stacks-avail n2) (started o8)
  (ship-order-o8 n3 n4), cost: 1
    pre: (made p3) (stacks-avail n3) (started o8)
    add: (shipped o8) (stacks-avail n4)
    del: (stacks-avail n3) (started o8)
  (ship-order-o8 n4 n5), cost: 1
    pre: (made p3) (stacks-avail n4) (started o8)
    add: (shipped o8) (stacks-avail n5)
    del: (stacks-avail n4) (started o8)
  (ship-order-o8 n5 n6), cost: 1
    pre: (made p3) (stacks-avail n5) (started o8)
    add: (shipped o8) (stacks-avail n6)
    del: (stacks-avail n5) (started o8)
  (ship-order-o8 n6 n7), cost: 1
    pre: (made p3) (stacks-avail n6) (started o8)
    add: (shipped o8) (stacks-avail n7)
    del: (stacks-avail n6) (started o8)
  (ship-order-o8 n7 n8), cost: 1
    pre: (made p3) (stacks-avail n7) (started o8)
    add: (shipped o8) (stacks-avail n8)
    del: (stacks-avail n7) (started o8)
  (ship-order-o8 n8 n9), cost: 1
    pre: (made p3) (stacks-avail n8) (started o8)
    add: (shipped o8) (stacks-avail n9)
    del: (stacks-avail n8) (started o8)
  (ship-order-o8 n9 n10), cost: 1
    pre: (made p3) (stacks-avail n9) (started o8)
    add: (shipped o8) (stacks-avail n10)
    del: (stacks-avail n9) (started o8)
  (ship-order-o9 n0 n1), cost: 1
    pre: (made p1) (stacks-avail n0) (started o9)
    add: (shipped o9) (stacks-avail n1)
    del: (stacks-avail n0) (started o9)
  (ship-order-o9 n1 n2), cost: 1
    pre: (made p1) (stacks-avail n1) (started o9)
    add: (shipped o9) (stacks-avail n2)
    del: (stacks-avail n1) (started o9)
  (ship-order-o9 n2 n3), cost: 1
    pre: (made p1) (stacks-avail n2) (started o9)
    add: (shipped o9) (stacks-avail n3)
    del: (stacks-avail n2) (started o9)
  (ship-order-o9 n3 n4), cost: 1
    pre: (made p1) (stacks-avail n3) (started o9)
    add: (shipped o9) (stacks-avail n4)
    del: (stacks-avail n3) (started o9)
  (ship-order-o9 n4 n5), cost: 1
    pre: (made p1) (stacks-avail n4) (started o9)
    add: (shipped o9) (stacks-avail n5)
    del: (stacks-avail n4) (started o9)
  (ship-order-o9 n5 n6), cost: 1
    pre: (made p1) (stacks-avail n5) (started o9)
    add: (shipped o9) (stacks-avail n6)
    del: (stacks-avail n5) (started o9)
  (ship-order-o9 n6 n7), cost: 1
    pre: (made p1) (stacks-avail n6) (started o9)
    add: (shipped o9) (stacks-avail n7)
    del: (stacks-avail n6) (started o9)
  (ship-order-o9 n7 n8), cost: 1
    pre: (made p1) (stacks-avail n7) (started o9)
    add: (shipped o9) (stacks-avail n8)
    del: (stacks-avail n7) (started o9)
  (ship-order-o9 n8 n9), cost: 1
    pre: (made p1) (stacks-avail n8) (started o9)
    add: (shipped o9) (stacks-avail n9)
    del: (stacks-avail n8) (started o9)
  (ship-order-o9 n9 n10), cost: 1
    pre: (made p1) (stacks-avail n9) (started o9)
    add: (shipped o9) (stacks-avail n10)
    del: (stacks-avail n9) (started o9)
  (start-order o1 n1 n0), cost: 1
    pre: (stacks-avail n1) (waiting o1)
    add: (stacks-avail n0) (started o1)
    del: (stacks-avail n1) (waiting o1)
  (start-order o1 n10 n9), cost: 1
    pre: (stacks-avail n10) (waiting o1)
    add: (stacks-avail n9) (started o1)
    del: (stacks-avail n10) (waiting o1)
  (start-order o1 n2 n1), cost: 1
    pre: (stacks-avail n2) (waiting o1)
    add: (stacks-avail n1) (started o1)
    del: (stacks-avail n2) (waiting o1)
  (start-order o1 n3 n2), cost: 1
    pre: (stacks-avail n3) (waiting o1)
    add: (stacks-avail n2) (started o1)
    del: (stacks-avail n3) (waiting o1)
  (start-order o1 n4 n3), cost: 1
    pre: (stacks-avail n4) (waiting o1)
    add: (stacks-avail n3) (started o1)
    del: (stacks-avail n4) (waiting o1)
  (start-order o1 n5 n4), cost: 1
    pre: (stacks-avail n5) (waiting o1)
    add: (stacks-avail n4) (started o1)
    del: (stacks-avail n5) (waiting o1)
  (start-order o1 n6 n5), cost: 1
    pre: (stacks-avail n6) (waiting o1)
    add: (stacks-avail n5) (started o1)
    del: (stacks-avail n6) (waiting o1)
  (start-order o1 n7 n6), cost: 1
    pre: (stacks-avail n7) (waiting o1)
    add: (stacks-avail n6) (started o1)
    del: (stacks-avail n7) (waiting o1)
  (start-order o1 n8 n7), cost: 1
    pre: (stacks-avail n8) (waiting o1)
    add: (stacks-avail n7) (started o1)
    del: (stacks-avail n8) (waiting o1)
  (start-order o1 n9 n8), cost: 1
    pre: (stacks-avail n9) (waiting o1)
    add: (stacks-avail n8) (started o1)
    del: (stacks-avail n9) (waiting o1)
  (start-order o10 n1 n0), cost: 1
    pre: (stacks-avail n1) (waiting o10)
    add: (stacks-avail n0) (started o10)
    del: (stacks-avail n1) (waiting o10)
  (start-order o10 n10 n9), cost: 1
    pre: (stacks-avail n10) (waiting o10)
    add: (stacks-avail n9) (started o10)
    del: (stacks-avail n10) (waiting o10)
  (start-order o10 n2 n1), cost: 1
    pre: (stacks-avail n2) (waiting o10)
    add: (stacks-avail n1) (started o10)
    del: (stacks-avail n2) (waiting o10)
  (start-order o10 n3 n2), cost: 1
    pre: (stacks-avail n3) (waiting o10)
    add: (stacks-avail n2) (started o10)
    del: (stacks-avail n3) (waiting o10)
  (start-order o10 n4 n3), cost: 1
    pre: (stacks-avail n4) (waiting o10)
    add: (stacks-avail n3) (started o10)
    del: (stacks-avail n4) (waiting o10)
  (start-order o10 n5 n4), cost: 1
    pre: (stacks-avail n5) (waiting o10)
    add: (stacks-avail n4) (started o10)
    del: (stacks-avail n5) (waiting o10)
  (start-order o10 n6 n5), cost: 1
    pre: (stacks-avail n6) (waiting o10)
    add: (stacks-avail n5) (started o10)
    del: (stacks-avail n6) (waiting o10)
  (start-order o10 n7 n6), cost: 1
    pre: (stacks-avail n7) (waiting o10)
    add: (stacks-avail n6) (started o10)
    del: (stacks-avail n7) (waiting o10)
  (start-order o10 n8 n7), cost: 1
    pre: (stacks-avail n8) (waiting o10)
    add: (stacks-avail n7) (started o10)
    del: (stacks-avail n8) (waiting o10)
  (start-order o10 n9 n8), cost: 1
    pre: (stacks-avail n9) (waiting o10)
    add: (stacks-avail n8) (started o10)
    del: (stacks-avail n9) (waiting o10)
  (start-order o2 n1 n0), cost: 1
    pre: (stacks-avail n1) (waiting o2)
    add: (stacks-avail n0) (started o2)
    del: (stacks-avail n1) (waiting o2)
  (start-order o2 n10 n9), cost: 1
    pre: (stacks-avail n10) (waiting o2)
    add: (stacks-avail n9) (started o2)
    del: (stacks-avail n10) (waiting o2)
  (start-order o2 n2 n1), cost: 1
    pre: (stacks-avail n2) (waiting o2)
    add: (stacks-avail n1) (started o2)
    del: (stacks-avail n2) (waiting o2)
  (start-order o2 n3 n2), cost: 1
    pre: (stacks-avail n3) (waiting o2)
    add: (stacks-avail n2) (started o2)
    del: (stacks-avail n3) (waiting o2)
  (start-order o2 n4 n3), cost: 1
    pre: (stacks-avail n4) (waiting o2)
    add: (stacks-avail n3) (started o2)
    del: (stacks-avail n4) (waiting o2)
  (start-order o2 n5 n4), cost: 1
    pre: (stacks-avail n5) (waiting o2)
    add: (stacks-avail n4) (started o2)
    del: (stacks-avail n5) (waiting o2)
  (start-order o2 n6 n5), cost: 1
    pre: (stacks-avail n6) (waiting o2)
    add: (stacks-avail n5) (started o2)
    del: (stacks-avail n6) (waiting o2)
  (start-order o2 n7 n6), cost: 1
    pre: (stacks-avail n7) (waiting o2)
    add: (stacks-avail n6) (started o2)
    del: (stacks-avail n7) (waiting o2)
  (start-order o2 n8 n7), cost: 1
    pre: (stacks-avail n8) (waiting o2)
    add: (stacks-avail n7) (started o2)
    del: (stacks-avail n8) (waiting o2)
  (start-order o2 n9 n8), cost: 1
    pre: (stacks-avail n9) (waiting o2)
    add: (stacks-avail n8) (started o2)
    del: (stacks-avail n9) (waiting o2)
  (start-order o3 n1 n0), cost: 1
    pre: (stacks-avail n1) (waiting o3)
    add: (stacks-avail n0) (started o3)
    del: (stacks-avail n1) (waiting o3)
  (start-order o3 n10 n9), cost: 1
    pre: (stacks-avail n10) (waiting o3)
    add: (stacks-avail n9) (started o3)
    del: (stacks-avail n10) (waiting o3)
  (start-order o3 n2 n1), cost: 1
    pre: (stacks-avail n2) (waiting o3)
    add: (stacks-avail n1) (started o3)
    del: (stacks-avail n2) (waiting o3)
  (start-order o3 n3 n2), cost: 1
    pre: (stacks-avail n3) (waiting o3)
    add: (stacks-avail n2) (started o3)
    del: (stacks-avail n3) (waiting o3)
  (start-order o3 n4 n3), cost: 1
    pre: (stacks-avail n4) (waiting o3)
    add: (stacks-avail n3) (started o3)
    del: (stacks-avail n4) (waiting o3)
  (start-order o3 n5 n4), cost: 1
    pre: (stacks-avail n5) (waiting o3)
    add: (stacks-avail n4) (started o3)
    del: (stacks-avail n5) (waiting o3)
  (start-order o3 n6 n5), cost: 1
    pre: (stacks-avail n6) (waiting o3)
    add: (stacks-avail n5) (started o3)
    del: (stacks-avail n6) (waiting o3)
  (start-order o3 n7 n6), cost: 1
    pre: (stacks-avail n7) (waiting o3)
    add: (stacks-avail n6) (started o3)
    del: (stacks-avail n7) (waiting o3)
  (start-order o3 n8 n7), cost: 1
    pre: (stacks-avail n8) (waiting o3)
    add: (stacks-avail n7) (started o3)
    del: (stacks-avail n8) (waiting o3)
  (start-order o3 n9 n8), cost: 1
    pre: (stacks-avail n9) (waiting o3)
    add: (stacks-avail n8) (started o3)
    del: (stacks-avail n9) (waiting o3)
  (start-order o4 n1 n0), cost: 1
    pre: (stacks-avail n1) (waiting o4)
    add: (stacks-avail n0) (started o4)
    del: (stacks-avail n1) (waiting o4)
  (start-order o4 n10 n9), cost: 1
    pre: (stacks-avail n10) (waiting o4)
    add: (stacks-avail n9) (started o4)
    del: (stacks-avail n10) (waiting o4)
  (start-order o4 n2 n1), cost: 1
    pre: (stacks-avail n2) (waiting o4)
    add: (stacks-avail n1) (started o4)
    del: (stacks-avail n2) (waiting o4)
  (start-order o4 n3 n2), cost: 1
    pre: (stacks-avail n3) (waiting o4)
    add: (stacks-avail n2) (started o4)
    del: (stacks-avail n3) (waiting o4)
  (start-order o4 n4 n3), cost: 1
    pre: (stacks-avail n4) (waiting o4)
    add: (stacks-avail n3) (started o4)
    del: (stacks-avail n4) (waiting o4)
  (start-order o4 n5 n4), cost: 1
    pre: (stacks-avail n5) (waiting o4)
    add: (stacks-avail n4) (started o4)
    del: (stacks-avail n5) (waiting o4)
  (start-order o4 n6 n5), cost: 1
    pre: (stacks-avail n6) (waiting o4)
    add: (stacks-avail n5) (started o4)
    del: (stacks-avail n6) (waiting o4)
  (start-order o4 n7 n6), cost: 1
    pre: (stacks-avail n7) (waiting o4)
    add: (stacks-avail n6) (started o4)
    del: (stacks-avail n7) (waiting o4)
  (start-order o4 n8 n7), cost: 1
    pre: (stacks-avail n8) (waiting o4)
    add: (stacks-avail n7) (started o4)
    del: (stacks-avail n8) (waiting o4)
  (start-order o4 n9 n8), cost: 1
    pre: (stacks-avail n9) (waiting o4)
    add: (stacks-avail n8) (started o4)
    del: (stacks-avail n9) (waiting o4)
  (start-order o5 n1 n0), cost: 1
    pre: (stacks-avail n1) (waiting o5)
    add: (stacks-avail n0) (started o5)
    del: (stacks-avail n1) (waiting o5)
  (start-order o5 n10 n9), cost: 1
    pre: (stacks-avail n10) (waiting o5)
    add: (stacks-avail n9) (started o5)
    del: (stacks-avail n10) (waiting o5)
  (start-order o5 n2 n1), cost: 1
    pre: (stacks-avail n2) (waiting o5)
    add: (stacks-avail n1) (started o5)
    del: (stacks-avail n2) (waiting o5)
  (start-order o5 n3 n2), cost: 1
    pre: (stacks-avail n3) (waiting o5)
    add: (stacks-avail n2) (started o5)
    del: (stacks-avail n3) (waiting o5)
  (start-order o5 n4 n3), cost: 1
    pre: (stacks-avail n4) (waiting o5)
    add: (stacks-avail n3) (started o5)
    del: (stacks-avail n4) (waiting o5)
  (start-order o5 n5 n4), cost: 1
    pre: (stacks-avail n5) (waiting o5)
    add: (stacks-avail n4) (started o5)
    del: (stacks-avail n5) (waiting o5)
  (start-order o5 n6 n5), cost: 1
    pre: (stacks-avail n6) (waiting o5)
    add: (stacks-avail n5) (started o5)
    del: (stacks-avail n6) (waiting o5)
  (start-order o5 n7 n6), cost: 1
    pre: (stacks-avail n7) (waiting o5)
    add: (stacks-avail n6) (started o5)
    del: (stacks-avail n7) (waiting o5)
  (start-order o5 n8 n7), cost: 1
    pre: (stacks-avail n8) (waiting o5)
    add: (stacks-avail n7) (started o5)
    del: (stacks-avail n8) (waiting o5)
  (start-order o5 n9 n8), cost: 1
    pre: (stacks-avail n9) (waiting o5)
    add: (stacks-avail n8) (started o5)
    del: (stacks-avail n9) (waiting o5)
  (start-order o6 n1 n0), cost: 1
    pre: (stacks-avail n1) (waiting o6)
    add: (stacks-avail n0) (started o6)
    del: (stacks-avail n1) (waiting o6)
  (start-order o6 n10 n9), cost: 1
    pre: (stacks-avail n10) (waiting o6)
    add: (stacks-avail n9) (started o6)
    del: (stacks-avail n10) (waiting o6)
  (start-order o6 n2 n1), cost: 1
    pre: (stacks-avail n2) (waiting o6)
    add: (stacks-avail n1) (started o6)
    del: (stacks-avail n2) (waiting o6)
  (start-order o6 n3 n2), cost: 1
    pre: (stacks-avail n3) (waiting o6)
    add: (stacks-avail n2) (started o6)
    del: (stacks-avail n3) (waiting o6)
  (start-order o6 n4 n3), cost: 1
    pre: (stacks-avail n4) (waiting o6)
    add: (stacks-avail n3) (started o6)
    del: (stacks-avail n4) (waiting o6)
  (start-order o6 n5 n4), cost: 1
    pre: (stacks-avail n5) (waiting o6)
    add: (stacks-avail n4) (started o6)
    del: (stacks-avail n5) (waiting o6)
  (start-order o6 n6 n5), cost: 1
    pre: (stacks-avail n6) (waiting o6)
    add: (stacks-avail n5) (started o6)
    del: (stacks-avail n6) (waiting o6)
  (start-order o6 n7 n6), cost: 1
    pre: (stacks-avail n7) (waiting o6)
    add: (stacks-avail n6) (started o6)
    del: (stacks-avail n7) (waiting o6)
  (start-order o6 n8 n7), cost: 1
    pre: (stacks-avail n8) (waiting o6)
    add: (stacks-avail n7) (started o6)
    del: (stacks-avail n8) (waiting o6)
  (start-order o6 n9 n8), cost: 1
    pre: (stacks-avail n9) (waiting o6)
    add: (stacks-avail n8) (started o6)
    del: (stacks-avail n9) (waiting o6)
  (start-order o7 n1 n0), cost: 1
    pre: (stacks-avail n1) (waiting o7)
    add: (stacks-avail n0) (started o7)
    del: (stacks-avail n1) (waiting o7)
  (start-order o7 n10 n9), cost: 1
    pre: (stacks-avail n10) (waiting o7)
    add: (stacks-avail n9) (started o7)
    del: (stacks-avail n10) (waiting o7)
  (start-order o7 n2 n1), cost: 1
    pre: (stacks-avail n2) (waiting o7)
    add: (stacks-avail n1) (started o7)
    del: (stacks-avail n2) (waiting o7)
  (start-order o7 n3 n2), cost: 1
    pre: (stacks-avail n3) (waiting o7)
    add: (stacks-avail n2) (started o7)
    del: (stacks-avail n3) (waiting o7)
  (start-order o7 n4 n3), cost: 1
    pre: (stacks-avail n4) (waiting o7)
    add: (stacks-avail n3) (started o7)
    del: (stacks-avail n4) (waiting o7)
  (start-order o7 n5 n4), cost: 1
    pre: (stacks-avail n5) (waiting o7)
    add: (stacks-avail n4) (started o7)
    del: (stacks-avail n5) (waiting o7)
  (start-order o7 n6 n5), cost: 1
    pre: (stacks-avail n6) (waiting o7)
    add: (stacks-avail n5) (started o7)
    del: (stacks-avail n6) (waiting o7)
  (start-order o7 n7 n6), cost: 1
    pre: (stacks-avail n7) (waiting o7)
    add: (stacks-avail n6) (started o7)
    del: (stacks-avail n7) (waiting o7)
  (start-order o7 n8 n7), cost: 1
    pre: (stacks-avail n8) (waiting o7)
    add: (stacks-avail n7) (started o7)
    del: (stacks-avail n8) (waiting o7)
  (start-order o7 n9 n8), cost: 1
    pre: (stacks-avail n9) (waiting o7)
    add: (stacks-avail n8) (started o7)
    del: (stacks-avail n9) (waiting o7)
  (start-order o8 n1 n0), cost: 1
    pre: (stacks-avail n1) (waiting o8)
    add: (stacks-avail n0) (started o8)
    del: (stacks-avail n1) (waiting o8)
  (start-order o8 n10 n9), cost: 1
    pre: (stacks-avail n10) (waiting o8)
    add: (stacks-avail n9) (started o8)
    del: (stacks-avail n10) (waiting o8)
  (start-order o8 n2 n1), cost: 1
    pre: (stacks-avail n2) (waiting o8)
    add: (stacks-avail n1) (started o8)
    del: (stacks-avail n2) (waiting o8)
  (start-order o8 n3 n2), cost: 1
    pre: (stacks-avail n3) (waiting o8)
    add: (stacks-avail n2) (started o8)
    del: (stacks-avail n3) (waiting o8)
  (start-order o8 n4 n3), cost: 1
    pre: (stacks-avail n4) (waiting o8)
    add: (stacks-avail n3) (started o8)
    del: (stacks-avail n4) (waiting o8)
  (start-order o8 n5 n4), cost: 1
    pre: (stacks-avail n5) (waiting o8)
    add: (stacks-avail n4) (started o8)
    del: (stacks-avail n5) (waiting o8)
  (start-order o8 n6 n5), cost: 1
    pre: (stacks-avail n6) (waiting o8)
    add: (stacks-avail n5) (started o8)
    del: (stacks-avail n6) (waiting o8)
  (start-order o8 n7 n6), cost: 1
    pre: (stacks-avail n7) (waiting o8)
    add: (stacks-avail n6) (started o8)
    del: (stacks-avail n7) (waiting o8)
  (start-order o8 n8 n7), cost: 1
    pre: (stacks-avail n8) (waiting o8)
    add: (stacks-avail n7) (started o8)
    del: (stacks-avail n8) (waiting o8)
  (start-order o8 n9 n8), cost: 1
    pre: (stacks-avail n9) (waiting o8)
    add: (stacks-avail n8) (started o8)
    del: (stacks-avail n9) (waiting o8)
  (start-order o9 n1 n0), cost: 1
    pre: (stacks-avail n1) (waiting o9)
    add: (stacks-avail n0) (started o9)
    del: (stacks-avail n1) (waiting o9)
  (start-order o9 n10 n9), cost: 1
    pre: (stacks-avail n10) (waiting o9)
    add: (stacks-avail n9) (started o9)
    del: (stacks-avail n10) (waiting o9)
  (start-order o9 n2 n1), cost: 1
    pre: (stacks-avail n2) (waiting o9)
    add: (stacks-avail n1) (started o9)
    del: (stacks-avail n2) (waiting o9)
  (start-order o9 n3 n2), cost: 1
    pre: (stacks-avail n3) (waiting o9)
    add: (stacks-avail n2) (started o9)
    del: (stacks-avail n3) (waiting o9)
  (start-order o9 n4 n3), cost: 1
    pre: (stacks-avail n4) (waiting o9)
    add: (stacks-avail n3) (started o9)
    del: (stacks-avail n4) (waiting o9)
  (start-order o9 n5 n4), cost: 1
    pre: (stacks-avail n5) (waiting o9)
    add: (stacks-avail n4) (started o9)
    del: (stacks-avail n5) (waiting o9)
  (start-order o9 n6 n5), cost: 1
    pre: (stacks-avail n6) (waiting o9)
    add: (stacks-avail n5) (started o9)
    del: (stacks-avail n6) (waiting o9)
  (start-order o9 n7 n6), cost: 1
    pre: (stacks-avail n7) (waiting o9)
    add: (stacks-avail n6) (started o9)
    del: (stacks-avail n7) (waiting o9)
  (start-order o9 n8 n7), cost: 1
    pre: (stacks-avail n8) (waiting o9)
    add: (stacks-avail n7) (started o9)
    del: (stacks-avail n8) (waiting o9)
  (start-order o9 n9 n8), cost: 1
    pre: (stacks-avail n9) (waiting o9)
    add: (stacks-avail n8) (started o9)
    del: (stacks-avail n9) (waiting o9)
Init State: (not-made p1) (not-made p10) (not-made p2) (not-made p3) (not-made p4) (not-made p5) (not-made p6) (not-made p7) (not-made p8) (not-made p9) (stacks-avail n0) (waiting o1) (waiting o10) (waiting o2) (waiting o3) (waiting o4) (waiting o5) (waiting o6) (waiting o7) (waiting o8) (waiting o9)
Goal: (shipped o1) (shipped o10) (shipped o2) (shipped o3) (shipped o4) (shipped o5) (shipped o6) (shipped o7) (shipped o8) (shipped o9)
