 (available fe1-rsrc) (uninitialized):=1
 (available hw1-rsrc) (uninitialized):=1
 (available lc1-rsrc) (uninitialized):=1
 (available lime-rsrc) (uninitialized):=1
 (available sys-rsrc) (uninitialized):=1
 (available uc1-rsrc) (uninitialized):=1
 (available uime-rsrc) (uninitialized):=1
 (hasimage sheet1 front image-1) (notprintedwith sheet1 front color):=1:G
 (hasimage sheet2 front image-2) (notprintedwith sheet2 front black):=1:G
 (hasimage sheet1 front image-1) (location sheet1 fe1_exit-hw1_leftentry) (location sheet1 some_feeder_tray):G
 (hasimage sheet1 front image-1) (location sheet1 fe1_exit-hw1_leftentry) (uninitialized):G
 (hasimage sheet2 front image-2) (location sheet2 fe1_exit-hw1_leftentry) (location sheet2 some_feeder_tray):G
 (hasimage sheet2 front image-2) (location sheet2 fe1_exit-hw1_leftentry) (uninitialized):G
 (location sheet1 fe1_exit-hw1_leftentry) (location sheet1 some_feeder_tray) (sideup sheet1 front):G
 (location sheet1 fe1_exit-hw1_leftentry) (sideup sheet1 front) (uninitialized):G
 (location sheet1 some_feeder_tray) (sideup sheet1 back) (sideup sheet1 front):=1:G
 (location sheet2 fe1_exit-hw1_leftentry) (location sheet2 some_feeder_tray) (sideup sheet2 front):G
 (location sheet2 fe1_exit-hw1_leftentry) (sideup sheet2 front) (uninitialized):G
 (location sheet2 some_feeder_tray) (sideup sheet2 back) (sideup sheet2 front):=1:G
 (sideup sheet1 back) (sideup sheet1 front) (uninitialized):G
 (sideup sheet2 back) (sideup sheet2 front) (uninitialized):G
 (location sheet1 fe1_exit-hw1_leftentry) (location sheet1 hw1_rightexit-sys_entry) (location sheet1 hw1_toprightentry-uc1_exit) (location sheet1 lc1_entry-hw1_bottomleftexit) (location sheet1 lc1_entryfromime-lime_exit) (location sheet1 lc1_exit-hw1_bottomrightentry) (location sheet1 lime_entry-lc1_exittoime) (location sheet1 some_feeder_tray) (location sheet1 some_finisher_tray) (location sheet1 uc1_entry-hw1_topleftexit) (location sheet1 uc1_exittoime-uime_entry) (location sheet1 uime_exit-uc1_entryfromime):=1
 (location sheet1 fe1_exit-hw1_leftentry) (location sheet1 hw1_rightexit-sys_entry) (location sheet1 hw1_toprightentry-uc1_exit) (location sheet1 lc1_entry-hw1_bottomleftexit) (location sheet1 lc1_entryfromime-lime_exit) (location sheet1 lc1_exit-hw1_bottomrightentry) (location sheet1 lime_entry-lc1_exittoime) (location sheet1 some_feeder_tray) (location sheet1 uc1_entry-hw1_topleftexit) (location sheet1 uc1_exittoime-uime_entry) (location sheet1 uime_exit-uc1_entryfromime) (stackedin sheet1 sys_outputtray):=1:G
 (location sheet1 fe1_exit-hw1_leftentry) (location sheet1 hw1_rightexit-sys_entry) (location sheet1 hw1_toprightentry-uc1_exit) (location sheet1 lc1_entry-hw1_bottomleftexit) (location sheet1 lc1_entryfromime-lime_exit) (location sheet1 lc1_exit-hw1_bottomrightentry) (location sheet1 lime_entry-lc1_exittoime) (location sheet1 some_feeder_tray) (location sheet1 uc1_entry-hw1_topleftexit) (location sheet1 uc1_exittoime-uime_entry) (location sheet1 uime_exit-uc1_entryfromime) (stackedin sheet2 sys_outputtray):G
 (location sheet1 fe1_exit-hw1_leftentry) (location sheet1 hw1_rightexit-sys_entry) (location sheet1 hw1_toprightentry-uc1_exit) (location sheet1 lc1_entry-hw1_bottomleftexit) (location sheet1 lc1_entryfromime-lime_exit) (location sheet1 lc1_exit-hw1_bottomrightentry) (location sheet1 lime_entry-lc1_exittoime) (location sheet1 some_finisher_tray) (location sheet1 uc1_entry-hw1_topleftexit) (location sheet1 uc1_exittoime-uime_entry) (location sheet1 uime_exit-uc1_entryfromime) (uninitialized)
 (location sheet1 fe1_exit-hw1_leftentry) (location sheet1 hw1_rightexit-sys_entry) (location sheet1 hw1_toprightentry-uc1_exit) (location sheet1 lc1_entry-hw1_bottomleftexit) (location sheet1 lc1_entryfromime-lime_exit) (location sheet1 lc1_exit-hw1_bottomrightentry) (location sheet1 lime_entry-lc1_exittoime) (location sheet1 uc1_entry-hw1_topleftexit) (location sheet1 uc1_exittoime-uime_entry) (location sheet1 uime_exit-uc1_entryfromime) (stackedin sheet1 sys_outputtray) (uninitialized):G
 (location sheet1 fe1_exit-hw1_leftentry) (location sheet1 hw1_rightexit-sys_entry) (location sheet1 hw1_toprightentry-uc1_exit) (location sheet1 lc1_entry-hw1_bottomleftexit) (location sheet1 lc1_entryfromime-lime_exit) (location sheet1 lc1_exit-hw1_bottomrightentry) (location sheet1 lime_entry-lc1_exittoime) (location sheet1 uc1_entry-hw1_topleftexit) (location sheet1 uc1_exittoime-uime_entry) (location sheet1 uime_exit-uc1_entryfromime) (stackedin sheet2 sys_outputtray) (uninitialized):G
 (location sheet2 fe1_exit-hw1_leftentry) (location sheet2 hw1_rightexit-sys_entry) (location sheet2 hw1_toprightentry-uc1_exit) (location sheet2 lc1_entry-hw1_bottomleftexit) (location sheet2 lc1_entryfromime-lime_exit) (location sheet2 lc1_exit-hw1_bottomrightentry) (location sheet2 lime_entry-lc1_exittoime) (location sheet2 some_feeder_tray) (location sheet2 uc1_entry-hw1_topleftexit) (location sheet2 uc1_exittoime-uime_entry) (location sheet2 uime_exit-uc1_entryfromime) (stackedin sheet2 sys_outputtray):=1:G
 (location sheet2 fe1_exit-hw1_leftentry) (location sheet2 hw1_rightexit-sys_entry) (location sheet2 hw1_toprightentry-uc1_exit) (location sheet2 lc1_entry-hw1_bottomleftexit) (location sheet2 lc1_entryfromime-lime_exit) (location sheet2 lc1_exit-hw1_bottomrightentry) (location sheet2 lime_entry-lc1_exittoime) (location sheet2 uc1_entry-hw1_topleftexit) (location sheet2 uc1_exittoime-uime_entry) (location sheet2 uime_exit-uc1_entryfromime) (stackedin sheet2 sys_outputtray) (uninitialized):G

