Domain: spider
Problem: spider-4-1-9-6-2-600
Require: 200ff
Type[6]:
    [0]: object, parent: -1
    [1]: cardposition, parent: 0
    [2]: card_or_tableau, parent: 1
    [3]: card, parent: 2
    [4]: tableau, parent: 2
    [5]: deal, parent: 1
Obj-by-Type:
    [0]: 0 1 2 3 4 5 6 7 8 9 10 11 12 13 14 15 16 17 18 19 20 21 22 23 24 25 26 27 28 29 30 31 32 33 34 35 36 37 38 39 40 41 42 43 44 45
    [1]: 0 1 2 3 4 5 6 7 8 9 10 11 12 13 14 15 16 17 18 19 20 21 22 23 24 25 26 27 28 29 30 31 32 33 34 35 36 37 38 39 40 41 42 43 44 45
    [2]: 1 2 3 4 5 6 7 8 9 10 11 12 13 14 15 16 17 18 19 20 21 22 23 24 25 26 27 28 29 30 31 32 33 34 35 36 37 38 39 40 41 42
    [3]: 1 2 3 4 5 6 7 8 9 10 11 12 13 14 15 16 17 18 19 20 21 22 23 24 25 26 27 28 29 30 31 32 33 34 35 36
    [4]: 37 38 39 40 41 42
    [5]: 43 44 45
Obj[46]:
    [0]: discard, type: 1, is-constant: 1, is-private: 0, owner: -1, is-agent: 0
    [1]: card-d0-s0-v0, type: 3, is-constant: 0, is-private: 0, owner: -1, is-agent: 0
    [2]: card-d0-s0-v1, type: 3, is-constant: 0, is-private: 0, owner: -1, is-agent: 0
    [3]: card-d0-s0-v2, type: 3, is-constant: 0, is-private: 0, owner: -1, is-agent: 0
    [4]: card-d0-s0-v3, type: 3, is-constant: 0, is-private: 0, owner: -1, is-agent: 0
    [5]: card-d0-s0-v4, type: 3, is-constant: 0, is-private: 0, owner: -1, is-agent: 0
    [6]: card-d0-s0-v5, type: 3, is-constant: 0, is-private: 0, owner: -1, is-agent: 0
    [7]: card-d0-s0-v6, type: 3, is-constant: 0, is-private: 0, owner: -1, is-agent: 0
    [8]: card-d0-s0-v7, type: 3, is-constant: 0, is-private: 0, owner: -1, is-agent: 0
    [9]: card-d0-s0-v8, type: 3, is-constant: 0, is-private: 0, owner: -1, is-agent: 0
    [10]: card-d1-s0-v0, type: 3, is-constant: 0, is-private: 0, owner: -1, is-agent: 0
    [11]: card-d1-s0-v1, type: 3, is-constant: 0, is-private: 0, owner: -1, is-agent: 0
    [12]: card-d1-s0-v2, type: 3, is-constant: 0, is-private: 0, owner: -1, is-agent: 0
    [13]: card-d1-s0-v3, type: 3, is-constant: 0, is-private: 0, owner: -1, is-agent: 0
    [14]: card-d1-s0-v4, type: 3, is-constant: 0, is-private: 0, owner: -1, is-agent: 0
    [15]: card-d1-s0-v5, type: 3, is-constant: 0, is-private: 0, owner: -1, is-agent: 0
    [16]: card-d1-s0-v6, type: 3, is-constant: 0, is-private: 0, owner: -1, is-agent: 0
    [17]: card-d1-s0-v7, type: 3, is-constant: 0, is-private: 0, owner: -1, is-agent: 0
    [18]: card-d1-s0-v8, type: 3, is-constant: 0, is-private: 0, owner: -1, is-agent: 0
    [19]: card-d2-s0-v0, type: 3, is-constant: 0, is-private: 0, owner: -1, is-agent: 0
    [20]: card-d2-s0-v1, type: 3, is-constant: 0, is-private: 0, owner: -1, is-agent: 0
    [21]: card-d2-s0-v2, type: 3, is-constant: 0, is-private: 0, owner: -1, is-agent: 0
    [22]: card-d2-s0-v3, type: 3, is-constant: 0, is-private: 0, owner: -1, is-agent: 0
    [23]: card-d2-s0-v4, type: 3, is-constant: 0, is-private: 0, owner: -1, is-agent: 0
    [24]: card-d2-s0-v5, type: 3, is-constant: 0, is-private: 0, owner: -1, is-agent: 0
    [25]: card-d2-s0-v6, type: 3, is-constant: 0, is-private: 0, owner: -1, is-agent: 0
    [26]: card-d2-s0-v7, type: 3, is-constant: 0, is-private: 0, owner: -1, is-agent: 0
    [27]: card-d2-s0-v8, type: 3, is-constant: 0, is-private: 0, owner: -1, is-agent: 0
    [28]: card-d3-s0-v0, type: 3, is-constant: 0, is-private: 0, owner: -1, is-agent: 0
    [29]: card-d3-s0-v1, type: 3, is-constant: 0, is-private: 0, owner: -1, is-agent: 0
    [30]: card-d3-s0-v2, type: 3, is-constant: 0, is-private: 0, owner: -1, is-agent: 0
    [31]: card-d3-s0-v3, type: 3, is-constant: 0, is-private: 0, owner: -1, is-agent: 0
    [32]: card-d3-s0-v4, type: 3, is-constant: 0, is-private: 0, owner: -1, is-agent: 0
    [33]: card-d3-s0-v5, type: 3, is-constant: 0, is-private: 0, owner: -1, is-agent: 0
    [34]: card-d3-s0-v6, type: 3, is-constant: 0, is-private: 0, owner: -1, is-agent: 0
    [35]: card-d3-s0-v7, type: 3, is-constant: 0, is-private: 0, owner: -1, is-agent: 0
    [36]: card-d3-s0-v8, type: 3, is-constant: 0, is-private: 0, owner: -1, is-agent: 0
    [37]: pile-0, type: 4, is-constant: 0, is-private: 0, owner: -1, is-agent: 0
    [38]: pile-1, type: 4, is-constant: 0, is-private: 0, owner: -1, is-agent: 0
    [39]: pile-2, type: 4, is-constant: 0, is-private: 0, owner: -1, is-agent: 0
    [40]: pile-3, type: 4, is-constant: 0, is-private: 0, owner: -1, is-agent: 0
    [41]: pile-4, type: 4, is-constant: 0, is-private: 0, owner: -1, is-agent: 0
    [42]: pile-5, type: 4, is-constant: 0, is-private: 0, owner: -1, is-agent: 0
    [43]: deal-0, type: 5, is-constant: 0, is-private: 0, owner: -1, is-agent: 0
    [44]: deal-1, type: 5, is-constant: 0, is-private: 0, owner: -1, is-agent: 0
    [45]: deal-2, type: 5, is-constant: 0, is-private: 0, owner: -1, is-agent: 0
Predicate[28]:
    =: 0 0 :: is-private: 0, owner-param: -1, read: 0, write: 0
    on: 3 1 :: is-private: 0, owner-param: -1, read: 1, write: 1
    clear: 1 :: is-private: 0, owner-param: -1, read: 1, write: 1
    in-play: 3 :: is-private: 0, owner-param: -1, read: 1, write: 1
    current-deal: 5 :: is-private: 0, owner-param: -1, read: 1, write: 1
    can-continue-group: 3 1 :: is-private: 0, owner-param: -1, read: 1, write: 0
    can-be-placed-on: 3 3 :: is-private: 0, owner-param: -1, read: 1, write: 0
    is-ace: 3 :: is-private: 0, owner-param: -1, read: 1, write: 0
    is-king: 3 :: is-private: 0, owner-param: -1, read: 1, write: 0
    next-deal: 5 5 :: is-private: 0, owner-param: -1, read: 1, write: 0
    to-deal: 3 4 5 1 :: is-private: 0, owner-param: -1, read: 1, write: 0
    currently-dealing: :: is-private: 0, owner-param: -1, read: 1, write: 1, neg-of: 22
    currently-collecting-deck: :: is-private: 0, owner-param: -1, read: 1, write: 1, neg-of: 23
    collect-card: 1 :: is-private: 0, owner-param: -1, read: 1, write: 1
    part-of-tableau: 1 4 :: is-private: 0, owner-param: -1, read: 1, write: 1
    movable: 3 :: is-private: 0, owner-param: -1, read: 1, write: 1, neg-of: 24
    currently-updating-unmovable: :: is-private: 0, owner-param: -1, read: 1, write: 1, neg-of: 25
    make-unmovable: 3 :: is-private: 0, owner-param: -1, read: 1, write: 1
    currently-updating-movable: :: is-private: 0, owner-param: -1, read: 1, write: 1, neg-of: 26
    make-movable: 1 :: is-private: 0, owner-param: -1, read: 1, write: 1
    currently-updating-part-of-tableau: :: is-private: 0, owner-param: -1, read: 1, write: 1, neg-of: 27
    make-part-of-tableau: 3 4 :: is-private: 0, owner-param: -1, read: 1, write: 1
    NOT-currently-dealing: :: is-private: 0, owner-param: -1, read: 1, write: 1, neg-of: 11
    NOT-currently-collecting-deck: :: is-private: 0, owner-param: -1, read: 1, write: 1, neg-of: 12
    NOT-movable: 3 :: is-private: 0, owner-param: -1, read: 1, write: 1, neg-of: 15
    NOT-currently-updating-unmovable: :: is-private: 0, owner-param: -1, read: 1, write: 1, neg-of: 16
    NOT-currently-updating-movable: :: is-private: 0, owner-param: -1, read: 1, write: 1, neg-of: 18
    NOT-currently-updating-part-of-tableau: :: is-private: 0, owner-param: -1, read: 1, write: 1, neg-of: 20
Function[1]:
    total-cost: :: is-private: 0, owner-param: -1, read: 0, write: 0
Action[16]:
    start-dealing: 
        pre: (and (RW:NOT-currently-updating-movable) (RW:NOT-currently-updating-unmovable) (RW:NOT-currently-updating-part-of-tableau) (RW:NOT-currently-collecting-deck) (RW:NOT-currently-dealing))
        eff: (and (increase (total-cost) 1) (RW:currently-dealing) (N:RW:NOT-currently-dealing))
    deal-card: ?c:3 ?from:1 ?fromdeal:5 ?to:3 ?totableau:4
        pre: (and (RW:currently-dealing) (RW:NOT-currently-updating-movable) (RW:NOT-currently-updating-unmovable) (RW:NOT-currently-updating-part-of-tableau) (RW:NOT-currently-collecting-deck) (RW:current-deal ?fromdeal) (R:to-deal ?c ?totableau ?fromdeal ?from) (RW:clear ?c) (RW:on ?c ?from) (RW:part-of-tableau ?to ?totableau) (RW:clear ?to))
        eff: (and (N:RW:on ?c ?from) (RW:on ?c ?to) (N:RW:clear ?to) (RW:clear ?from) (RW:in-play ?c) (RW:part-of-tableau ?c ?totableau) (when (N:R:can-continue-group ?c ?to) (and (RW:make-unmovable ?to) (RW:currently-updating-unmovable) (N:RW:NOT-currently-updating-unmovable))) (RW:movable ?c) (N:RW:NOT-movable ?c))
    finish-dealing: ?d:5 ?nd:5
        pre: (and (RW:currently-dealing) (RW:NOT-currently-updating-movable) (RW:NOT-currently-updating-unmovable) (RW:NOT-currently-updating-part-of-tableau) (RW:NOT-currently-collecting-deck) (RW:current-deal ?d) (RW:clear ?d) (R:next-deal ?d ?nd))
        eff: (and (N:RW:current-deal ?d) (RW:current-deal ?nd) (N:RW:currently-dealing) (RW:NOT-currently-dealing))
    move-to-card: ?c:3 ?from:2 ?to:3 ?totableau:4
        pre: (and (RW:NOT-currently-updating-movable) (RW:NOT-currently-updating-unmovable) (RW:NOT-currently-collecting-deck) (RW:NOT-currently-updating-part-of-tableau) (RW:NOT-currently-dealing) (RW:movable ?c) (RW:in-play ?c) (RW:clear ?to) (RW:in-play ?to) (RW:part-of-tableau ?to ?totableau) (R:can-be-placed-on ?c ?to) (RW:on ?c ?from))
        eff: (and (N:RW:on ?c ?from) (RW:on ?c ?to) (N:RW:clear ?to) (RW:clear ?from) (when (N:R:can-continue-group ?c ?from) (and (RW:make-movable ?from) (RW:currently-updating-movable) (N:RW:NOT-currently-updating-movable))) (when (N:R:can-continue-group ?c ?to) (and (RW:make-unmovable ?to) (RW:currently-updating-unmovable) (N:RW:NOT-currently-updating-unmovable))) (RW:make-part-of-tableau ?c ?totableau) (increase (total-cost) 1) (RW:currently-updating-part-of-tableau) (N:RW:NOT-currently-updating-part-of-tableau))
    move-to-tableau: ?c:3 ?from:2 ?to:4
        pre: (and (RW:NOT-currently-updating-movable) (RW:NOT-currently-updating-unmovable) (RW:NOT-currently-collecting-deck) (RW:NOT-currently-updating-part-of-tableau) (RW:NOT-currently-dealing) (RW:movable ?c) (RW:in-play ?c) (RW:clear ?to) (RW:on ?c ?from))
        eff: (and (N:RW:on ?c ?from) (RW:on ?c ?to) (N:RW:clear ?to) (RW:clear ?from) (when (N:R:can-continue-group ?c ?from) (and (RW:make-movable ?from) (RW:currently-updating-movable) (N:RW:NOT-currently-updating-movable))) (RW:make-part-of-tableau ?c ?to) (increase (total-cost) 1) (RW:currently-updating-part-of-tableau) (N:RW:NOT-currently-updating-part-of-tableau))
    change-tableau-and-continue: ?c:3 ?tbefore:4 ?t:4 ?next:3
        pre: (and (RW:currently-updating-part-of-tableau) (RW:NOT-currently-collecting-deck) (RW:on ?next ?c) (RW:make-part-of-tableau ?c ?t) (RW:part-of-tableau ?c ?tbefore))
        eff: (and (N:RW:part-of-tableau ?c ?tbefore) (RW:part-of-tableau ?c ?t) (N:RW:make-part-of-tableau ?c ?t) (RW:make-part-of-tableau ?next ?t))
    change-tableau-and-stop: ?c:3 ?tbefore:4 ?t:4
        pre: (and (RW:currently-updating-part-of-tableau) (RW:NOT-currently-collecting-deck) (RW:make-part-of-tableau ?c ?t) (RW:part-of-tableau ?c ?tbefore) (RW:clear ?c))
        eff: (and (N:RW:part-of-tableau ?c ?tbefore) (RW:part-of-tableau ?c ?t) (N:RW:make-part-of-tableau ?c ?t) (N:RW:currently-updating-part-of-tableau) (RW:NOT-currently-updating-part-of-tableau))
    make-unmovable-and-continue: ?c:3 ?nextcard:3
        pre: (and (RW:currently-updating-unmovable) (RW:NOT-currently-collecting-deck) (RW:NOT-currently-updating-part-of-tableau) (RW:on ?c ?nextcard) (RW:make-unmovable ?c) (R:can-continue-group ?c ?nextcard) (RW:movable ?nextcard))
        eff: (and (RW:make-unmovable ?nextcard) (N:RW:make-unmovable ?c) (N:RW:movable ?c) (RW:NOT-movable ?c))
    make-unmovable-and-stop-at-tableau: ?c:3 ?t:4
        pre: (and (RW:currently-updating-unmovable) (RW:NOT-currently-collecting-deck) (RW:NOT-currently-updating-part-of-tableau) (RW:on ?c ?t) (RW:make-unmovable ?c))
        eff: (and (N:RW:make-unmovable ?c) (N:RW:movable ?c) (RW:NOT-movable ?c) (N:RW:currently-updating-unmovable) (RW:NOT-currently-updating-unmovable))
    make-unmovable-and-stop-at-unmovable: ?c:3 ?nextcard:3
        pre: (and (RW:currently-updating-unmovable) (RW:NOT-currently-collecting-deck) (RW:NOT-currently-updating-part-of-tableau) (RW:on ?c ?nextcard) (RW:make-unmovable ?c) (RW:NOT-movable ?nextcard))
        eff: (and (N:RW:make-unmovable ?c) (N:RW:movable ?c) (RW:NOT-movable ?c) (N:RW:currently-updating-unmovable) (RW:NOT-currently-updating-unmovable) (N:RW:currently-updating-part-of-tableau) (RW:NOT-currently-updating-part-of-tableau))
    make-movable-and-continue: ?c:3 ?nextcard:3
        pre: (and (RW:currently-updating-movable) (RW:NOT-currently-updating-unmovable) (RW:NOT-currently-updating-part-of-tableau) (RW:NOT-currently-collecting-deck) (RW:on ?c ?nextcard) (RW:make-movable ?c) (R:can-continue-group ?c ?nextcard))
        eff: (and (RW:make-movable ?nextcard) (N:RW:make-movable ?c) (RW:movable ?c) (N:RW:NOT-movable ?c))
    make-movable-ignore-pile: ?p:4
        pre: (and (RW:currently-updating-movable) (RW:NOT-currently-updating-unmovable) (RW:NOT-currently-updating-part-of-tableau) (RW:NOT-currently-collecting-deck) (RW:make-movable ?p))
        eff: (and (N:RW:make-movable ?p) (N:RW:currently-updating-movable) (RW:NOT-currently-updating-movable))
    make-movable-and-stop: ?c:3 ?nextcard:1
        pre: (and (RW:currently-updating-movable) (RW:NOT-currently-updating-unmovable) (RW:NOT-currently-updating-part-of-tableau) (RW:NOT-currently-collecting-deck) (RW:on ?c ?nextcard) (RW:make-movable ?c) (N:R:can-continue-group ?c ?nextcard))
        eff: (and (N:RW:make-movable ?c) (RW:movable ?c) (N:RW:NOT-movable ?c) (N:RW:currently-updating-movable) (RW:NOT-currently-updating-movable))
    start-collecting-deck: ?c:3
        pre: (and (RW:NOT-currently-updating-movable) (RW:NOT-currently-updating-unmovable) (RW:NOT-currently-updating-part-of-tableau) (RW:NOT-currently-collecting-deck) (RW:NOT-currently-dealing) (RW:clear ?c) (R:is-ace ?c) (RW:in-play ?c))
        eff: (and (RW:collect-card ?c) (increase (total-cost) 1) (RW:currently-collecting-deck) (N:RW:NOT-currently-collecting-deck))
    collect-card: ?c:3 ?nextcard:1 ?p:4
        pre: (and (RW:currently-collecting-deck) (RW:NOT-currently-updating-movable) (RW:NOT-currently-updating-unmovable) (RW:NOT-currently-updating-part-of-tableau) (RW:NOT-currently-dealing) (RW:collect-card ?c) (RW:on ?c ?nextcard) (RW:in-play ?c) (RW:part-of-tableau ?c ?p) (R:can-continue-group ?c ?nextcard))
        eff: (and (N:RW:on ?c ?nextcard) (RW:on ?c discard) (RW:clear ?nextcard) (N:RW:in-play ?c) (N:RW:part-of-tableau ?c ?p) (N:RW:collect-card ?c) (RW:collect-card ?nextcard) (N:RW:movable ?c) (RW:NOT-movable ?c))
    finish-collecting-deck: ?c:3 ?nextcard:1 ?p:4
        pre: (and (RW:currently-collecting-deck) (RW:NOT-currently-updating-movable) (RW:NOT-currently-updating-unmovable) (RW:NOT-currently-updating-part-of-tableau) (RW:NOT-currently-dealing) (RW:on ?c ?nextcard) (RW:collect-card ?c) (R:is-king ?c) (RW:in-play ?c) (RW:part-of-tableau ?c ?p))
        eff: (and (N:RW:on ?c ?nextcard) (RW:on ?c discard) (RW:clear ?nextcard) (N:RW:in-play ?c) (N:RW:part-of-tableau ?c ?p) (N:RW:collect-card ?c) (RW:make-movable ?nextcard) (N:RW:currently-collecting-deck) (RW:NOT-currently-collecting-deck) (N:RW:movable ?c) (RW:NOT-movable ?c) (RW:currently-updating-movable) (N:RW:NOT-currently-updating-movable))
Init[418]:
  (on card-d2-s0-v5 card-d0-s0-v5)
  (on card-d0-s0-v1 card-d2-s0-v5)
  (on card-d3-s0-v5 card-d0-s0-v1)
  (on card-d0-s0-v5 pile-0)
  (clear card-d3-s0-v5)
  (part-of-tableau pile-0 pile-0)
  (part-of-tableau card-d0-s0-v5 pile-0)
  (part-of-tableau card-d2-s0-v5 pile-0)
  (part-of-tableau card-d0-s0-v1 pile-0)
  (part-of-tableau card-d3-s0-v5 pile-0)
  (movable card-d3-s0-v5)
  (in-play card-d0-s0-v5)
  (in-play card-d2-s0-v5)
  (in-play card-d0-s0-v1)
  (in-play card-d3-s0-v5)
  (on card-d2-s0-v4 card-d1-s0-v2)
  (on card-d0-s0-v2 card-d2-s0-v4)
  (on card-d2-s0-v3 card-d0-s0-v2)
  (on card-d1-s0-v2 pile-1)
  (clear card-d2-s0-v3)
  (part-of-tableau pile-1 pile-1)
  (part-of-tableau card-d1-s0-v2 pile-1)
  (part-of-tableau card-d2-s0-v4 pile-1)
  (part-of-tableau card-d0-s0-v2 pile-1)
  (part-of-tableau card-d2-s0-v3 pile-1)
  (movable card-d2-s0-v3)
  (in-play card-d1-s0-v2)
  (in-play card-d2-s0-v4)
  (in-play card-d0-s0-v2)
  (in-play card-d2-s0-v3)
  (on card-d0-s0-v3 card-d2-s0-v7)
  (on card-d0-s0-v7 card-d0-s0-v3)
  (on card-d3-s0-v1 card-d0-s0-v7)
  (on card-d2-s0-v7 pile-2)
  (clear card-d3-s0-v1)
  (part-of-tableau pile-2 pile-2)
  (part-of-tableau card-d2-s0-v7 pile-2)
  (part-of-tableau card-d0-s0-v3 pile-2)
  (part-of-tableau card-d0-s0-v7 pile-2)
  (part-of-tableau card-d3-s0-v1 pile-2)
  (movable card-d3-s0-v1)
  (in-play card-d2-s0-v7)
  (in-play card-d0-s0-v3)
  (in-play card-d0-s0-v7)
  (in-play card-d3-s0-v1)
  (on card-d0-s0-v0 card-d3-s0-v0)
  (on card-d1-s0-v6 card-d0-s0-v0)
  (on card-d2-s0-v1 card-d1-s0-v6)
  (on card-d3-s0-v0 pile-3)
  (clear card-d2-s0-v1)
  (part-of-tableau pile-3 pile-3)
  (part-of-tableau card-d3-s0-v0 pile-3)
  (part-of-tableau card-d0-s0-v0 pile-3)
  (part-of-tableau card-d1-s0-v6 pile-3)
  (part-of-tableau card-d2-s0-v1 pile-3)
  (movable card-d2-s0-v1)
  (in-play card-d3-s0-v0)
  (in-play card-d0-s0-v0)
  (in-play card-d1-s0-v6)
  (in-play card-d2-s0-v1)
  (on card-d1-s0-v4 card-d2-s0-v8)
  (on card-d3-s0-v7 card-d1-s0-v4)
  (on card-d3-s0-v2 card-d3-s0-v7)
  (on card-d2-s0-v8 pile-4)
  (clear card-d3-s0-v2)
  (part-of-tableau pile-4 pile-4)
  (part-of-tableau card-d2-s0-v8 pile-4)
  (part-of-tableau card-d1-s0-v4 pile-4)
  (part-of-tableau card-d3-s0-v7 pile-4)
  (part-of-tableau card-d3-s0-v2 pile-4)
  (movable card-d3-s0-v2)
  (in-play card-d2-s0-v8)
  (in-play card-d1-s0-v4)
  (in-play card-d3-s0-v7)
  (in-play card-d3-s0-v2)
  (on card-d1-s0-v5 card-d3-s0-v4)
  (on card-d1-s0-v3 card-d1-s0-v5)
  (on card-d3-s0-v6 card-d1-s0-v3)
  (on card-d3-s0-v4 pile-5)
  (clear card-d3-s0-v6)
  (part-of-tableau pile-5 pile-5)
  (part-of-tableau card-d3-s0-v4 pile-5)
  (part-of-tableau card-d1-s0-v5 pile-5)
  (part-of-tableau card-d1-s0-v3 pile-5)
  (part-of-tableau card-d3-s0-v6 pile-5)
  (movable card-d3-s0-v6)
  (in-play card-d3-s0-v4)
  (in-play card-d1-s0-v5)
  (in-play card-d1-s0-v3)
  (in-play card-d3-s0-v6)
  (on card-d0-s0-v6 deal-0)
  (on card-d1-s0-v1 card-d0-s0-v6)
  (on card-d3-s0-v8 card-d1-s0-v1)
  (on card-d1-s0-v8 card-d3-s0-v8)
  (on card-d1-s0-v0 card-d1-s0-v8)
  (on card-d2-s0-v6 card-d1-s0-v0)
  (clear card-d2-s0-v6)
  (on card-d2-s0-v2 deal-1)
  (on card-d0-s0-v4 card-d2-s0-v2)
  (on card-d2-s0-v0 card-d0-s0-v4)
  (on card-d1-s0-v7 card-d2-s0-v0)
  (on card-d3-s0-v3 card-d1-s0-v7)
  (on card-d0-s0-v8 card-d3-s0-v3)
  (clear card-d0-s0-v8)
  (current-deal deal-0)
  S:(can-continue-group card-d0-s0-v0 card-d0-s0-v1)
  S:(can-continue-group card-d0-s0-v1 card-d0-s0-v2)
  S:(can-continue-group card-d0-s0-v2 card-d0-s0-v3)
  S:(can-continue-group card-d0-s0-v3 card-d0-s0-v4)
  S:(can-continue-group card-d0-s0-v4 card-d0-s0-v5)
  S:(can-continue-group card-d0-s0-v5 card-d0-s0-v6)
  S:(can-continue-group card-d0-s0-v6 card-d0-s0-v7)
  S:(can-continue-group card-d0-s0-v7 card-d0-s0-v8)
  S:(can-continue-group card-d0-s0-v0 card-d1-s0-v1)
  S:(can-continue-group card-d0-s0-v1 card-d1-s0-v2)
  S:(can-continue-group card-d0-s0-v2 card-d1-s0-v3)
  S:(can-continue-group card-d0-s0-v3 card-d1-s0-v4)
  S:(can-continue-group card-d0-s0-v4 card-d1-s0-v5)
  S:(can-continue-group card-d0-s0-v5 card-d1-s0-v6)
  S:(can-continue-group card-d0-s0-v6 card-d1-s0-v7)
  S:(can-continue-group card-d0-s0-v7 card-d1-s0-v8)
  S:(can-continue-group card-d0-s0-v0 card-d2-s0-v1)
  S:(can-continue-group card-d0-s0-v1 card-d2-s0-v2)
  S:(can-continue-group card-d0-s0-v2 card-d2-s0-v3)
  S:(can-continue-group card-d0-s0-v3 card-d2-s0-v4)
  S:(can-continue-group card-d0-s0-v4 card-d2-s0-v5)
  S:(can-continue-group card-d0-s0-v5 card-d2-s0-v6)
  S:(can-continue-group card-d0-s0-v6 card-d2-s0-v7)
  S:(can-continue-group card-d0-s0-v7 card-d2-s0-v8)
  S:(can-continue-group card-d0-s0-v0 card-d3-s0-v1)
  S:(can-continue-group card-d0-s0-v1 card-d3-s0-v2)
  S:(can-continue-group card-d0-s0-v2 card-d3-s0-v3)
  S:(can-continue-group card-d0-s0-v3 card-d3-s0-v4)
  S:(can-continue-group card-d0-s0-v4 card-d3-s0-v5)
  S:(can-continue-group card-d0-s0-v5 card-d3-s0-v6)
  S:(can-continue-group card-d0-s0-v6 card-d3-s0-v7)
  S:(can-continue-group card-d0-s0-v7 card-d3-s0-v8)
  S:(can-continue-group card-d1-s0-v0 card-d0-s0-v1)
  S:(can-continue-group card-d1-s0-v1 card-d0-s0-v2)
  S:(can-continue-group card-d1-s0-v2 card-d0-s0-v3)
  S:(can-continue-group card-d1-s0-v3 card-d0-s0-v4)
  S:(can-continue-group card-d1-s0-v4 card-d0-s0-v5)
  S:(can-continue-group card-d1-s0-v5 card-d0-s0-v6)
  S:(can-continue-group card-d1-s0-v6 card-d0-s0-v7)
  S:(can-continue-group card-d1-s0-v7 card-d0-s0-v8)
  S:(can-continue-group card-d1-s0-v0 card-d1-s0-v1)
  S:(can-continue-group card-d1-s0-v1 card-d1-s0-v2)
  S:(can-continue-group card-d1-s0-v2 card-d1-s0-v3)
  S:(can-continue-group card-d1-s0-v3 card-d1-s0-v4)
  S:(can-continue-group card-d1-s0-v4 card-d1-s0-v5)
  S:(can-continue-group card-d1-s0-v5 card-d1-s0-v6)
  S:(can-continue-group card-d1-s0-v6 card-d1-s0-v7)
  S:(can-continue-group card-d1-s0-v7 card-d1-s0-v8)
  S:(can-continue-group card-d1-s0-v0 card-d2-s0-v1)
  S:(can-continue-group card-d1-s0-v1 card-d2-s0-v2)
  S:(can-continue-group card-d1-s0-v2 card-d2-s0-v3)
  S:(can-continue-group card-d1-s0-v3 card-d2-s0-v4)
  S:(can-continue-group card-d1-s0-v4 card-d2-s0-v5)
  S:(can-continue-group card-d1-s0-v5 card-d2-s0-v6)
  S:(can-continue-group card-d1-s0-v6 card-d2-s0-v7)
  S:(can-continue-group card-d1-s0-v7 card-d2-s0-v8)
  S:(can-continue-group card-d1-s0-v0 card-d3-s0-v1)
  S:(can-continue-group card-d1-s0-v1 card-d3-s0-v2)
  S:(can-continue-group card-d1-s0-v2 card-d3-s0-v3)
  S:(can-continue-group card-d1-s0-v3 card-d3-s0-v4)
  S:(can-continue-group card-d1-s0-v4 card-d3-s0-v5)
  S:(can-continue-group card-d1-s0-v5 card-d3-s0-v6)
  S:(can-continue-group card-d1-s0-v6 card-d3-s0-v7)
  S:(can-continue-group card-d1-s0-v7 card-d3-s0-v8)
  S:(can-continue-group card-d2-s0-v0 card-d0-s0-v1)
  S:(can-continue-group card-d2-s0-v1 card-d0-s0-v2)
  S:(can-continue-group card-d2-s0-v2 card-d0-s0-v3)
  S:(can-continue-group card-d2-s0-v3 card-d0-s0-v4)
  S:(can-continue-group card-d2-s0-v4 card-d0-s0-v5)
  S:(can-continue-group card-d2-s0-v5 card-d0-s0-v6)
  S:(can-continue-group card-d2-s0-v6 card-d0-s0-v7)
  S:(can-continue-group card-d2-s0-v7 card-d0-s0-v8)
  S:(can-continue-group card-d2-s0-v0 card-d1-s0-v1)
  S:(can-continue-group card-d2-s0-v1 card-d1-s0-v2)
  S:(can-continue-group card-d2-s0-v2 card-d1-s0-v3)
  S:(can-continue-group card-d2-s0-v3 card-d1-s0-v4)
  S:(can-continue-group card-d2-s0-v4 card-d1-s0-v5)
  S:(can-continue-group card-d2-s0-v5 card-d1-s0-v6)
  S:(can-continue-group card-d2-s0-v6 card-d1-s0-v7)
  S:(can-continue-group card-d2-s0-v7 card-d1-s0-v8)
  S:(can-continue-group card-d2-s0-v0 card-d2-s0-v1)
  S:(can-continue-group card-d2-s0-v1 card-d2-s0-v2)
  S:(can-continue-group card-d2-s0-v2 card-d2-s0-v3)
  S:(can-continue-group card-d2-s0-v3 card-d2-s0-v4)
  S:(can-continue-group card-d2-s0-v4 card-d2-s0-v5)
  S:(can-continue-group card-d2-s0-v5 card-d2-s0-v6)
  S:(can-continue-group card-d2-s0-v6 card-d2-s0-v7)
  S:(can-continue-group card-d2-s0-v7 card-d2-s0-v8)
  S:(can-continue-group card-d2-s0-v0 card-d3-s0-v1)
  S:(can-continue-group card-d2-s0-v1 card-d3-s0-v2)
  S:(can-continue-group card-d2-s0-v2 card-d3-s0-v3)
  S:(can-continue-group card-d2-s0-v3 card-d3-s0-v4)
  S:(can-continue-group card-d2-s0-v4 card-d3-s0-v5)
  S:(can-continue-group card-d2-s0-v5 card-d3-s0-v6)
  S:(can-continue-group card-d2-s0-v6 card-d3-s0-v7)
  S:(can-continue-group card-d2-s0-v7 card-d3-s0-v8)
  S:(can-continue-group card-d3-s0-v0 card-d0-s0-v1)
  S:(can-continue-group card-d3-s0-v1 card-d0-s0-v2)
  S:(can-continue-group card-d3-s0-v2 card-d0-s0-v3)
  S:(can-continue-group card-d3-s0-v3 card-d0-s0-v4)
  S:(can-continue-group card-d3-s0-v4 card-d0-s0-v5)
  S:(can-continue-group card-d3-s0-v5 card-d0-s0-v6)
  S:(can-continue-group card-d3-s0-v6 card-d0-s0-v7)
  S:(can-continue-group card-d3-s0-v7 card-d0-s0-v8)
  S:(can-continue-group card-d3-s0-v0 card-d1-s0-v1)
  S:(can-continue-group card-d3-s0-v1 card-d1-s0-v2)
  S:(can-continue-group card-d3-s0-v2 card-d1-s0-v3)
  S:(can-continue-group card-d3-s0-v3 card-d1-s0-v4)
  S:(can-continue-group card-d3-s0-v4 card-d1-s0-v5)
  S:(can-continue-group card-d3-s0-v5 card-d1-s0-v6)
  S:(can-continue-group card-d3-s0-v6 card-d1-s0-v7)
  S:(can-continue-group card-d3-s0-v7 card-d1-s0-v8)
  S:(can-continue-group card-d3-s0-v0 card-d2-s0-v1)
  S:(can-continue-group card-d3-s0-v1 card-d2-s0-v2)
  S:(can-continue-group card-d3-s0-v2 card-d2-s0-v3)
  S:(can-continue-group card-d3-s0-v3 card-d2-s0-v4)
  S:(can-continue-group card-d3-s0-v4 card-d2-s0-v5)
  S:(can-continue-group card-d3-s0-v5 card-d2-s0-v6)
  S:(can-continue-group card-d3-s0-v6 card-d2-s0-v7)
  S:(can-continue-group card-d3-s0-v7 card-d2-s0-v8)
  S:(can-continue-group card-d3-s0-v0 card-d3-s0-v1)
  S:(can-continue-group card-d3-s0-v1 card-d3-s0-v2)
  S:(can-continue-group card-d3-s0-v2 card-d3-s0-v3)
  S:(can-continue-group card-d3-s0-v3 card-d3-s0-v4)
  S:(can-continue-group card-d3-s0-v4 card-d3-s0-v5)
  S:(can-continue-group card-d3-s0-v5 card-d3-s0-v6)
  S:(can-continue-group card-d3-s0-v6 card-d3-s0-v7)
  S:(can-continue-group card-d3-s0-v7 card-d3-s0-v8)
  S:(can-be-placed-on card-d0-s0-v0 card-d0-s0-v1)
  S:(can-be-placed-on card-d0-s0-v1 card-d0-s0-v2)
  S:(can-be-placed-on card-d0-s0-v2 card-d0-s0-v3)
  S:(can-be-placed-on card-d0-s0-v3 card-d0-s0-v4)
  S:(can-be-placed-on card-d0-s0-v4 card-d0-s0-v5)
  S:(can-be-placed-on card-d0-s0-v5 card-d0-s0-v6)
  S:(can-be-placed-on card-d0-s0-v6 card-d0-s0-v7)
  S:(can-be-placed-on card-d0-s0-v7 card-d0-s0-v8)
  S:(can-be-placed-on card-d0-s0-v0 card-d1-s0-v1)
  S:(can-be-placed-on card-d0-s0-v1 card-d1-s0-v2)
  S:(can-be-placed-on card-d0-s0-v2 card-d1-s0-v3)
  S:(can-be-placed-on card-d0-s0-v3 card-d1-s0-v4)
  S:(can-be-placed-on card-d0-s0-v4 card-d1-s0-v5)
  S:(can-be-placed-on card-d0-s0-v5 card-d1-s0-v6)
  S:(can-be-placed-on card-d0-s0-v6 card-d1-s0-v7)
  S:(can-be-placed-on card-d0-s0-v7 card-d1-s0-v8)
  S:(can-be-placed-on card-d0-s0-v0 card-d2-s0-v1)
  S:(can-be-placed-on card-d0-s0-v1 card-d2-s0-v2)
  S:(can-be-placed-on card-d0-s0-v2 card-d2-s0-v3)
  S:(can-be-placed-on card-d0-s0-v3 card-d2-s0-v4)
  S:(can-be-placed-on card-d0-s0-v4 card-d2-s0-v5)
  S:(can-be-placed-on card-d0-s0-v5 card-d2-s0-v6)
  S:(can-be-placed-on card-d0-s0-v6 card-d2-s0-v7)
  S:(can-be-placed-on card-d0-s0-v7 card-d2-s0-v8)
  S:(can-be-placed-on card-d0-s0-v0 card-d3-s0-v1)
  S:(can-be-placed-on card-d0-s0-v1 card-d3-s0-v2)
  S:(can-be-placed-on card-d0-s0-v2 card-d3-s0-v3)
  S:(can-be-placed-on card-d0-s0-v3 card-d3-s0-v4)
  S:(can-be-placed-on card-d0-s0-v4 card-d3-s0-v5)
  S:(can-be-placed-on card-d0-s0-v5 card-d3-s0-v6)
  S:(can-be-placed-on card-d0-s0-v6 card-d3-s0-v7)
  S:(can-be-placed-on card-d0-s0-v7 card-d3-s0-v8)
  S:(can-be-placed-on card-d1-s0-v0 card-d0-s0-v1)
  S:(can-be-placed-on card-d1-s0-v1 card-d0-s0-v2)
  S:(can-be-placed-on card-d1-s0-v2 card-d0-s0-v3)
  S:(can-be-placed-on card-d1-s0-v3 card-d0-s0-v4)
  S:(can-be-placed-on card-d1-s0-v4 card-d0-s0-v5)
  S:(can-be-placed-on card-d1-s0-v5 card-d0-s0-v6)
  S:(can-be-placed-on card-d1-s0-v6 card-d0-s0-v7)
  S:(can-be-placed-on card-d1-s0-v7 card-d0-s0-v8)
  S:(can-be-placed-on card-d1-s0-v0 card-d1-s0-v1)
  S:(can-be-placed-on card-d1-s0-v1 card-d1-s0-v2)
  S:(can-be-placed-on card-d1-s0-v2 card-d1-s0-v3)
  S:(can-be-placed-on card-d1-s0-v3 card-d1-s0-v4)
  S:(can-be-placed-on card-d1-s0-v4 card-d1-s0-v5)
  S:(can-be-placed-on card-d1-s0-v5 card-d1-s0-v6)
  S:(can-be-placed-on card-d1-s0-v6 card-d1-s0-v7)
  S:(can-be-placed-on card-d1-s0-v7 card-d1-s0-v8)
  S:(can-be-placed-on card-d1-s0-v0 card-d2-s0-v1)
  S:(can-be-placed-on card-d1-s0-v1 card-d2-s0-v2)
  S:(can-be-placed-on card-d1-s0-v2 card-d2-s0-v3)
  S:(can-be-placed-on card-d1-s0-v3 card-d2-s0-v4)
  S:(can-be-placed-on card-d1-s0-v4 card-d2-s0-v5)
  S:(can-be-placed-on card-d1-s0-v5 card-d2-s0-v6)
  S:(can-be-placed-on card-d1-s0-v6 card-d2-s0-v7)
  S:(can-be-placed-on card-d1-s0-v7 card-d2-s0-v8)
  S:(can-be-placed-on card-d1-s0-v0 card-d3-s0-v1)
  S:(can-be-placed-on card-d1-s0-v1 card-d3-s0-v2)
  S:(can-be-placed-on card-d1-s0-v2 card-d3-s0-v3)
  S:(can-be-placed-on card-d1-s0-v3 card-d3-s0-v4)
  S:(can-be-placed-on card-d1-s0-v4 card-d3-s0-v5)
  S:(can-be-placed-on card-d1-s0-v5 card-d3-s0-v6)
  S:(can-be-placed-on card-d1-s0-v6 card-d3-s0-v7)
  S:(can-be-placed-on card-d1-s0-v7 card-d3-s0-v8)
  S:(can-be-placed-on card-d2-s0-v0 card-d0-s0-v1)
  S:(can-be-placed-on card-d2-s0-v1 card-d0-s0-v2)
  S:(can-be-placed-on card-d2-s0-v2 card-d0-s0-v3)
  S:(can-be-placed-on card-d2-s0-v3 card-d0-s0-v4)
  S:(can-be-placed-on card-d2-s0-v4 card-d0-s0-v5)
  S:(can-be-placed-on card-d2-s0-v5 card-d0-s0-v6)
  S:(can-be-placed-on card-d2-s0-v6 card-d0-s0-v7)
  S:(can-be-placed-on card-d2-s0-v7 card-d0-s0-v8)
  S:(can-be-placed-on card-d2-s0-v0 card-d1-s0-v1)
  S:(can-be-placed-on card-d2-s0-v1 card-d1-s0-v2)
  S:(can-be-placed-on card-d2-s0-v2 card-d1-s0-v3)
  S:(can-be-placed-on card-d2-s0-v3 card-d1-s0-v4)
  S:(can-be-placed-on card-d2-s0-v4 card-d1-s0-v5)
  S:(can-be-placed-on card-d2-s0-v5 card-d1-s0-v6)
  S:(can-be-placed-on card-d2-s0-v6 card-d1-s0-v7)
  S:(can-be-placed-on card-d2-s0-v7 card-d1-s0-v8)
  S:(can-be-placed-on card-d2-s0-v0 card-d2-s0-v1)
  S:(can-be-placed-on card-d2-s0-v1 card-d2-s0-v2)
  S:(can-be-placed-on card-d2-s0-v2 card-d2-s0-v3)
  S:(can-be-placed-on card-d2-s0-v3 card-d2-s0-v4)
  S:(can-be-placed-on card-d2-s0-v4 card-d2-s0-v5)
  S:(can-be-placed-on card-d2-s0-v5 card-d2-s0-v6)
  S:(can-be-placed-on card-d2-s0-v6 card-d2-s0-v7)
  S:(can-be-placed-on card-d2-s0-v7 card-d2-s0-v8)
  S:(can-be-placed-on card-d2-s0-v0 card-d3-s0-v1)
  S:(can-be-placed-on card-d2-s0-v1 card-d3-s0-v2)
  S:(can-be-placed-on card-d2-s0-v2 card-d3-s0-v3)
  S:(can-be-placed-on card-d2-s0-v3 card-d3-s0-v4)
  S:(can-be-placed-on card-d2-s0-v4 card-d3-s0-v5)
  S:(can-be-placed-on card-d2-s0-v5 card-d3-s0-v6)
  S:(can-be-placed-on card-d2-s0-v6 card-d3-s0-v7)
  S:(can-be-placed-on card-d2-s0-v7 card-d3-s0-v8)
  S:(can-be-placed-on card-d3-s0-v0 card-d0-s0-v1)
  S:(can-be-placed-on card-d3-s0-v1 card-d0-s0-v2)
  S:(can-be-placed-on card-d3-s0-v2 card-d0-s0-v3)
  S:(can-be-placed-on card-d3-s0-v3 card-d0-s0-v4)
  S:(can-be-placed-on card-d3-s0-v4 card-d0-s0-v5)
  S:(can-be-placed-on card-d3-s0-v5 card-d0-s0-v6)
  S:(can-be-placed-on card-d3-s0-v6 card-d0-s0-v7)
  S:(can-be-placed-on card-d3-s0-v7 card-d0-s0-v8)
  S:(can-be-placed-on card-d3-s0-v0 card-d1-s0-v1)
  S:(can-be-placed-on card-d3-s0-v1 card-d1-s0-v2)
  S:(can-be-placed-on card-d3-s0-v2 card-d1-s0-v3)
  S:(can-be-placed-on card-d3-s0-v3 card-d1-s0-v4)
  S:(can-be-placed-on card-d3-s0-v4 card-d1-s0-v5)
  S:(can-be-placed-on card-d3-s0-v5 card-d1-s0-v6)
  S:(can-be-placed-on card-d3-s0-v6 card-d1-s0-v7)
  S:(can-be-placed-on card-d3-s0-v7 card-d1-s0-v8)
  S:(can-be-placed-on card-d3-s0-v0 card-d2-s0-v1)
  S:(can-be-placed-on card-d3-s0-v1 card-d2-s0-v2)
  S:(can-be-placed-on card-d3-s0-v2 card-d2-s0-v3)
  S:(can-be-placed-on card-d3-s0-v3 card-d2-s0-v4)
  S:(can-be-placed-on card-d3-s0-v4 card-d2-s0-v5)
  S:(can-be-placed-on card-d3-s0-v5 card-d2-s0-v6)
  S:(can-be-placed-on card-d3-s0-v6 card-d2-s0-v7)
  S:(can-be-placed-on card-d3-s0-v7 card-d2-s0-v8)
  S:(can-be-placed-on card-d3-s0-v0 card-d3-s0-v1)
  S:(can-be-placed-on card-d3-s0-v1 card-d3-s0-v2)
  S:(can-be-placed-on card-d3-s0-v2 card-d3-s0-v3)
  S:(can-be-placed-on card-d3-s0-v3 card-d3-s0-v4)
  S:(can-be-placed-on card-d3-s0-v4 card-d3-s0-v5)
  S:(can-be-placed-on card-d3-s0-v5 card-d3-s0-v6)
  S:(can-be-placed-on card-d3-s0-v6 card-d3-s0-v7)
  S:(can-be-placed-on card-d3-s0-v7 card-d3-s0-v8)
  S:(is-ace card-d0-s0-v0)
  S:(is-ace card-d1-s0-v0)
  S:(is-ace card-d2-s0-v0)
  S:(is-ace card-d3-s0-v0)
  S:(is-king card-d0-s0-v8)
  S:(is-king card-d1-s0-v8)
  S:(is-king card-d2-s0-v8)
  S:(is-king card-d3-s0-v8)
  S:(next-deal deal-0 deal-1)
  S:(next-deal deal-1 deal-2)
  S:(to-deal card-d0-s0-v6 pile-5 deal-0 deal-0)
  S:(to-deal card-d2-s0-v6 pile-0 deal-0 card-d1-s0-v0)
  S:(to-deal card-d1-s0-v0 pile-1 deal-0 card-d1-s0-v8)
  S:(to-deal card-d1-s0-v8 pile-2 deal-0 card-d3-s0-v8)
  S:(to-deal card-d3-s0-v8 pile-3 deal-0 card-d1-s0-v1)
  S:(to-deal card-d1-s0-v1 pile-4 deal-0 card-d0-s0-v6)
  S:(to-deal card-d2-s0-v2 pile-5 deal-1 deal-1)
  S:(to-deal card-d0-s0-v8 pile-0 deal-1 card-d3-s0-v3)
  S:(to-deal card-d3-s0-v3 pile-1 deal-1 card-d1-s0-v7)
  S:(to-deal card-d1-s0-v7 pile-2 deal-1 card-d2-s0-v0)
  S:(to-deal card-d2-s0-v0 pile-3 deal-1 card-d0-s0-v4)
  S:(to-deal card-d0-s0-v4 pile-4 deal-1 card-d2-s0-v2)
  (NOT-currently-dealing)
  (NOT-currently-collecting-deck)
  (NOT-movable card-d0-s0-v0)
  (NOT-movable card-d0-s0-v1)
  (NOT-movable card-d0-s0-v2)
  (NOT-movable card-d0-s0-v3)
  (NOT-movable card-d0-s0-v4)
  (NOT-movable card-d0-s0-v5)
  (NOT-movable card-d0-s0-v6)
  (NOT-movable card-d0-s0-v7)
  (NOT-movable card-d0-s0-v8)
  (NOT-movable card-d1-s0-v0)
  (NOT-movable card-d1-s0-v1)
  (NOT-movable card-d1-s0-v2)
  (NOT-movable card-d1-s0-v3)
  (NOT-movable card-d1-s0-v4)
  (NOT-movable card-d1-s0-v5)
  (NOT-movable card-d1-s0-v6)
  (NOT-movable card-d1-s0-v7)
  (NOT-movable card-d1-s0-v8)
  (NOT-movable card-d2-s0-v0)
  (NOT-movable card-d2-s0-v2)
  (NOT-movable card-d2-s0-v4)
  (NOT-movable card-d2-s0-v5)
  (NOT-movable card-d2-s0-v6)
  (NOT-movable card-d2-s0-v7)
  (NOT-movable card-d2-s0-v8)
  (NOT-movable card-d3-s0-v0)
  (NOT-movable card-d3-s0-v3)
  (NOT-movable card-d3-s0-v4)
  (NOT-movable card-d3-s0-v7)
  (NOT-movable card-d3-s0-v8)
  (NOT-currently-updating-unmovable)
  (NOT-currently-updating-movable)
  (NOT-currently-updating-part-of-tableau)
Init[1]:
  (= (total-cost) 0)
Goal: (and (RW:clear pile-0) (RW:clear pile-1) (RW:clear pile-2) (RW:clear pile-3) (RW:clear pile-4) (RW:clear pile-5) (RW:clear deal-0) (RW:clear deal-1) (RW:on card-d0-s0-v0 discard) (RW:on card-d0-s0-v1 discard) (RW:on card-d0-s0-v2 discard) (RW:on card-d0-s0-v3 discard) (RW:on card-d0-s0-v4 discard) (RW:on card-d0-s0-v5 discard) (RW:on card-d0-s0-v6 discard) (RW:on card-d0-s0-v7 discard) (RW:on card-d0-s0-v8 discard) (RW:on card-d1-s0-v0 discard) (RW:on card-d1-s0-v1 discard) (RW:on card-d1-s0-v2 discard) (RW:on card-d1-s0-v3 discard) (RW:on card-d1-s0-v4 discard) (RW:on card-d1-s0-v5 discard) (RW:on card-d1-s0-v6 discard) (RW:on card-d1-s0-v7 discard) (RW:on card-d1-s0-v8 discard) (RW:on card-d2-s0-v0 discard) (RW:on card-d2-s0-v1 discard) (RW:on card-d2-s0-v2 discard) (RW:on card-d2-s0-v3 discard) (RW:on card-d2-s0-v4 discard) (RW:on card-d2-s0-v5 discard) (RW:on card-d2-s0-v6 discard) (RW:on card-d2-s0-v7 discard) (RW:on card-d2-s0-v8 discard) (RW:on card-d3-s0-v0 discard) (RW:on card-d3-s0-v1 discard) (RW:on card-d3-s0-v2 discard) (RW:on card-d3-s0-v3 discard) (RW:on card-d3-s0-v4 discard) (RW:on card-d3-s0-v5 discard) (RW:on card-d3-s0-v6 discard) (RW:on card-d3-s0-v7 discard) (RW:on card-d3-s0-v8 discard))
Metric: 1
