Collapsing type 1:location with 33 objects
Reduced 33 -> 1
Domain: pegsolitaire-sequential
Problem: pegsolitaire-sequential-044
Require: 200ff
Type[2]:
    [0]: object, parent: -1
    [1]: location, parent: 0
Obj-by-Type:
    [0]: 0
    [1]: 0
Obj[1]:
    [0]: pos-0-2, type: 1, is-constant: 0, is-private: 0, owner: -1, is-agent: 0
Predicate[6]:
    =: 0 0 :: is-private: 0, owner-param: -1, read: 0, write: 0
    in-line: 1 1 1 :: is-private: 0, owner-param: -1, read: 1, write: 0
    occupied: 1 :: is-private: 0, owner-param: -1, read: 1, write: 1
    free: 1 :: is-private: 0, owner-param: -1, read: 1, write: 1
    move-ended: :: is-private: 0, owner-param: -1, read: 1, write: 1
    last-visited: 1 :: is-private: 0, owner-param: -1, read: 1, write: 1
Function[1]:
    total-cost: :: is-private: 0, owner-param: -1, read: 0, write: 0
Action[3]:
    jump-new-move: ?from:1 ?over:1 ?to:1
        pre: (and (RW:move-ended) (R:in-line ?from ?over ?to) (RW:occupied ?from) (RW:occupied ?over) (RW:free ?to))
        eff: (and (N:RW:move-ended) (RW:free ?from) (RW:free ?over) (RW:occupied ?to) (RW:last-visited ?to) (increase (total-cost) 1))
    jump-continue-move: ?from:1 ?over:1 ?to:1
        pre: (and (RW:last-visited ?from) (R:in-line ?from ?over ?to) (RW:occupied ?from) (RW:occupied ?over) (RW:free ?to))
        eff: (and (RW:free ?from) (RW:free ?over) (RW:occupied ?to) (RW:last-visited ?to))
    end-move: ?loc:1
        pre: (and (RW:last-visited ?loc))
        eff: (and (RW:move-ended))
Init[110]:
  (move-ended)
  S:(in-line pos-0-2 pos-0-2 pos-0-2)
  S:(in-line pos-0-2 pos-0-2 pos-0-2)
  S:(in-line pos-0-2 pos-0-2 pos-0-2)
  S:(in-line pos-0-2 pos-0-2 pos-0-2)
  S:(in-line pos-0-2 pos-0-2 pos-0-2)
  S:(in-line pos-0-2 pos-0-2 pos-0-2)
  S:(in-line pos-0-2 pos-0-2 pos-0-2)
  S:(in-line pos-0-2 pos-0-2 pos-0-2)
  S:(in-line pos-0-2 pos-0-2 pos-0-2)
  S:(in-line pos-0-2 pos-0-2 pos-0-2)
  S:(in-line pos-0-2 pos-0-2 pos-0-2)
  S:(in-line pos-0-2 pos-0-2 pos-0-2)
  S:(in-line pos-0-2 pos-0-2 pos-0-2)
  S:(in-line pos-0-2 pos-0-2 pos-0-2)
  S:(in-line pos-0-2 pos-0-2 pos-0-2)
  S:(in-line pos-0-2 pos-0-2 pos-0-2)
  S:(in-line pos-0-2 pos-0-2 pos-0-2)
  S:(in-line pos-0-2 pos-0-2 pos-0-2)
  S:(in-line pos-0-2 pos-0-2 pos-0-2)
  S:(in-line pos-0-2 pos-0-2 pos-0-2)
  S:(in-line pos-0-2 pos-0-2 pos-0-2)
  S:(in-line pos-0-2 pos-0-2 pos-0-2)
  S:(in-line pos-0-2 pos-0-2 pos-0-2)
  S:(in-line pos-0-2 pos-0-2 pos-0-2)
  S:(in-line pos-0-2 pos-0-2 pos-0-2)
  S:(in-line pos-0-2 pos-0-2 pos-0-2)
  S:(in-line pos-0-2 pos-0-2 pos-0-2)
  S:(in-line pos-0-2 pos-0-2 pos-0-2)
  S:(in-line pos-0-2 pos-0-2 pos-0-2)
  S:(in-line pos-0-2 pos-0-2 pos-0-2)
  S:(in-line pos-0-2 pos-0-2 pos-0-2)
  S:(in-line pos-0-2 pos-0-2 pos-0-2)
  S:(in-line pos-0-2 pos-0-2 pos-0-2)
  S:(in-line pos-0-2 pos-0-2 pos-0-2)
  S:(in-line pos-0-2 pos-0-2 pos-0-2)
  S:(in-line pos-0-2 pos-0-2 pos-0-2)
  S:(in-line pos-0-2 pos-0-2 pos-0-2)
  S:(in-line pos-0-2 pos-0-2 pos-0-2)
  S:(in-line pos-0-2 pos-0-2 pos-0-2)
  S:(in-line pos-0-2 pos-0-2 pos-0-2)
  S:(in-line pos-0-2 pos-0-2 pos-0-2)
  S:(in-line pos-0-2 pos-0-2 pos-0-2)
  S:(in-line pos-0-2 pos-0-2 pos-0-2)
  S:(in-line pos-0-2 pos-0-2 pos-0-2)
  S:(in-line pos-0-2 pos-0-2 pos-0-2)
  S:(in-line pos-0-2 pos-0-2 pos-0-2)
  S:(in-line pos-0-2 pos-0-2 pos-0-2)
  S:(in-line pos-0-2 pos-0-2 pos-0-2)
  S:(in-line pos-0-2 pos-0-2 pos-0-2)
  S:(in-line pos-0-2 pos-0-2 pos-0-2)
  S:(in-line pos-0-2 pos-0-2 pos-0-2)
  S:(in-line pos-0-2 pos-0-2 pos-0-2)
  S:(in-line pos-0-2 pos-0-2 pos-0-2)
  S:(in-line pos-0-2 pos-0-2 pos-0-2)
  S:(in-line pos-0-2 pos-0-2 pos-0-2)
  S:(in-line pos-0-2 pos-0-2 pos-0-2)
  S:(in-line pos-0-2 pos-0-2 pos-0-2)
  S:(in-line pos-0-2 pos-0-2 pos-0-2)
  S:(in-line pos-0-2 pos-0-2 pos-0-2)
  S:(in-line pos-0-2 pos-0-2 pos-0-2)
  S:(in-line pos-0-2 pos-0-2 pos-0-2)
  S:(in-line pos-0-2 pos-0-2 pos-0-2)
  S:(in-line pos-0-2 pos-0-2 pos-0-2)
  S:(in-line pos-0-2 pos-0-2 pos-0-2)
  S:(in-line pos-0-2 pos-0-2 pos-0-2)
  S:(in-line pos-0-2 pos-0-2 pos-0-2)
  S:(in-line pos-0-2 pos-0-2 pos-0-2)
  S:(in-line pos-0-2 pos-0-2 pos-0-2)
  S:(in-line pos-0-2 pos-0-2 pos-0-2)
  S:(in-line pos-0-2 pos-0-2 pos-0-2)
  S:(in-line pos-0-2 pos-0-2 pos-0-2)
  S:(in-line pos-0-2 pos-0-2 pos-0-2)
  S:(in-line pos-0-2 pos-0-2 pos-0-2)
  S:(in-line pos-0-2 pos-0-2 pos-0-2)
  S:(in-line pos-0-2 pos-0-2 pos-0-2)
  S:(in-line pos-0-2 pos-0-2 pos-0-2)
  (free pos-0-2)
  (free pos-0-2)
  (free pos-0-2)
  (free pos-0-2)
  (free pos-0-2)
  (free pos-0-2)
  (free pos-0-2)
  (free pos-0-2)
  (free pos-0-2)
  (free pos-0-2)
  (free pos-0-2)
  (free pos-0-2)
  (free pos-0-2)
  (free pos-0-2)
  (free pos-0-2)
  (free pos-0-2)
  (occupied pos-0-2)
  (occupied pos-0-2)
  (occupied pos-0-2)
  (occupied pos-0-2)
  (occupied pos-0-2)
  (occupied pos-0-2)
  (occupied pos-0-2)
  (occupied pos-0-2)
  (occupied pos-0-2)
  (occupied pos-0-2)
  (occupied pos-0-2)
  (occupied pos-0-2)
  (occupied pos-0-2)
  (occupied pos-0-2)
  (occupied pos-0-2)
  (occupied pos-0-2)
  (occupied pos-0-2)
Init[1]:
  (= (total-cost) 0)
Goal: (and (RW:free pos-0-2) (RW:free pos-0-2) (RW:free pos-0-2) (RW:free pos-0-2) (RW:free pos-0-2) (RW:free pos-0-2) (RW:free pos-0-2) (RW:free pos-0-2) (RW:free pos-0-2) (RW:free pos-0-2) (RW:free pos-0-2) (RW:free pos-0-2) (RW:free pos-0-2) (RW:free pos-0-2) (RW:free pos-0-2) (RW:free pos-0-2) (RW:free pos-0-2) (RW:free pos-0-2) (RW:free pos-0-2) (RW:free pos-0-2) (RW:free pos-0-2) (RW:free pos-0-2) (RW:free pos-0-2) (RW:free pos-0-2) (RW:free pos-0-2) (RW:free pos-0-2) (RW:free pos-0-2) (RW:free pos-0-2) (RW:free pos-0-2) (RW:free pos-0-2) (RW:free pos-0-2) (RW:free pos-0-2) (RW:occupied pos-0-2))
Metric: 1
