begin_version
3
end_version
begin_metric
1
end_metric
34
begin_variable
var0
-1
35
last-visited pos-0-2
last-visited pos-0-3
last-visited pos-0-4
last-visited pos-1-2
last-visited pos-1-3
last-visited pos-1-4
last-visited pos-2-0
last-visited pos-2-1
last-visited pos-2-2
last-visited pos-2-3
last-visited pos-2-4
last-visited pos-2-5
last-visited pos-2-6
last-visited pos-3-0
last-visited pos-3-1
last-visited pos-3-2
last-visited pos-3-3
last-visited pos-3-4
last-visited pos-3-5
last-visited pos-3-6
last-visited pos-4-0
last-visited pos-4-1
last-visited pos-4-2
last-visited pos-4-3
last-visited pos-4-4
last-visited pos-4-5
last-visited pos-4-6
last-visited pos-5-2
last-visited pos-5-3
last-visited pos-5-4
last-visited pos-6-2
last-visited pos-6-3
last-visited pos-6-4
move-ended
tnf-unknown
end_variable
begin_variable
var1
-1
2
free pos-0-2
occupied pos-0-2
end_variable
begin_variable
var2
-1
2
free pos-0-3
occupied pos-0-3
end_variable
begin_variable
var3
-1
2
free pos-0-4
occupied pos-0-4
end_variable
begin_variable
var4
-1
2
free pos-1-2
occupied pos-1-2
end_variable
begin_variable
var5
-1
2
free pos-1-3
occupied pos-1-3
end_variable
begin_variable
var6
-1
2
free pos-1-4
occupied pos-1-4
end_variable
begin_variable
var7
-1
2
free pos-2-0
occupied pos-2-0
end_variable
begin_variable
var8
-1
2
free pos-2-1
occupied pos-2-1
end_variable
begin_variable
var9
-1
2
free pos-2-2
occupied pos-2-2
end_variable
begin_variable
var10
-1
2
free pos-2-3
occupied pos-2-3
end_variable
begin_variable
var11
-1
2
free pos-2-4
occupied pos-2-4
end_variable
begin_variable
var12
-1
2
free pos-2-5
occupied pos-2-5
end_variable
begin_variable
var13
-1
2
free pos-2-6
occupied pos-2-6
end_variable
begin_variable
var14
-1
2
free pos-3-0
occupied pos-3-0
end_variable
begin_variable
var15
-1
2
free pos-3-1
occupied pos-3-1
end_variable
begin_variable
var16
-1
2
free pos-3-2
occupied pos-3-2
end_variable
begin_variable
var17
-1
2
free pos-3-3
occupied pos-3-3
end_variable
begin_variable
var18
-1
2
free pos-3-4
occupied pos-3-4
end_variable
begin_variable
var19
-1
2
free pos-3-5
occupied pos-3-5
end_variable
begin_variable
var20
-1
2
free pos-3-6
occupied pos-3-6
end_variable
begin_variable
var21
-1
2
free pos-4-0
occupied pos-4-0
end_variable
begin_variable
var22
-1
2
free pos-4-1
occupied pos-4-1
end_variable
begin_variable
var23
-1
2
free pos-4-2
occupied pos-4-2
end_variable
begin_variable
var24
-1
2
free pos-4-3
occupied pos-4-3
end_variable
begin_variable
var25
-1
2
free pos-4-4
occupied pos-4-4
end_variable
begin_variable
var26
-1
2
free pos-4-5
occupied pos-4-5
end_variable
begin_variable
var27
-1
2
free pos-4-6
occupied pos-4-6
end_variable
begin_variable
var28
-1
2
free pos-5-2
occupied pos-5-2
end_variable
begin_variable
var29
-1
2
free pos-5-3
occupied pos-5-3
end_variable
begin_variable
var30
-1
2
free pos-5-4
occupied pos-5-4
end_variable
begin_variable
var31
-1
2
free pos-6-2
occupied pos-6-2
end_variable
begin_variable
var32
-1
2
free pos-6-3
occupied pos-6-3
end_variable
begin_variable
var33
-1
2
free pos-6-4
occupied pos-6-4
end_variable
34
begin_mutex_group
2
1 0
1 1
end_mutex_group
begin_mutex_group
2
2 0
2 1
end_mutex_group
begin_mutex_group
2
3 0
3 1
end_mutex_group
begin_mutex_group
2
4 0
4 1
end_mutex_group
begin_mutex_group
2
5 0
5 1
end_mutex_group
begin_mutex_group
2
6 0
6 1
end_mutex_group
begin_mutex_group
2
7 0
7 1
end_mutex_group
begin_mutex_group
2
8 0
8 1
end_mutex_group
begin_mutex_group
2
9 0
9 1
end_mutex_group
begin_mutex_group
2
10 0
10 1
end_mutex_group
begin_mutex_group
2
11 0
11 1
end_mutex_group
begin_mutex_group
2
12 0
12 1
end_mutex_group
begin_mutex_group
2
13 0
13 1
end_mutex_group
begin_mutex_group
2
14 0
14 1
end_mutex_group
begin_mutex_group
2
15 0
15 1
end_mutex_group
begin_mutex_group
2
16 0
16 1
end_mutex_group
begin_mutex_group
2
17 0
17 1
end_mutex_group
begin_mutex_group
2
18 0
18 1
end_mutex_group
begin_mutex_group
2
19 0
19 1
end_mutex_group
begin_mutex_group
2
20 0
20 1
end_mutex_group
begin_mutex_group
2
21 0
21 1
end_mutex_group
begin_mutex_group
2
22 0
22 1
end_mutex_group
begin_mutex_group
2
23 0
23 1
end_mutex_group
begin_mutex_group
2
24 0
24 1
end_mutex_group
begin_mutex_group
2
25 0
25 1
end_mutex_group
begin_mutex_group
2
26 0
26 1
end_mutex_group
begin_mutex_group
2
27 0
27 1
end_mutex_group
begin_mutex_group
2
28 0
28 1
end_mutex_group
begin_mutex_group
2
29 0
29 1
end_mutex_group
begin_mutex_group
2
30 0
30 1
end_mutex_group
begin_mutex_group
2
31 0
31 1
end_mutex_group
begin_mutex_group
2
32 0
32 1
end_mutex_group
begin_mutex_group
2
33 0
33 1
end_mutex_group
begin_mutex_group
34
0 0
0 1
0 2
0 3
0 4
0 5
0 6
0 7
0 8
0 9
0 10
0 11
0 12
0 13
0 14
0 15
0 16
0 17
0 18
0 19
0 20
0 21
0 22
0 23
0 24
0 25
0 26
0 27
0 28
0 29
0 30
0 31
0 32
0 33
end_mutex_group
begin_state
33
1
1
1
1
1
1
1
1
1
1
1
1
1
1
1
1
0
1
1
1
1
1
1
1
1
1
1
1
1
1
1
1
1
end_state
begin_goal
34
0 34
1 0
2 0
3 0
4 0
5 0
6 0
7 0
8 0
9 0
10 0
11 0
12 0
13 0
14 0
15 0
16 0
17 1
18 0
19 0
20 0
21 0
22 0
23 0
24 0
25 0
26 0
27 0
28 0
29 0
30 0
31 0
32 0
33 0
end_goal
211
begin_operator
end-move pos-0-2
0
1
0 0 0 33
0
end_operator
begin_operator
end-move pos-0-3
0
1
0 0 1 33
0
end_operator
begin_operator
end-move pos-0-4
0
1
0 0 2 33
0
end_operator
begin_operator
end-move pos-1-2
0
1
0 0 3 33
0
end_operator
begin_operator
end-move pos-1-3
0
1
0 0 4 33
0
end_operator
begin_operator
end-move pos-1-4
0
1
0 0 5 33
0
end_operator
begin_operator
end-move pos-2-0
0
1
0 0 6 33
0
end_operator
begin_operator
end-move pos-2-1
0
1
0 0 7 33
0
end_operator
begin_operator
end-move pos-2-2
0
1
0 0 8 33
0
end_operator
begin_operator
end-move pos-2-3
0
1
0 0 9 33
0
end_operator
begin_operator
end-move pos-2-4
0
1
0 0 10 33
0
end_operator
begin_operator
end-move pos-2-5
0
1
0 0 11 33
0
end_operator
begin_operator
end-move pos-2-6
0
1
0 0 12 33
0
end_operator
begin_operator
end-move pos-3-0
0
1
0 0 13 33
0
end_operator
begin_operator
end-move pos-3-1
0
1
0 0 14 33
0
end_operator
begin_operator
end-move pos-3-2
0
1
0 0 15 33
0
end_operator
begin_operator
end-move pos-3-3
0
1
0 0 16 33
0
end_operator
begin_operator
end-move pos-3-4
0
1
0 0 17 33
0
end_operator
begin_operator
end-move pos-3-5
0
1
0 0 18 33
0
end_operator
begin_operator
end-move pos-3-6
0
1
0 0 19 33
0
end_operator
begin_operator
end-move pos-4-0
0
1
0 0 20 33
0
end_operator
begin_operator
end-move pos-4-1
0
1
0 0 21 33
0
end_operator
begin_operator
end-move pos-4-2
0
1
0 0 22 33
0
end_operator
begin_operator
end-move pos-4-3
0
1
0 0 23 33
0
end_operator
begin_operator
end-move pos-4-4
0
1
0 0 24 33
0
end_operator
begin_operator
end-move pos-4-5
0
1
0 0 25 33
0
end_operator
begin_operator
end-move pos-4-6
0
1
0 0 26 33
0
end_operator
begin_operator
end-move pos-5-2
0
1
0 0 27 33
0
end_operator
begin_operator
end-move pos-5-3
0
1
0 0 28 33
0
end_operator
begin_operator
end-move pos-5-4
0
1
0 0 29 33
0
end_operator
begin_operator
end-move pos-6-2
0
1
0 0 30 33
0
end_operator
begin_operator
end-move pos-6-3
0
1
0 0 31 33
0
end_operator
begin_operator
end-move pos-6-4
0
1
0 0 32 33
0
end_operator
begin_operator
jump-continue-move pos-0-2 pos-0-3 pos-0-4
0
4
0 0 0 2
0 1 1 0
0 2 1 0
0 3 0 1
0
end_operator
begin_operator
jump-continue-move pos-0-2 pos-1-2 pos-2-2
0
4
0 0 0 8
0 1 1 0
0 4 1 0
0 9 0 1
0
end_operator
begin_operator
jump-continue-move pos-0-4 pos-0-3 pos-0-2
0
4
0 0 2 0
0 1 0 1
0 2 1 0
0 3 1 0
0
end_operator
begin_operator
jump-continue-move pos-0-4 pos-1-4 pos-2-4
0
4
0 0 2 10
0 3 1 0
0 6 1 0
0 11 0 1
0
end_operator
begin_operator
jump-continue-move pos-1-2 pos-1-3 pos-1-4
0
4
0 0 3 5
0 4 1 0
0 5 1 0
0 6 0 1
0
end_operator
begin_operator
jump-continue-move pos-1-2 pos-2-2 pos-3-2
0
4
0 0 3 15
0 4 1 0
0 9 1 0
0 16 0 1
0
end_operator
begin_operator
jump-continue-move pos-1-4 pos-1-3 pos-1-2
0
4
0 0 5 3
0 4 0 1
0 5 1 0
0 6 1 0
0
end_operator
begin_operator
jump-continue-move pos-1-4 pos-2-4 pos-3-4
0
4
0 0 5 17
0 6 1 0
0 11 1 0
0 18 0 1
0
end_operator
begin_operator
jump-continue-move pos-2-0 pos-2-1 pos-2-2
0
4
0 0 6 8
0 7 1 0
0 8 1 0
0 9 0 1
0
end_operator
begin_operator
jump-continue-move pos-2-0 pos-3-0 pos-4-0
0
4
0 0 6 20
0 7 1 0
0 14 1 0
0 21 0 1
0
end_operator
begin_operator
jump-continue-move pos-2-1 pos-2-2 pos-2-3
0
4
0 0 7 9
0 8 1 0
0 9 1 0
0 10 0 1
0
end_operator
begin_operator
jump-continue-move pos-2-1 pos-3-1 pos-4-1
0
4
0 0 7 21
0 8 1 0
0 15 1 0
0 22 0 1
0
end_operator
begin_operator
jump-continue-move pos-2-2 pos-1-2 pos-0-2
0
4
0 0 8 0
0 1 0 1
0 4 1 0
0 9 1 0
0
end_operator
begin_operator
jump-continue-move pos-2-2 pos-2-1 pos-2-0
0
4
0 0 8 6
0 7 0 1
0 8 1 0
0 9 1 0
0
end_operator
begin_operator
jump-continue-move pos-2-2 pos-2-3 pos-2-4
0
4
0 0 8 10
0 9 1 0
0 10 1 0
0 11 0 1
0
end_operator
begin_operator
jump-continue-move pos-2-2 pos-3-2 pos-4-2
0
4
0 0 8 22
0 9 1 0
0 16 1 0
0 23 0 1
0
end_operator
begin_operator
jump-continue-move pos-2-3 pos-1-3 pos-0-3
0
4
0 0 9 1
0 2 0 1
0 5 1 0
0 10 1 0
0
end_operator
begin_operator
jump-continue-move pos-2-3 pos-2-2 pos-2-1
0
4
0 0 9 7
0 8 0 1
0 9 1 0
0 10 1 0
0
end_operator
begin_operator
jump-continue-move pos-2-3 pos-2-4 pos-2-5
0
4
0 0 9 11
0 10 1 0
0 11 1 0
0 12 0 1
0
end_operator
begin_operator
jump-continue-move pos-2-3 pos-3-3 pos-4-3
0
4
0 0 9 23
0 10 1 0
0 17 1 0
0 24 0 1
0
end_operator
begin_operator
jump-continue-move pos-2-4 pos-1-4 pos-0-4
0
4
0 0 10 2
0 3 0 1
0 6 1 0
0 11 1 0
0
end_operator
begin_operator
jump-continue-move pos-2-4 pos-2-3 pos-2-2
0
4
0 0 10 8
0 9 0 1
0 10 1 0
0 11 1 0
0
end_operator
begin_operator
jump-continue-move pos-2-4 pos-2-5 pos-2-6
0
4
0 0 10 12
0 11 1 0
0 12 1 0
0 13 0 1
0
end_operator
begin_operator
jump-continue-move pos-2-4 pos-3-4 pos-4-4
0
4
0 0 10 24
0 11 1 0
0 18 1 0
0 25 0 1
0
end_operator
begin_operator
jump-continue-move pos-2-5 pos-2-4 pos-2-3
0
4
0 0 11 9
0 10 0 1
0 11 1 0
0 12 1 0
0
end_operator
begin_operator
jump-continue-move pos-2-5 pos-3-5 pos-4-5
0
4
0 0 11 25
0 12 1 0
0 19 1 0
0 26 0 1
0
end_operator
begin_operator
jump-continue-move pos-2-6 pos-2-5 pos-2-4
0
4
0 0 12 10
0 11 0 1
0 12 1 0
0 13 1 0
0
end_operator
begin_operator
jump-continue-move pos-2-6 pos-3-6 pos-4-6
0
4
0 0 12 26
0 13 1 0
0 20 1 0
0 27 0 1
0
end_operator
begin_operator
jump-continue-move pos-3-2 pos-2-2 pos-1-2
0
4
0 0 15 3
0 4 0 1
0 9 1 0
0 16 1 0
0
end_operator
begin_operator
jump-continue-move pos-3-2 pos-3-1 pos-3-0
0
4
0 0 15 13
0 14 0 1
0 15 1 0
0 16 1 0
0
end_operator
begin_operator
jump-continue-move pos-3-2 pos-3-3 pos-3-4
0
4
0 0 15 17
0 16 1 0
0 17 1 0
0 18 0 1
0
end_operator
begin_operator
jump-continue-move pos-3-2 pos-4-2 pos-5-2
0
4
0 0 15 27
0 16 1 0
0 23 1 0
0 28 0 1
0
end_operator
begin_operator
jump-continue-move pos-3-3 pos-2-3 pos-1-3
0
4
0 0 16 4
0 5 0 1
0 10 1 0
0 17 1 0
0
end_operator
begin_operator
jump-continue-move pos-3-3 pos-3-2 pos-3-1
0
4
0 0 16 14
0 15 0 1
0 16 1 0
0 17 1 0
0
end_operator
begin_operator
jump-continue-move pos-3-3 pos-3-4 pos-3-5
0
4
0 0 16 18
0 17 1 0
0 18 1 0
0 19 0 1
0
end_operator
begin_operator
jump-continue-move pos-3-3 pos-4-3 pos-5-3
0
4
0 0 16 28
0 17 1 0
0 24 1 0
0 29 0 1
0
end_operator
begin_operator
jump-continue-move pos-3-4 pos-2-4 pos-1-4
0
4
0 0 17 5
0 6 0 1
0 11 1 0
0 18 1 0
0
end_operator
begin_operator
jump-continue-move pos-3-4 pos-3-3 pos-3-2
0
4
0 0 17 15
0 16 0 1
0 17 1 0
0 18 1 0
0
end_operator
begin_operator
jump-continue-move pos-3-4 pos-3-5 pos-3-6
0
4
0 0 17 19
0 18 1 0
0 19 1 0
0 20 0 1
0
end_operator
begin_operator
jump-continue-move pos-3-4 pos-4-4 pos-5-4
0
4
0 0 17 29
0 18 1 0
0 25 1 0
0 30 0 1
0
end_operator
begin_operator
jump-continue-move pos-4-0 pos-3-0 pos-2-0
0
4
0 0 20 6
0 7 0 1
0 14 1 0
0 21 1 0
0
end_operator
begin_operator
jump-continue-move pos-4-0 pos-4-1 pos-4-2
0
4
0 0 20 22
0 21 1 0
0 22 1 0
0 23 0 1
0
end_operator
begin_operator
jump-continue-move pos-4-1 pos-3-1 pos-2-1
0
4
0 0 21 7
0 8 0 1
0 15 1 0
0 22 1 0
0
end_operator
begin_operator
jump-continue-move pos-4-1 pos-4-2 pos-4-3
0
4
0 0 21 23
0 22 1 0
0 23 1 0
0 24 0 1
0
end_operator
begin_operator
jump-continue-move pos-4-2 pos-3-2 pos-2-2
0
4
0 0 22 8
0 9 0 1
0 16 1 0
0 23 1 0
0
end_operator
begin_operator
jump-continue-move pos-4-2 pos-4-1 pos-4-0
0
4
0 0 22 20
0 21 0 1
0 22 1 0
0 23 1 0
0
end_operator
begin_operator
jump-continue-move pos-4-2 pos-4-3 pos-4-4
0
4
0 0 22 24
0 23 1 0
0 24 1 0
0 25 0 1
0
end_operator
begin_operator
jump-continue-move pos-4-2 pos-5-2 pos-6-2
0
4
0 0 22 30
0 23 1 0
0 28 1 0
0 31 0 1
0
end_operator
begin_operator
jump-continue-move pos-4-3 pos-3-3 pos-2-3
0
4
0 0 23 9
0 10 0 1
0 17 1 0
0 24 1 0
0
end_operator
begin_operator
jump-continue-move pos-4-3 pos-4-2 pos-4-1
0
4
0 0 23 21
0 22 0 1
0 23 1 0
0 24 1 0
0
end_operator
begin_operator
jump-continue-move pos-4-3 pos-4-4 pos-4-5
0
4
0 0 23 25
0 24 1 0
0 25 1 0
0 26 0 1
0
end_operator
begin_operator
jump-continue-move pos-4-3 pos-5-3 pos-6-3
0
4
0 0 23 31
0 24 1 0
0 29 1 0
0 32 0 1
0
end_operator
begin_operator
jump-continue-move pos-4-4 pos-3-4 pos-2-4
0
4
0 0 24 10
0 11 0 1
0 18 1 0
0 25 1 0
0
end_operator
begin_operator
jump-continue-move pos-4-4 pos-4-3 pos-4-2
0
4
0 0 24 22
0 23 0 1
0 24 1 0
0 25 1 0
0
end_operator
begin_operator
jump-continue-move pos-4-4 pos-4-5 pos-4-6
0
4
0 0 24 26
0 25 1 0
0 26 1 0
0 27 0 1
0
end_operator
begin_operator
jump-continue-move pos-4-4 pos-5-4 pos-6-4
0
4
0 0 24 32
0 25 1 0
0 30 1 0
0 33 0 1
0
end_operator
begin_operator
jump-continue-move pos-4-5 pos-3-5 pos-2-5
0
4
0 0 25 11
0 12 0 1
0 19 1 0
0 26 1 0
0
end_operator
begin_operator
jump-continue-move pos-4-5 pos-4-4 pos-4-3
0
4
0 0 25 23
0 24 0 1
0 25 1 0
0 26 1 0
0
end_operator
begin_operator
jump-continue-move pos-4-6 pos-3-6 pos-2-6
0
4
0 0 26 12
0 13 0 1
0 20 1 0
0 27 1 0
0
end_operator
begin_operator
jump-continue-move pos-4-6 pos-4-5 pos-4-4
0
4
0 0 26 24
0 25 0 1
0 26 1 0
0 27 1 0
0
end_operator
begin_operator
jump-continue-move pos-5-2 pos-4-2 pos-3-2
0
4
0 0 27 15
0 16 0 1
0 23 1 0
0 28 1 0
0
end_operator
begin_operator
jump-continue-move pos-5-2 pos-5-3 pos-5-4
0
4
0 0 27 29
0 28 1 0
0 29 1 0
0 30 0 1
0
end_operator
begin_operator
jump-continue-move pos-5-4 pos-4-4 pos-3-4
0
4
0 0 29 17
0 18 0 1
0 25 1 0
0 30 1 0
0
end_operator
begin_operator
jump-continue-move pos-5-4 pos-5-3 pos-5-2
0
4
0 0 29 27
0 28 0 1
0 29 1 0
0 30 1 0
0
end_operator
begin_operator
jump-continue-move pos-6-2 pos-5-2 pos-4-2
0
4
0 0 30 22
0 23 0 1
0 28 1 0
0 31 1 0
0
end_operator
begin_operator
jump-continue-move pos-6-2 pos-6-3 pos-6-4
0
4
0 0 30 32
0 31 1 0
0 32 1 0
0 33 0 1
0
end_operator
begin_operator
jump-continue-move pos-6-4 pos-5-4 pos-4-4
0
4
0 0 32 24
0 25 0 1
0 30 1 0
0 33 1 0
0
end_operator
begin_operator
jump-continue-move pos-6-4 pos-6-3 pos-6-2
0
4
0 0 32 30
0 31 0 1
0 32 1 0
0 33 1 0
0
end_operator
begin_operator
jump-new-move pos-0-2 pos-0-3 pos-0-4
0
4
0 0 33 2
0 1 1 0
0 2 1 0
0 3 0 1
1
end_operator
begin_operator
jump-new-move pos-0-2 pos-1-2 pos-2-2
0
4
0 0 33 8
0 1 1 0
0 4 1 0
0 9 0 1
1
end_operator
begin_operator
jump-new-move pos-0-3 pos-1-3 pos-2-3
0
4
0 0 33 9
0 2 1 0
0 5 1 0
0 10 0 1
1
end_operator
begin_operator
jump-new-move pos-0-4 pos-0-3 pos-0-2
0
4
0 0 33 0
0 1 0 1
0 2 1 0
0 3 1 0
1
end_operator
begin_operator
jump-new-move pos-0-4 pos-1-4 pos-2-4
0
4
0 0 33 10
0 3 1 0
0 6 1 0
0 11 0 1
1
end_operator
begin_operator
jump-new-move pos-1-2 pos-1-3 pos-1-4
0
4
0 0 33 5
0 4 1 0
0 5 1 0
0 6 0 1
1
end_operator
begin_operator
jump-new-move pos-1-2 pos-2-2 pos-3-2
0
4
0 0 33 15
0 4 1 0
0 9 1 0
0 16 0 1
1
end_operator
begin_operator
jump-new-move pos-1-3 pos-2-3 pos-3-3
0
4
0 0 33 16
0 5 1 0
0 10 1 0
0 17 0 1
1
end_operator
begin_operator
jump-new-move pos-1-4 pos-1-3 pos-1-2
0
4
0 0 33 3
0 4 0 1
0 5 1 0
0 6 1 0
1
end_operator
begin_operator
jump-new-move pos-1-4 pos-2-4 pos-3-4
0
4
0 0 33 17
0 6 1 0
0 11 1 0
0 18 0 1
1
end_operator
begin_operator
jump-new-move pos-2-0 pos-2-1 pos-2-2
0
4
0 0 33 8
0 7 1 0
0 8 1 0
0 9 0 1
1
end_operator
begin_operator
jump-new-move pos-2-0 pos-3-0 pos-4-0
0
4
0 0 33 20
0 7 1 0
0 14 1 0
0 21 0 1
1
end_operator
begin_operator
jump-new-move pos-2-1 pos-2-2 pos-2-3
0
4
0 0 33 9
0 8 1 0
0 9 1 0
0 10 0 1
1
end_operator
begin_operator
jump-new-move pos-2-1 pos-3-1 pos-4-1
0
4
0 0 33 21
0 8 1 0
0 15 1 0
0 22 0 1
1
end_operator
begin_operator
jump-new-move pos-2-2 pos-1-2 pos-0-2
0
4
0 0 33 0
0 1 0 1
0 4 1 0
0 9 1 0
1
end_operator
begin_operator
jump-new-move pos-2-2 pos-2-1 pos-2-0
0
4
0 0 33 6
0 7 0 1
0 8 1 0
0 9 1 0
1
end_operator
begin_operator
jump-new-move pos-2-2 pos-2-3 pos-2-4
0
4
0 0 33 10
0 9 1 0
0 10 1 0
0 11 0 1
1
end_operator
begin_operator
jump-new-move pos-2-2 pos-3-2 pos-4-2
0
4
0 0 33 22
0 9 1 0
0 16 1 0
0 23 0 1
1
end_operator
begin_operator
jump-new-move pos-2-3 pos-1-3 pos-0-3
0
4
0 0 33 1
0 2 0 1
0 5 1 0
0 10 1 0
1
end_operator
begin_operator
jump-new-move pos-2-3 pos-2-2 pos-2-1
0
4
0 0 33 7
0 8 0 1
0 9 1 0
0 10 1 0
1
end_operator
begin_operator
jump-new-move pos-2-3 pos-2-4 pos-2-5
0
4
0 0 33 11
0 10 1 0
0 11 1 0
0 12 0 1
1
end_operator
begin_operator
jump-new-move pos-2-3 pos-3-3 pos-4-3
0
4
0 0 33 23
0 10 1 0
0 17 1 0
0 24 0 1
1
end_operator
begin_operator
jump-new-move pos-2-4 pos-1-4 pos-0-4
0
4
0 0 33 2
0 3 0 1
0 6 1 0
0 11 1 0
1
end_operator
begin_operator
jump-new-move pos-2-4 pos-2-3 pos-2-2
0
4
0 0 33 8
0 9 0 1
0 10 1 0
0 11 1 0
1
end_operator
begin_operator
jump-new-move pos-2-4 pos-2-5 pos-2-6
0
4
0 0 33 12
0 11 1 0
0 12 1 0
0 13 0 1
1
end_operator
begin_operator
jump-new-move pos-2-4 pos-3-4 pos-4-4
0
4
0 0 33 24
0 11 1 0
0 18 1 0
0 25 0 1
1
end_operator
begin_operator
jump-new-move pos-2-5 pos-2-4 pos-2-3
0
4
0 0 33 9
0 10 0 1
0 11 1 0
0 12 1 0
1
end_operator
begin_operator
jump-new-move pos-2-5 pos-3-5 pos-4-5
0
4
0 0 33 25
0 12 1 0
0 19 1 0
0 26 0 1
1
end_operator
begin_operator
jump-new-move pos-2-6 pos-2-5 pos-2-4
0
4
0 0 33 10
0 11 0 1
0 12 1 0
0 13 1 0
1
end_operator
begin_operator
jump-new-move pos-2-6 pos-3-6 pos-4-6
0
4
0 0 33 26
0 13 1 0
0 20 1 0
0 27 0 1
1
end_operator
begin_operator
jump-new-move pos-3-0 pos-3-1 pos-3-2
0
4
0 0 33 15
0 14 1 0
0 15 1 0
0 16 0 1
1
end_operator
begin_operator
jump-new-move pos-3-1 pos-3-2 pos-3-3
0
4
0 0 33 16
0 15 1 0
0 16 1 0
0 17 0 1
1
end_operator
begin_operator
jump-new-move pos-3-2 pos-2-2 pos-1-2
0
4
0 0 33 3
0 4 0 1
0 9 1 0
0 16 1 0
1
end_operator
begin_operator
jump-new-move pos-3-2 pos-3-1 pos-3-0
0
4
0 0 33 13
0 14 0 1
0 15 1 0
0 16 1 0
1
end_operator
begin_operator
jump-new-move pos-3-2 pos-3-3 pos-3-4
0
4
0 0 33 17
0 16 1 0
0 17 1 0
0 18 0 1
1
end_operator
begin_operator
jump-new-move pos-3-2 pos-4-2 pos-5-2
0
4
0 0 33 27
0 16 1 0
0 23 1 0
0 28 0 1
1
end_operator
begin_operator
jump-new-move pos-3-3 pos-2-3 pos-1-3
0
4
0 0 33 4
0 5 0 1
0 10 1 0
0 17 1 0
1
end_operator
begin_operator
jump-new-move pos-3-3 pos-3-2 pos-3-1
0
4
0 0 33 14
0 15 0 1
0 16 1 0
0 17 1 0
1
end_operator
begin_operator
jump-new-move pos-3-3 pos-3-4 pos-3-5
0
4
0 0 33 18
0 17 1 0
0 18 1 0
0 19 0 1
1
end_operator
begin_operator
jump-new-move pos-3-3 pos-4-3 pos-5-3
0
4
0 0 33 28
0 17 1 0
0 24 1 0
0 29 0 1
1
end_operator
begin_operator
jump-new-move pos-3-4 pos-2-4 pos-1-4
0
4
0 0 33 5
0 6 0 1
0 11 1 0
0 18 1 0
1
end_operator
begin_operator
jump-new-move pos-3-4 pos-3-3 pos-3-2
0
4
0 0 33 15
0 16 0 1
0 17 1 0
0 18 1 0
1
end_operator
begin_operator
jump-new-move pos-3-4 pos-3-5 pos-3-6
0
4
0 0 33 19
0 18 1 0
0 19 1 0
0 20 0 1
1
end_operator
begin_operator
jump-new-move pos-3-4 pos-4-4 pos-5-4
0
4
0 0 33 29
0 18 1 0
0 25 1 0
0 30 0 1
1
end_operator
begin_operator
jump-new-move pos-3-5 pos-3-4 pos-3-3
0
4
0 0 33 16
0 17 0 1
0 18 1 0
0 19 1 0
1
end_operator
begin_operator
jump-new-move pos-3-6 pos-3-5 pos-3-4
0
4
0 0 33 17
0 18 0 1
0 19 1 0
0 20 1 0
1
end_operator
begin_operator
jump-new-move pos-4-0 pos-3-0 pos-2-0
0
4
0 0 33 6
0 7 0 1
0 14 1 0
0 21 1 0
1
end_operator
begin_operator
jump-new-move pos-4-0 pos-4-1 pos-4-2
0
4
0 0 33 22
0 21 1 0
0 22 1 0
0 23 0 1
1
end_operator
begin_operator
jump-new-move pos-4-1 pos-3-1 pos-2-1
0
4
0 0 33 7
0 8 0 1
0 15 1 0
0 22 1 0
1
end_operator
begin_operator
jump-new-move pos-4-1 pos-4-2 pos-4-3
0
4
0 0 33 23
0 22 1 0
0 23 1 0
0 24 0 1
1
end_operator
begin_operator
jump-new-move pos-4-2 pos-3-2 pos-2-2
0
4
0 0 33 8
0 9 0 1
0 16 1 0
0 23 1 0
1
end_operator
begin_operator
jump-new-move pos-4-2 pos-4-1 pos-4-0
0
4
0 0 33 20
0 21 0 1
0 22 1 0
0 23 1 0
1
end_operator
begin_operator
jump-new-move pos-4-2 pos-4-3 pos-4-4
0
4
0 0 33 24
0 23 1 0
0 24 1 0
0 25 0 1
1
end_operator
begin_operator
jump-new-move pos-4-2 pos-5-2 pos-6-2
0
4
0 0 33 30
0 23 1 0
0 28 1 0
0 31 0 1
1
end_operator
begin_operator
jump-new-move pos-4-3 pos-3-3 pos-2-3
0
4
0 0 33 9
0 10 0 1
0 17 1 0
0 24 1 0
1
end_operator
begin_operator
jump-new-move pos-4-3 pos-4-2 pos-4-1
0
4
0 0 33 21
0 22 0 1
0 23 1 0
0 24 1 0
1
end_operator
begin_operator
jump-new-move pos-4-3 pos-4-4 pos-4-5
0
4
0 0 33 25
0 24 1 0
0 25 1 0
0 26 0 1
1
end_operator
begin_operator
jump-new-move pos-4-3 pos-5-3 pos-6-3
0
4
0 0 33 31
0 24 1 0
0 29 1 0
0 32 0 1
1
end_operator
begin_operator
jump-new-move pos-4-4 pos-3-4 pos-2-4
0
4
0 0 33 10
0 11 0 1
0 18 1 0
0 25 1 0
1
end_operator
begin_operator
jump-new-move pos-4-4 pos-4-3 pos-4-2
0
4
0 0 33 22
0 23 0 1
0 24 1 0
0 25 1 0
1
end_operator
begin_operator
jump-new-move pos-4-4 pos-4-5 pos-4-6
0
4
0 0 33 26
0 25 1 0
0 26 1 0
0 27 0 1
1
end_operator
begin_operator
jump-new-move pos-4-4 pos-5-4 pos-6-4
0
4
0 0 33 32
0 25 1 0
0 30 1 0
0 33 0 1
1
end_operator
begin_operator
jump-new-move pos-4-5 pos-3-5 pos-2-5
0
4
0 0 33 11
0 12 0 1
0 19 1 0
0 26 1 0
1
end_operator
begin_operator
jump-new-move pos-4-5 pos-4-4 pos-4-3
0
4
0 0 33 23
0 24 0 1
0 25 1 0
0 26 1 0
1
end_operator
begin_operator
jump-new-move pos-4-6 pos-3-6 pos-2-6
0
4
0 0 33 12
0 13 0 1
0 20 1 0
0 27 1 0
1
end_operator
begin_operator
jump-new-move pos-4-6 pos-4-5 pos-4-4
0
4
0 0 33 24
0 25 0 1
0 26 1 0
0 27 1 0
1
end_operator
begin_operator
jump-new-move pos-5-2 pos-4-2 pos-3-2
0
4
0 0 33 15
0 16 0 1
0 23 1 0
0 28 1 0
1
end_operator
begin_operator
jump-new-move pos-5-2 pos-5-3 pos-5-4
0
4
0 0 33 29
0 28 1 0
0 29 1 0
0 30 0 1
1
end_operator
begin_operator
jump-new-move pos-5-3 pos-4-3 pos-3-3
0
4
0 0 33 16
0 17 0 1
0 24 1 0
0 29 1 0
1
end_operator
begin_operator
jump-new-move pos-5-4 pos-4-4 pos-3-4
0
4
0 0 33 17
0 18 0 1
0 25 1 0
0 30 1 0
1
end_operator
begin_operator
jump-new-move pos-5-4 pos-5-3 pos-5-2
0
4
0 0 33 27
0 28 0 1
0 29 1 0
0 30 1 0
1
end_operator
begin_operator
jump-new-move pos-6-2 pos-5-2 pos-4-2
0
4
0 0 33 22
0 23 0 1
0 28 1 0
0 31 1 0
1
end_operator
begin_operator
jump-new-move pos-6-2 pos-6-3 pos-6-4
0
4
0 0 33 32
0 31 1 0
0 32 1 0
0 33 0 1
1
end_operator
begin_operator
jump-new-move pos-6-3 pos-5-3 pos-4-3
0
4
0 0 33 23
0 24 0 1
0 29 1 0
0 32 1 0
1
end_operator
begin_operator
jump-new-move pos-6-4 pos-5-4 pos-4-4
0
4
0 0 33 24
0 25 0 1
0 30 1 0
0 33 1 0
1
end_operator
begin_operator
jump-new-move pos-6-4 pos-6-3 pos-6-2
0
4
0 0 33 30
0 31 0 1
0 32 1 0
0 33 1 0
1
end_operator
begin_operator
tnf-forget-0-0
0
1
0 0 0 34
0
end_operator
begin_operator
tnf-forget-0-1
0
1
0 0 1 34
0
end_operator
begin_operator
tnf-forget-0-2
0
1
0 0 2 34
0
end_operator
begin_operator
tnf-forget-0-3
0
1
0 0 3 34
0
end_operator
begin_operator
tnf-forget-0-4
0
1
0 0 4 34
0
end_operator
begin_operator
tnf-forget-0-5
0
1
0 0 5 34
0
end_operator
begin_operator
tnf-forget-0-6
0
1
0 0 6 34
0
end_operator
begin_operator
tnf-forget-0-7
0
1
0 0 7 34
0
end_operator
begin_operator
tnf-forget-0-8
0
1
0 0 8 34
0
end_operator
begin_operator
tnf-forget-0-9
0
1
0 0 9 34
0
end_operator
begin_operator
tnf-forget-0-10
0
1
0 0 10 34
0
end_operator
begin_operator
tnf-forget-0-11
0
1
0 0 11 34
0
end_operator
begin_operator
tnf-forget-0-12
0
1
0 0 12 34
0
end_operator
begin_operator
tnf-forget-0-13
0
1
0 0 13 34
0
end_operator
begin_operator
tnf-forget-0-14
0
1
0 0 14 34
0
end_operator
begin_operator
tnf-forget-0-15
0
1
0 0 15 34
0
end_operator
begin_operator
tnf-forget-0-16
0
1
0 0 16 34
0
end_operator
begin_operator
tnf-forget-0-17
0
1
0 0 17 34
0
end_operator
begin_operator
tnf-forget-0-18
0
1
0 0 18 34
0
end_operator
begin_operator
tnf-forget-0-19
0
1
0 0 19 34
0
end_operator
begin_operator
tnf-forget-0-20
0
1
0 0 20 34
0
end_operator
begin_operator
tnf-forget-0-21
0
1
0 0 21 34
0
end_operator
begin_operator
tnf-forget-0-22
0
1
0 0 22 34
0
end_operator
begin_operator
tnf-forget-0-23
0
1
0 0 23 34
0
end_operator
begin_operator
tnf-forget-0-24
0
1
0 0 24 34
0
end_operator
begin_operator
tnf-forget-0-25
0
1
0 0 25 34
0
end_operator
begin_operator
tnf-forget-0-26
0
1
0 0 26 34
0
end_operator
begin_operator
tnf-forget-0-27
0
1
0 0 27 34
0
end_operator
begin_operator
tnf-forget-0-28
0
1
0 0 28 34
0
end_operator
begin_operator
tnf-forget-0-29
0
1
0 0 29 34
0
end_operator
begin_operator
tnf-forget-0-30
0
1
0 0 30 34
0
end_operator
begin_operator
tnf-forget-0-31
0
1
0 0 31 34
0
end_operator
begin_operator
tnf-forget-0-32
0
1
0 0 32 34
0
end_operator
begin_operator
tnf-forget-0-33
0
1
0 0 33 34
0
end_operator
0
