Domain: woodworking
Problem: wood-prob
Require: 200ff
Type[18]:
    [0]: object, parent: -1
    [1]: acolour, parent: 0
    [2]: awood, parent: 0
    [3]: woodobj, parent: 0
    [4]: machine, parent: 0
    [5]: surface, parent: 0
    [6]: treatmentstatus, parent: 0
    [7]: aboardsize, parent: 0
    [8]: apartsize, parent: 0
    [9]: highspeed-saw, parent: 4
    [10]: glazer, parent: 4
    [11]: grinder, parent: 4
    [12]: immersion-varnisher, parent: 4
    [13]: planer, parent: 4
    [14]: saw, parent: 4
    [15]: spray-varnisher, parent: 4
    [16]: board, parent: 3
    [17]: part, parent: 3
Obj-by-Type:
    [0]: 0 1 2 3 4 5 6 7 8 9 10 11 12 13 14 15 16 17 18 19 20 21 22 23 24 25 26 27 28 29 30 31 32 33 34 35 36 37 38 39 40 41 42 43 44 45 46 47 48 49 50 51 52 53 54 55 56
    [1]: 7 18 19 20 21 22 23
    [2]: 24 25 26
    [3]: 27 28 29 30 31 32 33 34 35 36 37 38 39 40 41 42 43
    [4]: 11 12 13 14 15 16 17
    [5]: 0 1 2
    [6]: 3 4 5 6
    [7]: 44 45 46 47 48 49 50 51 52 53 54 55 56
    [8]: 8 9 10
    [9]: 15
    [10]: 12
    [11]: 11
    [12]: 13
    [13]: 14
    [14]: 17
    [15]: 16
    [16]: 39 40 41 42 43
    [17]: 27 28 29 30 31 32 33 34 35 36 37 38
Obj[57]:
    [0]: verysmooth, type: 5, is-constant: 1, is-private: 0, owner: -1, is-agent: 0
    [1]: smooth, type: 5, is-constant: 1, is-private: 0, owner: -1, is-agent: 0
    [2]: rough, type: 5, is-constant: 1, is-private: 0, owner: -1, is-agent: 0
    [3]: varnished, type: 6, is-constant: 1, is-private: 0, owner: -1, is-agent: 0
    [4]: glazed, type: 6, is-constant: 1, is-private: 0, owner: -1, is-agent: 0
    [5]: untreated, type: 6, is-constant: 1, is-private: 0, owner: -1, is-agent: 0
    [6]: colourfragments, type: 6, is-constant: 1, is-private: 0, owner: -1, is-agent: 0
    [7]: natural, type: 1, is-constant: 1, is-private: 0, owner: -1, is-agent: 0
    [8]: small, type: 8, is-constant: 1, is-private: 0, owner: -1, is-agent: 0
    [9]: medium, type: 8, is-constant: 1, is-private: 0, owner: -1, is-agent: 0
    [10]: large, type: 8, is-constant: 1, is-private: 0, owner: -1, is-agent: 0
    [11]: grinder0, type: 11, is-constant: 0, is-private: 0, owner: -1, is-agent: 0
    [12]: glazer0, type: 10, is-constant: 0, is-private: 0, owner: -1, is-agent: 0
    [13]: immersion-varnisher0, type: 12, is-constant: 0, is-private: 0, owner: -1, is-agent: 0
    [14]: planer0, type: 13, is-constant: 0, is-private: 0, owner: -1, is-agent: 0
    [15]: highspeed-saw0, type: 9, is-constant: 0, is-private: 0, owner: -1, is-agent: 0
    [16]: spray-varnisher0, type: 15, is-constant: 0, is-private: 0, owner: -1, is-agent: 0
    [17]: saw0, type: 14, is-constant: 0, is-private: 0, owner: -1, is-agent: 0
    [18]: black, type: 1, is-constant: 0, is-private: 0, owner: -1, is-agent: 0
    [19]: mauve, type: 1, is-constant: 0, is-private: 0, owner: -1, is-agent: 0
    [20]: white, type: 1, is-constant: 0, is-private: 0, owner: -1, is-agent: 0
    [21]: green, type: 1, is-constant: 0, is-private: 0, owner: -1, is-agent: 0
    [22]: red, type: 1, is-constant: 0, is-private: 0, owner: -1, is-agent: 0
    [23]: blue, type: 1, is-constant: 0, is-private: 0, owner: -1, is-agent: 0
    [24]: teak, type: 2, is-constant: 0, is-private: 0, owner: -1, is-agent: 0
    [25]: mahogany, type: 2, is-constant: 0, is-private: 0, owner: -1, is-agent: 0
    [26]: walnut, type: 2, is-constant: 0, is-private: 0, owner: -1, is-agent: 0
    [27]: p0, type: 17, is-constant: 0, is-private: 0, owner: -1, is-agent: 0
    [28]: p1, type: 17, is-constant: 0, is-private: 0, owner: -1, is-agent: 0
    [29]: p2, type: 17, is-constant: 0, is-private: 0, owner: -1, is-agent: 0
    [30]: p3, type: 17, is-constant: 0, is-private: 0, owner: -1, is-agent: 0
    [31]: p4, type: 17, is-constant: 0, is-private: 0, owner: -1, is-agent: 0
    [32]: p5, type: 17, is-constant: 0, is-private: 0, owner: -1, is-agent: 0
    [33]: p6, type: 17, is-constant: 0, is-private: 0, owner: -1, is-agent: 0
    [34]: p7, type: 17, is-constant: 0, is-private: 0, owner: -1, is-agent: 0
    [35]: p8, type: 17, is-constant: 0, is-private: 0, owner: -1, is-agent: 0
    [36]: p9, type: 17, is-constant: 0, is-private: 0, owner: -1, is-agent: 0
    [37]: p10, type: 17, is-constant: 0, is-private: 0, owner: -1, is-agent: 0
    [38]: p11, type: 17, is-constant: 0, is-private: 0, owner: -1, is-agent: 0
    [39]: b0, type: 16, is-constant: 0, is-private: 0, owner: -1, is-agent: 0
    [40]: b1, type: 16, is-constant: 0, is-private: 0, owner: -1, is-agent: 0
    [41]: b2, type: 16, is-constant: 0, is-private: 0, owner: -1, is-agent: 0
    [42]: b3, type: 16, is-constant: 0, is-private: 0, owner: -1, is-agent: 0
    [43]: b4, type: 16, is-constant: 0, is-private: 0, owner: -1, is-agent: 0
    [44]: s0, type: 7, is-constant: 0, is-private: 0, owner: -1, is-agent: 0
    [45]: s1, type: 7, is-constant: 0, is-private: 0, owner: -1, is-agent: 0
    [46]: s2, type: 7, is-constant: 0, is-private: 0, owner: -1, is-agent: 0
    [47]: s3, type: 7, is-constant: 0, is-private: 0, owner: -1, is-agent: 0
    [48]: s4, type: 7, is-constant: 0, is-private: 0, owner: -1, is-agent: 0
    [49]: s5, type: 7, is-constant: 0, is-private: 0, owner: -1, is-agent: 0
    [50]: s6, type: 7, is-constant: 0, is-private: 0, owner: -1, is-agent: 0
    [51]: s7, type: 7, is-constant: 0, is-private: 0, owner: -1, is-agent: 0
    [52]: s8, type: 7, is-constant: 0, is-private: 0, owner: -1, is-agent: 0
    [53]: s9, type: 7, is-constant: 0, is-private: 0, owner: -1, is-agent: 0
    [54]: s10, type: 7, is-constant: 0, is-private: 0, owner: -1, is-agent: 0
    [55]: s11, type: 7, is-constant: 0, is-private: 0, owner: -1, is-agent: 0
    [56]: s12, type: 7, is-constant: 0, is-private: 0, owner: -1, is-agent: 0
Predicate[16]:
    =: 0 0 :: is-private: 0, owner-param: -1, read: 0, write: 0
    unused: 17 :: is-private: 0, owner-param: -1, read: 1, write: 1
    available: 3 :: is-private: 0, owner-param: -1, read: 1, write: 1
    surface-condition: 3 5 :: is-private: 0, owner-param: -1, read: 1, write: 1
    treatment: 17 6 :: is-private: 0, owner-param: -1, read: 1, write: 1
    colour: 17 1 :: is-private: 0, owner-param: -1, read: 1, write: 1
    wood: 3 2 :: is-private: 0, owner-param: -1, read: 1, write: 1
    boardsize: 16 7 :: is-private: 0, owner-param: -1, read: 1, write: 1
    goalsize: 17 8 :: is-private: 0, owner-param: -1, read: 1, write: 0
    boardsize-successor: 7 7 :: is-private: 0, owner-param: -1, read: 1, write: 0
    in-highspeed-saw: 16 9 :: is-private: 0, owner-param: -1, read: 1, write: 1
    empty: 9 :: is-private: 0, owner-param: -1, read: 1, write: 1
    has-colour: 4 1 :: is-private: 0, owner-param: -1, read: 1, write: 0
    contains-part: 16 17 :: is-private: 0, owner-param: -1, read: 0, write: 0
    grind-treatment-change: 6 6 :: is-private: 0, owner-param: -1, read: 1, write: 0
    is-smooth: 5 :: is-private: 0, owner-param: -1, read: 1, write: 0
Function[5]:
    total-cost: :: is-private: 0, owner-param: -1, read: 0, write: 0
    spray-varnish-cost: 17 :: is-private: 0, owner-param: -1, read: 0, write: 0
    glaze-cost: 17 :: is-private: 0, owner-param: -1, read: 0, write: 0
    grind-cost: 17 :: is-private: 0, owner-param: -1, read: 0, write: 0
    plane-cost: 17 :: is-private: 0, owner-param: -1, read: 0, write: 0
Action[13]:
    do-immersion-varnish: ?x:17 ?m:12 ?newcolour:1 ?surface:5
        pre: (and (RW:available ?x) (R:has-colour ?m ?newcolour) (RW:surface-condition ?x ?surface) (R:is-smooth ?surface) (RW:treatment ?x untreated))
        eff: (and (increase (total-cost) 10) (N:RW:treatment ?x untreated) (RW:treatment ?x varnished) (N:RW:colour ?x natural) (RW:colour ?x ?newcolour))
    do-spray-varnish: ?x:17 ?m:15 ?newcolour:1 ?surface:5
        pre: (and (RW:available ?x) (R:has-colour ?m ?newcolour) (RW:surface-condition ?x ?surface) (R:is-smooth ?surface) (RW:treatment ?x untreated))
        eff: (and (increase (total-cost) (spray-varnish-cost ?x)) (N:RW:treatment ?x untreated) (RW:treatment ?x varnished) (N:RW:colour ?x natural) (RW:colour ?x ?newcolour))
    do-glaze: ?x:17 ?m:10 ?newcolour:1
        pre: (and (RW:available ?x) (R:has-colour ?m ?newcolour) (RW:treatment ?x untreated))
        eff: (and (increase (total-cost) (glaze-cost ?x)) (N:RW:treatment ?x untreated) (RW:treatment ?x glazed) (N:RW:colour ?x natural) (RW:colour ?x ?newcolour))
    do-grind: ?x:17 ?m:11 ?oldsurface:5 ?oldcolour:1 ?oldtreatment:6 ?newtreatment:6
        pre: (and (RW:available ?x) (RW:surface-condition ?x ?oldsurface) (R:is-smooth ?oldsurface) (RW:colour ?x ?oldcolour) (RW:treatment ?x ?oldtreatment) (R:grind-treatment-change ?oldtreatment ?newtreatment))
        eff: (and (increase (total-cost) (grind-cost ?x)) (N:RW:surface-condition ?x ?oldsurface) (RW:surface-condition ?x verysmooth) (N:RW:treatment ?x ?oldtreatment) (RW:treatment ?x ?newtreatment) (N:RW:colour ?x ?oldcolour) (RW:colour ?x natural))
    do-plane: ?x:17 ?m:13 ?oldsurface:5 ?oldcolour:1 ?oldtreatment:6
        pre: (and (RW:available ?x) (RW:surface-condition ?x ?oldsurface) (RW:treatment ?x ?oldtreatment) (RW:colour ?x ?oldcolour))
        eff: (and (increase (total-cost) (plane-cost ?x)) (N:RW:surface-condition ?x ?oldsurface) (RW:surface-condition ?x smooth) (N:RW:treatment ?x ?oldtreatment) (RW:treatment ?x untreated) (N:RW:colour ?x ?oldcolour) (RW:colour ?x natural))
    load-highspeed-saw: ?b:16 ?m:9
        pre: (and (RW:empty ?m) (RW:available ?b))
        eff: (and (increase (total-cost) 30) (N:RW:available ?b) (N:RW:empty ?m) (RW:in-highspeed-saw ?b ?m))
    unload-highspeed-saw: ?b:16 ?m:9
        pre: (and (RW:in-highspeed-saw ?b ?m))
        eff: (and (increase (total-cost) 10) (RW:available ?b) (N:RW:in-highspeed-saw ?b ?m) (RW:empty ?m))
    cut-board-small: ?b:16 ?p:17 ?m:9 ?w:2 ?surface:5 ?size_before:7 ?size_after:7
        pre: (and (RW:unused ?p) (R:goalsize ?p small) (RW:in-highspeed-saw ?b ?m) (RW:wood ?b ?w) (RW:surface-condition ?b ?surface) (RW:boardsize ?b ?size_before) (R:boardsize-successor ?size_after ?size_before))
        eff: (and (increase (total-cost) 10) (N:RW:unused ?p) (RW:available ?p) (RW:wood ?p ?w) (RW:surface-condition ?p ?surface) (RW:colour ?p natural) (RW:treatment ?p untreated) (RW:boardsize ?b ?size_after))
    cut-board-medium: ?b:16 ?p:17 ?m:9 ?w:2 ?surface:5 ?size_before:7 ?s1:7 ?size_after:7
        pre: (and (RW:unused ?p) (R:goalsize ?p medium) (RW:in-highspeed-saw ?b ?m) (RW:wood ?b ?w) (RW:surface-condition ?b ?surface) (RW:boardsize ?b ?size_before) (R:boardsize-successor ?size_after ?s1) (R:boardsize-successor ?s1 ?size_before))
        eff: (and (increase (total-cost) 10) (N:RW:unused ?p) (RW:available ?p) (RW:wood ?p ?w) (RW:surface-condition ?p ?surface) (RW:colour ?p natural) (RW:treatment ?p untreated) (RW:boardsize ?b ?size_after))
    cut-board-large: ?b:16 ?p:17 ?m:9 ?w:2 ?surface:5 ?size_before:7 ?s1:7 ?s2:7 ?size_after:7
        pre: (and (RW:unused ?p) (R:goalsize ?p large) (RW:in-highspeed-saw ?b ?m) (RW:wood ?b ?w) (RW:surface-condition ?b ?surface) (RW:boardsize ?b ?size_before) (R:boardsize-successor ?size_after ?s1) (R:boardsize-successor ?s1 ?s2) (R:boardsize-successor ?s2 ?size_before))
        eff: (and (increase (total-cost) 10) (N:RW:unused ?p) (RW:available ?p) (RW:wood ?p ?w) (RW:surface-condition ?p ?surface) (RW:colour ?p natural) (RW:treatment ?p untreated) (RW:boardsize ?b ?size_after))
    do-saw-small: ?b:16 ?p:17 ?m:14 ?w:2 ?surface:5 ?size_before:7 ?size_after:7
        pre: (and (RW:unused ?p) (R:goalsize ?p small) (RW:available ?b) (RW:wood ?b ?w) (RW:surface-condition ?b ?surface) (RW:boardsize ?b ?size_before) (R:boardsize-successor ?size_after ?size_before))
        eff: (and (increase (total-cost) 30) (N:RW:unused ?p) (RW:available ?p) (RW:wood ?p ?w) (RW:surface-condition ?p ?surface) (RW:colour ?p natural) (RW:treatment ?p untreated) (RW:boardsize ?b ?size_after))
    do-saw-medium: ?b:16 ?p:17 ?m:14 ?w:2 ?surface:5 ?size_before:7 ?s1:7 ?size_after:7
        pre: (and (RW:unused ?p) (R:goalsize ?p medium) (RW:available ?b) (RW:wood ?b ?w) (RW:surface-condition ?b ?surface) (RW:boardsize ?b ?size_before) (R:boardsize-successor ?size_after ?s1) (R:boardsize-successor ?s1 ?size_before))
        eff: (and (increase (total-cost) 30) (N:RW:unused ?p) (RW:available ?p) (RW:wood ?p ?w) (RW:surface-condition ?p ?surface) (RW:colour ?p natural) (RW:treatment ?p untreated) (RW:boardsize ?b ?size_after))
    do-saw-large: ?b:16 ?p:17 ?m:14 ?w:2 ?surface:5 ?size_before:7 ?s1:7 ?s2:7 ?size_after:7
        pre: (and (RW:unused ?p) (R:goalsize ?p large) (RW:available ?b) (RW:wood ?b ?w) (RW:surface-condition ?b ?surface) (RW:boardsize ?b ?size_before) (R:boardsize-successor ?size_after ?s1) (R:boardsize-successor ?s1 ?s2) (R:boardsize-successor ?s2 ?size_before))
        eff: (and (increase (total-cost) 30) (N:RW:unused ?p) (RW:available ?p) (RW:wood ?p ?w) (RW:surface-condition ?p ?surface) (RW:colour ?p natural) (RW:treatment ?p untreated) (RW:boardsize ?b ?size_after))
Init[77]:
  S:(grind-treatment-change varnished colourfragments)
  S:(grind-treatment-change glazed untreated)
  S:(grind-treatment-change untreated untreated)
  S:(grind-treatment-change colourfragments untreated)
  S:(is-smooth smooth)
  S:(is-smooth verysmooth)
  S:(boardsize-successor s0 s1)
  S:(boardsize-successor s1 s2)
  S:(boardsize-successor s2 s3)
  S:(boardsize-successor s3 s4)
  S:(boardsize-successor s4 s5)
  S:(boardsize-successor s5 s6)
  S:(boardsize-successor s6 s7)
  S:(boardsize-successor s7 s8)
  S:(boardsize-successor s8 s9)
  S:(boardsize-successor s9 s10)
  S:(boardsize-successor s10 s11)
  S:(boardsize-successor s11 s12)
  S:(has-colour glazer0 green)
  S:(has-colour glazer0 white)
  S:(has-colour glazer0 black)
  S:(has-colour glazer0 red)
  S:(has-colour immersion-varnisher0 white)
  S:(has-colour immersion-varnisher0 green)
  S:(has-colour immersion-varnisher0 red)
  (empty highspeed-saw0)
  S:(has-colour spray-varnisher0 white)
  S:(has-colour spray-varnisher0 green)
  S:(has-colour spray-varnisher0 red)
  (unused p0)
  S:(goalsize p0 small)
  (unused p1)
  S:(goalsize p1 large)
  (unused p2)
  S:(goalsize p2 large)
  (available p3)
  (colour p3 blue)
  (wood p3 teak)
  (surface-condition p3 verysmooth)
  (treatment p3 varnished)
  S:(goalsize p3 small)
  (unused p4)
  S:(goalsize p4 medium)
  (unused p5)
  S:(goalsize p5 medium)
  (unused p6)
  S:(goalsize p6 large)
  (unused p7)
  S:(goalsize p7 large)
  (unused p8)
  S:(goalsize p8 large)
  (unused p9)
  S:(goalsize p9 medium)
  (unused p10)
  S:(goalsize p10 medium)
  (unused p11)
  S:(goalsize p11 large)
  (boardsize b0 s6)
  (wood b0 teak)
  (surface-condition b0 rough)
  (available b0)
  (boardsize b1 s12)
  (wood b1 mahogany)
  (surface-condition b1 rough)
  (available b1)
  (boardsize b2 s2)
  (wood b2 mahogany)
  (surface-condition b2 smooth)
  (available b2)
  (boardsize b3 s11)
  (wood b3 walnut)
  (surface-condition b3 rough)
  (available b3)
  (boardsize b4 s3)
  (wood b4 walnut)
  (surface-condition b4 smooth)
  (available b4)
Init[49]:
  (= (total-cost) 0)
  (= (spray-varnish-cost p0) 5)
  (= (glaze-cost p0) 10)
  (= (grind-cost p0) 15)
  (= (plane-cost p0) 10)
  (= (spray-varnish-cost p1) 15)
  (= (glaze-cost p1) 20)
  (= (grind-cost p1) 45)
  (= (plane-cost p1) 30)
  (= (spray-varnish-cost p2) 15)
  (= (glaze-cost p2) 20)
  (= (grind-cost p2) 45)
  (= (plane-cost p2) 30)
  (= (spray-varnish-cost p3) 5)
  (= (glaze-cost p3) 10)
  (= (grind-cost p3) 15)
  (= (plane-cost p3) 10)
  (= (spray-varnish-cost p4) 10)
  (= (glaze-cost p4) 15)
  (= (grind-cost p4) 30)
  (= (plane-cost p4) 20)
  (= (spray-varnish-cost p5) 10)
  (= (glaze-cost p5) 15)
  (= (grind-cost p5) 30)
  (= (plane-cost p5) 20)
  (= (spray-varnish-cost p6) 15)
  (= (glaze-cost p6) 20)
  (= (grind-cost p6) 45)
  (= (plane-cost p6) 30)
  (= (spray-varnish-cost p7) 15)
  (= (glaze-cost p7) 20)
  (= (grind-cost p7) 45)
  (= (plane-cost p7) 30)
  (= (spray-varnish-cost p8) 15)
  (= (glaze-cost p8) 20)
  (= (grind-cost p8) 45)
  (= (plane-cost p8) 30)
  (= (spray-varnish-cost p9) 10)
  (= (glaze-cost p9) 15)
  (= (grind-cost p9) 30)
  (= (plane-cost p9) 20)
  (= (spray-varnish-cost p10) 10)
  (= (glaze-cost p10) 15)
  (= (grind-cost p10) 30)
  (= (plane-cost p10) 20)
  (= (spray-varnish-cost p11) 15)
  (= (glaze-cost p11) 20)
  (= (grind-cost p11) 45)
  (= (plane-cost p11) 30)
Goal: (and (RW:available p0) (RW:wood p0 walnut) (RW:surface-condition p0 smooth) (RW:available p1) (RW:wood p1 mahogany) (RW:treatment p1 varnished) (RW:available p2) (RW:colour p2 white) (RW:wood p2 mahogany) (RW:available p3) (RW:colour p3 red) (RW:wood p3 teak) (RW:surface-condition p3 verysmooth) (RW:treatment p3 glazed) (RW:available p4) (RW:colour p4 black) (RW:wood p4 walnut) (RW:surface-condition p4 verysmooth) (RW:treatment p4 glazed) (RW:available p5) (RW:surface-condition p5 smooth) (RW:treatment p5 glazed) (RW:available p6) (RW:wood p6 mahogany) (RW:treatment p6 glazed) (RW:available p7) (RW:colour p7 green) (RW:wood p7 walnut) (RW:available p8) (RW:colour p8 red) (RW:treatment p8 varnished) (RW:available p9) (RW:colour p9 white) (RW:wood p9 mahogany) (RW:surface-condition p9 verysmooth) (RW:treatment p9 varnished) (RW:available p10) (RW:colour p10 black) (RW:wood p10 walnut) (RW:surface-condition p10 verysmooth) (RW:treatment p10 glazed) (RW:available p11) (RW:surface-condition p11 smooth) (RW:treatment p11 varnished))
Metric: 1
