Init: (at_right_l rightl0 f2-2f f3-2f f3-3f) (at_square square0 f0-1f) (at_square square1 f1-1f) (at_square square2 f1-2f) (at_square square3 f2-0f) (at_two straight0 f0-0f f1-0f) (clear f0-2f) (clear f0-3f) (clear f1-3f) (clear f2-1f) (clear f2-3f) (clear f3-0f) (clear f3-1f) (clear f4-0f) (clear f4-1f) (clear f4-2f) (clear f4-3f) (clear f5-0f) (clear f5-1f) (clear f5-2f)
Unreachable facts [10/211]:
  (at_right_l rightl0 f4-2f f5-2f f5-3f)
  (at_square square0 f5-3f)
  (at_square square1 f5-3f)
  (at_square square2 f5-3f)
  (at_square square3 f5-3f)
  (at_two straight0 f4-3f f5-3f)
  (at_two straight0 f5-2f f5-3f)
  (at_two straight0 f5-3f f4-3f)
  (at_two straight0 f5-3f f5-2f)
  (clear f5-3f)
Unreachable ops [30/524]:
  (move_l_down f3-2f f4-2f f4-3f f5-2f f5-3f rightl0)
  (move_l_left f4-2f f5-2f f5-3f f4-1f f5-1f rightl0)
  (move_l_right f4-1f f5-1f f5-2f f4-2f f5-3f f4-3f rightl0)
  (move_l_up f4-2f f5-2f f5-3f f3-2f f4-3f f3-3f rightl0)
  (move_square f4-3f f5-3f square0)
  (move_square f4-3f f5-3f square1)
  (move_square f4-3f f5-3f square2)
  (move_square f4-3f f5-3f square3)
  (move_square f5-2f f5-3f square0)
  (move_square f5-2f f5-3f square1)
  (move_square f5-2f f5-3f square2)
  (move_square f5-2f f5-3f square3)
  (move_square f5-3f f4-3f square0)
  (move_square f5-3f f4-3f square1)
  (move_square f5-3f f4-3f square2)
  (move_square f5-3f f4-3f square3)
  (move_square f5-3f f5-2f square0)
  (move_square f5-3f f5-2f square1)
  (move_square f5-3f f5-2f square2)
  (move_square f5-3f f5-2f square3)
  (move_two f3-3f f4-3f f5-3f straight0)
  (move_two f4-2f f4-3f f5-3f straight0)
  (move_two f4-2f f5-2f f5-3f straight0)
  (move_two f4-3f f5-3f f5-2f straight0)
  (move_two f5-1f f5-2f f5-3f straight0)
  (move_two f5-2f f5-3f f4-3f straight0)
  (move_two f5-3f f4-3f f3-3f straight0)
  (move_two f5-3f f4-3f f4-2f straight0)
  (move_two f5-3f f5-2f f4-2f straight0)
  (move_two f5-3f f5-2f f5-1f straight0)
