begin_version
3
end_version
begin_metric
1
end_metric
16
begin_variable
var0
-1
37
at-robot loc-x0-y0
at-robot loc-x0-y1
at-robot loc-x0-y2
at-robot loc-x0-y3
at-robot loc-x0-y4
at-robot loc-x0-y5
at-robot loc-x1-y0
at-robot loc-x1-y1
at-robot loc-x1-y2
at-robot loc-x1-y3
at-robot loc-x1-y4
at-robot loc-x1-y5
at-robot loc-x2-y0
at-robot loc-x2-y1
at-robot loc-x2-y2
at-robot loc-x2-y3
at-robot loc-x2-y4
at-robot loc-x2-y5
at-robot loc-x3-y0
at-robot loc-x3-y1
at-robot loc-x3-y2
at-robot loc-x3-y3
at-robot loc-x3-y4
at-robot loc-x3-y5
at-robot loc-x4-y0
at-robot loc-x4-y1
at-robot loc-x4-y2
at-robot loc-x4-y3
at-robot loc-x4-y4
at-robot loc-x4-y5
at-robot loc-x5-y0
at-robot loc-x5-y1
at-robot loc-x5-y2
at-robot loc-x5-y3
at-robot loc-x5-y4
at-robot loc-x5-y5
tnf-unknown
end_variable
begin_variable
var1
-1
3
visited loc-x0-y2
none-of-those
tnf-unkown
end_variable
begin_variable
var2
-1
3
visited loc-x0-y3
none-of-those
tnf-unkown
end_variable
begin_variable
var3
-1
3
visited loc-x0-y4
none-of-those
tnf-unkown
end_variable
begin_variable
var4
-1
3
visited loc-x0-y5
none-of-those
tnf-unkown
end_variable
begin_variable
var5
-1
3
visited loc-x1-y0
none-of-those
tnf-unkown
end_variable
begin_variable
var6
-1
3
visited loc-x1-y1
none-of-those
tnf-unkown
end_variable
begin_variable
var7
-1
3
visited loc-x1-y3
none-of-those
tnf-unkown
end_variable
begin_variable
var8
-1
3
visited loc-x1-y4
none-of-those
tnf-unkown
end_variable
begin_variable
var9
-1
3
visited loc-x2-y0
none-of-those
tnf-unkown
end_variable
begin_variable
var10
-1
3
visited loc-x2-y1
none-of-those
tnf-unkown
end_variable
begin_variable
var11
-1
3
visited loc-x3-y0
none-of-those
tnf-unkown
end_variable
begin_variable
var12
-1
3
visited loc-x3-y4
none-of-those
tnf-unkown
end_variable
begin_variable
var13
-1
3
visited loc-x5-y0
none-of-those
tnf-unkown
end_variable
begin_variable
var14
-1
3
visited loc-x5-y4
none-of-those
tnf-unkown
end_variable
begin_variable
var15
-1
3
visited loc-x5-y5
none-of-those
tnf-unkown
end_variable
1
begin_mutex_group
36
0 0
0 1
0 2
0 3
0 4
0 5
0 6
0 7
0 8
0 9
0 10
0 11
0 12
0 13
0 14
0 15
0 16
0 17
0 18
0 19
0 20
0 21
0 22
0 23
0 24
0 25
0 26
0 27
0 28
0 29
0 30
0 31
0 32
0 33
0 34
0 35
end_mutex_group
begin_state
21
1
1
1
1
1
1
1
1
1
1
1
1
1
1
1
end_state
begin_goal
16
0 36
1 0
2 0
3 0
4 0
5 0
6 0
7 0
8 0
9 0
10 0
11 0
12 0
13 0
14 0
15 0
end_goal
186
begin_operator
move loc-x0-y0 loc-x0-y1
0
1
0 0 0 1
1
end_operator
begin_operator
move loc-x0-y0 loc-x1-y0
0
2
0 0 0 6
0 5 2 0
1
end_operator
begin_operator
move loc-x0-y1 loc-x0-y0
0
1
0 0 1 0
1
end_operator
begin_operator
move loc-x0-y1 loc-x0-y2
0
2
0 0 1 2
0 1 2 0
1
end_operator
begin_operator
move loc-x0-y1 loc-x1-y1
0
2
0 0 1 7
0 6 2 0
1
end_operator
begin_operator
move loc-x0-y2 loc-x0-y1
0
1
0 0 2 1
1
end_operator
begin_operator
move loc-x0-y2 loc-x0-y3
0
2
0 0 2 3
0 2 2 0
1
end_operator
begin_operator
move loc-x0-y2 loc-x1-y2
0
1
0 0 2 8
1
end_operator
begin_operator
move loc-x0-y3 loc-x0-y2
0
2
0 0 3 2
0 1 2 0
1
end_operator
begin_operator
move loc-x0-y3 loc-x0-y4
0
2
0 0 3 4
0 3 2 0
1
end_operator
begin_operator
move loc-x0-y3 loc-x1-y3
0
2
0 0 3 9
0 7 2 0
1
end_operator
begin_operator
move loc-x0-y4 loc-x0-y3
0
2
0 0 4 3
0 2 2 0
1
end_operator
begin_operator
move loc-x0-y4 loc-x0-y5
0
2
0 0 4 5
0 4 2 0
1
end_operator
begin_operator
move loc-x0-y4 loc-x1-y4
0
2
0 0 4 10
0 8 2 0
1
end_operator
begin_operator
move loc-x0-y5 loc-x0-y4
0
2
0 0 5 4
0 3 2 0
1
end_operator
begin_operator
move loc-x0-y5 loc-x1-y5
0
1
0 0 5 11
1
end_operator
begin_operator
move loc-x1-y0 loc-x0-y0
0
1
0 0 6 0
1
end_operator
begin_operator
move loc-x1-y0 loc-x1-y1
0
2
0 0 6 7
0 6 2 0
1
end_operator
begin_operator
move loc-x1-y0 loc-x2-y0
0
2
0 0 6 12
0 9 2 0
1
end_operator
begin_operator
move loc-x1-y1 loc-x0-y1
0
1
0 0 7 1
1
end_operator
begin_operator
move loc-x1-y1 loc-x1-y0
0
2
0 0 7 6
0 5 2 0
1
end_operator
begin_operator
move loc-x1-y1 loc-x1-y2
0
1
0 0 7 8
1
end_operator
begin_operator
move loc-x1-y1 loc-x2-y1
0
2
0 0 7 13
0 10 2 0
1
end_operator
begin_operator
move loc-x1-y2 loc-x0-y2
0
2
0 0 8 2
0 1 2 0
1
end_operator
begin_operator
move loc-x1-y2 loc-x1-y1
0
2
0 0 8 7
0 6 2 0
1
end_operator
begin_operator
move loc-x1-y2 loc-x1-y3
0
2
0 0 8 9
0 7 2 0
1
end_operator
begin_operator
move loc-x1-y2 loc-x2-y2
0
1
0 0 8 14
1
end_operator
begin_operator
move loc-x1-y3 loc-x0-y3
0
2
0 0 9 3
0 2 2 0
1
end_operator
begin_operator
move loc-x1-y3 loc-x1-y2
0
1
0 0 9 8
1
end_operator
begin_operator
move loc-x1-y3 loc-x1-y4
0
2
0 0 9 10
0 8 2 0
1
end_operator
begin_operator
move loc-x1-y3 loc-x2-y3
0
1
0 0 9 15
1
end_operator
begin_operator
move loc-x1-y4 loc-x0-y4
0
2
0 0 10 4
0 3 2 0
1
end_operator
begin_operator
move loc-x1-y4 loc-x1-y3
0
2
0 0 10 9
0 7 2 0
1
end_operator
begin_operator
move loc-x1-y4 loc-x1-y5
0
1
0 0 10 11
1
end_operator
begin_operator
move loc-x1-y4 loc-x2-y4
0
1
0 0 10 16
1
end_operator
begin_operator
move loc-x1-y5 loc-x0-y5
0
2
0 0 11 5
0 4 2 0
1
end_operator
begin_operator
move loc-x1-y5 loc-x1-y4
0
2
0 0 11 10
0 8 2 0
1
end_operator
begin_operator
move loc-x1-y5 loc-x2-y5
0
1
0 0 11 17
1
end_operator
begin_operator
move loc-x2-y0 loc-x1-y0
0
2
0 0 12 6
0 5 2 0
1
end_operator
begin_operator
move loc-x2-y0 loc-x2-y1
0
2
0 0 12 13
0 10 2 0
1
end_operator
begin_operator
move loc-x2-y0 loc-x3-y0
0
2
0 0 12 18
0 11 2 0
1
end_operator
begin_operator
move loc-x2-y1 loc-x1-y1
0
2
0 0 13 7
0 6 2 0
1
end_operator
begin_operator
move loc-x2-y1 loc-x2-y0
0
2
0 0 13 12
0 9 2 0
1
end_operator
begin_operator
move loc-x2-y1 loc-x2-y2
0
1
0 0 13 14
1
end_operator
begin_operator
move loc-x2-y1 loc-x3-y1
0
1
0 0 13 19
1
end_operator
begin_operator
move loc-x2-y2 loc-x1-y2
0
1
0 0 14 8
1
end_operator
begin_operator
move loc-x2-y2 loc-x2-y1
0
2
0 0 14 13
0 10 2 0
1
end_operator
begin_operator
move loc-x2-y2 loc-x2-y3
0
1
0 0 14 15
1
end_operator
begin_operator
move loc-x2-y2 loc-x3-y2
0
1
0 0 14 20
1
end_operator
begin_operator
move loc-x2-y3 loc-x1-y3
0
2
0 0 15 9
0 7 2 0
1
end_operator
begin_operator
move loc-x2-y3 loc-x2-y2
0
1
0 0 15 14
1
end_operator
begin_operator
move loc-x2-y3 loc-x2-y4
0
1
0 0 15 16
1
end_operator
begin_operator
move loc-x2-y3 loc-x3-y3
0
1
0 0 15 21
1
end_operator
begin_operator
move loc-x2-y4 loc-x1-y4
0
2
0 0 16 10
0 8 2 0
1
end_operator
begin_operator
move loc-x2-y4 loc-x2-y3
0
1
0 0 16 15
1
end_operator
begin_operator
move loc-x2-y4 loc-x2-y5
0
1
0 0 16 17
1
end_operator
begin_operator
move loc-x2-y4 loc-x3-y4
0
2
0 0 16 22
0 12 2 0
1
end_operator
begin_operator
move loc-x2-y5 loc-x1-y5
0
1
0 0 17 11
1
end_operator
begin_operator
move loc-x2-y5 loc-x2-y4
0
1
0 0 17 16
1
end_operator
begin_operator
move loc-x2-y5 loc-x3-y5
0
1
0 0 17 23
1
end_operator
begin_operator
move loc-x3-y0 loc-x2-y0
0
2
0 0 18 12
0 9 2 0
1
end_operator
begin_operator
move loc-x3-y0 loc-x3-y1
0
1
0 0 18 19
1
end_operator
begin_operator
move loc-x3-y0 loc-x4-y0
0
1
0 0 18 24
1
end_operator
begin_operator
move loc-x3-y1 loc-x2-y1
0
2
0 0 19 13
0 10 2 0
1
end_operator
begin_operator
move loc-x3-y1 loc-x3-y0
0
2
0 0 19 18
0 11 2 0
1
end_operator
begin_operator
move loc-x3-y1 loc-x3-y2
0
1
0 0 19 20
1
end_operator
begin_operator
move loc-x3-y1 loc-x4-y1
0
1
0 0 19 25
1
end_operator
begin_operator
move loc-x3-y2 loc-x2-y2
0
1
0 0 20 14
1
end_operator
begin_operator
move loc-x3-y2 loc-x3-y1
0
1
0 0 20 19
1
end_operator
begin_operator
move loc-x3-y2 loc-x3-y3
0
1
0 0 20 21
1
end_operator
begin_operator
move loc-x3-y2 loc-x4-y2
0
1
0 0 20 26
1
end_operator
begin_operator
move loc-x3-y3 loc-x2-y3
0
1
0 0 21 15
1
end_operator
begin_operator
move loc-x3-y3 loc-x3-y2
0
1
0 0 21 20
1
end_operator
begin_operator
move loc-x3-y3 loc-x3-y4
0
2
0 0 21 22
0 12 2 0
1
end_operator
begin_operator
move loc-x3-y3 loc-x4-y3
0
1
0 0 21 27
1
end_operator
begin_operator
move loc-x3-y4 loc-x2-y4
0
1
0 0 22 16
1
end_operator
begin_operator
move loc-x3-y4 loc-x3-y3
0
1
0 0 22 21
1
end_operator
begin_operator
move loc-x3-y4 loc-x3-y5
0
1
0 0 22 23
1
end_operator
begin_operator
move loc-x3-y4 loc-x4-y4
0
1
0 0 22 28
1
end_operator
begin_operator
move loc-x3-y5 loc-x2-y5
0
1
0 0 23 17
1
end_operator
begin_operator
move loc-x3-y5 loc-x3-y4
0
2
0 0 23 22
0 12 2 0
1
end_operator
begin_operator
move loc-x3-y5 loc-x4-y5
0
1
0 0 23 29
1
end_operator
begin_operator
move loc-x4-y0 loc-x3-y0
0
2
0 0 24 18
0 11 2 0
1
end_operator
begin_operator
move loc-x4-y0 loc-x4-y1
0
1
0 0 24 25
1
end_operator
begin_operator
move loc-x4-y0 loc-x5-y0
0
2
0 0 24 30
0 13 2 0
1
end_operator
begin_operator
move loc-x4-y1 loc-x3-y1
0
1
0 0 25 19
1
end_operator
begin_operator
move loc-x4-y1 loc-x4-y0
0
1
0 0 25 24
1
end_operator
begin_operator
move loc-x4-y1 loc-x4-y2
0
1
0 0 25 26
1
end_operator
begin_operator
move loc-x4-y1 loc-x5-y1
0
1
0 0 25 31
1
end_operator
begin_operator
move loc-x4-y2 loc-x3-y2
0
1
0 0 26 20
1
end_operator
begin_operator
move loc-x4-y2 loc-x4-y1
0
1
0 0 26 25
1
end_operator
begin_operator
move loc-x4-y2 loc-x4-y3
0
1
0 0 26 27
1
end_operator
begin_operator
move loc-x4-y2 loc-x5-y2
0
1
0 0 26 32
1
end_operator
begin_operator
move loc-x4-y3 loc-x3-y3
0
1
0 0 27 21
1
end_operator
begin_operator
move loc-x4-y3 loc-x4-y2
0
1
0 0 27 26
1
end_operator
begin_operator
move loc-x4-y3 loc-x4-y4
0
1
0 0 27 28
1
end_operator
begin_operator
move loc-x4-y3 loc-x5-y3
0
1
0 0 27 33
1
end_operator
begin_operator
move loc-x4-y4 loc-x3-y4
0
2
0 0 28 22
0 12 2 0
1
end_operator
begin_operator
move loc-x4-y4 loc-x4-y3
0
1
0 0 28 27
1
end_operator
begin_operator
move loc-x4-y4 loc-x4-y5
0
1
0 0 28 29
1
end_operator
begin_operator
move loc-x4-y4 loc-x5-y4
0
2
0 0 28 34
0 14 2 0
1
end_operator
begin_operator
move loc-x4-y5 loc-x3-y5
0
1
0 0 29 23
1
end_operator
begin_operator
move loc-x4-y5 loc-x4-y4
0
1
0 0 29 28
1
end_operator
begin_operator
move loc-x4-y5 loc-x5-y5
0
2
0 0 29 35
0 15 2 0
1
end_operator
begin_operator
move loc-x5-y0 loc-x4-y0
0
1
0 0 30 24
1
end_operator
begin_operator
move loc-x5-y0 loc-x5-y1
0
1
0 0 30 31
1
end_operator
begin_operator
move loc-x5-y1 loc-x4-y1
0
1
0 0 31 25
1
end_operator
begin_operator
move loc-x5-y1 loc-x5-y0
0
2
0 0 31 30
0 13 2 0
1
end_operator
begin_operator
move loc-x5-y1 loc-x5-y2
0
1
0 0 31 32
1
end_operator
begin_operator
move loc-x5-y2 loc-x4-y2
0
1
0 0 32 26
1
end_operator
begin_operator
move loc-x5-y2 loc-x5-y1
0
1
0 0 32 31
1
end_operator
begin_operator
move loc-x5-y2 loc-x5-y3
0
1
0 0 32 33
1
end_operator
begin_operator
move loc-x5-y3 loc-x4-y3
0
1
0 0 33 27
1
end_operator
begin_operator
move loc-x5-y3 loc-x5-y2
0
1
0 0 33 32
1
end_operator
begin_operator
move loc-x5-y3 loc-x5-y4
0
2
0 0 33 34
0 14 2 0
1
end_operator
begin_operator
move loc-x5-y4 loc-x4-y4
0
1
0 0 34 28
1
end_operator
begin_operator
move loc-x5-y4 loc-x5-y3
0
1
0 0 34 33
1
end_operator
begin_operator
move loc-x5-y4 loc-x5-y5
0
2
0 0 34 35
0 15 2 0
1
end_operator
begin_operator
move loc-x5-y5 loc-x4-y5
0
1
0 0 35 29
1
end_operator
begin_operator
move loc-x5-y5 loc-x5-y4
0
2
0 0 35 34
0 14 2 0
1
end_operator
begin_operator
tnf-forget-0-0
0
1
0 0 0 36
0
end_operator
begin_operator
tnf-forget-0-1
0
1
0 0 1 36
0
end_operator
begin_operator
tnf-forget-0-2
0
1
0 0 2 36
0
end_operator
begin_operator
tnf-forget-0-3
0
1
0 0 3 36
0
end_operator
begin_operator
tnf-forget-0-4
0
1
0 0 4 36
0
end_operator
begin_operator
tnf-forget-0-5
0
1
0 0 5 36
0
end_operator
begin_operator
tnf-forget-0-6
0
1
0 0 6 36
0
end_operator
begin_operator
tnf-forget-0-7
0
1
0 0 7 36
0
end_operator
begin_operator
tnf-forget-0-8
0
1
0 0 8 36
0
end_operator
begin_operator
tnf-forget-0-9
0
1
0 0 9 36
0
end_operator
begin_operator
tnf-forget-0-10
0
1
0 0 10 36
0
end_operator
begin_operator
tnf-forget-0-11
0
1
0 0 11 36
0
end_operator
begin_operator
tnf-forget-0-12
0
1
0 0 12 36
0
end_operator
begin_operator
tnf-forget-0-13
0
1
0 0 13 36
0
end_operator
begin_operator
tnf-forget-0-14
0
1
0 0 14 36
0
end_operator
begin_operator
tnf-forget-0-15
0
1
0 0 15 36
0
end_operator
begin_operator
tnf-forget-0-16
0
1
0 0 16 36
0
end_operator
begin_operator
tnf-forget-0-17
0
1
0 0 17 36
0
end_operator
begin_operator
tnf-forget-0-18
0
1
0 0 18 36
0
end_operator
begin_operator
tnf-forget-0-19
0
1
0 0 19 36
0
end_operator
begin_operator
tnf-forget-0-20
0
1
0 0 20 36
0
end_operator
begin_operator
tnf-forget-0-21
0
1
0 0 21 36
0
end_operator
begin_operator
tnf-forget-0-22
0
1
0 0 22 36
0
end_operator
begin_operator
tnf-forget-0-23
0
1
0 0 23 36
0
end_operator
begin_operator
tnf-forget-0-24
0
1
0 0 24 36
0
end_operator
begin_operator
tnf-forget-0-25
0
1
0 0 25 36
0
end_operator
begin_operator
tnf-forget-0-26
0
1
0 0 26 36
0
end_operator
begin_operator
tnf-forget-0-27
0
1
0 0 27 36
0
end_operator
begin_operator
tnf-forget-0-28
0
1
0 0 28 36
0
end_operator
begin_operator
tnf-forget-0-29
0
1
0 0 29 36
0
end_operator
begin_operator
tnf-forget-0-30
0
1
0 0 30 36
0
end_operator
begin_operator
tnf-forget-0-31
0
1
0 0 31 36
0
end_operator
begin_operator
tnf-forget-0-32
0
1
0 0 32 36
0
end_operator
begin_operator
tnf-forget-0-33
0
1
0 0 33 36
0
end_operator
begin_operator
tnf-forget-0-34
0
1
0 0 34 36
0
end_operator
begin_operator
tnf-forget-0-35
0
1
0 0 35 36
0
end_operator
begin_operator
tnf-forget-1-0
0
1
0 1 0 2
0
end_operator
begin_operator
tnf-forget-1-1
0
1
0 1 1 2
0
end_operator
begin_operator
tnf-forget-2-0
0
1
0 2 0 2
0
end_operator
begin_operator
tnf-forget-2-1
0
1
0 2 1 2
0
end_operator
begin_operator
tnf-forget-3-0
0
1
0 3 0 2
0
end_operator
begin_operator
tnf-forget-3-1
0
1
0 3 1 2
0
end_operator
begin_operator
tnf-forget-4-0
0
1
0 4 0 2
0
end_operator
begin_operator
tnf-forget-4-1
0
1
0 4 1 2
0
end_operator
begin_operator
tnf-forget-5-0
0
1
0 5 0 2
0
end_operator
begin_operator
tnf-forget-5-1
0
1
0 5 1 2
0
end_operator
begin_operator
tnf-forget-6-0
0
1
0 6 0 2
0
end_operator
begin_operator
tnf-forget-6-1
0
1
0 6 1 2
0
end_operator
begin_operator
tnf-forget-7-0
0
1
0 7 0 2
0
end_operator
begin_operator
tnf-forget-7-1
0
1
0 7 1 2
0
end_operator
begin_operator
tnf-forget-8-0
0
1
0 8 0 2
0
end_operator
begin_operator
tnf-forget-8-1
0
1
0 8 1 2
0
end_operator
begin_operator
tnf-forget-9-0
0
1
0 9 0 2
0
end_operator
begin_operator
tnf-forget-9-1
0
1
0 9 1 2
0
end_operator
begin_operator
tnf-forget-10-0
0
1
0 10 0 2
0
end_operator
begin_operator
tnf-forget-10-1
0
1
0 10 1 2
0
end_operator
begin_operator
tnf-forget-11-0
0
1
0 11 0 2
0
end_operator
begin_operator
tnf-forget-11-1
0
1
0 11 1 2
0
end_operator
begin_operator
tnf-forget-12-0
0
1
0 12 0 2
0
end_operator
begin_operator
tnf-forget-12-1
0
1
0 12 1 2
0
end_operator
begin_operator
tnf-forget-13-0
0
1
0 13 0 2
0
end_operator
begin_operator
tnf-forget-13-1
0
1
0 13 1 2
0
end_operator
begin_operator
tnf-forget-14-0
0
1
0 14 0 2
0
end_operator
begin_operator
tnf-forget-14-1
0
1
0 14 1 2
0
end_operator
begin_operator
tnf-forget-15-0
0
1
0 15 0 2
0
end_operator
begin_operator
tnf-forget-15-1
0
1
0 15 1 2
0
end_operator
0
