Init: (NOT-made p1) (NOT-made p10) (NOT-made p11) (NOT-made p12) (NOT-made p13) (NOT-made p14) (NOT-made p15) (NOT-made p16) (NOT-made p17) (NOT-made p18) (NOT-made p19) (NOT-made p2) (NOT-made p20) (NOT-made p21) (NOT-made p22) (NOT-made p23) (NOT-made p24) (NOT-made p25) (NOT-made p26) (NOT-made p27) (NOT-made p28) (NOT-made p29) (NOT-made p3) (NOT-made p30) (NOT-made p31) (NOT-made p32) (NOT-made p33) (NOT-made p34) (NOT-made p35) (NOT-made p36) (NOT-made p37) (NOT-made p38) (NOT-made p39) (NOT-made p4) (NOT-made p40) (NOT-made p41) (NOT-made p42) (NOT-made p43) (NOT-made p44) (NOT-made p45) (NOT-made p46) (NOT-made p47) (NOT-made p48) (NOT-made p49) (NOT-made p5) (NOT-made p50) (NOT-made p6) (NOT-made p7) (NOT-made p8) (NOT-made p9) (stacks-avail n0) (waiting o1) (waiting o10) (waiting o11) (waiting o12) (waiting o13) (waiting o14) (waiting o15) (waiting o16) (waiting o17) (waiting o18) (waiting o19) (waiting o2) (waiting o20) (waiting o21) (waiting o22) (waiting o23) (waiting o24) (waiting o25) (waiting o26) (waiting o27) (waiting o28) (waiting o29) (waiting o3) (waiting o30) (waiting o31) (waiting o32) (waiting o33) (waiting o34) (waiting o35) (waiting o36) (waiting o37) (waiting o38) (waiting o39) (waiting o4) (waiting o40) (waiting o41) (waiting o42) (waiting o43) (waiting o44) (waiting o45) (waiting o46) (waiting o47) (waiting o48) (waiting o49) (waiting o5) (waiting o50) (waiting o6) (waiting o7) (waiting o8)
Unreachable facts [33/301]:
  (made p18)
  (made p22)
  (made p42)
  (made p44)
  (made p50)
  (made p9)
  (shipped o1)
  (shipped o10)
  (shipped o14)
  (shipped o15)
  (shipped o16)
  (shipped o17)
  (shipped o2)
  (shipped o20)
  (shipped o24)
  (shipped o25)
  (shipped o26)
  (shipped o28)
  (shipped o29)
  (shipped o3)
  (shipped o34)
  (shipped o35)
  (shipped o36)
  (shipped o37)
  (shipped o4)
  (shipped o40)
  (shipped o46)
  (shipped o47)
  (shipped o48)
  (shipped o50)
  (shipped o9)
  (started o9)
  (waiting o9)
Unreachable ops [1306/5100]:
  (make-product-p18)
  (make-product-p22)
  (make-product-p42)
  (make-product-p44)
  (make-product-p50)
  (make-product-p9)
  (ship-order-o1 n0 n1)
  (ship-order-o1 n1 n2)
  (ship-order-o1 n10 n11)
  (ship-order-o1 n11 n12)
  (ship-order-o1 n12 n13)
  (ship-order-o1 n13 n14)
  (ship-order-o1 n14 n15)
  (ship-order-o1 n15 n16)
  (ship-order-o1 n16 n17)
  (ship-order-o1 n17 n18)
  (ship-order-o1 n18 n19)
  (ship-order-o1 n19 n20)
  (ship-order-o1 n2 n3)
  (ship-order-o1 n20 n21)
  (ship-order-o1 n21 n22)
  (ship-order-o1 n22 n23)
  (ship-order-o1 n23 n24)
  (ship-order-o1 n24 n25)
  (ship-order-o1 n25 n26)
  (ship-order-o1 n26 n27)
  (ship-order-o1 n27 n28)
  (ship-order-o1 n28 n29)
  (ship-order-o1 n29 n30)
  (ship-order-o1 n3 n4)
  (ship-order-o1 n30 n31)
  (ship-order-o1 n31 n32)
  (ship-order-o1 n32 n33)
  (ship-order-o1 n33 n34)
  (ship-order-o1 n34 n35)
  (ship-order-o1 n35 n36)
  (ship-order-o1 n36 n37)
  (ship-order-o1 n37 n38)
  (ship-order-o1 n38 n39)
  (ship-order-o1 n39 n40)
  (ship-order-o1 n4 n5)
  (ship-order-o1 n40 n41)
  (ship-order-o1 n41 n42)
  (ship-order-o1 n42 n43)
  (ship-order-o1 n43 n44)
  (ship-order-o1 n44 n45)
  (ship-order-o1 n45 n46)
  (ship-order-o1 n46 n47)
  (ship-order-o1 n47 n48)
  (ship-order-o1 n48 n49)
  (ship-order-o1 n49 n50)
  (ship-order-o1 n5 n6)
  (ship-order-o1 n6 n7)
  (ship-order-o1 n7 n8)
  (ship-order-o1 n8 n9)
  (ship-order-o1 n9 n10)
  (ship-order-o10 n0 n1)
  (ship-order-o10 n1 n2)
  (ship-order-o10 n10 n11)
  (ship-order-o10 n11 n12)
  (ship-order-o10 n12 n13)
  (ship-order-o10 n13 n14)
  (ship-order-o10 n14 n15)
  (ship-order-o10 n15 n16)
  (ship-order-o10 n16 n17)
  (ship-order-o10 n17 n18)
  (ship-order-o10 n18 n19)
  (ship-order-o10 n19 n20)
  (ship-order-o10 n2 n3)
  (ship-order-o10 n20 n21)
  (ship-order-o10 n21 n22)
  (ship-order-o10 n22 n23)
  (ship-order-o10 n23 n24)
  (ship-order-o10 n24 n25)
  (ship-order-o10 n25 n26)
  (ship-order-o10 n26 n27)
  (ship-order-o10 n27 n28)
  (ship-order-o10 n28 n29)
  (ship-order-o10 n29 n30)
  (ship-order-o10 n3 n4)
  (ship-order-o10 n30 n31)
  (ship-order-o10 n31 n32)
  (ship-order-o10 n32 n33)
  (ship-order-o10 n33 n34)
  (ship-order-o10 n34 n35)
  (ship-order-o10 n35 n36)
  (ship-order-o10 n36 n37)
  (ship-order-o10 n37 n38)
  (ship-order-o10 n38 n39)
  (ship-order-o10 n39 n40)
  (ship-order-o10 n4 n5)
  (ship-order-o10 n40 n41)
  (ship-order-o10 n41 n42)
  (ship-order-o10 n42 n43)
  (ship-order-o10 n43 n44)
  (ship-order-o10 n44 n45)
  (ship-order-o10 n45 n46)
  (ship-order-o10 n46 n47)
  (ship-order-o10 n47 n48)
  (ship-order-o10 n48 n49)
  (ship-order-o10 n49 n50)
  (ship-order-o10 n5 n6)
  (ship-order-o10 n6 n7)
  (ship-order-o10 n7 n8)
  (ship-order-o10 n8 n9)
  (ship-order-o10 n9 n10)
  (ship-order-o14 n0 n1)
  (ship-order-o14 n1 n2)
  (ship-order-o14 n10 n11)
  (ship-order-o14 n11 n12)
  (ship-order-o14 n12 n13)
  (ship-order-o14 n13 n14)
  (ship-order-o14 n14 n15)
  (ship-order-o14 n15 n16)
  (ship-order-o14 n16 n17)
  (ship-order-o14 n17 n18)
  (ship-order-o14 n18 n19)
  (ship-order-o14 n19 n20)
  (ship-order-o14 n2 n3)
  (ship-order-o14 n20 n21)
  (ship-order-o14 n21 n22)
  (ship-order-o14 n22 n23)
  (ship-order-o14 n23 n24)
  (ship-order-o14 n24 n25)
  (ship-order-o14 n25 n26)
  (ship-order-o14 n26 n27)
  (ship-order-o14 n27 n28)
  (ship-order-o14 n28 n29)
  (ship-order-o14 n29 n30)
  (ship-order-o14 n3 n4)
  (ship-order-o14 n30 n31)
  (ship-order-o14 n31 n32)
  (ship-order-o14 n32 n33)
  (ship-order-o14 n33 n34)
  (ship-order-o14 n34 n35)
  (ship-order-o14 n35 n36)
  (ship-order-o14 n36 n37)
  (ship-order-o14 n37 n38)
  (ship-order-o14 n38 n39)
  (ship-order-o14 n39 n40)
  (ship-order-o14 n4 n5)
  (ship-order-o14 n40 n41)
  (ship-order-o14 n41 n42)
  (ship-order-o14 n42 n43)
  (ship-order-o14 n43 n44)
  (ship-order-o14 n44 n45)
  (ship-order-o14 n45 n46)
  (ship-order-o14 n46 n47)
  (ship-order-o14 n47 n48)
  (ship-order-o14 n48 n49)
  (ship-order-o14 n49 n50)
  (ship-order-o14 n5 n6)
  (ship-order-o14 n6 n7)
  (ship-order-o14 n7 n8)
  (ship-order-o14 n8 n9)
  (ship-order-o14 n9 n10)
  (ship-order-o15 n0 n1)
  (ship-order-o15 n1 n2)
  (ship-order-o15 n10 n11)
  (ship-order-o15 n11 n12)
  (ship-order-o15 n12 n13)
  (ship-order-o15 n13 n14)
  (ship-order-o15 n14 n15)
  (ship-order-o15 n15 n16)
  (ship-order-o15 n16 n17)
  (ship-order-o15 n17 n18)
  (ship-order-o15 n18 n19)
  (ship-order-o15 n19 n20)
  (ship-order-o15 n2 n3)
  (ship-order-o15 n20 n21)
  (ship-order-o15 n21 n22)
  (ship-order-o15 n22 n23)
  (ship-order-o15 n23 n24)
  (ship-order-o15 n24 n25)
  (ship-order-o15 n25 n26)
  (ship-order-o15 n26 n27)
  (ship-order-o15 n27 n28)
  (ship-order-o15 n28 n29)
  (ship-order-o15 n29 n30)
  (ship-order-o15 n3 n4)
  (ship-order-o15 n30 n31)
  (ship-order-o15 n31 n32)
  (ship-order-o15 n32 n33)
  (ship-order-o15 n33 n34)
  (ship-order-o15 n34 n35)
  (ship-order-o15 n35 n36)
  (ship-order-o15 n36 n37)
  (ship-order-o15 n37 n38)
  (ship-order-o15 n38 n39)
  (ship-order-o15 n39 n40)
  (ship-order-o15 n4 n5)
  (ship-order-o15 n40 n41)
  (ship-order-o15 n41 n42)
  (ship-order-o15 n42 n43)
  (ship-order-o15 n43 n44)
  (ship-order-o15 n44 n45)
  (ship-order-o15 n45 n46)
  (ship-order-o15 n46 n47)
  (ship-order-o15 n47 n48)
  (ship-order-o15 n48 n49)
  (ship-order-o15 n49 n50)
  (ship-order-o15 n5 n6)
  (ship-order-o15 n6 n7)
  (ship-order-o15 n7 n8)
  (ship-order-o15 n8 n9)
  (ship-order-o15 n9 n10)
  (ship-order-o16 n0 n1)
  (ship-order-o16 n1 n2)
  (ship-order-o16 n10 n11)
  (ship-order-o16 n11 n12)
  (ship-order-o16 n12 n13)
  (ship-order-o16 n13 n14)
  (ship-order-o16 n14 n15)
  (ship-order-o16 n15 n16)
  (ship-order-o16 n16 n17)
  (ship-order-o16 n17 n18)
  (ship-order-o16 n18 n19)
  (ship-order-o16 n19 n20)
  (ship-order-o16 n2 n3)
  (ship-order-o16 n20 n21)
  (ship-order-o16 n21 n22)
  (ship-order-o16 n22 n23)
  (ship-order-o16 n23 n24)
  (ship-order-o16 n24 n25)
  (ship-order-o16 n25 n26)
  (ship-order-o16 n26 n27)
  (ship-order-o16 n27 n28)
  (ship-order-o16 n28 n29)
  (ship-order-o16 n29 n30)
  (ship-order-o16 n3 n4)
  (ship-order-o16 n30 n31)
  (ship-order-o16 n31 n32)
  (ship-order-o16 n32 n33)
  (ship-order-o16 n33 n34)
  (ship-order-o16 n34 n35)
  (ship-order-o16 n35 n36)
  (ship-order-o16 n36 n37)
  (ship-order-o16 n37 n38)
  (ship-order-o16 n38 n39)
  (ship-order-o16 n39 n40)
  (ship-order-o16 n4 n5)
  (ship-order-o16 n40 n41)
  (ship-order-o16 n41 n42)
  (ship-order-o16 n42 n43)
  (ship-order-o16 n43 n44)
  (ship-order-o16 n44 n45)
  (ship-order-o16 n45 n46)
  (ship-order-o16 n46 n47)
  (ship-order-o16 n47 n48)
  (ship-order-o16 n48 n49)
  (ship-order-o16 n49 n50)
  (ship-order-o16 n5 n6)
  (ship-order-o16 n6 n7)
  (ship-order-o16 n7 n8)
  (ship-order-o16 n8 n9)
  (ship-order-o16 n9 n10)
  (ship-order-o17 n0 n1)
  (ship-order-o17 n1 n2)
  (ship-order-o17 n10 n11)
  (ship-order-o17 n11 n12)
  (ship-order-o17 n12 n13)
  (ship-order-o17 n13 n14)
  (ship-order-o17 n14 n15)
  (ship-order-o17 n15 n16)
  (ship-order-o17 n16 n17)
  (ship-order-o17 n17 n18)
  (ship-order-o17 n18 n19)
  (ship-order-o17 n19 n20)
  (ship-order-o17 n2 n3)
  (ship-order-o17 n20 n21)
  (ship-order-o17 n21 n22)
  (ship-order-o17 n22 n23)
  (ship-order-o17 n23 n24)
  (ship-order-o17 n24 n25)
  (ship-order-o17 n25 n26)
  (ship-order-o17 n26 n27)
  (ship-order-o17 n27 n28)
  (ship-order-o17 n28 n29)
  (ship-order-o17 n29 n30)
  (ship-order-o17 n3 n4)
  (ship-order-o17 n30 n31)
  (ship-order-o17 n31 n32)
  (ship-order-o17 n32 n33)
  (ship-order-o17 n33 n34)
  (ship-order-o17 n34 n35)
  (ship-order-o17 n35 n36)
  (ship-order-o17 n36 n37)
  (ship-order-o17 n37 n38)
  (ship-order-o17 n38 n39)
  (ship-order-o17 n39 n40)
  (ship-order-o17 n4 n5)
  (ship-order-o17 n40 n41)
  (ship-order-o17 n41 n42)
  (ship-order-o17 n42 n43)
  (ship-order-o17 n43 n44)
  (ship-order-o17 n44 n45)
  (ship-order-o17 n45 n46)
  (ship-order-o17 n46 n47)
  (ship-order-o17 n47 n48)
  (ship-order-o17 n48 n49)
  (ship-order-o17 n49 n50)
  (ship-order-o17 n5 n6)
  (ship-order-o17 n6 n7)
  (ship-order-o17 n7 n8)
  (ship-order-o17 n8 n9)
  (ship-order-o17 n9 n10)
  (ship-order-o2 n0 n1)
  (ship-order-o2 n1 n2)
  (ship-order-o2 n10 n11)
  (ship-order-o2 n11 n12)
  (ship-order-o2 n12 n13)
  (ship-order-o2 n13 n14)
  (ship-order-o2 n14 n15)
  (ship-order-o2 n15 n16)
  (ship-order-o2 n16 n17)
  (ship-order-o2 n17 n18)
  (ship-order-o2 n18 n19)
  (ship-order-o2 n19 n20)
  (ship-order-o2 n2 n3)
  (ship-order-o2 n20 n21)
  (ship-order-o2 n21 n22)
  (ship-order-o2 n22 n23)
  (ship-order-o2 n23 n24)
  (ship-order-o2 n24 n25)
  (ship-order-o2 n25 n26)
  (ship-order-o2 n26 n27)
  (ship-order-o2 n27 n28)
  (ship-order-o2 n28 n29)
  (ship-order-o2 n29 n30)
  (ship-order-o2 n3 n4)
  (ship-order-o2 n30 n31)
  (ship-order-o2 n31 n32)
  (ship-order-o2 n32 n33)
  (ship-order-o2 n33 n34)
  (ship-order-o2 n34 n35)
  (ship-order-o2 n35 n36)
  (ship-order-o2 n36 n37)
  (ship-order-o2 n37 n38)
  (ship-order-o2 n38 n39)
  (ship-order-o2 n39 n40)
  (ship-order-o2 n4 n5)
  (ship-order-o2 n40 n41)
  (ship-order-o2 n41 n42)
  (ship-order-o2 n42 n43)
  (ship-order-o2 n43 n44)
  (ship-order-o2 n44 n45)
  (ship-order-o2 n45 n46)
  (ship-order-o2 n46 n47)
  (ship-order-o2 n47 n48)
  (ship-order-o2 n48 n49)
  (ship-order-o2 n49 n50)
  (ship-order-o2 n5 n6)
  (ship-order-o2 n6 n7)
  (ship-order-o2 n7 n8)
  (ship-order-o2 n8 n9)
  (ship-order-o2 n9 n10)
  (ship-order-o20 n0 n1)
  (ship-order-o20 n1 n2)
  (ship-order-o20 n10 n11)
  (ship-order-o20 n11 n12)
  (ship-order-o20 n12 n13)
  (ship-order-o20 n13 n14)
  (ship-order-o20 n14 n15)
  (ship-order-o20 n15 n16)
  (ship-order-o20 n16 n17)
  (ship-order-o20 n17 n18)
  (ship-order-o20 n18 n19)
  (ship-order-o20 n19 n20)
  (ship-order-o20 n2 n3)
  (ship-order-o20 n20 n21)
  (ship-order-o20 n21 n22)
  (ship-order-o20 n22 n23)
  (ship-order-o20 n23 n24)
  (ship-order-o20 n24 n25)
  (ship-order-o20 n25 n26)
  (ship-order-o20 n26 n27)
  (ship-order-o20 n27 n28)
  (ship-order-o20 n28 n29)
  (ship-order-o20 n29 n30)
  (ship-order-o20 n3 n4)
  (ship-order-o20 n30 n31)
  (ship-order-o20 n31 n32)
  (ship-order-o20 n32 n33)
  (ship-order-o20 n33 n34)
  (ship-order-o20 n34 n35)
  (ship-order-o20 n35 n36)
  (ship-order-o20 n36 n37)
  (ship-order-o20 n37 n38)
  (ship-order-o20 n38 n39)
  (ship-order-o20 n39 n40)
  (ship-order-o20 n4 n5)
  (ship-order-o20 n40 n41)
  (ship-order-o20 n41 n42)
  (ship-order-o20 n42 n43)
  (ship-order-o20 n43 n44)
  (ship-order-o20 n44 n45)
  (ship-order-o20 n45 n46)
  (ship-order-o20 n46 n47)
  (ship-order-o20 n47 n48)
  (ship-order-o20 n48 n49)
  (ship-order-o20 n49 n50)
  (ship-order-o20 n5 n6)
  (ship-order-o20 n6 n7)
  (ship-order-o20 n7 n8)
  (ship-order-o20 n8 n9)
  (ship-order-o20 n9 n10)
  (ship-order-o24 n0 n1)
  (ship-order-o24 n1 n2)
  (ship-order-o24 n10 n11)
  (ship-order-o24 n11 n12)
  (ship-order-o24 n12 n13)
  (ship-order-o24 n13 n14)
  (ship-order-o24 n14 n15)
  (ship-order-o24 n15 n16)
  (ship-order-o24 n16 n17)
  (ship-order-o24 n17 n18)
  (ship-order-o24 n18 n19)
  (ship-order-o24 n19 n20)
  (ship-order-o24 n2 n3)
  (ship-order-o24 n20 n21)
  (ship-order-o24 n21 n22)
  (ship-order-o24 n22 n23)
  (ship-order-o24 n23 n24)
  (ship-order-o24 n24 n25)
  (ship-order-o24 n25 n26)
  (ship-order-o24 n26 n27)
  (ship-order-o24 n27 n28)
  (ship-order-o24 n28 n29)
  (ship-order-o24 n29 n30)
  (ship-order-o24 n3 n4)
  (ship-order-o24 n30 n31)
  (ship-order-o24 n31 n32)
  (ship-order-o24 n32 n33)
  (ship-order-o24 n33 n34)
  (ship-order-o24 n34 n35)
  (ship-order-o24 n35 n36)
  (ship-order-o24 n36 n37)
  (ship-order-o24 n37 n38)
  (ship-order-o24 n38 n39)
  (ship-order-o24 n39 n40)
  (ship-order-o24 n4 n5)
  (ship-order-o24 n40 n41)
  (ship-order-o24 n41 n42)
  (ship-order-o24 n42 n43)
  (ship-order-o24 n43 n44)
  (ship-order-o24 n44 n45)
  (ship-order-o24 n45 n46)
  (ship-order-o24 n46 n47)
  (ship-order-o24 n47 n48)
  (ship-order-o24 n48 n49)
  (ship-order-o24 n49 n50)
  (ship-order-o24 n5 n6)
  (ship-order-o24 n6 n7)
  (ship-order-o24 n7 n8)
  (ship-order-o24 n8 n9)
  (ship-order-o24 n9 n10)
  (ship-order-o25 n0 n1)
  (ship-order-o25 n1 n2)
  (ship-order-o25 n10 n11)
  (ship-order-o25 n11 n12)
  (ship-order-o25 n12 n13)
  (ship-order-o25 n13 n14)
  (ship-order-o25 n14 n15)
  (ship-order-o25 n15 n16)
  (ship-order-o25 n16 n17)
  (ship-order-o25 n17 n18)
  (ship-order-o25 n18 n19)
  (ship-order-o25 n19 n20)
  (ship-order-o25 n2 n3)
  (ship-order-o25 n20 n21)
  (ship-order-o25 n21 n22)
  (ship-order-o25 n22 n23)
  (ship-order-o25 n23 n24)
  (ship-order-o25 n24 n25)
  (ship-order-o25 n25 n26)
  (ship-order-o25 n26 n27)
  (ship-order-o25 n27 n28)
  (ship-order-o25 n28 n29)
  (ship-order-o25 n29 n30)
  (ship-order-o25 n3 n4)
  (ship-order-o25 n30 n31)
  (ship-order-o25 n31 n32)
  (ship-order-o25 n32 n33)
  (ship-order-o25 n33 n34)
  (ship-order-o25 n34 n35)
  (ship-order-o25 n35 n36)
  (ship-order-o25 n36 n37)
  (ship-order-o25 n37 n38)
  (ship-order-o25 n38 n39)
  (ship-order-o25 n39 n40)
  (ship-order-o25 n4 n5)
  (ship-order-o25 n40 n41)
  (ship-order-o25 n41 n42)
  (ship-order-o25 n42 n43)
  (ship-order-o25 n43 n44)
  (ship-order-o25 n44 n45)
  (ship-order-o25 n45 n46)
  (ship-order-o25 n46 n47)
  (ship-order-o25 n47 n48)
  (ship-order-o25 n48 n49)
  (ship-order-o25 n49 n50)
  (ship-order-o25 n5 n6)
  (ship-order-o25 n6 n7)
  (ship-order-o25 n7 n8)
  (ship-order-o25 n8 n9)
  (ship-order-o25 n9 n10)
  (ship-order-o26 n0 n1)
  (ship-order-o26 n1 n2)
  (ship-order-o26 n10 n11)
  (ship-order-o26 n11 n12)
  (ship-order-o26 n12 n13)
  (ship-order-o26 n13 n14)
  (ship-order-o26 n14 n15)
  (ship-order-o26 n15 n16)
  (ship-order-o26 n16 n17)
  (ship-order-o26 n17 n18)
  (ship-order-o26 n18 n19)
  (ship-order-o26 n19 n20)
  (ship-order-o26 n2 n3)
  (ship-order-o26 n20 n21)
  (ship-order-o26 n21 n22)
  (ship-order-o26 n22 n23)
  (ship-order-o26 n23 n24)
  (ship-order-o26 n24 n25)
  (ship-order-o26 n25 n26)
  (ship-order-o26 n26 n27)
  (ship-order-o26 n27 n28)
  (ship-order-o26 n28 n29)
  (ship-order-o26 n29 n30)
  (ship-order-o26 n3 n4)
  (ship-order-o26 n30 n31)
  (ship-order-o26 n31 n32)
  (ship-order-o26 n32 n33)
  (ship-order-o26 n33 n34)
  (ship-order-o26 n34 n35)
  (ship-order-o26 n35 n36)
  (ship-order-o26 n36 n37)
  (ship-order-o26 n37 n38)
  (ship-order-o26 n38 n39)
  (ship-order-o26 n39 n40)
  (ship-order-o26 n4 n5)
  (ship-order-o26 n40 n41)
  (ship-order-o26 n41 n42)
  (ship-order-o26 n42 n43)
  (ship-order-o26 n43 n44)
  (ship-order-o26 n44 n45)
  (ship-order-o26 n45 n46)
  (ship-order-o26 n46 n47)
  (ship-order-o26 n47 n48)
  (ship-order-o26 n48 n49)
  (ship-order-o26 n49 n50)
  (ship-order-o26 n5 n6)
  (ship-order-o26 n6 n7)
  (ship-order-o26 n7 n8)
  (ship-order-o26 n8 n9)
  (ship-order-o26 n9 n10)
  (ship-order-o28 n0 n1)
  (ship-order-o28 n1 n2)
  (ship-order-o28 n10 n11)
  (ship-order-o28 n11 n12)
  (ship-order-o28 n12 n13)
  (ship-order-o28 n13 n14)
  (ship-order-o28 n14 n15)
  (ship-order-o28 n15 n16)
  (ship-order-o28 n16 n17)
  (ship-order-o28 n17 n18)
  (ship-order-o28 n18 n19)
  (ship-order-o28 n19 n20)
  (ship-order-o28 n2 n3)
  (ship-order-o28 n20 n21)
  (ship-order-o28 n21 n22)
  (ship-order-o28 n22 n23)
  (ship-order-o28 n23 n24)
  (ship-order-o28 n24 n25)
  (ship-order-o28 n25 n26)
  (ship-order-o28 n26 n27)
  (ship-order-o28 n27 n28)
  (ship-order-o28 n28 n29)
  (ship-order-o28 n29 n30)
  (ship-order-o28 n3 n4)
  (ship-order-o28 n30 n31)
  (ship-order-o28 n31 n32)
  (ship-order-o28 n32 n33)
  (ship-order-o28 n33 n34)
  (ship-order-o28 n34 n35)
  (ship-order-o28 n35 n36)
  (ship-order-o28 n36 n37)
  (ship-order-o28 n37 n38)
  (ship-order-o28 n38 n39)
  (ship-order-o28 n39 n40)
  (ship-order-o28 n4 n5)
  (ship-order-o28 n40 n41)
  (ship-order-o28 n41 n42)
  (ship-order-o28 n42 n43)
  (ship-order-o28 n43 n44)
  (ship-order-o28 n44 n45)
  (ship-order-o28 n45 n46)
  (ship-order-o28 n46 n47)
  (ship-order-o28 n47 n48)
  (ship-order-o28 n48 n49)
  (ship-order-o28 n49 n50)
  (ship-order-o28 n5 n6)
  (ship-order-o28 n6 n7)
  (ship-order-o28 n7 n8)
  (ship-order-o28 n8 n9)
  (ship-order-o28 n9 n10)
  (ship-order-o29 n0 n1)
  (ship-order-o29 n1 n2)
  (ship-order-o29 n10 n11)
  (ship-order-o29 n11 n12)
  (ship-order-o29 n12 n13)
  (ship-order-o29 n13 n14)
  (ship-order-o29 n14 n15)
  (ship-order-o29 n15 n16)
  (ship-order-o29 n16 n17)
  (ship-order-o29 n17 n18)
  (ship-order-o29 n18 n19)
  (ship-order-o29 n19 n20)
  (ship-order-o29 n2 n3)
  (ship-order-o29 n20 n21)
  (ship-order-o29 n21 n22)
  (ship-order-o29 n22 n23)
  (ship-order-o29 n23 n24)
  (ship-order-o29 n24 n25)
  (ship-order-o29 n25 n26)
  (ship-order-o29 n26 n27)
  (ship-order-o29 n27 n28)
  (ship-order-o29 n28 n29)
  (ship-order-o29 n29 n30)
  (ship-order-o29 n3 n4)
  (ship-order-o29 n30 n31)
  (ship-order-o29 n31 n32)
  (ship-order-o29 n32 n33)
  (ship-order-o29 n33 n34)
  (ship-order-o29 n34 n35)
  (ship-order-o29 n35 n36)
  (ship-order-o29 n36 n37)
  (ship-order-o29 n37 n38)
  (ship-order-o29 n38 n39)
  (ship-order-o29 n39 n40)
  (ship-order-o29 n4 n5)
  (ship-order-o29 n40 n41)
  (ship-order-o29 n41 n42)
  (ship-order-o29 n42 n43)
  (ship-order-o29 n43 n44)
  (ship-order-o29 n44 n45)
  (ship-order-o29 n45 n46)
  (ship-order-o29 n46 n47)
  (ship-order-o29 n47 n48)
  (ship-order-o29 n48 n49)
  (ship-order-o29 n49 n50)
  (ship-order-o29 n5 n6)
  (ship-order-o29 n6 n7)
  (ship-order-o29 n7 n8)
  (ship-order-o29 n8 n9)
  (ship-order-o29 n9 n10)
  (ship-order-o3 n0 n1)
  (ship-order-o3 n1 n2)
  (ship-order-o3 n10 n11)
  (ship-order-o3 n11 n12)
  (ship-order-o3 n12 n13)
  (ship-order-o3 n13 n14)
  (ship-order-o3 n14 n15)
  (ship-order-o3 n15 n16)
  (ship-order-o3 n16 n17)
  (ship-order-o3 n17 n18)
  (ship-order-o3 n18 n19)
  (ship-order-o3 n19 n20)
  (ship-order-o3 n2 n3)
  (ship-order-o3 n20 n21)
  (ship-order-o3 n21 n22)
  (ship-order-o3 n22 n23)
  (ship-order-o3 n23 n24)
  (ship-order-o3 n24 n25)
  (ship-order-o3 n25 n26)
  (ship-order-o3 n26 n27)
  (ship-order-o3 n27 n28)
  (ship-order-o3 n28 n29)
  (ship-order-o3 n29 n30)
  (ship-order-o3 n3 n4)
  (ship-order-o3 n30 n31)
  (ship-order-o3 n31 n32)
  (ship-order-o3 n32 n33)
  (ship-order-o3 n33 n34)
  (ship-order-o3 n34 n35)
  (ship-order-o3 n35 n36)
  (ship-order-o3 n36 n37)
  (ship-order-o3 n37 n38)
  (ship-order-o3 n38 n39)
  (ship-order-o3 n39 n40)
  (ship-order-o3 n4 n5)
  (ship-order-o3 n40 n41)
  (ship-order-o3 n41 n42)
  (ship-order-o3 n42 n43)
  (ship-order-o3 n43 n44)
  (ship-order-o3 n44 n45)
  (ship-order-o3 n45 n46)
  (ship-order-o3 n46 n47)
  (ship-order-o3 n47 n48)
  (ship-order-o3 n48 n49)
  (ship-order-o3 n49 n50)
  (ship-order-o3 n5 n6)
  (ship-order-o3 n6 n7)
  (ship-order-o3 n7 n8)
  (ship-order-o3 n8 n9)
  (ship-order-o3 n9 n10)
  (ship-order-o34 n0 n1)
  (ship-order-o34 n1 n2)
  (ship-order-o34 n10 n11)
  (ship-order-o34 n11 n12)
  (ship-order-o34 n12 n13)
  (ship-order-o34 n13 n14)
  (ship-order-o34 n14 n15)
  (ship-order-o34 n15 n16)
  (ship-order-o34 n16 n17)
  (ship-order-o34 n17 n18)
  (ship-order-o34 n18 n19)
  (ship-order-o34 n19 n20)
  (ship-order-o34 n2 n3)
  (ship-order-o34 n20 n21)
  (ship-order-o34 n21 n22)
  (ship-order-o34 n22 n23)
  (ship-order-o34 n23 n24)
  (ship-order-o34 n24 n25)
  (ship-order-o34 n25 n26)
  (ship-order-o34 n26 n27)
  (ship-order-o34 n27 n28)
  (ship-order-o34 n28 n29)
  (ship-order-o34 n29 n30)
  (ship-order-o34 n3 n4)
  (ship-order-o34 n30 n31)
  (ship-order-o34 n31 n32)
  (ship-order-o34 n32 n33)
  (ship-order-o34 n33 n34)
  (ship-order-o34 n34 n35)
  (ship-order-o34 n35 n36)
  (ship-order-o34 n36 n37)
  (ship-order-o34 n37 n38)
  (ship-order-o34 n38 n39)
  (ship-order-o34 n39 n40)
  (ship-order-o34 n4 n5)
  (ship-order-o34 n40 n41)
  (ship-order-o34 n41 n42)
  (ship-order-o34 n42 n43)
  (ship-order-o34 n43 n44)
  (ship-order-o34 n44 n45)
  (ship-order-o34 n45 n46)
  (ship-order-o34 n46 n47)
  (ship-order-o34 n47 n48)
  (ship-order-o34 n48 n49)
  (ship-order-o34 n49 n50)
  (ship-order-o34 n5 n6)
  (ship-order-o34 n6 n7)
  (ship-order-o34 n7 n8)
  (ship-order-o34 n8 n9)
  (ship-order-o34 n9 n10)
  (ship-order-o35 n0 n1)
  (ship-order-o35 n1 n2)
  (ship-order-o35 n10 n11)
  (ship-order-o35 n11 n12)
  (ship-order-o35 n12 n13)
  (ship-order-o35 n13 n14)
  (ship-order-o35 n14 n15)
  (ship-order-o35 n15 n16)
  (ship-order-o35 n16 n17)
  (ship-order-o35 n17 n18)
  (ship-order-o35 n18 n19)
  (ship-order-o35 n19 n20)
  (ship-order-o35 n2 n3)
  (ship-order-o35 n20 n21)
  (ship-order-o35 n21 n22)
  (ship-order-o35 n22 n23)
  (ship-order-o35 n23 n24)
  (ship-order-o35 n24 n25)
  (ship-order-o35 n25 n26)
  (ship-order-o35 n26 n27)
  (ship-order-o35 n27 n28)
  (ship-order-o35 n28 n29)
  (ship-order-o35 n29 n30)
  (ship-order-o35 n3 n4)
  (ship-order-o35 n30 n31)
  (ship-order-o35 n31 n32)
  (ship-order-o35 n32 n33)
  (ship-order-o35 n33 n34)
  (ship-order-o35 n34 n35)
  (ship-order-o35 n35 n36)
  (ship-order-o35 n36 n37)
  (ship-order-o35 n37 n38)
  (ship-order-o35 n38 n39)
  (ship-order-o35 n39 n40)
  (ship-order-o35 n4 n5)
  (ship-order-o35 n40 n41)
  (ship-order-o35 n41 n42)
  (ship-order-o35 n42 n43)
  (ship-order-o35 n43 n44)
  (ship-order-o35 n44 n45)
  (ship-order-o35 n45 n46)
  (ship-order-o35 n46 n47)
  (ship-order-o35 n47 n48)
  (ship-order-o35 n48 n49)
  (ship-order-o35 n49 n50)
  (ship-order-o35 n5 n6)
  (ship-order-o35 n6 n7)
  (ship-order-o35 n7 n8)
  (ship-order-o35 n8 n9)
  (ship-order-o35 n9 n10)
  (ship-order-o36 n0 n1)
  (ship-order-o36 n1 n2)
  (ship-order-o36 n10 n11)
  (ship-order-o36 n11 n12)
  (ship-order-o36 n12 n13)
  (ship-order-o36 n13 n14)
  (ship-order-o36 n14 n15)
  (ship-order-o36 n15 n16)
  (ship-order-o36 n16 n17)
  (ship-order-o36 n17 n18)
  (ship-order-o36 n18 n19)
  (ship-order-o36 n19 n20)
  (ship-order-o36 n2 n3)
  (ship-order-o36 n20 n21)
  (ship-order-o36 n21 n22)
  (ship-order-o36 n22 n23)
  (ship-order-o36 n23 n24)
  (ship-order-o36 n24 n25)
  (ship-order-o36 n25 n26)
  (ship-order-o36 n26 n27)
  (ship-order-o36 n27 n28)
  (ship-order-o36 n28 n29)
  (ship-order-o36 n29 n30)
  (ship-order-o36 n3 n4)
  (ship-order-o36 n30 n31)
  (ship-order-o36 n31 n32)
  (ship-order-o36 n32 n33)
  (ship-order-o36 n33 n34)
  (ship-order-o36 n34 n35)
  (ship-order-o36 n35 n36)
  (ship-order-o36 n36 n37)
  (ship-order-o36 n37 n38)
  (ship-order-o36 n38 n39)
  (ship-order-o36 n39 n40)
  (ship-order-o36 n4 n5)
  (ship-order-o36 n40 n41)
  (ship-order-o36 n41 n42)
  (ship-order-o36 n42 n43)
  (ship-order-o36 n43 n44)
  (ship-order-o36 n44 n45)
  (ship-order-o36 n45 n46)
  (ship-order-o36 n46 n47)
  (ship-order-o36 n47 n48)
  (ship-order-o36 n48 n49)
  (ship-order-o36 n49 n50)
  (ship-order-o36 n5 n6)
  (ship-order-o36 n6 n7)
  (ship-order-o36 n7 n8)
  (ship-order-o36 n8 n9)
  (ship-order-o36 n9 n10)
  (ship-order-o37 n0 n1)
  (ship-order-o37 n1 n2)
  (ship-order-o37 n10 n11)
  (ship-order-o37 n11 n12)
  (ship-order-o37 n12 n13)
  (ship-order-o37 n13 n14)
  (ship-order-o37 n14 n15)
  (ship-order-o37 n15 n16)
  (ship-order-o37 n16 n17)
  (ship-order-o37 n17 n18)
  (ship-order-o37 n18 n19)
  (ship-order-o37 n19 n20)
  (ship-order-o37 n2 n3)
  (ship-order-o37 n20 n21)
  (ship-order-o37 n21 n22)
  (ship-order-o37 n22 n23)
  (ship-order-o37 n23 n24)
  (ship-order-o37 n24 n25)
  (ship-order-o37 n25 n26)
  (ship-order-o37 n26 n27)
  (ship-order-o37 n27 n28)
  (ship-order-o37 n28 n29)
  (ship-order-o37 n29 n30)
  (ship-order-o37 n3 n4)
  (ship-order-o37 n30 n31)
  (ship-order-o37 n31 n32)
  (ship-order-o37 n32 n33)
  (ship-order-o37 n33 n34)
  (ship-order-o37 n34 n35)
  (ship-order-o37 n35 n36)
  (ship-order-o37 n36 n37)
  (ship-order-o37 n37 n38)
  (ship-order-o37 n38 n39)
  (ship-order-o37 n39 n40)
  (ship-order-o37 n4 n5)
  (ship-order-o37 n40 n41)
  (ship-order-o37 n41 n42)
  (ship-order-o37 n42 n43)
  (ship-order-o37 n43 n44)
  (ship-order-o37 n44 n45)
  (ship-order-o37 n45 n46)
  (ship-order-o37 n46 n47)
  (ship-order-o37 n47 n48)
  (ship-order-o37 n48 n49)
  (ship-order-o37 n49 n50)
  (ship-order-o37 n5 n6)
  (ship-order-o37 n6 n7)
  (ship-order-o37 n7 n8)
  (ship-order-o37 n8 n9)
  (ship-order-o37 n9 n10)
  (ship-order-o4 n0 n1)
  (ship-order-o4 n1 n2)
  (ship-order-o4 n10 n11)
  (ship-order-o4 n11 n12)
  (ship-order-o4 n12 n13)
  (ship-order-o4 n13 n14)
  (ship-order-o4 n14 n15)
  (ship-order-o4 n15 n16)
  (ship-order-o4 n16 n17)
  (ship-order-o4 n17 n18)
  (ship-order-o4 n18 n19)
  (ship-order-o4 n19 n20)
  (ship-order-o4 n2 n3)
  (ship-order-o4 n20 n21)
  (ship-order-o4 n21 n22)
  (ship-order-o4 n22 n23)
  (ship-order-o4 n23 n24)
  (ship-order-o4 n24 n25)
  (ship-order-o4 n25 n26)
  (ship-order-o4 n26 n27)
  (ship-order-o4 n27 n28)
  (ship-order-o4 n28 n29)
  (ship-order-o4 n29 n30)
  (ship-order-o4 n3 n4)
  (ship-order-o4 n30 n31)
  (ship-order-o4 n31 n32)
  (ship-order-o4 n32 n33)
  (ship-order-o4 n33 n34)
  (ship-order-o4 n34 n35)
  (ship-order-o4 n35 n36)
  (ship-order-o4 n36 n37)
  (ship-order-o4 n37 n38)
  (ship-order-o4 n38 n39)
  (ship-order-o4 n39 n40)
  (ship-order-o4 n4 n5)
  (ship-order-o4 n40 n41)
  (ship-order-o4 n41 n42)
  (ship-order-o4 n42 n43)
  (ship-order-o4 n43 n44)
  (ship-order-o4 n44 n45)
  (ship-order-o4 n45 n46)
  (ship-order-o4 n46 n47)
  (ship-order-o4 n47 n48)
  (ship-order-o4 n48 n49)
  (ship-order-o4 n49 n50)
  (ship-order-o4 n5 n6)
  (ship-order-o4 n6 n7)
  (ship-order-o4 n7 n8)
  (ship-order-o4 n8 n9)
  (ship-order-o4 n9 n10)
  (ship-order-o40 n0 n1)
  (ship-order-o40 n1 n2)
  (ship-order-o40 n10 n11)
  (ship-order-o40 n11 n12)
  (ship-order-o40 n12 n13)
  (ship-order-o40 n13 n14)
  (ship-order-o40 n14 n15)
  (ship-order-o40 n15 n16)
  (ship-order-o40 n16 n17)
  (ship-order-o40 n17 n18)
  (ship-order-o40 n18 n19)
  (ship-order-o40 n19 n20)
  (ship-order-o40 n2 n3)
  (ship-order-o40 n20 n21)
  (ship-order-o40 n21 n22)
  (ship-order-o40 n22 n23)
  (ship-order-o40 n23 n24)
  (ship-order-o40 n24 n25)
  (ship-order-o40 n25 n26)
  (ship-order-o40 n26 n27)
  (ship-order-o40 n27 n28)
  (ship-order-o40 n28 n29)
  (ship-order-o40 n29 n30)
  (ship-order-o40 n3 n4)
  (ship-order-o40 n30 n31)
  (ship-order-o40 n31 n32)
  (ship-order-o40 n32 n33)
  (ship-order-o40 n33 n34)
  (ship-order-o40 n34 n35)
  (ship-order-o40 n35 n36)
  (ship-order-o40 n36 n37)
  (ship-order-o40 n37 n38)
  (ship-order-o40 n38 n39)
  (ship-order-o40 n39 n40)
  (ship-order-o40 n4 n5)
  (ship-order-o40 n40 n41)
  (ship-order-o40 n41 n42)
  (ship-order-o40 n42 n43)
  (ship-order-o40 n43 n44)
  (ship-order-o40 n44 n45)
  (ship-order-o40 n45 n46)
  (ship-order-o40 n46 n47)
  (ship-order-o40 n47 n48)
  (ship-order-o40 n48 n49)
  (ship-order-o40 n49 n50)
  (ship-order-o40 n5 n6)
  (ship-order-o40 n6 n7)
  (ship-order-o40 n7 n8)
  (ship-order-o40 n8 n9)
  (ship-order-o40 n9 n10)
  (ship-order-o46 n0 n1)
  (ship-order-o46 n1 n2)
  (ship-order-o46 n10 n11)
  (ship-order-o46 n11 n12)
  (ship-order-o46 n12 n13)
  (ship-order-o46 n13 n14)
  (ship-order-o46 n14 n15)
  (ship-order-o46 n15 n16)
  (ship-order-o46 n16 n17)
  (ship-order-o46 n17 n18)
  (ship-order-o46 n18 n19)
  (ship-order-o46 n19 n20)
  (ship-order-o46 n2 n3)
  (ship-order-o46 n20 n21)
  (ship-order-o46 n21 n22)
  (ship-order-o46 n22 n23)
  (ship-order-o46 n23 n24)
  (ship-order-o46 n24 n25)
  (ship-order-o46 n25 n26)
  (ship-order-o46 n26 n27)
  (ship-order-o46 n27 n28)
  (ship-order-o46 n28 n29)
  (ship-order-o46 n29 n30)
  (ship-order-o46 n3 n4)
  (ship-order-o46 n30 n31)
  (ship-order-o46 n31 n32)
  (ship-order-o46 n32 n33)
  (ship-order-o46 n33 n34)
  (ship-order-o46 n34 n35)
  (ship-order-o46 n35 n36)
  (ship-order-o46 n36 n37)
  (ship-order-o46 n37 n38)
  (ship-order-o46 n38 n39)
  (ship-order-o46 n39 n40)
  (ship-order-o46 n4 n5)
  (ship-order-o46 n40 n41)
  (ship-order-o46 n41 n42)
  (ship-order-o46 n42 n43)
  (ship-order-o46 n43 n44)
  (ship-order-o46 n44 n45)
  (ship-order-o46 n45 n46)
  (ship-order-o46 n46 n47)
  (ship-order-o46 n47 n48)
  (ship-order-o46 n48 n49)
  (ship-order-o46 n49 n50)
  (ship-order-o46 n5 n6)
  (ship-order-o46 n6 n7)
  (ship-order-o46 n7 n8)
  (ship-order-o46 n8 n9)
  (ship-order-o46 n9 n10)
  (ship-order-o47 n0 n1)
  (ship-order-o47 n1 n2)
  (ship-order-o47 n10 n11)
  (ship-order-o47 n11 n12)
  (ship-order-o47 n12 n13)
  (ship-order-o47 n13 n14)
  (ship-order-o47 n14 n15)
  (ship-order-o47 n15 n16)
  (ship-order-o47 n16 n17)
  (ship-order-o47 n17 n18)
  (ship-order-o47 n18 n19)
  (ship-order-o47 n19 n20)
  (ship-order-o47 n2 n3)
  (ship-order-o47 n20 n21)
  (ship-order-o47 n21 n22)
  (ship-order-o47 n22 n23)
  (ship-order-o47 n23 n24)
  (ship-order-o47 n24 n25)
  (ship-order-o47 n25 n26)
  (ship-order-o47 n26 n27)
  (ship-order-o47 n27 n28)
  (ship-order-o47 n28 n29)
  (ship-order-o47 n29 n30)
  (ship-order-o47 n3 n4)
  (ship-order-o47 n30 n31)
  (ship-order-o47 n31 n32)
  (ship-order-o47 n32 n33)
  (ship-order-o47 n33 n34)
  (ship-order-o47 n34 n35)
  (ship-order-o47 n35 n36)
  (ship-order-o47 n36 n37)
  (ship-order-o47 n37 n38)
  (ship-order-o47 n38 n39)
  (ship-order-o47 n39 n40)
  (ship-order-o47 n4 n5)
  (ship-order-o47 n40 n41)
  (ship-order-o47 n41 n42)
  (ship-order-o47 n42 n43)
  (ship-order-o47 n43 n44)
  (ship-order-o47 n44 n45)
  (ship-order-o47 n45 n46)
  (ship-order-o47 n46 n47)
  (ship-order-o47 n47 n48)
  (ship-order-o47 n48 n49)
  (ship-order-o47 n49 n50)
  (ship-order-o47 n5 n6)
  (ship-order-o47 n6 n7)
  (ship-order-o47 n7 n8)
  (ship-order-o47 n8 n9)
  (ship-order-o47 n9 n10)
  (ship-order-o48 n0 n1)
  (ship-order-o48 n1 n2)
  (ship-order-o48 n10 n11)
  (ship-order-o48 n11 n12)
  (ship-order-o48 n12 n13)
  (ship-order-o48 n13 n14)
  (ship-order-o48 n14 n15)
  (ship-order-o48 n15 n16)
  (ship-order-o48 n16 n17)
  (ship-order-o48 n17 n18)
  (ship-order-o48 n18 n19)
  (ship-order-o48 n19 n20)
  (ship-order-o48 n2 n3)
  (ship-order-o48 n20 n21)
  (ship-order-o48 n21 n22)
  (ship-order-o48 n22 n23)
  (ship-order-o48 n23 n24)
  (ship-order-o48 n24 n25)
  (ship-order-o48 n25 n26)
  (ship-order-o48 n26 n27)
  (ship-order-o48 n27 n28)
  (ship-order-o48 n28 n29)
  (ship-order-o48 n29 n30)
  (ship-order-o48 n3 n4)
  (ship-order-o48 n30 n31)
  (ship-order-o48 n31 n32)
  (ship-order-o48 n32 n33)
  (ship-order-o48 n33 n34)
  (ship-order-o48 n34 n35)
  (ship-order-o48 n35 n36)
  (ship-order-o48 n36 n37)
  (ship-order-o48 n37 n38)
  (ship-order-o48 n38 n39)
  (ship-order-o48 n39 n40)
  (ship-order-o48 n4 n5)
  (ship-order-o48 n40 n41)
  (ship-order-o48 n41 n42)
  (ship-order-o48 n42 n43)
  (ship-order-o48 n43 n44)
  (ship-order-o48 n44 n45)
  (ship-order-o48 n45 n46)
  (ship-order-o48 n46 n47)
  (ship-order-o48 n47 n48)
  (ship-order-o48 n48 n49)
  (ship-order-o48 n49 n50)
  (ship-order-o48 n5 n6)
  (ship-order-o48 n6 n7)
  (ship-order-o48 n7 n8)
  (ship-order-o48 n8 n9)
  (ship-order-o48 n9 n10)
  (ship-order-o50 n0 n1)
  (ship-order-o50 n1 n2)
  (ship-order-o50 n10 n11)
  (ship-order-o50 n11 n12)
  (ship-order-o50 n12 n13)
  (ship-order-o50 n13 n14)
  (ship-order-o50 n14 n15)
  (ship-order-o50 n15 n16)
  (ship-order-o50 n16 n17)
  (ship-order-o50 n17 n18)
  (ship-order-o50 n18 n19)
  (ship-order-o50 n19 n20)
  (ship-order-o50 n2 n3)
  (ship-order-o50 n20 n21)
  (ship-order-o50 n21 n22)
  (ship-order-o50 n22 n23)
  (ship-order-o50 n23 n24)
  (ship-order-o50 n24 n25)
  (ship-order-o50 n25 n26)
  (ship-order-o50 n26 n27)
  (ship-order-o50 n27 n28)
  (ship-order-o50 n28 n29)
  (ship-order-o50 n29 n30)
  (ship-order-o50 n3 n4)
  (ship-order-o50 n30 n31)
  (ship-order-o50 n31 n32)
  (ship-order-o50 n32 n33)
  (ship-order-o50 n33 n34)
  (ship-order-o50 n34 n35)
  (ship-order-o50 n35 n36)
  (ship-order-o50 n36 n37)
  (ship-order-o50 n37 n38)
  (ship-order-o50 n38 n39)
  (ship-order-o50 n39 n40)
  (ship-order-o50 n4 n5)
  (ship-order-o50 n40 n41)
  (ship-order-o50 n41 n42)
  (ship-order-o50 n42 n43)
  (ship-order-o50 n43 n44)
  (ship-order-o50 n44 n45)
  (ship-order-o50 n45 n46)
  (ship-order-o50 n46 n47)
  (ship-order-o50 n47 n48)
  (ship-order-o50 n48 n49)
  (ship-order-o50 n49 n50)
  (ship-order-o50 n5 n6)
  (ship-order-o50 n6 n7)
  (ship-order-o50 n7 n8)
  (ship-order-o50 n8 n9)
  (ship-order-o50 n9 n10)
  (ship-order-o9 n0 n1)
  (ship-order-o9 n1 n2)
  (ship-order-o9 n10 n11)
  (ship-order-o9 n11 n12)
  (ship-order-o9 n12 n13)
  (ship-order-o9 n13 n14)
  (ship-order-o9 n14 n15)
  (ship-order-o9 n15 n16)
  (ship-order-o9 n16 n17)
  (ship-order-o9 n17 n18)
  (ship-order-o9 n18 n19)
  (ship-order-o9 n19 n20)
  (ship-order-o9 n2 n3)
  (ship-order-o9 n20 n21)
  (ship-order-o9 n21 n22)
  (ship-order-o9 n22 n23)
  (ship-order-o9 n23 n24)
  (ship-order-o9 n24 n25)
  (ship-order-o9 n25 n26)
  (ship-order-o9 n26 n27)
  (ship-order-o9 n27 n28)
  (ship-order-o9 n28 n29)
  (ship-order-o9 n29 n30)
  (ship-order-o9 n3 n4)
  (ship-order-o9 n30 n31)
  (ship-order-o9 n31 n32)
  (ship-order-o9 n32 n33)
  (ship-order-o9 n33 n34)
  (ship-order-o9 n34 n35)
  (ship-order-o9 n35 n36)
  (ship-order-o9 n36 n37)
  (ship-order-o9 n37 n38)
  (ship-order-o9 n38 n39)
  (ship-order-o9 n39 n40)
  (ship-order-o9 n4 n5)
  (ship-order-o9 n40 n41)
  (ship-order-o9 n41 n42)
  (ship-order-o9 n42 n43)
  (ship-order-o9 n43 n44)
  (ship-order-o9 n44 n45)
  (ship-order-o9 n45 n46)
  (ship-order-o9 n46 n47)
  (ship-order-o9 n47 n48)
  (ship-order-o9 n48 n49)
  (ship-order-o9 n49 n50)
  (ship-order-o9 n5 n6)
  (ship-order-o9 n6 n7)
  (ship-order-o9 n7 n8)
  (ship-order-o9 n8 n9)
  (ship-order-o9 n9 n10)
  (start-order o9 n1 n0)
  (start-order o9 n10 n9)
  (start-order o9 n11 n10)
  (start-order o9 n12 n11)
  (start-order o9 n13 n12)
  (start-order o9 n14 n13)
  (start-order o9 n15 n14)
  (start-order o9 n16 n15)
  (start-order o9 n17 n16)
  (start-order o9 n18 n17)
  (start-order o9 n19 n18)
  (start-order o9 n2 n1)
  (start-order o9 n20 n19)
  (start-order o9 n21 n20)
  (start-order o9 n22 n21)
  (start-order o9 n23 n22)
  (start-order o9 n24 n23)
  (start-order o9 n25 n24)
  (start-order o9 n26 n25)
  (start-order o9 n27 n26)
  (start-order o9 n28 n27)
  (start-order o9 n29 n28)
  (start-order o9 n3 n2)
  (start-order o9 n30 n29)
  (start-order o9 n31 n30)
  (start-order o9 n32 n31)
  (start-order o9 n33 n32)
  (start-order o9 n34 n33)
  (start-order o9 n35 n34)
  (start-order o9 n36 n35)
  (start-order o9 n37 n36)
  (start-order o9 n38 n37)
  (start-order o9 n39 n38)
  (start-order o9 n4 n3)
  (start-order o9 n40 n39)
  (start-order o9 n41 n40)
  (start-order o9 n42 n41)
  (start-order o9 n43 n42)
  (start-order o9 n44 n43)
  (start-order o9 n45 n44)
  (start-order o9 n46 n45)
  (start-order o9 n47 n46)
  (start-order o9 n48 n47)
  (start-order o9 n49 n48)
  (start-order o9 n5 n4)
  (start-order o9 n50 n49)
  (start-order o9 n6 n5)
  (start-order o9 n7 n6)
  (start-order o9 n8 n7)
  (start-order o9 n9 n8)
