begin_version
3
end_version
begin_metric
1
end_metric
121
begin_variable
var0
-1
121
at-robot loc-x0-y0
at-robot loc-x0-y1
at-robot loc-x0-y10
at-robot loc-x0-y2
at-robot loc-x0-y3
at-robot loc-x0-y4
at-robot loc-x0-y5
at-robot loc-x0-y6
at-robot loc-x0-y7
at-robot loc-x0-y8
at-robot loc-x0-y9
at-robot loc-x1-y0
at-robot loc-x1-y1
at-robot loc-x1-y10
at-robot loc-x1-y2
at-robot loc-x1-y3
at-robot loc-x1-y4
at-robot loc-x1-y5
at-robot loc-x1-y6
at-robot loc-x1-y7
at-robot loc-x1-y8
at-robot loc-x1-y9
at-robot loc-x10-y0
at-robot loc-x10-y1
at-robot loc-x10-y10
at-robot loc-x10-y2
at-robot loc-x10-y3
at-robot loc-x10-y4
at-robot loc-x10-y5
at-robot loc-x10-y6
at-robot loc-x10-y7
at-robot loc-x10-y8
at-robot loc-x10-y9
at-robot loc-x2-y0
at-robot loc-x2-y1
at-robot loc-x2-y10
at-robot loc-x2-y2
at-robot loc-x2-y3
at-robot loc-x2-y4
at-robot loc-x2-y5
at-robot loc-x2-y6
at-robot loc-x2-y7
at-robot loc-x2-y8
at-robot loc-x2-y9
at-robot loc-x3-y0
at-robot loc-x3-y1
at-robot loc-x3-y10
at-robot loc-x3-y2
at-robot loc-x3-y3
at-robot loc-x3-y4
at-robot loc-x3-y5
at-robot loc-x3-y6
at-robot loc-x3-y7
at-robot loc-x3-y8
at-robot loc-x3-y9
at-robot loc-x4-y0
at-robot loc-x4-y1
at-robot loc-x4-y10
at-robot loc-x4-y2
at-robot loc-x4-y3
at-robot loc-x4-y4
at-robot loc-x4-y5
at-robot loc-x4-y6
at-robot loc-x4-y7
at-robot loc-x4-y8
at-robot loc-x4-y9
at-robot loc-x5-y0
at-robot loc-x5-y1
at-robot loc-x5-y10
at-robot loc-x5-y2
at-robot loc-x5-y3
at-robot loc-x5-y4
at-robot loc-x5-y5
at-robot loc-x5-y6
at-robot loc-x5-y7
at-robot loc-x5-y8
at-robot loc-x5-y9
at-robot loc-x6-y0
at-robot loc-x6-y1
at-robot loc-x6-y10
at-robot loc-x6-y2
at-robot loc-x6-y3
at-robot loc-x6-y4
at-robot loc-x6-y5
at-robot loc-x6-y6
at-robot loc-x6-y7
at-robot loc-x6-y8
at-robot loc-x6-y9
at-robot loc-x7-y0
at-robot loc-x7-y1
at-robot loc-x7-y10
at-robot loc-x7-y2
at-robot loc-x7-y3
at-robot loc-x7-y4
at-robot loc-x7-y5
at-robot loc-x7-y6
at-robot loc-x7-y7
at-robot loc-x7-y8
at-robot loc-x7-y9
at-robot loc-x8-y0
at-robot loc-x8-y1
at-robot loc-x8-y10
at-robot loc-x8-y2
at-robot loc-x8-y3
at-robot loc-x8-y4
at-robot loc-x8-y5
at-robot loc-x8-y6
at-robot loc-x8-y7
at-robot loc-x8-y8
at-robot loc-x8-y9
at-robot loc-x9-y0
at-robot loc-x9-y1
at-robot loc-x9-y10
at-robot loc-x9-y2
at-robot loc-x9-y3
at-robot loc-x9-y4
at-robot loc-x9-y5
at-robot loc-x9-y6
at-robot loc-x9-y7
at-robot loc-x9-y8
at-robot loc-x9-y9
end_variable
begin_variable
var1
-1
2
visited loc-x0-y0
none-of-those
end_variable
begin_variable
var2
-1
2
visited loc-x0-y1
none-of-those
end_variable
begin_variable
var3
-1
2
visited loc-x0-y10
none-of-those
end_variable
begin_variable
var4
-1
2
visited loc-x0-y2
none-of-those
end_variable
begin_variable
var5
-1
2
visited loc-x0-y3
none-of-those
end_variable
begin_variable
var6
-1
2
visited loc-x0-y4
none-of-those
end_variable
begin_variable
var7
-1
2
visited loc-x0-y5
none-of-those
end_variable
begin_variable
var8
-1
2
visited loc-x0-y6
none-of-those
end_variable
begin_variable
var9
-1
2
visited loc-x0-y7
none-of-those
end_variable
begin_variable
var10
-1
2
visited loc-x0-y8
none-of-those
end_variable
begin_variable
var11
-1
2
visited loc-x0-y9
none-of-those
end_variable
begin_variable
var12
-1
2
visited loc-x1-y0
none-of-those
end_variable
begin_variable
var13
-1
2
visited loc-x1-y1
none-of-those
end_variable
begin_variable
var14
-1
2
visited loc-x1-y10
none-of-those
end_variable
begin_variable
var15
-1
2
visited loc-x1-y2
none-of-those
end_variable
begin_variable
var16
-1
2
visited loc-x1-y3
none-of-those
end_variable
begin_variable
var17
-1
2
visited loc-x1-y4
none-of-those
end_variable
begin_variable
var18
-1
2
visited loc-x1-y5
none-of-those
end_variable
begin_variable
var19
-1
2
visited loc-x1-y6
none-of-those
end_variable
begin_variable
var20
-1
2
visited loc-x1-y7
none-of-those
end_variable
begin_variable
var21
-1
2
visited loc-x1-y8
none-of-those
end_variable
begin_variable
var22
-1
2
visited loc-x1-y9
none-of-those
end_variable
begin_variable
var23
-1
2
visited loc-x10-y0
none-of-those
end_variable
begin_variable
var24
-1
2
visited loc-x10-y1
none-of-those
end_variable
begin_variable
var25
-1
2
visited loc-x10-y10
none-of-those
end_variable
begin_variable
var26
-1
2
visited loc-x10-y2
none-of-those
end_variable
begin_variable
var27
-1
2
visited loc-x10-y3
none-of-those
end_variable
begin_variable
var28
-1
2
visited loc-x10-y4
none-of-those
end_variable
begin_variable
var29
-1
2
visited loc-x10-y5
none-of-those
end_variable
begin_variable
var30
-1
2
visited loc-x10-y6
none-of-those
end_variable
begin_variable
var31
-1
2
visited loc-x10-y7
none-of-those
end_variable
begin_variable
var32
-1
2
visited loc-x10-y8
none-of-those
end_variable
begin_variable
var33
-1
2
visited loc-x10-y9
none-of-those
end_variable
begin_variable
var34
-1
2
visited loc-x2-y0
none-of-those
end_variable
begin_variable
var35
-1
2
visited loc-x2-y1
none-of-those
end_variable
begin_variable
var36
-1
2
visited loc-x2-y10
none-of-those
end_variable
begin_variable
var37
-1
2
visited loc-x2-y2
none-of-those
end_variable
begin_variable
var38
-1
2
visited loc-x2-y3
none-of-those
end_variable
begin_variable
var39
-1
2
visited loc-x2-y4
none-of-those
end_variable
begin_variable
var40
-1
2
visited loc-x2-y5
none-of-those
end_variable
begin_variable
var41
-1
2
visited loc-x2-y6
none-of-those
end_variable
begin_variable
var42
-1
2
visited loc-x2-y7
none-of-those
end_variable
begin_variable
var43
-1
2
visited loc-x2-y8
none-of-those
end_variable
begin_variable
var44
-1
2
visited loc-x2-y9
none-of-those
end_variable
begin_variable
var45
-1
2
visited loc-x3-y0
none-of-those
end_variable
begin_variable
var46
-1
2
visited loc-x3-y1
none-of-those
end_variable
begin_variable
var47
-1
2
visited loc-x3-y10
none-of-those
end_variable
begin_variable
var48
-1
2
visited loc-x3-y2
none-of-those
end_variable
begin_variable
var49
-1
2
visited loc-x3-y3
none-of-those
end_variable
begin_variable
var50
-1
2
visited loc-x3-y4
none-of-those
end_variable
begin_variable
var51
-1
2
visited loc-x3-y5
none-of-those
end_variable
begin_variable
var52
-1
2
visited loc-x3-y6
none-of-those
end_variable
begin_variable
var53
-1
2
visited loc-x3-y7
none-of-those
end_variable
begin_variable
var54
-1
2
visited loc-x3-y8
none-of-those
end_variable
begin_variable
var55
-1
2
visited loc-x3-y9
none-of-those
end_variable
begin_variable
var56
-1
2
visited loc-x4-y0
none-of-those
end_variable
begin_variable
var57
-1
2
visited loc-x4-y1
none-of-those
end_variable
begin_variable
var58
-1
2
visited loc-x4-y10
none-of-those
end_variable
begin_variable
var59
-1
2
visited loc-x4-y2
none-of-those
end_variable
begin_variable
var60
-1
2
visited loc-x4-y3
none-of-those
end_variable
begin_variable
var61
-1
2
visited loc-x4-y4
none-of-those
end_variable
begin_variable
var62
-1
2
visited loc-x4-y5
none-of-those
end_variable
begin_variable
var63
-1
2
visited loc-x4-y6
none-of-those
end_variable
begin_variable
var64
-1
2
visited loc-x4-y7
none-of-those
end_variable
begin_variable
var65
-1
2
visited loc-x4-y8
none-of-those
end_variable
begin_variable
var66
-1
2
visited loc-x4-y9
none-of-those
end_variable
begin_variable
var67
-1
2
visited loc-x5-y0
none-of-those
end_variable
begin_variable
var68
-1
2
visited loc-x5-y1
none-of-those
end_variable
begin_variable
var69
-1
2
visited loc-x5-y10
none-of-those
end_variable
begin_variable
var70
-1
2
visited loc-x5-y2
none-of-those
end_variable
begin_variable
var71
-1
2
visited loc-x5-y3
none-of-those
end_variable
begin_variable
var72
-1
2
visited loc-x5-y4
none-of-those
end_variable
begin_variable
var73
-1
2
visited loc-x5-y6
none-of-those
end_variable
begin_variable
var74
-1
2
visited loc-x5-y7
none-of-those
end_variable
begin_variable
var75
-1
2
visited loc-x5-y8
none-of-those
end_variable
begin_variable
var76
-1
2
visited loc-x5-y9
none-of-those
end_variable
begin_variable
var77
-1
2
visited loc-x6-y0
none-of-those
end_variable
begin_variable
var78
-1
2
visited loc-x6-y1
none-of-those
end_variable
begin_variable
var79
-1
2
visited loc-x6-y10
none-of-those
end_variable
begin_variable
var80
-1
2
visited loc-x6-y2
none-of-those
end_variable
begin_variable
var81
-1
2
visited loc-x6-y3
none-of-those
end_variable
begin_variable
var82
-1
2
visited loc-x6-y4
none-of-those
end_variable
begin_variable
var83
-1
2
visited loc-x6-y5
none-of-those
end_variable
begin_variable
var84
-1
2
visited loc-x6-y6
none-of-those
end_variable
begin_variable
var85
-1
2
visited loc-x6-y7
none-of-those
end_variable
begin_variable
var86
-1
2
visited loc-x6-y8
none-of-those
end_variable
begin_variable
var87
-1
2
visited loc-x6-y9
none-of-those
end_variable
begin_variable
var88
-1
2
visited loc-x7-y0
none-of-those
end_variable
begin_variable
var89
-1
2
visited loc-x7-y1
none-of-those
end_variable
begin_variable
var90
-1
2
visited loc-x7-y10
none-of-those
end_variable
begin_variable
var91
-1
2
visited loc-x7-y2
none-of-those
end_variable
begin_variable
var92
-1
2
visited loc-x7-y3
none-of-those
end_variable
begin_variable
var93
-1
2
visited loc-x7-y4
none-of-those
end_variable
begin_variable
var94
-1
2
visited loc-x7-y5
none-of-those
end_variable
begin_variable
var95
-1
2
visited loc-x7-y6
none-of-those
end_variable
begin_variable
var96
-1
2
visited loc-x7-y7
none-of-those
end_variable
begin_variable
var97
-1
2
visited loc-x7-y8
none-of-those
end_variable
begin_variable
var98
-1
2
visited loc-x7-y9
none-of-those
end_variable
begin_variable
var99
-1
2
visited loc-x8-y0
none-of-those
end_variable
begin_variable
var100
-1
2
visited loc-x8-y1
none-of-those
end_variable
begin_variable
var101
-1
2
visited loc-x8-y10
none-of-those
end_variable
begin_variable
var102
-1
2
visited loc-x8-y2
none-of-those
end_variable
begin_variable
var103
-1
2
visited loc-x8-y3
none-of-those
end_variable
begin_variable
var104
-1
2
visited loc-x8-y4
none-of-those
end_variable
begin_variable
var105
-1
2
visited loc-x8-y5
none-of-those
end_variable
begin_variable
var106
-1
2
visited loc-x8-y6
none-of-those
end_variable
begin_variable
var107
-1
2
visited loc-x8-y7
none-of-those
end_variable
begin_variable
var108
-1
2
visited loc-x8-y8
none-of-those
end_variable
begin_variable
var109
-1
2
visited loc-x8-y9
none-of-those
end_variable
begin_variable
var110
-1
2
visited loc-x9-y0
none-of-those
end_variable
begin_variable
var111
-1
2
visited loc-x9-y1
none-of-those
end_variable
begin_variable
var112
-1
2
visited loc-x9-y10
none-of-those
end_variable
begin_variable
var113
-1
2
visited loc-x9-y2
none-of-those
end_variable
begin_variable
var114
-1
2
visited loc-x9-y3
none-of-those
end_variable
begin_variable
var115
-1
2
visited loc-x9-y4
none-of-those
end_variable
begin_variable
var116
-1
2
visited loc-x9-y5
none-of-those
end_variable
begin_variable
var117
-1
2
visited loc-x9-y6
none-of-those
end_variable
begin_variable
var118
-1
2
visited loc-x9-y7
none-of-those
end_variable
begin_variable
var119
-1
2
visited loc-x9-y8
none-of-those
end_variable
begin_variable
var120
-1
2
visited loc-x9-y9
none-of-those
end_variable
1
begin_mutex_group
121
0 0
0 1
0 2
0 3
0 4
0 5
0 6
0 7
0 8
0 9
0 10
0 11
0 12
0 13
0 14
0 15
0 16
0 17
0 18
0 19
0 20
0 21
0 22
0 23
0 24
0 25
0 26
0 27
0 28
0 29
0 30
0 31
0 32
0 33
0 34
0 35
0 36
0 37
0 38
0 39
0 40
0 41
0 42
0 43
0 44
0 45
0 46
0 47
0 48
0 49
0 50
0 51
0 52
0 53
0 54
0 55
0 56
0 57
0 58
0 59
0 60
0 61
0 62
0 63
0 64
0 65
0 66
0 67
0 68
0 69
0 70
0 71
0 72
0 73
0 74
0 75
0 76
0 77
0 78
0 79
0 80
0 81
0 82
0 83
0 84
0 85
0 86
0 87
0 88
0 89
0 90
0 91
0 92
0 93
0 94
0 95
0 96
0 97
0 98
0 99
0 100
0 101
0 102
0 103
0 104
0 105
0 106
0 107
0 108
0 109
0 110
0 111
0 112
0 113
0 114
0 115
0 116
0 117
0 118
0 119
0 120
end_mutex_group
begin_state
72
1
1
1
1
1
1
1
1
1
1
1
1
1
1
1
1
1
1
1
1
1
1
1
1
1
1
1
1
1
1
1
1
1
1
1
1
1
1
1
1
1
1
1
1
1
1
1
1
1
1
1
1
1
1
1
1
1
1
1
1
1
1
1
1
1
1
1
1
1
1
1
1
1
1
1
1
1
1
1
1
1
1
1
1
1
1
1
1
1
1
1
1
1
1
1
1
1
1
1
1
1
1
1
1
1
1
1
1
1
1
1
1
1
1
1
1
1
1
1
1
end_state
begin_goal
120
1 0
2 0
3 0
4 0
5 0
6 0
7 0
8 0
9 0
10 0
11 0
12 0
13 0
14 0
15 0
16 0
17 0
18 0
19 0
20 0
21 0
22 0
23 0
24 0
25 0
26 0
27 0
28 0
29 0
30 0
31 0
32 0
33 0
34 0
35 0
36 0
37 0
38 0
39 0
40 0
41 0
42 0
43 0
44 0
45 0
46 0
47 0
48 0
49 0
50 0
51 0
52 0
53 0
54 0
55 0
56 0
57 0
58 0
59 0
60 0
61 0
62 0
63 0
64 0
65 0
66 0
67 0
68 0
69 0
70 0
71 0
72 0
73 0
74 0
75 0
76 0
77 0
78 0
79 0
80 0
81 0
82 0
83 0
84 0
85 0
86 0
87 0
88 0
89 0
90 0
91 0
92 0
93 0
94 0
95 0
96 0
97 0
98 0
99 0
100 0
101 0
102 0
103 0
104 0
105 0
106 0
107 0
108 0
109 0
110 0
111 0
112 0
113 0
114 0
115 0
116 0
117 0
118 0
119 0
120 0
end_goal
440
begin_operator
move loc-x0-y0 loc-x0-y1
0
2
0 0 0 1
0 2 -1 0
1
end_operator
begin_operator
move loc-x0-y0 loc-x1-y0
0
2
0 0 0 11
0 12 -1 0
1
end_operator
begin_operator
move loc-x0-y1 loc-x0-y0
0
2
0 0 1 0
0 1 -1 0
1
end_operator
begin_operator
move loc-x0-y1 loc-x0-y2
0
2
0 0 1 3
0 4 -1 0
1
end_operator
begin_operator
move loc-x0-y1 loc-x1-y1
0
2
0 0 1 12
0 13 -1 0
1
end_operator
begin_operator
move loc-x0-y10 loc-x0-y9
0
2
0 0 2 10
0 11 -1 0
1
end_operator
begin_operator
move loc-x0-y10 loc-x1-y10
0
2
0 0 2 13
0 14 -1 0
1
end_operator
begin_operator
move loc-x0-y2 loc-x0-y1
0
2
0 0 3 1
0 2 -1 0
1
end_operator
begin_operator
move loc-x0-y2 loc-x0-y3
0
2
0 0 3 4
0 5 -1 0
1
end_operator
begin_operator
move loc-x0-y2 loc-x1-y2
0
2
0 0 3 14
0 15 -1 0
1
end_operator
begin_operator
move loc-x0-y3 loc-x0-y2
0
2
0 0 4 3
0 4 -1 0
1
end_operator
begin_operator
move loc-x0-y3 loc-x0-y4
0
2
0 0 4 5
0 6 -1 0
1
end_operator
begin_operator
move loc-x0-y3 loc-x1-y3
0
2
0 0 4 15
0 16 -1 0
1
end_operator
begin_operator
move loc-x0-y4 loc-x0-y3
0
2
0 0 5 4
0 5 -1 0
1
end_operator
begin_operator
move loc-x0-y4 loc-x0-y5
0
2
0 0 5 6
0 7 -1 0
1
end_operator
begin_operator
move loc-x0-y4 loc-x1-y4
0
2
0 0 5 16
0 17 -1 0
1
end_operator
begin_operator
move loc-x0-y5 loc-x0-y4
0
2
0 0 6 5
0 6 -1 0
1
end_operator
begin_operator
move loc-x0-y5 loc-x0-y6
0
2
0 0 6 7
0 8 -1 0
1
end_operator
begin_operator
move loc-x0-y5 loc-x1-y5
0
2
0 0 6 17
0 18 -1 0
1
end_operator
begin_operator
move loc-x0-y6 loc-x0-y5
0
2
0 0 7 6
0 7 -1 0
1
end_operator
begin_operator
move loc-x0-y6 loc-x0-y7
0
2
0 0 7 8
0 9 -1 0
1
end_operator
begin_operator
move loc-x0-y6 loc-x1-y6
0
2
0 0 7 18
0 19 -1 0
1
end_operator
begin_operator
move loc-x0-y7 loc-x0-y6
0
2
0 0 8 7
0 8 -1 0
1
end_operator
begin_operator
move loc-x0-y7 loc-x0-y8
0
2
0 0 8 9
0 10 -1 0
1
end_operator
begin_operator
move loc-x0-y7 loc-x1-y7
0
2
0 0 8 19
0 20 -1 0
1
end_operator
begin_operator
move loc-x0-y8 loc-x0-y7
0
2
0 0 9 8
0 9 -1 0
1
end_operator
begin_operator
move loc-x0-y8 loc-x0-y9
0
2
0 0 9 10
0 11 -1 0
1
end_operator
begin_operator
move loc-x0-y8 loc-x1-y8
0
2
0 0 9 20
0 21 -1 0
1
end_operator
begin_operator
move loc-x0-y9 loc-x0-y10
0
2
0 0 10 2
0 3 -1 0
1
end_operator
begin_operator
move loc-x0-y9 loc-x0-y8
0
2
0 0 10 9
0 10 -1 0
1
end_operator
begin_operator
move loc-x0-y9 loc-x1-y9
0
2
0 0 10 21
0 22 -1 0
1
end_operator
begin_operator
move loc-x1-y0 loc-x0-y0
0
2
0 0 11 0
0 1 -1 0
1
end_operator
begin_operator
move loc-x1-y0 loc-x1-y1
0
2
0 0 11 12
0 13 -1 0
1
end_operator
begin_operator
move loc-x1-y0 loc-x2-y0
0
2
0 0 11 33
0 34 -1 0
1
end_operator
begin_operator
move loc-x1-y1 loc-x0-y1
0
2
0 0 12 1
0 2 -1 0
1
end_operator
begin_operator
move loc-x1-y1 loc-x1-y0
0
2
0 0 12 11
0 12 -1 0
1
end_operator
begin_operator
move loc-x1-y1 loc-x1-y2
0
2
0 0 12 14
0 15 -1 0
1
end_operator
begin_operator
move loc-x1-y1 loc-x2-y1
0
2
0 0 12 34
0 35 -1 0
1
end_operator
begin_operator
move loc-x1-y10 loc-x0-y10
0
2
0 0 13 2
0 3 -1 0
1
end_operator
begin_operator
move loc-x1-y10 loc-x1-y9
0
2
0 0 13 21
0 22 -1 0
1
end_operator
begin_operator
move loc-x1-y10 loc-x2-y10
0
2
0 0 13 35
0 36 -1 0
1
end_operator
begin_operator
move loc-x1-y2 loc-x0-y2
0
2
0 0 14 3
0 4 -1 0
1
end_operator
begin_operator
move loc-x1-y2 loc-x1-y1
0
2
0 0 14 12
0 13 -1 0
1
end_operator
begin_operator
move loc-x1-y2 loc-x1-y3
0
2
0 0 14 15
0 16 -1 0
1
end_operator
begin_operator
move loc-x1-y2 loc-x2-y2
0
2
0 0 14 36
0 37 -1 0
1
end_operator
begin_operator
move loc-x1-y3 loc-x0-y3
0
2
0 0 15 4
0 5 -1 0
1
end_operator
begin_operator
move loc-x1-y3 loc-x1-y2
0
2
0 0 15 14
0 15 -1 0
1
end_operator
begin_operator
move loc-x1-y3 loc-x1-y4
0
2
0 0 15 16
0 17 -1 0
1
end_operator
begin_operator
move loc-x1-y3 loc-x2-y3
0
2
0 0 15 37
0 38 -1 0
1
end_operator
begin_operator
move loc-x1-y4 loc-x0-y4
0
2
0 0 16 5
0 6 -1 0
1
end_operator
begin_operator
move loc-x1-y4 loc-x1-y3
0
2
0 0 16 15
0 16 -1 0
1
end_operator
begin_operator
move loc-x1-y4 loc-x1-y5
0
2
0 0 16 17
0 18 -1 0
1
end_operator
begin_operator
move loc-x1-y4 loc-x2-y4
0
2
0 0 16 38
0 39 -1 0
1
end_operator
begin_operator
move loc-x1-y5 loc-x0-y5
0
2
0 0 17 6
0 7 -1 0
1
end_operator
begin_operator
move loc-x1-y5 loc-x1-y4
0
2
0 0 17 16
0 17 -1 0
1
end_operator
begin_operator
move loc-x1-y5 loc-x1-y6
0
2
0 0 17 18
0 19 -1 0
1
end_operator
begin_operator
move loc-x1-y5 loc-x2-y5
0
2
0 0 17 39
0 40 -1 0
1
end_operator
begin_operator
move loc-x1-y6 loc-x0-y6
0
2
0 0 18 7
0 8 -1 0
1
end_operator
begin_operator
move loc-x1-y6 loc-x1-y5
0
2
0 0 18 17
0 18 -1 0
1
end_operator
begin_operator
move loc-x1-y6 loc-x1-y7
0
2
0 0 18 19
0 20 -1 0
1
end_operator
begin_operator
move loc-x1-y6 loc-x2-y6
0
2
0 0 18 40
0 41 -1 0
1
end_operator
begin_operator
move loc-x1-y7 loc-x0-y7
0
2
0 0 19 8
0 9 -1 0
1
end_operator
begin_operator
move loc-x1-y7 loc-x1-y6
0
2
0 0 19 18
0 19 -1 0
1
end_operator
begin_operator
move loc-x1-y7 loc-x1-y8
0
2
0 0 19 20
0 21 -1 0
1
end_operator
begin_operator
move loc-x1-y7 loc-x2-y7
0
2
0 0 19 41
0 42 -1 0
1
end_operator
begin_operator
move loc-x1-y8 loc-x0-y8
0
2
0 0 20 9
0 10 -1 0
1
end_operator
begin_operator
move loc-x1-y8 loc-x1-y7
0
2
0 0 20 19
0 20 -1 0
1
end_operator
begin_operator
move loc-x1-y8 loc-x1-y9
0
2
0 0 20 21
0 22 -1 0
1
end_operator
begin_operator
move loc-x1-y8 loc-x2-y8
0
2
0 0 20 42
0 43 -1 0
1
end_operator
begin_operator
move loc-x1-y9 loc-x0-y9
0
2
0 0 21 10
0 11 -1 0
1
end_operator
begin_operator
move loc-x1-y9 loc-x1-y10
0
2
0 0 21 13
0 14 -1 0
1
end_operator
begin_operator
move loc-x1-y9 loc-x1-y8
0
2
0 0 21 20
0 21 -1 0
1
end_operator
begin_operator
move loc-x1-y9 loc-x2-y9
0
2
0 0 21 43
0 44 -1 0
1
end_operator
begin_operator
move loc-x10-y0 loc-x10-y1
0
2
0 0 22 23
0 24 -1 0
1
end_operator
begin_operator
move loc-x10-y0 loc-x9-y0
0
2
0 0 22 110
0 110 -1 0
1
end_operator
begin_operator
move loc-x10-y1 loc-x10-y0
0
2
0 0 23 22
0 23 -1 0
1
end_operator
begin_operator
move loc-x10-y1 loc-x10-y2
0
2
0 0 23 25
0 26 -1 0
1
end_operator
begin_operator
move loc-x10-y1 loc-x9-y1
0
2
0 0 23 111
0 111 -1 0
1
end_operator
begin_operator
move loc-x10-y10 loc-x10-y9
0
2
0 0 24 32
0 33 -1 0
1
end_operator
begin_operator
move loc-x10-y10 loc-x9-y10
0
2
0 0 24 112
0 112 -1 0
1
end_operator
begin_operator
move loc-x10-y2 loc-x10-y1
0
2
0 0 25 23
0 24 -1 0
1
end_operator
begin_operator
move loc-x10-y2 loc-x10-y3
0
2
0 0 25 26
0 27 -1 0
1
end_operator
begin_operator
move loc-x10-y2 loc-x9-y2
0
2
0 0 25 113
0 113 -1 0
1
end_operator
begin_operator
move loc-x10-y3 loc-x10-y2
0
2
0 0 26 25
0 26 -1 0
1
end_operator
begin_operator
move loc-x10-y3 loc-x10-y4
0
2
0 0 26 27
0 28 -1 0
1
end_operator
begin_operator
move loc-x10-y3 loc-x9-y3
0
2
0 0 26 114
0 114 -1 0
1
end_operator
begin_operator
move loc-x10-y4 loc-x10-y3
0
2
0 0 27 26
0 27 -1 0
1
end_operator
begin_operator
move loc-x10-y4 loc-x10-y5
0
2
0 0 27 28
0 29 -1 0
1
end_operator
begin_operator
move loc-x10-y4 loc-x9-y4
0
2
0 0 27 115
0 115 -1 0
1
end_operator
begin_operator
move loc-x10-y5 loc-x10-y4
0
2
0 0 28 27
0 28 -1 0
1
end_operator
begin_operator
move loc-x10-y5 loc-x10-y6
0
2
0 0 28 29
0 30 -1 0
1
end_operator
begin_operator
move loc-x10-y5 loc-x9-y5
0
2
0 0 28 116
0 116 -1 0
1
end_operator
begin_operator
move loc-x10-y6 loc-x10-y5
0
2
0 0 29 28
0 29 -1 0
1
end_operator
begin_operator
move loc-x10-y6 loc-x10-y7
0
2
0 0 29 30
0 31 -1 0
1
end_operator
begin_operator
move loc-x10-y6 loc-x9-y6
0
2
0 0 29 117
0 117 -1 0
1
end_operator
begin_operator
move loc-x10-y7 loc-x10-y6
0
2
0 0 30 29
0 30 -1 0
1
end_operator
begin_operator
move loc-x10-y7 loc-x10-y8
0
2
0 0 30 31
0 32 -1 0
1
end_operator
begin_operator
move loc-x10-y7 loc-x9-y7
0
2
0 0 30 118
0 118 -1 0
1
end_operator
begin_operator
move loc-x10-y8 loc-x10-y7
0
2
0 0 31 30
0 31 -1 0
1
end_operator
begin_operator
move loc-x10-y8 loc-x10-y9
0
2
0 0 31 32
0 33 -1 0
1
end_operator
begin_operator
move loc-x10-y8 loc-x9-y8
0
2
0 0 31 119
0 119 -1 0
1
end_operator
begin_operator
move loc-x10-y9 loc-x10-y10
0
2
0 0 32 24
0 25 -1 0
1
end_operator
begin_operator
move loc-x10-y9 loc-x10-y8
0
2
0 0 32 31
0 32 -1 0
1
end_operator
begin_operator
move loc-x10-y9 loc-x9-y9
0
2
0 0 32 120
0 120 -1 0
1
end_operator
begin_operator
move loc-x2-y0 loc-x1-y0
0
2
0 0 33 11
0 12 -1 0
1
end_operator
begin_operator
move loc-x2-y0 loc-x2-y1
0
2
0 0 33 34
0 35 -1 0
1
end_operator
begin_operator
move loc-x2-y0 loc-x3-y0
0
2
0 0 33 44
0 45 -1 0
1
end_operator
begin_operator
move loc-x2-y1 loc-x1-y1
0
2
0 0 34 12
0 13 -1 0
1
end_operator
begin_operator
move loc-x2-y1 loc-x2-y0
0
2
0 0 34 33
0 34 -1 0
1
end_operator
begin_operator
move loc-x2-y1 loc-x2-y2
0
2
0 0 34 36
0 37 -1 0
1
end_operator
begin_operator
move loc-x2-y1 loc-x3-y1
0
2
0 0 34 45
0 46 -1 0
1
end_operator
begin_operator
move loc-x2-y10 loc-x1-y10
0
2
0 0 35 13
0 14 -1 0
1
end_operator
begin_operator
move loc-x2-y10 loc-x2-y9
0
2
0 0 35 43
0 44 -1 0
1
end_operator
begin_operator
move loc-x2-y10 loc-x3-y10
0
2
0 0 35 46
0 47 -1 0
1
end_operator
begin_operator
move loc-x2-y2 loc-x1-y2
0
2
0 0 36 14
0 15 -1 0
1
end_operator
begin_operator
move loc-x2-y2 loc-x2-y1
0
2
0 0 36 34
0 35 -1 0
1
end_operator
begin_operator
move loc-x2-y2 loc-x2-y3
0
2
0 0 36 37
0 38 -1 0
1
end_operator
begin_operator
move loc-x2-y2 loc-x3-y2
0
2
0 0 36 47
0 48 -1 0
1
end_operator
begin_operator
move loc-x2-y3 loc-x1-y3
0
2
0 0 37 15
0 16 -1 0
1
end_operator
begin_operator
move loc-x2-y3 loc-x2-y2
0
2
0 0 37 36
0 37 -1 0
1
end_operator
begin_operator
move loc-x2-y3 loc-x2-y4
0
2
0 0 37 38
0 39 -1 0
1
end_operator
begin_operator
move loc-x2-y3 loc-x3-y3
0
2
0 0 37 48
0 49 -1 0
1
end_operator
begin_operator
move loc-x2-y4 loc-x1-y4
0
2
0 0 38 16
0 17 -1 0
1
end_operator
begin_operator
move loc-x2-y4 loc-x2-y3
0
2
0 0 38 37
0 38 -1 0
1
end_operator
begin_operator
move loc-x2-y4 loc-x2-y5
0
2
0 0 38 39
0 40 -1 0
1
end_operator
begin_operator
move loc-x2-y4 loc-x3-y4
0
2
0 0 38 49
0 50 -1 0
1
end_operator
begin_operator
move loc-x2-y5 loc-x1-y5
0
2
0 0 39 17
0 18 -1 0
1
end_operator
begin_operator
move loc-x2-y5 loc-x2-y4
0
2
0 0 39 38
0 39 -1 0
1
end_operator
begin_operator
move loc-x2-y5 loc-x2-y6
0
2
0 0 39 40
0 41 -1 0
1
end_operator
begin_operator
move loc-x2-y5 loc-x3-y5
0
2
0 0 39 50
0 51 -1 0
1
end_operator
begin_operator
move loc-x2-y6 loc-x1-y6
0
2
0 0 40 18
0 19 -1 0
1
end_operator
begin_operator
move loc-x2-y6 loc-x2-y5
0
2
0 0 40 39
0 40 -1 0
1
end_operator
begin_operator
move loc-x2-y6 loc-x2-y7
0
2
0 0 40 41
0 42 -1 0
1
end_operator
begin_operator
move loc-x2-y6 loc-x3-y6
0
2
0 0 40 51
0 52 -1 0
1
end_operator
begin_operator
move loc-x2-y7 loc-x1-y7
0
2
0 0 41 19
0 20 -1 0
1
end_operator
begin_operator
move loc-x2-y7 loc-x2-y6
0
2
0 0 41 40
0 41 -1 0
1
end_operator
begin_operator
move loc-x2-y7 loc-x2-y8
0
2
0 0 41 42
0 43 -1 0
1
end_operator
begin_operator
move loc-x2-y7 loc-x3-y7
0
2
0 0 41 52
0 53 -1 0
1
end_operator
begin_operator
move loc-x2-y8 loc-x1-y8
0
2
0 0 42 20
0 21 -1 0
1
end_operator
begin_operator
move loc-x2-y8 loc-x2-y7
0
2
0 0 42 41
0 42 -1 0
1
end_operator
begin_operator
move loc-x2-y8 loc-x2-y9
0
2
0 0 42 43
0 44 -1 0
1
end_operator
begin_operator
move loc-x2-y8 loc-x3-y8
0
2
0 0 42 53
0 54 -1 0
1
end_operator
begin_operator
move loc-x2-y9 loc-x1-y9
0
2
0 0 43 21
0 22 -1 0
1
end_operator
begin_operator
move loc-x2-y9 loc-x2-y10
0
2
0 0 43 35
0 36 -1 0
1
end_operator
begin_operator
move loc-x2-y9 loc-x2-y8
0
2
0 0 43 42
0 43 -1 0
1
end_operator
begin_operator
move loc-x2-y9 loc-x3-y9
0
2
0 0 43 54
0 55 -1 0
1
end_operator
begin_operator
move loc-x3-y0 loc-x2-y0
0
2
0 0 44 33
0 34 -1 0
1
end_operator
begin_operator
move loc-x3-y0 loc-x3-y1
0
2
0 0 44 45
0 46 -1 0
1
end_operator
begin_operator
move loc-x3-y0 loc-x4-y0
0
2
0 0 44 55
0 56 -1 0
1
end_operator
begin_operator
move loc-x3-y1 loc-x2-y1
0
2
0 0 45 34
0 35 -1 0
1
end_operator
begin_operator
move loc-x3-y1 loc-x3-y0
0
2
0 0 45 44
0 45 -1 0
1
end_operator
begin_operator
move loc-x3-y1 loc-x3-y2
0
2
0 0 45 47
0 48 -1 0
1
end_operator
begin_operator
move loc-x3-y1 loc-x4-y1
0
2
0 0 45 56
0 57 -1 0
1
end_operator
begin_operator
move loc-x3-y10 loc-x2-y10
0
2
0 0 46 35
0 36 -1 0
1
end_operator
begin_operator
move loc-x3-y10 loc-x3-y9
0
2
0 0 46 54
0 55 -1 0
1
end_operator
begin_operator
move loc-x3-y10 loc-x4-y10
0
2
0 0 46 57
0 58 -1 0
1
end_operator
begin_operator
move loc-x3-y2 loc-x2-y2
0
2
0 0 47 36
0 37 -1 0
1
end_operator
begin_operator
move loc-x3-y2 loc-x3-y1
0
2
0 0 47 45
0 46 -1 0
1
end_operator
begin_operator
move loc-x3-y2 loc-x3-y3
0
2
0 0 47 48
0 49 -1 0
1
end_operator
begin_operator
move loc-x3-y2 loc-x4-y2
0
2
0 0 47 58
0 59 -1 0
1
end_operator
begin_operator
move loc-x3-y3 loc-x2-y3
0
2
0 0 48 37
0 38 -1 0
1
end_operator
begin_operator
move loc-x3-y3 loc-x3-y2
0
2
0 0 48 47
0 48 -1 0
1
end_operator
begin_operator
move loc-x3-y3 loc-x3-y4
0
2
0 0 48 49
0 50 -1 0
1
end_operator
begin_operator
move loc-x3-y3 loc-x4-y3
0
2
0 0 48 59
0 60 -1 0
1
end_operator
begin_operator
move loc-x3-y4 loc-x2-y4
0
2
0 0 49 38
0 39 -1 0
1
end_operator
begin_operator
move loc-x3-y4 loc-x3-y3
0
2
0 0 49 48
0 49 -1 0
1
end_operator
begin_operator
move loc-x3-y4 loc-x3-y5
0
2
0 0 49 50
0 51 -1 0
1
end_operator
begin_operator
move loc-x3-y4 loc-x4-y4
0
2
0 0 49 60
0 61 -1 0
1
end_operator
begin_operator
move loc-x3-y5 loc-x2-y5
0
2
0 0 50 39
0 40 -1 0
1
end_operator
begin_operator
move loc-x3-y5 loc-x3-y4
0
2
0 0 50 49
0 50 -1 0
1
end_operator
begin_operator
move loc-x3-y5 loc-x3-y6
0
2
0 0 50 51
0 52 -1 0
1
end_operator
begin_operator
move loc-x3-y5 loc-x4-y5
0
2
0 0 50 61
0 62 -1 0
1
end_operator
begin_operator
move loc-x3-y6 loc-x2-y6
0
2
0 0 51 40
0 41 -1 0
1
end_operator
begin_operator
move loc-x3-y6 loc-x3-y5
0
2
0 0 51 50
0 51 -1 0
1
end_operator
begin_operator
move loc-x3-y6 loc-x3-y7
0
2
0 0 51 52
0 53 -1 0
1
end_operator
begin_operator
move loc-x3-y6 loc-x4-y6
0
2
0 0 51 62
0 63 -1 0
1
end_operator
begin_operator
move loc-x3-y7 loc-x2-y7
0
2
0 0 52 41
0 42 -1 0
1
end_operator
begin_operator
move loc-x3-y7 loc-x3-y6
0
2
0 0 52 51
0 52 -1 0
1
end_operator
begin_operator
move loc-x3-y7 loc-x3-y8
0
2
0 0 52 53
0 54 -1 0
1
end_operator
begin_operator
move loc-x3-y7 loc-x4-y7
0
2
0 0 52 63
0 64 -1 0
1
end_operator
begin_operator
move loc-x3-y8 loc-x2-y8
0
2
0 0 53 42
0 43 -1 0
1
end_operator
begin_operator
move loc-x3-y8 loc-x3-y7
0
2
0 0 53 52
0 53 -1 0
1
end_operator
begin_operator
move loc-x3-y8 loc-x3-y9
0
2
0 0 53 54
0 55 -1 0
1
end_operator
begin_operator
move loc-x3-y8 loc-x4-y8
0
2
0 0 53 64
0 65 -1 0
1
end_operator
begin_operator
move loc-x3-y9 loc-x2-y9
0
2
0 0 54 43
0 44 -1 0
1
end_operator
begin_operator
move loc-x3-y9 loc-x3-y10
0
2
0 0 54 46
0 47 -1 0
1
end_operator
begin_operator
move loc-x3-y9 loc-x3-y8
0
2
0 0 54 53
0 54 -1 0
1
end_operator
begin_operator
move loc-x3-y9 loc-x4-y9
0
2
0 0 54 65
0 66 -1 0
1
end_operator
begin_operator
move loc-x4-y0 loc-x3-y0
0
2
0 0 55 44
0 45 -1 0
1
end_operator
begin_operator
move loc-x4-y0 loc-x4-y1
0
2
0 0 55 56
0 57 -1 0
1
end_operator
begin_operator
move loc-x4-y0 loc-x5-y0
0
2
0 0 55 66
0 67 -1 0
1
end_operator
begin_operator
move loc-x4-y1 loc-x3-y1
0
2
0 0 56 45
0 46 -1 0
1
end_operator
begin_operator
move loc-x4-y1 loc-x4-y0
0
2
0 0 56 55
0 56 -1 0
1
end_operator
begin_operator
move loc-x4-y1 loc-x4-y2
0
2
0 0 56 58
0 59 -1 0
1
end_operator
begin_operator
move loc-x4-y1 loc-x5-y1
0
2
0 0 56 67
0 68 -1 0
1
end_operator
begin_operator
move loc-x4-y10 loc-x3-y10
0
2
0 0 57 46
0 47 -1 0
1
end_operator
begin_operator
move loc-x4-y10 loc-x4-y9
0
2
0 0 57 65
0 66 -1 0
1
end_operator
begin_operator
move loc-x4-y10 loc-x5-y10
0
2
0 0 57 68
0 69 -1 0
1
end_operator
begin_operator
move loc-x4-y2 loc-x3-y2
0
2
0 0 58 47
0 48 -1 0
1
end_operator
begin_operator
move loc-x4-y2 loc-x4-y1
0
2
0 0 58 56
0 57 -1 0
1
end_operator
begin_operator
move loc-x4-y2 loc-x4-y3
0
2
0 0 58 59
0 60 -1 0
1
end_operator
begin_operator
move loc-x4-y2 loc-x5-y2
0
2
0 0 58 69
0 70 -1 0
1
end_operator
begin_operator
move loc-x4-y3 loc-x3-y3
0
2
0 0 59 48
0 49 -1 0
1
end_operator
begin_operator
move loc-x4-y3 loc-x4-y2
0
2
0 0 59 58
0 59 -1 0
1
end_operator
begin_operator
move loc-x4-y3 loc-x4-y4
0
2
0 0 59 60
0 61 -1 0
1
end_operator
begin_operator
move loc-x4-y3 loc-x5-y3
0
2
0 0 59 70
0 71 -1 0
1
end_operator
begin_operator
move loc-x4-y4 loc-x3-y4
0
2
0 0 60 49
0 50 -1 0
1
end_operator
begin_operator
move loc-x4-y4 loc-x4-y3
0
2
0 0 60 59
0 60 -1 0
1
end_operator
begin_operator
move loc-x4-y4 loc-x4-y5
0
2
0 0 60 61
0 62 -1 0
1
end_operator
begin_operator
move loc-x4-y4 loc-x5-y4
0
2
0 0 60 71
0 72 -1 0
1
end_operator
begin_operator
move loc-x4-y5 loc-x3-y5
0
2
0 0 61 50
0 51 -1 0
1
end_operator
begin_operator
move loc-x4-y5 loc-x4-y4
0
2
0 0 61 60
0 61 -1 0
1
end_operator
begin_operator
move loc-x4-y5 loc-x4-y6
0
2
0 0 61 62
0 63 -1 0
1
end_operator
begin_operator
move loc-x4-y5 loc-x5-y5
0
1
0 0 61 72
1
end_operator
begin_operator
move loc-x4-y6 loc-x3-y6
0
2
0 0 62 51
0 52 -1 0
1
end_operator
begin_operator
move loc-x4-y6 loc-x4-y5
0
2
0 0 62 61
0 62 -1 0
1
end_operator
begin_operator
move loc-x4-y6 loc-x4-y7
0
2
0 0 62 63
0 64 -1 0
1
end_operator
begin_operator
move loc-x4-y6 loc-x5-y6
0
2
0 0 62 73
0 73 -1 0
1
end_operator
begin_operator
move loc-x4-y7 loc-x3-y7
0
2
0 0 63 52
0 53 -1 0
1
end_operator
begin_operator
move loc-x4-y7 loc-x4-y6
0
2
0 0 63 62
0 63 -1 0
1
end_operator
begin_operator
move loc-x4-y7 loc-x4-y8
0
2
0 0 63 64
0 65 -1 0
1
end_operator
begin_operator
move loc-x4-y7 loc-x5-y7
0
2
0 0 63 74
0 74 -1 0
1
end_operator
begin_operator
move loc-x4-y8 loc-x3-y8
0
2
0 0 64 53
0 54 -1 0
1
end_operator
begin_operator
move loc-x4-y8 loc-x4-y7
0
2
0 0 64 63
0 64 -1 0
1
end_operator
begin_operator
move loc-x4-y8 loc-x4-y9
0
2
0 0 64 65
0 66 -1 0
1
end_operator
begin_operator
move loc-x4-y8 loc-x5-y8
0
2
0 0 64 75
0 75 -1 0
1
end_operator
begin_operator
move loc-x4-y9 loc-x3-y9
0
2
0 0 65 54
0 55 -1 0
1
end_operator
begin_operator
move loc-x4-y9 loc-x4-y10
0
2
0 0 65 57
0 58 -1 0
1
end_operator
begin_operator
move loc-x4-y9 loc-x4-y8
0
2
0 0 65 64
0 65 -1 0
1
end_operator
begin_operator
move loc-x4-y9 loc-x5-y9
0
2
0 0 65 76
0 76 -1 0
1
end_operator
begin_operator
move loc-x5-y0 loc-x4-y0
0
2
0 0 66 55
0 56 -1 0
1
end_operator
begin_operator
move loc-x5-y0 loc-x5-y1
0
2
0 0 66 67
0 68 -1 0
1
end_operator
begin_operator
move loc-x5-y0 loc-x6-y0
0
2
0 0 66 77
0 77 -1 0
1
end_operator
begin_operator
move loc-x5-y1 loc-x4-y1
0
2
0 0 67 56
0 57 -1 0
1
end_operator
begin_operator
move loc-x5-y1 loc-x5-y0
0
2
0 0 67 66
0 67 -1 0
1
end_operator
begin_operator
move loc-x5-y1 loc-x5-y2
0
2
0 0 67 69
0 70 -1 0
1
end_operator
begin_operator
move loc-x5-y1 loc-x6-y1
0
2
0 0 67 78
0 78 -1 0
1
end_operator
begin_operator
move loc-x5-y10 loc-x4-y10
0
2
0 0 68 57
0 58 -1 0
1
end_operator
begin_operator
move loc-x5-y10 loc-x5-y9
0
2
0 0 68 76
0 76 -1 0
1
end_operator
begin_operator
move loc-x5-y10 loc-x6-y10
0
2
0 0 68 79
0 79 -1 0
1
end_operator
begin_operator
move loc-x5-y2 loc-x4-y2
0
2
0 0 69 58
0 59 -1 0
1
end_operator
begin_operator
move loc-x5-y2 loc-x5-y1
0
2
0 0 69 67
0 68 -1 0
1
end_operator
begin_operator
move loc-x5-y2 loc-x5-y3
0
2
0 0 69 70
0 71 -1 0
1
end_operator
begin_operator
move loc-x5-y2 loc-x6-y2
0
2
0 0 69 80
0 80 -1 0
1
end_operator
begin_operator
move loc-x5-y3 loc-x4-y3
0
2
0 0 70 59
0 60 -1 0
1
end_operator
begin_operator
move loc-x5-y3 loc-x5-y2
0
2
0 0 70 69
0 70 -1 0
1
end_operator
begin_operator
move loc-x5-y3 loc-x5-y4
0
2
0 0 70 71
0 72 -1 0
1
end_operator
begin_operator
move loc-x5-y3 loc-x6-y3
0
2
0 0 70 81
0 81 -1 0
1
end_operator
begin_operator
move loc-x5-y4 loc-x4-y4
0
2
0 0 71 60
0 61 -1 0
1
end_operator
begin_operator
move loc-x5-y4 loc-x5-y3
0
2
0 0 71 70
0 71 -1 0
1
end_operator
begin_operator
move loc-x5-y4 loc-x5-y5
0
1
0 0 71 72
1
end_operator
begin_operator
move loc-x5-y4 loc-x6-y4
0
2
0 0 71 82
0 82 -1 0
1
end_operator
begin_operator
move loc-x5-y5 loc-x4-y5
0
2
0 0 72 61
0 62 -1 0
1
end_operator
begin_operator
move loc-x5-y5 loc-x5-y4
0
2
0 0 72 71
0 72 -1 0
1
end_operator
begin_operator
move loc-x5-y5 loc-x5-y6
0
2
0 0 72 73
0 73 -1 0
1
end_operator
begin_operator
move loc-x5-y5 loc-x6-y5
0
2
0 0 72 83
0 83 -1 0
1
end_operator
begin_operator
move loc-x5-y6 loc-x4-y6
0
2
0 0 73 62
0 63 -1 0
1
end_operator
begin_operator
move loc-x5-y6 loc-x5-y5
0
1
0 0 73 72
1
end_operator
begin_operator
move loc-x5-y6 loc-x5-y7
0
2
0 0 73 74
0 74 -1 0
1
end_operator
begin_operator
move loc-x5-y6 loc-x6-y6
0
2
0 0 73 84
0 84 -1 0
1
end_operator
begin_operator
move loc-x5-y7 loc-x4-y7
0
2
0 0 74 63
0 64 -1 0
1
end_operator
begin_operator
move loc-x5-y7 loc-x5-y6
0
2
0 0 74 73
0 73 -1 0
1
end_operator
begin_operator
move loc-x5-y7 loc-x5-y8
0
2
0 0 74 75
0 75 -1 0
1
end_operator
begin_operator
move loc-x5-y7 loc-x6-y7
0
2
0 0 74 85
0 85 -1 0
1
end_operator
begin_operator
move loc-x5-y8 loc-x4-y8
0
2
0 0 75 64
0 65 -1 0
1
end_operator
begin_operator
move loc-x5-y8 loc-x5-y7
0
2
0 0 75 74
0 74 -1 0
1
end_operator
begin_operator
move loc-x5-y8 loc-x5-y9
0
2
0 0 75 76
0 76 -1 0
1
end_operator
begin_operator
move loc-x5-y8 loc-x6-y8
0
2
0 0 75 86
0 86 -1 0
1
end_operator
begin_operator
move loc-x5-y9 loc-x4-y9
0
2
0 0 76 65
0 66 -1 0
1
end_operator
begin_operator
move loc-x5-y9 loc-x5-y10
0
2
0 0 76 68
0 69 -1 0
1
end_operator
begin_operator
move loc-x5-y9 loc-x5-y8
0
2
0 0 76 75
0 75 -1 0
1
end_operator
begin_operator
move loc-x5-y9 loc-x6-y9
0
2
0 0 76 87
0 87 -1 0
1
end_operator
begin_operator
move loc-x6-y0 loc-x5-y0
0
2
0 0 77 66
0 67 -1 0
1
end_operator
begin_operator
move loc-x6-y0 loc-x6-y1
0
2
0 0 77 78
0 78 -1 0
1
end_operator
begin_operator
move loc-x6-y0 loc-x7-y0
0
2
0 0 77 88
0 88 -1 0
1
end_operator
begin_operator
move loc-x6-y1 loc-x5-y1
0
2
0 0 78 67
0 68 -1 0
1
end_operator
begin_operator
move loc-x6-y1 loc-x6-y0
0
2
0 0 78 77
0 77 -1 0
1
end_operator
begin_operator
move loc-x6-y1 loc-x6-y2
0
2
0 0 78 80
0 80 -1 0
1
end_operator
begin_operator
move loc-x6-y1 loc-x7-y1
0
2
0 0 78 89
0 89 -1 0
1
end_operator
begin_operator
move loc-x6-y10 loc-x5-y10
0
2
0 0 79 68
0 69 -1 0
1
end_operator
begin_operator
move loc-x6-y10 loc-x6-y9
0
2
0 0 79 87
0 87 -1 0
1
end_operator
begin_operator
move loc-x6-y10 loc-x7-y10
0
2
0 0 79 90
0 90 -1 0
1
end_operator
begin_operator
move loc-x6-y2 loc-x5-y2
0
2
0 0 80 69
0 70 -1 0
1
end_operator
begin_operator
move loc-x6-y2 loc-x6-y1
0
2
0 0 80 78
0 78 -1 0
1
end_operator
begin_operator
move loc-x6-y2 loc-x6-y3
0
2
0 0 80 81
0 81 -1 0
1
end_operator
begin_operator
move loc-x6-y2 loc-x7-y2
0
2
0 0 80 91
0 91 -1 0
1
end_operator
begin_operator
move loc-x6-y3 loc-x5-y3
0
2
0 0 81 70
0 71 -1 0
1
end_operator
begin_operator
move loc-x6-y3 loc-x6-y2
0
2
0 0 81 80
0 80 -1 0
1
end_operator
begin_operator
move loc-x6-y3 loc-x6-y4
0
2
0 0 81 82
0 82 -1 0
1
end_operator
begin_operator
move loc-x6-y3 loc-x7-y3
0
2
0 0 81 92
0 92 -1 0
1
end_operator
begin_operator
move loc-x6-y4 loc-x5-y4
0
2
0 0 82 71
0 72 -1 0
1
end_operator
begin_operator
move loc-x6-y4 loc-x6-y3
0
2
0 0 82 81
0 81 -1 0
1
end_operator
begin_operator
move loc-x6-y4 loc-x6-y5
0
2
0 0 82 83
0 83 -1 0
1
end_operator
begin_operator
move loc-x6-y4 loc-x7-y4
0
2
0 0 82 93
0 93 -1 0
1
end_operator
begin_operator
move loc-x6-y5 loc-x5-y5
0
1
0 0 83 72
1
end_operator
begin_operator
move loc-x6-y5 loc-x6-y4
0
2
0 0 83 82
0 82 -1 0
1
end_operator
begin_operator
move loc-x6-y5 loc-x6-y6
0
2
0 0 83 84
0 84 -1 0
1
end_operator
begin_operator
move loc-x6-y5 loc-x7-y5
0
2
0 0 83 94
0 94 -1 0
1
end_operator
begin_operator
move loc-x6-y6 loc-x5-y6
0
2
0 0 84 73
0 73 -1 0
1
end_operator
begin_operator
move loc-x6-y6 loc-x6-y5
0
2
0 0 84 83
0 83 -1 0
1
end_operator
begin_operator
move loc-x6-y6 loc-x6-y7
0
2
0 0 84 85
0 85 -1 0
1
end_operator
begin_operator
move loc-x6-y6 loc-x7-y6
0
2
0 0 84 95
0 95 -1 0
1
end_operator
begin_operator
move loc-x6-y7 loc-x5-y7
0
2
0 0 85 74
0 74 -1 0
1
end_operator
begin_operator
move loc-x6-y7 loc-x6-y6
0
2
0 0 85 84
0 84 -1 0
1
end_operator
begin_operator
move loc-x6-y7 loc-x6-y8
0
2
0 0 85 86
0 86 -1 0
1
end_operator
begin_operator
move loc-x6-y7 loc-x7-y7
0
2
0 0 85 96
0 96 -1 0
1
end_operator
begin_operator
move loc-x6-y8 loc-x5-y8
0
2
0 0 86 75
0 75 -1 0
1
end_operator
begin_operator
move loc-x6-y8 loc-x6-y7
0
2
0 0 86 85
0 85 -1 0
1
end_operator
begin_operator
move loc-x6-y8 loc-x6-y9
0
2
0 0 86 87
0 87 -1 0
1
end_operator
begin_operator
move loc-x6-y8 loc-x7-y8
0
2
0 0 86 97
0 97 -1 0
1
end_operator
begin_operator
move loc-x6-y9 loc-x5-y9
0
2
0 0 87 76
0 76 -1 0
1
end_operator
begin_operator
move loc-x6-y9 loc-x6-y10
0
2
0 0 87 79
0 79 -1 0
1
end_operator
begin_operator
move loc-x6-y9 loc-x6-y8
0
2
0 0 87 86
0 86 -1 0
1
end_operator
begin_operator
move loc-x6-y9 loc-x7-y9
0
2
0 0 87 98
0 98 -1 0
1
end_operator
begin_operator
move loc-x7-y0 loc-x6-y0
0
2
0 0 88 77
0 77 -1 0
1
end_operator
begin_operator
move loc-x7-y0 loc-x7-y1
0
2
0 0 88 89
0 89 -1 0
1
end_operator
begin_operator
move loc-x7-y0 loc-x8-y0
0
2
0 0 88 99
0 99 -1 0
1
end_operator
begin_operator
move loc-x7-y1 loc-x6-y1
0
2
0 0 89 78
0 78 -1 0
1
end_operator
begin_operator
move loc-x7-y1 loc-x7-y0
0
2
0 0 89 88
0 88 -1 0
1
end_operator
begin_operator
move loc-x7-y1 loc-x7-y2
0
2
0 0 89 91
0 91 -1 0
1
end_operator
begin_operator
move loc-x7-y1 loc-x8-y1
0
2
0 0 89 100
0 100 -1 0
1
end_operator
begin_operator
move loc-x7-y10 loc-x6-y10
0
2
0 0 90 79
0 79 -1 0
1
end_operator
begin_operator
move loc-x7-y10 loc-x7-y9
0
2
0 0 90 98
0 98 -1 0
1
end_operator
begin_operator
move loc-x7-y10 loc-x8-y10
0
2
0 0 90 101
0 101 -1 0
1
end_operator
begin_operator
move loc-x7-y2 loc-x6-y2
0
2
0 0 91 80
0 80 -1 0
1
end_operator
begin_operator
move loc-x7-y2 loc-x7-y1
0
2
0 0 91 89
0 89 -1 0
1
end_operator
begin_operator
move loc-x7-y2 loc-x7-y3
0
2
0 0 91 92
0 92 -1 0
1
end_operator
begin_operator
move loc-x7-y2 loc-x8-y2
0
2
0 0 91 102
0 102 -1 0
1
end_operator
begin_operator
move loc-x7-y3 loc-x6-y3
0
2
0 0 92 81
0 81 -1 0
1
end_operator
begin_operator
move loc-x7-y3 loc-x7-y2
0
2
0 0 92 91
0 91 -1 0
1
end_operator
begin_operator
move loc-x7-y3 loc-x7-y4
0
2
0 0 92 93
0 93 -1 0
1
end_operator
begin_operator
move loc-x7-y3 loc-x8-y3
0
2
0 0 92 103
0 103 -1 0
1
end_operator
begin_operator
move loc-x7-y4 loc-x6-y4
0
2
0 0 93 82
0 82 -1 0
1
end_operator
begin_operator
move loc-x7-y4 loc-x7-y3
0
2
0 0 93 92
0 92 -1 0
1
end_operator
begin_operator
move loc-x7-y4 loc-x7-y5
0
2
0 0 93 94
0 94 -1 0
1
end_operator
begin_operator
move loc-x7-y4 loc-x8-y4
0
2
0 0 93 104
0 104 -1 0
1
end_operator
begin_operator
move loc-x7-y5 loc-x6-y5
0
2
0 0 94 83
0 83 -1 0
1
end_operator
begin_operator
move loc-x7-y5 loc-x7-y4
0
2
0 0 94 93
0 93 -1 0
1
end_operator
begin_operator
move loc-x7-y5 loc-x7-y6
0
2
0 0 94 95
0 95 -1 0
1
end_operator
begin_operator
move loc-x7-y5 loc-x8-y5
0
2
0 0 94 105
0 105 -1 0
1
end_operator
begin_operator
move loc-x7-y6 loc-x6-y6
0
2
0 0 95 84
0 84 -1 0
1
end_operator
begin_operator
move loc-x7-y6 loc-x7-y5
0
2
0 0 95 94
0 94 -1 0
1
end_operator
begin_operator
move loc-x7-y6 loc-x7-y7
0
2
0 0 95 96
0 96 -1 0
1
end_operator
begin_operator
move loc-x7-y6 loc-x8-y6
0
2
0 0 95 106
0 106 -1 0
1
end_operator
begin_operator
move loc-x7-y7 loc-x6-y7
0
2
0 0 96 85
0 85 -1 0
1
end_operator
begin_operator
move loc-x7-y7 loc-x7-y6
0
2
0 0 96 95
0 95 -1 0
1
end_operator
begin_operator
move loc-x7-y7 loc-x7-y8
0
2
0 0 96 97
0 97 -1 0
1
end_operator
begin_operator
move loc-x7-y7 loc-x8-y7
0
2
0 0 96 107
0 107 -1 0
1
end_operator
begin_operator
move loc-x7-y8 loc-x6-y8
0
2
0 0 97 86
0 86 -1 0
1
end_operator
begin_operator
move loc-x7-y8 loc-x7-y7
0
2
0 0 97 96
0 96 -1 0
1
end_operator
begin_operator
move loc-x7-y8 loc-x7-y9
0
2
0 0 97 98
0 98 -1 0
1
end_operator
begin_operator
move loc-x7-y8 loc-x8-y8
0
2
0 0 97 108
0 108 -1 0
1
end_operator
begin_operator
move loc-x7-y9 loc-x6-y9
0
2
0 0 98 87
0 87 -1 0
1
end_operator
begin_operator
move loc-x7-y9 loc-x7-y10
0
2
0 0 98 90
0 90 -1 0
1
end_operator
begin_operator
move loc-x7-y9 loc-x7-y8
0
2
0 0 98 97
0 97 -1 0
1
end_operator
begin_operator
move loc-x7-y9 loc-x8-y9
0
2
0 0 98 109
0 109 -1 0
1
end_operator
begin_operator
move loc-x8-y0 loc-x7-y0
0
2
0 0 99 88
0 88 -1 0
1
end_operator
begin_operator
move loc-x8-y0 loc-x8-y1
0
2
0 0 99 100
0 100 -1 0
1
end_operator
begin_operator
move loc-x8-y0 loc-x9-y0
0
2
0 0 99 110
0 110 -1 0
1
end_operator
begin_operator
move loc-x8-y1 loc-x7-y1
0
2
0 0 100 89
0 89 -1 0
1
end_operator
begin_operator
move loc-x8-y1 loc-x8-y0
0
2
0 0 100 99
0 99 -1 0
1
end_operator
begin_operator
move loc-x8-y1 loc-x8-y2
0
2
0 0 100 102
0 102 -1 0
1
end_operator
begin_operator
move loc-x8-y1 loc-x9-y1
0
2
0 0 100 111
0 111 -1 0
1
end_operator
begin_operator
move loc-x8-y10 loc-x7-y10
0
2
0 0 101 90
0 90 -1 0
1
end_operator
begin_operator
move loc-x8-y10 loc-x8-y9
0
2
0 0 101 109
0 109 -1 0
1
end_operator
begin_operator
move loc-x8-y10 loc-x9-y10
0
2
0 0 101 112
0 112 -1 0
1
end_operator
begin_operator
move loc-x8-y2 loc-x7-y2
0
2
0 0 102 91
0 91 -1 0
1
end_operator
begin_operator
move loc-x8-y2 loc-x8-y1
0
2
0 0 102 100
0 100 -1 0
1
end_operator
begin_operator
move loc-x8-y2 loc-x8-y3
0
2
0 0 102 103
0 103 -1 0
1
end_operator
begin_operator
move loc-x8-y2 loc-x9-y2
0
2
0 0 102 113
0 113 -1 0
1
end_operator
begin_operator
move loc-x8-y3 loc-x7-y3
0
2
0 0 103 92
0 92 -1 0
1
end_operator
begin_operator
move loc-x8-y3 loc-x8-y2
0
2
0 0 103 102
0 102 -1 0
1
end_operator
begin_operator
move loc-x8-y3 loc-x8-y4
0
2
0 0 103 104
0 104 -1 0
1
end_operator
begin_operator
move loc-x8-y3 loc-x9-y3
0
2
0 0 103 114
0 114 -1 0
1
end_operator
begin_operator
move loc-x8-y4 loc-x7-y4
0
2
0 0 104 93
0 93 -1 0
1
end_operator
begin_operator
move loc-x8-y4 loc-x8-y3
0
2
0 0 104 103
0 103 -1 0
1
end_operator
begin_operator
move loc-x8-y4 loc-x8-y5
0
2
0 0 104 105
0 105 -1 0
1
end_operator
begin_operator
move loc-x8-y4 loc-x9-y4
0
2
0 0 104 115
0 115 -1 0
1
end_operator
begin_operator
move loc-x8-y5 loc-x7-y5
0
2
0 0 105 94
0 94 -1 0
1
end_operator
begin_operator
move loc-x8-y5 loc-x8-y4
0
2
0 0 105 104
0 104 -1 0
1
end_operator
begin_operator
move loc-x8-y5 loc-x8-y6
0
2
0 0 105 106
0 106 -1 0
1
end_operator
begin_operator
move loc-x8-y5 loc-x9-y5
0
2
0 0 105 116
0 116 -1 0
1
end_operator
begin_operator
move loc-x8-y6 loc-x7-y6
0
2
0 0 106 95
0 95 -1 0
1
end_operator
begin_operator
move loc-x8-y6 loc-x8-y5
0
2
0 0 106 105
0 105 -1 0
1
end_operator
begin_operator
move loc-x8-y6 loc-x8-y7
0
2
0 0 106 107
0 107 -1 0
1
end_operator
begin_operator
move loc-x8-y6 loc-x9-y6
0
2
0 0 106 117
0 117 -1 0
1
end_operator
begin_operator
move loc-x8-y7 loc-x7-y7
0
2
0 0 107 96
0 96 -1 0
1
end_operator
begin_operator
move loc-x8-y7 loc-x8-y6
0
2
0 0 107 106
0 106 -1 0
1
end_operator
begin_operator
move loc-x8-y7 loc-x8-y8
0
2
0 0 107 108
0 108 -1 0
1
end_operator
begin_operator
move loc-x8-y7 loc-x9-y7
0
2
0 0 107 118
0 118 -1 0
1
end_operator
begin_operator
move loc-x8-y8 loc-x7-y8
0
2
0 0 108 97
0 97 -1 0
1
end_operator
begin_operator
move loc-x8-y8 loc-x8-y7
0
2
0 0 108 107
0 107 -1 0
1
end_operator
begin_operator
move loc-x8-y8 loc-x8-y9
0
2
0 0 108 109
0 109 -1 0
1
end_operator
begin_operator
move loc-x8-y8 loc-x9-y8
0
2
0 0 108 119
0 119 -1 0
1
end_operator
begin_operator
move loc-x8-y9 loc-x7-y9
0
2
0 0 109 98
0 98 -1 0
1
end_operator
begin_operator
move loc-x8-y9 loc-x8-y10
0
2
0 0 109 101
0 101 -1 0
1
end_operator
begin_operator
move loc-x8-y9 loc-x8-y8
0
2
0 0 109 108
0 108 -1 0
1
end_operator
begin_operator
move loc-x8-y9 loc-x9-y9
0
2
0 0 109 120
0 120 -1 0
1
end_operator
begin_operator
move loc-x9-y0 loc-x10-y0
0
2
0 0 110 22
0 23 -1 0
1
end_operator
begin_operator
move loc-x9-y0 loc-x8-y0
0
2
0 0 110 99
0 99 -1 0
1
end_operator
begin_operator
move loc-x9-y0 loc-x9-y1
0
2
0 0 110 111
0 111 -1 0
1
end_operator
begin_operator
move loc-x9-y1 loc-x10-y1
0
2
0 0 111 23
0 24 -1 0
1
end_operator
begin_operator
move loc-x9-y1 loc-x8-y1
0
2
0 0 111 100
0 100 -1 0
1
end_operator
begin_operator
move loc-x9-y1 loc-x9-y0
0
2
0 0 111 110
0 110 -1 0
1
end_operator
begin_operator
move loc-x9-y1 loc-x9-y2
0
2
0 0 111 113
0 113 -1 0
1
end_operator
begin_operator
move loc-x9-y10 loc-x10-y10
0
2
0 0 112 24
0 25 -1 0
1
end_operator
begin_operator
move loc-x9-y10 loc-x8-y10
0
2
0 0 112 101
0 101 -1 0
1
end_operator
begin_operator
move loc-x9-y10 loc-x9-y9
0
2
0 0 112 120
0 120 -1 0
1
end_operator
begin_operator
move loc-x9-y2 loc-x10-y2
0
2
0 0 113 25
0 26 -1 0
1
end_operator
begin_operator
move loc-x9-y2 loc-x8-y2
0
2
0 0 113 102
0 102 -1 0
1
end_operator
begin_operator
move loc-x9-y2 loc-x9-y1
0
2
0 0 113 111
0 111 -1 0
1
end_operator
begin_operator
move loc-x9-y2 loc-x9-y3
0
2
0 0 113 114
0 114 -1 0
1
end_operator
begin_operator
move loc-x9-y3 loc-x10-y3
0
2
0 0 114 26
0 27 -1 0
1
end_operator
begin_operator
move loc-x9-y3 loc-x8-y3
0
2
0 0 114 103
0 103 -1 0
1
end_operator
begin_operator
move loc-x9-y3 loc-x9-y2
0
2
0 0 114 113
0 113 -1 0
1
end_operator
begin_operator
move loc-x9-y3 loc-x9-y4
0
2
0 0 114 115
0 115 -1 0
1
end_operator
begin_operator
move loc-x9-y4 loc-x10-y4
0
2
0 0 115 27
0 28 -1 0
1
end_operator
begin_operator
move loc-x9-y4 loc-x8-y4
0
2
0 0 115 104
0 104 -1 0
1
end_operator
begin_operator
move loc-x9-y4 loc-x9-y3
0
2
0 0 115 114
0 114 -1 0
1
end_operator
begin_operator
move loc-x9-y4 loc-x9-y5
0
2
0 0 115 116
0 116 -1 0
1
end_operator
begin_operator
move loc-x9-y5 loc-x10-y5
0
2
0 0 116 28
0 29 -1 0
1
end_operator
begin_operator
move loc-x9-y5 loc-x8-y5
0
2
0 0 116 105
0 105 -1 0
1
end_operator
begin_operator
move loc-x9-y5 loc-x9-y4
0
2
0 0 116 115
0 115 -1 0
1
end_operator
begin_operator
move loc-x9-y5 loc-x9-y6
0
2
0 0 116 117
0 117 -1 0
1
end_operator
begin_operator
move loc-x9-y6 loc-x10-y6
0
2
0 0 117 29
0 30 -1 0
1
end_operator
begin_operator
move loc-x9-y6 loc-x8-y6
0
2
0 0 117 106
0 106 -1 0
1
end_operator
begin_operator
move loc-x9-y6 loc-x9-y5
0
2
0 0 117 116
0 116 -1 0
1
end_operator
begin_operator
move loc-x9-y6 loc-x9-y7
0
2
0 0 117 118
0 118 -1 0
1
end_operator
begin_operator
move loc-x9-y7 loc-x10-y7
0
2
0 0 118 30
0 31 -1 0
1
end_operator
begin_operator
move loc-x9-y7 loc-x8-y7
0
2
0 0 118 107
0 107 -1 0
1
end_operator
begin_operator
move loc-x9-y7 loc-x9-y6
0
2
0 0 118 117
0 117 -1 0
1
end_operator
begin_operator
move loc-x9-y7 loc-x9-y8
0
2
0 0 118 119
0 119 -1 0
1
end_operator
begin_operator
move loc-x9-y8 loc-x10-y8
0
2
0 0 119 31
0 32 -1 0
1
end_operator
begin_operator
move loc-x9-y8 loc-x8-y8
0
2
0 0 119 108
0 108 -1 0
1
end_operator
begin_operator
move loc-x9-y8 loc-x9-y7
0
2
0 0 119 118
0 118 -1 0
1
end_operator
begin_operator
move loc-x9-y8 loc-x9-y9
0
2
0 0 119 120
0 120 -1 0
1
end_operator
begin_operator
move loc-x9-y9 loc-x10-y9
0
2
0 0 120 32
0 33 -1 0
1
end_operator
begin_operator
move loc-x9-y9 loc-x8-y9
0
2
0 0 120 109
0 109 -1 0
1
end_operator
begin_operator
move loc-x9-y9 loc-x9-y10
0
2
0 0 120 112
0 112 -1 0
1
end_operator
begin_operator
move loc-x9-y9 loc-x9-y8
0
2
0 0 120 119
0 119 -1 0
1
end_operator
0
