 (free pos-1-2) (last-visited pos-1-2):G
 (free pos-1-2) (occupied pos-1-2):=1:G
 (free pos-1-3) (occupied pos-1-3):=1:G
 (free pos-1-4) (last-visited pos-1-4):G
 (free pos-1-4) (occupied pos-1-4):=1:G
 (free pos-2-2) (occupied pos-2-2):=1:G
 (free pos-2-4) (occupied pos-2-4):=1:G
 (free pos-2-4) (occupied pos-3-4):=1:G
 (free pos-3-1) (free pos-3-3):=1:G
 (free pos-3-1) (occupied pos-3-1):=1:G
 (free pos-3-2) (last-visited pos-3-2):G
 (free pos-3-2) (occupied pos-3-2):=1:G
 (free pos-3-3) (last-visited pos-3-3)
 (free pos-3-3) (occupied pos-3-3):=1:G
 (free pos-3-4) (occupied pos-2-4):=1:G
 (free pos-3-4) (occupied pos-3-4):=1:G
 (last-visited pos-3-3) (occupied pos-3-1)
 (occupied pos-3-1) (occupied pos-3-3):=1:G
 (free pos-1-3) (last-visited pos-1-4) (occupied pos-2-4):G
 (free pos-1-3) (last-visited pos-1-4) (occupied pos-3-4):G
 (free pos-1-3) (occupied pos-1-4) (occupied pos-2-4):=1:G
 (free pos-1-3) (occupied pos-1-4) (occupied pos-3-4):=1:G
 (free pos-2-2) (last-visited pos-1-2) (occupied pos-1-3):G
 (free pos-2-2) (occupied pos-1-2) (occupied pos-1-3):=1:G
 (free pos-3-1) (last-visited pos-3-2) (occupied pos-2-2):G
 (free pos-3-1) (occupied pos-2-2) (occupied pos-3-2):=1:G
 (last-visited pos-3-2) (last-visited pos-3-3) (occupied pos-2-2)
 (last-visited pos-3-2) (occupied pos-2-2) (occupied pos-3-3):G
 (last-visited pos-3-3) (occupied pos-2-2) (occupied pos-3-2)
 (occupied pos-2-2) (occupied pos-3-2) (occupied pos-3-3):=1:G
 (free pos-2-2) (last-visited pos-1-2) (last-visited pos-1-4) (occupied pos-2-4):G
 (free pos-2-2) (last-visited pos-1-2) (last-visited pos-1-4) (occupied pos-3-4):G
 (free pos-2-2) (last-visited pos-1-2) (occupied pos-1-4) (occupied pos-2-4):G
 (free pos-2-2) (last-visited pos-1-2) (occupied pos-1-4) (occupied pos-3-4):G
 (free pos-2-2) (last-visited pos-1-4) (occupied pos-1-2) (occupied pos-2-4):G
 (free pos-2-2) (last-visited pos-1-4) (occupied pos-1-2) (occupied pos-3-4):G
 (free pos-2-2) (occupied pos-1-2) (occupied pos-1-4) (occupied pos-2-4):=1:G
 (free pos-2-2) (occupied pos-1-2) (occupied pos-1-4) (occupied pos-3-4):=1:G
 (free pos-3-1) (last-visited pos-1-2) (last-visited pos-3-2) (occupied pos-1-3):G
 (free pos-3-1) (last-visited pos-1-2) (occupied pos-1-3) (occupied pos-3-2):G
 (free pos-3-1) (last-visited pos-3-2) (occupied pos-1-2) (occupied pos-1-3):G
 (free pos-3-1) (occupied pos-1-2) (occupied pos-1-3) (occupied pos-3-2):=1:G
 (last-visited pos-1-2) (last-visited pos-3-2) (last-visited pos-3-3) (occupied pos-1-3)
 (last-visited pos-1-2) (last-visited pos-3-2) (occupied pos-1-3) (occupied pos-3-3):G
 (last-visited pos-1-2) (last-visited pos-3-3) (occupied pos-1-3) (occupied pos-3-2)
 (last-visited pos-1-2) (occupied pos-1-3) (occupied pos-3-2) (occupied pos-3-3):G
 (last-visited pos-3-2) (last-visited pos-3-3) (occupied pos-1-2) (occupied pos-1-3)
 (last-visited pos-3-2) (occupied pos-1-2) (occupied pos-1-3) (occupied pos-3-3):G
 (last-visited pos-3-3) (occupied pos-1-2) (occupied pos-1-3) (occupied pos-3-2)
 (occupied pos-1-2) (occupied pos-1-3) (occupied pos-3-2) (occupied pos-3-3):=1:G
 (free pos-3-1) (last-visited pos-1-2) (last-visited pos-1-4) (last-visited pos-3-2) (occupied pos-2-4):G
 (free pos-3-1) (last-visited pos-1-2) (last-visited pos-1-4) (last-visited pos-3-2) (occupied pos-3-4):G
 (free pos-3-1) (last-visited pos-1-2) (last-visited pos-1-4) (occupied pos-2-4) (occupied pos-3-2):G
 (free pos-3-1) (last-visited pos-1-2) (last-visited pos-1-4) (occupied pos-3-2) (occupied pos-3-4):G
 (free pos-3-1) (last-visited pos-1-2) (last-visited pos-3-2) (occupied pos-1-4) (occupied pos-2-4):G
 (free pos-3-1) (last-visited pos-1-2) (last-visited pos-3-2) (occupied pos-1-4) (occupied pos-3-4):G
 (free pos-3-1) (last-visited pos-1-2) (occupied pos-1-4) (occupied pos-2-4) (occupied pos-3-2):G
 (free pos-3-1) (last-visited pos-1-2) (occupied pos-1-4) (occupied pos-3-2) (occupied pos-3-4):G
 (free pos-3-1) (last-visited pos-1-4) (last-visited pos-3-2) (occupied pos-1-2) (occupied pos-2-4):G
 (free pos-3-1) (last-visited pos-1-4) (last-visited pos-3-2) (occupied pos-1-2) (occupied pos-3-4):G
 (free pos-3-1) (last-visited pos-1-4) (occupied pos-1-2) (occupied pos-2-4) (occupied pos-3-2):G
 (free pos-3-1) (last-visited pos-1-4) (occupied pos-1-2) (occupied pos-3-2) (occupied pos-3-4):G
 (free pos-3-1) (last-visited pos-3-2) (occupied pos-1-2) (occupied pos-1-4) (occupied pos-2-4):G
 (free pos-3-1) (last-visited pos-3-2) (occupied pos-1-2) (occupied pos-1-4) (occupied pos-3-4):G
 (free pos-3-1) (occupied pos-1-2) (occupied pos-1-4) (occupied pos-2-4) (occupied pos-3-2):=1:G
 (free pos-3-1) (occupied pos-1-2) (occupied pos-1-4) (occupied pos-3-2) (occupied pos-3-4):=1:G
 (last-visited pos-1-2) (last-visited pos-1-4) (last-visited pos-3-2) (last-visited pos-3-3) (move-ended):=1
 (last-visited pos-1-2) (last-visited pos-1-4) (last-visited pos-3-2) (last-visited pos-3-3) (occupied pos-2-4)
 (last-visited pos-1-2) (last-visited pos-1-4) (last-visited pos-3-2) (last-visited pos-3-3) (occupied pos-3-4)
 (last-visited pos-1-2) (last-visited pos-1-4) (last-visited pos-3-2) (occupied pos-2-4) (occupied pos-3-3):G
 (last-visited pos-1-2) (last-visited pos-1-4) (last-visited pos-3-2) (occupied pos-3-3) (occupied pos-3-4):G
 (last-visited pos-1-2) (last-visited pos-1-4) (last-visited pos-3-3) (occupied pos-2-4) (occupied pos-3-2)
 (last-visited pos-1-2) (last-visited pos-1-4) (last-visited pos-3-3) (occupied pos-3-2) (occupied pos-3-4)
 (last-visited pos-1-2) (last-visited pos-1-4) (occupied pos-2-4) (occupied pos-3-2) (occupied pos-3-3):G
 (last-visited pos-1-2) (last-visited pos-1-4) (occupied pos-3-2) (occupied pos-3-3) (occupied pos-3-4):G
 (last-visited pos-1-2) (last-visited pos-3-2) (last-visited pos-3-3) (occupied pos-1-4) (occupied pos-2-4)
 (last-visited pos-1-2) (last-visited pos-3-2) (last-visited pos-3-3) (occupied pos-1-4) (occupied pos-3-4)
 (last-visited pos-1-2) (last-visited pos-3-2) (occupied pos-1-4) (occupied pos-2-4) (occupied pos-3-3):G
 (last-visited pos-1-2) (last-visited pos-3-2) (occupied pos-1-4) (occupied pos-3-3) (occupied pos-3-4):G
 (last-visited pos-1-2) (last-visited pos-3-3) (occupied pos-1-4) (occupied pos-2-4) (occupied pos-3-2)
 (last-visited pos-1-2) (last-visited pos-3-3) (occupied pos-1-4) (occupied pos-3-2) (occupied pos-3-4)
 (last-visited pos-1-2) (occupied pos-1-4) (occupied pos-2-4) (occupied pos-3-2) (occupied pos-3-3):G
 (last-visited pos-1-2) (occupied pos-1-4) (occupied pos-3-2) (occupied pos-3-3) (occupied pos-3-4):G
 (last-visited pos-1-4) (last-visited pos-3-2) (last-visited pos-3-3) (occupied pos-1-2) (occupied pos-2-4)
 (last-visited pos-1-4) (last-visited pos-3-2) (last-visited pos-3-3) (occupied pos-1-2) (occupied pos-3-4)
 (last-visited pos-1-4) (last-visited pos-3-2) (occupied pos-1-2) (occupied pos-2-4) (occupied pos-3-3):G
 (last-visited pos-1-4) (last-visited pos-3-2) (occupied pos-1-2) (occupied pos-3-3) (occupied pos-3-4):G
 (last-visited pos-1-4) (last-visited pos-3-3) (occupied pos-1-2) (occupied pos-2-4) (occupied pos-3-2)
 (last-visited pos-1-4) (last-visited pos-3-3) (occupied pos-1-2) (occupied pos-3-2) (occupied pos-3-4)
 (last-visited pos-1-4) (occupied pos-1-2) (occupied pos-2-4) (occupied pos-3-2) (occupied pos-3-3):G
 (last-visited pos-1-4) (occupied pos-1-2) (occupied pos-3-2) (occupied pos-3-3) (occupied pos-3-4):G
 (last-visited pos-3-2) (last-visited pos-3-3) (occupied pos-1-2) (occupied pos-1-4) (occupied pos-2-4)
 (last-visited pos-3-2) (last-visited pos-3-3) (occupied pos-1-2) (occupied pos-1-4) (occupied pos-3-4)
 (last-visited pos-3-2) (occupied pos-1-2) (occupied pos-1-4) (occupied pos-2-4) (occupied pos-3-3):G
 (last-visited pos-3-2) (occupied pos-1-2) (occupied pos-1-4) (occupied pos-3-3) (occupied pos-3-4):G
 (last-visited pos-3-3) (occupied pos-1-2) (occupied pos-1-4) (occupied pos-2-4) (occupied pos-3-2)
 (last-visited pos-3-3) (occupied pos-1-2) (occupied pos-1-4) (occupied pos-3-2) (occupied pos-3-4)
 (occupied pos-1-2) (occupied pos-1-4) (occupied pos-2-4) (occupied pos-3-2) (occupied pos-3-3):=1:G
 (occupied pos-1-2) (occupied pos-1-4) (occupied pos-3-2) (occupied pos-3-3) (occupied pos-3-4):=1:G

