begin_version
3
end_version
begin_metric
1
end_metric
22
begin_variable
var0
-1
13
NOT-in_place road0
road_connect road0 junction0-0 junction0-1
road_connect road0 junction0-0 junction1-0
road_connect road0 junction0-0 junction1-1
road_connect road0 junction0-1 junction0-0
road_connect road0 junction0-1 junction1-0
road_connect road0 junction0-1 junction1-1
road_connect road0 junction1-0 junction0-0
road_connect road0 junction1-0 junction0-1
road_connect road0 junction1-0 junction1-1
road_connect road0 junction1-1 junction0-0
road_connect road0 junction1-1 junction0-1
road_connect road0 junction1-1 junction1-0
end_variable
begin_variable
var1
-1
13
NOT-in_place road1
road_connect road1 junction0-0 junction0-1
road_connect road1 junction0-0 junction1-0
road_connect road1 junction0-0 junction1-1
road_connect road1 junction0-1 junction0-0
road_connect road1 junction0-1 junction1-0
road_connect road1 junction0-1 junction1-1
road_connect road1 junction1-0 junction0-0
road_connect road1 junction1-0 junction0-1
road_connect road1 junction1-0 junction1-1
road_connect road1 junction1-1 junction0-0
road_connect road1 junction1-1 junction0-1
road_connect road1 junction1-1 junction1-0
end_variable
begin_variable
var2
-1
13
NOT-in_place road2
road_connect road2 junction0-0 junction0-1
road_connect road2 junction0-0 junction1-0
road_connect road2 junction0-0 junction1-1
road_connect road2 junction0-1 junction0-0
road_connect road2 junction0-1 junction1-0
road_connect road2 junction0-1 junction1-1
road_connect road2 junction1-0 junction0-0
road_connect road2 junction1-0 junction0-1
road_connect road2 junction1-0 junction1-1
road_connect road2 junction1-1 junction0-0
road_connect road2 junction1-1 junction0-1
road_connect road2 junction1-1 junction1-0
end_variable
begin_variable
var3
-1
13
NOT-in_place road3
road_connect road3 junction0-0 junction0-1
road_connect road3 junction0-0 junction1-0
road_connect road3 junction0-0 junction1-1
road_connect road3 junction0-1 junction0-0
road_connect road3 junction0-1 junction1-0
road_connect road3 junction0-1 junction1-1
road_connect road3 junction1-0 junction0-0
road_connect road3 junction1-0 junction0-1
road_connect road3 junction1-0 junction1-1
road_connect road3 junction1-1 junction0-0
road_connect road3 junction1-1 junction0-1
road_connect road3 junction1-1 junction1-0
end_variable
begin_variable
var4
-1
11
arrived car0 junction1-1
at_car_jun car0 junction0-0
at_car_jun car0 junction0-1
at_car_jun car0 junction1-0
at_car_jun car0 junction1-1
at_car_road car0 road0
at_car_road car0 road1
at_car_road car0 road2
at_car_road car0 road3
starting car0 garage0
none-of-those
end_variable
begin_variable
var5
-1
11
arrived car1 junction1-0
at_car_jun car1 junction0-0
at_car_jun car1 junction0-1
at_car_jun car1 junction1-0
at_car_jun car1 junction1-1
at_car_road car1 road0
at_car_road car1 road1
at_car_road car1 road2
at_car_road car1 road3
starting car1 garage0
none-of-those
end_variable
begin_variable
var6
-1
2
in_place road0
none-of-those
end_variable
begin_variable
var7
-1
2
in_place road1
none-of-those
end_variable
begin_variable
var8
-1
2
in_place road2
none-of-those
end_variable
begin_variable
var9
-1
2
in_place road3
none-of-those
end_variable
begin_variable
var10
-1
2
NOT-at_car_road car0 road0
none-of-those
end_variable
begin_variable
var11
-1
2
NOT-at_car_road car0 road1
none-of-those
end_variable
begin_variable
var12
-1
2
NOT-at_car_road car0 road2
none-of-those
end_variable
begin_variable
var13
-1
2
NOT-at_car_road car0 road3
none-of-those
end_variable
begin_variable
var14
-1
2
NOT-at_car_road car1 road0
none-of-those
end_variable
begin_variable
var15
-1
2
NOT-at_car_road car1 road1
none-of-those
end_variable
begin_variable
var16
-1
2
NOT-at_car_road car1 road2
none-of-those
end_variable
begin_variable
var17
-1
2
NOT-at_car_road car1 road3
none-of-those
end_variable
begin_variable
var18
-1
2
clear junction0-0
none-of-those
end_variable
begin_variable
var19
-1
2
clear junction0-1
none-of-those
end_variable
begin_variable
var20
-1
2
clear junction1-0
none-of-those
end_variable
begin_variable
var21
-1
2
clear junction1-1
none-of-those
end_variable
14
begin_mutex_group
1
4 9
end_mutex_group
begin_mutex_group
1
5 9
end_mutex_group
begin_mutex_group
2
0 0
6 0
end_mutex_group
begin_mutex_group
2
1 0
7 0
end_mutex_group
begin_mutex_group
2
2 0
8 0
end_mutex_group
begin_mutex_group
2
3 0
9 0
end_mutex_group
begin_mutex_group
9
4 1
4 2
4 3
4 4
4 5
4 6
4 7
4 8
4 9
end_mutex_group
begin_mutex_group
9
5 1
5 2
5 3
5 4
5 5
5 6
5 7
5 8
5 9
end_mutex_group
begin_mutex_group
10
4 0
4 1
4 2
4 3
4 4
4 5
4 6
4 7
4 8
4 9
end_mutex_group
begin_mutex_group
10
5 0
5 1
5 2
5 3
5 4
5 5
5 6
5 7
5 8
5 9
end_mutex_group
begin_mutex_group
13
0 0
0 1
0 2
0 3
0 4
0 5
0 6
0 7
0 8
0 9
0 10
0 11
0 12
end_mutex_group
begin_mutex_group
13
1 0
1 1
1 2
1 3
1 4
1 5
1 6
1 7
1 8
1 9
1 10
1 11
1 12
end_mutex_group
begin_mutex_group
13
2 0
2 1
2 2
2 3
2 4
2 5
2 6
2 7
2 8
2 9
2 10
2 11
2 12
end_mutex_group
begin_mutex_group
13
3 0
3 1
3 2
3 3
3 4
3 5
3 6
3 7
3 8
3 9
3 10
3 11
3 12
end_mutex_group
begin_state
0
0
0
0
9
9
1
1
1
1
0
0
0
0
0
0
0
0
0
0
0
0
end_state
begin_goal
2
4 0
5 0
end_goal
442
begin_operator
build_diagonal_oneway junction0-0 junction1-1 road0
1
21 0
2
0 0 0 3
0 6 -1 0
30
end_operator
begin_operator
build_diagonal_oneway junction0-0 junction1-1 road1
1
21 0
2
0 1 0 3
0 7 -1 0
30
end_operator
begin_operator
build_diagonal_oneway junction0-0 junction1-1 road2
1
21 0
2
0 2 0 3
0 8 -1 0
30
end_operator
begin_operator
build_diagonal_oneway junction0-0 junction1-1 road3
1
21 0
2
0 3 0 3
0 9 -1 0
30
end_operator
begin_operator
build_diagonal_oneway junction0-1 junction1-0 road0
1
20 0
2
0 0 0 5
0 6 -1 0
30
end_operator
begin_operator
build_diagonal_oneway junction0-1 junction1-0 road1
1
20 0
2
0 1 0 5
0 7 -1 0
30
end_operator
begin_operator
build_diagonal_oneway junction0-1 junction1-0 road2
1
20 0
2
0 2 0 5
0 8 -1 0
30
end_operator
begin_operator
build_diagonal_oneway junction0-1 junction1-0 road3
1
20 0
2
0 3 0 5
0 9 -1 0
30
end_operator
begin_operator
build_diagonal_oneway junction1-0 junction0-1 road0
1
19 0
2
0 0 0 8
0 6 -1 0
30
end_operator
begin_operator
build_diagonal_oneway junction1-0 junction0-1 road1
1
19 0
2
0 1 0 8
0 7 -1 0
30
end_operator
begin_operator
build_diagonal_oneway junction1-0 junction0-1 road2
1
19 0
2
0 2 0 8
0 8 -1 0
30
end_operator
begin_operator
build_diagonal_oneway junction1-0 junction0-1 road3
1
19 0
2
0 3 0 8
0 9 -1 0
30
end_operator
begin_operator
build_diagonal_oneway junction1-1 junction0-0 road0
1
18 0
2
0 0 0 10
0 6 -1 0
30
end_operator
begin_operator
build_diagonal_oneway junction1-1 junction0-0 road1
1
18 0
2
0 1 0 10
0 7 -1 0
30
end_operator
begin_operator
build_diagonal_oneway junction1-1 junction0-0 road2
1
18 0
2
0 2 0 10
0 8 -1 0
30
end_operator
begin_operator
build_diagonal_oneway junction1-1 junction0-0 road3
1
18 0
2
0 3 0 10
0 9 -1 0
30
end_operator
begin_operator
build_straight_oneway junction0-0 junction0-1 road0
1
19 0
2
0 0 0 1
0 6 -1 0
20
end_operator
begin_operator
build_straight_oneway junction0-0 junction0-1 road1
1
19 0
2
0 1 0 1
0 7 -1 0
20
end_operator
begin_operator
build_straight_oneway junction0-0 junction0-1 road2
1
19 0
2
0 2 0 1
0 8 -1 0
20
end_operator
begin_operator
build_straight_oneway junction0-0 junction0-1 road3
1
19 0
2
0 3 0 1
0 9 -1 0
20
end_operator
begin_operator
build_straight_oneway junction0-0 junction1-0 road0
1
20 0
2
0 0 0 2
0 6 -1 0
20
end_operator
begin_operator
build_straight_oneway junction0-0 junction1-0 road1
1
20 0
2
0 1 0 2
0 7 -1 0
20
end_operator
begin_operator
build_straight_oneway junction0-0 junction1-0 road2
1
20 0
2
0 2 0 2
0 8 -1 0
20
end_operator
begin_operator
build_straight_oneway junction0-0 junction1-0 road3
1
20 0
2
0 3 0 2
0 9 -1 0
20
end_operator
begin_operator
build_straight_oneway junction0-1 junction0-0 road0
1
18 0
2
0 0 0 4
0 6 -1 0
20
end_operator
begin_operator
build_straight_oneway junction0-1 junction0-0 road1
1
18 0
2
0 1 0 4
0 7 -1 0
20
end_operator
begin_operator
build_straight_oneway junction0-1 junction0-0 road2
1
18 0
2
0 2 0 4
0 8 -1 0
20
end_operator
begin_operator
build_straight_oneway junction0-1 junction0-0 road3
1
18 0
2
0 3 0 4
0 9 -1 0
20
end_operator
begin_operator
build_straight_oneway junction0-1 junction1-1 road0
1
21 0
2
0 0 0 6
0 6 -1 0
20
end_operator
begin_operator
build_straight_oneway junction0-1 junction1-1 road1
1
21 0
2
0 1 0 6
0 7 -1 0
20
end_operator
begin_operator
build_straight_oneway junction0-1 junction1-1 road2
1
21 0
2
0 2 0 6
0 8 -1 0
20
end_operator
begin_operator
build_straight_oneway junction0-1 junction1-1 road3
1
21 0
2
0 3 0 6
0 9 -1 0
20
end_operator
begin_operator
build_straight_oneway junction1-0 junction0-0 road0
1
18 0
2
0 0 0 7
0 6 -1 0
20
end_operator
begin_operator
build_straight_oneway junction1-0 junction0-0 road1
1
18 0
2
0 1 0 7
0 7 -1 0
20
end_operator
begin_operator
build_straight_oneway junction1-0 junction0-0 road2
1
18 0
2
0 2 0 7
0 8 -1 0
20
end_operator
begin_operator
build_straight_oneway junction1-0 junction0-0 road3
1
18 0
2
0 3 0 7
0 9 -1 0
20
end_operator
begin_operator
build_straight_oneway junction1-0 junction1-1 road0
1
21 0
2
0 0 0 9
0 6 -1 0
20
end_operator
begin_operator
build_straight_oneway junction1-0 junction1-1 road1
1
21 0
2
0 1 0 9
0 7 -1 0
20
end_operator
begin_operator
build_straight_oneway junction1-0 junction1-1 road2
1
21 0
2
0 2 0 9
0 8 -1 0
20
end_operator
begin_operator
build_straight_oneway junction1-0 junction1-1 road3
1
21 0
2
0 3 0 9
0 9 -1 0
20
end_operator
begin_operator
build_straight_oneway junction1-1 junction0-1 road0
1
19 0
2
0 0 0 11
0 6 -1 0
20
end_operator
begin_operator
build_straight_oneway junction1-1 junction0-1 road1
1
19 0
2
0 1 0 11
0 7 -1 0
20
end_operator
begin_operator
build_straight_oneway junction1-1 junction0-1 road2
1
19 0
2
0 2 0 11
0 8 -1 0
20
end_operator
begin_operator
build_straight_oneway junction1-1 junction0-1 road3
1
19 0
2
0 3 0 11
0 9 -1 0
20
end_operator
begin_operator
build_straight_oneway junction1-1 junction1-0 road0
1
20 0
2
0 0 0 12
0 6 -1 0
20
end_operator
begin_operator
build_straight_oneway junction1-1 junction1-0 road1
1
20 0
2
0 1 0 12
0 7 -1 0
20
end_operator
begin_operator
build_straight_oneway junction1-1 junction1-0 road2
1
20 0
2
0 2 0 12
0 8 -1 0
20
end_operator
begin_operator
build_straight_oneway junction1-1 junction1-0 road3
1
20 0
2
0 3 0 12
0 9 -1 0
20
end_operator
begin_operator
car_arrived junction0-0 car0
0
2
0 4 1 10
0 18 -1 0
0
end_operator
begin_operator
car_arrived junction0-0 car1
0
2
0 5 1 10
0 18 -1 0
0
end_operator
begin_operator
car_arrived junction0-1 car0
0
2
0 4 2 10
0 19 -1 0
0
end_operator
begin_operator
car_arrived junction0-1 car1
0
2
0 5 2 10
0 19 -1 0
0
end_operator
begin_operator
car_arrived junction1-0 car0
0
2
0 4 3 10
0 20 -1 0
0
end_operator
begin_operator
car_arrived junction1-0 car1
0
2
0 5 3 0
0 20 -1 0
0
end_operator
begin_operator
car_arrived junction1-1 car0
0
2
0 4 4 0
0 21 -1 0
0
end_operator
begin_operator
car_arrived junction1-1 car1
0
2
0 5 4 10
0 21 -1 0
0
end_operator
begin_operator
car_start junction0-1 car0 garage0
0
2
0 4 9 2
0 19 0 1
0
end_operator
begin_operator
car_start junction0-1 car1 garage0
0
2
0 5 9 2
0 19 0 1
0
end_operator
begin_operator
destroy_road junction0-0 junction0-1 road0
2
10 0
14 0
2
0 0 1 0
0 6 0 1
10
end_operator
begin_operator
destroy_road junction0-0 junction0-1 road0
1
10 0
4
0 0 1 0
0 5 5 1
0 6 0 1
0 14 -1 0
10
end_operator
begin_operator
destroy_road junction0-0 junction0-1 road0
1
14 0
4
0 0 1 0
0 4 5 1
0 6 0 1
0 10 -1 0
10
end_operator
begin_operator
destroy_road junction0-0 junction0-1 road0
0
6
0 0 1 0
0 4 5 1
0 5 5 1
0 6 0 1
0 10 -1 0
0 14 -1 0
10
end_operator
begin_operator
destroy_road junction0-0 junction0-1 road1
2
11 0
15 0
2
0 1 1 0
0 7 0 1
10
end_operator
begin_operator
destroy_road junction0-0 junction0-1 road1
1
11 0
4
0 1 1 0
0 5 6 1
0 7 0 1
0 15 -1 0
10
end_operator
begin_operator
destroy_road junction0-0 junction0-1 road1
1
15 0
4
0 1 1 0
0 4 6 1
0 7 0 1
0 11 -1 0
10
end_operator
begin_operator
destroy_road junction0-0 junction0-1 road1
0
6
0 1 1 0
0 4 6 1
0 5 6 1
0 7 0 1
0 11 -1 0
0 15 -1 0
10
end_operator
begin_operator
destroy_road junction0-0 junction0-1 road2
2
12 0
16 0
2
0 2 1 0
0 8 0 1
10
end_operator
begin_operator
destroy_road junction0-0 junction0-1 road2
1
12 0
4
0 2 1 0
0 5 7 1
0 8 0 1
0 16 -1 0
10
end_operator
begin_operator
destroy_road junction0-0 junction0-1 road2
1
16 0
4
0 2 1 0
0 4 7 1
0 8 0 1
0 12 -1 0
10
end_operator
begin_operator
destroy_road junction0-0 junction0-1 road2
0
6
0 2 1 0
0 4 7 1
0 5 7 1
0 8 0 1
0 12 -1 0
0 16 -1 0
10
end_operator
begin_operator
destroy_road junction0-0 junction0-1 road3
2
13 0
17 0
2
0 3 1 0
0 9 0 1
10
end_operator
begin_operator
destroy_road junction0-0 junction0-1 road3
1
13 0
4
0 3 1 0
0 5 8 1
0 9 0 1
0 17 -1 0
10
end_operator
begin_operator
destroy_road junction0-0 junction0-1 road3
1
17 0
4
0 3 1 0
0 4 8 1
0 9 0 1
0 13 -1 0
10
end_operator
begin_operator
destroy_road junction0-0 junction0-1 road3
0
6
0 3 1 0
0 4 8 1
0 5 8 1
0 9 0 1
0 13 -1 0
0 17 -1 0
10
end_operator
begin_operator
destroy_road junction0-0 junction1-0 road0
2
10 0
14 0
2
0 0 2 0
0 6 0 1
10
end_operator
begin_operator
destroy_road junction0-0 junction1-0 road0
1
10 0
4
0 0 2 0
0 5 5 1
0 6 0 1
0 14 -1 0
10
end_operator
begin_operator
destroy_road junction0-0 junction1-0 road0
1
14 0
4
0 0 2 0
0 4 5 1
0 6 0 1
0 10 -1 0
10
end_operator
begin_operator
destroy_road junction0-0 junction1-0 road0
0
6
0 0 2 0
0 4 5 1
0 5 5 1
0 6 0 1
0 10 -1 0
0 14 -1 0
10
end_operator
begin_operator
destroy_road junction0-0 junction1-0 road1
2
11 0
15 0
2
0 1 2 0
0 7 0 1
10
end_operator
begin_operator
destroy_road junction0-0 junction1-0 road1
1
11 0
4
0 1 2 0
0 5 6 1
0 7 0 1
0 15 -1 0
10
end_operator
begin_operator
destroy_road junction0-0 junction1-0 road1
1
15 0
4
0 1 2 0
0 4 6 1
0 7 0 1
0 11 -1 0
10
end_operator
begin_operator
destroy_road junction0-0 junction1-0 road1
0
6
0 1 2 0
0 4 6 1
0 5 6 1
0 7 0 1
0 11 -1 0
0 15 -1 0
10
end_operator
begin_operator
destroy_road junction0-0 junction1-0 road2
2
12 0
16 0
2
0 2 2 0
0 8 0 1
10
end_operator
begin_operator
destroy_road junction0-0 junction1-0 road2
1
12 0
4
0 2 2 0
0 5 7 1
0 8 0 1
0 16 -1 0
10
end_operator
begin_operator
destroy_road junction0-0 junction1-0 road2
1
16 0
4
0 2 2 0
0 4 7 1
0 8 0 1
0 12 -1 0
10
end_operator
begin_operator
destroy_road junction0-0 junction1-0 road2
0
6
0 2 2 0
0 4 7 1
0 5 7 1
0 8 0 1
0 12 -1 0
0 16 -1 0
10
end_operator
begin_operator
destroy_road junction0-0 junction1-0 road3
2
13 0
17 0
2
0 3 2 0
0 9 0 1
10
end_operator
begin_operator
destroy_road junction0-0 junction1-0 road3
1
13 0
4
0 3 2 0
0 5 8 1
0 9 0 1
0 17 -1 0
10
end_operator
begin_operator
destroy_road junction0-0 junction1-0 road3
1
17 0
4
0 3 2 0
0 4 8 1
0 9 0 1
0 13 -1 0
10
end_operator
begin_operator
destroy_road junction0-0 junction1-0 road3
0
6
0 3 2 0
0 4 8 1
0 5 8 1
0 9 0 1
0 13 -1 0
0 17 -1 0
10
end_operator
begin_operator
destroy_road junction0-0 junction1-1 road0
2
10 0
14 0
2
0 0 3 0
0 6 0 1
10
end_operator
begin_operator
destroy_road junction0-0 junction1-1 road0
1
10 0
4
0 0 3 0
0 5 5 1
0 6 0 1
0 14 -1 0
10
end_operator
begin_operator
destroy_road junction0-0 junction1-1 road0
1
14 0
4
0 0 3 0
0 4 5 1
0 6 0 1
0 10 -1 0
10
end_operator
begin_operator
destroy_road junction0-0 junction1-1 road0
0
6
0 0 3 0
0 4 5 1
0 5 5 1
0 6 0 1
0 10 -1 0
0 14 -1 0
10
end_operator
begin_operator
destroy_road junction0-0 junction1-1 road1
2
11 0
15 0
2
0 1 3 0
0 7 0 1
10
end_operator
begin_operator
destroy_road junction0-0 junction1-1 road1
1
11 0
4
0 1 3 0
0 5 6 1
0 7 0 1
0 15 -1 0
10
end_operator
begin_operator
destroy_road junction0-0 junction1-1 road1
1
15 0
4
0 1 3 0
0 4 6 1
0 7 0 1
0 11 -1 0
10
end_operator
begin_operator
destroy_road junction0-0 junction1-1 road1
0
6
0 1 3 0
0 4 6 1
0 5 6 1
0 7 0 1
0 11 -1 0
0 15 -1 0
10
end_operator
begin_operator
destroy_road junction0-0 junction1-1 road2
2
12 0
16 0
2
0 2 3 0
0 8 0 1
10
end_operator
begin_operator
destroy_road junction0-0 junction1-1 road2
1
12 0
4
0 2 3 0
0 5 7 1
0 8 0 1
0 16 -1 0
10
end_operator
begin_operator
destroy_road junction0-0 junction1-1 road2
1
16 0
4
0 2 3 0
0 4 7 1
0 8 0 1
0 12 -1 0
10
end_operator
begin_operator
destroy_road junction0-0 junction1-1 road2
0
6
0 2 3 0
0 4 7 1
0 5 7 1
0 8 0 1
0 12 -1 0
0 16 -1 0
10
end_operator
begin_operator
destroy_road junction0-0 junction1-1 road3
2
13 0
17 0
2
0 3 3 0
0 9 0 1
10
end_operator
begin_operator
destroy_road junction0-0 junction1-1 road3
1
13 0
4
0 3 3 0
0 5 8 1
0 9 0 1
0 17 -1 0
10
end_operator
begin_operator
destroy_road junction0-0 junction1-1 road3
1
17 0
4
0 3 3 0
0 4 8 1
0 9 0 1
0 13 -1 0
10
end_operator
begin_operator
destroy_road junction0-0 junction1-1 road3
0
6
0 3 3 0
0 4 8 1
0 5 8 1
0 9 0 1
0 13 -1 0
0 17 -1 0
10
end_operator
begin_operator
destroy_road junction0-1 junction0-0 road0
2
10 0
14 0
2
0 0 4 0
0 6 0 1
10
end_operator
begin_operator
destroy_road junction0-1 junction0-0 road0
1
10 0
4
0 0 4 0
0 5 5 2
0 6 0 1
0 14 -1 0
10
end_operator
begin_operator
destroy_road junction0-1 junction0-0 road0
1
14 0
4
0 0 4 0
0 4 5 2
0 6 0 1
0 10 -1 0
10
end_operator
begin_operator
destroy_road junction0-1 junction0-0 road0
0
6
0 0 4 0
0 4 5 2
0 5 5 2
0 6 0 1
0 10 -1 0
0 14 -1 0
10
end_operator
begin_operator
destroy_road junction0-1 junction0-0 road1
2
11 0
15 0
2
0 1 4 0
0 7 0 1
10
end_operator
begin_operator
destroy_road junction0-1 junction0-0 road1
1
11 0
4
0 1 4 0
0 5 6 2
0 7 0 1
0 15 -1 0
10
end_operator
begin_operator
destroy_road junction0-1 junction0-0 road1
1
15 0
4
0 1 4 0
0 4 6 2
0 7 0 1
0 11 -1 0
10
end_operator
begin_operator
destroy_road junction0-1 junction0-0 road1
0
6
0 1 4 0
0 4 6 2
0 5 6 2
0 7 0 1
0 11 -1 0
0 15 -1 0
10
end_operator
begin_operator
destroy_road junction0-1 junction0-0 road2
2
12 0
16 0
2
0 2 4 0
0 8 0 1
10
end_operator
begin_operator
destroy_road junction0-1 junction0-0 road2
1
12 0
4
0 2 4 0
0 5 7 2
0 8 0 1
0 16 -1 0
10
end_operator
begin_operator
destroy_road junction0-1 junction0-0 road2
1
16 0
4
0 2 4 0
0 4 7 2
0 8 0 1
0 12 -1 0
10
end_operator
begin_operator
destroy_road junction0-1 junction0-0 road2
0
6
0 2 4 0
0 4 7 2
0 5 7 2
0 8 0 1
0 12 -1 0
0 16 -1 0
10
end_operator
begin_operator
destroy_road junction0-1 junction0-0 road3
2
13 0
17 0
2
0 3 4 0
0 9 0 1
10
end_operator
begin_operator
destroy_road junction0-1 junction0-0 road3
1
13 0
4
0 3 4 0
0 5 8 2
0 9 0 1
0 17 -1 0
10
end_operator
begin_operator
destroy_road junction0-1 junction0-0 road3
1
17 0
4
0 3 4 0
0 4 8 2
0 9 0 1
0 13 -1 0
10
end_operator
begin_operator
destroy_road junction0-1 junction0-0 road3
0
6
0 3 4 0
0 4 8 2
0 5 8 2
0 9 0 1
0 13 -1 0
0 17 -1 0
10
end_operator
begin_operator
destroy_road junction0-1 junction1-0 road0
2
10 0
14 0
2
0 0 5 0
0 6 0 1
10
end_operator
begin_operator
destroy_road junction0-1 junction1-0 road0
1
10 0
4
0 0 5 0
0 5 5 2
0 6 0 1
0 14 -1 0
10
end_operator
begin_operator
destroy_road junction0-1 junction1-0 road0
1
14 0
4
0 0 5 0
0 4 5 2
0 6 0 1
0 10 -1 0
10
end_operator
begin_operator
destroy_road junction0-1 junction1-0 road0
0
6
0 0 5 0
0 4 5 2
0 5 5 2
0 6 0 1
0 10 -1 0
0 14 -1 0
10
end_operator
begin_operator
destroy_road junction0-1 junction1-0 road1
2
11 0
15 0
2
0 1 5 0
0 7 0 1
10
end_operator
begin_operator
destroy_road junction0-1 junction1-0 road1
1
11 0
4
0 1 5 0
0 5 6 2
0 7 0 1
0 15 -1 0
10
end_operator
begin_operator
destroy_road junction0-1 junction1-0 road1
1
15 0
4
0 1 5 0
0 4 6 2
0 7 0 1
0 11 -1 0
10
end_operator
begin_operator
destroy_road junction0-1 junction1-0 road1
0
6
0 1 5 0
0 4 6 2
0 5 6 2
0 7 0 1
0 11 -1 0
0 15 -1 0
10
end_operator
begin_operator
destroy_road junction0-1 junction1-0 road2
2
12 0
16 0
2
0 2 5 0
0 8 0 1
10
end_operator
begin_operator
destroy_road junction0-1 junction1-0 road2
1
12 0
4
0 2 5 0
0 5 7 2
0 8 0 1
0 16 -1 0
10
end_operator
begin_operator
destroy_road junction0-1 junction1-0 road2
1
16 0
4
0 2 5 0
0 4 7 2
0 8 0 1
0 12 -1 0
10
end_operator
begin_operator
destroy_road junction0-1 junction1-0 road2
0
6
0 2 5 0
0 4 7 2
0 5 7 2
0 8 0 1
0 12 -1 0
0 16 -1 0
10
end_operator
begin_operator
destroy_road junction0-1 junction1-0 road3
2
13 0
17 0
2
0 3 5 0
0 9 0 1
10
end_operator
begin_operator
destroy_road junction0-1 junction1-0 road3
1
13 0
4
0 3 5 0
0 5 8 2
0 9 0 1
0 17 -1 0
10
end_operator
begin_operator
destroy_road junction0-1 junction1-0 road3
1
17 0
4
0 3 5 0
0 4 8 2
0 9 0 1
0 13 -1 0
10
end_operator
begin_operator
destroy_road junction0-1 junction1-0 road3
0
6
0 3 5 0
0 4 8 2
0 5 8 2
0 9 0 1
0 13 -1 0
0 17 -1 0
10
end_operator
begin_operator
destroy_road junction0-1 junction1-1 road0
2
10 0
14 0
2
0 0 6 0
0 6 0 1
10
end_operator
begin_operator
destroy_road junction0-1 junction1-1 road0
1
10 0
4
0 0 6 0
0 5 5 2
0 6 0 1
0 14 -1 0
10
end_operator
begin_operator
destroy_road junction0-1 junction1-1 road0
1
14 0
4
0 0 6 0
0 4 5 2
0 6 0 1
0 10 -1 0
10
end_operator
begin_operator
destroy_road junction0-1 junction1-1 road0
0
6
0 0 6 0
0 4 5 2
0 5 5 2
0 6 0 1
0 10 -1 0
0 14 -1 0
10
end_operator
begin_operator
destroy_road junction0-1 junction1-1 road1
2
11 0
15 0
2
0 1 6 0
0 7 0 1
10
end_operator
begin_operator
destroy_road junction0-1 junction1-1 road1
1
11 0
4
0 1 6 0
0 5 6 2
0 7 0 1
0 15 -1 0
10
end_operator
begin_operator
destroy_road junction0-1 junction1-1 road1
1
15 0
4
0 1 6 0
0 4 6 2
0 7 0 1
0 11 -1 0
10
end_operator
begin_operator
destroy_road junction0-1 junction1-1 road1
0
6
0 1 6 0
0 4 6 2
0 5 6 2
0 7 0 1
0 11 -1 0
0 15 -1 0
10
end_operator
begin_operator
destroy_road junction0-1 junction1-1 road2
2
12 0
16 0
2
0 2 6 0
0 8 0 1
10
end_operator
begin_operator
destroy_road junction0-1 junction1-1 road2
1
12 0
4
0 2 6 0
0 5 7 2
0 8 0 1
0 16 -1 0
10
end_operator
begin_operator
destroy_road junction0-1 junction1-1 road2
1
16 0
4
0 2 6 0
0 4 7 2
0 8 0 1
0 12 -1 0
10
end_operator
begin_operator
destroy_road junction0-1 junction1-1 road2
0
6
0 2 6 0
0 4 7 2
0 5 7 2
0 8 0 1
0 12 -1 0
0 16 -1 0
10
end_operator
begin_operator
destroy_road junction0-1 junction1-1 road3
2
13 0
17 0
2
0 3 6 0
0 9 0 1
10
end_operator
begin_operator
destroy_road junction0-1 junction1-1 road3
1
13 0
4
0 3 6 0
0 5 8 2
0 9 0 1
0 17 -1 0
10
end_operator
begin_operator
destroy_road junction0-1 junction1-1 road3
1
17 0
4
0 3 6 0
0 4 8 2
0 9 0 1
0 13 -1 0
10
end_operator
begin_operator
destroy_road junction0-1 junction1-1 road3
0
6
0 3 6 0
0 4 8 2
0 5 8 2
0 9 0 1
0 13 -1 0
0 17 -1 0
10
end_operator
begin_operator
destroy_road junction1-0 junction0-0 road0
2
10 0
14 0
2
0 0 7 0
0 6 0 1
10
end_operator
begin_operator
destroy_road junction1-0 junction0-0 road0
1
10 0
4
0 0 7 0
0 5 5 3
0 6 0 1
0 14 -1 0
10
end_operator
begin_operator
destroy_road junction1-0 junction0-0 road0
1
14 0
4
0 0 7 0
0 4 5 3
0 6 0 1
0 10 -1 0
10
end_operator
begin_operator
destroy_road junction1-0 junction0-0 road0
0
6
0 0 7 0
0 4 5 3
0 5 5 3
0 6 0 1
0 10 -1 0
0 14 -1 0
10
end_operator
begin_operator
destroy_road junction1-0 junction0-0 road1
2
11 0
15 0
2
0 1 7 0
0 7 0 1
10
end_operator
begin_operator
destroy_road junction1-0 junction0-0 road1
1
11 0
4
0 1 7 0
0 5 6 3
0 7 0 1
0 15 -1 0
10
end_operator
begin_operator
destroy_road junction1-0 junction0-0 road1
1
15 0
4
0 1 7 0
0 4 6 3
0 7 0 1
0 11 -1 0
10
end_operator
begin_operator
destroy_road junction1-0 junction0-0 road1
0
6
0 1 7 0
0 4 6 3
0 5 6 3
0 7 0 1
0 11 -1 0
0 15 -1 0
10
end_operator
begin_operator
destroy_road junction1-0 junction0-0 road2
2
12 0
16 0
2
0 2 7 0
0 8 0 1
10
end_operator
begin_operator
destroy_road junction1-0 junction0-0 road2
1
12 0
4
0 2 7 0
0 5 7 3
0 8 0 1
0 16 -1 0
10
end_operator
begin_operator
destroy_road junction1-0 junction0-0 road2
1
16 0
4
0 2 7 0
0 4 7 3
0 8 0 1
0 12 -1 0
10
end_operator
begin_operator
destroy_road junction1-0 junction0-0 road2
0
6
0 2 7 0
0 4 7 3
0 5 7 3
0 8 0 1
0 12 -1 0
0 16 -1 0
10
end_operator
begin_operator
destroy_road junction1-0 junction0-0 road3
2
13 0
17 0
2
0 3 7 0
0 9 0 1
10
end_operator
begin_operator
destroy_road junction1-0 junction0-0 road3
1
13 0
4
0 3 7 0
0 5 8 3
0 9 0 1
0 17 -1 0
10
end_operator
begin_operator
destroy_road junction1-0 junction0-0 road3
1
17 0
4
0 3 7 0
0 4 8 3
0 9 0 1
0 13 -1 0
10
end_operator
begin_operator
destroy_road junction1-0 junction0-0 road3
0
6
0 3 7 0
0 4 8 3
0 5 8 3
0 9 0 1
0 13 -1 0
0 17 -1 0
10
end_operator
begin_operator
destroy_road junction1-0 junction0-1 road0
2
10 0
14 0
2
0 0 8 0
0 6 0 1
10
end_operator
begin_operator
destroy_road junction1-0 junction0-1 road0
1
10 0
4
0 0 8 0
0 5 5 3
0 6 0 1
0 14 -1 0
10
end_operator
begin_operator
destroy_road junction1-0 junction0-1 road0
1
14 0
4
0 0 8 0
0 4 5 3
0 6 0 1
0 10 -1 0
10
end_operator
begin_operator
destroy_road junction1-0 junction0-1 road0
0
6
0 0 8 0
0 4 5 3
0 5 5 3
0 6 0 1
0 10 -1 0
0 14 -1 0
10
end_operator
begin_operator
destroy_road junction1-0 junction0-1 road1
2
11 0
15 0
2
0 1 8 0
0 7 0 1
10
end_operator
begin_operator
destroy_road junction1-0 junction0-1 road1
1
11 0
4
0 1 8 0
0 5 6 3
0 7 0 1
0 15 -1 0
10
end_operator
begin_operator
destroy_road junction1-0 junction0-1 road1
1
15 0
4
0 1 8 0
0 4 6 3
0 7 0 1
0 11 -1 0
10
end_operator
begin_operator
destroy_road junction1-0 junction0-1 road1
0
6
0 1 8 0
0 4 6 3
0 5 6 3
0 7 0 1
0 11 -1 0
0 15 -1 0
10
end_operator
begin_operator
destroy_road junction1-0 junction0-1 road2
2
12 0
16 0
2
0 2 8 0
0 8 0 1
10
end_operator
begin_operator
destroy_road junction1-0 junction0-1 road2
1
12 0
4
0 2 8 0
0 5 7 3
0 8 0 1
0 16 -1 0
10
end_operator
begin_operator
destroy_road junction1-0 junction0-1 road2
1
16 0
4
0 2 8 0
0 4 7 3
0 8 0 1
0 12 -1 0
10
end_operator
begin_operator
destroy_road junction1-0 junction0-1 road2
0
6
0 2 8 0
0 4 7 3
0 5 7 3
0 8 0 1
0 12 -1 0
0 16 -1 0
10
end_operator
begin_operator
destroy_road junction1-0 junction0-1 road3
2
13 0
17 0
2
0 3 8 0
0 9 0 1
10
end_operator
begin_operator
destroy_road junction1-0 junction0-1 road3
1
13 0
4
0 3 8 0
0 5 8 3
0 9 0 1
0 17 -1 0
10
end_operator
begin_operator
destroy_road junction1-0 junction0-1 road3
1
17 0
4
0 3 8 0
0 4 8 3
0 9 0 1
0 13 -1 0
10
end_operator
begin_operator
destroy_road junction1-0 junction0-1 road3
0
6
0 3 8 0
0 4 8 3
0 5 8 3
0 9 0 1
0 13 -1 0
0 17 -1 0
10
end_operator
begin_operator
destroy_road junction1-0 junction1-1 road0
2
10 0
14 0
2
0 0 9 0
0 6 0 1
10
end_operator
begin_operator
destroy_road junction1-0 junction1-1 road0
1
10 0
4
0 0 9 0
0 5 5 3
0 6 0 1
0 14 -1 0
10
end_operator
begin_operator
destroy_road junction1-0 junction1-1 road0
1
14 0
4
0 0 9 0
0 4 5 3
0 6 0 1
0 10 -1 0
10
end_operator
begin_operator
destroy_road junction1-0 junction1-1 road0
0
6
0 0 9 0
0 4 5 3
0 5 5 3
0 6 0 1
0 10 -1 0
0 14 -1 0
10
end_operator
begin_operator
destroy_road junction1-0 junction1-1 road1
2
11 0
15 0
2
0 1 9 0
0 7 0 1
10
end_operator
begin_operator
destroy_road junction1-0 junction1-1 road1
1
11 0
4
0 1 9 0
0 5 6 3
0 7 0 1
0 15 -1 0
10
end_operator
begin_operator
destroy_road junction1-0 junction1-1 road1
1
15 0
4
0 1 9 0
0 4 6 3
0 7 0 1
0 11 -1 0
10
end_operator
begin_operator
destroy_road junction1-0 junction1-1 road1
0
6
0 1 9 0
0 4 6 3
0 5 6 3
0 7 0 1
0 11 -1 0
0 15 -1 0
10
end_operator
begin_operator
destroy_road junction1-0 junction1-1 road2
2
12 0
16 0
2
0 2 9 0
0 8 0 1
10
end_operator
begin_operator
destroy_road junction1-0 junction1-1 road2
1
12 0
4
0 2 9 0
0 5 7 3
0 8 0 1
0 16 -1 0
10
end_operator
begin_operator
destroy_road junction1-0 junction1-1 road2
1
16 0
4
0 2 9 0
0 4 7 3
0 8 0 1
0 12 -1 0
10
end_operator
begin_operator
destroy_road junction1-0 junction1-1 road2
0
6
0 2 9 0
0 4 7 3
0 5 7 3
0 8 0 1
0 12 -1 0
0 16 -1 0
10
end_operator
begin_operator
destroy_road junction1-0 junction1-1 road3
2
13 0
17 0
2
0 3 9 0
0 9 0 1
10
end_operator
begin_operator
destroy_road junction1-0 junction1-1 road3
1
13 0
4
0 3 9 0
0 5 8 3
0 9 0 1
0 17 -1 0
10
end_operator
begin_operator
destroy_road junction1-0 junction1-1 road3
1
17 0
4
0 3 9 0
0 4 8 3
0 9 0 1
0 13 -1 0
10
end_operator
begin_operator
destroy_road junction1-0 junction1-1 road3
0
6
0 3 9 0
0 4 8 3
0 5 8 3
0 9 0 1
0 13 -1 0
0 17 -1 0
10
end_operator
begin_operator
destroy_road junction1-1 junction0-0 road0
2
10 0
14 0
2
0 0 10 0
0 6 0 1
10
end_operator
begin_operator
destroy_road junction1-1 junction0-0 road0
1
10 0
4
0 0 10 0
0 5 5 4
0 6 0 1
0 14 -1 0
10
end_operator
begin_operator
destroy_road junction1-1 junction0-0 road0
1
14 0
4
0 0 10 0
0 4 5 4
0 6 0 1
0 10 -1 0
10
end_operator
begin_operator
destroy_road junction1-1 junction0-0 road0
0
6
0 0 10 0
0 4 5 4
0 5 5 4
0 6 0 1
0 10 -1 0
0 14 -1 0
10
end_operator
begin_operator
destroy_road junction1-1 junction0-0 road1
2
11 0
15 0
2
0 1 10 0
0 7 0 1
10
end_operator
begin_operator
destroy_road junction1-1 junction0-0 road1
1
11 0
4
0 1 10 0
0 5 6 4
0 7 0 1
0 15 -1 0
10
end_operator
begin_operator
destroy_road junction1-1 junction0-0 road1
1
15 0
4
0 1 10 0
0 4 6 4
0 7 0 1
0 11 -1 0
10
end_operator
begin_operator
destroy_road junction1-1 junction0-0 road1
0
6
0 1 10 0
0 4 6 4
0 5 6 4
0 7 0 1
0 11 -1 0
0 15 -1 0
10
end_operator
begin_operator
destroy_road junction1-1 junction0-0 road2
2
12 0
16 0
2
0 2 10 0
0 8 0 1
10
end_operator
begin_operator
destroy_road junction1-1 junction0-0 road2
1
12 0
4
0 2 10 0
0 5 7 4
0 8 0 1
0 16 -1 0
10
end_operator
begin_operator
destroy_road junction1-1 junction0-0 road2
1
16 0
4
0 2 10 0
0 4 7 4
0 8 0 1
0 12 -1 0
10
end_operator
begin_operator
destroy_road junction1-1 junction0-0 road2
0
6
0 2 10 0
0 4 7 4
0 5 7 4
0 8 0 1
0 12 -1 0
0 16 -1 0
10
end_operator
begin_operator
destroy_road junction1-1 junction0-0 road3
2
13 0
17 0
2
0 3 10 0
0 9 0 1
10
end_operator
begin_operator
destroy_road junction1-1 junction0-0 road3
1
13 0
4
0 3 10 0
0 5 8 4
0 9 0 1
0 17 -1 0
10
end_operator
begin_operator
destroy_road junction1-1 junction0-0 road3
1
17 0
4
0 3 10 0
0 4 8 4
0 9 0 1
0 13 -1 0
10
end_operator
begin_operator
destroy_road junction1-1 junction0-0 road3
0
6
0 3 10 0
0 4 8 4
0 5 8 4
0 9 0 1
0 13 -1 0
0 17 -1 0
10
end_operator
begin_operator
destroy_road junction1-1 junction0-1 road0
2
10 0
14 0
2
0 0 11 0
0 6 0 1
10
end_operator
begin_operator
destroy_road junction1-1 junction0-1 road0
1
10 0
4
0 0 11 0
0 5 5 4
0 6 0 1
0 14 -1 0
10
end_operator
begin_operator
destroy_road junction1-1 junction0-1 road0
1
14 0
4
0 0 11 0
0 4 5 4
0 6 0 1
0 10 -1 0
10
end_operator
begin_operator
destroy_road junction1-1 junction0-1 road0
0
6
0 0 11 0
0 4 5 4
0 5 5 4
0 6 0 1
0 10 -1 0
0 14 -1 0
10
end_operator
begin_operator
destroy_road junction1-1 junction0-1 road1
2
11 0
15 0
2
0 1 11 0
0 7 0 1
10
end_operator
begin_operator
destroy_road junction1-1 junction0-1 road1
1
11 0
4
0 1 11 0
0 5 6 4
0 7 0 1
0 15 -1 0
10
end_operator
begin_operator
destroy_road junction1-1 junction0-1 road1
1
15 0
4
0 1 11 0
0 4 6 4
0 7 0 1
0 11 -1 0
10
end_operator
begin_operator
destroy_road junction1-1 junction0-1 road1
0
6
0 1 11 0
0 4 6 4
0 5 6 4
0 7 0 1
0 11 -1 0
0 15 -1 0
10
end_operator
begin_operator
destroy_road junction1-1 junction0-1 road2
2
12 0
16 0
2
0 2 11 0
0 8 0 1
10
end_operator
begin_operator
destroy_road junction1-1 junction0-1 road2
1
12 0
4
0 2 11 0
0 5 7 4
0 8 0 1
0 16 -1 0
10
end_operator
begin_operator
destroy_road junction1-1 junction0-1 road2
1
16 0
4
0 2 11 0
0 4 7 4
0 8 0 1
0 12 -1 0
10
end_operator
begin_operator
destroy_road junction1-1 junction0-1 road2
0
6
0 2 11 0
0 4 7 4
0 5 7 4
0 8 0 1
0 12 -1 0
0 16 -1 0
10
end_operator
begin_operator
destroy_road junction1-1 junction0-1 road3
2
13 0
17 0
2
0 3 11 0
0 9 0 1
10
end_operator
begin_operator
destroy_road junction1-1 junction0-1 road3
1
13 0
4
0 3 11 0
0 5 8 4
0 9 0 1
0 17 -1 0
10
end_operator
begin_operator
destroy_road junction1-1 junction0-1 road3
1
17 0
4
0 3 11 0
0 4 8 4
0 9 0 1
0 13 -1 0
10
end_operator
begin_operator
destroy_road junction1-1 junction0-1 road3
0
6
0 3 11 0
0 4 8 4
0 5 8 4
0 9 0 1
0 13 -1 0
0 17 -1 0
10
end_operator
begin_operator
destroy_road junction1-1 junction1-0 road0
2
10 0
14 0
2
0 0 12 0
0 6 0 1
10
end_operator
begin_operator
destroy_road junction1-1 junction1-0 road0
1
10 0
4
0 0 12 0
0 5 5 4
0 6 0 1
0 14 -1 0
10
end_operator
begin_operator
destroy_road junction1-1 junction1-0 road0
1
14 0
4
0 0 12 0
0 4 5 4
0 6 0 1
0 10 -1 0
10
end_operator
begin_operator
destroy_road junction1-1 junction1-0 road0
0
6
0 0 12 0
0 4 5 4
0 5 5 4
0 6 0 1
0 10 -1 0
0 14 -1 0
10
end_operator
begin_operator
destroy_road junction1-1 junction1-0 road1
2
11 0
15 0
2
0 1 12 0
0 7 0 1
10
end_operator
begin_operator
destroy_road junction1-1 junction1-0 road1
1
11 0
4
0 1 12 0
0 5 6 4
0 7 0 1
0 15 -1 0
10
end_operator
begin_operator
destroy_road junction1-1 junction1-0 road1
1
15 0
4
0 1 12 0
0 4 6 4
0 7 0 1
0 11 -1 0
10
end_operator
begin_operator
destroy_road junction1-1 junction1-0 road1
0
6
0 1 12 0
0 4 6 4
0 5 6 4
0 7 0 1
0 11 -1 0
0 15 -1 0
10
end_operator
begin_operator
destroy_road junction1-1 junction1-0 road2
2
12 0
16 0
2
0 2 12 0
0 8 0 1
10
end_operator
begin_operator
destroy_road junction1-1 junction1-0 road2
1
12 0
4
0 2 12 0
0 5 7 4
0 8 0 1
0 16 -1 0
10
end_operator
begin_operator
destroy_road junction1-1 junction1-0 road2
1
16 0
4
0 2 12 0
0 4 7 4
0 8 0 1
0 12 -1 0
10
end_operator
begin_operator
destroy_road junction1-1 junction1-0 road2
0
6
0 2 12 0
0 4 7 4
0 5 7 4
0 8 0 1
0 12 -1 0
0 16 -1 0
10
end_operator
begin_operator
destroy_road junction1-1 junction1-0 road3
2
13 0
17 0
2
0 3 12 0
0 9 0 1
10
end_operator
begin_operator
destroy_road junction1-1 junction1-0 road3
1
13 0
4
0 3 12 0
0 5 8 4
0 9 0 1
0 17 -1 0
10
end_operator
begin_operator
destroy_road junction1-1 junction1-0 road3
1
17 0
4
0 3 12 0
0 4 8 4
0 9 0 1
0 13 -1 0
10
end_operator
begin_operator
destroy_road junction1-1 junction1-0 road3
0
6
0 3 12 0
0 4 8 4
0 5 8 4
0 9 0 1
0 13 -1 0
0 17 -1 0
10
end_operator
begin_operator
move_car_in_road junction0-0 junction0-1 car0 road0
2
0 1
6 0
3
0 4 1 5
0 10 -1 1
0 18 -1 0
1
end_operator
begin_operator
move_car_in_road junction0-0 junction0-1 car0 road1
2
1 1
7 0
3
0 4 1 6
0 11 -1 1
0 18 -1 0
1
end_operator
begin_operator
move_car_in_road junction0-0 junction0-1 car0 road2
2
2 1
8 0
3
0 4 1 7
0 12 -1 1
0 18 -1 0
1
end_operator
begin_operator
move_car_in_road junction0-0 junction0-1 car0 road3
2
3 1
9 0
3
0 4 1 8
0 13 -1 1
0 18 -1 0
1
end_operator
begin_operator
move_car_in_road junction0-0 junction0-1 car1 road0
2
0 1
6 0
3
0 5 1 5
0 14 -1 1
0 18 -1 0
1
end_operator
begin_operator
move_car_in_road junction0-0 junction0-1 car1 road1
2
1 1
7 0
3
0 5 1 6
0 15 -1 1
0 18 -1 0
1
end_operator
begin_operator
move_car_in_road junction0-0 junction0-1 car1 road2
2
2 1
8 0
3
0 5 1 7
0 16 -1 1
0 18 -1 0
1
end_operator
begin_operator
move_car_in_road junction0-0 junction0-1 car1 road3
2
3 1
9 0
3
0 5 1 8
0 17 -1 1
0 18 -1 0
1
end_operator
begin_operator
move_car_in_road junction0-0 junction1-0 car0 road0
2
0 2
6 0
3
0 4 1 5
0 10 -1 1
0 18 -1 0
1
end_operator
begin_operator
move_car_in_road junction0-0 junction1-0 car0 road1
2
1 2
7 0
3
0 4 1 6
0 11 -1 1
0 18 -1 0
1
end_operator
begin_operator
move_car_in_road junction0-0 junction1-0 car0 road2
2
2 2
8 0
3
0 4 1 7
0 12 -1 1
0 18 -1 0
1
end_operator
begin_operator
move_car_in_road junction0-0 junction1-0 car0 road3
2
3 2
9 0
3
0 4 1 8
0 13 -1 1
0 18 -1 0
1
end_operator
begin_operator
move_car_in_road junction0-0 junction1-0 car1 road0
2
0 2
6 0
3
0 5 1 5
0 14 -1 1
0 18 -1 0
1
end_operator
begin_operator
move_car_in_road junction0-0 junction1-0 car1 road1
2
1 2
7 0
3
0 5 1 6
0 15 -1 1
0 18 -1 0
1
end_operator
begin_operator
move_car_in_road junction0-0 junction1-0 car1 road2
2
2 2
8 0
3
0 5 1 7
0 16 -1 1
0 18 -1 0
1
end_operator
begin_operator
move_car_in_road junction0-0 junction1-0 car1 road3
2
3 2
9 0
3
0 5 1 8
0 17 -1 1
0 18 -1 0
1
end_operator
begin_operator
move_car_in_road junction0-0 junction1-1 car0 road0
2
0 3
6 0
3
0 4 1 5
0 10 -1 1
0 18 -1 0
1
end_operator
begin_operator
move_car_in_road junction0-0 junction1-1 car0 road1
2
1 3
7 0
3
0 4 1 6
0 11 -1 1
0 18 -1 0
1
end_operator
begin_operator
move_car_in_road junction0-0 junction1-1 car0 road2
2
2 3
8 0
3
0 4 1 7
0 12 -1 1
0 18 -1 0
1
end_operator
begin_operator
move_car_in_road junction0-0 junction1-1 car0 road3
2
3 3
9 0
3
0 4 1 8
0 13 -1 1
0 18 -1 0
1
end_operator
begin_operator
move_car_in_road junction0-0 junction1-1 car1 road0
2
0 3
6 0
3
0 5 1 5
0 14 -1 1
0 18 -1 0
1
end_operator
begin_operator
move_car_in_road junction0-0 junction1-1 car1 road1
2
1 3
7 0
3
0 5 1 6
0 15 -1 1
0 18 -1 0
1
end_operator
begin_operator
move_car_in_road junction0-0 junction1-1 car1 road2
2
2 3
8 0
3
0 5 1 7
0 16 -1 1
0 18 -1 0
1
end_operator
begin_operator
move_car_in_road junction0-0 junction1-1 car1 road3
2
3 3
9 0
3
0 5 1 8
0 17 -1 1
0 18 -1 0
1
end_operator
begin_operator
move_car_in_road junction0-1 junction0-0 car0 road0
2
0 4
6 0
3
0 4 2 5
0 10 -1 1
0 19 -1 0
1
end_operator
begin_operator
move_car_in_road junction0-1 junction0-0 car0 road1
2
1 4
7 0
3
0 4 2 6
0 11 -1 1
0 19 -1 0
1
end_operator
begin_operator
move_car_in_road junction0-1 junction0-0 car0 road2
2
2 4
8 0
3
0 4 2 7
0 12 -1 1
0 19 -1 0
1
end_operator
begin_operator
move_car_in_road junction0-1 junction0-0 car0 road3
2
3 4
9 0
3
0 4 2 8
0 13 -1 1
0 19 -1 0
1
end_operator
begin_operator
move_car_in_road junction0-1 junction0-0 car1 road0
2
0 4
6 0
3
0 5 2 5
0 14 -1 1
0 19 -1 0
1
end_operator
begin_operator
move_car_in_road junction0-1 junction0-0 car1 road1
2
1 4
7 0
3
0 5 2 6
0 15 -1 1
0 19 -1 0
1
end_operator
begin_operator
move_car_in_road junction0-1 junction0-0 car1 road2
2
2 4
8 0
3
0 5 2 7
0 16 -1 1
0 19 -1 0
1
end_operator
begin_operator
move_car_in_road junction0-1 junction0-0 car1 road3
2
3 4
9 0
3
0 5 2 8
0 17 -1 1
0 19 -1 0
1
end_operator
begin_operator
move_car_in_road junction0-1 junction1-0 car0 road0
2
0 5
6 0
3
0 4 2 5
0 10 -1 1
0 19 -1 0
1
end_operator
begin_operator
move_car_in_road junction0-1 junction1-0 car0 road1
2
1 5
7 0
3
0 4 2 6
0 11 -1 1
0 19 -1 0
1
end_operator
begin_operator
move_car_in_road junction0-1 junction1-0 car0 road2
2
2 5
8 0
3
0 4 2 7
0 12 -1 1
0 19 -1 0
1
end_operator
begin_operator
move_car_in_road junction0-1 junction1-0 car0 road3
2
3 5
9 0
3
0 4 2 8
0 13 -1 1
0 19 -1 0
1
end_operator
begin_operator
move_car_in_road junction0-1 junction1-0 car1 road0
2
0 5
6 0
3
0 5 2 5
0 14 -1 1
0 19 -1 0
1
end_operator
begin_operator
move_car_in_road junction0-1 junction1-0 car1 road1
2
1 5
7 0
3
0 5 2 6
0 15 -1 1
0 19 -1 0
1
end_operator
begin_operator
move_car_in_road junction0-1 junction1-0 car1 road2
2
2 5
8 0
3
0 5 2 7
0 16 -1 1
0 19 -1 0
1
end_operator
begin_operator
move_car_in_road junction0-1 junction1-0 car1 road3
2
3 5
9 0
3
0 5 2 8
0 17 -1 1
0 19 -1 0
1
end_operator
begin_operator
move_car_in_road junction0-1 junction1-1 car0 road0
2
0 6
6 0
3
0 4 2 5
0 10 -1 1
0 19 -1 0
1
end_operator
begin_operator
move_car_in_road junction0-1 junction1-1 car0 road1
2
1 6
7 0
3
0 4 2 6
0 11 -1 1
0 19 -1 0
1
end_operator
begin_operator
move_car_in_road junction0-1 junction1-1 car0 road2
2
2 6
8 0
3
0 4 2 7
0 12 -1 1
0 19 -1 0
1
end_operator
begin_operator
move_car_in_road junction0-1 junction1-1 car0 road3
2
3 6
9 0
3
0 4 2 8
0 13 -1 1
0 19 -1 0
1
end_operator
begin_operator
move_car_in_road junction0-1 junction1-1 car1 road0
2
0 6
6 0
3
0 5 2 5
0 14 -1 1
0 19 -1 0
1
end_operator
begin_operator
move_car_in_road junction0-1 junction1-1 car1 road1
2
1 6
7 0
3
0 5 2 6
0 15 -1 1
0 19 -1 0
1
end_operator
begin_operator
move_car_in_road junction0-1 junction1-1 car1 road2
2
2 6
8 0
3
0 5 2 7
0 16 -1 1
0 19 -1 0
1
end_operator
begin_operator
move_car_in_road junction0-1 junction1-1 car1 road3
2
3 6
9 0
3
0 5 2 8
0 17 -1 1
0 19 -1 0
1
end_operator
begin_operator
move_car_in_road junction1-0 junction0-0 car0 road0
2
0 7
6 0
3
0 4 3 5
0 10 -1 1
0 20 -1 0
1
end_operator
begin_operator
move_car_in_road junction1-0 junction0-0 car0 road1
2
1 7
7 0
3
0 4 3 6
0 11 -1 1
0 20 -1 0
1
end_operator
begin_operator
move_car_in_road junction1-0 junction0-0 car0 road2
2
2 7
8 0
3
0 4 3 7
0 12 -1 1
0 20 -1 0
1
end_operator
begin_operator
move_car_in_road junction1-0 junction0-0 car0 road3
2
3 7
9 0
3
0 4 3 8
0 13 -1 1
0 20 -1 0
1
end_operator
begin_operator
move_car_in_road junction1-0 junction0-0 car1 road0
2
0 7
6 0
3
0 5 3 5
0 14 -1 1
0 20 -1 0
1
end_operator
begin_operator
move_car_in_road junction1-0 junction0-0 car1 road1
2
1 7
7 0
3
0 5 3 6
0 15 -1 1
0 20 -1 0
1
end_operator
begin_operator
move_car_in_road junction1-0 junction0-0 car1 road2
2
2 7
8 0
3
0 5 3 7
0 16 -1 1
0 20 -1 0
1
end_operator
begin_operator
move_car_in_road junction1-0 junction0-0 car1 road3
2
3 7
9 0
3
0 5 3 8
0 17 -1 1
0 20 -1 0
1
end_operator
begin_operator
move_car_in_road junction1-0 junction0-1 car0 road0
2
0 8
6 0
3
0 4 3 5
0 10 -1 1
0 20 -1 0
1
end_operator
begin_operator
move_car_in_road junction1-0 junction0-1 car0 road1
2
1 8
7 0
3
0 4 3 6
0 11 -1 1
0 20 -1 0
1
end_operator
begin_operator
move_car_in_road junction1-0 junction0-1 car0 road2
2
2 8
8 0
3
0 4 3 7
0 12 -1 1
0 20 -1 0
1
end_operator
begin_operator
move_car_in_road junction1-0 junction0-1 car0 road3
2
3 8
9 0
3
0 4 3 8
0 13 -1 1
0 20 -1 0
1
end_operator
begin_operator
move_car_in_road junction1-0 junction0-1 car1 road0
2
0 8
6 0
3
0 5 3 5
0 14 -1 1
0 20 -1 0
1
end_operator
begin_operator
move_car_in_road junction1-0 junction0-1 car1 road1
2
1 8
7 0
3
0 5 3 6
0 15 -1 1
0 20 -1 0
1
end_operator
begin_operator
move_car_in_road junction1-0 junction0-1 car1 road2
2
2 8
8 0
3
0 5 3 7
0 16 -1 1
0 20 -1 0
1
end_operator
begin_operator
move_car_in_road junction1-0 junction0-1 car1 road3
2
3 8
9 0
3
0 5 3 8
0 17 -1 1
0 20 -1 0
1
end_operator
begin_operator
move_car_in_road junction1-0 junction1-1 car0 road0
2
0 9
6 0
3
0 4 3 5
0 10 -1 1
0 20 -1 0
1
end_operator
begin_operator
move_car_in_road junction1-0 junction1-1 car0 road1
2
1 9
7 0
3
0 4 3 6
0 11 -1 1
0 20 -1 0
1
end_operator
begin_operator
move_car_in_road junction1-0 junction1-1 car0 road2
2
2 9
8 0
3
0 4 3 7
0 12 -1 1
0 20 -1 0
1
end_operator
begin_operator
move_car_in_road junction1-0 junction1-1 car0 road3
2
3 9
9 0
3
0 4 3 8
0 13 -1 1
0 20 -1 0
1
end_operator
begin_operator
move_car_in_road junction1-0 junction1-1 car1 road0
2
0 9
6 0
3
0 5 3 5
0 14 -1 1
0 20 -1 0
1
end_operator
begin_operator
move_car_in_road junction1-0 junction1-1 car1 road1
2
1 9
7 0
3
0 5 3 6
0 15 -1 1
0 20 -1 0
1
end_operator
begin_operator
move_car_in_road junction1-0 junction1-1 car1 road2
2
2 9
8 0
3
0 5 3 7
0 16 -1 1
0 20 -1 0
1
end_operator
begin_operator
move_car_in_road junction1-0 junction1-1 car1 road3
2
3 9
9 0
3
0 5 3 8
0 17 -1 1
0 20 -1 0
1
end_operator
begin_operator
move_car_in_road junction1-1 junction0-0 car0 road0
2
0 10
6 0
3
0 4 4 5
0 10 -1 1
0 21 -1 0
1
end_operator
begin_operator
move_car_in_road junction1-1 junction0-0 car0 road1
2
1 10
7 0
3
0 4 4 6
0 11 -1 1
0 21 -1 0
1
end_operator
begin_operator
move_car_in_road junction1-1 junction0-0 car0 road2
2
2 10
8 0
3
0 4 4 7
0 12 -1 1
0 21 -1 0
1
end_operator
begin_operator
move_car_in_road junction1-1 junction0-0 car0 road3
2
3 10
9 0
3
0 4 4 8
0 13 -1 1
0 21 -1 0
1
end_operator
begin_operator
move_car_in_road junction1-1 junction0-0 car1 road0
2
0 10
6 0
3
0 5 4 5
0 14 -1 1
0 21 -1 0
1
end_operator
begin_operator
move_car_in_road junction1-1 junction0-0 car1 road1
2
1 10
7 0
3
0 5 4 6
0 15 -1 1
0 21 -1 0
1
end_operator
begin_operator
move_car_in_road junction1-1 junction0-0 car1 road2
2
2 10
8 0
3
0 5 4 7
0 16 -1 1
0 21 -1 0
1
end_operator
begin_operator
move_car_in_road junction1-1 junction0-0 car1 road3
2
3 10
9 0
3
0 5 4 8
0 17 -1 1
0 21 -1 0
1
end_operator
begin_operator
move_car_in_road junction1-1 junction0-1 car0 road0
2
0 11
6 0
3
0 4 4 5
0 10 -1 1
0 21 -1 0
1
end_operator
begin_operator
move_car_in_road junction1-1 junction0-1 car0 road1
2
1 11
7 0
3
0 4 4 6
0 11 -1 1
0 21 -1 0
1
end_operator
begin_operator
move_car_in_road junction1-1 junction0-1 car0 road2
2
2 11
8 0
3
0 4 4 7
0 12 -1 1
0 21 -1 0
1
end_operator
begin_operator
move_car_in_road junction1-1 junction0-1 car0 road3
2
3 11
9 0
3
0 4 4 8
0 13 -1 1
0 21 -1 0
1
end_operator
begin_operator
move_car_in_road junction1-1 junction0-1 car1 road0
2
0 11
6 0
3
0 5 4 5
0 14 -1 1
0 21 -1 0
1
end_operator
begin_operator
move_car_in_road junction1-1 junction0-1 car1 road1
2
1 11
7 0
3
0 5 4 6
0 15 -1 1
0 21 -1 0
1
end_operator
begin_operator
move_car_in_road junction1-1 junction0-1 car1 road2
2
2 11
8 0
3
0 5 4 7
0 16 -1 1
0 21 -1 0
1
end_operator
begin_operator
move_car_in_road junction1-1 junction0-1 car1 road3
2
3 11
9 0
3
0 5 4 8
0 17 -1 1
0 21 -1 0
1
end_operator
begin_operator
move_car_in_road junction1-1 junction1-0 car0 road0
2
0 12
6 0
3
0 4 4 5
0 10 -1 1
0 21 -1 0
1
end_operator
begin_operator
move_car_in_road junction1-1 junction1-0 car0 road1
2
1 12
7 0
3
0 4 4 6
0 11 -1 1
0 21 -1 0
1
end_operator
begin_operator
move_car_in_road junction1-1 junction1-0 car0 road2
2
2 12
8 0
3
0 4 4 7
0 12 -1 1
0 21 -1 0
1
end_operator
begin_operator
move_car_in_road junction1-1 junction1-0 car0 road3
2
3 12
9 0
3
0 4 4 8
0 13 -1 1
0 21 -1 0
1
end_operator
begin_operator
move_car_in_road junction1-1 junction1-0 car1 road0
2
0 12
6 0
3
0 5 4 5
0 14 -1 1
0 21 -1 0
1
end_operator
begin_operator
move_car_in_road junction1-1 junction1-0 car1 road1
2
1 12
7 0
3
0 5 4 6
0 15 -1 1
0 21 -1 0
1
end_operator
begin_operator
move_car_in_road junction1-1 junction1-0 car1 road2
2
2 12
8 0
3
0 5 4 7
0 16 -1 1
0 21 -1 0
1
end_operator
begin_operator
move_car_in_road junction1-1 junction1-0 car1 road3
2
3 12
9 0
3
0 5 4 8
0 17 -1 1
0 21 -1 0
1
end_operator
begin_operator
move_car_out_road junction0-0 junction0-1 car0 road0
2
0 1
6 0
3
0 4 5 2
0 10 -1 0
0 19 0 1
1
end_operator
begin_operator
move_car_out_road junction0-0 junction0-1 car0 road1
2
1 1
7 0
3
0 4 6 2
0 11 -1 0
0 19 0 1
1
end_operator
begin_operator
move_car_out_road junction0-0 junction0-1 car0 road2
2
2 1
8 0
3
0 4 7 2
0 12 -1 0
0 19 0 1
1
end_operator
begin_operator
move_car_out_road junction0-0 junction0-1 car0 road3
2
3 1
9 0
3
0 4 8 2
0 13 -1 0
0 19 0 1
1
end_operator
begin_operator
move_car_out_road junction0-0 junction0-1 car1 road0
2
0 1
6 0
3
0 5 5 2
0 14 -1 0
0 19 0 1
1
end_operator
begin_operator
move_car_out_road junction0-0 junction0-1 car1 road1
2
1 1
7 0
3
0 5 6 2
0 15 -1 0
0 19 0 1
1
end_operator
begin_operator
move_car_out_road junction0-0 junction0-1 car1 road2
2
2 1
8 0
3
0 5 7 2
0 16 -1 0
0 19 0 1
1
end_operator
begin_operator
move_car_out_road junction0-0 junction0-1 car1 road3
2
3 1
9 0
3
0 5 8 2
0 17 -1 0
0 19 0 1
1
end_operator
begin_operator
move_car_out_road junction0-0 junction1-0 car0 road0
2
0 2
6 0
3
0 4 5 3
0 10 -1 0
0 20 0 1
1
end_operator
begin_operator
move_car_out_road junction0-0 junction1-0 car0 road1
2
1 2
7 0
3
0 4 6 3
0 11 -1 0
0 20 0 1
1
end_operator
begin_operator
move_car_out_road junction0-0 junction1-0 car0 road2
2
2 2
8 0
3
0 4 7 3
0 12 -1 0
0 20 0 1
1
end_operator
begin_operator
move_car_out_road junction0-0 junction1-0 car0 road3
2
3 2
9 0
3
0 4 8 3
0 13 -1 0
0 20 0 1
1
end_operator
begin_operator
move_car_out_road junction0-0 junction1-0 car1 road0
2
0 2
6 0
3
0 5 5 3
0 14 -1 0
0 20 0 1
1
end_operator
begin_operator
move_car_out_road junction0-0 junction1-0 car1 road1
2
1 2
7 0
3
0 5 6 3
0 15 -1 0
0 20 0 1
1
end_operator
begin_operator
move_car_out_road junction0-0 junction1-0 car1 road2
2
2 2
8 0
3
0 5 7 3
0 16 -1 0
0 20 0 1
1
end_operator
begin_operator
move_car_out_road junction0-0 junction1-0 car1 road3
2
3 2
9 0
3
0 5 8 3
0 17 -1 0
0 20 0 1
1
end_operator
begin_operator
move_car_out_road junction0-0 junction1-1 car0 road0
2
0 3
6 0
3
0 4 5 4
0 10 -1 0
0 21 0 1
1
end_operator
begin_operator
move_car_out_road junction0-0 junction1-1 car0 road1
2
1 3
7 0
3
0 4 6 4
0 11 -1 0
0 21 0 1
1
end_operator
begin_operator
move_car_out_road junction0-0 junction1-1 car0 road2
2
2 3
8 0
3
0 4 7 4
0 12 -1 0
0 21 0 1
1
end_operator
begin_operator
move_car_out_road junction0-0 junction1-1 car0 road3
2
3 3
9 0
3
0 4 8 4
0 13 -1 0
0 21 0 1
1
end_operator
begin_operator
move_car_out_road junction0-0 junction1-1 car1 road0
2
0 3
6 0
3
0 5 5 4
0 14 -1 0
0 21 0 1
1
end_operator
begin_operator
move_car_out_road junction0-0 junction1-1 car1 road1
2
1 3
7 0
3
0 5 6 4
0 15 -1 0
0 21 0 1
1
end_operator
begin_operator
move_car_out_road junction0-0 junction1-1 car1 road2
2
2 3
8 0
3
0 5 7 4
0 16 -1 0
0 21 0 1
1
end_operator
begin_operator
move_car_out_road junction0-0 junction1-1 car1 road3
2
3 3
9 0
3
0 5 8 4
0 17 -1 0
0 21 0 1
1
end_operator
begin_operator
move_car_out_road junction0-1 junction0-0 car0 road0
2
0 4
6 0
3
0 4 5 1
0 10 -1 0
0 18 0 1
1
end_operator
begin_operator
move_car_out_road junction0-1 junction0-0 car0 road1
2
1 4
7 0
3
0 4 6 1
0 11 -1 0
0 18 0 1
1
end_operator
begin_operator
move_car_out_road junction0-1 junction0-0 car0 road2
2
2 4
8 0
3
0 4 7 1
0 12 -1 0
0 18 0 1
1
end_operator
begin_operator
move_car_out_road junction0-1 junction0-0 car0 road3
2
3 4
9 0
3
0 4 8 1
0 13 -1 0
0 18 0 1
1
end_operator
begin_operator
move_car_out_road junction0-1 junction0-0 car1 road0
2
0 4
6 0
3
0 5 5 1
0 14 -1 0
0 18 0 1
1
end_operator
begin_operator
move_car_out_road junction0-1 junction0-0 car1 road1
2
1 4
7 0
3
0 5 6 1
0 15 -1 0
0 18 0 1
1
end_operator
begin_operator
move_car_out_road junction0-1 junction0-0 car1 road2
2
2 4
8 0
3
0 5 7 1
0 16 -1 0
0 18 0 1
1
end_operator
begin_operator
move_car_out_road junction0-1 junction0-0 car1 road3
2
3 4
9 0
3
0 5 8 1
0 17 -1 0
0 18 0 1
1
end_operator
begin_operator
move_car_out_road junction0-1 junction1-0 car0 road0
2
0 5
6 0
3
0 4 5 3
0 10 -1 0
0 20 0 1
1
end_operator
begin_operator
move_car_out_road junction0-1 junction1-0 car0 road1
2
1 5
7 0
3
0 4 6 3
0 11 -1 0
0 20 0 1
1
end_operator
begin_operator
move_car_out_road junction0-1 junction1-0 car0 road2
2
2 5
8 0
3
0 4 7 3
0 12 -1 0
0 20 0 1
1
end_operator
begin_operator
move_car_out_road junction0-1 junction1-0 car0 road3
2
3 5
9 0
3
0 4 8 3
0 13 -1 0
0 20 0 1
1
end_operator
begin_operator
move_car_out_road junction0-1 junction1-0 car1 road0
2
0 5
6 0
3
0 5 5 3
0 14 -1 0
0 20 0 1
1
end_operator
begin_operator
move_car_out_road junction0-1 junction1-0 car1 road1
2
1 5
7 0
3
0 5 6 3
0 15 -1 0
0 20 0 1
1
end_operator
begin_operator
move_car_out_road junction0-1 junction1-0 car1 road2
2
2 5
8 0
3
0 5 7 3
0 16 -1 0
0 20 0 1
1
end_operator
begin_operator
move_car_out_road junction0-1 junction1-0 car1 road3
2
3 5
9 0
3
0 5 8 3
0 17 -1 0
0 20 0 1
1
end_operator
begin_operator
move_car_out_road junction0-1 junction1-1 car0 road0
2
0 6
6 0
3
0 4 5 4
0 10 -1 0
0 21 0 1
1
end_operator
begin_operator
move_car_out_road junction0-1 junction1-1 car0 road1
2
1 6
7 0
3
0 4 6 4
0 11 -1 0
0 21 0 1
1
end_operator
begin_operator
move_car_out_road junction0-1 junction1-1 car0 road2
2
2 6
8 0
3
0 4 7 4
0 12 -1 0
0 21 0 1
1
end_operator
begin_operator
move_car_out_road junction0-1 junction1-1 car0 road3
2
3 6
9 0
3
0 4 8 4
0 13 -1 0
0 21 0 1
1
end_operator
begin_operator
move_car_out_road junction0-1 junction1-1 car1 road0
2
0 6
6 0
3
0 5 5 4
0 14 -1 0
0 21 0 1
1
end_operator
begin_operator
move_car_out_road junction0-1 junction1-1 car1 road1
2
1 6
7 0
3
0 5 6 4
0 15 -1 0
0 21 0 1
1
end_operator
begin_operator
move_car_out_road junction0-1 junction1-1 car1 road2
2
2 6
8 0
3
0 5 7 4
0 16 -1 0
0 21 0 1
1
end_operator
begin_operator
move_car_out_road junction0-1 junction1-1 car1 road3
2
3 6
9 0
3
0 5 8 4
0 17 -1 0
0 21 0 1
1
end_operator
begin_operator
move_car_out_road junction1-0 junction0-0 car0 road0
2
0 7
6 0
3
0 4 5 1
0 10 -1 0
0 18 0 1
1
end_operator
begin_operator
move_car_out_road junction1-0 junction0-0 car0 road1
2
1 7
7 0
3
0 4 6 1
0 11 -1 0
0 18 0 1
1
end_operator
begin_operator
move_car_out_road junction1-0 junction0-0 car0 road2
2
2 7
8 0
3
0 4 7 1
0 12 -1 0
0 18 0 1
1
end_operator
begin_operator
move_car_out_road junction1-0 junction0-0 car0 road3
2
3 7
9 0
3
0 4 8 1
0 13 -1 0
0 18 0 1
1
end_operator
begin_operator
move_car_out_road junction1-0 junction0-0 car1 road0
2
0 7
6 0
3
0 5 5 1
0 14 -1 0
0 18 0 1
1
end_operator
begin_operator
move_car_out_road junction1-0 junction0-0 car1 road1
2
1 7
7 0
3
0 5 6 1
0 15 -1 0
0 18 0 1
1
end_operator
begin_operator
move_car_out_road junction1-0 junction0-0 car1 road2
2
2 7
8 0
3
0 5 7 1
0 16 -1 0
0 18 0 1
1
end_operator
begin_operator
move_car_out_road junction1-0 junction0-0 car1 road3
2
3 7
9 0
3
0 5 8 1
0 17 -1 0
0 18 0 1
1
end_operator
begin_operator
move_car_out_road junction1-0 junction0-1 car0 road0
2
0 8
6 0
3
0 4 5 2
0 10 -1 0
0 19 0 1
1
end_operator
begin_operator
move_car_out_road junction1-0 junction0-1 car0 road1
2
1 8
7 0
3
0 4 6 2
0 11 -1 0
0 19 0 1
1
end_operator
begin_operator
move_car_out_road junction1-0 junction0-1 car0 road2
2
2 8
8 0
3
0 4 7 2
0 12 -1 0
0 19 0 1
1
end_operator
begin_operator
move_car_out_road junction1-0 junction0-1 car0 road3
2
3 8
9 0
3
0 4 8 2
0 13 -1 0
0 19 0 1
1
end_operator
begin_operator
move_car_out_road junction1-0 junction0-1 car1 road0
2
0 8
6 0
3
0 5 5 2
0 14 -1 0
0 19 0 1
1
end_operator
begin_operator
move_car_out_road junction1-0 junction0-1 car1 road1
2
1 8
7 0
3
0 5 6 2
0 15 -1 0
0 19 0 1
1
end_operator
begin_operator
move_car_out_road junction1-0 junction0-1 car1 road2
2
2 8
8 0
3
0 5 7 2
0 16 -1 0
0 19 0 1
1
end_operator
begin_operator
move_car_out_road junction1-0 junction0-1 car1 road3
2
3 8
9 0
3
0 5 8 2
0 17 -1 0
0 19 0 1
1
end_operator
begin_operator
move_car_out_road junction1-0 junction1-1 car0 road0
2
0 9
6 0
3
0 4 5 4
0 10 -1 0
0 21 0 1
1
end_operator
begin_operator
move_car_out_road junction1-0 junction1-1 car0 road1
2
1 9
7 0
3
0 4 6 4
0 11 -1 0
0 21 0 1
1
end_operator
begin_operator
move_car_out_road junction1-0 junction1-1 car0 road2
2
2 9
8 0
3
0 4 7 4
0 12 -1 0
0 21 0 1
1
end_operator
begin_operator
move_car_out_road junction1-0 junction1-1 car0 road3
2
3 9
9 0
3
0 4 8 4
0 13 -1 0
0 21 0 1
1
end_operator
begin_operator
move_car_out_road junction1-0 junction1-1 car1 road0
2
0 9
6 0
3
0 5 5 4
0 14 -1 0
0 21 0 1
1
end_operator
begin_operator
move_car_out_road junction1-0 junction1-1 car1 road1
2
1 9
7 0
3
0 5 6 4
0 15 -1 0
0 21 0 1
1
end_operator
begin_operator
move_car_out_road junction1-0 junction1-1 car1 road2
2
2 9
8 0
3
0 5 7 4
0 16 -1 0
0 21 0 1
1
end_operator
begin_operator
move_car_out_road junction1-0 junction1-1 car1 road3
2
3 9
9 0
3
0 5 8 4
0 17 -1 0
0 21 0 1
1
end_operator
begin_operator
move_car_out_road junction1-1 junction0-0 car0 road0
2
0 10
6 0
3
0 4 5 1
0 10 -1 0
0 18 0 1
1
end_operator
begin_operator
move_car_out_road junction1-1 junction0-0 car0 road1
2
1 10
7 0
3
0 4 6 1
0 11 -1 0
0 18 0 1
1
end_operator
begin_operator
move_car_out_road junction1-1 junction0-0 car0 road2
2
2 10
8 0
3
0 4 7 1
0 12 -1 0
0 18 0 1
1
end_operator
begin_operator
move_car_out_road junction1-1 junction0-0 car0 road3
2
3 10
9 0
3
0 4 8 1
0 13 -1 0
0 18 0 1
1
end_operator
begin_operator
move_car_out_road junction1-1 junction0-0 car1 road0
2
0 10
6 0
3
0 5 5 1
0 14 -1 0
0 18 0 1
1
end_operator
begin_operator
move_car_out_road junction1-1 junction0-0 car1 road1
2
1 10
7 0
3
0 5 6 1
0 15 -1 0
0 18 0 1
1
end_operator
begin_operator
move_car_out_road junction1-1 junction0-0 car1 road2
2
2 10
8 0
3
0 5 7 1
0 16 -1 0
0 18 0 1
1
end_operator
begin_operator
move_car_out_road junction1-1 junction0-0 car1 road3
2
3 10
9 0
3
0 5 8 1
0 17 -1 0
0 18 0 1
1
end_operator
begin_operator
move_car_out_road junction1-1 junction0-1 car0 road0
2
0 11
6 0
3
0 4 5 2
0 10 -1 0
0 19 0 1
1
end_operator
begin_operator
move_car_out_road junction1-1 junction0-1 car0 road1
2
1 11
7 0
3
0 4 6 2
0 11 -1 0
0 19 0 1
1
end_operator
begin_operator
move_car_out_road junction1-1 junction0-1 car0 road2
2
2 11
8 0
3
0 4 7 2
0 12 -1 0
0 19 0 1
1
end_operator
begin_operator
move_car_out_road junction1-1 junction0-1 car0 road3
2
3 11
9 0
3
0 4 8 2
0 13 -1 0
0 19 0 1
1
end_operator
begin_operator
move_car_out_road junction1-1 junction0-1 car1 road0
2
0 11
6 0
3
0 5 5 2
0 14 -1 0
0 19 0 1
1
end_operator
begin_operator
move_car_out_road junction1-1 junction0-1 car1 road1
2
1 11
7 0
3
0 5 6 2
0 15 -1 0
0 19 0 1
1
end_operator
begin_operator
move_car_out_road junction1-1 junction0-1 car1 road2
2
2 11
8 0
3
0 5 7 2
0 16 -1 0
0 19 0 1
1
end_operator
begin_operator
move_car_out_road junction1-1 junction0-1 car1 road3
2
3 11
9 0
3
0 5 8 2
0 17 -1 0
0 19 0 1
1
end_operator
begin_operator
move_car_out_road junction1-1 junction1-0 car0 road0
2
0 12
6 0
3
0 4 5 3
0 10 -1 0
0 20 0 1
1
end_operator
begin_operator
move_car_out_road junction1-1 junction1-0 car0 road1
2
1 12
7 0
3
0 4 6 3
0 11 -1 0
0 20 0 1
1
end_operator
begin_operator
move_car_out_road junction1-1 junction1-0 car0 road2
2
2 12
8 0
3
0 4 7 3
0 12 -1 0
0 20 0 1
1
end_operator
begin_operator
move_car_out_road junction1-1 junction1-0 car0 road3
2
3 12
9 0
3
0 4 8 3
0 13 -1 0
0 20 0 1
1
end_operator
begin_operator
move_car_out_road junction1-1 junction1-0 car1 road0
2
0 12
6 0
3
0 5 5 3
0 14 -1 0
0 20 0 1
1
end_operator
begin_operator
move_car_out_road junction1-1 junction1-0 car1 road1
2
1 12
7 0
3
0 5 6 3
0 15 -1 0
0 20 0 1
1
end_operator
begin_operator
move_car_out_road junction1-1 junction1-0 car1 road2
2
2 12
8 0
3
0 5 7 3
0 16 -1 0
0 20 0 1
1
end_operator
begin_operator
move_car_out_road junction1-1 junction1-0 car1 road3
2
3 12
9 0
3
0 5 8 3
0 17 -1 0
0 20 0 1
1
end_operator
0
