Goal:
   (at-curb-num car_00 curb_00) (at-curb-num car_01 curb_01) (at-curb-num car_02 curb_02) (at-curb-num car_03 curb_03) (at-curb-num car_04 curb_04) (at-curb-num car_05 curb_05) (at-curb-num car_06 curb_06) (at-curb-num car_07 curb_07) (at-curb-num car_08 curb_08) (at-curb-num car_09 curb_09) (at-curb-num car_10 curb_10) (at-curb-num car_11 curb_11) (behind-car car_12 car_00) (behind-car car_13 car_01) (behind-car car_14 car_02) (behind-car car_15 car_03) (behind-car car_16 car_04) (behind-car car_17 car_05) (behind-car car_18 car_06) (behind-car car_19 car_07) (behind-car car_20 car_08) (behind-car car_21 car_09)
   + (car-clear car_10) (car-clear car_11) (car-clear car_12) (car-clear car_13) (car-clear car_14) (car-clear car_15) (car-clear car_16) (car-clear car_17) (car-clear car_18) (car-clear car_19) (car-clear car_20) (car-clear car_21)
