Collapsing type 2:location with 64 objects
Reduced 77 -> 14
Domain: sokoban-sequential
Problem: p095-microban-sequential
Require: 200ff
Type[6]:
    [0]: object, parent: -1
    [1]: thing, parent: 0
    [2]: location, parent: 0
    [3]: direction, parent: 0
    [4]: player, parent: 1
    [5]: stone, parent: 1
Obj-by-Type:
    [0]: 0 1 2 3 4 5 6 7 8 9 10 11 12 13
    [1]: 4 6 7 8 9 10 11 12 13
    [2]: 5
    [3]: 0 1 2 3
    [4]: 4
    [5]: 6 7 8 9 10 11 12 13
Obj[14]:
    [0]: dir-down, type: 3, is-constant: 0, is-private: 0, owner: -1, is-agent: 0
    [1]: dir-left, type: 3, is-constant: 0, is-private: 0, owner: -1, is-agent: 0
    [2]: dir-right, type: 3, is-constant: 0, is-private: 0, owner: -1, is-agent: 0
    [3]: dir-up, type: 3, is-constant: 0, is-private: 0, owner: -1, is-agent: 0
    [4]: player-01, type: 4, is-constant: 0, is-private: 0, owner: -1, is-agent: 0
    [5]: pos-1-1, type: 2, is-constant: 0, is-private: 0, owner: -1, is-agent: 0
    [6]: stone-01, type: 5, is-constant: 0, is-private: 0, owner: -1, is-agent: 0
    [7]: stone-02, type: 5, is-constant: 0, is-private: 0, owner: -1, is-agent: 0
    [8]: stone-03, type: 5, is-constant: 0, is-private: 0, owner: -1, is-agent: 0
    [9]: stone-04, type: 5, is-constant: 0, is-private: 0, owner: -1, is-agent: 0
    [10]: stone-05, type: 5, is-constant: 0, is-private: 0, owner: -1, is-agent: 0
    [11]: stone-06, type: 5, is-constant: 0, is-private: 0, owner: -1, is-agent: 0
    [12]: stone-07, type: 5, is-constant: 0, is-private: 0, owner: -1, is-agent: 0
    [13]: stone-08, type: 5, is-constant: 0, is-private: 0, owner: -1, is-agent: 0
Predicate[7]:
    =: 0 0 :: is-private: 0, owner-param: -1, read: 0, write: 0
    clear: 2 :: is-private: 0, owner-param: -1, read: 1, write: 1
    at: 1 2 :: is-private: 0, owner-param: -1, read: 1, write: 1
    at-goal: 5 :: is-private: 0, owner-param: -1, read: 0, write: 1
    is-goal: 2 :: is-private: 0, owner-param: -1, read: 1, write: 0
    is-nongoal: 2 :: is-private: 0, owner-param: -1, read: 1, write: 0
    move-dir: 2 2 3 :: is-private: 0, owner-param: -1, read: 1, write: 0
Function[1]:
    total-cost: :: is-private: 0, owner-param: -1, read: 0, write: 0
Action[3]:
    move: ?p:4 ?from:2 ?to:2 ?dir:3
        pre: (and (RW:at ?p ?from) (RW:clear ?to) (R:move-dir ?from ?to ?dir))
        eff: (and (RW:at ?p ?to) (RW:clear ?from))
    push-to-nongoal: ?p:4 ?s:5 ?ppos:2 ?from:2 ?to:2 ?dir:3
        pre: (and (RW:at ?p ?ppos) (RW:at ?s ?from) (RW:clear ?to) (R:move-dir ?ppos ?from ?dir) (R:move-dir ?from ?to ?dir) (R:is-nongoal ?to))
        eff: (and (RW:at ?p ?from) (RW:at ?s ?to) (RW:clear ?ppos) (N:W:at-goal ?s) (increase (total-cost) 1))
    push-to-goal: ?p:4 ?s:5 ?ppos:2 ?from:2 ?to:2 ?dir:3
        pre: (and (RW:at ?p ?ppos) (RW:at ?s ?from) (RW:clear ?to) (R:move-dir ?ppos ?from ?dir) (R:move-dir ?from ?to ?dir) (R:is-goal ?to))
        eff: (and (RW:at ?p ?from) (RW:at ?s ?to) (RW:clear ?ppos) (W:at-goal ?s) (increase (total-cost) 1))
Init[220]:
  S:(is-goal pos-1-1)
  S:(is-goal pos-1-1)
  S:(is-goal pos-1-1)
  S:(is-goal pos-1-1)
  S:(is-goal pos-1-1)
  S:(is-goal pos-1-1)
  S:(is-goal pos-1-1)
  S:(is-goal pos-1-1)
  S:(is-nongoal pos-1-1)
  S:(is-nongoal pos-1-1)
  S:(is-nongoal pos-1-1)
  S:(is-nongoal pos-1-1)
  S:(is-nongoal pos-1-1)
  S:(is-nongoal pos-1-1)
  S:(is-nongoal pos-1-1)
  S:(is-nongoal pos-1-1)
  S:(is-nongoal pos-1-1)
  S:(is-nongoal pos-1-1)
  S:(is-nongoal pos-1-1)
  S:(is-nongoal pos-1-1)
  S:(is-nongoal pos-1-1)
  S:(is-nongoal pos-1-1)
  S:(is-nongoal pos-1-1)
  S:(is-nongoal pos-1-1)
  S:(is-nongoal pos-1-1)
  S:(is-nongoal pos-1-1)
  S:(is-nongoal pos-1-1)
  S:(is-nongoal pos-1-1)
  S:(is-nongoal pos-1-1)
  S:(is-nongoal pos-1-1)
  S:(is-nongoal pos-1-1)
  S:(is-nongoal pos-1-1)
  S:(is-nongoal pos-1-1)
  S:(is-nongoal pos-1-1)
  S:(is-nongoal pos-1-1)
  S:(is-nongoal pos-1-1)
  S:(is-nongoal pos-1-1)
  S:(is-nongoal pos-1-1)
  S:(is-nongoal pos-1-1)
  S:(is-nongoal pos-1-1)
  S:(is-nongoal pos-1-1)
  S:(is-nongoal pos-1-1)
  S:(is-nongoal pos-1-1)
  S:(is-nongoal pos-1-1)
  S:(is-nongoal pos-1-1)
  S:(is-nongoal pos-1-1)
  S:(is-nongoal pos-1-1)
  S:(is-nongoal pos-1-1)
  S:(is-nongoal pos-1-1)
  S:(is-nongoal pos-1-1)
  S:(is-nongoal pos-1-1)
  S:(is-nongoal pos-1-1)
  S:(is-nongoal pos-1-1)
  S:(is-nongoal pos-1-1)
  S:(is-nongoal pos-1-1)
  S:(is-nongoal pos-1-1)
  S:(is-nongoal pos-1-1)
  S:(is-nongoal pos-1-1)
  S:(is-nongoal pos-1-1)
  S:(is-nongoal pos-1-1)
  S:(is-nongoal pos-1-1)
  S:(is-nongoal pos-1-1)
  S:(is-nongoal pos-1-1)
  S:(is-nongoal pos-1-1)
  S:(move-dir pos-1-1 pos-1-1 dir-down)
  S:(move-dir pos-1-1 pos-1-1 dir-right)
  S:(move-dir pos-1-1 pos-1-1 dir-up)
  S:(move-dir pos-1-1 pos-1-1 dir-down)
  S:(move-dir pos-1-1 pos-1-1 dir-right)
  S:(move-dir pos-1-1 pos-1-1 dir-up)
  S:(move-dir pos-1-1 pos-1-1 dir-down)
  S:(move-dir pos-1-1 pos-1-1 dir-right)
  S:(move-dir pos-1-1 pos-1-1 dir-up)
  S:(move-dir pos-1-1 pos-1-1 dir-down)
  S:(move-dir pos-1-1 pos-1-1 dir-right)
  S:(move-dir pos-1-1 pos-1-1 dir-up)
  S:(move-dir pos-1-1 pos-1-1 dir-down)
  S:(move-dir pos-1-1 pos-1-1 dir-right)
  S:(move-dir pos-1-1 pos-1-1 dir-up)
  S:(move-dir pos-1-1 pos-1-1 dir-right)
  S:(move-dir pos-1-1 pos-1-1 dir-left)
  S:(move-dir pos-1-1 pos-1-1 dir-down)
  S:(move-dir pos-1-1 pos-1-1 dir-right)
  S:(move-dir pos-1-1 pos-1-1 dir-left)
  S:(move-dir pos-1-1 pos-1-1 dir-up)
  S:(move-dir pos-1-1 pos-1-1 dir-down)
  S:(move-dir pos-1-1 pos-1-1 dir-right)
  S:(move-dir pos-1-1 pos-1-1 dir-left)
  S:(move-dir pos-1-1 pos-1-1 dir-up)
  S:(move-dir pos-1-1 pos-1-1 dir-down)
  S:(move-dir pos-1-1 pos-1-1 dir-right)
  S:(move-dir pos-1-1 pos-1-1 dir-left)
  S:(move-dir pos-1-1 pos-1-1 dir-up)
  S:(move-dir pos-1-1 pos-1-1 dir-down)
  S:(move-dir pos-1-1 pos-1-1 dir-right)
  S:(move-dir pos-1-1 pos-1-1 dir-left)
  S:(move-dir pos-1-1 pos-1-1 dir-up)
  S:(move-dir pos-1-1 pos-1-1 dir-down)
  S:(move-dir pos-1-1 pos-1-1 dir-right)
  S:(move-dir pos-1-1 pos-1-1 dir-left)
  S:(move-dir pos-1-1 pos-1-1 dir-up)
  S:(move-dir pos-1-1 pos-1-1 dir-right)
  S:(move-dir pos-1-1 pos-1-1 dir-left)
  S:(move-dir pos-1-1 pos-1-1 dir-down)
  S:(move-dir pos-1-1 pos-1-1 dir-right)
  S:(move-dir pos-1-1 pos-1-1 dir-left)
  S:(move-dir pos-1-1 pos-1-1 dir-up)
  S:(move-dir pos-1-1 pos-1-1 dir-down)
  S:(move-dir pos-1-1 pos-1-1 dir-right)
  S:(move-dir pos-1-1 pos-1-1 dir-left)
  S:(move-dir pos-1-1 pos-1-1 dir-up)
  S:(move-dir pos-1-1 pos-1-1 dir-down)
  S:(move-dir pos-1-1 pos-1-1 dir-right)
  S:(move-dir pos-1-1 pos-1-1 dir-left)
  S:(move-dir pos-1-1 pos-1-1 dir-up)
  S:(move-dir pos-1-1 pos-1-1 dir-down)
  S:(move-dir pos-1-1 pos-1-1 dir-right)
  S:(move-dir pos-1-1 pos-1-1 dir-left)
  S:(move-dir pos-1-1 pos-1-1 dir-up)
  S:(move-dir pos-1-1 pos-1-1 dir-down)
  S:(move-dir pos-1-1 pos-1-1 dir-right)
  S:(move-dir pos-1-1 pos-1-1 dir-left)
  S:(move-dir pos-1-1 pos-1-1 dir-up)
  S:(move-dir pos-1-1 pos-1-1 dir-right)
  S:(move-dir pos-1-1 pos-1-1 dir-left)
  S:(move-dir pos-1-1 pos-1-1 dir-down)
  S:(move-dir pos-1-1 pos-1-1 dir-right)
  S:(move-dir pos-1-1 pos-1-1 dir-left)
  S:(move-dir pos-1-1 pos-1-1 dir-up)
  S:(move-dir pos-1-1 pos-1-1 dir-down)
  S:(move-dir pos-1-1 pos-1-1 dir-right)
  S:(move-dir pos-1-1 pos-1-1 dir-left)
  S:(move-dir pos-1-1 pos-1-1 dir-up)
  S:(move-dir pos-1-1 pos-1-1 dir-down)
  S:(move-dir pos-1-1 pos-1-1 dir-right)
  S:(move-dir pos-1-1 pos-1-1 dir-left)
  S:(move-dir pos-1-1 pos-1-1 dir-up)
  S:(move-dir pos-1-1 pos-1-1 dir-down)
  S:(move-dir pos-1-1 pos-1-1 dir-right)
  S:(move-dir pos-1-1 pos-1-1 dir-left)
  S:(move-dir pos-1-1 pos-1-1 dir-up)
  S:(move-dir pos-1-1 pos-1-1 dir-down)
  S:(move-dir pos-1-1 pos-1-1 dir-right)
  S:(move-dir pos-1-1 pos-1-1 dir-left)
  S:(move-dir pos-1-1 pos-1-1 dir-up)
  S:(move-dir pos-1-1 pos-1-1 dir-right)
  S:(move-dir pos-1-1 pos-1-1 dir-left)
  S:(move-dir pos-1-1 pos-1-1 dir-down)
  S:(move-dir pos-1-1 pos-1-1 dir-right)
  S:(move-dir pos-1-1 pos-1-1 dir-left)
  S:(move-dir pos-1-1 pos-1-1 dir-up)
  S:(move-dir pos-1-1 pos-1-1 dir-down)
  S:(move-dir pos-1-1 pos-1-1 dir-right)
  S:(move-dir pos-1-1 pos-1-1 dir-left)
  S:(move-dir pos-1-1 pos-1-1 dir-up)
  S:(move-dir pos-1-1 pos-1-1 dir-down)
  S:(move-dir pos-1-1 pos-1-1 dir-right)
  S:(move-dir pos-1-1 pos-1-1 dir-left)
  S:(move-dir pos-1-1 pos-1-1 dir-up)
  S:(move-dir pos-1-1 pos-1-1 dir-down)
  S:(move-dir pos-1-1 pos-1-1 dir-right)
  S:(move-dir pos-1-1 pos-1-1 dir-left)
  S:(move-dir pos-1-1 pos-1-1 dir-up)
  S:(move-dir pos-1-1 pos-1-1 dir-down)
  S:(move-dir pos-1-1 pos-1-1 dir-right)
  S:(move-dir pos-1-1 pos-1-1 dir-left)
  S:(move-dir pos-1-1 pos-1-1 dir-up)
  S:(move-dir pos-1-1 pos-1-1 dir-right)
  S:(move-dir pos-1-1 pos-1-1 dir-left)
  S:(move-dir pos-1-1 pos-1-1 dir-down)
  S:(move-dir pos-1-1 pos-1-1 dir-left)
  S:(move-dir pos-1-1 pos-1-1 dir-up)
  S:(move-dir pos-1-1 pos-1-1 dir-down)
  S:(move-dir pos-1-1 pos-1-1 dir-left)
  S:(move-dir pos-1-1 pos-1-1 dir-up)
  S:(move-dir pos-1-1 pos-1-1 dir-down)
  S:(move-dir pos-1-1 pos-1-1 dir-left)
  S:(move-dir pos-1-1 pos-1-1 dir-up)
  S:(move-dir pos-1-1 pos-1-1 dir-down)
  S:(move-dir pos-1-1 pos-1-1 dir-left)
  S:(move-dir pos-1-1 pos-1-1 dir-up)
  S:(move-dir pos-1-1 pos-1-1 dir-down)
  S:(move-dir pos-1-1 pos-1-1 dir-left)
  S:(move-dir pos-1-1 pos-1-1 dir-up)
  (at player-01 pos-1-1)
  (at stone-01 pos-1-1)
  (at stone-02 pos-1-1)
  (at stone-03 pos-1-1)
  (at stone-04 pos-1-1)
  (at stone-05 pos-1-1)
  (at stone-06 pos-1-1)
  (at stone-07 pos-1-1)
  (at stone-08 pos-1-1)
  (clear pos-1-1)
  (clear pos-1-1)
  (clear pos-1-1)
  (clear pos-1-1)
  (clear pos-1-1)
  (clear pos-1-1)
  (clear pos-1-1)
  (clear pos-1-1)
  (clear pos-1-1)
  (clear pos-1-1)
  (clear pos-1-1)
  (clear pos-1-1)
  (clear pos-1-1)
  (clear pos-1-1)
  (clear pos-1-1)
  (clear pos-1-1)
  (clear pos-1-1)
  (clear pos-1-1)
  (clear pos-1-1)
  (clear pos-1-1)
  (clear pos-1-1)
  (clear pos-1-1)
  (clear pos-1-1)
  (clear pos-1-1)
  (clear pos-1-1)
  (clear pos-1-1)
  (clear pos-1-1)
Init[1]:
  (= (total-cost) 0)
Goal: (and (W:at-goal stone-01) (W:at-goal stone-02) (W:at-goal stone-03) (W:at-goal stone-04) (W:at-goal stone-05) (W:at-goal stone-06) (W:at-goal stone-07) (W:at-goal stone-08))
Metric: 1
