Reduced 90 -> 80
Domain: miconic
Problem: mixed-f60-p30-u0-v0-g0-a0-n0-a0-b0-n0-f0-r4
Require: ff
Type[3]:
    [0]: object, parent: -1
    [1]: passenger, parent: 0
    [2]: floor, parent: 0
Obj-by-Type:
    [0]: 0 1 2 3 4 5 6 7 8 9 10 11 12 13 14 15 16 17 18 19 20 21 22 23 24 25 26 27 28 29 30 31 32 33 34 35 36 37 38 39 40 41 42 43 44 45 46 47 48 49 50 51 52 53 54 55 56 57 58 59 60 61 62 63 64 65 66 67 68 69 70 71 72 73 74 75 76 77 78 79
    [1]: 0 1 2 3 4 5 6 7 8 9 10 11 12 13 14 15 16 17 18 19 20 21 22 23 24 25 26 27 28 29
    [2]: 30 31 32 33 34 35 36 37 38 39 40 41 42 43 44 45 46 47 48 49 50 51 52 53 54 55 56 57 58 59 60 61 62 63 64 65 66 67 68 69 70 71 72 73 74 75 76 77 78 79
Obj[80]:
    [0]: p0, type: 1, is-constant: 0, is-private: 0, owner: -1, is-agent: 0
    [1]: p1, type: 1, is-constant: 0, is-private: 0, owner: -1, is-agent: 0
    [2]: p2, type: 1, is-constant: 0, is-private: 0, owner: -1, is-agent: 0
    [3]: p3, type: 1, is-constant: 0, is-private: 0, owner: -1, is-agent: 0
    [4]: p4, type: 1, is-constant: 0, is-private: 0, owner: -1, is-agent: 0
    [5]: p5, type: 1, is-constant: 0, is-private: 0, owner: -1, is-agent: 0
    [6]: p6, type: 1, is-constant: 0, is-private: 0, owner: -1, is-agent: 0
    [7]: p7, type: 1, is-constant: 0, is-private: 0, owner: -1, is-agent: 0
    [8]: p8, type: 1, is-constant: 0, is-private: 0, owner: -1, is-agent: 0
    [9]: p9, type: 1, is-constant: 0, is-private: 0, owner: -1, is-agent: 0
    [10]: p10, type: 1, is-constant: 0, is-private: 0, owner: -1, is-agent: 0
    [11]: p11, type: 1, is-constant: 0, is-private: 0, owner: -1, is-agent: 0
    [12]: p12, type: 1, is-constant: 0, is-private: 0, owner: -1, is-agent: 0
    [13]: p13, type: 1, is-constant: 0, is-private: 0, owner: -1, is-agent: 0
    [14]: p14, type: 1, is-constant: 0, is-private: 0, owner: -1, is-agent: 0
    [15]: p15, type: 1, is-constant: 0, is-private: 0, owner: -1, is-agent: 0
    [16]: p16, type: 1, is-constant: 0, is-private: 0, owner: -1, is-agent: 0
    [17]: p17, type: 1, is-constant: 0, is-private: 0, owner: -1, is-agent: 0
    [18]: p18, type: 1, is-constant: 0, is-private: 0, owner: -1, is-agent: 0
    [19]: p19, type: 1, is-constant: 0, is-private: 0, owner: -1, is-agent: 0
    [20]: p20, type: 1, is-constant: 0, is-private: 0, owner: -1, is-agent: 0
    [21]: p21, type: 1, is-constant: 0, is-private: 0, owner: -1, is-agent: 0
    [22]: p22, type: 1, is-constant: 0, is-private: 0, owner: -1, is-agent: 0
    [23]: p23, type: 1, is-constant: 0, is-private: 0, owner: -1, is-agent: 0
    [24]: p24, type: 1, is-constant: 0, is-private: 0, owner: -1, is-agent: 0
    [25]: p25, type: 1, is-constant: 0, is-private: 0, owner: -1, is-agent: 0
    [26]: p26, type: 1, is-constant: 0, is-private: 0, owner: -1, is-agent: 0
    [27]: p27, type: 1, is-constant: 0, is-private: 0, owner: -1, is-agent: 0
    [28]: p28, type: 1, is-constant: 0, is-private: 0, owner: -1, is-agent: 0
    [29]: p29, type: 1, is-constant: 0, is-private: 0, owner: -1, is-agent: 0
    [30]: f0, type: 2, is-constant: 0, is-private: 0, owner: -1, is-agent: 0
    [31]: f1, type: 2, is-constant: 0, is-private: 0, owner: -1, is-agent: 0
    [32]: f2, type: 2, is-constant: 0, is-private: 0, owner: -1, is-agent: 0
    [33]: f3, type: 2, is-constant: 0, is-private: 0, owner: -1, is-agent: 0
    [34]: f4, type: 2, is-constant: 0, is-private: 0, owner: -1, is-agent: 0
    [35]: f5, type: 2, is-constant: 0, is-private: 0, owner: -1, is-agent: 0
    [36]: f6, type: 2, is-constant: 0, is-private: 0, owner: -1, is-agent: 0
    [37]: f7, type: 2, is-constant: 0, is-private: 0, owner: -1, is-agent: 0
    [38]: f8, type: 2, is-constant: 0, is-private: 0, owner: -1, is-agent: 0
    [39]: f9, type: 2, is-constant: 0, is-private: 0, owner: -1, is-agent: 0
    [40]: f10, type: 2, is-constant: 0, is-private: 0, owner: -1, is-agent: 0
    [41]: f11, type: 2, is-constant: 0, is-private: 0, owner: -1, is-agent: 0
    [42]: f12, type: 2, is-constant: 0, is-private: 0, owner: -1, is-agent: 0
    [43]: f13, type: 2, is-constant: 0, is-private: 0, owner: -1, is-agent: 0
    [44]: f16, type: 2, is-constant: 0, is-private: 0, owner: -1, is-agent: 0
    [45]: f17, type: 2, is-constant: 0, is-private: 0, owner: -1, is-agent: 0
    [46]: f18, type: 2, is-constant: 0, is-private: 0, owner: -1, is-agent: 0
    [47]: f19, type: 2, is-constant: 0, is-private: 0, owner: -1, is-agent: 0
    [48]: f20, type: 2, is-constant: 0, is-private: 0, owner: -1, is-agent: 0
    [49]: f21, type: 2, is-constant: 0, is-private: 0, owner: -1, is-agent: 0
    [50]: f22, type: 2, is-constant: 0, is-private: 0, owner: -1, is-agent: 0
    [51]: f23, type: 2, is-constant: 0, is-private: 0, owner: -1, is-agent: 0
    [52]: f24, type: 2, is-constant: 0, is-private: 0, owner: -1, is-agent: 0
    [53]: f25, type: 2, is-constant: 0, is-private: 0, owner: -1, is-agent: 0
    [54]: f26, type: 2, is-constant: 0, is-private: 0, owner: -1, is-agent: 0
    [55]: f27, type: 2, is-constant: 0, is-private: 0, owner: -1, is-agent: 0
    [56]: f28, type: 2, is-constant: 0, is-private: 0, owner: -1, is-agent: 0
    [57]: f30, type: 2, is-constant: 0, is-private: 0, owner: -1, is-agent: 0
    [58]: f31, type: 2, is-constant: 0, is-private: 0, owner: -1, is-agent: 0
    [59]: f32, type: 2, is-constant: 0, is-private: 0, owner: -1, is-agent: 0
    [60]: f33, type: 2, is-constant: 0, is-private: 0, owner: -1, is-agent: 0
    [61]: f34, type: 2, is-constant: 0, is-private: 0, owner: -1, is-agent: 0
    [62]: f35, type: 2, is-constant: 0, is-private: 0, owner: -1, is-agent: 0
    [63]: f37, type: 2, is-constant: 0, is-private: 0, owner: -1, is-agent: 0
    [64]: f38, type: 2, is-constant: 0, is-private: 0, owner: -1, is-agent: 0
    [65]: f39, type: 2, is-constant: 0, is-private: 0, owner: -1, is-agent: 0
    [66]: f40, type: 2, is-constant: 0, is-private: 0, owner: -1, is-agent: 0
    [67]: f41, type: 2, is-constant: 0, is-private: 0, owner: -1, is-agent: 0
    [68]: f42, type: 2, is-constant: 0, is-private: 0, owner: -1, is-agent: 0
    [69]: f43, type: 2, is-constant: 0, is-private: 0, owner: -1, is-agent: 0
    [70]: f44, type: 2, is-constant: 0, is-private: 0, owner: -1, is-agent: 0
    [71]: f45, type: 2, is-constant: 0, is-private: 0, owner: -1, is-agent: 0
    [72]: f47, type: 2, is-constant: 0, is-private: 0, owner: -1, is-agent: 0
    [73]: f50, type: 2, is-constant: 0, is-private: 0, owner: -1, is-agent: 0
    [74]: f53, type: 2, is-constant: 0, is-private: 0, owner: -1, is-agent: 0
    [75]: f54, type: 2, is-constant: 0, is-private: 0, owner: -1, is-agent: 0
    [76]: f55, type: 2, is-constant: 0, is-private: 0, owner: -1, is-agent: 0
    [77]: f56, type: 2, is-constant: 0, is-private: 0, owner: -1, is-agent: 0
    [78]: f58, type: 2, is-constant: 0, is-private: 0, owner: -1, is-agent: 0
    [79]: f59, type: 2, is-constant: 0, is-private: 0, owner: -1, is-agent: 0
Predicate[9]:
    =: 0 0 :: is-private: 0, owner-param: -1, read: 0, write: 0
    origin: 1 2 :: is-private: 0, owner-param: -1, read: 1, write: 0
    destin: 1 2 :: is-private: 0, owner-param: -1, read: 1, write: 0
    above: 2 2 :: is-private: 0, owner-param: -1, read: 1, write: 0
    boarded: 1 :: is-private: 0, owner-param: -1, read: 1, write: 1
    not-boarded: 1 :: is-private: 0, owner-param: -1, read: 0, write: 0
    served: 1 :: is-private: 0, owner-param: -1, read: 0, write: 1
    not-served: 1 :: is-private: 0, owner-param: -1, read: 0, write: 0
    lift-at: 2 :: is-private: 0, owner-param: -1, read: 1, write: 1
Function[0]:
Action[4]:
    board: ?f:2 ?p:1
        pre: (and (RW:lift-at ?f) (R:origin ?p ?f))
        eff: (and (RW:boarded ?p))
    depart: ?f:2 ?p:1
        pre: (and (RW:lift-at ?f) (R:destin ?p ?f) (RW:boarded ?p))
        eff: (and (N:RW:boarded ?p) (W:served ?p))
    up: ?f1:2 ?f2:2
        pre: (and (RW:lift-at ?f1) (R:above ?f1 ?f2))
        eff: (and (RW:lift-at ?f2))
    down: ?f1:2 ?f2:2
        pre: (and (RW:lift-at ?f1) (R:above ?f2 ?f1))
        eff: (and (RW:lift-at ?f2))
Init[1831]:
  S:(above f0 f1)
  S:(above f0 f2)
  S:(above f0 f3)
  S:(above f0 f4)
  S:(above f0 f5)
  S:(above f0 f6)
  S:(above f0 f7)
  S:(above f0 f8)
  S:(above f0 f9)
  S:(above f0 f10)
  S:(above f0 f11)
  S:(above f0 f12)
  S:(above f0 f13)
  S:(above f0 f8)
  S:(above f0 f10)
  S:(above f0 f16)
  S:(above f0 f17)
  S:(above f0 f18)
  S:(above f0 f19)
  S:(above f0 f20)
  S:(above f0 f21)
  S:(above f0 f22)
  S:(above f0 f23)
  S:(above f0 f24)
  S:(above f0 f25)
  S:(above f0 f26)
  S:(above f0 f27)
  S:(above f0 f28)
  S:(above f0 f11)
  S:(above f0 f30)
  S:(above f0 f31)
  S:(above f0 f32)
  S:(above f0 f33)
  S:(above f0 f34)
  S:(above f0 f35)
  S:(above f0 f25)
  S:(above f0 f37)
  S:(above f0 f38)
  S:(above f0 f39)
  S:(above f0 f40)
  S:(above f0 f41)
  S:(above f0 f42)
  S:(above f0 f43)
  S:(above f0 f44)
  S:(above f0 f45)
  S:(above f0 f45)
  S:(above f0 f47)
  S:(above f0 f47)
  S:(above f0 f37)
  S:(above f0 f50)
  S:(above f0 f5)
  S:(above f0 f45)
  S:(above f0 f53)
  S:(above f0 f54)
  S:(above f0 f55)
  S:(above f0 f56)
  S:(above f0 f8)
  S:(above f0 f58)
  S:(above f0 f59)
  S:(above f1 f2)
  S:(above f1 f3)
  S:(above f1 f4)
  S:(above f1 f5)
  S:(above f1 f6)
  S:(above f1 f7)
  S:(above f1 f8)
  S:(above f1 f9)
  S:(above f1 f10)
  S:(above f1 f11)
  S:(above f1 f12)
  S:(above f1 f13)
  S:(above f1 f8)
  S:(above f1 f10)
  S:(above f1 f16)
  S:(above f1 f17)
  S:(above f1 f18)
  S:(above f1 f19)
  S:(above f1 f20)
  S:(above f1 f21)
  S:(above f1 f22)
  S:(above f1 f23)
  S:(above f1 f24)
  S:(above f1 f25)
  S:(above f1 f26)
  S:(above f1 f27)
  S:(above f1 f28)
  S:(above f1 f11)
  S:(above f1 f30)
  S:(above f1 f31)
  S:(above f1 f32)
  S:(above f1 f33)
  S:(above f1 f34)
  S:(above f1 f35)
  S:(above f1 f25)
  S:(above f1 f37)
  S:(above f1 f38)
  S:(above f1 f39)
  S:(above f1 f40)
  S:(above f1 f41)
  S:(above f1 f42)
  S:(above f1 f43)
  S:(above f1 f44)
  S:(above f1 f45)
  S:(above f1 f45)
  S:(above f1 f47)
  S:(above f1 f47)
  S:(above f1 f37)
  S:(above f1 f50)
  S:(above f1 f5)
  S:(above f1 f45)
  S:(above f1 f53)
  S:(above f1 f54)
  S:(above f1 f55)
  S:(above f1 f56)
  S:(above f1 f8)
  S:(above f1 f58)
  S:(above f1 f59)
  S:(above f2 f3)
  S:(above f2 f4)
  S:(above f2 f5)
  S:(above f2 f6)
  S:(above f2 f7)
  S:(above f2 f8)
  S:(above f2 f9)
  S:(above f2 f10)
  S:(above f2 f11)
  S:(above f2 f12)
  S:(above f2 f13)
  S:(above f2 f8)
  S:(above f2 f10)
  S:(above f2 f16)
  S:(above f2 f17)
  S:(above f2 f18)
  S:(above f2 f19)
  S:(above f2 f20)
  S:(above f2 f21)
  S:(above f2 f22)
  S:(above f2 f23)
  S:(above f2 f24)
  S:(above f2 f25)
  S:(above f2 f26)
  S:(above f2 f27)
  S:(above f2 f28)
  S:(above f2 f11)
  S:(above f2 f30)
  S:(above f2 f31)
  S:(above f2 f32)
  S:(above f2 f33)
  S:(above f2 f34)
  S:(above f2 f35)
  S:(above f2 f25)
  S:(above f2 f37)
  S:(above f2 f38)
  S:(above f2 f39)
  S:(above f2 f40)
  S:(above f2 f41)
  S:(above f2 f42)
  S:(above f2 f43)
  S:(above f2 f44)
  S:(above f2 f45)
  S:(above f2 f45)
  S:(above f2 f47)
  S:(above f2 f47)
  S:(above f2 f37)
  S:(above f2 f50)
  S:(above f2 f5)
  S:(above f2 f45)
  S:(above f2 f53)
  S:(above f2 f54)
  S:(above f2 f55)
  S:(above f2 f56)
  S:(above f2 f8)
  S:(above f2 f58)
  S:(above f2 f59)
  S:(above f3 f4)
  S:(above f3 f5)
  S:(above f3 f6)
  S:(above f3 f7)
  S:(above f3 f8)
  S:(above f3 f9)
  S:(above f3 f10)
  S:(above f3 f11)
  S:(above f3 f12)
  S:(above f3 f13)
  S:(above f3 f8)
  S:(above f3 f10)
  S:(above f3 f16)
  S:(above f3 f17)
  S:(above f3 f18)
  S:(above f3 f19)
  S:(above f3 f20)
  S:(above f3 f21)
  S:(above f3 f22)
  S:(above f3 f23)
  S:(above f3 f24)
  S:(above f3 f25)
  S:(above f3 f26)
  S:(above f3 f27)
  S:(above f3 f28)
  S:(above f3 f11)
  S:(above f3 f30)
  S:(above f3 f31)
  S:(above f3 f32)
  S:(above f3 f33)
  S:(above f3 f34)
  S:(above f3 f35)
  S:(above f3 f25)
  S:(above f3 f37)
  S:(above f3 f38)
  S:(above f3 f39)
  S:(above f3 f40)
  S:(above f3 f41)
  S:(above f3 f42)
  S:(above f3 f43)
  S:(above f3 f44)
  S:(above f3 f45)
  S:(above f3 f45)
  S:(above f3 f47)
  S:(above f3 f47)
  S:(above f3 f37)
  S:(above f3 f50)
  S:(above f3 f5)
  S:(above f3 f45)
  S:(above f3 f53)
  S:(above f3 f54)
  S:(above f3 f55)
  S:(above f3 f56)
  S:(above f3 f8)
  S:(above f3 f58)
  S:(above f3 f59)
  S:(above f4 f5)
  S:(above f4 f6)
  S:(above f4 f7)
  S:(above f4 f8)
  S:(above f4 f9)
  S:(above f4 f10)
  S:(above f4 f11)
  S:(above f4 f12)
  S:(above f4 f13)
  S:(above f4 f8)
  S:(above f4 f10)
  S:(above f4 f16)
  S:(above f4 f17)
  S:(above f4 f18)
  S:(above f4 f19)
  S:(above f4 f20)
  S:(above f4 f21)
  S:(above f4 f22)
  S:(above f4 f23)
  S:(above f4 f24)
  S:(above f4 f25)
  S:(above f4 f26)
  S:(above f4 f27)
  S:(above f4 f28)
  S:(above f4 f11)
  S:(above f4 f30)
  S:(above f4 f31)
  S:(above f4 f32)
  S:(above f4 f33)
  S:(above f4 f34)
  S:(above f4 f35)
  S:(above f4 f25)
  S:(above f4 f37)
  S:(above f4 f38)
  S:(above f4 f39)
  S:(above f4 f40)
  S:(above f4 f41)
  S:(above f4 f42)
  S:(above f4 f43)
  S:(above f4 f44)
  S:(above f4 f45)
  S:(above f4 f45)
  S:(above f4 f47)
  S:(above f4 f47)
  S:(above f4 f37)
  S:(above f4 f50)
  S:(above f4 f5)
  S:(above f4 f45)
  S:(above f4 f53)
  S:(above f4 f54)
  S:(above f4 f55)
  S:(above f4 f56)
  S:(above f4 f8)
  S:(above f4 f58)
  S:(above f4 f59)
  S:(above f5 f6)
  S:(above f5 f7)
  S:(above f5 f8)
  S:(above f5 f9)
  S:(above f5 f10)
  S:(above f5 f11)
  S:(above f5 f12)
  S:(above f5 f13)
  S:(above f5 f8)
  S:(above f5 f10)
  S:(above f5 f16)
  S:(above f5 f17)
  S:(above f5 f18)
  S:(above f5 f19)
  S:(above f5 f20)
  S:(above f5 f21)
  S:(above f5 f22)
  S:(above f5 f23)
  S:(above f5 f24)
  S:(above f5 f25)
  S:(above f5 f26)
  S:(above f5 f27)
  S:(above f5 f28)
  S:(above f5 f11)
  S:(above f5 f30)
  S:(above f5 f31)
  S:(above f5 f32)
  S:(above f5 f33)
  S:(above f5 f34)
  S:(above f5 f35)
  S:(above f5 f25)
  S:(above f5 f37)
  S:(above f5 f38)
  S:(above f5 f39)
  S:(above f5 f40)
  S:(above f5 f41)
  S:(above f5 f42)
  S:(above f5 f43)
  S:(above f5 f44)
  S:(above f5 f45)
  S:(above f5 f45)
  S:(above f5 f47)
  S:(above f5 f47)
  S:(above f5 f37)
  S:(above f5 f50)
  S:(above f5 f5)
  S:(above f5 f45)
  S:(above f5 f53)
  S:(above f5 f54)
  S:(above f5 f55)
  S:(above f5 f56)
  S:(above f5 f8)
  S:(above f5 f58)
  S:(above f5 f59)
  S:(above f6 f7)
  S:(above f6 f8)
  S:(above f6 f9)
  S:(above f6 f10)
  S:(above f6 f11)
  S:(above f6 f12)
  S:(above f6 f13)
  S:(above f6 f8)
  S:(above f6 f10)
  S:(above f6 f16)
  S:(above f6 f17)
  S:(above f6 f18)
  S:(above f6 f19)
  S:(above f6 f20)
  S:(above f6 f21)
  S:(above f6 f22)
  S:(above f6 f23)
  S:(above f6 f24)
  S:(above f6 f25)
  S:(above f6 f26)
  S:(above f6 f27)
  S:(above f6 f28)
  S:(above f6 f11)
  S:(above f6 f30)
  S:(above f6 f31)
  S:(above f6 f32)
  S:(above f6 f33)
  S:(above f6 f34)
  S:(above f6 f35)
  S:(above f6 f25)
  S:(above f6 f37)
  S:(above f6 f38)
  S:(above f6 f39)
  S:(above f6 f40)
  S:(above f6 f41)
  S:(above f6 f42)
  S:(above f6 f43)
  S:(above f6 f44)
  S:(above f6 f45)
  S:(above f6 f45)
  S:(above f6 f47)
  S:(above f6 f47)
  S:(above f6 f37)
  S:(above f6 f50)
  S:(above f6 f5)
  S:(above f6 f45)
  S:(above f6 f53)
  S:(above f6 f54)
  S:(above f6 f55)
  S:(above f6 f56)
  S:(above f6 f8)
  S:(above f6 f58)
  S:(above f6 f59)
  S:(above f7 f8)
  S:(above f7 f9)
  S:(above f7 f10)
  S:(above f7 f11)
  S:(above f7 f12)
  S:(above f7 f13)
  S:(above f7 f8)
  S:(above f7 f10)
  S:(above f7 f16)
  S:(above f7 f17)
  S:(above f7 f18)
  S:(above f7 f19)
  S:(above f7 f20)
  S:(above f7 f21)
  S:(above f7 f22)
  S:(above f7 f23)
  S:(above f7 f24)
  S:(above f7 f25)
  S:(above f7 f26)
  S:(above f7 f27)
  S:(above f7 f28)
  S:(above f7 f11)
  S:(above f7 f30)
  S:(above f7 f31)
  S:(above f7 f32)
  S:(above f7 f33)
  S:(above f7 f34)
  S:(above f7 f35)
  S:(above f7 f25)
  S:(above f7 f37)
  S:(above f7 f38)
  S:(above f7 f39)
  S:(above f7 f40)
  S:(above f7 f41)
  S:(above f7 f42)
  S:(above f7 f43)
  S:(above f7 f44)
  S:(above f7 f45)
  S:(above f7 f45)
  S:(above f7 f47)
  S:(above f7 f47)
  S:(above f7 f37)
  S:(above f7 f50)
  S:(above f7 f5)
  S:(above f7 f45)
  S:(above f7 f53)
  S:(above f7 f54)
  S:(above f7 f55)
  S:(above f7 f56)
  S:(above f7 f8)
  S:(above f7 f58)
  S:(above f7 f59)
  S:(above f8 f9)
  S:(above f8 f10)
  S:(above f8 f11)
  S:(above f8 f12)
  S:(above f8 f13)
  S:(above f8 f8)
  S:(above f8 f10)
  S:(above f8 f16)
  S:(above f8 f17)
  S:(above f8 f18)
  S:(above f8 f19)
  S:(above f8 f20)
  S:(above f8 f21)
  S:(above f8 f22)
  S:(above f8 f23)
  S:(above f8 f24)
  S:(above f8 f25)
  S:(above f8 f26)
  S:(above f8 f27)
  S:(above f8 f28)
  S:(above f8 f11)
  S:(above f8 f30)
  S:(above f8 f31)
  S:(above f8 f32)
  S:(above f8 f33)
  S:(above f8 f34)
  S:(above f8 f35)
  S:(above f8 f25)
  S:(above f8 f37)
  S:(above f8 f38)
  S:(above f8 f39)
  S:(above f8 f40)
  S:(above f8 f41)
  S:(above f8 f42)
  S:(above f8 f43)
  S:(above f8 f44)
  S:(above f8 f45)
  S:(above f8 f45)
  S:(above f8 f47)
  S:(above f8 f47)
  S:(above f8 f37)
  S:(above f8 f50)
  S:(above f8 f5)
  S:(above f8 f45)
  S:(above f8 f53)
  S:(above f8 f54)
  S:(above f8 f55)
  S:(above f8 f56)
  S:(above f8 f8)
  S:(above f8 f58)
  S:(above f8 f59)
  S:(above f9 f10)
  S:(above f9 f11)
  S:(above f9 f12)
  S:(above f9 f13)
  S:(above f9 f8)
  S:(above f9 f10)
  S:(above f9 f16)
  S:(above f9 f17)
  S:(above f9 f18)
  S:(above f9 f19)
  S:(above f9 f20)
  S:(above f9 f21)
  S:(above f9 f22)
  S:(above f9 f23)
  S:(above f9 f24)
  S:(above f9 f25)
  S:(above f9 f26)
  S:(above f9 f27)
  S:(above f9 f28)
  S:(above f9 f11)
  S:(above f9 f30)
  S:(above f9 f31)
  S:(above f9 f32)
  S:(above f9 f33)
  S:(above f9 f34)
  S:(above f9 f35)
  S:(above f9 f25)
  S:(above f9 f37)
  S:(above f9 f38)
  S:(above f9 f39)
  S:(above f9 f40)
  S:(above f9 f41)
  S:(above f9 f42)
  S:(above f9 f43)
  S:(above f9 f44)
  S:(above f9 f45)
  S:(above f9 f45)
  S:(above f9 f47)
  S:(above f9 f47)
  S:(above f9 f37)
  S:(above f9 f50)
  S:(above f9 f5)
  S:(above f9 f45)
  S:(above f9 f53)
  S:(above f9 f54)
  S:(above f9 f55)
  S:(above f9 f56)
  S:(above f9 f8)
  S:(above f9 f58)
  S:(above f9 f59)
  S:(above f10 f11)
  S:(above f10 f12)
  S:(above f10 f13)
  S:(above f10 f8)
  S:(above f10 f10)
  S:(above f10 f16)
  S:(above f10 f17)
  S:(above f10 f18)
  S:(above f10 f19)
  S:(above f10 f20)
  S:(above f10 f21)
  S:(above f10 f22)
  S:(above f10 f23)
  S:(above f10 f24)
  S:(above f10 f25)
  S:(above f10 f26)
  S:(above f10 f27)
  S:(above f10 f28)
  S:(above f10 f11)
  S:(above f10 f30)
  S:(above f10 f31)
  S:(above f10 f32)
  S:(above f10 f33)
  S:(above f10 f34)
  S:(above f10 f35)
  S:(above f10 f25)
  S:(above f10 f37)
  S:(above f10 f38)
  S:(above f10 f39)
  S:(above f10 f40)
  S:(above f10 f41)
  S:(above f10 f42)
  S:(above f10 f43)
  S:(above f10 f44)
  S:(above f10 f45)
  S:(above f10 f45)
  S:(above f10 f47)
  S:(above f10 f47)
  S:(above f10 f37)
  S:(above f10 f50)
  S:(above f10 f5)
  S:(above f10 f45)
  S:(above f10 f53)
  S:(above f10 f54)
  S:(above f10 f55)
  S:(above f10 f56)
  S:(above f10 f8)
  S:(above f10 f58)
  S:(above f10 f59)
  S:(above f11 f12)
  S:(above f11 f13)
  S:(above f11 f8)
  S:(above f11 f10)
  S:(above f11 f16)
  S:(above f11 f17)
  S:(above f11 f18)
  S:(above f11 f19)
  S:(above f11 f20)
  S:(above f11 f21)
  S:(above f11 f22)
  S:(above f11 f23)
  S:(above f11 f24)
  S:(above f11 f25)
  S:(above f11 f26)
  S:(above f11 f27)
  S:(above f11 f28)
  S:(above f11 f11)
  S:(above f11 f30)
  S:(above f11 f31)
  S:(above f11 f32)
  S:(above f11 f33)
  S:(above f11 f34)
  S:(above f11 f35)
  S:(above f11 f25)
  S:(above f11 f37)
  S:(above f11 f38)
  S:(above f11 f39)
  S:(above f11 f40)
  S:(above f11 f41)
  S:(above f11 f42)
  S:(above f11 f43)
  S:(above f11 f44)
  S:(above f11 f45)
  S:(above f11 f45)
  S:(above f11 f47)
  S:(above f11 f47)
  S:(above f11 f37)
  S:(above f11 f50)
  S:(above f11 f5)
  S:(above f11 f45)
  S:(above f11 f53)
  S:(above f11 f54)
  S:(above f11 f55)
  S:(above f11 f56)
  S:(above f11 f8)
  S:(above f11 f58)
  S:(above f11 f59)
  S:(above f12 f13)
  S:(above f12 f8)
  S:(above f12 f10)
  S:(above f12 f16)
  S:(above f12 f17)
  S:(above f12 f18)
  S:(above f12 f19)
  S:(above f12 f20)
  S:(above f12 f21)
  S:(above f12 f22)
  S:(above f12 f23)
  S:(above f12 f24)
  S:(above f12 f25)
  S:(above f12 f26)
  S:(above f12 f27)
  S:(above f12 f28)
  S:(above f12 f11)
  S:(above f12 f30)
  S:(above f12 f31)
  S:(above f12 f32)
  S:(above f12 f33)
  S:(above f12 f34)
  S:(above f12 f35)
  S:(above f12 f25)
  S:(above f12 f37)
  S:(above f12 f38)
  S:(above f12 f39)
  S:(above f12 f40)
  S:(above f12 f41)
  S:(above f12 f42)
  S:(above f12 f43)
  S:(above f12 f44)
  S:(above f12 f45)
  S:(above f12 f45)
  S:(above f12 f47)
  S:(above f12 f47)
  S:(above f12 f37)
  S:(above f12 f50)
  S:(above f12 f5)
  S:(above f12 f45)
  S:(above f12 f53)
  S:(above f12 f54)
  S:(above f12 f55)
  S:(above f12 f56)
  S:(above f12 f8)
  S:(above f12 f58)
  S:(above f12 f59)
  S:(above f13 f8)
  S:(above f13 f10)
  S:(above f13 f16)
  S:(above f13 f17)
  S:(above f13 f18)
  S:(above f13 f19)
  S:(above f13 f20)
  S:(above f13 f21)
  S:(above f13 f22)
  S:(above f13 f23)
  S:(above f13 f24)
  S:(above f13 f25)
  S:(above f13 f26)
  S:(above f13 f27)
  S:(above f13 f28)
  S:(above f13 f11)
  S:(above f13 f30)
  S:(above f13 f31)
  S:(above f13 f32)
  S:(above f13 f33)
  S:(above f13 f34)
  S:(above f13 f35)
  S:(above f13 f25)
  S:(above f13 f37)
  S:(above f13 f38)
  S:(above f13 f39)
  S:(above f13 f40)
  S:(above f13 f41)
  S:(above f13 f42)
  S:(above f13 f43)
  S:(above f13 f44)
  S:(above f13 f45)
  S:(above f13 f45)
  S:(above f13 f47)
  S:(above f13 f47)
  S:(above f13 f37)
  S:(above f13 f50)
  S:(above f13 f5)
  S:(above f13 f45)
  S:(above f13 f53)
  S:(above f13 f54)
  S:(above f13 f55)
  S:(above f13 f56)
  S:(above f13 f8)
  S:(above f13 f58)
  S:(above f13 f59)
  S:(above f8 f10)
  S:(above f8 f16)
  S:(above f8 f17)
  S:(above f8 f18)
  S:(above f8 f19)
  S:(above f8 f20)
  S:(above f8 f21)
  S:(above f8 f22)
  S:(above f8 f23)
  S:(above f8 f24)
  S:(above f8 f25)
  S:(above f8 f26)
  S:(above f8 f27)
  S:(above f8 f28)
  S:(above f8 f11)
  S:(above f8 f30)
  S:(above f8 f31)
  S:(above f8 f32)
  S:(above f8 f33)
  S:(above f8 f34)
  S:(above f8 f35)
  S:(above f8 f25)
  S:(above f8 f37)
  S:(above f8 f38)
  S:(above f8 f39)
  S:(above f8 f40)
  S:(above f8 f41)
  S:(above f8 f42)
  S:(above f8 f43)
  S:(above f8 f44)
  S:(above f8 f45)
  S:(above f8 f45)
  S:(above f8 f47)
  S:(above f8 f47)
  S:(above f8 f37)
  S:(above f8 f50)
  S:(above f8 f5)
  S:(above f8 f45)
  S:(above f8 f53)
  S:(above f8 f54)
  S:(above f8 f55)
  S:(above f8 f56)
  S:(above f8 f8)
  S:(above f8 f58)
  S:(above f8 f59)
  S:(above f10 f16)
  S:(above f10 f17)
  S:(above f10 f18)
  S:(above f10 f19)
  S:(above f10 f20)
  S:(above f10 f21)
  S:(above f10 f22)
  S:(above f10 f23)
  S:(above f10 f24)
  S:(above f10 f25)
  S:(above f10 f26)
  S:(above f10 f27)
  S:(above f10 f28)
  S:(above f10 f11)
  S:(above f10 f30)
  S:(above f10 f31)
  S:(above f10 f32)
  S:(above f10 f33)
  S:(above f10 f34)
  S:(above f10 f35)
  S:(above f10 f25)
  S:(above f10 f37)
  S:(above f10 f38)
  S:(above f10 f39)
  S:(above f10 f40)
  S:(above f10 f41)
  S:(above f10 f42)
  S:(above f10 f43)
  S:(above f10 f44)
  S:(above f10 f45)
  S:(above f10 f45)
  S:(above f10 f47)
  S:(above f10 f47)
  S:(above f10 f37)
  S:(above f10 f50)
  S:(above f10 f5)
  S:(above f10 f45)
  S:(above f10 f53)
  S:(above f10 f54)
  S:(above f10 f55)
  S:(above f10 f56)
  S:(above f10 f8)
  S:(above f10 f58)
  S:(above f10 f59)
  S:(above f16 f17)
  S:(above f16 f18)
  S:(above f16 f19)
  S:(above f16 f20)
  S:(above f16 f21)
  S:(above f16 f22)
  S:(above f16 f23)
  S:(above f16 f24)
  S:(above f16 f25)
  S:(above f16 f26)
  S:(above f16 f27)
  S:(above f16 f28)
  S:(above f16 f11)
  S:(above f16 f30)
  S:(above f16 f31)
  S:(above f16 f32)
  S:(above f16 f33)
  S:(above f16 f34)
  S:(above f16 f35)
  S:(above f16 f25)
  S:(above f16 f37)
  S:(above f16 f38)
  S:(above f16 f39)
  S:(above f16 f40)
  S:(above f16 f41)
  S:(above f16 f42)
  S:(above f16 f43)
  S:(above f16 f44)
  S:(above f16 f45)
  S:(above f16 f45)
  S:(above f16 f47)
  S:(above f16 f47)
  S:(above f16 f37)
  S:(above f16 f50)
  S:(above f16 f5)
  S:(above f16 f45)
  S:(above f16 f53)
  S:(above f16 f54)
  S:(above f16 f55)
  S:(above f16 f56)
  S:(above f16 f8)
  S:(above f16 f58)
  S:(above f16 f59)
  S:(above f17 f18)
  S:(above f17 f19)
  S:(above f17 f20)
  S:(above f17 f21)
  S:(above f17 f22)
  S:(above f17 f23)
  S:(above f17 f24)
  S:(above f17 f25)
  S:(above f17 f26)
  S:(above f17 f27)
  S:(above f17 f28)
  S:(above f17 f11)
  S:(above f17 f30)
  S:(above f17 f31)
  S:(above f17 f32)
  S:(above f17 f33)
  S:(above f17 f34)
  S:(above f17 f35)
  S:(above f17 f25)
  S:(above f17 f37)
  S:(above f17 f38)
  S:(above f17 f39)
  S:(above f17 f40)
  S:(above f17 f41)
  S:(above f17 f42)
  S:(above f17 f43)
  S:(above f17 f44)
  S:(above f17 f45)
  S:(above f17 f45)
  S:(above f17 f47)
  S:(above f17 f47)
  S:(above f17 f37)
  S:(above f17 f50)
  S:(above f17 f5)
  S:(above f17 f45)
  S:(above f17 f53)
  S:(above f17 f54)
  S:(above f17 f55)
  S:(above f17 f56)
  S:(above f17 f8)
  S:(above f17 f58)
  S:(above f17 f59)
  S:(above f18 f19)
  S:(above f18 f20)
  S:(above f18 f21)
  S:(above f18 f22)
  S:(above f18 f23)
  S:(above f18 f24)
  S:(above f18 f25)
  S:(above f18 f26)
  S:(above f18 f27)
  S:(above f18 f28)
  S:(above f18 f11)
  S:(above f18 f30)
  S:(above f18 f31)
  S:(above f18 f32)
  S:(above f18 f33)
  S:(above f18 f34)
  S:(above f18 f35)
  S:(above f18 f25)
  S:(above f18 f37)
  S:(above f18 f38)
  S:(above f18 f39)
  S:(above f18 f40)
  S:(above f18 f41)
  S:(above f18 f42)
  S:(above f18 f43)
  S:(above f18 f44)
  S:(above f18 f45)
  S:(above f18 f45)
  S:(above f18 f47)
  S:(above f18 f47)
  S:(above f18 f37)
  S:(above f18 f50)
  S:(above f18 f5)
  S:(above f18 f45)
  S:(above f18 f53)
  S:(above f18 f54)
  S:(above f18 f55)
  S:(above f18 f56)
  S:(above f18 f8)
  S:(above f18 f58)
  S:(above f18 f59)
  S:(above f19 f20)
  S:(above f19 f21)
  S:(above f19 f22)
  S:(above f19 f23)
  S:(above f19 f24)
  S:(above f19 f25)
  S:(above f19 f26)
  S:(above f19 f27)
  S:(above f19 f28)
  S:(above f19 f11)
  S:(above f19 f30)
  S:(above f19 f31)
  S:(above f19 f32)
  S:(above f19 f33)
  S:(above f19 f34)
  S:(above f19 f35)
  S:(above f19 f25)
  S:(above f19 f37)
  S:(above f19 f38)
  S:(above f19 f39)
  S:(above f19 f40)
  S:(above f19 f41)
  S:(above f19 f42)
  S:(above f19 f43)
  S:(above f19 f44)
  S:(above f19 f45)
  S:(above f19 f45)
  S:(above f19 f47)
  S:(above f19 f47)
  S:(above f19 f37)
  S:(above f19 f50)
  S:(above f19 f5)
  S:(above f19 f45)
  S:(above f19 f53)
  S:(above f19 f54)
  S:(above f19 f55)
  S:(above f19 f56)
  S:(above f19 f8)
  S:(above f19 f58)
  S:(above f19 f59)
  S:(above f20 f21)
  S:(above f20 f22)
  S:(above f20 f23)
  S:(above f20 f24)
  S:(above f20 f25)
  S:(above f20 f26)
  S:(above f20 f27)
  S:(above f20 f28)
  S:(above f20 f11)
  S:(above f20 f30)
  S:(above f20 f31)
  S:(above f20 f32)
  S:(above f20 f33)
  S:(above f20 f34)
  S:(above f20 f35)
  S:(above f20 f25)
  S:(above f20 f37)
  S:(above f20 f38)
  S:(above f20 f39)
  S:(above f20 f40)
  S:(above f20 f41)
  S:(above f20 f42)
  S:(above f20 f43)
  S:(above f20 f44)
  S:(above f20 f45)
  S:(above f20 f45)
  S:(above f20 f47)
  S:(above f20 f47)
  S:(above f20 f37)
  S:(above f20 f50)
  S:(above f20 f5)
  S:(above f20 f45)
  S:(above f20 f53)
  S:(above f20 f54)
  S:(above f20 f55)
  S:(above f20 f56)
  S:(above f20 f8)
  S:(above f20 f58)
  S:(above f20 f59)
  S:(above f21 f22)
  S:(above f21 f23)
  S:(above f21 f24)
  S:(above f21 f25)
  S:(above f21 f26)
  S:(above f21 f27)
  S:(above f21 f28)
  S:(above f21 f11)
  S:(above f21 f30)
  S:(above f21 f31)
  S:(above f21 f32)
  S:(above f21 f33)
  S:(above f21 f34)
  S:(above f21 f35)
  S:(above f21 f25)
  S:(above f21 f37)
  S:(above f21 f38)
  S:(above f21 f39)
  S:(above f21 f40)
  S:(above f21 f41)
  S:(above f21 f42)
  S:(above f21 f43)
  S:(above f21 f44)
  S:(above f21 f45)
  S:(above f21 f45)
  S:(above f21 f47)
  S:(above f21 f47)
  S:(above f21 f37)
  S:(above f21 f50)
  S:(above f21 f5)
  S:(above f21 f45)
  S:(above f21 f53)
  S:(above f21 f54)
  S:(above f21 f55)
  S:(above f21 f56)
  S:(above f21 f8)
  S:(above f21 f58)
  S:(above f21 f59)
  S:(above f22 f23)
  S:(above f22 f24)
  S:(above f22 f25)
  S:(above f22 f26)
  S:(above f22 f27)
  S:(above f22 f28)
  S:(above f22 f11)
  S:(above f22 f30)
  S:(above f22 f31)
  S:(above f22 f32)
  S:(above f22 f33)
  S:(above f22 f34)
  S:(above f22 f35)
  S:(above f22 f25)
  S:(above f22 f37)
  S:(above f22 f38)
  S:(above f22 f39)
  S:(above f22 f40)
  S:(above f22 f41)
  S:(above f22 f42)
  S:(above f22 f43)
  S:(above f22 f44)
  S:(above f22 f45)
  S:(above f22 f45)
  S:(above f22 f47)
  S:(above f22 f47)
  S:(above f22 f37)
  S:(above f22 f50)
  S:(above f22 f5)
  S:(above f22 f45)
  S:(above f22 f53)
  S:(above f22 f54)
  S:(above f22 f55)
  S:(above f22 f56)
  S:(above f22 f8)
  S:(above f22 f58)
  S:(above f22 f59)
  S:(above f23 f24)
  S:(above f23 f25)
  S:(above f23 f26)
  S:(above f23 f27)
  S:(above f23 f28)
  S:(above f23 f11)
  S:(above f23 f30)
  S:(above f23 f31)
  S:(above f23 f32)
  S:(above f23 f33)
  S:(above f23 f34)
  S:(above f23 f35)
  S:(above f23 f25)
  S:(above f23 f37)
  S:(above f23 f38)
  S:(above f23 f39)
  S:(above f23 f40)
  S:(above f23 f41)
  S:(above f23 f42)
  S:(above f23 f43)
  S:(above f23 f44)
  S:(above f23 f45)
  S:(above f23 f45)
  S:(above f23 f47)
  S:(above f23 f47)
  S:(above f23 f37)
  S:(above f23 f50)
  S:(above f23 f5)
  S:(above f23 f45)
  S:(above f23 f53)
  S:(above f23 f54)
  S:(above f23 f55)
  S:(above f23 f56)
  S:(above f23 f8)
  S:(above f23 f58)
  S:(above f23 f59)
  S:(above f24 f25)
  S:(above f24 f26)
  S:(above f24 f27)
  S:(above f24 f28)
  S:(above f24 f11)
  S:(above f24 f30)
  S:(above f24 f31)
  S:(above f24 f32)
  S:(above f24 f33)
  S:(above f24 f34)
  S:(above f24 f35)
  S:(above f24 f25)
  S:(above f24 f37)
  S:(above f24 f38)
  S:(above f24 f39)
  S:(above f24 f40)
  S:(above f24 f41)
  S:(above f24 f42)
  S:(above f24 f43)
  S:(above f24 f44)
  S:(above f24 f45)
  S:(above f24 f45)
  S:(above f24 f47)
  S:(above f24 f47)
  S:(above f24 f37)
  S:(above f24 f50)
  S:(above f24 f5)
  S:(above f24 f45)
  S:(above f24 f53)
  S:(above f24 f54)
  S:(above f24 f55)
  S:(above f24 f56)
  S:(above f24 f8)
  S:(above f24 f58)
  S:(above f24 f59)
  S:(above f25 f26)
  S:(above f25 f27)
  S:(above f25 f28)
  S:(above f25 f11)
  S:(above f25 f30)
  S:(above f25 f31)
  S:(above f25 f32)
  S:(above f25 f33)
  S:(above f25 f34)
  S:(above f25 f35)
  S:(above f25 f25)
  S:(above f25 f37)
  S:(above f25 f38)
  S:(above f25 f39)
  S:(above f25 f40)
  S:(above f25 f41)
  S:(above f25 f42)
  S:(above f25 f43)
  S:(above f25 f44)
  S:(above f25 f45)
  S:(above f25 f45)
  S:(above f25 f47)
  S:(above f25 f47)
  S:(above f25 f37)
  S:(above f25 f50)
  S:(above f25 f5)
  S:(above f25 f45)
  S:(above f25 f53)
  S:(above f25 f54)
  S:(above f25 f55)
  S:(above f25 f56)
  S:(above f25 f8)
  S:(above f25 f58)
  S:(above f25 f59)
  S:(above f26 f27)
  S:(above f26 f28)
  S:(above f26 f11)
  S:(above f26 f30)
  S:(above f26 f31)
  S:(above f26 f32)
  S:(above f26 f33)
  S:(above f26 f34)
  S:(above f26 f35)
  S:(above f26 f25)
  S:(above f26 f37)
  S:(above f26 f38)
  S:(above f26 f39)
  S:(above f26 f40)
  S:(above f26 f41)
  S:(above f26 f42)
  S:(above f26 f43)
  S:(above f26 f44)
  S:(above f26 f45)
  S:(above f26 f45)
  S:(above f26 f47)
  S:(above f26 f47)
  S:(above f26 f37)
  S:(above f26 f50)
  S:(above f26 f5)
  S:(above f26 f45)
  S:(above f26 f53)
  S:(above f26 f54)
  S:(above f26 f55)
  S:(above f26 f56)
  S:(above f26 f8)
  S:(above f26 f58)
  S:(above f26 f59)
  S:(above f27 f28)
  S:(above f27 f11)
  S:(above f27 f30)
  S:(above f27 f31)
  S:(above f27 f32)
  S:(above f27 f33)
  S:(above f27 f34)
  S:(above f27 f35)
  S:(above f27 f25)
  S:(above f27 f37)
  S:(above f27 f38)
  S:(above f27 f39)
  S:(above f27 f40)
  S:(above f27 f41)
  S:(above f27 f42)
  S:(above f27 f43)
  S:(above f27 f44)
  S:(above f27 f45)
  S:(above f27 f45)
  S:(above f27 f47)
  S:(above f27 f47)
  S:(above f27 f37)
  S:(above f27 f50)
  S:(above f27 f5)
  S:(above f27 f45)
  S:(above f27 f53)
  S:(above f27 f54)
  S:(above f27 f55)
  S:(above f27 f56)
  S:(above f27 f8)
  S:(above f27 f58)
  S:(above f27 f59)
  S:(above f28 f11)
  S:(above f28 f30)
  S:(above f28 f31)
  S:(above f28 f32)
  S:(above f28 f33)
  S:(above f28 f34)
  S:(above f28 f35)
  S:(above f28 f25)
  S:(above f28 f37)
  S:(above f28 f38)
  S:(above f28 f39)
  S:(above f28 f40)
  S:(above f28 f41)
  S:(above f28 f42)
  S:(above f28 f43)
  S:(above f28 f44)
  S:(above f28 f45)
  S:(above f28 f45)
  S:(above f28 f47)
  S:(above f28 f47)
  S:(above f28 f37)
  S:(above f28 f50)
  S:(above f28 f5)
  S:(above f28 f45)
  S:(above f28 f53)
  S:(above f28 f54)
  S:(above f28 f55)
  S:(above f28 f56)
  S:(above f28 f8)
  S:(above f28 f58)
  S:(above f28 f59)
  S:(above f11 f30)
  S:(above f11 f31)
  S:(above f11 f32)
  S:(above f11 f33)
  S:(above f11 f34)
  S:(above f11 f35)
  S:(above f11 f25)
  S:(above f11 f37)
  S:(above f11 f38)
  S:(above f11 f39)
  S:(above f11 f40)
  S:(above f11 f41)
  S:(above f11 f42)
  S:(above f11 f43)
  S:(above f11 f44)
  S:(above f11 f45)
  S:(above f11 f45)
  S:(above f11 f47)
  S:(above f11 f47)
  S:(above f11 f37)
  S:(above f11 f50)
  S:(above f11 f5)
  S:(above f11 f45)
  S:(above f11 f53)
  S:(above f11 f54)
  S:(above f11 f55)
  S:(above f11 f56)
  S:(above f11 f8)
  S:(above f11 f58)
  S:(above f11 f59)
  S:(above f30 f31)
  S:(above f30 f32)
  S:(above f30 f33)
  S:(above f30 f34)
  S:(above f30 f35)
  S:(above f30 f25)
  S:(above f30 f37)
  S:(above f30 f38)
  S:(above f30 f39)
  S:(above f30 f40)
  S:(above f30 f41)
  S:(above f30 f42)
  S:(above f30 f43)
  S:(above f30 f44)
  S:(above f30 f45)
  S:(above f30 f45)
  S:(above f30 f47)
  S:(above f30 f47)
  S:(above f30 f37)
  S:(above f30 f50)
  S:(above f30 f5)
  S:(above f30 f45)
  S:(above f30 f53)
  S:(above f30 f54)
  S:(above f30 f55)
  S:(above f30 f56)
  S:(above f30 f8)
  S:(above f30 f58)
  S:(above f30 f59)
  S:(above f31 f32)
  S:(above f31 f33)
  S:(above f31 f34)
  S:(above f31 f35)
  S:(above f31 f25)
  S:(above f31 f37)
  S:(above f31 f38)
  S:(above f31 f39)
  S:(above f31 f40)
  S:(above f31 f41)
  S:(above f31 f42)
  S:(above f31 f43)
  S:(above f31 f44)
  S:(above f31 f45)
  S:(above f31 f45)
  S:(above f31 f47)
  S:(above f31 f47)
  S:(above f31 f37)
  S:(above f31 f50)
  S:(above f31 f5)
  S:(above f31 f45)
  S:(above f31 f53)
  S:(above f31 f54)
  S:(above f31 f55)
  S:(above f31 f56)
  S:(above f31 f8)
  S:(above f31 f58)
  S:(above f31 f59)
  S:(above f32 f33)
  S:(above f32 f34)
  S:(above f32 f35)
  S:(above f32 f25)
  S:(above f32 f37)
  S:(above f32 f38)
  S:(above f32 f39)
  S:(above f32 f40)
  S:(above f32 f41)
  S:(above f32 f42)
  S:(above f32 f43)
  S:(above f32 f44)
  S:(above f32 f45)
  S:(above f32 f45)
  S:(above f32 f47)
  S:(above f32 f47)
  S:(above f32 f37)
  S:(above f32 f50)
  S:(above f32 f5)
  S:(above f32 f45)
  S:(above f32 f53)
  S:(above f32 f54)
  S:(above f32 f55)
  S:(above f32 f56)
  S:(above f32 f8)
  S:(above f32 f58)
  S:(above f32 f59)
  S:(above f33 f34)
  S:(above f33 f35)
  S:(above f33 f25)
  S:(above f33 f37)
  S:(above f33 f38)
  S:(above f33 f39)
  S:(above f33 f40)
  S:(above f33 f41)
  S:(above f33 f42)
  S:(above f33 f43)
  S:(above f33 f44)
  S:(above f33 f45)
  S:(above f33 f45)
  S:(above f33 f47)
  S:(above f33 f47)
  S:(above f33 f37)
  S:(above f33 f50)
  S:(above f33 f5)
  S:(above f33 f45)
  S:(above f33 f53)
  S:(above f33 f54)
  S:(above f33 f55)
  S:(above f33 f56)
  S:(above f33 f8)
  S:(above f33 f58)
  S:(above f33 f59)
  S:(above f34 f35)
  S:(above f34 f25)
  S:(above f34 f37)
  S:(above f34 f38)
  S:(above f34 f39)
  S:(above f34 f40)
  S:(above f34 f41)
  S:(above f34 f42)
  S:(above f34 f43)
  S:(above f34 f44)
  S:(above f34 f45)
  S:(above f34 f45)
  S:(above f34 f47)
  S:(above f34 f47)
  S:(above f34 f37)
  S:(above f34 f50)
  S:(above f34 f5)
  S:(above f34 f45)
  S:(above f34 f53)
  S:(above f34 f54)
  S:(above f34 f55)
  S:(above f34 f56)
  S:(above f34 f8)
  S:(above f34 f58)
  S:(above f34 f59)
  S:(above f35 f25)
  S:(above f35 f37)
  S:(above f35 f38)
  S:(above f35 f39)
  S:(above f35 f40)
  S:(above f35 f41)
  S:(above f35 f42)
  S:(above f35 f43)
  S:(above f35 f44)
  S:(above f35 f45)
  S:(above f35 f45)
  S:(above f35 f47)
  S:(above f35 f47)
  S:(above f35 f37)
  S:(above f35 f50)
  S:(above f35 f5)
  S:(above f35 f45)
  S:(above f35 f53)
  S:(above f35 f54)
  S:(above f35 f55)
  S:(above f35 f56)
  S:(above f35 f8)
  S:(above f35 f58)
  S:(above f35 f59)
  S:(above f25 f37)
  S:(above f25 f38)
  S:(above f25 f39)
  S:(above f25 f40)
  S:(above f25 f41)
  S:(above f25 f42)
  S:(above f25 f43)
  S:(above f25 f44)
  S:(above f25 f45)
  S:(above f25 f45)
  S:(above f25 f47)
  S:(above f25 f47)
  S:(above f25 f37)
  S:(above f25 f50)
  S:(above f25 f5)
  S:(above f25 f45)
  S:(above f25 f53)
  S:(above f25 f54)
  S:(above f25 f55)
  S:(above f25 f56)
  S:(above f25 f8)
  S:(above f25 f58)
  S:(above f25 f59)
  S:(above f37 f38)
  S:(above f37 f39)
  S:(above f37 f40)
  S:(above f37 f41)
  S:(above f37 f42)
  S:(above f37 f43)
  S:(above f37 f44)
  S:(above f37 f45)
  S:(above f37 f45)
  S:(above f37 f47)
  S:(above f37 f47)
  S:(above f37 f37)
  S:(above f37 f50)
  S:(above f37 f5)
  S:(above f37 f45)
  S:(above f37 f53)
  S:(above f37 f54)
  S:(above f37 f55)
  S:(above f37 f56)
  S:(above f37 f8)
  S:(above f37 f58)
  S:(above f37 f59)
  S:(above f38 f39)
  S:(above f38 f40)
  S:(above f38 f41)
  S:(above f38 f42)
  S:(above f38 f43)
  S:(above f38 f44)
  S:(above f38 f45)
  S:(above f38 f45)
  S:(above f38 f47)
  S:(above f38 f47)
  S:(above f38 f37)
  S:(above f38 f50)
  S:(above f38 f5)
  S:(above f38 f45)
  S:(above f38 f53)
  S:(above f38 f54)
  S:(above f38 f55)
  S:(above f38 f56)
  S:(above f38 f8)
  S:(above f38 f58)
  S:(above f38 f59)
  S:(above f39 f40)
  S:(above f39 f41)
  S:(above f39 f42)
  S:(above f39 f43)
  S:(above f39 f44)
  S:(above f39 f45)
  S:(above f39 f45)
  S:(above f39 f47)
  S:(above f39 f47)
  S:(above f39 f37)
  S:(above f39 f50)
  S:(above f39 f5)
  S:(above f39 f45)
  S:(above f39 f53)
  S:(above f39 f54)
  S:(above f39 f55)
  S:(above f39 f56)
  S:(above f39 f8)
  S:(above f39 f58)
  S:(above f39 f59)
  S:(above f40 f41)
  S:(above f40 f42)
  S:(above f40 f43)
  S:(above f40 f44)
  S:(above f40 f45)
  S:(above f40 f45)
  S:(above f40 f47)
  S:(above f40 f47)
  S:(above f40 f37)
  S:(above f40 f50)
  S:(above f40 f5)
  S:(above f40 f45)
  S:(above f40 f53)
  S:(above f40 f54)
  S:(above f40 f55)
  S:(above f40 f56)
  S:(above f40 f8)
  S:(above f40 f58)
  S:(above f40 f59)
  S:(above f41 f42)
  S:(above f41 f43)
  S:(above f41 f44)
  S:(above f41 f45)
  S:(above f41 f45)
  S:(above f41 f47)
  S:(above f41 f47)
  S:(above f41 f37)
  S:(above f41 f50)
  S:(above f41 f5)
  S:(above f41 f45)
  S:(above f41 f53)
  S:(above f41 f54)
  S:(above f41 f55)
  S:(above f41 f56)
  S:(above f41 f8)
  S:(above f41 f58)
  S:(above f41 f59)
  S:(above f42 f43)
  S:(above f42 f44)
  S:(above f42 f45)
  S:(above f42 f45)
  S:(above f42 f47)
  S:(above f42 f47)
  S:(above f42 f37)
  S:(above f42 f50)
  S:(above f42 f5)
  S:(above f42 f45)
  S:(above f42 f53)
  S:(above f42 f54)
  S:(above f42 f55)
  S:(above f42 f56)
  S:(above f42 f8)
  S:(above f42 f58)
  S:(above f42 f59)
  S:(above f43 f44)
  S:(above f43 f45)
  S:(above f43 f45)
  S:(above f43 f47)
  S:(above f43 f47)
  S:(above f43 f37)
  S:(above f43 f50)
  S:(above f43 f5)
  S:(above f43 f45)
  S:(above f43 f53)
  S:(above f43 f54)
  S:(above f43 f55)
  S:(above f43 f56)
  S:(above f43 f8)
  S:(above f43 f58)
  S:(above f43 f59)
  S:(above f44 f45)
  S:(above f44 f45)
  S:(above f44 f47)
  S:(above f44 f47)
  S:(above f44 f37)
  S:(above f44 f50)
  S:(above f44 f5)
  S:(above f44 f45)
  S:(above f44 f53)
  S:(above f44 f54)
  S:(above f44 f55)
  S:(above f44 f56)
  S:(above f44 f8)
  S:(above f44 f58)
  S:(above f44 f59)
  S:(above f45 f45)
  S:(above f45 f47)
  S:(above f45 f47)
  S:(above f45 f37)
  S:(above f45 f50)
  S:(above f45 f5)
  S:(above f45 f45)
  S:(above f45 f53)
  S:(above f45 f54)
  S:(above f45 f55)
  S:(above f45 f56)
  S:(above f45 f8)
  S:(above f45 f58)
  S:(above f45 f59)
  S:(above f45 f47)
  S:(above f45 f47)
  S:(above f45 f37)
  S:(above f45 f50)
  S:(above f45 f5)
  S:(above f45 f45)
  S:(above f45 f53)
  S:(above f45 f54)
  S:(above f45 f55)
  S:(above f45 f56)
  S:(above f45 f8)
  S:(above f45 f58)
  S:(above f45 f59)
  S:(above f47 f47)
  S:(above f47 f37)
  S:(above f47 f50)
  S:(above f47 f5)
  S:(above f47 f45)
  S:(above f47 f53)
  S:(above f47 f54)
  S:(above f47 f55)
  S:(above f47 f56)
  S:(above f47 f8)
  S:(above f47 f58)
  S:(above f47 f59)
  S:(above f47 f37)
  S:(above f47 f50)
  S:(above f47 f5)
  S:(above f47 f45)
  S:(above f47 f53)
  S:(above f47 f54)
  S:(above f47 f55)
  S:(above f47 f56)
  S:(above f47 f8)
  S:(above f47 f58)
  S:(above f47 f59)
  S:(above f37 f50)
  S:(above f37 f5)
  S:(above f37 f45)
  S:(above f37 f53)
  S:(above f37 f54)
  S:(above f37 f55)
  S:(above f37 f56)
  S:(above f37 f8)
  S:(above f37 f58)
  S:(above f37 f59)
  S:(above f50 f5)
  S:(above f50 f45)
  S:(above f50 f53)
  S:(above f50 f54)
  S:(above f50 f55)
  S:(above f50 f56)
  S:(above f50 f8)
  S:(above f50 f58)
  S:(above f50 f59)
  S:(above f5 f45)
  S:(above f5 f53)
  S:(above f5 f54)
  S:(above f5 f55)
  S:(above f5 f56)
  S:(above f5 f8)
  S:(above f5 f58)
  S:(above f5 f59)
  S:(above f45 f53)
  S:(above f45 f54)
  S:(above f45 f55)
  S:(above f45 f56)
  S:(above f45 f8)
  S:(above f45 f58)
  S:(above f45 f59)
  S:(above f53 f54)
  S:(above f53 f55)
  S:(above f53 f56)
  S:(above f53 f8)
  S:(above f53 f58)
  S:(above f53 f59)
  S:(above f54 f55)
  S:(above f54 f56)
  S:(above f54 f8)
  S:(above f54 f58)
  S:(above f54 f59)
  S:(above f55 f56)
  S:(above f55 f8)
  S:(above f55 f58)
  S:(above f55 f59)
  S:(above f56 f8)
  S:(above f56 f58)
  S:(above f56 f59)
  S:(above f8 f58)
  S:(above f8 f59)
  S:(above f58 f59)
  S:(origin p0 f10)
  S:(destin p0 f5)
  S:(origin p1 f42)
  S:(destin p1 f2)
  S:(origin p2 f0)
  S:(destin p2 f42)
  S:(origin p3 f58)
  S:(destin p3 f47)
  S:(origin p4 f45)
  S:(destin p4 f9)
  S:(origin p5 f44)
  S:(destin p5 f50)
  S:(origin p6 f37)
  S:(destin p6 f2)
  S:(origin p7 f39)
  S:(destin p7 f18)
  S:(origin p8 f33)
  S:(destin p8 f20)
  S:(origin p9 f13)
  S:(destin p9 f43)
  S:(origin p10 f37)
  S:(destin p10 f18)
  S:(origin p11 f13)
  S:(destin p11 f28)
  S:(origin p12 f42)
  S:(destin p12 f27)
  S:(origin p13 f40)
  S:(destin p13 f27)
  S:(origin p14 f19)
  S:(destin p14 f38)
  S:(origin p15 f30)
  S:(destin p15 f27)
  S:(origin p16 f11)
  S:(destin p16 f12)
  S:(origin p17 f11)
  S:(destin p17 f21)
  S:(origin p18 f47)
  S:(destin p18 f20)
  S:(origin p19 f0)
  S:(destin p19 f32)
  S:(origin p20 f21)
  S:(destin p20 f44)
  S:(origin p21 f8)
  S:(destin p21 f10)
  S:(origin p22 f38)
  S:(destin p22 f53)
  S:(origin p23 f20)
  S:(destin p23 f3)
  S:(origin p24 f8)
  S:(destin p24 f25)
  S:(origin p25 f45)
  S:(destin p25 f55)
  S:(origin p26 f35)
  S:(destin p26 f59)
  S:(origin p27 f16)
  S:(destin p27 f9)
  S:(origin p28 f27)
  S:(destin p28 f56)
  S:(origin p29 f25)
  S:(destin p29 f38)
  (lift-at f0)
Init[0]:
Goal: (and (W:served p0) (W:served p1) (W:served p2) (W:served p3) (W:served p4) (W:served p5) (W:served p6) (W:served p7) (W:served p8) (W:served p9) (W:served p10) (W:served p11) (W:served p12) (W:served p13) (W:served p14) (W:served p15) (W:served p16) (W:served p17) (W:served p18) (W:served p19) (W:served p20) (W:served p21) (W:served p22) (W:served p23) (W:served p24) (W:served p25) (W:served p26) (W:served p27) (W:served p28) (W:served p29))
Metric: 0
