begin_version
3
end_version
begin_metric
1
end_metric
26
begin_variable
var0
-1
12
location sheet1 fe1_exit-hw1_leftentry
location sheet1 hw1_rightexit-sys_entry
location sheet1 hw1_toprightentry-uc1_exit
location sheet1 lc1_entry-hw1_bottomleftexit
location sheet1 lc1_entryfromime-lime_exit
location sheet1 lc1_exit-hw1_bottomrightentry
location sheet1 lime_entry-lc1_exittoime
location sheet1 some_feeder_tray
location sheet1 some_finisher_tray
location sheet1 uc1_entry-hw1_topleftexit
location sheet1 uc1_exittoime-uime_entry
location sheet1 uime_exit-uc1_entryfromime
end_variable
begin_variable
var1
-1
12
location sheet2 fe1_exit-hw1_leftentry
location sheet2 hw1_rightexit-sys_entry
location sheet2 hw1_toprightentry-uc1_exit
location sheet2 lc1_entry-hw1_bottomleftexit
location sheet2 lc1_entryfromime-lime_exit
location sheet2 lc1_exit-hw1_bottomrightentry
location sheet2 lime_entry-lc1_exittoime
location sheet2 some_feeder_tray
location sheet2 uc1_entry-hw1_topleftexit
location sheet2 uc1_exittoime-uime_entry
location sheet2 uime_exit-uc1_entryfromime
none-of-those
end_variable
begin_variable
var2
-1
2
notprintedwith sheet1 back black
none-of-those
end_variable
begin_variable
var3
-1
2
notprintedwith sheet1 back color
none-of-those
end_variable
begin_variable
var4
-1
2
notprintedwith sheet1 front black
none-of-those
end_variable
begin_variable
var5
-1
2
notprintedwith sheet1 front color
none-of-those
end_variable
begin_variable
var6
-1
2
notprintedwith sheet2 back black
none-of-those
end_variable
begin_variable
var7
-1
2
notprintedwith sheet2 back color
none-of-those
end_variable
begin_variable
var8
-1
2
notprintedwith sheet2 front black
none-of-those
end_variable
begin_variable
var9
-1
2
notprintedwith sheet2 front color
none-of-those
end_variable
begin_variable
var10
-1
2
uninitialized
none-of-those
end_variable
begin_variable
var11
-1
2
available fe1-rsrc
none-of-those
end_variable
begin_variable
var12
-1
2
available hw1-rsrc
none-of-those
end_variable
begin_variable
var13
-1
2
available lc1-rsrc
none-of-those
end_variable
begin_variable
var14
-1
2
available lime-rsrc
none-of-those
end_variable
begin_variable
var15
-1
2
available sys-rsrc
none-of-those
end_variable
begin_variable
var16
-1
2
available uc1-rsrc
none-of-those
end_variable
begin_variable
var17
-1
2
available uime-rsrc
none-of-those
end_variable
begin_variable
var18
-1
2
hasimage sheet1 front image-1
none-of-those
end_variable
begin_variable
var19
-1
2
hasimage sheet2 front image-2
none-of-those
end_variable
begin_variable
var20
-1
2
sideup sheet1 back
none-of-those
end_variable
begin_variable
var21
-1
2
sideup sheet1 front
none-of-those
end_variable
begin_variable
var22
-1
2
sideup sheet2 back
none-of-those
end_variable
begin_variable
var23
-1
2
sideup sheet2 front
none-of-those
end_variable
begin_variable
var24
-1
2
stackedin sheet1 sys_outputtray
none-of-those
end_variable
begin_variable
var25
-1
2
stackedin sheet2 sys_outputtray
none-of-those
end_variable
11
begin_mutex_group
1
2 0
end_mutex_group
begin_mutex_group
1
3 0
end_mutex_group
begin_mutex_group
1
4 0
end_mutex_group
begin_mutex_group
1
5 0
end_mutex_group
begin_mutex_group
1
6 0
end_mutex_group
begin_mutex_group
1
7 0
end_mutex_group
begin_mutex_group
1
8 0
end_mutex_group
begin_mutex_group
1
9 0
end_mutex_group
begin_mutex_group
1
10 0
end_mutex_group
begin_mutex_group
11
1 0
1 1
1 2
1 3
1 4
1 5
1 6
1 7
1 8
1 9
1 10
end_mutex_group
begin_mutex_group
12
0 0
0 1
0 2
0 3
0 4
0 5
0 6
0 7
0 8
0 9
0 10
0 11
end_mutex_group
begin_state
7
7
0
0
0
0
0
0
0
0
0
1
1
1
1
1
1
1
1
1
1
1
1
1
1
1
end_state
begin_goal
12
2 0
3 0
4 0
6 0
7 0
9 0
18 0
19 0
21 0
23 0
24 0
25 0
end_goal
57
begin_operator
fe1-feedmsi-letter sheet1
1
11 0
2
0 0 7 0
0 20 -1 0
125
end_operator
begin_operator
fe1-feedmsi-letter sheet2
1
11 0
2
0 1 7 0
0 22 -1 0
125
end_operator
begin_operator
hw1-bottomrightentrytobottomleftexit-letter sheet1
1
12 0
1
0 0 5 3
8999
end_operator
begin_operator
hw1-bottomrightentrytobottomleftexit-letter sheet2
1
12 0
1
0 1 5 3
8999
end_operator
begin_operator
hw1-bottomrightentrytorightexit-letter sheet1
1
12 0
1
0 0 5 1
1499
end_operator
begin_operator
hw1-bottomrightentrytorightexit-letter sheet2
1
12 0
1
0 1 5 1
1499
end_operator
begin_operator
hw1-bottomrightentrytotopleftexit-letter sheet1
1
12 0
1
0 0 5 9
8999
end_operator
begin_operator
hw1-bottomrightentrytotopleftexit-letter sheet2
1
12 0
1
0 1 5 8
8999
end_operator
begin_operator
hw1-leftentrytobottomleftexit-letter sheet1
1
12 0
1
0 0 0 3
1499
end_operator
begin_operator
hw1-leftentrytobottomleftexit-letter sheet2
1
12 0
1
0 1 0 3
1499
end_operator
begin_operator
hw1-leftentrytotopleftexit-letter sheet1
1
12 0
1
0 0 0 9
1499
end_operator
begin_operator
hw1-leftentrytotopleftexit-letter sheet2
1
12 0
1
0 1 0 8
1499
end_operator
begin_operator
hw1-toprightentrytobottomleftexit-letter sheet1
1
12 0
1
0 0 2 3
8999
end_operator
begin_operator
hw1-toprightentrytobottomleftexit-letter sheet2
1
12 0
1
0 1 2 3
8999
end_operator
begin_operator
hw1-toprightentrytorightexit-letter sheet1
1
12 0
1
0 0 2 1
1499
end_operator
begin_operator
hw1-toprightentrytorightexit-letter sheet2
1
12 0
1
0 1 2 1
1499
end_operator
begin_operator
hw1-toprightentrytotopleftexit-letter sheet1
1
12 0
1
0 0 2 9
8999
end_operator
begin_operator
hw1-toprightentrytotopleftexit-letter sheet2
1
12 0
1
0 1 2 8
8999
end_operator
begin_operator
initialize
0
8
0 10 0 1
0 11 -1 0
0 12 -1 0
0 13 -1 0
0 14 -1 0
0 15 -1 0
0 16 -1 0
0 17 -1 0
0
end_operator
begin_operator
lc1-fromime-letter sheet1
1
13 0
1
0 0 4 5
4999
end_operator
begin_operator
lc1-fromime-letter sheet2
1
13 0
1
0 1 4 5
4999
end_operator
begin_operator
lc1-invertfromime-letter sheet1 back front
1
13 0
3
0 0 4 5
0 20 0 1
0 21 -1 0
9999
end_operator
begin_operator
lc1-invertfromime-letter sheet1 front back
1
13 0
3
0 0 4 5
0 20 -1 0
0 21 0 1
9999
end_operator
begin_operator
lc1-invertfromime-letter sheet2 back front
1
13 0
3
0 1 4 5
0 22 0 1
0 23 -1 0
9999
end_operator
begin_operator
lc1-invertfromime-letter sheet2 front back
1
13 0
3
0 1 4 5
0 22 -1 0
0 23 0 1
9999
end_operator
begin_operator
lc1-inverttoime-letter sheet1 back front
1
13 0
3
0 0 3 6
0 20 0 1
0 21 -1 0
9999
end_operator
begin_operator
lc1-inverttoime-letter sheet1 front back
1
13 0
3
0 0 3 6
0 20 -1 0
0 21 0 1
9999
end_operator
begin_operator
lc1-inverttoime-letter sheet2 back front
1
13 0
3
0 1 3 6
0 22 0 1
0 23 -1 0
9999
end_operator
begin_operator
lc1-inverttoime-letter sheet2 front back
1
13 0
3
0 1 3 6
0 22 -1 0
0 23 0 1
9999
end_operator
begin_operator
lc1-toime-letter sheet1
1
13 0
1
0 0 3 6
4999
end_operator
begin_operator
lc1-toime-letter sheet2
1
13 0
1
0 1 3 6
4999
end_operator
begin_operator
lime-simplex-letter sheet1 back image-1
2
14 0
20 0
2
0 0 6 4
0 3 0 1
212790
end_operator
begin_operator
lime-simplex-letter sheet1 front image-1
2
14 0
21 0
3
0 0 6 4
0 5 0 1
0 18 -1 0
212790
end_operator
begin_operator
lime-simplex-letter sheet2 back image-1
2
14 0
22 0
2
0 1 6 4
0 7 0 1
212790
end_operator
begin_operator
lime-simplex-letter sheet2 front image-1
2
14 0
23 0
2
0 1 6 4
0 9 0 1
212790
end_operator
begin_operator
lime-simplexmono-letter sheet1 back image-2
2
14 0
20 0
2
0 0 6 4
0 2 0 1
212790
end_operator
begin_operator
lime-simplexmono-letter sheet1 front image-2
2
14 0
21 0
2
0 0 6 4
0 4 0 1
212790
end_operator
begin_operator
lime-simplexmono-letter sheet2 back image-2
2
14 0
22 0
2
0 1 6 4
0 6 0 1
212790
end_operator
begin_operator
lime-simplexmono-letter sheet2 front image-2
2
14 0
23 0
3
0 1 6 4
0 8 0 1
0 19 -1 0
212790
end_operator
begin_operator
sys-stack-letter sheet1 dummy-sheet
1
15 0
2
0 0 1 8
0 24 -1 0
1499
end_operator
begin_operator
sys-stack-letter sheet2 sheet1
2
0 8
15 0
2
0 1 1 11
0 25 -1 0
1499
end_operator
begin_operator
uc1-fromime-letter sheet1
1
16 0
1
0 0 11 2
2999
end_operator
begin_operator
uc1-fromime-letter sheet2
1
16 0
1
0 1 10 2
2999
end_operator
begin_operator
uc1-invertfromime-letter sheet1 back front
1
16 0
3
0 0 11 2
0 20 0 1
0 21 -1 0
8000
end_operator
begin_operator
uc1-invertfromime-letter sheet1 front back
1
16 0
3
0 0 11 2
0 20 -1 0
0 21 0 1
8000
end_operator
begin_operator
uc1-invertfromime-letter sheet2 back front
1
16 0
3
0 1 10 2
0 22 0 1
0 23 -1 0
8000
end_operator
begin_operator
uc1-invertfromime-letter sheet2 front back
1
16 0
3
0 1 10 2
0 22 -1 0
0 23 0 1
8000
end_operator
begin_operator
uc1-inverttoime-letter sheet1 back front
1
16 0
3
0 0 9 10
0 20 0 1
0 21 -1 0
8000
end_operator
begin_operator
uc1-inverttoime-letter sheet1 front back
1
16 0
3
0 0 9 10
0 20 -1 0
0 21 0 1
8000
end_operator
begin_operator
uc1-inverttoime-letter sheet2 back front
1
16 0
3
0 1 8 9
0 22 0 1
0 23 -1 0
8000
end_operator
begin_operator
uc1-inverttoime-letter sheet2 front back
1
16 0
3
0 1 8 9
0 22 -1 0
0 23 0 1
8000
end_operator
begin_operator
uc1-toime-letter sheet1
1
16 0
1
0 0 9 10
2999
end_operator
begin_operator
uc1-toime-letter sheet2
1
16 0
1
0 1 8 9
2999
end_operator
begin_operator
uime-simplex-letter sheet1 back image-2
2
17 0
20 0
2
0 0 10 11
0 2 0 1
127790
end_operator
begin_operator
uime-simplex-letter sheet1 front image-2
2
17 0
21 0
2
0 0 10 11
0 4 0 1
127790
end_operator
begin_operator
uime-simplex-letter sheet2 back image-2
2
17 0
22 0
2
0 1 9 10
0 6 0 1
127790
end_operator
begin_operator
uime-simplex-letter sheet2 front image-2
2
17 0
23 0
3
0 1 9 10
0 8 0 1
0 19 -1 0
127790
end_operator
0
