 (NOT-in_place road0) (in_place road0):=1:fam
 (NOT-in_place road1) (in_place road1):=1:fam
 (NOT-in_place road2) (in_place road2):=1:fam
 (NOT-in_place road3) (in_place road3):=1:fam
 (arrived car0 junction1-1) (at_car_jun car0 junction0-0) (at_car_jun car0 junction0-1) (at_car_jun car0 junction0-2) (at_car_jun car0 junction1-0) (at_car_jun car0 junction1-1) (at_car_jun car0 junction1-2) (at_car_road car0 road0) (at_car_road car0 road1) (at_car_road car0 road2) (at_car_road car0 road3) (starting car0 garage2):fam:G
 (arrived car1 junction1-1) (at_car_jun car1 junction0-0) (at_car_jun car1 junction0-1) (at_car_jun car1 junction0-2) (at_car_jun car1 junction1-0) (at_car_jun car1 junction1-1) (at_car_jun car1 junction1-2) (at_car_road car1 road0) (at_car_road car1 road1) (at_car_road car1 road2) (at_car_road car1 road3) (starting car1 garage1):fam:G
 (arrived car2 junction1-0) (at_car_jun car2 junction0-0) (at_car_jun car2 junction0-1) (at_car_jun car2 junction0-2) (at_car_jun car2 junction1-0) (at_car_jun car2 junction1-1) (at_car_jun car2 junction1-2) (at_car_road car2 road0) (at_car_road car2 road1) (at_car_road car2 road2) (at_car_road car2 road3) (starting car2 garage1):fam:G
 (NOT-in_place road0) (road_connect road0 junction0-0 junction0-1) (road_connect road0 junction0-0 junction1-0) (road_connect road0 junction0-0 junction1-1) (road_connect road0 junction0-1 junction0-0) (road_connect road0 junction0-1 junction0-2) (road_connect road0 junction0-1 junction1-0) (road_connect road0 junction0-1 junction1-1) (road_connect road0 junction0-1 junction1-2) (road_connect road0 junction0-2 junction0-1) (road_connect road0 junction0-2 junction1-1) (road_connect road0 junction0-2 junction1-2) (road_connect road0 junction1-0 junction0-0) (road_connect road0 junction1-0 junction0-1) (road_connect road0 junction1-0 junction1-1) (road_connect road0 junction1-1 junction0-0) (road_connect road0 junction1-1 junction0-1) (road_connect road0 junction1-1 junction0-2) (road_connect road0 junction1-1 junction1-0) (road_connect road0 junction1-1 junction1-2) (road_connect road0 junction1-2 junction0-1) (road_connect road0 junction1-2 junction0-2) (road_connect road0 junction1-2 junction1-1):=1:fam
 (NOT-in_place road1) (road_connect road1 junction0-0 junction0-1) (road_connect road1 junction0-0 junction1-0) (road_connect road1 junction0-0 junction1-1) (road_connect road1 junction0-1 junction0-0) (road_connect road1 junction0-1 junction0-2) (road_connect road1 junction0-1 junction1-0) (road_connect road1 junction0-1 junction1-1) (road_connect road1 junction0-1 junction1-2) (road_connect road1 junction0-2 junction0-1) (road_connect road1 junction0-2 junction1-1) (road_connect road1 junction0-2 junction1-2) (road_connect road1 junction1-0 junction0-0) (road_connect road1 junction1-0 junction0-1) (road_connect road1 junction1-0 junction1-1) (road_connect road1 junction1-1 junction0-0) (road_connect road1 junction1-1 junction0-1) (road_connect road1 junction1-1 junction0-2) (road_connect road1 junction1-1 junction1-0) (road_connect road1 junction1-1 junction1-2) (road_connect road1 junction1-2 junction0-1) (road_connect road1 junction1-2 junction0-2) (road_connect road1 junction1-2 junction1-1):=1:fam
 (NOT-in_place road2) (road_connect road2 junction0-0 junction0-1) (road_connect road2 junction0-0 junction1-0) (road_connect road2 junction0-0 junction1-1) (road_connect road2 junction0-1 junction0-0) (road_connect road2 junction0-1 junction0-2) (road_connect road2 junction0-1 junction1-0) (road_connect road2 junction0-1 junction1-1) (road_connect road2 junction0-1 junction1-2) (road_connect road2 junction0-2 junction0-1) (road_connect road2 junction0-2 junction1-1) (road_connect road2 junction0-2 junction1-2) (road_connect road2 junction1-0 junction0-0) (road_connect road2 junction1-0 junction0-1) (road_connect road2 junction1-0 junction1-1) (road_connect road2 junction1-1 junction0-0) (road_connect road2 junction1-1 junction0-1) (road_connect road2 junction1-1 junction0-2) (road_connect road2 junction1-1 junction1-0) (road_connect road2 junction1-1 junction1-2) (road_connect road2 junction1-2 junction0-1) (road_connect road2 junction1-2 junction0-2) (road_connect road2 junction1-2 junction1-1):=1:fam
 (NOT-in_place road3) (road_connect road3 junction0-0 junction0-1) (road_connect road3 junction0-0 junction1-0) (road_connect road3 junction0-0 junction1-1) (road_connect road3 junction0-1 junction0-0) (road_connect road3 junction0-1 junction0-2) (road_connect road3 junction0-1 junction1-0) (road_connect road3 junction0-1 junction1-1) (road_connect road3 junction0-1 junction1-2) (road_connect road3 junction0-2 junction0-1) (road_connect road3 junction0-2 junction1-1) (road_connect road3 junction0-2 junction1-2) (road_connect road3 junction1-0 junction0-0) (road_connect road3 junction1-0 junction0-1) (road_connect road3 junction1-0 junction1-1) (road_connect road3 junction1-1 junction0-0) (road_connect road3 junction1-1 junction0-1) (road_connect road3 junction1-1 junction0-2) (road_connect road3 junction1-1 junction1-0) (road_connect road3 junction1-1 junction1-2) (road_connect road3 junction1-2 junction0-1) (road_connect road3 junction1-2 junction0-2) (road_connect road3 junction1-2 junction1-1):=1:fam

