Reduced 36 -> 26
Domain: scanalyzer3d
Problem: scanalyzer3d-42
Require: 200ff
Type[3]:
    [0]: object, parent: -1
    [1]: segment, parent: 0
    [2]: car, parent: 0
Obj-by-Type:
    [0]: 0 1 2 3 4 5 6 7 8 9 10 11 12 13 14 15 16 17 18 19 20 21 22 23 24 25
    [1]: 8 9 10 11 12 13 14 15 16 17 18 19 20 21 22 23 24 25
    [2]: 0 1 2 3 4 5 6 7
Obj[26]:
    [0]: car-in-1, type: 2, is-constant: 0, is-private: 0, owner: -1, is-agent: 0
    [1]: car-out-1, type: 2, is-constant: 0, is-private: 0, owner: -1, is-agent: 0
    [2]: car-out-4, type: 2, is-constant: 0, is-private: 0, owner: -1, is-agent: 0
    [3]: car-out-5, type: 2, is-constant: 0, is-private: 0, owner: -1, is-agent: 0
    [4]: car-out-6, type: 2, is-constant: 0, is-private: 0, owner: -1, is-agent: 0
    [5]: car-out-7, type: 2, is-constant: 0, is-private: 0, owner: -1, is-agent: 0
    [6]: car-out-8, type: 2, is-constant: 0, is-private: 0, owner: -1, is-agent: 0
    [7]: car-out-9, type: 2, is-constant: 0, is-private: 0, owner: -1, is-agent: 0
    [8]: seg-in-1, type: 1, is-constant: 0, is-private: 0, owner: -1, is-agent: 0
    [9]: seg-in-2, type: 1, is-constant: 0, is-private: 0, owner: -1, is-agent: 0
    [10]: seg-in-3, type: 1, is-constant: 0, is-private: 0, owner: -1, is-agent: 0
    [11]: seg-in-4, type: 1, is-constant: 0, is-private: 0, owner: -1, is-agent: 0
    [12]: seg-in-5, type: 1, is-constant: 0, is-private: 0, owner: -1, is-agent: 0
    [13]: seg-in-6, type: 1, is-constant: 0, is-private: 0, owner: -1, is-agent: 0
    [14]: seg-in-7, type: 1, is-constant: 0, is-private: 0, owner: -1, is-agent: 0
    [15]: seg-in-8, type: 1, is-constant: 0, is-private: 0, owner: -1, is-agent: 0
    [16]: seg-in-9, type: 1, is-constant: 0, is-private: 0, owner: -1, is-agent: 0
    [17]: seg-out-1, type: 1, is-constant: 0, is-private: 0, owner: -1, is-agent: 0
    [18]: seg-out-2, type: 1, is-constant: 0, is-private: 0, owner: -1, is-agent: 0
    [19]: seg-out-3, type: 1, is-constant: 0, is-private: 0, owner: -1, is-agent: 0
    [20]: seg-out-4, type: 1, is-constant: 0, is-private: 0, owner: -1, is-agent: 0
    [21]: seg-out-5, type: 1, is-constant: 0, is-private: 0, owner: -1, is-agent: 0
    [22]: seg-out-6, type: 1, is-constant: 0, is-private: 0, owner: -1, is-agent: 0
    [23]: seg-out-7, type: 1, is-constant: 0, is-private: 0, owner: -1, is-agent: 0
    [24]: seg-out-8, type: 1, is-constant: 0, is-private: 0, owner: -1, is-agent: 0
    [25]: seg-out-9, type: 1, is-constant: 0, is-private: 0, owner: -1, is-agent: 0
Predicate[7]:
    =: 0 0 :: is-private: 0, owner-param: -1, read: 0, write: 0
    on: 2 1 :: is-private: 0, owner-param: -1, read: 1, write: 1
    analyzed: 2 :: is-private: 0, owner-param: -1, read: 0, write: 1
    cycle-2: 1 1 :: is-private: 0, owner-param: -1, read: 1, write: 0
    cycle-4: 1 1 1 1 :: is-private: 0, owner-param: -1, read: 0, write: 0
    cycle-2-with-analysis: 1 1 :: is-private: 0, owner-param: -1, read: 1, write: 0
    cycle-4-with-analysis: 1 1 1 1 :: is-private: 0, owner-param: -1, read: 0, write: 0
Function[1]:
    total-cost: :: is-private: 0, owner-param: -1, read: 0, write: 0
Action[2]:
    analyze-2: ?s1:1 ?s2:1 ?c1:2 ?c2:2
        pre: (and (R:cycle-2-with-analysis ?s1 ?s2) (RW:on ?c1 ?s1) (RW:on ?c2 ?s2))
        eff: (and (RW:on ?c1 ?s2) (RW:on ?c2 ?s1) (W:analyzed ?c1) (increase (total-cost) 3))
    rotate-2: ?s1:1 ?s2:1 ?c1:2 ?c2:2
        pre: (and (R:cycle-2 ?s1 ?s2) (RW:on ?c1 ?s1) (RW:on ?c2 ?s2))
        eff: (and (RW:on ?c1 ?s2) (RW:on ?c2 ?s1) (increase (total-cost) 1))
Init[108]:
  S:(cycle-2 seg-in-1 seg-out-1)
  S:(cycle-2 seg-in-1 seg-out-2)
  S:(cycle-2 seg-in-1 seg-out-3)
  S:(cycle-2 seg-in-1 seg-out-4)
  S:(cycle-2 seg-in-1 seg-out-5)
  S:(cycle-2 seg-in-1 seg-out-6)
  S:(cycle-2 seg-in-1 seg-out-7)
  S:(cycle-2 seg-in-1 seg-out-8)
  S:(cycle-2 seg-in-1 seg-out-9)
  S:(cycle-2 seg-in-2 seg-out-1)
  S:(cycle-2 seg-in-2 seg-out-2)
  S:(cycle-2 seg-in-2 seg-out-3)
  S:(cycle-2 seg-in-2 seg-out-4)
  S:(cycle-2 seg-in-2 seg-out-5)
  S:(cycle-2 seg-in-2 seg-out-6)
  S:(cycle-2 seg-in-2 seg-out-7)
  S:(cycle-2 seg-in-2 seg-out-8)
  S:(cycle-2 seg-in-2 seg-out-9)
  S:(cycle-2 seg-in-3 seg-out-1)
  S:(cycle-2 seg-in-3 seg-out-2)
  S:(cycle-2 seg-in-3 seg-out-3)
  S:(cycle-2 seg-in-3 seg-out-4)
  S:(cycle-2 seg-in-3 seg-out-5)
  S:(cycle-2 seg-in-3 seg-out-6)
  S:(cycle-2 seg-in-3 seg-out-7)
  S:(cycle-2 seg-in-3 seg-out-8)
  S:(cycle-2 seg-in-3 seg-out-9)
  S:(cycle-2 seg-in-4 seg-out-1)
  S:(cycle-2 seg-in-4 seg-out-2)
  S:(cycle-2 seg-in-4 seg-out-3)
  S:(cycle-2 seg-in-4 seg-out-4)
  S:(cycle-2 seg-in-4 seg-out-5)
  S:(cycle-2 seg-in-4 seg-out-6)
  S:(cycle-2 seg-in-4 seg-out-7)
  S:(cycle-2 seg-in-4 seg-out-8)
  S:(cycle-2 seg-in-4 seg-out-9)
  S:(cycle-2 seg-in-5 seg-out-1)
  S:(cycle-2 seg-in-5 seg-out-2)
  S:(cycle-2 seg-in-5 seg-out-3)
  S:(cycle-2 seg-in-5 seg-out-4)
  S:(cycle-2 seg-in-5 seg-out-5)
  S:(cycle-2 seg-in-5 seg-out-6)
  S:(cycle-2 seg-in-5 seg-out-7)
  S:(cycle-2 seg-in-5 seg-out-8)
  S:(cycle-2 seg-in-5 seg-out-9)
  S:(cycle-2 seg-in-6 seg-out-1)
  S:(cycle-2 seg-in-6 seg-out-2)
  S:(cycle-2 seg-in-6 seg-out-3)
  S:(cycle-2 seg-in-6 seg-out-4)
  S:(cycle-2 seg-in-6 seg-out-5)
  S:(cycle-2 seg-in-6 seg-out-6)
  S:(cycle-2 seg-in-6 seg-out-7)
  S:(cycle-2 seg-in-6 seg-out-8)
  S:(cycle-2 seg-in-6 seg-out-9)
  S:(cycle-2 seg-in-7 seg-out-1)
  S:(cycle-2 seg-in-7 seg-out-2)
  S:(cycle-2 seg-in-7 seg-out-3)
  S:(cycle-2 seg-in-7 seg-out-4)
  S:(cycle-2 seg-in-7 seg-out-5)
  S:(cycle-2 seg-in-7 seg-out-6)
  S:(cycle-2 seg-in-7 seg-out-7)
  S:(cycle-2 seg-in-7 seg-out-8)
  S:(cycle-2 seg-in-7 seg-out-9)
  S:(cycle-2 seg-in-8 seg-out-1)
  S:(cycle-2 seg-in-8 seg-out-2)
  S:(cycle-2 seg-in-8 seg-out-3)
  S:(cycle-2 seg-in-8 seg-out-4)
  S:(cycle-2 seg-in-8 seg-out-5)
  S:(cycle-2 seg-in-8 seg-out-6)
  S:(cycle-2 seg-in-8 seg-out-7)
  S:(cycle-2 seg-in-8 seg-out-8)
  S:(cycle-2 seg-in-8 seg-out-9)
  S:(cycle-2 seg-in-9 seg-out-1)
  S:(cycle-2 seg-in-9 seg-out-2)
  S:(cycle-2 seg-in-9 seg-out-3)
  S:(cycle-2 seg-in-9 seg-out-4)
  S:(cycle-2 seg-in-9 seg-out-5)
  S:(cycle-2 seg-in-9 seg-out-6)
  S:(cycle-2 seg-in-9 seg-out-7)
  S:(cycle-2 seg-in-9 seg-out-8)
  S:(cycle-2 seg-in-9 seg-out-9)
  S:(cycle-2-with-analysis seg-in-1 seg-out-1)
  S:(cycle-2-with-analysis seg-in-2 seg-out-1)
  S:(cycle-2-with-analysis seg-in-3 seg-out-1)
  S:(cycle-2-with-analysis seg-in-4 seg-out-1)
  S:(cycle-2-with-analysis seg-in-5 seg-out-1)
  S:(cycle-2-with-analysis seg-in-6 seg-out-1)
  S:(cycle-2-with-analysis seg-in-7 seg-out-1)
  S:(cycle-2-with-analysis seg-in-8 seg-out-1)
  S:(cycle-2-with-analysis seg-in-9 seg-out-1)
  (on car-in-1 seg-in-1)
  (on car-in-1 seg-in-2)
  (on car-in-1 seg-in-3)
  (on car-in-1 seg-in-4)
  (on car-in-1 seg-in-5)
  (on car-in-1 seg-in-6)
  (on car-in-1 seg-in-7)
  (on car-in-1 seg-in-8)
  (on car-in-1 seg-in-9)
  (on car-out-1 seg-out-1)
  (on car-out-1 seg-out-2)
  (on car-out-1 seg-out-3)
  (on car-out-4 seg-out-4)
  (on car-out-5 seg-out-5)
  (on car-out-6 seg-out-6)
  (on car-out-7 seg-out-7)
  (on car-out-8 seg-out-8)
  (on car-out-9 seg-out-9)
Init[1]:
  (= (total-cost) 0)
Goal: (and (W:analyzed car-in-1) (W:analyzed car-in-1) (W:analyzed car-in-1) (W:analyzed car-in-1) (W:analyzed car-in-1) (W:analyzed car-in-1) (W:analyzed car-in-1) (W:analyzed car-in-1) (W:analyzed car-in-1) (W:analyzed car-out-1) (W:analyzed car-out-1) (W:analyzed car-out-1) (W:analyzed car-out-4) (W:analyzed car-out-5) (W:analyzed car-out-6) (W:analyzed car-out-7) (W:analyzed car-out-8) (W:analyzed car-out-9) (RW:on car-in-1 seg-in-1) (RW:on car-in-1 seg-in-2) (RW:on car-in-1 seg-in-3) (RW:on car-in-1 seg-in-4) (RW:on car-in-1 seg-in-5) (RW:on car-in-1 seg-in-6) (RW:on car-in-1 seg-in-7) (RW:on car-in-1 seg-in-8) (RW:on car-in-1 seg-in-9) (RW:on car-out-1 seg-out-1) (RW:on car-out-1 seg-out-2) (RW:on car-out-1 seg-out-3) (RW:on car-out-4 seg-out-4) (RW:on car-out-5 seg-out-5) (RW:on car-out-6 seg-out-6) (RW:on car-out-7 seg-out-7) (RW:on car-out-8 seg-out-8) (RW:on car-out-9 seg-out-9))
Metric: 1
