begin_version
3
end_version
begin_metric
1
end_metric
71
begin_variable
var0
-1
13
location sheet1 fe1_exit-hw1_leftentry
location sheet1 hw1_rightexit-sys_entry
location sheet1 hw1_toprightentry-uc1_exit
location sheet1 lc1_entry-hw1_bottomleftexit
location sheet1 lc1_entryfromime-lime_exit
location sheet1 lc1_exit-hw1_bottomrightentry
location sheet1 lime_entry-lc1_exittoime
location sheet1 some_feeder_tray
location sheet1 some_finisher_tray
location sheet1 uc1_entry-hw1_topleftexit
location sheet1 uc1_exittoime-uime_entry
location sheet1 uime_exit-uc1_entryfromime
tnf-unknown
end_variable
begin_variable
var1
-1
13
location sheet2 fe1_exit-hw1_leftentry
location sheet2 hw1_rightexit-sys_entry
location sheet2 hw1_toprightentry-uc1_exit
location sheet2 lc1_entry-hw1_bottomleftexit
location sheet2 lc1_entryfromime-lime_exit
location sheet2 lc1_exit-hw1_bottomrightentry
location sheet2 lime_entry-lc1_exittoime
location sheet2 some_feeder_tray
location sheet2 some_finisher_tray
location sheet2 uc1_entry-hw1_topleftexit
location sheet2 uc1_exittoime-uime_entry
location sheet2 uime_exit-uc1_entryfromime
tnf-unknown
end_variable
begin_variable
var2
-1
13
location sheet3 fe1_exit-hw1_leftentry
location sheet3 hw1_rightexit-sys_entry
location sheet3 hw1_toprightentry-uc1_exit
location sheet3 lc1_entry-hw1_bottomleftexit
location sheet3 lc1_entryfromime-lime_exit
location sheet3 lc1_exit-hw1_bottomrightentry
location sheet3 lime_entry-lc1_exittoime
location sheet3 some_feeder_tray
location sheet3 some_finisher_tray
location sheet3 uc1_entry-hw1_topleftexit
location sheet3 uc1_exittoime-uime_entry
location sheet3 uime_exit-uc1_entryfromime
tnf-unknown
end_variable
begin_variable
var3
-1
13
location sheet4 fe1_exit-hw1_leftentry
location sheet4 hw1_rightexit-sys_entry
location sheet4 hw1_toprightentry-uc1_exit
location sheet4 lc1_entry-hw1_bottomleftexit
location sheet4 lc1_entryfromime-lime_exit
location sheet4 lc1_exit-hw1_bottomrightentry
location sheet4 lime_entry-lc1_exittoime
location sheet4 some_feeder_tray
location sheet4 some_finisher_tray
location sheet4 uc1_entry-hw1_topleftexit
location sheet4 uc1_exittoime-uime_entry
location sheet4 uime_exit-uc1_entryfromime
tnf-unknown
end_variable
begin_variable
var4
-1
13
location sheet5 fe1_exit-hw1_leftentry
location sheet5 hw1_rightexit-sys_entry
location sheet5 hw1_toprightentry-uc1_exit
location sheet5 lc1_entry-hw1_bottomleftexit
location sheet5 lc1_entryfromime-lime_exit
location sheet5 lc1_exit-hw1_bottomrightentry
location sheet5 lime_entry-lc1_exittoime
location sheet5 some_feeder_tray
location sheet5 some_finisher_tray
location sheet5 uc1_entry-hw1_topleftexit
location sheet5 uc1_exittoime-uime_entry
location sheet5 uime_exit-uc1_entryfromime
tnf-unknown
end_variable
begin_variable
var5
-1
13
location sheet6 fe1_exit-hw1_leftentry
location sheet6 hw1_rightexit-sys_entry
location sheet6 hw1_toprightentry-uc1_exit
location sheet6 lc1_entry-hw1_bottomleftexit
location sheet6 lc1_entryfromime-lime_exit
location sheet6 lc1_exit-hw1_bottomrightentry
location sheet6 lime_entry-lc1_exittoime
location sheet6 some_feeder_tray
location sheet6 some_finisher_tray
location sheet6 uc1_entry-hw1_topleftexit
location sheet6 uc1_exittoime-uime_entry
location sheet6 uime_exit-uc1_entryfromime
tnf-unknown
end_variable
begin_variable
var6
-1
13
location sheet7 fe1_exit-hw1_leftentry
location sheet7 hw1_rightexit-sys_entry
location sheet7 hw1_toprightentry-uc1_exit
location sheet7 lc1_entry-hw1_bottomleftexit
location sheet7 lc1_entryfromime-lime_exit
location sheet7 lc1_exit-hw1_bottomrightentry
location sheet7 lime_entry-lc1_exittoime
location sheet7 some_feeder_tray
location sheet7 uc1_entry-hw1_topleftexit
location sheet7 uc1_exittoime-uime_entry
location sheet7 uime_exit-uc1_entryfromime
none-of-those
tnf-unknown
end_variable
begin_variable
var7
-1
2
notprintedwith sheet1 back black
none-of-those
end_variable
begin_variable
var8
-1
2
notprintedwith sheet1 back color
none-of-those
end_variable
begin_variable
var9
-1
3
notprintedwith sheet1 front black
none-of-those
tnf-unknown
end_variable
begin_variable
var10
-1
2
notprintedwith sheet1 front color
none-of-those
end_variable
begin_variable
var11
-1
2
notprintedwith sheet2 back black
none-of-those
end_variable
begin_variable
var12
-1
2
notprintedwith sheet2 back color
none-of-those
end_variable
begin_variable
var13
-1
3
notprintedwith sheet2 front black
none-of-those
tnf-unknown
end_variable
begin_variable
var14
-1
2
notprintedwith sheet2 front color
none-of-those
end_variable
begin_variable
var15
-1
2
notprintedwith sheet3 back black
none-of-those
end_variable
begin_variable
var16
-1
2
notprintedwith sheet3 back color
none-of-those
end_variable
begin_variable
var17
-1
2
notprintedwith sheet3 front black
none-of-those
end_variable
begin_variable
var18
-1
3
notprintedwith sheet3 front color
none-of-those
tnf-unknown
end_variable
begin_variable
var19
-1
2
notprintedwith sheet4 back black
none-of-those
end_variable
begin_variable
var20
-1
2
notprintedwith sheet4 back color
none-of-those
end_variable
begin_variable
var21
-1
2
notprintedwith sheet4 front black
none-of-those
end_variable
begin_variable
var22
-1
3
notprintedwith sheet4 front color
none-of-those
tnf-unknown
end_variable
begin_variable
var23
-1
2
notprintedwith sheet5 back black
none-of-those
end_variable
begin_variable
var24
-1
2
notprintedwith sheet5 back color
none-of-those
end_variable
begin_variable
var25
-1
3
notprintedwith sheet5 front black
none-of-those
tnf-unknown
end_variable
begin_variable
var26
-1
2
notprintedwith sheet5 front color
none-of-those
end_variable
begin_variable
var27
-1
2
notprintedwith sheet6 back black
none-of-those
end_variable
begin_variable
var28
-1
2
notprintedwith sheet6 back color
none-of-those
end_variable
begin_variable
var29
-1
3
notprintedwith sheet6 front black
none-of-those
tnf-unknown
end_variable
begin_variable
var30
-1
2
notprintedwith sheet6 front color
none-of-those
end_variable
begin_variable
var31
-1
2
notprintedwith sheet7 back black
none-of-those
end_variable
begin_variable
var32
-1
2
notprintedwith sheet7 back color
none-of-those
end_variable
begin_variable
var33
-1
2
notprintedwith sheet7 front black
none-of-those
end_variable
begin_variable
var34
-1
3
notprintedwith sheet7 front color
none-of-those
tnf-unknown
end_variable
begin_variable
var35
-1
3
uninitialized
none-of-those
tnf-unknown
end_variable
begin_variable
var36
-1
3
available fe1-rsrc
none-of-those
tnf-unkown
end_variable
begin_variable
var37
-1
3
available hw1-rsrc
none-of-those
tnf-unkown
end_variable
begin_variable
var38
-1
3
available lc1-rsrc
none-of-those
tnf-unkown
end_variable
begin_variable
var39
-1
3
available lime-rsrc
none-of-those
tnf-unkown
end_variable
begin_variable
var40
-1
3
available sys-rsrc
none-of-those
tnf-unkown
end_variable
begin_variable
var41
-1
3
available uc1-rsrc
none-of-those
tnf-unkown
end_variable
begin_variable
var42
-1
3
available uime-rsrc
none-of-those
tnf-unkown
end_variable
begin_variable
var43
-1
3
hasimage sheet1 front image-1
none-of-those
tnf-unkown
end_variable
begin_variable
var44
-1
3
hasimage sheet2 front image-2
none-of-those
tnf-unkown
end_variable
begin_variable
var45
-1
3
hasimage sheet3 front image-3
none-of-those
tnf-unkown
end_variable
begin_variable
var46
-1
3
hasimage sheet4 front image-4
none-of-those
tnf-unkown
end_variable
begin_variable
var47
-1
3
hasimage sheet5 front image-5
none-of-those
tnf-unkown
end_variable
begin_variable
var48
-1
3
hasimage sheet6 front image-6
none-of-those
tnf-unkown
end_variable
begin_variable
var49
-1
3
hasimage sheet7 front image-7
none-of-those
tnf-unkown
end_variable
begin_variable
var50
-1
3
sideup sheet1 back
none-of-those
tnf-unkown
end_variable
begin_variable
var51
-1
3
sideup sheet1 front
none-of-those
tnf-unkown
end_variable
begin_variable
var52
-1
3
sideup sheet2 back
none-of-those
tnf-unkown
end_variable
begin_variable
var53
-1
3
sideup sheet2 front
none-of-those
tnf-unkown
end_variable
begin_variable
var54
-1
3
sideup sheet3 back
none-of-those
tnf-unkown
end_variable
begin_variable
var55
-1
3
sideup sheet3 front
none-of-those
tnf-unkown
end_variable
begin_variable
var56
-1
3
sideup sheet4 back
none-of-those
tnf-unkown
end_variable
begin_variable
var57
-1
3
sideup sheet4 front
none-of-those
tnf-unkown
end_variable
begin_variable
var58
-1
3
sideup sheet5 back
none-of-those
tnf-unkown
end_variable
begin_variable
var59
-1
3
sideup sheet5 front
none-of-those
tnf-unkown
end_variable
begin_variable
var60
-1
3
sideup sheet6 back
none-of-those
tnf-unkown
end_variable
begin_variable
var61
-1
3
sideup sheet6 front
none-of-those
tnf-unkown
end_variable
begin_variable
var62
-1
3
sideup sheet7 back
none-of-those
tnf-unkown
end_variable
begin_variable
var63
-1
3
sideup sheet7 front
none-of-those
tnf-unkown
end_variable
begin_variable
var64
-1
3
stackedin sheet1 sys_outputtray
none-of-those
tnf-unkown
end_variable
begin_variable
var65
-1
3
stackedin sheet2 sys_outputtray
none-of-those
tnf-unkown
end_variable
begin_variable
var66
-1
3
stackedin sheet3 sys_outputtray
none-of-those
tnf-unkown
end_variable
begin_variable
var67
-1
3
stackedin sheet4 sys_outputtray
none-of-those
tnf-unkown
end_variable
begin_variable
var68
-1
3
stackedin sheet5 sys_outputtray
none-of-those
tnf-unkown
end_variable
begin_variable
var69
-1
3
stackedin sheet6 sys_outputtray
none-of-those
tnf-unkown
end_variable
begin_variable
var70
-1
3
stackedin sheet7 sys_outputtray
none-of-those
tnf-unkown
end_variable
36
begin_mutex_group
1
7 0
end_mutex_group
begin_mutex_group
1
8 0
end_mutex_group
begin_mutex_group
1
9 0
end_mutex_group
begin_mutex_group
1
10 0
end_mutex_group
begin_mutex_group
1
11 0
end_mutex_group
begin_mutex_group
1
12 0
end_mutex_group
begin_mutex_group
1
13 0
end_mutex_group
begin_mutex_group
1
14 0
end_mutex_group
begin_mutex_group
1
15 0
end_mutex_group
begin_mutex_group
1
16 0
end_mutex_group
begin_mutex_group
1
17 0
end_mutex_group
begin_mutex_group
1
18 0
end_mutex_group
begin_mutex_group
1
19 0
end_mutex_group
begin_mutex_group
1
20 0
end_mutex_group
begin_mutex_group
1
21 0
end_mutex_group
begin_mutex_group
1
22 0
end_mutex_group
begin_mutex_group
1
23 0
end_mutex_group
begin_mutex_group
1
24 0
end_mutex_group
begin_mutex_group
1
25 0
end_mutex_group
begin_mutex_group
1
26 0
end_mutex_group
begin_mutex_group
1
27 0
end_mutex_group
begin_mutex_group
1
28 0
end_mutex_group
begin_mutex_group
1
29 0
end_mutex_group
begin_mutex_group
1
30 0
end_mutex_group
begin_mutex_group
1
31 0
end_mutex_group
begin_mutex_group
1
32 0
end_mutex_group
begin_mutex_group
1
33 0
end_mutex_group
begin_mutex_group
1
34 0
end_mutex_group
begin_mutex_group
1
35 0
end_mutex_group
begin_mutex_group
11
6 0
6 1
6 2
6 3
6 4
6 5
6 6
6 7
6 8
6 9
6 10
end_mutex_group
begin_mutex_group
12
0 0
0 1
0 2
0 3
0 4
0 5
0 6
0 7
0 8
0 9
0 10
0 11
end_mutex_group
begin_mutex_group
12
1 0
1 1
1 2
1 3
1 4
1 5
1 6
1 7
1 8
1 9
1 10
1 11
end_mutex_group
begin_mutex_group
12
2 0
2 1
2 2
2 3
2 4
2 5
2 6
2 7
2 8
2 9
2 10
2 11
end_mutex_group
begin_mutex_group
12
3 0
3 1
3 2
3 3
3 4
3 5
3 6
3 7
3 8
3 9
3 10
3 11
end_mutex_group
begin_mutex_group
12
4 0
4 1
4 2
4 3
4 4
4 5
4 6
4 7
4 8
4 9
4 10
4 11
end_mutex_group
begin_mutex_group
12
5 0
5 1
5 2
5 3
5 4
5 5
5 6
5 7
5 8
5 9
5 10
5 11
end_mutex_group
begin_state
7
7
7
7
7
7
7
0
0
0
0
0
0
0
0
0
0
0
0
0
0
0
0
0
0
0
0
0
0
0
0
0
0
0
0
0
1
1
1
1
1
1
1
1
1
1
1
1
1
1
1
1
1
1
1
1
1
1
1
1
1
1
1
1
1
1
1
1
1
1
1
end_state
begin_goal
71
0 12
1 12
2 12
3 12
4 12
5 12
6 12
7 0
8 0
9 2
10 0
11 0
12 0
13 2
14 0
15 0
16 0
17 0
18 2
19 0
20 0
21 0
22 2
23 0
24 0
25 2
26 0
27 0
28 0
29 2
30 0
31 0
32 0
33 0
34 2
35 2
36 2
37 2
38 2
39 2
40 2
41 2
42 2
43 0
44 0
45 0
46 0
47 0
48 0
49 0
50 2
51 0
52 2
53 0
54 2
55 0
56 2
57 0
58 2
59 0
60 2
61 0
62 2
63 0
64 0
65 0
66 0
67 0
68 0
69 0
70 0
end_goal
479
begin_operator
fe1-feedmsi-letter sheet1
1
36 0
2
0 0 7 0
0 50 2 0
125
end_operator
begin_operator
fe1-feedmsi-letter sheet2
1
36 0
2
0 1 7 0
0 52 2 0
125
end_operator
begin_operator
fe1-feedmsi-letter sheet3
1
36 0
2
0 2 7 0
0 54 2 0
125
end_operator
begin_operator
fe1-feedmsi-letter sheet4
1
36 0
2
0 3 7 0
0 56 2 0
125
end_operator
begin_operator
fe1-feedmsi-letter sheet5
1
36 0
2
0 4 7 0
0 58 2 0
125
end_operator
begin_operator
fe1-feedmsi-letter sheet6
1
36 0
2
0 5 7 0
0 60 2 0
125
end_operator
begin_operator
fe1-feedmsi-letter sheet7
1
36 0
2
0 6 7 0
0 62 2 0
125
end_operator
begin_operator
hw1-bottomrightentrytobottomleftexit-letter sheet1
1
37 0
1
0 0 5 3
8999
end_operator
begin_operator
hw1-bottomrightentrytobottomleftexit-letter sheet2
1
37 0
1
0 1 5 3
8999
end_operator
begin_operator
hw1-bottomrightentrytobottomleftexit-letter sheet3
1
37 0
1
0 2 5 3
8999
end_operator
begin_operator
hw1-bottomrightentrytobottomleftexit-letter sheet4
1
37 0
1
0 3 5 3
8999
end_operator
begin_operator
hw1-bottomrightentrytobottomleftexit-letter sheet5
1
37 0
1
0 4 5 3
8999
end_operator
begin_operator
hw1-bottomrightentrytobottomleftexit-letter sheet6
1
37 0
1
0 5 5 3
8999
end_operator
begin_operator
hw1-bottomrightentrytobottomleftexit-letter sheet7
1
37 0
1
0 6 5 3
8999
end_operator
begin_operator
hw1-bottomrightentrytorightexit-letter sheet1
1
37 0
1
0 0 5 1
1499
end_operator
begin_operator
hw1-bottomrightentrytorightexit-letter sheet2
1
37 0
1
0 1 5 1
1499
end_operator
begin_operator
hw1-bottomrightentrytorightexit-letter sheet3
1
37 0
1
0 2 5 1
1499
end_operator
begin_operator
hw1-bottomrightentrytorightexit-letter sheet4
1
37 0
1
0 3 5 1
1499
end_operator
begin_operator
hw1-bottomrightentrytorightexit-letter sheet5
1
37 0
1
0 4 5 1
1499
end_operator
begin_operator
hw1-bottomrightentrytorightexit-letter sheet6
1
37 0
1
0 5 5 1
1499
end_operator
begin_operator
hw1-bottomrightentrytorightexit-letter sheet7
1
37 0
1
0 6 5 1
1499
end_operator
begin_operator
hw1-bottomrightentrytotopleftexit-letter sheet1
1
37 0
1
0 0 5 9
8999
end_operator
begin_operator
hw1-bottomrightentrytotopleftexit-letter sheet2
1
37 0
1
0 1 5 9
8999
end_operator
begin_operator
hw1-bottomrightentrytotopleftexit-letter sheet3
1
37 0
1
0 2 5 9
8999
end_operator
begin_operator
hw1-bottomrightentrytotopleftexit-letter sheet4
1
37 0
1
0 3 5 9
8999
end_operator
begin_operator
hw1-bottomrightentrytotopleftexit-letter sheet5
1
37 0
1
0 4 5 9
8999
end_operator
begin_operator
hw1-bottomrightentrytotopleftexit-letter sheet6
1
37 0
1
0 5 5 9
8999
end_operator
begin_operator
hw1-bottomrightentrytotopleftexit-letter sheet7
1
37 0
1
0 6 5 8
8999
end_operator
begin_operator
hw1-leftentrytobottomleftexit-letter sheet1
1
37 0
1
0 0 0 3
1499
end_operator
begin_operator
hw1-leftentrytobottomleftexit-letter sheet2
1
37 0
1
0 1 0 3
1499
end_operator
begin_operator
hw1-leftentrytobottomleftexit-letter sheet3
1
37 0
1
0 2 0 3
1499
end_operator
begin_operator
hw1-leftentrytobottomleftexit-letter sheet4
1
37 0
1
0 3 0 3
1499
end_operator
begin_operator
hw1-leftentrytobottomleftexit-letter sheet5
1
37 0
1
0 4 0 3
1499
end_operator
begin_operator
hw1-leftentrytobottomleftexit-letter sheet6
1
37 0
1
0 5 0 3
1499
end_operator
begin_operator
hw1-leftentrytobottomleftexit-letter sheet7
1
37 0
1
0 6 0 3
1499
end_operator
begin_operator
hw1-leftentrytotopleftexit-letter sheet1
1
37 0
1
0 0 0 9
1499
end_operator
begin_operator
hw1-leftentrytotopleftexit-letter sheet2
1
37 0
1
0 1 0 9
1499
end_operator
begin_operator
hw1-leftentrytotopleftexit-letter sheet3
1
37 0
1
0 2 0 9
1499
end_operator
begin_operator
hw1-leftentrytotopleftexit-letter sheet4
1
37 0
1
0 3 0 9
1499
end_operator
begin_operator
hw1-leftentrytotopleftexit-letter sheet5
1
37 0
1
0 4 0 9
1499
end_operator
begin_operator
hw1-leftentrytotopleftexit-letter sheet6
1
37 0
1
0 5 0 9
1499
end_operator
begin_operator
hw1-leftentrytotopleftexit-letter sheet7
1
37 0
1
0 6 0 8
1499
end_operator
begin_operator
hw1-toprightentrytobottomleftexit-letter sheet1
1
37 0
1
0 0 2 3
8999
end_operator
begin_operator
hw1-toprightentrytobottomleftexit-letter sheet2
1
37 0
1
0 1 2 3
8999
end_operator
begin_operator
hw1-toprightentrytobottomleftexit-letter sheet3
1
37 0
1
0 2 2 3
8999
end_operator
begin_operator
hw1-toprightentrytobottomleftexit-letter sheet4
1
37 0
1
0 3 2 3
8999
end_operator
begin_operator
hw1-toprightentrytobottomleftexit-letter sheet5
1
37 0
1
0 4 2 3
8999
end_operator
begin_operator
hw1-toprightentrytobottomleftexit-letter sheet6
1
37 0
1
0 5 2 3
8999
end_operator
begin_operator
hw1-toprightentrytobottomleftexit-letter sheet7
1
37 0
1
0 6 2 3
8999
end_operator
begin_operator
hw1-toprightentrytorightexit-letter sheet1
1
37 0
1
0 0 2 1
1499
end_operator
begin_operator
hw1-toprightentrytorightexit-letter sheet2
1
37 0
1
0 1 2 1
1499
end_operator
begin_operator
hw1-toprightentrytorightexit-letter sheet3
1
37 0
1
0 2 2 1
1499
end_operator
begin_operator
hw1-toprightentrytorightexit-letter sheet4
1
37 0
1
0 3 2 1
1499
end_operator
begin_operator
hw1-toprightentrytorightexit-letter sheet5
1
37 0
1
0 4 2 1
1499
end_operator
begin_operator
hw1-toprightentrytorightexit-letter sheet6
1
37 0
1
0 5 2 1
1499
end_operator
begin_operator
hw1-toprightentrytorightexit-letter sheet7
1
37 0
1
0 6 2 1
1499
end_operator
begin_operator
hw1-toprightentrytotopleftexit-letter sheet1
1
37 0
1
0 0 2 9
8999
end_operator
begin_operator
hw1-toprightentrytotopleftexit-letter sheet2
1
37 0
1
0 1 2 9
8999
end_operator
begin_operator
hw1-toprightentrytotopleftexit-letter sheet3
1
37 0
1
0 2 2 9
8999
end_operator
begin_operator
hw1-toprightentrytotopleftexit-letter sheet4
1
37 0
1
0 3 2 9
8999
end_operator
begin_operator
hw1-toprightentrytotopleftexit-letter sheet5
1
37 0
1
0 4 2 9
8999
end_operator
begin_operator
hw1-toprightentrytotopleftexit-letter sheet6
1
37 0
1
0 5 2 9
8999
end_operator
begin_operator
hw1-toprightentrytotopleftexit-letter sheet7
1
37 0
1
0 6 2 8
8999
end_operator
begin_operator
initialize
0
8
0 35 0 1
0 36 2 0
0 37 2 0
0 38 2 0
0 39 2 0
0 40 2 0
0 41 2 0
0 42 2 0
0
end_operator
begin_operator
lc1-fromime-letter sheet1
1
38 0
1
0 0 4 5
4999
end_operator
begin_operator
lc1-fromime-letter sheet2
1
38 0
1
0 1 4 5
4999
end_operator
begin_operator
lc1-fromime-letter sheet3
1
38 0
1
0 2 4 5
4999
end_operator
begin_operator
lc1-fromime-letter sheet4
1
38 0
1
0 3 4 5
4999
end_operator
begin_operator
lc1-fromime-letter sheet5
1
38 0
1
0 4 4 5
4999
end_operator
begin_operator
lc1-fromime-letter sheet6
1
38 0
1
0 5 4 5
4999
end_operator
begin_operator
lc1-fromime-letter sheet7
1
38 0
1
0 6 4 5
4999
end_operator
begin_operator
lc1-invertfromime-letter sheet1 back front
1
38 0
3
0 0 4 5
0 50 0 1
0 51 2 0
9999
end_operator
begin_operator
lc1-invertfromime-letter sheet1 front back
1
38 0
3
0 0 4 5
0 50 2 0
0 51 0 1
9999
end_operator
begin_operator
lc1-invertfromime-letter sheet2 back front
1
38 0
3
0 1 4 5
0 52 0 1
0 53 2 0
9999
end_operator
begin_operator
lc1-invertfromime-letter sheet2 front back
1
38 0
3
0 1 4 5
0 52 2 0
0 53 0 1
9999
end_operator
begin_operator
lc1-invertfromime-letter sheet3 back front
1
38 0
3
0 2 4 5
0 54 0 1
0 55 2 0
9999
end_operator
begin_operator
lc1-invertfromime-letter sheet3 front back
1
38 0
3
0 2 4 5
0 54 2 0
0 55 0 1
9999
end_operator
begin_operator
lc1-invertfromime-letter sheet4 back front
1
38 0
3
0 3 4 5
0 56 0 1
0 57 2 0
9999
end_operator
begin_operator
lc1-invertfromime-letter sheet4 front back
1
38 0
3
0 3 4 5
0 56 2 0
0 57 0 1
9999
end_operator
begin_operator
lc1-invertfromime-letter sheet5 back front
1
38 0
3
0 4 4 5
0 58 0 1
0 59 2 0
9999
end_operator
begin_operator
lc1-invertfromime-letter sheet5 front back
1
38 0
3
0 4 4 5
0 58 2 0
0 59 0 1
9999
end_operator
begin_operator
lc1-invertfromime-letter sheet6 back front
1
38 0
3
0 5 4 5
0 60 0 1
0 61 2 0
9999
end_operator
begin_operator
lc1-invertfromime-letter sheet6 front back
1
38 0
3
0 5 4 5
0 60 2 0
0 61 0 1
9999
end_operator
begin_operator
lc1-invertfromime-letter sheet7 back front
1
38 0
3
0 6 4 5
0 62 0 1
0 63 2 0
9999
end_operator
begin_operator
lc1-invertfromime-letter sheet7 front back
1
38 0
3
0 6 4 5
0 62 2 0
0 63 0 1
9999
end_operator
begin_operator
lc1-inverttoime-letter sheet1 back front
1
38 0
3
0 0 3 6
0 50 0 1
0 51 2 0
9999
end_operator
begin_operator
lc1-inverttoime-letter sheet1 front back
1
38 0
3
0 0 3 6
0 50 2 0
0 51 0 1
9999
end_operator
begin_operator
lc1-inverttoime-letter sheet2 back front
1
38 0
3
0 1 3 6
0 52 0 1
0 53 2 0
9999
end_operator
begin_operator
lc1-inverttoime-letter sheet2 front back
1
38 0
3
0 1 3 6
0 52 2 0
0 53 0 1
9999
end_operator
begin_operator
lc1-inverttoime-letter sheet3 back front
1
38 0
3
0 2 3 6
0 54 0 1
0 55 2 0
9999
end_operator
begin_operator
lc1-inverttoime-letter sheet3 front back
1
38 0
3
0 2 3 6
0 54 2 0
0 55 0 1
9999
end_operator
begin_operator
lc1-inverttoime-letter sheet4 back front
1
38 0
3
0 3 3 6
0 56 0 1
0 57 2 0
9999
end_operator
begin_operator
lc1-inverttoime-letter sheet4 front back
1
38 0
3
0 3 3 6
0 56 2 0
0 57 0 1
9999
end_operator
begin_operator
lc1-inverttoime-letter sheet5 back front
1
38 0
3
0 4 3 6
0 58 0 1
0 59 2 0
9999
end_operator
begin_operator
lc1-inverttoime-letter sheet5 front back
1
38 0
3
0 4 3 6
0 58 2 0
0 59 0 1
9999
end_operator
begin_operator
lc1-inverttoime-letter sheet6 back front
1
38 0
3
0 5 3 6
0 60 0 1
0 61 2 0
9999
end_operator
begin_operator
lc1-inverttoime-letter sheet6 front back
1
38 0
3
0 5 3 6
0 60 2 0
0 61 0 1
9999
end_operator
begin_operator
lc1-inverttoime-letter sheet7 back front
1
38 0
3
0 6 3 6
0 62 0 1
0 63 2 0
9999
end_operator
begin_operator
lc1-inverttoime-letter sheet7 front back
1
38 0
3
0 6 3 6
0 62 2 0
0 63 0 1
9999
end_operator
begin_operator
lc1-toime-letter sheet1
1
38 0
1
0 0 3 6
4999
end_operator
begin_operator
lc1-toime-letter sheet2
1
38 0
1
0 1 3 6
4999
end_operator
begin_operator
lc1-toime-letter sheet3
1
38 0
1
0 2 3 6
4999
end_operator
begin_operator
lc1-toime-letter sheet4
1
38 0
1
0 3 3 6
4999
end_operator
begin_operator
lc1-toime-letter sheet5
1
38 0
1
0 4 3 6
4999
end_operator
begin_operator
lc1-toime-letter sheet6
1
38 0
1
0 5 3 6
4999
end_operator
begin_operator
lc1-toime-letter sheet7
1
38 0
1
0 6 3 6
4999
end_operator
begin_operator
lime-simplex-letter sheet1 back image-3
2
39 0
50 0
2
0 0 6 4
0 8 0 1
212790
end_operator
begin_operator
lime-simplex-letter sheet1 back image-4
2
39 0
50 0
2
0 0 6 4
0 8 0 1
212790
end_operator
begin_operator
lime-simplex-letter sheet1 back image-7
2
39 0
50 0
2
0 0 6 4
0 8 0 1
212790
end_operator
begin_operator
lime-simplex-letter sheet1 front image-3
2
39 0
51 0
2
0 0 6 4
0 10 0 1
212790
end_operator
begin_operator
lime-simplex-letter sheet1 front image-4
2
39 0
51 0
2
0 0 6 4
0 10 0 1
212790
end_operator
begin_operator
lime-simplex-letter sheet1 front image-7
2
39 0
51 0
2
0 0 6 4
0 10 0 1
212790
end_operator
begin_operator
lime-simplex-letter sheet2 back image-3
2
39 0
52 0
2
0 1 6 4
0 12 0 1
212790
end_operator
begin_operator
lime-simplex-letter sheet2 back image-4
2
39 0
52 0
2
0 1 6 4
0 12 0 1
212790
end_operator
begin_operator
lime-simplex-letter sheet2 back image-7
2
39 0
52 0
2
0 1 6 4
0 12 0 1
212790
end_operator
begin_operator
lime-simplex-letter sheet2 front image-3
2
39 0
53 0
2
0 1 6 4
0 14 0 1
212790
end_operator
begin_operator
lime-simplex-letter sheet2 front image-4
2
39 0
53 0
2
0 1 6 4
0 14 0 1
212790
end_operator
begin_operator
lime-simplex-letter sheet2 front image-7
2
39 0
53 0
2
0 1 6 4
0 14 0 1
212790
end_operator
begin_operator
lime-simplex-letter sheet3 back image-3
2
39 0
54 0
2
0 2 6 4
0 16 0 1
212790
end_operator
begin_operator
lime-simplex-letter sheet3 back image-4
2
39 0
54 0
2
0 2 6 4
0 16 0 1
212790
end_operator
begin_operator
lime-simplex-letter sheet3 back image-7
2
39 0
54 0
2
0 2 6 4
0 16 0 1
212790
end_operator
begin_operator
lime-simplex-letter sheet3 front image-3
2
39 0
55 0
3
0 2 6 4
0 18 0 1
0 45 2 0
212790
end_operator
begin_operator
lime-simplex-letter sheet3 front image-4
2
39 0
55 0
2
0 2 6 4
0 18 0 1
212790
end_operator
begin_operator
lime-simplex-letter sheet3 front image-7
2
39 0
55 0
2
0 2 6 4
0 18 0 1
212790
end_operator
begin_operator
lime-simplex-letter sheet4 back image-3
2
39 0
56 0
2
0 3 6 4
0 20 0 1
212790
end_operator
begin_operator
lime-simplex-letter sheet4 back image-4
2
39 0
56 0
2
0 3 6 4
0 20 0 1
212790
end_operator
begin_operator
lime-simplex-letter sheet4 back image-7
2
39 0
56 0
2
0 3 6 4
0 20 0 1
212790
end_operator
begin_operator
lime-simplex-letter sheet4 front image-3
2
39 0
57 0
2
0 3 6 4
0 22 0 1
212790
end_operator
begin_operator
lime-simplex-letter sheet4 front image-4
2
39 0
57 0
3
0 3 6 4
0 22 0 1
0 46 2 0
212790
end_operator
begin_operator
lime-simplex-letter sheet4 front image-7
2
39 0
57 0
2
0 3 6 4
0 22 0 1
212790
end_operator
begin_operator
lime-simplex-letter sheet5 back image-3
2
39 0
58 0
2
0 4 6 4
0 24 0 1
212790
end_operator
begin_operator
lime-simplex-letter sheet5 back image-4
2
39 0
58 0
2
0 4 6 4
0 24 0 1
212790
end_operator
begin_operator
lime-simplex-letter sheet5 back image-7
2
39 0
58 0
2
0 4 6 4
0 24 0 1
212790
end_operator
begin_operator
lime-simplex-letter sheet5 front image-3
2
39 0
59 0
2
0 4 6 4
0 26 0 1
212790
end_operator
begin_operator
lime-simplex-letter sheet5 front image-4
2
39 0
59 0
2
0 4 6 4
0 26 0 1
212790
end_operator
begin_operator
lime-simplex-letter sheet5 front image-7
2
39 0
59 0
2
0 4 6 4
0 26 0 1
212790
end_operator
begin_operator
lime-simplex-letter sheet6 back image-3
2
39 0
60 0
2
0 5 6 4
0 28 0 1
212790
end_operator
begin_operator
lime-simplex-letter sheet6 back image-4
2
39 0
60 0
2
0 5 6 4
0 28 0 1
212790
end_operator
begin_operator
lime-simplex-letter sheet6 back image-7
2
39 0
60 0
2
0 5 6 4
0 28 0 1
212790
end_operator
begin_operator
lime-simplex-letter sheet6 front image-3
2
39 0
61 0
2
0 5 6 4
0 30 0 1
212790
end_operator
begin_operator
lime-simplex-letter sheet6 front image-4
2
39 0
61 0
2
0 5 6 4
0 30 0 1
212790
end_operator
begin_operator
lime-simplex-letter sheet6 front image-7
2
39 0
61 0
2
0 5 6 4
0 30 0 1
212790
end_operator
begin_operator
lime-simplex-letter sheet7 back image-3
2
39 0
62 0
2
0 6 6 4
0 32 0 1
212790
end_operator
begin_operator
lime-simplex-letter sheet7 back image-4
2
39 0
62 0
2
0 6 6 4
0 32 0 1
212790
end_operator
begin_operator
lime-simplex-letter sheet7 back image-7
2
39 0
62 0
2
0 6 6 4
0 32 0 1
212790
end_operator
begin_operator
lime-simplex-letter sheet7 front image-3
2
39 0
63 0
2
0 6 6 4
0 34 0 1
212790
end_operator
begin_operator
lime-simplex-letter sheet7 front image-4
2
39 0
63 0
2
0 6 6 4
0 34 0 1
212790
end_operator
begin_operator
lime-simplex-letter sheet7 front image-7
2
39 0
63 0
3
0 6 6 4
0 34 0 1
0 49 2 0
212790
end_operator
begin_operator
lime-simplexmono-letter sheet1 back image-1
2
39 0
50 0
2
0 0 6 4
0 7 0 1
212790
end_operator
begin_operator
lime-simplexmono-letter sheet1 back image-2
2
39 0
50 0
2
0 0 6 4
0 7 0 1
212790
end_operator
begin_operator
lime-simplexmono-letter sheet1 back image-5
2
39 0
50 0
2
0 0 6 4
0 7 0 1
212790
end_operator
begin_operator
lime-simplexmono-letter sheet1 back image-6
2
39 0
50 0
2
0 0 6 4
0 7 0 1
212790
end_operator
begin_operator
lime-simplexmono-letter sheet1 front image-1
2
39 0
51 0
3
0 0 6 4
0 9 0 1
0 43 2 0
212790
end_operator
begin_operator
lime-simplexmono-letter sheet1 front image-2
2
39 0
51 0
2
0 0 6 4
0 9 0 1
212790
end_operator
begin_operator
lime-simplexmono-letter sheet1 front image-5
2
39 0
51 0
2
0 0 6 4
0 9 0 1
212790
end_operator
begin_operator
lime-simplexmono-letter sheet1 front image-6
2
39 0
51 0
2
0 0 6 4
0 9 0 1
212790
end_operator
begin_operator
lime-simplexmono-letter sheet2 back image-1
2
39 0
52 0
2
0 1 6 4
0 11 0 1
212790
end_operator
begin_operator
lime-simplexmono-letter sheet2 back image-2
2
39 0
52 0
2
0 1 6 4
0 11 0 1
212790
end_operator
begin_operator
lime-simplexmono-letter sheet2 back image-5
2
39 0
52 0
2
0 1 6 4
0 11 0 1
212790
end_operator
begin_operator
lime-simplexmono-letter sheet2 back image-6
2
39 0
52 0
2
0 1 6 4
0 11 0 1
212790
end_operator
begin_operator
lime-simplexmono-letter sheet2 front image-1
2
39 0
53 0
2
0 1 6 4
0 13 0 1
212790
end_operator
begin_operator
lime-simplexmono-letter sheet2 front image-2
2
39 0
53 0
3
0 1 6 4
0 13 0 1
0 44 2 0
212790
end_operator
begin_operator
lime-simplexmono-letter sheet2 front image-5
2
39 0
53 0
2
0 1 6 4
0 13 0 1
212790
end_operator
begin_operator
lime-simplexmono-letter sheet2 front image-6
2
39 0
53 0
2
0 1 6 4
0 13 0 1
212790
end_operator
begin_operator
lime-simplexmono-letter sheet3 back image-1
2
39 0
54 0
2
0 2 6 4
0 15 0 1
212790
end_operator
begin_operator
lime-simplexmono-letter sheet3 back image-2
2
39 0
54 0
2
0 2 6 4
0 15 0 1
212790
end_operator
begin_operator
lime-simplexmono-letter sheet3 back image-5
2
39 0
54 0
2
0 2 6 4
0 15 0 1
212790
end_operator
begin_operator
lime-simplexmono-letter sheet3 back image-6
2
39 0
54 0
2
0 2 6 4
0 15 0 1
212790
end_operator
begin_operator
lime-simplexmono-letter sheet3 front image-1
2
39 0
55 0
2
0 2 6 4
0 17 0 1
212790
end_operator
begin_operator
lime-simplexmono-letter sheet3 front image-2
2
39 0
55 0
2
0 2 6 4
0 17 0 1
212790
end_operator
begin_operator
lime-simplexmono-letter sheet3 front image-5
2
39 0
55 0
2
0 2 6 4
0 17 0 1
212790
end_operator
begin_operator
lime-simplexmono-letter sheet3 front image-6
2
39 0
55 0
2
0 2 6 4
0 17 0 1
212790
end_operator
begin_operator
lime-simplexmono-letter sheet4 back image-1
2
39 0
56 0
2
0 3 6 4
0 19 0 1
212790
end_operator
begin_operator
lime-simplexmono-letter sheet4 back image-2
2
39 0
56 0
2
0 3 6 4
0 19 0 1
212790
end_operator
begin_operator
lime-simplexmono-letter sheet4 back image-5
2
39 0
56 0
2
0 3 6 4
0 19 0 1
212790
end_operator
begin_operator
lime-simplexmono-letter sheet4 back image-6
2
39 0
56 0
2
0 3 6 4
0 19 0 1
212790
end_operator
begin_operator
lime-simplexmono-letter sheet4 front image-1
2
39 0
57 0
2
0 3 6 4
0 21 0 1
212790
end_operator
begin_operator
lime-simplexmono-letter sheet4 front image-2
2
39 0
57 0
2
0 3 6 4
0 21 0 1
212790
end_operator
begin_operator
lime-simplexmono-letter sheet4 front image-5
2
39 0
57 0
2
0 3 6 4
0 21 0 1
212790
end_operator
begin_operator
lime-simplexmono-letter sheet4 front image-6
2
39 0
57 0
2
0 3 6 4
0 21 0 1
212790
end_operator
begin_operator
lime-simplexmono-letter sheet5 back image-1
2
39 0
58 0
2
0 4 6 4
0 23 0 1
212790
end_operator
begin_operator
lime-simplexmono-letter sheet5 back image-2
2
39 0
58 0
2
0 4 6 4
0 23 0 1
212790
end_operator
begin_operator
lime-simplexmono-letter sheet5 back image-5
2
39 0
58 0
2
0 4 6 4
0 23 0 1
212790
end_operator
begin_operator
lime-simplexmono-letter sheet5 back image-6
2
39 0
58 0
2
0 4 6 4
0 23 0 1
212790
end_operator
begin_operator
lime-simplexmono-letter sheet5 front image-1
2
39 0
59 0
2
0 4 6 4
0 25 0 1
212790
end_operator
begin_operator
lime-simplexmono-letter sheet5 front image-2
2
39 0
59 0
2
0 4 6 4
0 25 0 1
212790
end_operator
begin_operator
lime-simplexmono-letter sheet5 front image-5
2
39 0
59 0
3
0 4 6 4
0 25 0 1
0 47 2 0
212790
end_operator
begin_operator
lime-simplexmono-letter sheet5 front image-6
2
39 0
59 0
2
0 4 6 4
0 25 0 1
212790
end_operator
begin_operator
lime-simplexmono-letter sheet6 back image-1
2
39 0
60 0
2
0 5 6 4
0 27 0 1
212790
end_operator
begin_operator
lime-simplexmono-letter sheet6 back image-2
2
39 0
60 0
2
0 5 6 4
0 27 0 1
212790
end_operator
begin_operator
lime-simplexmono-letter sheet6 back image-5
2
39 0
60 0
2
0 5 6 4
0 27 0 1
212790
end_operator
begin_operator
lime-simplexmono-letter sheet6 back image-6
2
39 0
60 0
2
0 5 6 4
0 27 0 1
212790
end_operator
begin_operator
lime-simplexmono-letter sheet6 front image-1
2
39 0
61 0
2
0 5 6 4
0 29 0 1
212790
end_operator
begin_operator
lime-simplexmono-letter sheet6 front image-2
2
39 0
61 0
2
0 5 6 4
0 29 0 1
212790
end_operator
begin_operator
lime-simplexmono-letter sheet6 front image-5
2
39 0
61 0
2
0 5 6 4
0 29 0 1
212790
end_operator
begin_operator
lime-simplexmono-letter sheet6 front image-6
2
39 0
61 0
3
0 5 6 4
0 29 0 1
0 48 2 0
212790
end_operator
begin_operator
lime-simplexmono-letter sheet7 back image-1
2
39 0
62 0
2
0 6 6 4
0 31 0 1
212790
end_operator
begin_operator
lime-simplexmono-letter sheet7 back image-2
2
39 0
62 0
2
0 6 6 4
0 31 0 1
212790
end_operator
begin_operator
lime-simplexmono-letter sheet7 back image-5
2
39 0
62 0
2
0 6 6 4
0 31 0 1
212790
end_operator
begin_operator
lime-simplexmono-letter sheet7 back image-6
2
39 0
62 0
2
0 6 6 4
0 31 0 1
212790
end_operator
begin_operator
lime-simplexmono-letter sheet7 front image-1
2
39 0
63 0
2
0 6 6 4
0 33 0 1
212790
end_operator
begin_operator
lime-simplexmono-letter sheet7 front image-2
2
39 0
63 0
2
0 6 6 4
0 33 0 1
212790
end_operator
begin_operator
lime-simplexmono-letter sheet7 front image-5
2
39 0
63 0
2
0 6 6 4
0 33 0 1
212790
end_operator
begin_operator
lime-simplexmono-letter sheet7 front image-6
2
39 0
63 0
2
0 6 6 4
0 33 0 1
212790
end_operator
begin_operator
sys-stack-letter sheet1 dummy-sheet
1
40 0
2
0 0 1 8
0 64 2 0
1499
end_operator
begin_operator
sys-stack-letter sheet2 sheet1
2
0 8
40 0
2
0 1 1 8
0 65 2 0
1499
end_operator
begin_operator
sys-stack-letter sheet3 sheet2
2
1 8
40 0
2
0 2 1 8
0 66 2 0
1499
end_operator
begin_operator
sys-stack-letter sheet4 sheet3
2
2 8
40 0
2
0 3 1 8
0 67 2 0
1499
end_operator
begin_operator
sys-stack-letter sheet5 sheet4
2
3 8
40 0
2
0 4 1 8
0 68 2 0
1499
end_operator
begin_operator
sys-stack-letter sheet6 sheet5
2
4 8
40 0
2
0 5 1 8
0 69 2 0
1499
end_operator
begin_operator
sys-stack-letter sheet7 sheet6
2
5 8
40 0
2
0 6 1 11
0 70 2 0
1499
end_operator
begin_operator
uc1-fromime-letter sheet1
1
41 0
1
0 0 11 2
2999
end_operator
begin_operator
uc1-fromime-letter sheet2
1
41 0
1
0 1 11 2
2999
end_operator
begin_operator
uc1-fromime-letter sheet3
1
41 0
1
0 2 11 2
2999
end_operator
begin_operator
uc1-fromime-letter sheet4
1
41 0
1
0 3 11 2
2999
end_operator
begin_operator
uc1-fromime-letter sheet5
1
41 0
1
0 4 11 2
2999
end_operator
begin_operator
uc1-fromime-letter sheet6
1
41 0
1
0 5 11 2
2999
end_operator
begin_operator
uc1-fromime-letter sheet7
1
41 0
1
0 6 10 2
2999
end_operator
begin_operator
uc1-invertfromime-letter sheet1 back front
1
41 0
3
0 0 11 2
0 50 0 1
0 51 2 0
8000
end_operator
begin_operator
uc1-invertfromime-letter sheet1 front back
1
41 0
3
0 0 11 2
0 50 2 0
0 51 0 1
8000
end_operator
begin_operator
uc1-invertfromime-letter sheet2 back front
1
41 0
3
0 1 11 2
0 52 0 1
0 53 2 0
8000
end_operator
begin_operator
uc1-invertfromime-letter sheet2 front back
1
41 0
3
0 1 11 2
0 52 2 0
0 53 0 1
8000
end_operator
begin_operator
uc1-invertfromime-letter sheet3 back front
1
41 0
3
0 2 11 2
0 54 0 1
0 55 2 0
8000
end_operator
begin_operator
uc1-invertfromime-letter sheet3 front back
1
41 0
3
0 2 11 2
0 54 2 0
0 55 0 1
8000
end_operator
begin_operator
uc1-invertfromime-letter sheet4 back front
1
41 0
3
0 3 11 2
0 56 0 1
0 57 2 0
8000
end_operator
begin_operator
uc1-invertfromime-letter sheet4 front back
1
41 0
3
0 3 11 2
0 56 2 0
0 57 0 1
8000
end_operator
begin_operator
uc1-invertfromime-letter sheet5 back front
1
41 0
3
0 4 11 2
0 58 0 1
0 59 2 0
8000
end_operator
begin_operator
uc1-invertfromime-letter sheet5 front back
1
41 0
3
0 4 11 2
0 58 2 0
0 59 0 1
8000
end_operator
begin_operator
uc1-invertfromime-letter sheet6 back front
1
41 0
3
0 5 11 2
0 60 0 1
0 61 2 0
8000
end_operator
begin_operator
uc1-invertfromime-letter sheet6 front back
1
41 0
3
0 5 11 2
0 60 2 0
0 61 0 1
8000
end_operator
begin_operator
uc1-invertfromime-letter sheet7 back front
1
41 0
3
0 6 10 2
0 62 0 1
0 63 2 0
8000
end_operator
begin_operator
uc1-invertfromime-letter sheet7 front back
1
41 0
3
0 6 10 2
0 62 2 0
0 63 0 1
8000
end_operator
begin_operator
uc1-inverttoime-letter sheet1 back front
1
41 0
3
0 0 9 10
0 50 0 1
0 51 2 0
8000
end_operator
begin_operator
uc1-inverttoime-letter sheet1 front back
1
41 0
3
0 0 9 10
0 50 2 0
0 51 0 1
8000
end_operator
begin_operator
uc1-inverttoime-letter sheet2 back front
1
41 0
3
0 1 9 10
0 52 0 1
0 53 2 0
8000
end_operator
begin_operator
uc1-inverttoime-letter sheet2 front back
1
41 0
3
0 1 9 10
0 52 2 0
0 53 0 1
8000
end_operator
begin_operator
uc1-inverttoime-letter sheet3 back front
1
41 0
3
0 2 9 10
0 54 0 1
0 55 2 0
8000
end_operator
begin_operator
uc1-inverttoime-letter sheet3 front back
1
41 0
3
0 2 9 10
0 54 2 0
0 55 0 1
8000
end_operator
begin_operator
uc1-inverttoime-letter sheet4 back front
1
41 0
3
0 3 9 10
0 56 0 1
0 57 2 0
8000
end_operator
begin_operator
uc1-inverttoime-letter sheet4 front back
1
41 0
3
0 3 9 10
0 56 2 0
0 57 0 1
8000
end_operator
begin_operator
uc1-inverttoime-letter sheet5 back front
1
41 0
3
0 4 9 10
0 58 0 1
0 59 2 0
8000
end_operator
begin_operator
uc1-inverttoime-letter sheet5 front back
1
41 0
3
0 4 9 10
0 58 2 0
0 59 0 1
8000
end_operator
begin_operator
uc1-inverttoime-letter sheet6 back front
1
41 0
3
0 5 9 10
0 60 0 1
0 61 2 0
8000
end_operator
begin_operator
uc1-inverttoime-letter sheet6 front back
1
41 0
3
0 5 9 10
0 60 2 0
0 61 0 1
8000
end_operator
begin_operator
uc1-inverttoime-letter sheet7 back front
1
41 0
3
0 6 8 9
0 62 0 1
0 63 2 0
8000
end_operator
begin_operator
uc1-inverttoime-letter sheet7 front back
1
41 0
3
0 6 8 9
0 62 2 0
0 63 0 1
8000
end_operator
begin_operator
uc1-toime-letter sheet1
1
41 0
1
0 0 9 10
2999
end_operator
begin_operator
uc1-toime-letter sheet2
1
41 0
1
0 1 9 10
2999
end_operator
begin_operator
uc1-toime-letter sheet3
1
41 0
1
0 2 9 10
2999
end_operator
begin_operator
uc1-toime-letter sheet4
1
41 0
1
0 3 9 10
2999
end_operator
begin_operator
uc1-toime-letter sheet5
1
41 0
1
0 4 9 10
2999
end_operator
begin_operator
uc1-toime-letter sheet6
1
41 0
1
0 5 9 10
2999
end_operator
begin_operator
uc1-toime-letter sheet7
1
41 0
1
0 6 8 9
2999
end_operator
begin_operator
uime-simplex-letter sheet1 back image-1
2
42 0
50 0
2
0 0 10 11
0 7 0 1
127790
end_operator
begin_operator
uime-simplex-letter sheet1 back image-2
2
42 0
50 0
2
0 0 10 11
0 7 0 1
127790
end_operator
begin_operator
uime-simplex-letter sheet1 back image-5
2
42 0
50 0
2
0 0 10 11
0 7 0 1
127790
end_operator
begin_operator
uime-simplex-letter sheet1 back image-6
2
42 0
50 0
2
0 0 10 11
0 7 0 1
127790
end_operator
begin_operator
uime-simplex-letter sheet1 front image-1
2
42 0
51 0
3
0 0 10 11
0 9 0 1
0 43 2 0
127790
end_operator
begin_operator
uime-simplex-letter sheet1 front image-2
2
42 0
51 0
2
0 0 10 11
0 9 0 1
127790
end_operator
begin_operator
uime-simplex-letter sheet1 front image-5
2
42 0
51 0
2
0 0 10 11
0 9 0 1
127790
end_operator
begin_operator
uime-simplex-letter sheet1 front image-6
2
42 0
51 0
2
0 0 10 11
0 9 0 1
127790
end_operator
begin_operator
uime-simplex-letter sheet2 back image-1
2
42 0
52 0
2
0 1 10 11
0 11 0 1
127790
end_operator
begin_operator
uime-simplex-letter sheet2 back image-2
2
42 0
52 0
2
0 1 10 11
0 11 0 1
127790
end_operator
begin_operator
uime-simplex-letter sheet2 back image-5
2
42 0
52 0
2
0 1 10 11
0 11 0 1
127790
end_operator
begin_operator
uime-simplex-letter sheet2 back image-6
2
42 0
52 0
2
0 1 10 11
0 11 0 1
127790
end_operator
begin_operator
uime-simplex-letter sheet2 front image-1
2
42 0
53 0
2
0 1 10 11
0 13 0 1
127790
end_operator
begin_operator
uime-simplex-letter sheet2 front image-2
2
42 0
53 0
3
0 1 10 11
0 13 0 1
0 44 2 0
127790
end_operator
begin_operator
uime-simplex-letter sheet2 front image-5
2
42 0
53 0
2
0 1 10 11
0 13 0 1
127790
end_operator
begin_operator
uime-simplex-letter sheet2 front image-6
2
42 0
53 0
2
0 1 10 11
0 13 0 1
127790
end_operator
begin_operator
uime-simplex-letter sheet3 back image-1
2
42 0
54 0
2
0 2 10 11
0 15 0 1
127790
end_operator
begin_operator
uime-simplex-letter sheet3 back image-2
2
42 0
54 0
2
0 2 10 11
0 15 0 1
127790
end_operator
begin_operator
uime-simplex-letter sheet3 back image-5
2
42 0
54 0
2
0 2 10 11
0 15 0 1
127790
end_operator
begin_operator
uime-simplex-letter sheet3 back image-6
2
42 0
54 0
2
0 2 10 11
0 15 0 1
127790
end_operator
begin_operator
uime-simplex-letter sheet3 front image-1
2
42 0
55 0
2
0 2 10 11
0 17 0 1
127790
end_operator
begin_operator
uime-simplex-letter sheet3 front image-2
2
42 0
55 0
2
0 2 10 11
0 17 0 1
127790
end_operator
begin_operator
uime-simplex-letter sheet3 front image-5
2
42 0
55 0
2
0 2 10 11
0 17 0 1
127790
end_operator
begin_operator
uime-simplex-letter sheet3 front image-6
2
42 0
55 0
2
0 2 10 11
0 17 0 1
127790
end_operator
begin_operator
uime-simplex-letter sheet4 back image-1
2
42 0
56 0
2
0 3 10 11
0 19 0 1
127790
end_operator
begin_operator
uime-simplex-letter sheet4 back image-2
2
42 0
56 0
2
0 3 10 11
0 19 0 1
127790
end_operator
begin_operator
uime-simplex-letter sheet4 back image-5
2
42 0
56 0
2
0 3 10 11
0 19 0 1
127790
end_operator
begin_operator
uime-simplex-letter sheet4 back image-6
2
42 0
56 0
2
0 3 10 11
0 19 0 1
127790
end_operator
begin_operator
uime-simplex-letter sheet4 front image-1
2
42 0
57 0
2
0 3 10 11
0 21 0 1
127790
end_operator
begin_operator
uime-simplex-letter sheet4 front image-2
2
42 0
57 0
2
0 3 10 11
0 21 0 1
127790
end_operator
begin_operator
uime-simplex-letter sheet4 front image-5
2
42 0
57 0
2
0 3 10 11
0 21 0 1
127790
end_operator
begin_operator
uime-simplex-letter sheet4 front image-6
2
42 0
57 0
2
0 3 10 11
0 21 0 1
127790
end_operator
begin_operator
uime-simplex-letter sheet5 back image-1
2
42 0
58 0
2
0 4 10 11
0 23 0 1
127790
end_operator
begin_operator
uime-simplex-letter sheet5 back image-2
2
42 0
58 0
2
0 4 10 11
0 23 0 1
127790
end_operator
begin_operator
uime-simplex-letter sheet5 back image-5
2
42 0
58 0
2
0 4 10 11
0 23 0 1
127790
end_operator
begin_operator
uime-simplex-letter sheet5 back image-6
2
42 0
58 0
2
0 4 10 11
0 23 0 1
127790
end_operator
begin_operator
uime-simplex-letter sheet5 front image-1
2
42 0
59 0
2
0 4 10 11
0 25 0 1
127790
end_operator
begin_operator
uime-simplex-letter sheet5 front image-2
2
42 0
59 0
2
0 4 10 11
0 25 0 1
127790
end_operator
begin_operator
uime-simplex-letter sheet5 front image-5
2
42 0
59 0
3
0 4 10 11
0 25 0 1
0 47 2 0
127790
end_operator
begin_operator
uime-simplex-letter sheet5 front image-6
2
42 0
59 0
2
0 4 10 11
0 25 0 1
127790
end_operator
begin_operator
uime-simplex-letter sheet6 back image-1
2
42 0
60 0
2
0 5 10 11
0 27 0 1
127790
end_operator
begin_operator
uime-simplex-letter sheet6 back image-2
2
42 0
60 0
2
0 5 10 11
0 27 0 1
127790
end_operator
begin_operator
uime-simplex-letter sheet6 back image-5
2
42 0
60 0
2
0 5 10 11
0 27 0 1
127790
end_operator
begin_operator
uime-simplex-letter sheet6 back image-6
2
42 0
60 0
2
0 5 10 11
0 27 0 1
127790
end_operator
begin_operator
uime-simplex-letter sheet6 front image-1
2
42 0
61 0
2
0 5 10 11
0 29 0 1
127790
end_operator
begin_operator
uime-simplex-letter sheet6 front image-2
2
42 0
61 0
2
0 5 10 11
0 29 0 1
127790
end_operator
begin_operator
uime-simplex-letter sheet6 front image-5
2
42 0
61 0
2
0 5 10 11
0 29 0 1
127790
end_operator
begin_operator
uime-simplex-letter sheet6 front image-6
2
42 0
61 0
3
0 5 10 11
0 29 0 1
0 48 2 0
127790
end_operator
begin_operator
uime-simplex-letter sheet7 back image-1
2
42 0
62 0
2
0 6 9 10
0 31 0 1
127790
end_operator
begin_operator
uime-simplex-letter sheet7 back image-2
2
42 0
62 0
2
0 6 9 10
0 31 0 1
127790
end_operator
begin_operator
uime-simplex-letter sheet7 back image-5
2
42 0
62 0
2
0 6 9 10
0 31 0 1
127790
end_operator
begin_operator
uime-simplex-letter sheet7 back image-6
2
42 0
62 0
2
0 6 9 10
0 31 0 1
127790
end_operator
begin_operator
uime-simplex-letter sheet7 front image-1
2
42 0
63 0
2
0 6 9 10
0 33 0 1
127790
end_operator
begin_operator
uime-simplex-letter sheet7 front image-2
2
42 0
63 0
2
0 6 9 10
0 33 0 1
127790
end_operator
begin_operator
uime-simplex-letter sheet7 front image-5
2
42 0
63 0
2
0 6 9 10
0 33 0 1
127790
end_operator
begin_operator
uime-simplex-letter sheet7 front image-6
2
42 0
63 0
2
0 6 9 10
0 33 0 1
127790
end_operator
begin_operator
tnf-forget-0-0
0
1
0 0 0 12
0
end_operator
begin_operator
tnf-forget-0-1
0
1
0 0 1 12
0
end_operator
begin_operator
tnf-forget-0-2
0
1
0 0 2 12
0
end_operator
begin_operator
tnf-forget-0-3
0
1
0 0 3 12
0
end_operator
begin_operator
tnf-forget-0-4
0
1
0 0 4 12
0
end_operator
begin_operator
tnf-forget-0-5
0
1
0 0 5 12
0
end_operator
begin_operator
tnf-forget-0-6
0
1
0 0 6 12
0
end_operator
begin_operator
tnf-forget-0-7
0
1
0 0 7 12
0
end_operator
begin_operator
tnf-forget-0-8
0
1
0 0 8 12
0
end_operator
begin_operator
tnf-forget-0-9
0
1
0 0 9 12
0
end_operator
begin_operator
tnf-forget-0-10
0
1
0 0 10 12
0
end_operator
begin_operator
tnf-forget-0-11
0
1
0 0 11 12
0
end_operator
begin_operator
tnf-forget-1-0
0
1
0 1 0 12
0
end_operator
begin_operator
tnf-forget-1-1
0
1
0 1 1 12
0
end_operator
begin_operator
tnf-forget-1-2
0
1
0 1 2 12
0
end_operator
begin_operator
tnf-forget-1-3
0
1
0 1 3 12
0
end_operator
begin_operator
tnf-forget-1-4
0
1
0 1 4 12
0
end_operator
begin_operator
tnf-forget-1-5
0
1
0 1 5 12
0
end_operator
begin_operator
tnf-forget-1-6
0
1
0 1 6 12
0
end_operator
begin_operator
tnf-forget-1-7
0
1
0 1 7 12
0
end_operator
begin_operator
tnf-forget-1-8
0
1
0 1 8 12
0
end_operator
begin_operator
tnf-forget-1-9
0
1
0 1 9 12
0
end_operator
begin_operator
tnf-forget-1-10
0
1
0 1 10 12
0
end_operator
begin_operator
tnf-forget-1-11
0
1
0 1 11 12
0
end_operator
begin_operator
tnf-forget-2-0
0
1
0 2 0 12
0
end_operator
begin_operator
tnf-forget-2-1
0
1
0 2 1 12
0
end_operator
begin_operator
tnf-forget-2-2
0
1
0 2 2 12
0
end_operator
begin_operator
tnf-forget-2-3
0
1
0 2 3 12
0
end_operator
begin_operator
tnf-forget-2-4
0
1
0 2 4 12
0
end_operator
begin_operator
tnf-forget-2-5
0
1
0 2 5 12
0
end_operator
begin_operator
tnf-forget-2-6
0
1
0 2 6 12
0
end_operator
begin_operator
tnf-forget-2-7
0
1
0 2 7 12
0
end_operator
begin_operator
tnf-forget-2-8
0
1
0 2 8 12
0
end_operator
begin_operator
tnf-forget-2-9
0
1
0 2 9 12
0
end_operator
begin_operator
tnf-forget-2-10
0
1
0 2 10 12
0
end_operator
begin_operator
tnf-forget-2-11
0
1
0 2 11 12
0
end_operator
begin_operator
tnf-forget-3-0
0
1
0 3 0 12
0
end_operator
begin_operator
tnf-forget-3-1
0
1
0 3 1 12
0
end_operator
begin_operator
tnf-forget-3-2
0
1
0 3 2 12
0
end_operator
begin_operator
tnf-forget-3-3
0
1
0 3 3 12
0
end_operator
begin_operator
tnf-forget-3-4
0
1
0 3 4 12
0
end_operator
begin_operator
tnf-forget-3-5
0
1
0 3 5 12
0
end_operator
begin_operator
tnf-forget-3-6
0
1
0 3 6 12
0
end_operator
begin_operator
tnf-forget-3-7
0
1
0 3 7 12
0
end_operator
begin_operator
tnf-forget-3-8
0
1
0 3 8 12
0
end_operator
begin_operator
tnf-forget-3-9
0
1
0 3 9 12
0
end_operator
begin_operator
tnf-forget-3-10
0
1
0 3 10 12
0
end_operator
begin_operator
tnf-forget-3-11
0
1
0 3 11 12
0
end_operator
begin_operator
tnf-forget-4-0
0
1
0 4 0 12
0
end_operator
begin_operator
tnf-forget-4-1
0
1
0 4 1 12
0
end_operator
begin_operator
tnf-forget-4-2
0
1
0 4 2 12
0
end_operator
begin_operator
tnf-forget-4-3
0
1
0 4 3 12
0
end_operator
begin_operator
tnf-forget-4-4
0
1
0 4 4 12
0
end_operator
begin_operator
tnf-forget-4-5
0
1
0 4 5 12
0
end_operator
begin_operator
tnf-forget-4-6
0
1
0 4 6 12
0
end_operator
begin_operator
tnf-forget-4-7
0
1
0 4 7 12
0
end_operator
begin_operator
tnf-forget-4-8
0
1
0 4 8 12
0
end_operator
begin_operator
tnf-forget-4-9
0
1
0 4 9 12
0
end_operator
begin_operator
tnf-forget-4-10
0
1
0 4 10 12
0
end_operator
begin_operator
tnf-forget-4-11
0
1
0 4 11 12
0
end_operator
begin_operator
tnf-forget-5-0
0
1
0 5 0 12
0
end_operator
begin_operator
tnf-forget-5-1
0
1
0 5 1 12
0
end_operator
begin_operator
tnf-forget-5-2
0
1
0 5 2 12
0
end_operator
begin_operator
tnf-forget-5-3
0
1
0 5 3 12
0
end_operator
begin_operator
tnf-forget-5-4
0
1
0 5 4 12
0
end_operator
begin_operator
tnf-forget-5-5
0
1
0 5 5 12
0
end_operator
begin_operator
tnf-forget-5-6
0
1
0 5 6 12
0
end_operator
begin_operator
tnf-forget-5-7
0
1
0 5 7 12
0
end_operator
begin_operator
tnf-forget-5-8
0
1
0 5 8 12
0
end_operator
begin_operator
tnf-forget-5-9
0
1
0 5 9 12
0
end_operator
begin_operator
tnf-forget-5-10
0
1
0 5 10 12
0
end_operator
begin_operator
tnf-forget-5-11
0
1
0 5 11 12
0
end_operator
begin_operator
tnf-forget-6-0
0
1
0 6 0 12
0
end_operator
begin_operator
tnf-forget-6-1
0
1
0 6 1 12
0
end_operator
begin_operator
tnf-forget-6-2
0
1
0 6 2 12
0
end_operator
begin_operator
tnf-forget-6-3
0
1
0 6 3 12
0
end_operator
begin_operator
tnf-forget-6-4
0
1
0 6 4 12
0
end_operator
begin_operator
tnf-forget-6-5
0
1
0 6 5 12
0
end_operator
begin_operator
tnf-forget-6-6
0
1
0 6 6 12
0
end_operator
begin_operator
tnf-forget-6-7
0
1
0 6 7 12
0
end_operator
begin_operator
tnf-forget-6-8
0
1
0 6 8 12
0
end_operator
begin_operator
tnf-forget-6-9
0
1
0 6 9 12
0
end_operator
begin_operator
tnf-forget-6-10
0
1
0 6 10 12
0
end_operator
begin_operator
tnf-forget-6-11
0
1
0 6 11 12
0
end_operator
begin_operator
tnf-forget-9-0
0
1
0 9 0 2
0
end_operator
begin_operator
tnf-forget-9-1
0
1
0 9 1 2
0
end_operator
begin_operator
tnf-forget-13-0
0
1
0 13 0 2
0
end_operator
begin_operator
tnf-forget-13-1
0
1
0 13 1 2
0
end_operator
begin_operator
tnf-forget-18-0
0
1
0 18 0 2
0
end_operator
begin_operator
tnf-forget-18-1
0
1
0 18 1 2
0
end_operator
begin_operator
tnf-forget-22-0
0
1
0 22 0 2
0
end_operator
begin_operator
tnf-forget-22-1
0
1
0 22 1 2
0
end_operator
begin_operator
tnf-forget-25-0
0
1
0 25 0 2
0
end_operator
begin_operator
tnf-forget-25-1
0
1
0 25 1 2
0
end_operator
begin_operator
tnf-forget-29-0
0
1
0 29 0 2
0
end_operator
begin_operator
tnf-forget-29-1
0
1
0 29 1 2
0
end_operator
begin_operator
tnf-forget-34-0
0
1
0 34 0 2
0
end_operator
begin_operator
tnf-forget-34-1
0
1
0 34 1 2
0
end_operator
begin_operator
tnf-forget-35-0
0
1
0 35 0 2
0
end_operator
begin_operator
tnf-forget-35-1
0
1
0 35 1 2
0
end_operator
begin_operator
tnf-forget-36-0
0
1
0 36 0 2
0
end_operator
begin_operator
tnf-forget-36-1
0
1
0 36 1 2
0
end_operator
begin_operator
tnf-forget-37-0
0
1
0 37 0 2
0
end_operator
begin_operator
tnf-forget-37-1
0
1
0 37 1 2
0
end_operator
begin_operator
tnf-forget-38-0
0
1
0 38 0 2
0
end_operator
begin_operator
tnf-forget-38-1
0
1
0 38 1 2
0
end_operator
begin_operator
tnf-forget-39-0
0
1
0 39 0 2
0
end_operator
begin_operator
tnf-forget-39-1
0
1
0 39 1 2
0
end_operator
begin_operator
tnf-forget-40-0
0
1
0 40 0 2
0
end_operator
begin_operator
tnf-forget-40-1
0
1
0 40 1 2
0
end_operator
begin_operator
tnf-forget-41-0
0
1
0 41 0 2
0
end_operator
begin_operator
tnf-forget-41-1
0
1
0 41 1 2
0
end_operator
begin_operator
tnf-forget-42-0
0
1
0 42 0 2
0
end_operator
begin_operator
tnf-forget-42-1
0
1
0 42 1 2
0
end_operator
begin_operator
tnf-forget-43-0
0
1
0 43 0 2
0
end_operator
begin_operator
tnf-forget-43-1
0
1
0 43 1 2
0
end_operator
begin_operator
tnf-forget-44-0
0
1
0 44 0 2
0
end_operator
begin_operator
tnf-forget-44-1
0
1
0 44 1 2
0
end_operator
begin_operator
tnf-forget-45-0
0
1
0 45 0 2
0
end_operator
begin_operator
tnf-forget-45-1
0
1
0 45 1 2
0
end_operator
begin_operator
tnf-forget-46-0
0
1
0 46 0 2
0
end_operator
begin_operator
tnf-forget-46-1
0
1
0 46 1 2
0
end_operator
begin_operator
tnf-forget-47-0
0
1
0 47 0 2
0
end_operator
begin_operator
tnf-forget-47-1
0
1
0 47 1 2
0
end_operator
begin_operator
tnf-forget-48-0
0
1
0 48 0 2
0
end_operator
begin_operator
tnf-forget-48-1
0
1
0 48 1 2
0
end_operator
begin_operator
tnf-forget-49-0
0
1
0 49 0 2
0
end_operator
begin_operator
tnf-forget-49-1
0
1
0 49 1 2
0
end_operator
begin_operator
tnf-forget-50-0
0
1
0 50 0 2
0
end_operator
begin_operator
tnf-forget-50-1
0
1
0 50 1 2
0
end_operator
begin_operator
tnf-forget-51-0
0
1
0 51 0 2
0
end_operator
begin_operator
tnf-forget-51-1
0
1
0 51 1 2
0
end_operator
begin_operator
tnf-forget-52-0
0
1
0 52 0 2
0
end_operator
begin_operator
tnf-forget-52-1
0
1
0 52 1 2
0
end_operator
begin_operator
tnf-forget-53-0
0
1
0 53 0 2
0
end_operator
begin_operator
tnf-forget-53-1
0
1
0 53 1 2
0
end_operator
begin_operator
tnf-forget-54-0
0
1
0 54 0 2
0
end_operator
begin_operator
tnf-forget-54-1
0
1
0 54 1 2
0
end_operator
begin_operator
tnf-forget-55-0
0
1
0 55 0 2
0
end_operator
begin_operator
tnf-forget-55-1
0
1
0 55 1 2
0
end_operator
begin_operator
tnf-forget-56-0
0
1
0 56 0 2
0
end_operator
begin_operator
tnf-forget-56-1
0
1
0 56 1 2
0
end_operator
begin_operator
tnf-forget-57-0
0
1
0 57 0 2
0
end_operator
begin_operator
tnf-forget-57-1
0
1
0 57 1 2
0
end_operator
begin_operator
tnf-forget-58-0
0
1
0 58 0 2
0
end_operator
begin_operator
tnf-forget-58-1
0
1
0 58 1 2
0
end_operator
begin_operator
tnf-forget-59-0
0
1
0 59 0 2
0
end_operator
begin_operator
tnf-forget-59-1
0
1
0 59 1 2
0
end_operator
begin_operator
tnf-forget-60-0
0
1
0 60 0 2
0
end_operator
begin_operator
tnf-forget-60-1
0
1
0 60 1 2
0
end_operator
begin_operator
tnf-forget-61-0
0
1
0 61 0 2
0
end_operator
begin_operator
tnf-forget-61-1
0
1
0 61 1 2
0
end_operator
begin_operator
tnf-forget-62-0
0
1
0 62 0 2
0
end_operator
begin_operator
tnf-forget-62-1
0
1
0 62 1 2
0
end_operator
begin_operator
tnf-forget-63-0
0
1
0 63 0 2
0
end_operator
begin_operator
tnf-forget-63-1
0
1
0 63 1 2
0
end_operator
begin_operator
tnf-forget-64-0
0
1
0 64 0 2
0
end_operator
begin_operator
tnf-forget-64-1
0
1
0 64 1 2
0
end_operator
begin_operator
tnf-forget-65-0
0
1
0 65 0 2
0
end_operator
begin_operator
tnf-forget-65-1
0
1
0 65 1 2
0
end_operator
begin_operator
tnf-forget-66-0
0
1
0 66 0 2
0
end_operator
begin_operator
tnf-forget-66-1
0
1
0 66 1 2
0
end_operator
begin_operator
tnf-forget-67-0
0
1
0 67 0 2
0
end_operator
begin_operator
tnf-forget-67-1
0
1
0 67 1 2
0
end_operator
begin_operator
tnf-forget-68-0
0
1
0 68 0 2
0
end_operator
begin_operator
tnf-forget-68-1
0
1
0 68 1 2
0
end_operator
begin_operator
tnf-forget-69-0
0
1
0 69 0 2
0
end_operator
begin_operator
tnf-forget-69-1
0
1
0 69 1 2
0
end_operator
begin_operator
tnf-forget-70-0
0
1
0 70 0 2
0
end_operator
begin_operator
tnf-forget-70-1
0
1
0 70 1 2
0
end_operator
0
