Monotonicity invariants:
< {clear C0:location}
, {at V0:thing C1:location}
, {clear V0:location, at C1:thing V0:location}
>
FD Mutex Groups:
< {at V0:thing C1:location}:=1
, {clear V0:location, at C1:thing V0:location}:=1
>
