Reduced 58 -> 48
Domain: freecell
Problem: freecell-9-5
Require: ff
Type[1]:
    [0]: object, parent: -1
Obj-by-Type:
    [0]: 0 1 2 3 4 5 6 7 8 9 10 11 12 13 14 15 16 17 18 19 20 21 22 23 24 25 26 27 28 29 30 31 32 33 34 35 36 37 38 39 40 41 42 43 44 45 46 47
Obj[48]:
    [0]: s9, type: 0, is-constant: 0, is-private: 0, owner: -1, is-agent: 0
    [1]: h9, type: 0, is-constant: 0, is-private: 0, owner: -1, is-agent: 0
    [2]: d9, type: 0, is-constant: 0, is-private: 0, owner: -1, is-agent: 0
    [3]: s8, type: 0, is-constant: 0, is-private: 0, owner: -1, is-agent: 0
    [4]: h8, type: 0, is-constant: 0, is-private: 0, owner: -1, is-agent: 0
    [5]: d8, type: 0, is-constant: 0, is-private: 0, owner: -1, is-agent: 0
    [6]: c8, type: 0, is-constant: 0, is-private: 0, owner: -1, is-agent: 0
    [7]: s7, type: 0, is-constant: 0, is-private: 0, owner: -1, is-agent: 0
    [8]: h7, type: 0, is-constant: 0, is-private: 0, owner: -1, is-agent: 0
    [9]: d7, type: 0, is-constant: 0, is-private: 0, owner: -1, is-agent: 0
    [10]: c7, type: 0, is-constant: 0, is-private: 0, owner: -1, is-agent: 0
    [11]: s6, type: 0, is-constant: 0, is-private: 0, owner: -1, is-agent: 0
    [12]: h6, type: 0, is-constant: 0, is-private: 0, owner: -1, is-agent: 0
    [13]: d6, type: 0, is-constant: 0, is-private: 0, owner: -1, is-agent: 0
    [14]: c6, type: 0, is-constant: 0, is-private: 0, owner: -1, is-agent: 0
    [15]: s5, type: 0, is-constant: 0, is-private: 0, owner: -1, is-agent: 0
    [16]: h5, type: 0, is-constant: 0, is-private: 0, owner: -1, is-agent: 0
    [17]: d5, type: 0, is-constant: 0, is-private: 0, owner: -1, is-agent: 0
    [18]: c5, type: 0, is-constant: 0, is-private: 0, owner: -1, is-agent: 0
    [19]: s4, type: 0, is-constant: 0, is-private: 0, owner: -1, is-agent: 0
    [20]: h4, type: 0, is-constant: 0, is-private: 0, owner: -1, is-agent: 0
    [21]: d4, type: 0, is-constant: 0, is-private: 0, owner: -1, is-agent: 0
    [22]: c4, type: 0, is-constant: 0, is-private: 0, owner: -1, is-agent: 0
    [23]: s3, type: 0, is-constant: 0, is-private: 0, owner: -1, is-agent: 0
    [24]: h3, type: 0, is-constant: 0, is-private: 0, owner: -1, is-agent: 0
    [25]: d3, type: 0, is-constant: 0, is-private: 0, owner: -1, is-agent: 0
    [26]: c3, type: 0, is-constant: 0, is-private: 0, owner: -1, is-agent: 0
    [27]: s, type: 0, is-constant: 0, is-private: 0, owner: -1, is-agent: 0
    [28]: h, type: 0, is-constant: 0, is-private: 0, owner: -1, is-agent: 0
    [29]: d, type: 0, is-constant: 0, is-private: 0, owner: -1, is-agent: 0
    [30]: c, type: 0, is-constant: 0, is-private: 0, owner: -1, is-agent: 0
    [31]: n8, type: 0, is-constant: 0, is-private: 0, owner: -1, is-agent: 0
    [32]: n7, type: 0, is-constant: 0, is-private: 0, owner: -1, is-agent: 0
    [33]: n6, type: 0, is-constant: 0, is-private: 0, owner: -1, is-agent: 0
    [34]: n5, type: 0, is-constant: 0, is-private: 0, owner: -1, is-agent: 0
    [35]: n4, type: 0, is-constant: 0, is-private: 0, owner: -1, is-agent: 0
    [36]: n3, type: 0, is-constant: 0, is-private: 0, owner: -1, is-agent: 0
    [37]: sa, type: 0, is-constant: 0, is-private: 0, owner: -1, is-agent: 0
    [38]: s2, type: 0, is-constant: 0, is-private: 0, owner: -1, is-agent: 0
    [39]: s0, type: 0, is-constant: 0, is-private: 0, owner: -1, is-agent: 0
    [40]: ha, type: 0, is-constant: 0, is-private: 0, owner: -1, is-agent: 0
    [41]: h2, type: 0, is-constant: 0, is-private: 0, owner: -1, is-agent: 0
    [42]: da, type: 0, is-constant: 0, is-private: 0, owner: -1, is-agent: 0
    [43]: d2, type: 0, is-constant: 0, is-private: 0, owner: -1, is-agent: 0
    [44]: n1, type: 0, is-constant: 0, is-private: 0, owner: -1, is-agent: 0
    [45]: ca, type: 0, is-constant: 0, is-private: 0, owner: -1, is-agent: 0
    [46]: n2, type: 0, is-constant: 0, is-private: 0, owner: -1, is-agent: 0
    [47]: c2, type: 0, is-constant: 0, is-private: 0, owner: -1, is-agent: 0
Predicate[12]:
    =: 0 0 :: is-private: 0, owner-param: -1, read: 0, write: 0
    on: 0 0 :: is-private: 0, owner-param: -1, read: 1, write: 1
    incell: 0 :: is-private: 0, owner-param: -1, read: 1, write: 1
    clear: 0 :: is-private: 0, owner-param: -1, read: 1, write: 1
    cellspace: 0 :: is-private: 0, owner-param: -1, read: 1, write: 1
    colspace: 0 :: is-private: 0, owner-param: -1, read: 1, write: 1
    home: 0 :: is-private: 0, owner-param: -1, read: 1, write: 1
    bottomcol: 0 :: is-private: 0, owner-param: -1, read: 1, write: 1
    canstack: 0 0 :: is-private: 0, owner-param: -1, read: 1, write: 0
    suit: 0 0 :: is-private: 0, owner-param: -1, read: 1, write: 0
    value: 0 0 :: is-private: 0, owner-param: -1, read: 1, write: 0
    successor: 0 0 :: is-private: 0, owner-param: -1, read: 1, write: 0
Function[0]:
Action[10]:
    move: ?card:0 ?oldcard:0 ?newcard:0
        pre: (and (RW:clear ?card) (RW:clear ?newcard) (R:canstack ?card ?newcard) (RW:on ?card ?oldcard))
        eff: (and (RW:on ?card ?newcard) (RW:clear ?oldcard))
    move-b: ?card:0 ?newcard:0 ?cols:0 ?ncols:0
        pre: (and (RW:clear ?card) (RW:bottomcol ?card) (RW:clear ?newcard) (R:canstack ?card ?newcard) (RW:colspace ?cols) (R:successor ?ncols ?cols))
        eff: (and (RW:on ?card ?newcard) (RW:colspace ?ncols))
    sendtofree: ?card:0 ?oldcard:0 ?cells:0 ?ncells:0
        pre: (and (RW:clear ?card) (RW:on ?card ?oldcard) (RW:cellspace ?cells) (R:successor ?cells ?ncells))
        eff: (and (RW:incell ?card) (RW:clear ?oldcard) (RW:cellspace ?ncells))
    sendtofree-b: ?card:0 ?cells:0 ?ncells:0 ?cols:0 ?ncols:0
        pre: (and (RW:clear ?card) (RW:bottomcol ?card) (RW:cellspace ?cells) (R:successor ?cells ?ncells) (RW:colspace ?cols) (R:successor ?ncols ?cols))
        eff: (and (RW:incell ?card) (RW:colspace ?ncols) (RW:cellspace ?ncells))
    sendtonewcol: ?card:0 ?oldcard:0 ?cols:0 ?ncols:0
        pre: (and (RW:clear ?card) (RW:colspace ?cols) (R:successor ?cols ?ncols) (RW:on ?card ?oldcard))
        eff: (and (RW:bottomcol ?card) (RW:clear ?oldcard) (RW:colspace ?ncols))
    sendtohome: ?card:0 ?oldcard:0 ?suit:0 ?vcard:0 ?homecard:0 ?vhomecard:0
        pre: (and (RW:clear ?card) (RW:on ?card ?oldcard) (RW:home ?homecard) (R:suit ?card ?suit) (R:suit ?homecard ?suit) (R:value ?card ?vcard) (R:value ?homecard ?vhomecard) (R:successor ?vcard ?vhomecard))
        eff: (and (RW:home ?card) (RW:clear ?oldcard))
    sendtohome-b: ?card:0 ?suit:0 ?vcard:0 ?homecard:0 ?vhomecard:0 ?cols:0 ?ncols:0
        pre: (and (RW:clear ?card) (RW:bottomcol ?card) (RW:home ?homecard) (R:suit ?card ?suit) (R:suit ?homecard ?suit) (R:value ?card ?vcard) (R:value ?homecard ?vhomecard) (R:successor ?vcard ?vhomecard) (RW:colspace ?cols) (R:successor ?ncols ?cols))
        eff: (and (RW:home ?card) (RW:colspace ?ncols))
    homefromfreecell: ?card:0 ?suit:0 ?vcard:0 ?homecard:0 ?vhomecard:0 ?cells:0 ?ncells:0
        pre: (and (RW:incell ?card) (RW:home ?homecard) (R:suit ?card ?suit) (R:suit ?homecard ?suit) (R:value ?card ?vcard) (R:value ?homecard ?vhomecard) (R:successor ?vcard ?vhomecard) (RW:cellspace ?cells) (R:successor ?ncells ?cells))
        eff: (and (RW:home ?card) (RW:cellspace ?ncells))
    colfromfreecell: ?card:0 ?newcard:0 ?cells:0 ?ncells:0
        pre: (and (RW:incell ?card) (RW:clear ?newcard) (R:canstack ?card ?newcard) (RW:cellspace ?cells) (R:successor ?ncells ?cells))
        eff: (and (RW:cellspace ?ncells) (RW:clear ?card) (RW:on ?card ?newcard))
    newcolfromfreecell: ?card:0 ?cols:0 ?ncols:0 ?cells:0 ?ncells:0
        pre: (and (RW:incell ?card) (RW:colspace ?cols) (RW:cellspace ?cells) (R:successor ?cols ?ncols) (R:successor ?ncells ?cells))
        eff: (and (RW:bottomcol ?card) (RW:clear ?card) (RW:colspace ?ncols) (RW:cellspace ?ncells))
Init[207]:
  S:(value s0 s0)
  S:(value c2 n2)
  S:(value c3 n3)
  S:(value c4 n4)
  S:(value c5 n5)
  S:(value c6 n6)
  S:(value c7 n7)
  S:(value c8 n8)
  S:(value s9 s9)
  S:(value ca n1)
  S:(value s0 s0)
  S:(value d2 n2)
  S:(value d3 n3)
  S:(value d4 n4)
  S:(value d5 n5)
  S:(value d6 n6)
  S:(value d7 n7)
  S:(value d8 n8)
  S:(value d9 s9)
  S:(value da n1)
  S:(value s0 s0)
  S:(value h2 n2)
  S:(value h3 n3)
  S:(value h4 n4)
  S:(value h5 n5)
  S:(value h6 n6)
  S:(value h7 n7)
  S:(value h8 n8)
  S:(value h9 s9)
  S:(value ha n1)
  S:(value s0 s0)
  S:(value s2 n2)
  S:(value s3 n3)
  S:(value s4 n4)
  S:(value s5 n5)
  S:(value s6 n6)
  S:(value s7 n7)
  S:(value s8 n8)
  S:(value s9 s9)
  S:(value sa n1)
  S:(successor n1 s0)
  S:(successor s9 s9)
  S:(successor s9 s9)
  S:(successor s9 s9)
  S:(successor s9 s9)
  S:(successor n2 n1)
  S:(successor n3 n2)
  S:(successor n4 n3)
  S:(successor n5 n4)
  S:(successor n6 n5)
  S:(successor n7 n6)
  S:(successor n8 n7)
  S:(successor s9 n8)
  S:(suit s0 c)
  S:(suit c2 c)
  S:(suit c3 c)
  S:(suit c4 c)
  S:(suit c5 c)
  S:(suit c6 c)
  S:(suit c7 c)
  S:(suit c8 c)
  S:(suit s9 c)
  S:(suit ca c)
  S:(suit s0 d)
  S:(suit d2 d)
  S:(suit d3 d)
  S:(suit d4 d)
  S:(suit d5 d)
  S:(suit d6 d)
  S:(suit d7 d)
  S:(suit d8 d)
  S:(suit d9 d)
  S:(suit da d)
  S:(suit s0 h)
  S:(suit h2 h)
  S:(suit h3 h)
  S:(suit h4 h)
  S:(suit h5 h)
  S:(suit h6 h)
  S:(suit h7 h)
  S:(suit h8 h)
  S:(suit h9 h)
  S:(suit ha h)
  S:(suit s0 s)
  S:(suit s2 s)
  S:(suit s3 s)
  S:(suit s4 s)
  S:(suit s5 s)
  S:(suit s6 s)
  S:(suit s7 s)
  S:(suit s8 s)
  S:(suit s9 s)
  S:(suit sa s)
  S:(canstack c2 d3)
  S:(canstack c2 h3)
  S:(canstack c3 d4)
  S:(canstack c3 h4)
  S:(canstack c4 d5)
  S:(canstack c4 h5)
  S:(canstack c5 d6)
  S:(canstack c5 h6)
  S:(canstack c6 d7)
  S:(canstack c6 h7)
  S:(canstack c7 d8)
  S:(canstack c7 h8)
  S:(canstack c8 d9)
  S:(canstack c8 h9)
  S:(canstack ca d2)
  S:(canstack ca h2)
  S:(canstack d2 c3)
  S:(canstack d2 s3)
  S:(canstack d3 c4)
  S:(canstack d3 s4)
  S:(canstack d4 c5)
  S:(canstack d4 s5)
  S:(canstack d5 c6)
  S:(canstack d5 s6)
  S:(canstack d6 c7)
  S:(canstack d6 s7)
  S:(canstack d7 c8)
  S:(canstack d7 s8)
  S:(canstack d8 s9)
  S:(canstack d8 s9)
  S:(canstack da c2)
  S:(canstack da s2)
  S:(canstack h2 c3)
  S:(canstack h2 s3)
  S:(canstack h3 c4)
  S:(canstack h3 s4)
  S:(canstack h4 c5)
  S:(canstack h4 s5)
  S:(canstack h5 c6)
  S:(canstack h5 s6)
  S:(canstack h6 c7)
  S:(canstack h6 s7)
  S:(canstack h7 c8)
  S:(canstack h7 s8)
  S:(canstack h8 s9)
  S:(canstack h8 s9)
  S:(canstack ha c2)
  S:(canstack ha s2)
  S:(canstack s2 d3)
  S:(canstack s2 h3)
  S:(canstack s3 d4)
  S:(canstack s3 h4)
  S:(canstack s4 d5)
  S:(canstack s4 h5)
  S:(canstack s5 d6)
  S:(canstack s5 h6)
  S:(canstack s6 d7)
  S:(canstack s6 h7)
  S:(canstack s7 d8)
  S:(canstack s7 h8)
  S:(canstack s8 d9)
  S:(canstack s8 h9)
  S:(canstack sa d2)
  S:(canstack sa h2)
  (home s0)
  (home s0)
  (home s0)
  (home s0)
  (cellspace n4)
  (colspace s0)
  (on c2 h9)
  (on c3 s2)
  (on c5 ha)
  (on c6 h5)
  (on c7 c8)
  (on c8 s9)
  (on s9 d2)
  (on ca d7)
  (on d4 c4)
  (on d5 sa)
  (on d6 d9)
  (on d7 d8)
  (on d8 s4)
  (on d9 h7)
  (on da s7)
  (on h2 s5)
  (on h4 s6)
  (on h5 c2)
  (on h6 h8)
  (on h7 h3)
  (on h8 d4)
  (on s3 c5)
  (on s4 d3)
  (on s5 s3)
  (on s6 c3)
  (on s7 d5)
  (on s9 h2)
  (on sa s8)
  (clear c6)
  (clear c7)
  (clear ca)
  (clear d6)
  (clear da)
  (clear h4)
  (clear h6)
  (clear s9)
  (bottomcol c4)
  (bottomcol d2)
  (bottomcol d3)
  (bottomcol h3)
  (bottomcol h9)
  (bottomcol ha)
  (bottomcol s2)
  (bottomcol s8)
Init[0]:
Goal: (and (RW:home s9) (RW:home d9) (RW:home h9) (RW:home s9))
Metric: 0
