Symmetric facts:
 (free pos-0-2) (free pos-0-4) (free pos-3-0) (free pos-3-5) (free pos-3-6) (free pos-4-2) (free pos-4-4) (free pos-5-2) (free pos-5-4) (free pos-6-2) (free pos-6-4)
 (free pos-2-4) (free pos-3-4)
 (free pos-3-1) (occupied pos-3-3)
 (free pos-3-3) (occupied pos-3-1)
 (occupied pos-2-4) (occupied pos-3-4)
Symmetric ops:
