Mutex pairs: 290
Unreachable ops [40/326]:
  (pour-shaker-to-shot ingredient1 shot1 left shaker1 l1 l0)
  (pour-shaker-to-shot ingredient1 shot1 left shaker1 l2 l1)
  (pour-shaker-to-shot ingredient1 shot1 right shaker1 l1 l0)
  (pour-shaker-to-shot ingredient1 shot1 right shaker1 l2 l1)
  (pour-shaker-to-shot ingredient1 shot2 left shaker1 l1 l0)
  (pour-shaker-to-shot ingredient1 shot2 left shaker1 l2 l1)
  (pour-shaker-to-shot ingredient1 shot2 right shaker1 l1 l0)
  (pour-shaker-to-shot ingredient1 shot2 right shaker1 l2 l1)
  (pour-shaker-to-shot ingredient1 shot3 left shaker1 l1 l0)
  (pour-shaker-to-shot ingredient1 shot3 left shaker1 l2 l1)
  (pour-shaker-to-shot ingredient1 shot3 right shaker1 l1 l0)
  (pour-shaker-to-shot ingredient1 shot3 right shaker1 l2 l1)
  (pour-shaker-to-shot ingredient1 shot4 left shaker1 l1 l0)
  (pour-shaker-to-shot ingredient1 shot4 left shaker1 l2 l1)
  (pour-shaker-to-shot ingredient1 shot4 right shaker1 l1 l0)
  (pour-shaker-to-shot ingredient1 shot4 right shaker1 l2 l1)
  (pour-shaker-to-shot ingredient1 shot5 left shaker1 l1 l0)
  (pour-shaker-to-shot ingredient1 shot5 left shaker1 l2 l1)
  (pour-shaker-to-shot ingredient1 shot5 right shaker1 l1 l0)
  (pour-shaker-to-shot ingredient1 shot5 right shaker1 l2 l1)
  (pour-shaker-to-shot ingredient2 shot1 left shaker1 l1 l0)
  (pour-shaker-to-shot ingredient2 shot1 left shaker1 l2 l1)
  (pour-shaker-to-shot ingredient2 shot1 right shaker1 l1 l0)
  (pour-shaker-to-shot ingredient2 shot1 right shaker1 l2 l1)
  (pour-shaker-to-shot ingredient2 shot2 left shaker1 l1 l0)
  (pour-shaker-to-shot ingredient2 shot2 left shaker1 l2 l1)
  (pour-shaker-to-shot ingredient2 shot2 right shaker1 l1 l0)
  (pour-shaker-to-shot ingredient2 shot2 right shaker1 l2 l1)
  (pour-shaker-to-shot ingredient2 shot3 left shaker1 l1 l0)
  (pour-shaker-to-shot ingredient2 shot3 left shaker1 l2 l1)
  (pour-shaker-to-shot ingredient2 shot3 right shaker1 l1 l0)
  (pour-shaker-to-shot ingredient2 shot3 right shaker1 l2 l1)
  (pour-shaker-to-shot ingredient2 shot4 left shaker1 l1 l0)
  (pour-shaker-to-shot ingredient2 shot4 left shaker1 l2 l1)
  (pour-shaker-to-shot ingredient2 shot4 right shaker1 l1 l0)
  (pour-shaker-to-shot ingredient2 shot4 right shaker1 l2 l1)
  (pour-shaker-to-shot ingredient2 shot5 left shaker1 l1 l0)
  (pour-shaker-to-shot ingredient2 shot5 left shaker1 l2 l1)
  (pour-shaker-to-shot ingredient2 shot5 right shaker1 l1 l0)
  (pour-shaker-to-shot ingredient2 shot5 right shaker1 l2 l1)
