Mutex groups: 107
 (loaded goods6 truck1 level0) (loaded goods6 truck1 level1)
 (loaded goods6 truck2 level0) (loaded goods6 truck2 level1)
 (loaded goods6 truck3 level0) (loaded goods6 truck3 level1)
 (loaded goods9 truck1 level0) (loaded goods9 truck1 level1)
 (loaded goods9 truck2 level0) (loaded goods9 truck2 level1)
 (loaded goods9 truck3 level0) (loaded goods9 truck3 level1)
 (ready-to-load goods1 market1 level0) (ready-to-load goods1 market1 level1)
 (ready-to-load goods1 market2 level0) (ready-to-load goods1 market2 level1)
 (ready-to-load goods10 market2 level0) (ready-to-load goods10 market2 level1)
 (ready-to-load goods10 market3 level0) (ready-to-load goods10 market3 level1)
 (ready-to-load goods3 market1 level0) (ready-to-load goods3 market1 level1)
 (ready-to-load goods3 market2 level0) (ready-to-load goods3 market2 level1)
 (ready-to-load goods4 market1 level0) (ready-to-load goods4 market1 level1)
 (ready-to-load goods4 market2 level0) (ready-to-load goods4 market2 level1)
 (ready-to-load goods6 market2 level0) (ready-to-load goods6 market2 level1)
 (ready-to-load goods9 market2 level0) (ready-to-load goods9 market2 level1)
 (stored goods10 level0) (stored goods10 level1)
 (stored goods2 level0) (stored goods2 level1)
 (stored goods6 level0) (stored goods6 level1)
 (stored goods9 level0) (stored goods9 level1)
 (loaded goods1 truck1 level0) (loaded goods1 truck1 level1) (loaded goods1 truck1 level2)
 (loaded goods1 truck2 level0) (loaded goods1 truck2 level1) (loaded goods1 truck2 level2)
 (loaded goods1 truck3 level0) (loaded goods1 truck3 level1) (loaded goods1 truck3 level2)
 (loaded goods10 truck1 level0) (loaded goods10 truck1 level1) (loaded goods10 truck1 level2)
 (loaded goods10 truck2 level0) (loaded goods10 truck2 level1) (loaded goods10 truck2 level2)
 (loaded goods10 truck3 level0) (loaded goods10 truck3 level1) (loaded goods10 truck3 level2)
 (loaded goods2 truck1 level0) (loaded goods2 truck1 level1) (loaded goods2 truck1 level2)
 (loaded goods2 truck2 level0) (loaded goods2 truck2 level1) (loaded goods2 truck2 level2)
 (loaded goods2 truck3 level0) (loaded goods2 truck3 level1) (loaded goods2 truck3 level2)
 (loaded goods3 truck1 level0) (loaded goods3 truck1 level1) (loaded goods3 truck1 level2)
 (loaded goods3 truck2 level0) (loaded goods3 truck2 level1) (loaded goods3 truck2 level2)
 (loaded goods3 truck3 level0) (loaded goods3 truck3 level1) (loaded goods3 truck3 level2)
 (loaded goods4 truck1 level0) (loaded goods4 truck1 level1) (loaded goods4 truck1 level2)
 (loaded goods4 truck2 level0) (loaded goods4 truck2 level1) (loaded goods4 truck2 level2)
 (loaded goods4 truck3 level0) (loaded goods4 truck3 level1) (loaded goods4 truck3 level2)
 (loaded goods5 truck1 level0) (loaded goods5 truck1 level1) (loaded goods5 truck1 level2)
 (loaded goods5 truck2 level0) (loaded goods5 truck2 level1) (loaded goods5 truck2 level2)
 (loaded goods5 truck3 level0) (loaded goods5 truck3 level1) (loaded goods5 truck3 level2)
 (loaded goods7 truck1 level0) (loaded goods7 truck1 level1) (loaded goods7 truck1 level2)
 (loaded goods7 truck2 level0) (loaded goods7 truck2 level1) (loaded goods7 truck2 level2)
 (loaded goods7 truck3 level0) (loaded goods7 truck3 level1) (loaded goods7 truck3 level2)
 (loaded goods8 truck1 level0) (loaded goods8 truck1 level1) (loaded goods8 truck1 level2)
 (loaded goods8 truck2 level0) (loaded goods8 truck2 level1) (loaded goods8 truck2 level2)
 (loaded goods8 truck3 level0) (loaded goods8 truck3 level1) (loaded goods8 truck3 level2)
 (ready-to-load goods2 market2 level0) (ready-to-load goods2 market2 level1) (ready-to-load goods2 market2 level2)
 (ready-to-load goods5 market1 level0) (ready-to-load goods5 market1 level1) (ready-to-load goods5 market1 level2)
 (ready-to-load goods7 market1 level0) (ready-to-load goods7 market1 level1) (ready-to-load goods7 market1 level2)
 (ready-to-load goods8 market2 level0) (ready-to-load goods8 market2 level1) (ready-to-load goods8 market2 level2)
 (stored goods1 level0) (stored goods1 level1) (stored goods1 level2)
 (stored goods3 level0) (stored goods3 level1) (stored goods3 level2)
 (stored goods4 level0) (stored goods4 level1) (stored goods4 level2)
 (stored goods5 level0) (stored goods5 level1) (stored goods5 level2)
 (stored goods7 level0) (stored goods7 level1) (stored goods7 level2)
 (stored goods8 level0) (stored goods8 level1) (stored goods8 level2)
 (at truck1 depot1) (at truck1 market1) (at truck1 market2) (at truck1 market3)
 (at truck2 depot1) (at truck2 market1) (at truck2 market2) (at truck2 market3)
 (at truck3 depot1) (at truck3 market1) (at truck3 market2) (at truck3 market3)
 (loaded goods10 truck1 level1) (loaded goods10 truck1 level2) (loaded goods10 truck2 level2) (loaded goods10 truck3 level2)
 (loaded goods10 truck1 level2) (loaded goods10 truck2 level1) (loaded goods10 truck2 level2) (loaded goods10 truck3 level2)
 (loaded goods10 truck1 level2) (loaded goods10 truck2 level2) (loaded goods10 truck3 level1) (loaded goods10 truck3 level2)
 (loaded goods10 truck1 level2) (loaded goods10 truck2 level2) (loaded goods10 truck3 level2) (stored goods10 level1)
 (loaded goods1 truck1 level1) (loaded goods1 truck1 level2) (loaded goods1 truck2 level2) (loaded goods1 truck3 level2) (stored goods1 level2)
 (loaded goods1 truck1 level2) (loaded goods1 truck2 level1) (loaded goods1 truck2 level2) (loaded goods1 truck3 level2) (stored goods1 level2)
 (loaded goods1 truck1 level2) (loaded goods1 truck2 level2) (loaded goods1 truck3 level1) (loaded goods1 truck3 level2) (stored goods1 level2)
 (loaded goods1 truck1 level2) (loaded goods1 truck2 level2) (loaded goods1 truck3 level2) (stored goods1 level1) (stored goods1 level2)
 (loaded goods10 truck1 level2) (loaded goods10 truck2 level2) (loaded goods10 truck3 level2) (on-sale goods10 market2 level1) (ready-to-load goods10 market2 level1)
 (loaded goods10 truck1 level2) (loaded goods10 truck2 level2) (loaded goods10 truck3 level2) (on-sale goods10 market3 level1) (ready-to-load goods10 market3 level1)
 (loaded goods3 truck1 level1) (loaded goods3 truck1 level2) (loaded goods3 truck2 level2) (loaded goods3 truck3 level2) (stored goods3 level2)
 (loaded goods3 truck1 level2) (loaded goods3 truck2 level1) (loaded goods3 truck2 level2) (loaded goods3 truck3 level2) (stored goods3 level2)
 (loaded goods3 truck1 level2) (loaded goods3 truck2 level2) (loaded goods3 truck3 level1) (loaded goods3 truck3 level2) (stored goods3 level2)
 (loaded goods3 truck1 level2) (loaded goods3 truck2 level2) (loaded goods3 truck3 level2) (stored goods3 level1) (stored goods3 level2)
 (loaded goods4 truck1 level1) (loaded goods4 truck1 level2) (loaded goods4 truck2 level2) (loaded goods4 truck3 level2) (stored goods4 level2)
 (loaded goods4 truck1 level2) (loaded goods4 truck2 level1) (loaded goods4 truck2 level2) (loaded goods4 truck3 level2) (stored goods4 level2)
 (loaded goods4 truck1 level2) (loaded goods4 truck2 level2) (loaded goods4 truck3 level1) (loaded goods4 truck3 level2) (stored goods4 level2)
 (loaded goods4 truck1 level2) (loaded goods4 truck2 level2) (loaded goods4 truck3 level2) (stored goods4 level1) (stored goods4 level2)
 (loaded goods1 truck1 level2) (loaded goods1 truck2 level2) (loaded goods1 truck3 level2) (on-sale goods1 market1 level1) (ready-to-load goods1 market1 level1) (stored goods1 level2)
 (loaded goods1 truck1 level2) (loaded goods1 truck2 level2) (loaded goods1 truck3 level2) (on-sale goods1 market2 level1) (ready-to-load goods1 market2 level1) (stored goods1 level2)
 (loaded goods2 truck1 level1) (loaded goods2 truck1 level2) (loaded goods2 truck2 level2) (loaded goods2 truck3 level2) (on-sale goods2 market2 level2) (ready-to-load goods2 market2 level2)
 (loaded goods2 truck1 level2) (loaded goods2 truck2 level1) (loaded goods2 truck2 level2) (loaded goods2 truck3 level2) (on-sale goods2 market2 level2) (ready-to-load goods2 market2 level2)
 (loaded goods2 truck1 level2) (loaded goods2 truck2 level2) (loaded goods2 truck3 level1) (loaded goods2 truck3 level2) (on-sale goods2 market2 level2) (ready-to-load goods2 market2 level2)
 (loaded goods2 truck1 level2) (loaded goods2 truck2 level2) (loaded goods2 truck3 level2) (on-sale goods2 market2 level1) (on-sale goods2 market2 level2) (ready-to-load goods2 market2 level2)
 (loaded goods2 truck1 level2) (loaded goods2 truck2 level2) (loaded goods2 truck3 level2) (on-sale goods2 market2 level2) (ready-to-load goods2 market2 level1) (ready-to-load goods2 market2 level2)
 (loaded goods2 truck1 level2) (loaded goods2 truck2 level2) (loaded goods2 truck3 level2) (on-sale goods2 market2 level2) (ready-to-load goods2 market2 level2) (stored goods2 level1)
 (loaded goods3 truck1 level2) (loaded goods3 truck2 level2) (loaded goods3 truck3 level2) (on-sale goods3 market1 level1) (ready-to-load goods3 market1 level1) (stored goods3 level2)
 (loaded goods3 truck1 level2) (loaded goods3 truck2 level2) (loaded goods3 truck3 level2) (on-sale goods3 market2 level1) (ready-to-load goods3 market2 level1) (stored goods3 level2)
 (loaded goods4 truck1 level2) (loaded goods4 truck2 level2) (loaded goods4 truck3 level2) (on-sale goods4 market1 level1) (ready-to-load goods4 market1 level1) (stored goods4 level2)
 (loaded goods4 truck1 level2) (loaded goods4 truck2 level2) (loaded goods4 truck3 level2) (on-sale goods4 market2 level1) (ready-to-load goods4 market2 level1) (stored goods4 level2)
 (loaded goods6 truck1 level1) (loaded goods6 truck2 level1) (loaded goods6 truck3 level1) (on-sale goods6 market2 level1) (ready-to-load goods6 market2 level1) (stored goods6 level1)
 (loaded goods9 truck1 level1) (loaded goods9 truck2 level1) (loaded goods9 truck3 level1) (on-sale goods9 market2 level1) (ready-to-load goods9 market2 level1) (stored goods9 level1)
 (loaded goods5 truck1 level1) (loaded goods5 truck1 level2) (loaded goods5 truck2 level2) (loaded goods5 truck3 level2) (on-sale goods5 market1 level2) (ready-to-load goods5 market1 level2) (stored goods5 level2)
 (loaded goods5 truck1 level2) (loaded goods5 truck2 level1) (loaded goods5 truck2 level2) (loaded goods5 truck3 level2) (on-sale goods5 market1 level2) (ready-to-load goods5 market1 level2) (stored goods5 level2)
 (loaded goods5 truck1 level2) (loaded goods5 truck2 level2) (loaded goods5 truck3 level1) (loaded goods5 truck3 level2) (on-sale goods5 market1 level2) (ready-to-load goods5 market1 level2) (stored goods5 level2)
 (loaded goods5 truck1 level2) (loaded goods5 truck2 level2) (loaded goods5 truck3 level2) (on-sale goods5 market1 level1) (on-sale goods5 market1 level2) (ready-to-load goods5 market1 level2) (stored goods5 level2)
 (loaded goods5 truck1 level2) (loaded goods5 truck2 level2) (loaded goods5 truck3 level2) (on-sale goods5 market1 level2) (ready-to-load goods5 market1 level1) (ready-to-load goods5 market1 level2) (stored goods5 level2)
 (loaded goods5 truck1 level2) (loaded goods5 truck2 level2) (loaded goods5 truck3 level2) (on-sale goods5 market1 level2) (ready-to-load goods5 market1 level2) (stored goods5 level1) (stored goods5 level2)
 (loaded goods7 truck1 level1) (loaded goods7 truck1 level2) (loaded goods7 truck2 level2) (loaded goods7 truck3 level2) (on-sale goods7 market1 level2) (ready-to-load goods7 market1 level2) (stored goods7 level2)
 (loaded goods7 truck1 level2) (loaded goods7 truck2 level1) (loaded goods7 truck2 level2) (loaded goods7 truck3 level2) (on-sale goods7 market1 level2) (ready-to-load goods7 market1 level2) (stored goods7 level2)
 (loaded goods7 truck1 level2) (loaded goods7 truck2 level2) (loaded goods7 truck3 level1) (loaded goods7 truck3 level2) (on-sale goods7 market1 level2) (ready-to-load goods7 market1 level2) (stored goods7 level2)
 (loaded goods7 truck1 level2) (loaded goods7 truck2 level2) (loaded goods7 truck3 level2) (on-sale goods7 market1 level1) (on-sale goods7 market1 level2) (ready-to-load goods7 market1 level2) (stored goods7 level2)
 (loaded goods7 truck1 level2) (loaded goods7 truck2 level2) (loaded goods7 truck3 level2) (on-sale goods7 market1 level2) (ready-to-load goods7 market1 level1) (ready-to-load goods7 market1 level2) (stored goods7 level2)
 (loaded goods7 truck1 level2) (loaded goods7 truck2 level2) (loaded goods7 truck3 level2) (on-sale goods7 market1 level2) (ready-to-load goods7 market1 level2) (stored goods7 level1) (stored goods7 level2)
 (loaded goods8 truck1 level1) (loaded goods8 truck1 level2) (loaded goods8 truck2 level2) (loaded goods8 truck3 level2) (on-sale goods8 market2 level2) (ready-to-load goods8 market2 level2) (stored goods8 level2)
 (loaded goods8 truck1 level2) (loaded goods8 truck2 level1) (loaded goods8 truck2 level2) (loaded goods8 truck3 level2) (on-sale goods8 market2 level2) (ready-to-load goods8 market2 level2) (stored goods8 level2)
 (loaded goods8 truck1 level2) (loaded goods8 truck2 level2) (loaded goods8 truck3 level1) (loaded goods8 truck3 level2) (on-sale goods8 market2 level2) (ready-to-load goods8 market2 level2) (stored goods8 level2)
 (loaded goods8 truck1 level2) (loaded goods8 truck2 level2) (loaded goods8 truck3 level2) (on-sale goods8 market2 level1) (on-sale goods8 market2 level2) (ready-to-load goods8 market2 level2) (stored goods8 level2)
 (loaded goods8 truck1 level2) (loaded goods8 truck2 level2) (loaded goods8 truck3 level2) (on-sale goods8 market2 level2) (ready-to-load goods8 market2 level1) (ready-to-load goods8 market2 level2) (stored goods8 level2)
 (loaded goods8 truck1 level2) (loaded goods8 truck2 level2) (loaded goods8 truck3 level2) (on-sale goods8 market2 level2) (ready-to-load goods8 market2 level2) (stored goods8 level1) (stored goods8 level2)

