Reduced 30 -> 10
Domain: pathways-propositional
Problem: pathways-01
Require: ff
Type[5]:
    [0]: object, parent: -1
    [1]: level, parent: 0
    [2]: molecule, parent: 0
    [3]: simple, parent: 2
    [4]: complex, parent: 2
Obj-by-Type:
    [0]: 0 1 2 3 4 5 6 7 8 9
    [1]: 6 7 8 9
    [2]: 0 1 2 3 4 5
    [3]: 1 2 3
    [4]: 0 4 5
Obj[10]:
    [0]: prbp1p2-ap2, type: 4, is-constant: 1, is-private: 0, owner: -1, is-agent: 0
    [1]: sp1, type: 3, is-constant: 0, is-private: 0, owner: -1, is-agent: 0
    [2]: chk1, type: 3, is-constant: 0, is-private: 0, owner: -1, is-agent: 0
    [3]: prb-e2f4p1-dp12, type: 3, is-constant: 0, is-private: 0, owner: -1, is-agent: 0
    [4]: pcaf-p300, type: 4, is-constant: 1, is-private: 0, owner: -1, is-agent: 0
    [5]: dmp1p1, type: 4, is-constant: 0, is-private: 0, owner: -1, is-agent: 0
    [6]: l0, type: 1, is-constant: 0, is-private: 0, owner: -1, is-agent: 0
    [7]: l1, type: 1, is-constant: 0, is-private: 0, owner: -1, is-agent: 0
    [8]: l2, type: 1, is-constant: 0, is-private: 0, owner: -1, is-agent: 0
    [9]: l3, type: 1, is-constant: 0, is-private: 0, owner: -1, is-agent: 0
Predicate[11]:
    =: 0 0 :: is-private: 0, owner-param: -1, read: 0, write: 0
    association-reaction: 2 2 4 :: is-private: 0, owner-param: -1, read: 1, write: 0
    catalyzed-association-reaction: 2 2 4 :: is-private: 0, owner-param: -1, read: 1, write: 0
    synthesis-reaction: 2 2 :: is-private: 0, owner-param: -1, read: 0, write: 0
    possible: 2 :: is-private: 0, owner-param: -1, read: 1, write: 0
    available: 2 :: is-private: 0, owner-param: -1, read: 1, write: 1
    chosen: 3 :: is-private: 0, owner-param: -1, read: 1, write: 1, neg-of: 10
    next: 1 1 :: is-private: 0, owner-param: -1, read: 1, write: 0
    num-subs: 1 :: is-private: 0, owner-param: -1, read: 1, write: 1
    goal1: :: is-private: 0, owner-param: -1, read: 0, write: 1
    NOT-chosen: 3 :: is-private: 0, owner-param: -1, read: 1, write: 1, neg-of: 6
Function[0]:
Action[6]:
    choose: ?x:3 ?l1:1 ?l2:1
        pre: (and (R:possible ?x) (RW:NOT-chosen ?x) (RW:num-subs ?l2) (R:next ?l1 ?l2))
        eff: (and (N:RW:num-subs ?l2) (RW:num-subs ?l1) (RW:chosen ?x) (N:RW:NOT-chosen ?x))
    initialize: ?x:3
        pre: (and (RW:chosen ?x))
        eff: (and (RW:available ?x))
    associate: ?x1:2 ?x2:2 ?x3:4
        pre: (and (R:association-reaction ?x1 ?x2 ?x3) (RW:available ?x1) (RW:available ?x2))
        eff: (and (N:RW:available ?x1) (N:RW:available ?x2) (RW:available ?x3))
    associate-with-catalyze: ?x1:2 ?x2:2 ?x3:4
        pre: (and (R:catalyzed-association-reaction ?x1 ?x2 ?x3) (RW:available ?x1) (RW:available ?x2))
        eff: (and (N:RW:available ?x1) (RW:available ?x3))
    dummy-action-1: 
        pre: (and (RW:available pcaf-p300))
        eff: (and (W:goal1))
    dummy-action-1: 
        pre: (and (RW:available prbp1p2-ap2))
        eff: (and (W:goal1))
Init[13]:
  S:(possible sp1)
  S:(possible prb-e2f4p1-dp12)
  S:(possible chk1)
  S:(catalyzed-association-reaction sp1 chk1 dmp1p1)
  S:(association-reaction sp1 prb-e2f4p1-dp12 pcaf-p300)
  S:(association-reaction dmp1p1 prb-e2f4p1-dp12 prbp1p2-ap2)
  (num-subs l0)
  S:(next l1 l0)
  S:(next l2 l1)
  S:(next l3 l2)
  (NOT-chosen sp1)
  (NOT-chosen prb-e2f4p1-dp12)
  (NOT-chosen chk1)
Init[0]:
Goal: (W:goal1)
Metric: 0
