Monotonicity invariants:
< {normal V0:object, inverted V0:object}
, {normal C0:object, inverted C1:object}
, {idle, last-cut-point C0:object}
, {idle, cutting, have-cut, finished, splice-point-1 C0:object}
, {idle, cutting, have-cut, finished, splice-point-2 C0:object}
, {idle, have-cut, finished, cut-point-1 C0:object, splice-point-1 C1:object}
, {idle, have-cut, finished, cut-point-1 C0:object, splice-point-2 C1:object}
, {idle, splicing-last, inverse-splicing-last, finished, s-first C0:object}
, {idle, splicing-last, inverse-splicing-last, finished, s-last C0:object}
, {cw C1:object V0:object, splice-next V0:object, inverse-splice-next V0:object, cut-point-2 V0:object, splice-point-2 V0:object, s-first V0:object, s-next C2:object V0:object}
, {cw C1:object V0:object, splice-next V0:object, inverse-splice-next V0:object, cut-point-2 V0:object, splice-point-2 V0:object, s-next V0:object C2:object, s-last V0:object}
, {idle, cutting, have-cut, splicing, splice-next C0:object, splicing-last, inverse-splicing, inverse-splice-next C1:object, inverse-splicing-last, finished}
, {idle, have-cut, splicing, splice-next C0:object, splicing-last, inverse-splicing, inverse-splice-next C1:object, inverse-splicing-last, finished, cut-point-1 C2:object}
>
FD Mutex Groups:
< {normal V0:object, inverted V0:object}:=1
, {idle, last-cut-point C0:object}:=1
, {idle, cutting, have-cut, finished, splice-point-1 C0:object}:=1
, {idle, cutting, have-cut, finished, splice-point-2 C0:object}:=1
, {idle, have-cut, finished, cut-point-1 C0:object, splice-point-1 C1:object}:=1
, {idle, have-cut, finished, cut-point-1 C0:object, splice-point-2 C1:object}:=1
, {idle, splicing-last, inverse-splicing-last, finished, s-first C0:object}:=1
, {idle, splicing-last, inverse-splicing-last, finished, s-last C0:object}:=1
, {cw C1:object V0:object, splice-next V0:object, inverse-splice-next V0:object, cut-point-2 V0:object, splice-point-2 V0:object, s-first V0:object, s-next C2:object V0:object}:=1
, {cw C1:object V0:object, splice-next V0:object, inverse-splice-next V0:object, cut-point-2 V0:object, splice-point-2 V0:object, s-next V0:object C2:object, s-last V0:object}:=1
, {idle, cutting, have-cut, splicing, splice-next C0:object, splicing-last, inverse-splicing, inverse-splice-next C1:object, inverse-splicing-last, finished}:=1
, {idle, have-cut, splicing, splice-next C0:object, splicing-last, inverse-splicing, inverse-splice-next C1:object, inverse-splicing-last, finished, cut-point-1 C2:object}:=1
>
FD Goal aware:
< {normal sub4, inverted sub4}:=1
, {normal sub3, inverted sub3}:=1
, {normal sub2, inverted sub2}:=1
, {normal sub1, inverted sub1}:=1
, {cw C0:object sub4, splice-next sub4, inverse-splice-next sub4, cut-point-2 sub4, splice-point-2 sub4, s-first sub4, s-next C1:object sub4}:=1
, {cw C0:object sub4, splice-next sub4, inverse-splice-next sub4, cut-point-2 sub4, splice-point-2 sub4, s-next sub4 C1:object, s-last sub4}:=1
, {cw C0:object sub3, splice-next sub3, inverse-splice-next sub3, cut-point-2 sub3, splice-point-2 sub3, s-first sub3, s-next C1:object sub3}:=1
, {cw C0:object sub3, splice-next sub3, inverse-splice-next sub3, cut-point-2 sub3, splice-point-2 sub3, s-next sub3 C1:object, s-last sub3}:=1
, {cw C0:object sub2, splice-next sub2, inverse-splice-next sub2, cut-point-2 sub2, splice-point-2 sub2, s-first sub2, s-next C1:object sub2}:=1
, {cw C0:object sub2, splice-next sub2, inverse-splice-next sub2, cut-point-2 sub2, splice-point-2 sub2, s-next sub2 C1:object, s-last sub2}:=1
, {cw C0:object sub1, splice-next sub1, inverse-splice-next sub1, cut-point-2 sub1, splice-point-2 sub1, s-first sub1, s-next C1:object sub1}:=1
, {cw C0:object sub1, splice-next sub1, inverse-splice-next sub1, cut-point-2 sub1, splice-point-2 sub1, s-next sub1 C1:object, s-last sub1}:=1
>
