Monotonicity invariants:
< {capacity V0:vehicle C1:capacity-number}
, {at V0:package C1:location, in V0:package C2:vehicle}
>
FD Mutex Groups:
< {capacity V0:vehicle C1:capacity-number}:=1
, {at V0:package C1:location, in V0:package C2:vehicle}:=1
>
FD Goal aware:
< {at package-1 C0:location, in package-1 C1:vehicle}:=1
, {at package-2 C0:location, in package-2 C1:vehicle}:=1
, {at package-3 C0:location, in package-3 C1:vehicle}:=1
, {at package-4 C0:location, in package-4 C1:vehicle}:=1
, {at package-5 C0:location, in package-5 C1:vehicle}:=1
, {at package-6 C0:location, in package-6 C1:vehicle}:=1
, {at package-7 C0:location, in package-7 C1:vehicle}:=1
, {at package-8 C0:location, in package-8 C1:vehicle}:=1
, {at package-9 C0:location, in package-9 C1:vehicle}:=1
, {at package-10 C0:location, in package-10 C1:vehicle}:=1
, {at package-11 C0:location, in package-11 C1:vehicle}:=1
>
