 (passengers slow0-0 n0) (passengers slow0-0 n1) (passengers slow0-0 n2):=1
 (passengers slow1-0 n0) (passengers slow1-0 n1) (passengers slow1-0 n2):=1
 (passengers fast0 n0) (passengers fast0 n1) (passengers fast0 n2) (passengers fast0 n3):=1
 (passengers fast1 n0) (passengers fast1 n1) (passengers fast1 n2) (passengers fast1 n3):=1
 (lift-at fast0 n0) (lift-at fast0 n12) (lift-at fast0 n3) (lift-at fast0 n6) (lift-at fast0 n9):=1
 (lift-at fast1 n0) (lift-at fast1 n12) (lift-at fast1 n3) (lift-at fast1 n6) (lift-at fast1 n9):=1
 (lift-at slow0-0 n0) (lift-at slow0-0 n1) (lift-at slow0-0 n2) (lift-at slow0-0 n3) (lift-at slow0-0 n4) (lift-at slow0-0 n5) (lift-at slow0-0 n6):=1
 (lift-at slow1-0 n10) (lift-at slow1-0 n11) (lift-at slow1-0 n12) (lift-at slow1-0 n6) (lift-at slow1-0 n7) (lift-at slow1-0 n8) (lift-at slow1-0 n9):=1
 (boarded p0 fast0) (boarded p0 fast1) (boarded p0 slow0-0) (boarded p0 slow1-0) (passenger-at p0 n0) (passenger-at p0 n1) (passenger-at p0 n10) (passenger-at p0 n11) (passenger-at p0 n12) (passenger-at p0 n2) (passenger-at p0 n3) (passenger-at p0 n4) (passenger-at p0 n5) (passenger-at p0 n6) (passenger-at p0 n7) (passenger-at p0 n8) (passenger-at p0 n9):=1:G
 (boarded p1 fast0) (boarded p1 fast1) (boarded p1 slow0-0) (boarded p1 slow1-0) (passenger-at p1 n0) (passenger-at p1 n1) (passenger-at p1 n10) (passenger-at p1 n11) (passenger-at p1 n12) (passenger-at p1 n2) (passenger-at p1 n3) (passenger-at p1 n4) (passenger-at p1 n5) (passenger-at p1 n6) (passenger-at p1 n7) (passenger-at p1 n8) (passenger-at p1 n9):=1:G
 (boarded p2 fast0) (boarded p2 fast1) (boarded p2 slow0-0) (boarded p2 slow1-0) (passenger-at p2 n0) (passenger-at p2 n1) (passenger-at p2 n10) (passenger-at p2 n11) (passenger-at p2 n12) (passenger-at p2 n2) (passenger-at p2 n3) (passenger-at p2 n4) (passenger-at p2 n5) (passenger-at p2 n6) (passenger-at p2 n7) (passenger-at p2 n8) (passenger-at p2 n9):=1:G
 (boarded p3 fast0) (boarded p3 fast1) (boarded p3 slow0-0) (boarded p3 slow1-0) (passenger-at p3 n0) (passenger-at p3 n1) (passenger-at p3 n10) (passenger-at p3 n11) (passenger-at p3 n12) (passenger-at p3 n2) (passenger-at p3 n3) (passenger-at p3 n4) (passenger-at p3 n5) (passenger-at p3 n6) (passenger-at p3 n7) (passenger-at p3 n8) (passenger-at p3 n9):=1:G
 (boarded p4 fast0) (boarded p4 fast1) (boarded p4 slow0-0) (boarded p4 slow1-0) (passenger-at p4 n0) (passenger-at p4 n1) (passenger-at p4 n10) (passenger-at p4 n11) (passenger-at p4 n12) (passenger-at p4 n2) (passenger-at p4 n3) (passenger-at p4 n4) (passenger-at p4 n5) (passenger-at p4 n6) (passenger-at p4 n7) (passenger-at p4 n8) (passenger-at p4 n9):=1:G
 (boarded p5 fast0) (boarded p5 fast1) (boarded p5 slow0-0) (boarded p5 slow1-0) (passenger-at p5 n0) (passenger-at p5 n1) (passenger-at p5 n10) (passenger-at p5 n11) (passenger-at p5 n12) (passenger-at p5 n2) (passenger-at p5 n3) (passenger-at p5 n4) (passenger-at p5 n5) (passenger-at p5 n6) (passenger-at p5 n7) (passenger-at p5 n8) (passenger-at p5 n9):=1:G
 (boarded p6 fast0) (boarded p6 fast1) (boarded p6 slow0-0) (boarded p6 slow1-0) (passenger-at p6 n0) (passenger-at p6 n1) (passenger-at p6 n10) (passenger-at p6 n11) (passenger-at p6 n12) (passenger-at p6 n2) (passenger-at p6 n3) (passenger-at p6 n4) (passenger-at p6 n5) (passenger-at p6 n6) (passenger-at p6 n7) (passenger-at p6 n8) (passenger-at p6 n9):=1:G

