Domain: organic-synthesis
Problem: alkene_p07
Require: ff
Type[8]:
    [0]: object, parent: -1
    [1]: chemical_atom, parent: 0
    [2]: r_group, parent: 1
    [3]: hcno, parent: 2
    [4]: hc, parent: 3
    [5]: oxygen, parent: 3
    [6]: hydrogen, parent: 4
    [7]: carbon, parent: 4
Obj-by-Type:
    [0]: 0 1 2 3 4 5 6 7 8 9 10 11 12 13 14 15 16 17 18 19 20 21 22 23 24
    [1]: 0 1 2 3 4 5 6 7 8 9 10 11 12 13 14 15 16 17 18 19 20 21 22 23 24
    [2]: 0 1 2 3 4 5 6 7 8 9 10 11 12 13 14 15 16 17 18 19 20 21 22 23 24
    [3]: 0 1 2 3 4 5 6 7 8 9 10 11 12 13 14 15 16 17 18 19 20 21 22 23 24
    [4]: 0 1 2 3 4 5 6 7 8 9 10 11 12 13 14 15 16 17 18 19 20 21 22 23
    [5]: 24
    [6]: 8 9 10 11 12 13 14 15 16 17 18 19 20 21 22 23
    [7]: 0 1 2 3 4 5 6 7
Obj[25]:
    [0]: c016, type: 7, is-constant: 0, is-private: 0, owner: -1, is-agent: 0
    [1]: c032, type: 7, is-constant: 0, is-private: 0, owner: -1, is-agent: 0
    [2]: c033, type: 7, is-constant: 0, is-private: 0, owner: -1, is-agent: 0
    [3]: c034, type: 7, is-constant: 0, is-private: 0, owner: -1, is-agent: 0
    [4]: c035, type: 7, is-constant: 0, is-private: 0, owner: -1, is-agent: 0
    [5]: c036, type: 7, is-constant: 0, is-private: 0, owner: -1, is-agent: 0
    [6]: c037, type: 7, is-constant: 0, is-private: 0, owner: -1, is-agent: 0
    [7]: c038, type: 7, is-constant: 0, is-private: 0, owner: -1, is-agent: 0
    [8]: h061, type: 6, is-constant: 0, is-private: 0, owner: -1, is-agent: 0
    [9]: h106, type: 6, is-constant: 0, is-private: 0, owner: -1, is-agent: 0
    [10]: h107, type: 6, is-constant: 0, is-private: 0, owner: -1, is-agent: 0
    [11]: h108, type: 6, is-constant: 0, is-private: 0, owner: -1, is-agent: 0
    [12]: h133, type: 6, is-constant: 0, is-private: 0, owner: -1, is-agent: 0
    [13]: h134, type: 6, is-constant: 0, is-private: 0, owner: -1, is-agent: 0
    [14]: h135, type: 6, is-constant: 0, is-private: 0, owner: -1, is-agent: 0
    [15]: h136, type: 6, is-constant: 0, is-private: 0, owner: -1, is-agent: 0
    [16]: h137, type: 6, is-constant: 0, is-private: 0, owner: -1, is-agent: 0
    [17]: h138, type: 6, is-constant: 0, is-private: 0, owner: -1, is-agent: 0
    [18]: h139, type: 6, is-constant: 0, is-private: 0, owner: -1, is-agent: 0
    [19]: h140, type: 6, is-constant: 0, is-private: 0, owner: -1, is-agent: 0
    [20]: h141, type: 6, is-constant: 0, is-private: 0, owner: -1, is-agent: 0
    [21]: h142, type: 6, is-constant: 0, is-private: 0, owner: -1, is-agent: 0
    [22]: h143, type: 6, is-constant: 0, is-private: 0, owner: -1, is-agent: 0
    [23]: h144, type: 6, is-constant: 0, is-private: 0, owner: -1, is-agent: 0
    [24]: o066, type: 5, is-constant: 0, is-private: 0, owner: -1, is-agent: 0
Predicate[5]:
    =: 0 0 :: is-private: 0, owner-param: -1, read: 1, write: 0
    bond: 1 1 :: is-private: 0, owner-param: -1, read: 1, write: 1
    doublebond: 1 1 :: is-private: 0, owner-param: -1, read: 1, write: 1
    triplebond: 1 1 :: is-private: 0, owner-param: -1, read: 0, write: 0
    aromaticbond: 1 1 :: is-private: 0, owner-param: -1, read: 0, write: 0
Function[0]:
Action[5]:
    additionofrohacrossgemdisubstitutedalkene: ?c_1:7 ?c_2:7 ?h_5:6 ?o_6:5 ?r1_8:7 ?h_4:6 ?r0_7:4 ?h_3:6 ?r2_9:4
        pre: (and (N:R:= ?c_1 ?c_2) (N:R:= ?h_4 ?h_3) (RW:bond ?c_2 ?h_3) (RW:bond ?c_2 ?h_4) (RW:bond ?c_1 ?r1_8) (RW:doublebond ?c_1 ?c_2) (RW:bond ?r0_7 ?c_1) (RW:bond ?o_6 ?h_5) (RW:bond ?r2_9 ?o_6))
        eff: (and (N:RW:doublebond ?c_1 ?c_2) (N:RW:doublebond ?c_2 ?c_1) (RW:bond ?c_1 ?c_2) (RW:bond ?c_2 ?c_1) (RW:bond ?c_1 ?o_6) (RW:bond ?o_6 ?c_1) (RW:bond ?c_2 ?h_5) (RW:bond ?h_5 ?c_2) (N:RW:bond ?o_6 ?h_5) (N:RW:bond ?h_5 ?o_6))
    additionofrohacrossmonosubstitutedalkene: ?c_1:7 ?h_6:6 ?o_7:5 ?c_2:7 ?r0_8:4 ?h_4:6 ?h_5:6 ?h_3:6 ?r1_9:4
        pre: (and (N:R:= ?c_1 ?c_2) (N:R:= ?h_5 ?h_3) (N:R:= ?h_4 ?h_3) (N:R:= ?h_4 ?h_5) (RW:bond ?c_1 ?h_3) (RW:bond ?c_2 ?h_5) (RW:bond ?c_2 ?h_4) (RW:doublebond ?c_1 ?c_2) (RW:bond ?r0_8 ?c_1) (RW:bond ?o_7 ?h_6) (RW:bond ?r1_9 ?o_7))
        eff: (and (N:RW:doublebond ?c_1 ?c_2) (N:RW:doublebond ?c_2 ?c_1) (RW:bond ?c_1 ?c_2) (RW:bond ?c_2 ?c_1) (RW:bond ?c_1 ?o_7) (RW:bond ?o_7 ?c_1) (RW:bond ?c_2 ?h_6) (RW:bond ?h_6 ?c_2) (N:RW:bond ?o_7 ?h_6) (N:RW:bond ?h_6 ?o_7))
    additionofrohacrosstetrasubstitutedalkene: ?c_1:7 ?o_4:5 ?c_2:7 ?h_3:6 ?r1_6:7 ?r2_7:7 ?r3_8:7 ?r0_5:7 ?r4_9:4
        pre: (and (N:R:= ?c_1 ?c_2) (N:R:= ?r3_8 ?r0_5) (N:R:= ?r2_7 ?r3_8) (N:R:= ?r2_7 ?r0_5) (N:R:= ?r1_6 ?r0_5) (N:R:= ?r1_6 ?r2_7) (N:R:= ?r1_6 ?r3_8) (RW:bond ?c_2 ?r3_8) (RW:bond ?c_1 ?r1_6) (RW:bond ?c_2 ?r2_7) (RW:doublebond ?c_1 ?c_2) (RW:bond ?r0_5 ?c_1) (RW:bond ?o_4 ?h_3) (RW:bond ?r4_9 ?o_4))
        eff: (and (N:RW:doublebond ?c_1 ?c_2) (N:RW:doublebond ?c_2 ?c_1) (RW:bond ?c_1 ?c_2) (RW:bond ?c_2 ?c_1) (RW:bond ?c_1 ?o_4) (RW:bond ?o_4 ?c_1) (RW:bond ?c_2 ?h_3) (RW:bond ?h_3 ?c_2) (N:RW:bond ?o_4 ?h_3) (N:RW:bond ?h_3 ?o_4))
    additionofrohacrosstrisubstitutedalkene: ?c_1:7 ?o_5:5 ?h_4:6 ?c_2:7 ?r2_8:7 ?h_3:6 ?r0_6:7 ?r1_7:7 ?r3_9:4
        pre: (and (N:R:= ?c_1 ?c_2) (N:R:= ?r2_8 ?r0_6) (N:R:= ?r0_6 ?r1_7) (N:R:= ?r2_8 ?r1_7) (RW:bond ?r0_6 ?c_1) (RW:bond ?c_1 ?r1_7) (RW:doublebond ?c_1 ?c_2) (RW:bond ?c_2 ?h_3) (RW:bond ?c_2 ?r2_8) (RW:bond ?r3_9 ?o_5) (RW:bond ?o_5 ?h_4))
        eff: (and (N:RW:doublebond ?c_1 ?c_2) (N:RW:doublebond ?c_2 ?c_1) (RW:bond ?c_1 ?c_2) (RW:bond ?c_2 ?c_1) (RW:bond ?c_1 ?o_5) (RW:bond ?o_5 ?c_1) (RW:bond ?c_2 ?h_4) (RW:bond ?h_4 ?c_2) (N:RW:bond ?o_5 ?h_4) (N:RW:bond ?h_4 ?o_5))
    additionofrohacrossvicdisubstitutedalkene: ?c_1:7 ?c_2:7 ?h_5:6 ?o_6:5 ?r1_8:7 ?h_4:6 ?r0_7:7 ?h_3:6 ?r2_9:4
        pre: (and (N:R:= ?c_1 ?c_2) (N:R:= ?r1_8 ?r0_7) (N:R:= ?h_4 ?h_3) (RW:bond ?c_1 ?h_3) (RW:bond ?c_2 ?h_4) (RW:bond ?c_2 ?r1_8) (RW:doublebond ?c_1 ?c_2) (RW:bond ?r0_7 ?c_1) (RW:bond ?o_6 ?h_5) (RW:bond ?r2_9 ?o_6))
        eff: (and (N:RW:doublebond ?c_1 ?c_2) (N:RW:doublebond ?c_2 ?c_1) (RW:bond ?c_1 ?c_2) (RW:bond ?c_2 ?c_1) (RW:bond ?c_1 ?o_6) (RW:bond ?o_6 ?c_1) (RW:bond ?c_2 ?h_5) (RW:bond ?h_5 ?c_2) (N:RW:bond ?o_6 ?h_5) (N:RW:bond ?h_5 ?o_6))
Init[48]:
  (bond c016 o066)
  (bond o066 c016)
  (bond c016 h108)
  (bond h108 c016)
  (bond c016 h106)
  (bond h106 c016)
  (bond c016 h107)
  (bond h107 c016)
  (doublebond c032 c033)
  (doublebond c033 c032)
  (bond c032 h133)
  (bond h133 c032)
  (bond c032 h134)
  (bond h134 c032)
  (bond c033 c038)
  (bond c038 c033)
  (bond c033 c034)
  (bond c034 c033)
  (bond c034 h135)
  (bond h135 c034)
  (bond c034 h136)
  (bond h136 c034)
  (bond c034 c035)
  (bond c035 c034)
  (bond c035 h138)
  (bond h138 c035)
  (bond c035 h137)
  (bond h137 c035)
  (bond c035 c036)
  (bond c036 c035)
  (bond c036 h140)
  (bond h140 c036)
  (bond c036 h139)
  (bond h139 c036)
  (bond c036 c037)
  (bond c037 c036)
  (bond c037 h142)
  (bond h142 c037)
  (bond c037 h141)
  (bond h141 c037)
  (bond c037 c038)
  (bond c038 c037)
  (bond c038 h144)
  (bond h144 c038)
  (bond c038 h143)
  (bond h143 c038)
  (bond h061 o066)
  (bond o066 h061)
Init[0]:
Goal: (and (RW:bond c016 o066) (RW:bond o066 c016) (RW:bond c016 h108) (RW:bond h108 c016) (RW:bond c016 h106) (RW:bond h106 c016) (RW:bond c016 h107) (RW:bond h107 c016) (RW:bond c032 c033) (RW:bond c033 c032) (RW:bond c032 h061) (RW:bond h061 c032) (RW:bond c032 h134) (RW:bond h134 c032) (RW:bond c032 h133) (RW:bond h133 c032) (RW:bond c033 c034) (RW:bond c034 c033) (RW:bond c033 c038) (RW:bond c038 c033) (RW:bond c033 o066) (RW:bond o066 c033) (RW:bond c034 c035) (RW:bond c035 c034) (RW:bond c034 h136) (RW:bond h136 c034) (RW:bond c034 h135) (RW:bond h135 c034) (RW:bond c035 c036) (RW:bond c036 c035) (RW:bond c035 h138) (RW:bond h138 c035) (RW:bond c035 h137) (RW:bond h137 c035) (RW:bond c036 c037) (RW:bond c037 c036) (RW:bond c036 h140) (RW:bond h140 c036) (RW:bond c036 h139) (RW:bond h139 c036) (RW:bond c037 c038) (RW:bond c038 c037) (RW:bond c037 h141) (RW:bond h141 c037) (RW:bond c037 h142) (RW:bond h142 c037) (RW:bond c038 h143) (RW:bond h143 c038) (RW:bond c038 h144) (RW:bond h144 c038))
Metric: 0
