Domain: sokoban-sequential
Problem: p064-microban-sequential
Require: 200ff
Type[6]:
    [0]: object, parent: -1
    [1]: thing, parent: 0
    [2]: location, parent: 0
    [3]: direction, parent: 0
    [4]: player, parent: 1
    [5]: stone, parent: 1
Obj-by-Type:
    [0]: 0 1 2 3 4 5 6 7 8 9 10 11 12 13 14 15 16 17 18 19 20 21 22 23 24 25 26 27 28 29 30 31 32 33 34 35 36 37 38 39 40 41 42 43 44 45 46 47 48 49 50 51 52 53 54 55 56 57 58 59 60 61 62 63 64 65 66 67 68 69 70 71 72 73 74 75 76 77 78 79 80 81 82 83 84 85 86 87 88 89 90 91 92 93 94 95 96 97 98
    [1]: 4 95 96 97 98
    [2]: 5 6 7 8 9 10 11 12 13 14 15 16 17 18 19 20 21 22 23 24 25 26 27 28 29 30 31 32 33 34 35 36 37 38 39 40 41 42 43 44 45 46 47 48 49 50 51 52 53 54 55 56 57 58 59 60 61 62 63 64 65 66 67 68 69 70 71 72 73 74 75 76 77 78 79 80 81 82 83 84 85 86 87 88 89 90 91 92 93 94
    [3]: 0 1 2 3
    [4]: 4
    [5]: 95 96 97 98
Obj[99]:
    [0]: dir-down, type: 3, is-constant: 0, is-private: 0, owner: -1, is-agent: 0
    [1]: dir-left, type: 3, is-constant: 0, is-private: 0, owner: -1, is-agent: 0
    [2]: dir-right, type: 3, is-constant: 0, is-private: 0, owner: -1, is-agent: 0
    [3]: dir-up, type: 3, is-constant: 0, is-private: 0, owner: -1, is-agent: 0
    [4]: player-01, type: 4, is-constant: 0, is-private: 0, owner: -1, is-agent: 0
    [5]: pos-01-01, type: 2, is-constant: 0, is-private: 0, owner: -1, is-agent: 0
    [6]: pos-01-02, type: 2, is-constant: 0, is-private: 0, owner: -1, is-agent: 0
    [7]: pos-01-03, type: 2, is-constant: 0, is-private: 0, owner: -1, is-agent: 0
    [8]: pos-01-04, type: 2, is-constant: 0, is-private: 0, owner: -1, is-agent: 0
    [9]: pos-01-05, type: 2, is-constant: 0, is-private: 0, owner: -1, is-agent: 0
    [10]: pos-01-06, type: 2, is-constant: 0, is-private: 0, owner: -1, is-agent: 0
    [11]: pos-01-07, type: 2, is-constant: 0, is-private: 0, owner: -1, is-agent: 0
    [12]: pos-01-08, type: 2, is-constant: 0, is-private: 0, owner: -1, is-agent: 0
    [13]: pos-01-09, type: 2, is-constant: 0, is-private: 0, owner: -1, is-agent: 0
    [14]: pos-02-01, type: 2, is-constant: 0, is-private: 0, owner: -1, is-agent: 0
    [15]: pos-02-02, type: 2, is-constant: 0, is-private: 0, owner: -1, is-agent: 0
    [16]: pos-02-03, type: 2, is-constant: 0, is-private: 0, owner: -1, is-agent: 0
    [17]: pos-02-04, type: 2, is-constant: 0, is-private: 0, owner: -1, is-agent: 0
    [18]: pos-02-05, type: 2, is-constant: 0, is-private: 0, owner: -1, is-agent: 0
    [19]: pos-02-06, type: 2, is-constant: 0, is-private: 0, owner: -1, is-agent: 0
    [20]: pos-02-07, type: 2, is-constant: 0, is-private: 0, owner: -1, is-agent: 0
    [21]: pos-02-08, type: 2, is-constant: 0, is-private: 0, owner: -1, is-agent: 0
    [22]: pos-02-09, type: 2, is-constant: 0, is-private: 0, owner: -1, is-agent: 0
    [23]: pos-03-01, type: 2, is-constant: 0, is-private: 0, owner: -1, is-agent: 0
    [24]: pos-03-02, type: 2, is-constant: 0, is-private: 0, owner: -1, is-agent: 0
    [25]: pos-03-03, type: 2, is-constant: 0, is-private: 0, owner: -1, is-agent: 0
    [26]: pos-03-04, type: 2, is-constant: 0, is-private: 0, owner: -1, is-agent: 0
    [27]: pos-03-05, type: 2, is-constant: 0, is-private: 0, owner: -1, is-agent: 0
    [28]: pos-03-06, type: 2, is-constant: 0, is-private: 0, owner: -1, is-agent: 0
    [29]: pos-03-07, type: 2, is-constant: 0, is-private: 0, owner: -1, is-agent: 0
    [30]: pos-03-08, type: 2, is-constant: 0, is-private: 0, owner: -1, is-agent: 0
    [31]: pos-03-09, type: 2, is-constant: 0, is-private: 0, owner: -1, is-agent: 0
    [32]: pos-04-01, type: 2, is-constant: 0, is-private: 0, owner: -1, is-agent: 0
    [33]: pos-04-02, type: 2, is-constant: 0, is-private: 0, owner: -1, is-agent: 0
    [34]: pos-04-03, type: 2, is-constant: 0, is-private: 0, owner: -1, is-agent: 0
    [35]: pos-04-04, type: 2, is-constant: 0, is-private: 0, owner: -1, is-agent: 0
    [36]: pos-04-05, type: 2, is-constant: 0, is-private: 0, owner: -1, is-agent: 0
    [37]: pos-04-06, type: 2, is-constant: 0, is-private: 0, owner: -1, is-agent: 0
    [38]: pos-04-07, type: 2, is-constant: 0, is-private: 0, owner: -1, is-agent: 0
    [39]: pos-04-08, type: 2, is-constant: 0, is-private: 0, owner: -1, is-agent: 0
    [40]: pos-04-09, type: 2, is-constant: 0, is-private: 0, owner: -1, is-agent: 0
    [41]: pos-05-01, type: 2, is-constant: 0, is-private: 0, owner: -1, is-agent: 0
    [42]: pos-05-02, type: 2, is-constant: 0, is-private: 0, owner: -1, is-agent: 0
    [43]: pos-05-03, type: 2, is-constant: 0, is-private: 0, owner: -1, is-agent: 0
    [44]: pos-05-04, type: 2, is-constant: 0, is-private: 0, owner: -1, is-agent: 0
    [45]: pos-05-05, type: 2, is-constant: 0, is-private: 0, owner: -1, is-agent: 0
    [46]: pos-05-06, type: 2, is-constant: 0, is-private: 0, owner: -1, is-agent: 0
    [47]: pos-05-07, type: 2, is-constant: 0, is-private: 0, owner: -1, is-agent: 0
    [48]: pos-05-08, type: 2, is-constant: 0, is-private: 0, owner: -1, is-agent: 0
    [49]: pos-05-09, type: 2, is-constant: 0, is-private: 0, owner: -1, is-agent: 0
    [50]: pos-06-01, type: 2, is-constant: 0, is-private: 0, owner: -1, is-agent: 0
    [51]: pos-06-02, type: 2, is-constant: 0, is-private: 0, owner: -1, is-agent: 0
    [52]: pos-06-03, type: 2, is-constant: 0, is-private: 0, owner: -1, is-agent: 0
    [53]: pos-06-04, type: 2, is-constant: 0, is-private: 0, owner: -1, is-agent: 0
    [54]: pos-06-05, type: 2, is-constant: 0, is-private: 0, owner: -1, is-agent: 0
    [55]: pos-06-06, type: 2, is-constant: 0, is-private: 0, owner: -1, is-agent: 0
    [56]: pos-06-07, type: 2, is-constant: 0, is-private: 0, owner: -1, is-agent: 0
    [57]: pos-06-08, type: 2, is-constant: 0, is-private: 0, owner: -1, is-agent: 0
    [58]: pos-06-09, type: 2, is-constant: 0, is-private: 0, owner: -1, is-agent: 0
    [59]: pos-07-01, type: 2, is-constant: 0, is-private: 0, owner: -1, is-agent: 0
    [60]: pos-07-02, type: 2, is-constant: 0, is-private: 0, owner: -1, is-agent: 0
    [61]: pos-07-03, type: 2, is-constant: 0, is-private: 0, owner: -1, is-agent: 0
    [62]: pos-07-04, type: 2, is-constant: 0, is-private: 0, owner: -1, is-agent: 0
    [63]: pos-07-05, type: 2, is-constant: 0, is-private: 0, owner: -1, is-agent: 0
    [64]: pos-07-06, type: 2, is-constant: 0, is-private: 0, owner: -1, is-agent: 0
    [65]: pos-07-07, type: 2, is-constant: 0, is-private: 0, owner: -1, is-agent: 0
    [66]: pos-07-08, type: 2, is-constant: 0, is-private: 0, owner: -1, is-agent: 0
    [67]: pos-07-09, type: 2, is-constant: 0, is-private: 0, owner: -1, is-agent: 0
    [68]: pos-08-01, type: 2, is-constant: 0, is-private: 0, owner: -1, is-agent: 0
    [69]: pos-08-02, type: 2, is-constant: 0, is-private: 0, owner: -1, is-agent: 0
    [70]: pos-08-03, type: 2, is-constant: 0, is-private: 0, owner: -1, is-agent: 0
    [71]: pos-08-04, type: 2, is-constant: 0, is-private: 0, owner: -1, is-agent: 0
    [72]: pos-08-05, type: 2, is-constant: 0, is-private: 0, owner: -1, is-agent: 0
    [73]: pos-08-06, type: 2, is-constant: 0, is-private: 0, owner: -1, is-agent: 0
    [74]: pos-08-07, type: 2, is-constant: 0, is-private: 0, owner: -1, is-agent: 0
    [75]: pos-08-08, type: 2, is-constant: 0, is-private: 0, owner: -1, is-agent: 0
    [76]: pos-08-09, type: 2, is-constant: 0, is-private: 0, owner: -1, is-agent: 0
    [77]: pos-09-01, type: 2, is-constant: 0, is-private: 0, owner: -1, is-agent: 0
    [78]: pos-09-02, type: 2, is-constant: 0, is-private: 0, owner: -1, is-agent: 0
    [79]: pos-09-03, type: 2, is-constant: 0, is-private: 0, owner: -1, is-agent: 0
    [80]: pos-09-04, type: 2, is-constant: 0, is-private: 0, owner: -1, is-agent: 0
    [81]: pos-09-05, type: 2, is-constant: 0, is-private: 0, owner: -1, is-agent: 0
    [82]: pos-09-06, type: 2, is-constant: 0, is-private: 0, owner: -1, is-agent: 0
    [83]: pos-09-07, type: 2, is-constant: 0, is-private: 0, owner: -1, is-agent: 0
    [84]: pos-09-08, type: 2, is-constant: 0, is-private: 0, owner: -1, is-agent: 0
    [85]: pos-09-09, type: 2, is-constant: 0, is-private: 0, owner: -1, is-agent: 0
    [86]: pos-10-01, type: 2, is-constant: 0, is-private: 0, owner: -1, is-agent: 0
    [87]: pos-10-02, type: 2, is-constant: 0, is-private: 0, owner: -1, is-agent: 0
    [88]: pos-10-03, type: 2, is-constant: 0, is-private: 0, owner: -1, is-agent: 0
    [89]: pos-10-04, type: 2, is-constant: 0, is-private: 0, owner: -1, is-agent: 0
    [90]: pos-10-05, type: 2, is-constant: 0, is-private: 0, owner: -1, is-agent: 0
    [91]: pos-10-06, type: 2, is-constant: 0, is-private: 0, owner: -1, is-agent: 0
    [92]: pos-10-07, type: 2, is-constant: 0, is-private: 0, owner: -1, is-agent: 0
    [93]: pos-10-08, type: 2, is-constant: 0, is-private: 0, owner: -1, is-agent: 0
    [94]: pos-10-09, type: 2, is-constant: 0, is-private: 0, owner: -1, is-agent: 0
    [95]: stone-01, type: 5, is-constant: 0, is-private: 0, owner: -1, is-agent: 0
    [96]: stone-02, type: 5, is-constant: 0, is-private: 0, owner: -1, is-agent: 0
    [97]: stone-03, type: 5, is-constant: 0, is-private: 0, owner: -1, is-agent: 0
    [98]: stone-04, type: 5, is-constant: 0, is-private: 0, owner: -1, is-agent: 0
Predicate[7]:
    =: 0 0 :: is-private: 0, owner-param: -1, read: 0, write: 0
    clear: 2 :: is-private: 0, owner-param: -1, read: 1, write: 1
    at: 1 2 :: is-private: 0, owner-param: -1, read: 1, write: 1
    at-goal: 5 :: is-private: 0, owner-param: -1, read: 0, write: 1
    is-goal: 2 :: is-private: 0, owner-param: -1, read: 1, write: 0
    is-nongoal: 2 :: is-private: 0, owner-param: -1, read: 1, write: 0
    move-dir: 2 2 3 :: is-private: 0, owner-param: -1, read: 1, write: 0
Function[1]:
    total-cost: :: is-private: 0, owner-param: -1, read: 0, write: 0
Action[3]:
    move: ?p:4 ?from:2 ?to:2 ?dir:3
        pre: (and (RW:at ?p ?from) (RW:clear ?to) (R:move-dir ?from ?to ?dir))
        eff: (and (N:RW:at ?p ?from) (N:RW:clear ?to) (RW:at ?p ?to) (RW:clear ?from))
    push-to-nongoal: ?p:4 ?s:5 ?ppos:2 ?from:2 ?to:2 ?dir:3
        pre: (and (RW:at ?p ?ppos) (RW:at ?s ?from) (RW:clear ?to) (R:move-dir ?ppos ?from ?dir) (R:move-dir ?from ?to ?dir) (R:is-nongoal ?to))
        eff: (and (N:RW:at ?p ?ppos) (N:RW:at ?s ?from) (N:RW:clear ?to) (RW:at ?p ?from) (RW:at ?s ?to) (RW:clear ?ppos) (N:W:at-goal ?s))
    push-to-goal: ?p:4 ?s:5 ?ppos:2 ?from:2 ?to:2 ?dir:3
        pre: (and (RW:at ?p ?ppos) (RW:at ?s ?from) (RW:clear ?to) (R:move-dir ?ppos ?from ?dir) (R:move-dir ?from ?to ?dir) (R:is-goal ?to))
        eff: (and (N:RW:at ?p ?ppos) (N:RW:at ?s ?from) (N:RW:clear ?to) (RW:at ?p ?from) (RW:at ?s ?to) (RW:clear ?ppos) (W:at-goal ?s))
Init[286]:
  S:(is-goal pos-05-05)
  S:(is-goal pos-05-06)
  S:(is-goal pos-05-07)
  S:(is-goal pos-05-08)
  S:(is-nongoal pos-01-01)
  S:(is-nongoal pos-01-02)
  S:(is-nongoal pos-01-03)
  S:(is-nongoal pos-01-04)
  S:(is-nongoal pos-01-05)
  S:(is-nongoal pos-01-06)
  S:(is-nongoal pos-01-07)
  S:(is-nongoal pos-01-08)
  S:(is-nongoal pos-01-09)
  S:(is-nongoal pos-02-01)
  S:(is-nongoal pos-02-02)
  S:(is-nongoal pos-02-03)
  S:(is-nongoal pos-02-04)
  S:(is-nongoal pos-02-05)
  S:(is-nongoal pos-02-06)
  S:(is-nongoal pos-02-07)
  S:(is-nongoal pos-02-08)
  S:(is-nongoal pos-02-09)
  S:(is-nongoal pos-03-01)
  S:(is-nongoal pos-03-02)
  S:(is-nongoal pos-03-03)
  S:(is-nongoal pos-03-04)
  S:(is-nongoal pos-03-05)
  S:(is-nongoal pos-03-06)
  S:(is-nongoal pos-03-07)
  S:(is-nongoal pos-03-08)
  S:(is-nongoal pos-03-09)
  S:(is-nongoal pos-04-01)
  S:(is-nongoal pos-04-02)
  S:(is-nongoal pos-04-03)
  S:(is-nongoal pos-04-04)
  S:(is-nongoal pos-04-05)
  S:(is-nongoal pos-04-06)
  S:(is-nongoal pos-04-07)
  S:(is-nongoal pos-04-08)
  S:(is-nongoal pos-04-09)
  S:(is-nongoal pos-05-01)
  S:(is-nongoal pos-05-02)
  S:(is-nongoal pos-05-03)
  S:(is-nongoal pos-05-04)
  S:(is-nongoal pos-05-09)
  S:(is-nongoal pos-06-01)
  S:(is-nongoal pos-06-02)
  S:(is-nongoal pos-06-03)
  S:(is-nongoal pos-06-04)
  S:(is-nongoal pos-06-05)
  S:(is-nongoal pos-06-06)
  S:(is-nongoal pos-06-07)
  S:(is-nongoal pos-06-08)
  S:(is-nongoal pos-06-09)
  S:(is-nongoal pos-07-01)
  S:(is-nongoal pos-07-02)
  S:(is-nongoal pos-07-03)
  S:(is-nongoal pos-07-04)
  S:(is-nongoal pos-07-05)
  S:(is-nongoal pos-07-06)
  S:(is-nongoal pos-07-07)
  S:(is-nongoal pos-07-08)
  S:(is-nongoal pos-07-09)
  S:(is-nongoal pos-08-01)
  S:(is-nongoal pos-08-02)
  S:(is-nongoal pos-08-03)
  S:(is-nongoal pos-08-04)
  S:(is-nongoal pos-08-05)
  S:(is-nongoal pos-08-06)
  S:(is-nongoal pos-08-07)
  S:(is-nongoal pos-08-08)
  S:(is-nongoal pos-08-09)
  S:(is-nongoal pos-09-01)
  S:(is-nongoal pos-09-02)
  S:(is-nongoal pos-09-03)
  S:(is-nongoal pos-09-04)
  S:(is-nongoal pos-09-05)
  S:(is-nongoal pos-09-06)
  S:(is-nongoal pos-09-07)
  S:(is-nongoal pos-09-08)
  S:(is-nongoal pos-09-09)
  S:(is-nongoal pos-10-01)
  S:(is-nongoal pos-10-02)
  S:(is-nongoal pos-10-03)
  S:(is-nongoal pos-10-04)
  S:(is-nongoal pos-10-05)
  S:(is-nongoal pos-10-06)
  S:(is-nongoal pos-10-07)
  S:(is-nongoal pos-10-08)
  S:(is-nongoal pos-10-09)
  S:(move-dir pos-01-06 pos-01-07 dir-down)
  S:(move-dir pos-01-06 pos-02-06 dir-right)
  S:(move-dir pos-01-07 pos-01-06 dir-up)
  S:(move-dir pos-01-07 pos-01-08 dir-down)
  S:(move-dir pos-01-07 pos-02-07 dir-right)
  S:(move-dir pos-01-08 pos-01-07 dir-up)
  S:(move-dir pos-01-08 pos-01-09 dir-down)
  S:(move-dir pos-01-08 pos-02-08 dir-right)
  S:(move-dir pos-01-09 pos-01-08 dir-up)
  S:(move-dir pos-01-09 pos-02-09 dir-right)
  S:(move-dir pos-02-03 pos-02-04 dir-down)
  S:(move-dir pos-02-03 pos-03-03 dir-right)
  S:(move-dir pos-02-04 pos-02-03 dir-up)
  S:(move-dir pos-02-04 pos-03-04 dir-right)
  S:(move-dir pos-02-06 pos-01-06 dir-left)
  S:(move-dir pos-02-06 pos-02-07 dir-down)
  S:(move-dir pos-02-07 pos-01-07 dir-left)
  S:(move-dir pos-02-07 pos-02-06 dir-up)
  S:(move-dir pos-02-07 pos-02-08 dir-down)
  S:(move-dir pos-02-07 pos-03-07 dir-right)
  S:(move-dir pos-02-08 pos-01-08 dir-left)
  S:(move-dir pos-02-08 pos-02-07 dir-up)
  S:(move-dir pos-02-08 pos-02-09 dir-down)
  S:(move-dir pos-02-08 pos-03-08 dir-right)
  S:(move-dir pos-02-09 pos-01-09 dir-left)
  S:(move-dir pos-02-09 pos-02-08 dir-up)
  S:(move-dir pos-02-09 pos-03-09 dir-right)
  S:(move-dir pos-03-02 pos-03-03 dir-down)
  S:(move-dir pos-03-02 pos-04-02 dir-right)
  S:(move-dir pos-03-03 pos-02-03 dir-left)
  S:(move-dir pos-03-03 pos-03-02 dir-up)
  S:(move-dir pos-03-03 pos-03-04 dir-down)
  S:(move-dir pos-03-03 pos-04-03 dir-right)
  S:(move-dir pos-03-04 pos-02-04 dir-left)
  S:(move-dir pos-03-04 pos-03-03 dir-up)
  S:(move-dir pos-03-04 pos-04-04 dir-right)
  S:(move-dir pos-03-07 pos-02-07 dir-left)
  S:(move-dir pos-03-07 pos-03-08 dir-down)
  S:(move-dir pos-03-08 pos-02-08 dir-left)
  S:(move-dir pos-03-08 pos-03-07 dir-up)
  S:(move-dir pos-03-08 pos-03-09 dir-down)
  S:(move-dir pos-03-09 pos-02-09 dir-left)
  S:(move-dir pos-03-09 pos-03-08 dir-up)
  S:(move-dir pos-04-02 pos-03-02 dir-left)
  S:(move-dir pos-04-02 pos-04-03 dir-down)
  S:(move-dir pos-04-02 pos-05-02 dir-right)
  S:(move-dir pos-04-03 pos-03-03 dir-left)
  S:(move-dir pos-04-03 pos-04-02 dir-up)
  S:(move-dir pos-04-03 pos-04-04 dir-down)
  S:(move-dir pos-04-03 pos-05-03 dir-right)
  S:(move-dir pos-04-04 pos-03-04 dir-left)
  S:(move-dir pos-04-04 pos-04-03 dir-up)
  S:(move-dir pos-04-04 pos-04-05 dir-down)
  S:(move-dir pos-04-04 pos-05-04 dir-right)
  S:(move-dir pos-04-05 pos-04-04 dir-up)
  S:(move-dir pos-04-05 pos-05-05 dir-right)
  S:(move-dir pos-05-02 pos-04-02 dir-left)
  S:(move-dir pos-05-02 pos-05-03 dir-down)
  S:(move-dir pos-05-02 pos-06-02 dir-right)
  S:(move-dir pos-05-03 pos-04-03 dir-left)
  S:(move-dir pos-05-03 pos-05-02 dir-up)
  S:(move-dir pos-05-03 pos-05-04 dir-down)
  S:(move-dir pos-05-03 pos-06-03 dir-right)
  S:(move-dir pos-05-04 pos-04-04 dir-left)
  S:(move-dir pos-05-04 pos-05-03 dir-up)
  S:(move-dir pos-05-04 pos-05-05 dir-down)
  S:(move-dir pos-05-04 pos-06-04 dir-right)
  S:(move-dir pos-05-05 pos-04-05 dir-left)
  S:(move-dir pos-05-05 pos-05-04 dir-up)
  S:(move-dir pos-05-05 pos-05-06 dir-down)
  S:(move-dir pos-05-06 pos-05-05 dir-up)
  S:(move-dir pos-05-06 pos-05-07 dir-down)
  S:(move-dir pos-05-07 pos-05-06 dir-up)
  S:(move-dir pos-05-07 pos-05-08 dir-down)
  S:(move-dir pos-05-07 pos-06-07 dir-right)
  S:(move-dir pos-05-08 pos-05-07 dir-up)
  S:(move-dir pos-05-08 pos-06-08 dir-right)
  S:(move-dir pos-06-02 pos-05-02 dir-left)
  S:(move-dir pos-06-02 pos-06-03 dir-down)
  S:(move-dir pos-06-03 pos-05-03 dir-left)
  S:(move-dir pos-06-03 pos-06-02 dir-up)
  S:(move-dir pos-06-03 pos-06-04 dir-down)
  S:(move-dir pos-06-04 pos-05-04 dir-left)
  S:(move-dir pos-06-04 pos-06-03 dir-up)
  S:(move-dir pos-06-07 pos-05-07 dir-left)
  S:(move-dir pos-06-07 pos-06-08 dir-down)
  S:(move-dir pos-06-07 pos-07-07 dir-right)
  S:(move-dir pos-06-08 pos-05-08 dir-left)
  S:(move-dir pos-06-08 pos-06-07 dir-up)
  S:(move-dir pos-07-06 pos-07-07 dir-down)
  S:(move-dir pos-07-06 pos-08-06 dir-right)
  S:(move-dir pos-07-07 pos-06-07 dir-left)
  S:(move-dir pos-07-07 pos-07-06 dir-up)
  S:(move-dir pos-07-07 pos-08-07 dir-right)
  S:(move-dir pos-08-01 pos-08-02 dir-down)
  S:(move-dir pos-08-01 pos-09-01 dir-right)
  S:(move-dir pos-08-02 pos-08-01 dir-up)
  S:(move-dir pos-08-02 pos-08-03 dir-down)
  S:(move-dir pos-08-02 pos-09-02 dir-right)
  S:(move-dir pos-08-03 pos-08-02 dir-up)
  S:(move-dir pos-08-03 pos-08-04 dir-down)
  S:(move-dir pos-08-03 pos-09-03 dir-right)
  S:(move-dir pos-08-04 pos-08-03 dir-up)
  S:(move-dir pos-08-04 pos-09-04 dir-right)
  S:(move-dir pos-08-06 pos-07-06 dir-left)
  S:(move-dir pos-08-06 pos-08-07 dir-down)
  S:(move-dir pos-08-06 pos-09-06 dir-right)
  S:(move-dir pos-08-07 pos-07-07 dir-left)
  S:(move-dir pos-08-07 pos-08-06 dir-up)
  S:(move-dir pos-08-07 pos-09-07 dir-right)
  S:(move-dir pos-08-09 pos-09-09 dir-right)
  S:(move-dir pos-09-01 pos-08-01 dir-left)
  S:(move-dir pos-09-01 pos-09-02 dir-down)
  S:(move-dir pos-09-01 pos-10-01 dir-right)
  S:(move-dir pos-09-02 pos-08-02 dir-left)
  S:(move-dir pos-09-02 pos-09-01 dir-up)
  S:(move-dir pos-09-02 pos-09-03 dir-down)
  S:(move-dir pos-09-02 pos-10-02 dir-right)
  S:(move-dir pos-09-03 pos-08-03 dir-left)
  S:(move-dir pos-09-03 pos-09-02 dir-up)
  S:(move-dir pos-09-03 pos-09-04 dir-down)
  S:(move-dir pos-09-03 pos-10-03 dir-right)
  S:(move-dir pos-09-04 pos-08-04 dir-left)
  S:(move-dir pos-09-04 pos-09-03 dir-up)
  S:(move-dir pos-09-04 pos-10-04 dir-right)
  S:(move-dir pos-09-06 pos-08-06 dir-left)
  S:(move-dir pos-09-06 pos-09-07 dir-down)
  S:(move-dir pos-09-07 pos-08-07 dir-left)
  S:(move-dir pos-09-07 pos-09-06 dir-up)
  S:(move-dir pos-09-09 pos-08-09 dir-left)
  S:(move-dir pos-09-09 pos-10-09 dir-right)
  S:(move-dir pos-10-01 pos-09-01 dir-left)
  S:(move-dir pos-10-01 pos-10-02 dir-down)
  S:(move-dir pos-10-02 pos-09-02 dir-left)
  S:(move-dir pos-10-02 pos-10-01 dir-up)
  S:(move-dir pos-10-02 pos-10-03 dir-down)
  S:(move-dir pos-10-03 pos-09-03 dir-left)
  S:(move-dir pos-10-03 pos-10-02 dir-up)
  S:(move-dir pos-10-03 pos-10-04 dir-down)
  S:(move-dir pos-10-04 pos-09-04 dir-left)
  S:(move-dir pos-10-04 pos-10-03 dir-up)
  S:(move-dir pos-10-09 pos-09-09 dir-left)
  (at player-01 pos-08-06)
  (at stone-01 pos-05-03)
  (at stone-02 pos-04-04)
  (at stone-03 pos-05-04)
  (at stone-04 pos-08-07)
  (clear pos-01-01)
  (clear pos-01-06)
  (clear pos-01-07)
  (clear pos-01-08)
  (clear pos-01-09)
  (clear pos-02-03)
  (clear pos-02-04)
  (clear pos-02-06)
  (clear pos-02-07)
  (clear pos-02-08)
  (clear pos-02-09)
  (clear pos-03-02)
  (clear pos-03-03)
  (clear pos-03-04)
  (clear pos-03-07)
  (clear pos-03-08)
  (clear pos-03-09)
  (clear pos-04-02)
  (clear pos-04-03)
  (clear pos-04-05)
  (clear pos-05-02)
  (clear pos-05-05)
  (clear pos-05-06)
  (clear pos-05-07)
  (clear pos-05-08)
  (clear pos-06-02)
  (clear pos-06-03)
  (clear pos-06-04)
  (clear pos-06-07)
  (clear pos-06-08)
  (clear pos-07-06)
  (clear pos-07-07)
  (clear pos-08-01)
  (clear pos-08-02)
  (clear pos-08-03)
  (clear pos-08-04)
  (clear pos-08-09)
  (clear pos-09-01)
  (clear pos-09-02)
  (clear pos-09-03)
  (clear pos-09-04)
  (clear pos-09-06)
  (clear pos-09-07)
  (clear pos-09-09)
  (clear pos-10-01)
  (clear pos-10-02)
  (clear pos-10-03)
  (clear pos-10-04)
  (clear pos-10-09)
Init[0]:
Goal: (and (W:at-goal stone-01) (W:at-goal stone-02) (W:at-goal stone-03) (W:at-goal stone-04))
Metric: 0
