Fact[52]:
  (craves abrasion flounder)
  (craves abrasion lamb)
  (craves abrasion okra)
  (craves abrasion pear)
  (craves abrasion pork)
  (craves abrasion rice)
  (craves depression flounder)
  (craves depression lamb)
  (craves depression okra)
  (craves depression pear)
  (craves depression pork)
  (craves depression rice)
  (craves hangover flounder)
  (craves hangover lamb)
  (craves hangover okra)
  (craves hangover pear)
  (craves hangover pork)
  (craves hangover rice)
  (craves rest flounder)
  (craves rest lamb)
  (craves rest okra)
  (craves rest pear)
  (craves rest pork)
  (craves rest rice)
  (fears abrasion rest)
  (fears depression rest)
  (fears hangover rest)
  (harmony rest earth)
  (harmony rest mars)
  (harmony rest uranus)
  (harmony rest venus)
  (locale flounder alsace)
  (locale flounder bosnia)
  (locale flounder pennsylvania)
  (locale flounder surrey)
  (locale lamb bosnia)
  (locale lamb pennsylvania)
  (locale lamb surrey)
  (locale okra alsace)
  (locale okra bosnia)
  (locale okra guanabara)
  (locale okra pennsylvania)
  (locale okra quebec)
  (locale okra surrey)
  (locale pear bosnia)
  (locale pear surrey)
  (locale pork alsace)
  (locale pork bosnia)
  (locale pork pennsylvania)
  (locale pork quebec)
  (locale pork surrey)
  (locale rice bosnia)
Op[151]:
  (feast rest flounder lamb bosnia surrey), cost: 1
    pre: (craves rest flounder) (locale flounder surrey)
    add: (craves rest lamb) (locale flounder bosnia)
    del: (craves rest flounder) (locale flounder surrey)
  (feast rest flounder lamb kentucky bosnia), cost: 1
    pre: (craves rest flounder) (locale flounder bosnia)
    add: (craves rest lamb)
    del: (craves rest flounder) (locale flounder bosnia)
  (feast rest flounder lamb pennsylvania alsace), cost: 1
    pre: (craves rest flounder) (locale flounder alsace)
    add: (craves rest lamb) (locale flounder pennsylvania)
    del: (craves rest flounder) (locale flounder alsace)
  (feast rest flounder lamb surrey pennsylvania), cost: 1
    pre: (craves rest flounder) (locale flounder pennsylvania)
    add: (craves rest lamb) (locale flounder surrey)
    del: (craves rest flounder) (locale flounder pennsylvania)
  (feast rest flounder rice bosnia surrey), cost: 1
    pre: (craves rest flounder) (locale flounder surrey)
    add: (craves rest rice) (locale flounder bosnia)
    del: (craves rest flounder) (locale flounder surrey)
  (feast rest flounder rice kentucky bosnia), cost: 1
    pre: (craves rest flounder) (locale flounder bosnia)
    add: (craves rest rice)
    del: (craves rest flounder) (locale flounder bosnia)
  (feast rest flounder rice pennsylvania alsace), cost: 1
    pre: (craves rest flounder) (locale flounder alsace)
    add: (craves rest rice) (locale flounder pennsylvania)
    del: (craves rest flounder) (locale flounder alsace)
  (feast rest flounder rice surrey pennsylvania), cost: 1
    pre: (craves rest flounder) (locale flounder pennsylvania)
    add: (craves rest rice) (locale flounder surrey)
    del: (craves rest flounder) (locale flounder pennsylvania)
  (feast rest lamb flounder bosnia surrey), cost: 1
    pre: (craves rest lamb) (locale lamb surrey)
    add: (craves rest flounder) (locale lamb bosnia)
    del: (craves rest lamb) (locale lamb surrey)
  (feast rest lamb flounder kentucky bosnia), cost: 1
    pre: (craves rest lamb) (locale lamb bosnia)
    add: (craves rest flounder)
    del: (craves rest lamb) (locale lamb bosnia)
  (feast rest lamb flounder surrey pennsylvania), cost: 1
    pre: (craves rest lamb) (locale lamb pennsylvania)
    add: (craves rest flounder) (locale lamb surrey)
    del: (craves rest lamb) (locale lamb pennsylvania)
  (feast rest lamb pork bosnia surrey), cost: 1
    pre: (craves rest lamb) (locale lamb surrey)
    add: (craves rest pork) (locale lamb bosnia)
    del: (craves rest lamb) (locale lamb surrey)
  (feast rest lamb pork kentucky bosnia), cost: 1
    pre: (craves rest lamb) (locale lamb bosnia)
    add: (craves rest pork)
    del: (craves rest lamb) (locale lamb bosnia)
  (feast rest lamb pork surrey pennsylvania), cost: 1
    pre: (craves rest lamb) (locale lamb pennsylvania)
    add: (craves rest pork) (locale lamb surrey)
    del: (craves rest lamb) (locale lamb pennsylvania)
  (feast rest okra pear alsace quebec), cost: 1
    pre: (craves rest okra) (locale okra quebec)
    add: (craves rest pear) (locale okra alsace)
    del: (craves rest okra) (locale okra quebec)
  (feast rest okra pear bosnia surrey), cost: 1
    pre: (craves rest okra) (locale okra surrey)
    add: (craves rest pear) (locale okra bosnia)
    del: (craves rest okra) (locale okra surrey)
  (feast rest okra pear kentucky bosnia), cost: 1
    pre: (craves rest okra) (locale okra bosnia)
    add: (craves rest pear)
    del: (craves rest okra) (locale okra bosnia)
  (feast rest okra pear pennsylvania alsace), cost: 1
    pre: (craves rest okra) (locale okra alsace)
    add: (craves rest pear) (locale okra pennsylvania)
    del: (craves rest okra) (locale okra alsace)
  (feast rest okra pear quebec guanabara), cost: 1
    pre: (craves rest okra) (locale okra guanabara)
    add: (craves rest pear) (locale okra quebec)
    del: (craves rest okra) (locale okra guanabara)
  (feast rest okra pear surrey pennsylvania), cost: 1
    pre: (craves rest okra) (locale okra pennsylvania)
    add: (craves rest pear) (locale okra surrey)
    del: (craves rest okra) (locale okra pennsylvania)
  (feast rest okra pork alsace quebec), cost: 1
    pre: (craves rest okra) (locale okra quebec)
    add: (craves rest pork) (locale okra alsace)
    del: (craves rest okra) (locale okra quebec)
  (feast rest okra pork bosnia surrey), cost: 1
    pre: (craves rest okra) (locale okra surrey)
    add: (craves rest pork) (locale okra bosnia)
    del: (craves rest okra) (locale okra surrey)
  (feast rest okra pork kentucky bosnia), cost: 1
    pre: (craves rest okra) (locale okra bosnia)
    add: (craves rest pork)
    del: (craves rest okra) (locale okra bosnia)
  (feast rest okra pork pennsylvania alsace), cost: 1
    pre: (craves rest okra) (locale okra alsace)
    add: (craves rest pork) (locale okra pennsylvania)
    del: (craves rest okra) (locale okra alsace)
  (feast rest okra pork quebec guanabara), cost: 1
    pre: (craves rest okra) (locale okra guanabara)
    add: (craves rest pork) (locale okra quebec)
    del: (craves rest okra) (locale okra guanabara)
  (feast rest okra pork surrey pennsylvania), cost: 1
    pre: (craves rest okra) (locale okra pennsylvania)
    add: (craves rest pork) (locale okra surrey)
    del: (craves rest okra) (locale okra pennsylvania)
  (feast rest pear okra bosnia surrey), cost: 1
    pre: (craves rest pear) (locale pear surrey)
    add: (craves rest okra) (locale pear bosnia)
    del: (craves rest pear) (locale pear surrey)
  (feast rest pear okra kentucky bosnia), cost: 1
    pre: (craves rest pear) (locale pear bosnia)
    add: (craves rest okra)
    del: (craves rest pear) (locale pear bosnia)
  (feast rest pear rice bosnia surrey), cost: 1
    pre: (craves rest pear) (locale pear surrey)
    add: (craves rest rice) (locale pear bosnia)
    del: (craves rest pear) (locale pear surrey)
  (feast rest pear rice kentucky bosnia), cost: 1
    pre: (craves rest pear) (locale pear bosnia)
    add: (craves rest rice)
    del: (craves rest pear) (locale pear bosnia)
  (feast rest pork lamb alsace quebec), cost: 1
    pre: (craves rest pork) (locale pork quebec)
    add: (craves rest lamb) (locale pork alsace)
    del: (craves rest pork) (locale pork quebec)
  (feast rest pork lamb bosnia surrey), cost: 1
    pre: (craves rest pork) (locale pork surrey)
    add: (craves rest lamb) (locale pork bosnia)
    del: (craves rest pork) (locale pork surrey)
  (feast rest pork lamb kentucky bosnia), cost: 1
    pre: (craves rest pork) (locale pork bosnia)
    add: (craves rest lamb)
    del: (craves rest pork) (locale pork bosnia)
  (feast rest pork lamb pennsylvania alsace), cost: 1
    pre: (craves rest pork) (locale pork alsace)
    add: (craves rest lamb) (locale pork pennsylvania)
    del: (craves rest pork) (locale pork alsace)
  (feast rest pork lamb surrey pennsylvania), cost: 1
    pre: (craves rest pork) (locale pork pennsylvania)
    add: (craves rest lamb) (locale pork surrey)
    del: (craves rest pork) (locale pork pennsylvania)
  (feast rest pork okra alsace quebec), cost: 1
    pre: (craves rest pork) (locale pork quebec)
    add: (craves rest okra) (locale pork alsace)
    del: (craves rest pork) (locale pork quebec)
  (feast rest pork okra bosnia surrey), cost: 1
    pre: (craves rest pork) (locale pork surrey)
    add: (craves rest okra) (locale pork bosnia)
    del: (craves rest pork) (locale pork surrey)
  (feast rest pork okra kentucky bosnia), cost: 1
    pre: (craves rest pork) (locale pork bosnia)
    add: (craves rest okra)
    del: (craves rest pork) (locale pork bosnia)
  (feast rest pork okra pennsylvania alsace), cost: 1
    pre: (craves rest pork) (locale pork alsace)
    add: (craves rest okra) (locale pork pennsylvania)
    del: (craves rest pork) (locale pork alsace)
  (feast rest pork okra surrey pennsylvania), cost: 1
    pre: (craves rest pork) (locale pork pennsylvania)
    add: (craves rest okra) (locale pork surrey)
    del: (craves rest pork) (locale pork pennsylvania)
  (feast rest rice flounder kentucky bosnia), cost: 1
    pre: (craves rest rice) (locale rice bosnia)
    add: (craves rest flounder)
    del: (craves rest rice) (locale rice bosnia)
  (feast rest rice pear kentucky bosnia), cost: 1
    pre: (craves rest rice) (locale rice bosnia)
    add: (craves rest pear)
    del: (craves rest rice) (locale rice bosnia)
  (feast rest rice rice kentucky bosnia), cost: 1
    pre: (craves rest rice) (locale rice bosnia)
    add:
    del: (locale rice bosnia)
  (overcome abrasion rest flounder earth uranus), cost: 1
    pre: (craves abrasion flounder) (craves rest flounder) (harmony rest uranus)
    add: (fears abrasion rest) (harmony rest earth)
    del: (craves abrasion flounder) (harmony rest uranus)
  (overcome abrasion rest flounder mars earth), cost: 1
    pre: (craves abrasion flounder) (craves rest flounder) (harmony rest earth)
    add: (fears abrasion rest) (harmony rest mars)
    del: (craves abrasion flounder) (harmony rest earth)
  (overcome abrasion rest flounder uranus venus), cost: 1
    pre: (craves abrasion flounder) (craves rest flounder) (harmony rest venus)
    add: (fears abrasion rest) (harmony rest uranus)
    del: (craves abrasion flounder) (harmony rest venus)
  (overcome abrasion rest lamb earth uranus), cost: 1
    pre: (craves abrasion lamb) (craves rest lamb) (harmony rest uranus)
    add: (fears abrasion rest) (harmony rest earth)
    del: (craves abrasion lamb) (harmony rest uranus)
  (overcome abrasion rest lamb mars earth), cost: 1
    pre: (craves abrasion lamb) (craves rest lamb) (harmony rest earth)
    add: (fears abrasion rest) (harmony rest mars)
    del: (craves abrasion lamb) (harmony rest earth)
  (overcome abrasion rest lamb uranus venus), cost: 1
    pre: (craves abrasion lamb) (craves rest lamb) (harmony rest venus)
    add: (fears abrasion rest) (harmony rest uranus)
    del: (craves abrasion lamb) (harmony rest venus)
  (overcome abrasion rest okra earth uranus), cost: 1
    pre: (craves abrasion okra) (craves rest okra) (harmony rest uranus)
    add: (fears abrasion rest) (harmony rest earth)
    del: (craves abrasion okra) (harmony rest uranus)
  (overcome abrasion rest okra mars earth), cost: 1
    pre: (craves abrasion okra) (craves rest okra) (harmony rest earth)
    add: (fears abrasion rest) (harmony rest mars)
    del: (craves abrasion okra) (harmony rest earth)
  (overcome abrasion rest okra uranus venus), cost: 1
    pre: (craves abrasion okra) (craves rest okra) (harmony rest venus)
    add: (fears abrasion rest) (harmony rest uranus)
    del: (craves abrasion okra) (harmony rest venus)
  (overcome abrasion rest pear earth uranus), cost: 1
    pre: (craves abrasion pear) (craves rest pear) (harmony rest uranus)
    add: (fears abrasion rest) (harmony rest earth)
    del: (craves abrasion pear) (harmony rest uranus)
  (overcome abrasion rest pear mars earth), cost: 1
    pre: (craves abrasion pear) (craves rest pear) (harmony rest earth)
    add: (fears abrasion rest) (harmony rest mars)
    del: (craves abrasion pear) (harmony rest earth)
  (overcome abrasion rest pear uranus venus), cost: 1
    pre: (craves abrasion pear) (craves rest pear) (harmony rest venus)
    add: (fears abrasion rest) (harmony rest uranus)
    del: (craves abrasion pear) (harmony rest venus)
  (overcome abrasion rest pork earth uranus), cost: 1
    pre: (craves abrasion pork) (craves rest pork) (harmony rest uranus)
    add: (fears abrasion rest) (harmony rest earth)
    del: (craves abrasion pork) (harmony rest uranus)
  (overcome abrasion rest pork mars earth), cost: 1
    pre: (craves abrasion pork) (craves rest pork) (harmony rest earth)
    add: (fears abrasion rest) (harmony rest mars)
    del: (craves abrasion pork) (harmony rest earth)
  (overcome abrasion rest pork uranus venus), cost: 1
    pre: (craves abrasion pork) (craves rest pork) (harmony rest venus)
    add: (fears abrasion rest) (harmony rest uranus)
    del: (craves abrasion pork) (harmony rest venus)
  (overcome abrasion rest rice earth uranus), cost: 1
    pre: (craves abrasion rice) (craves rest rice) (harmony rest uranus)
    add: (fears abrasion rest) (harmony rest earth)
    del: (craves abrasion rice) (harmony rest uranus)
  (overcome abrasion rest rice mars earth), cost: 1
    pre: (craves abrasion rice) (craves rest rice) (harmony rest earth)
    add: (fears abrasion rest) (harmony rest mars)
    del: (craves abrasion rice) (harmony rest earth)
  (overcome abrasion rest rice uranus venus), cost: 1
    pre: (craves abrasion rice) (craves rest rice) (harmony rest venus)
    add: (fears abrasion rest) (harmony rest uranus)
    del: (craves abrasion rice) (harmony rest venus)
  (overcome depression rest flounder earth uranus), cost: 1
    pre: (craves depression flounder) (craves rest flounder) (harmony rest uranus)
    add: (fears depression rest) (harmony rest earth)
    del: (craves depression flounder) (harmony rest uranus)
  (overcome depression rest flounder mars earth), cost: 1
    pre: (craves depression flounder) (craves rest flounder) (harmony rest earth)
    add: (fears depression rest) (harmony rest mars)
    del: (craves depression flounder) (harmony rest earth)
  (overcome depression rest flounder uranus venus), cost: 1
    pre: (craves depression flounder) (craves rest flounder) (harmony rest venus)
    add: (fears depression rest) (harmony rest uranus)
    del: (craves depression flounder) (harmony rest venus)
  (overcome depression rest lamb earth uranus), cost: 1
    pre: (craves depression lamb) (craves rest lamb) (harmony rest uranus)
    add: (fears depression rest) (harmony rest earth)
    del: (craves depression lamb) (harmony rest uranus)
  (overcome depression rest lamb mars earth), cost: 1
    pre: (craves depression lamb) (craves rest lamb) (harmony rest earth)
    add: (fears depression rest) (harmony rest mars)
    del: (craves depression lamb) (harmony rest earth)
  (overcome depression rest lamb uranus venus), cost: 1
    pre: (craves depression lamb) (craves rest lamb) (harmony rest venus)
    add: (fears depression rest) (harmony rest uranus)
    del: (craves depression lamb) (harmony rest venus)
  (overcome depression rest okra earth uranus), cost: 1
    pre: (craves depression okra) (craves rest okra) (harmony rest uranus)
    add: (fears depression rest) (harmony rest earth)
    del: (craves depression okra) (harmony rest uranus)
  (overcome depression rest okra mars earth), cost: 1
    pre: (craves depression okra) (craves rest okra) (harmony rest earth)
    add: (fears depression rest) (harmony rest mars)
    del: (craves depression okra) (harmony rest earth)
  (overcome depression rest okra uranus venus), cost: 1
    pre: (craves depression okra) (craves rest okra) (harmony rest venus)
    add: (fears depression rest) (harmony rest uranus)
    del: (craves depression okra) (harmony rest venus)
  (overcome depression rest pear earth uranus), cost: 1
    pre: (craves depression pear) (craves rest pear) (harmony rest uranus)
    add: (fears depression rest) (harmony rest earth)
    del: (craves depression pear) (harmony rest uranus)
  (overcome depression rest pear mars earth), cost: 1
    pre: (craves depression pear) (craves rest pear) (harmony rest earth)
    add: (fears depression rest) (harmony rest mars)
    del: (craves depression pear) (harmony rest earth)
  (overcome depression rest pear uranus venus), cost: 1
    pre: (craves depression pear) (craves rest pear) (harmony rest venus)
    add: (fears depression rest) (harmony rest uranus)
    del: (craves depression pear) (harmony rest venus)
  (overcome depression rest pork earth uranus), cost: 1
    pre: (craves depression pork) (craves rest pork) (harmony rest uranus)
    add: (fears depression rest) (harmony rest earth)
    del: (craves depression pork) (harmony rest uranus)
  (overcome depression rest pork mars earth), cost: 1
    pre: (craves depression pork) (craves rest pork) (harmony rest earth)
    add: (fears depression rest) (harmony rest mars)
    del: (craves depression pork) (harmony rest earth)
  (overcome depression rest pork uranus venus), cost: 1
    pre: (craves depression pork) (craves rest pork) (harmony rest venus)
    add: (fears depression rest) (harmony rest uranus)
    del: (craves depression pork) (harmony rest venus)
  (overcome depression rest rice earth uranus), cost: 1
    pre: (craves depression rice) (craves rest rice) (harmony rest uranus)
    add: (fears depression rest) (harmony rest earth)
    del: (craves depression rice) (harmony rest uranus)
  (overcome depression rest rice mars earth), cost: 1
    pre: (craves depression rice) (craves rest rice) (harmony rest earth)
    add: (fears depression rest) (harmony rest mars)
    del: (craves depression rice) (harmony rest earth)
  (overcome depression rest rice uranus venus), cost: 1
    pre: (craves depression rice) (craves rest rice) (harmony rest venus)
    add: (fears depression rest) (harmony rest uranus)
    del: (craves depression rice) (harmony rest venus)
  (overcome hangover rest flounder earth uranus), cost: 1
    pre: (craves hangover flounder) (craves rest flounder) (harmony rest uranus)
    add: (fears hangover rest) (harmony rest earth)
    del: (craves hangover flounder) (harmony rest uranus)
  (overcome hangover rest flounder mars earth), cost: 1
    pre: (craves hangover flounder) (craves rest flounder) (harmony rest earth)
    add: (fears hangover rest) (harmony rest mars)
    del: (craves hangover flounder) (harmony rest earth)
  (overcome hangover rest flounder uranus venus), cost: 1
    pre: (craves hangover flounder) (craves rest flounder) (harmony rest venus)
    add: (fears hangover rest) (harmony rest uranus)
    del: (craves hangover flounder) (harmony rest venus)
  (overcome hangover rest lamb earth uranus), cost: 1
    pre: (craves hangover lamb) (craves rest lamb) (harmony rest uranus)
    add: (fears hangover rest) (harmony rest earth)
    del: (craves hangover lamb) (harmony rest uranus)
  (overcome hangover rest lamb mars earth), cost: 1
    pre: (craves hangover lamb) (craves rest lamb) (harmony rest earth)
    add: (fears hangover rest) (harmony rest mars)
    del: (craves hangover lamb) (harmony rest earth)
  (overcome hangover rest lamb uranus venus), cost: 1
    pre: (craves hangover lamb) (craves rest lamb) (harmony rest venus)
    add: (fears hangover rest) (harmony rest uranus)
    del: (craves hangover lamb) (harmony rest venus)
  (overcome hangover rest okra earth uranus), cost: 1
    pre: (craves hangover okra) (craves rest okra) (harmony rest uranus)
    add: (fears hangover rest) (harmony rest earth)
    del: (craves hangover okra) (harmony rest uranus)
  (overcome hangover rest okra mars earth), cost: 1
    pre: (craves hangover okra) (craves rest okra) (harmony rest earth)
    add: (fears hangover rest) (harmony rest mars)
    del: (craves hangover okra) (harmony rest earth)
  (overcome hangover rest okra uranus venus), cost: 1
    pre: (craves hangover okra) (craves rest okra) (harmony rest venus)
    add: (fears hangover rest) (harmony rest uranus)
    del: (craves hangover okra) (harmony rest venus)
  (overcome hangover rest pear earth uranus), cost: 1
    pre: (craves hangover pear) (craves rest pear) (harmony rest uranus)
    add: (fears hangover rest) (harmony rest earth)
    del: (craves hangover pear) (harmony rest uranus)
  (overcome hangover rest pear mars earth), cost: 1
    pre: (craves hangover pear) (craves rest pear) (harmony rest earth)
    add: (fears hangover rest) (harmony rest mars)
    del: (craves hangover pear) (harmony rest earth)
  (overcome hangover rest pear uranus venus), cost: 1
    pre: (craves hangover pear) (craves rest pear) (harmony rest venus)
    add: (fears hangover rest) (harmony rest uranus)
    del: (craves hangover pear) (harmony rest venus)
  (overcome hangover rest pork earth uranus), cost: 1
    pre: (craves hangover pork) (craves rest pork) (harmony rest uranus)
    add: (fears hangover rest) (harmony rest earth)
    del: (craves hangover pork) (harmony rest uranus)
  (overcome hangover rest pork mars earth), cost: 1
    pre: (craves hangover pork) (craves rest pork) (harmony rest earth)
    add: (fears hangover rest) (harmony rest mars)
    del: (craves hangover pork) (harmony rest earth)
  (overcome hangover rest pork uranus venus), cost: 1
    pre: (craves hangover pork) (craves rest pork) (harmony rest venus)
    add: (fears hangover rest) (harmony rest uranus)
    del: (craves hangover pork) (harmony rest venus)
  (overcome hangover rest rice earth uranus), cost: 1
    pre: (craves hangover rice) (craves rest rice) (harmony rest uranus)
    add: (fears hangover rest) (harmony rest earth)
    del: (craves hangover rice) (harmony rest uranus)
  (overcome hangover rest rice mars earth), cost: 1
    pre: (craves hangover rice) (craves rest rice) (harmony rest earth)
    add: (fears hangover rest) (harmony rest mars)
    del: (craves hangover rice) (harmony rest earth)
  (overcome hangover rest rice uranus venus), cost: 1
    pre: (craves hangover rice) (craves rest rice) (harmony rest venus)
    add: (fears hangover rest) (harmony rest uranus)
    del: (craves hangover rice) (harmony rest venus)
  (succumb abrasion rest flounder earth uranus), cost: 1
    pre: (craves rest flounder) (fears abrasion rest) (harmony rest earth)
    add: (craves abrasion flounder) (harmony rest uranus)
    del: (fears abrasion rest) (harmony rest earth)
  (succumb abrasion rest flounder mars earth), cost: 1
    pre: (craves rest flounder) (fears abrasion rest) (harmony rest mars)
    add: (craves abrasion flounder) (harmony rest earth)
    del: (fears abrasion rest) (harmony rest mars)
  (succumb abrasion rest flounder uranus venus), cost: 1
    pre: (craves rest flounder) (fears abrasion rest) (harmony rest uranus)
    add: (craves abrasion flounder) (harmony rest venus)
    del: (fears abrasion rest) (harmony rest uranus)
  (succumb abrasion rest lamb earth uranus), cost: 1
    pre: (craves rest lamb) (fears abrasion rest) (harmony rest earth)
    add: (craves abrasion lamb) (harmony rest uranus)
    del: (fears abrasion rest) (harmony rest earth)
  (succumb abrasion rest lamb mars earth), cost: 1
    pre: (craves rest lamb) (fears abrasion rest) (harmony rest mars)
    add: (craves abrasion lamb) (harmony rest earth)
    del: (fears abrasion rest) (harmony rest mars)
  (succumb abrasion rest lamb uranus venus), cost: 1
    pre: (craves rest lamb) (fears abrasion rest) (harmony rest uranus)
    add: (craves abrasion lamb) (harmony rest venus)
    del: (fears abrasion rest) (harmony rest uranus)
  (succumb abrasion rest okra earth uranus), cost: 1
    pre: (craves rest okra) (fears abrasion rest) (harmony rest earth)
    add: (craves abrasion okra) (harmony rest uranus)
    del: (fears abrasion rest) (harmony rest earth)
  (succumb abrasion rest okra mars earth), cost: 1
    pre: (craves rest okra) (fears abrasion rest) (harmony rest mars)
    add: (craves abrasion okra) (harmony rest earth)
    del: (fears abrasion rest) (harmony rest mars)
  (succumb abrasion rest okra uranus venus), cost: 1
    pre: (craves rest okra) (fears abrasion rest) (harmony rest uranus)
    add: (craves abrasion okra) (harmony rest venus)
    del: (fears abrasion rest) (harmony rest uranus)
  (succumb abrasion rest pear earth uranus), cost: 1
    pre: (craves rest pear) (fears abrasion rest) (harmony rest earth)
    add: (craves abrasion pear) (harmony rest uranus)
    del: (fears abrasion rest) (harmony rest earth)
  (succumb abrasion rest pear mars earth), cost: 1
    pre: (craves rest pear) (fears abrasion rest) (harmony rest mars)
    add: (craves abrasion pear) (harmony rest earth)
    del: (fears abrasion rest) (harmony rest mars)
  (succumb abrasion rest pear uranus venus), cost: 1
    pre: (craves rest pear) (fears abrasion rest) (harmony rest uranus)
    add: (craves abrasion pear) (harmony rest venus)
    del: (fears abrasion rest) (harmony rest uranus)
  (succumb abrasion rest pork earth uranus), cost: 1
    pre: (craves rest pork) (fears abrasion rest) (harmony rest earth)
    add: (craves abrasion pork) (harmony rest uranus)
    del: (fears abrasion rest) (harmony rest earth)
  (succumb abrasion rest pork mars earth), cost: 1
    pre: (craves rest pork) (fears abrasion rest) (harmony rest mars)
    add: (craves abrasion pork) (harmony rest earth)
    del: (fears abrasion rest) (harmony rest mars)
  (succumb abrasion rest pork uranus venus), cost: 1
    pre: (craves rest pork) (fears abrasion rest) (harmony rest uranus)
    add: (craves abrasion pork) (harmony rest venus)
    del: (fears abrasion rest) (harmony rest uranus)
  (succumb abrasion rest rice earth uranus), cost: 1
    pre: (craves rest rice) (fears abrasion rest) (harmony rest earth)
    add: (craves abrasion rice) (harmony rest uranus)
    del: (fears abrasion rest) (harmony rest earth)
  (succumb abrasion rest rice mars earth), cost: 1
    pre: (craves rest rice) (fears abrasion rest) (harmony rest mars)
    add: (craves abrasion rice) (harmony rest earth)
    del: (fears abrasion rest) (harmony rest mars)
  (succumb abrasion rest rice uranus venus), cost: 1
    pre: (craves rest rice) (fears abrasion rest) (harmony rest uranus)
    add: (craves abrasion rice) (harmony rest venus)
    del: (fears abrasion rest) (harmony rest uranus)
  (succumb depression rest flounder earth uranus), cost: 1
    pre: (craves rest flounder) (fears depression rest) (harmony rest earth)
    add: (craves depression flounder) (harmony rest uranus)
    del: (fears depression rest) (harmony rest earth)
  (succumb depression rest flounder mars earth), cost: 1
    pre: (craves rest flounder) (fears depression rest) (harmony rest mars)
    add: (craves depression flounder) (harmony rest earth)
    del: (fears depression rest) (harmony rest mars)
  (succumb depression rest flounder uranus venus), cost: 1
    pre: (craves rest flounder) (fears depression rest) (harmony rest uranus)
    add: (craves depression flounder) (harmony rest venus)
    del: (fears depression rest) (harmony rest uranus)
  (succumb depression rest lamb earth uranus), cost: 1
    pre: (craves rest lamb) (fears depression rest) (harmony rest earth)
    add: (craves depression lamb) (harmony rest uranus)
    del: (fears depression rest) (harmony rest earth)
  (succumb depression rest lamb mars earth), cost: 1
    pre: (craves rest lamb) (fears depression rest) (harmony rest mars)
    add: (craves depression lamb) (harmony rest earth)
    del: (fears depression rest) (harmony rest mars)
  (succumb depression rest lamb uranus venus), cost: 1
    pre: (craves rest lamb) (fears depression rest) (harmony rest uranus)
    add: (craves depression lamb) (harmony rest venus)
    del: (fears depression rest) (harmony rest uranus)
  (succumb depression rest okra earth uranus), cost: 1
    pre: (craves rest okra) (fears depression rest) (harmony rest earth)
    add: (craves depression okra) (harmony rest uranus)
    del: (fears depression rest) (harmony rest earth)
  (succumb depression rest okra mars earth), cost: 1
    pre: (craves rest okra) (fears depression rest) (harmony rest mars)
    add: (craves depression okra) (harmony rest earth)
    del: (fears depression rest) (harmony rest mars)
  (succumb depression rest okra uranus venus), cost: 1
    pre: (craves rest okra) (fears depression rest) (harmony rest uranus)
    add: (craves depression okra) (harmony rest venus)
    del: (fears depression rest) (harmony rest uranus)
  (succumb depression rest pear earth uranus), cost: 1
    pre: (craves rest pear) (fears depression rest) (harmony rest earth)
    add: (craves depression pear) (harmony rest uranus)
    del: (fears depression rest) (harmony rest earth)
  (succumb depression rest pear mars earth), cost: 1
    pre: (craves rest pear) (fears depression rest) (harmony rest mars)
    add: (craves depression pear) (harmony rest earth)
    del: (fears depression rest) (harmony rest mars)
  (succumb depression rest pear uranus venus), cost: 1
    pre: (craves rest pear) (fears depression rest) (harmony rest uranus)
    add: (craves depression pear) (harmony rest venus)
    del: (fears depression rest) (harmony rest uranus)
  (succumb depression rest pork earth uranus), cost: 1
    pre: (craves rest pork) (fears depression rest) (harmony rest earth)
    add: (craves depression pork) (harmony rest uranus)
    del: (fears depression rest) (harmony rest earth)
  (succumb depression rest pork mars earth), cost: 1
    pre: (craves rest pork) (fears depression rest) (harmony rest mars)
    add: (craves depression pork) (harmony rest earth)
    del: (fears depression rest) (harmony rest mars)
  (succumb depression rest pork uranus venus), cost: 1
    pre: (craves rest pork) (fears depression rest) (harmony rest uranus)
    add: (craves depression pork) (harmony rest venus)
    del: (fears depression rest) (harmony rest uranus)
  (succumb depression rest rice earth uranus), cost: 1
    pre: (craves rest rice) (fears depression rest) (harmony rest earth)
    add: (craves depression rice) (harmony rest uranus)
    del: (fears depression rest) (harmony rest earth)
  (succumb depression rest rice mars earth), cost: 1
    pre: (craves rest rice) (fears depression rest) (harmony rest mars)
    add: (craves depression rice) (harmony rest earth)
    del: (fears depression rest) (harmony rest mars)
  (succumb depression rest rice uranus venus), cost: 1
    pre: (craves rest rice) (fears depression rest) (harmony rest uranus)
    add: (craves depression rice) (harmony rest venus)
    del: (fears depression rest) (harmony rest uranus)
  (succumb hangover rest flounder earth uranus), cost: 1
    pre: (craves rest flounder) (fears hangover rest) (harmony rest earth)
    add: (craves hangover flounder) (harmony rest uranus)
    del: (fears hangover rest) (harmony rest earth)
  (succumb hangover rest flounder mars earth), cost: 1
    pre: (craves rest flounder) (fears hangover rest) (harmony rest mars)
    add: (craves hangover flounder) (harmony rest earth)
    del: (fears hangover rest) (harmony rest mars)
  (succumb hangover rest flounder uranus venus), cost: 1
    pre: (craves rest flounder) (fears hangover rest) (harmony rest uranus)
    add: (craves hangover flounder) (harmony rest venus)
    del: (fears hangover rest) (harmony rest uranus)
  (succumb hangover rest lamb earth uranus), cost: 1
    pre: (craves rest lamb) (fears hangover rest) (harmony rest earth)
    add: (craves hangover lamb) (harmony rest uranus)
    del: (fears hangover rest) (harmony rest earth)
  (succumb hangover rest lamb mars earth), cost: 1
    pre: (craves rest lamb) (fears hangover rest) (harmony rest mars)
    add: (craves hangover lamb) (harmony rest earth)
    del: (fears hangover rest) (harmony rest mars)
  (succumb hangover rest lamb uranus venus), cost: 1
    pre: (craves rest lamb) (fears hangover rest) (harmony rest uranus)
    add: (craves hangover lamb) (harmony rest venus)
    del: (fears hangover rest) (harmony rest uranus)
  (succumb hangover rest okra earth uranus), cost: 1
    pre: (craves rest okra) (fears hangover rest) (harmony rest earth)
    add: (craves hangover okra) (harmony rest uranus)
    del: (fears hangover rest) (harmony rest earth)
  (succumb hangover rest okra mars earth), cost: 1
    pre: (craves rest okra) (fears hangover rest) (harmony rest mars)
    add: (craves hangover okra) (harmony rest earth)
    del: (fears hangover rest) (harmony rest mars)
  (succumb hangover rest okra uranus venus), cost: 1
    pre: (craves rest okra) (fears hangover rest) (harmony rest uranus)
    add: (craves hangover okra) (harmony rest venus)
    del: (fears hangover rest) (harmony rest uranus)
  (succumb hangover rest pear earth uranus), cost: 1
    pre: (craves rest pear) (fears hangover rest) (harmony rest earth)
    add: (craves hangover pear) (harmony rest uranus)
    del: (fears hangover rest) (harmony rest earth)
  (succumb hangover rest pear mars earth), cost: 1
    pre: (craves rest pear) (fears hangover rest) (harmony rest mars)
    add: (craves hangover pear) (harmony rest earth)
    del: (fears hangover rest) (harmony rest mars)
  (succumb hangover rest pear uranus venus), cost: 1
    pre: (craves rest pear) (fears hangover rest) (harmony rest uranus)
    add: (craves hangover pear) (harmony rest venus)
    del: (fears hangover rest) (harmony rest uranus)
  (succumb hangover rest pork earth uranus), cost: 1
    pre: (craves rest pork) (fears hangover rest) (harmony rest earth)
    add: (craves hangover pork) (harmony rest uranus)
    del: (fears hangover rest) (harmony rest earth)
  (succumb hangover rest pork mars earth), cost: 1
    pre: (craves rest pork) (fears hangover rest) (harmony rest mars)
    add: (craves hangover pork) (harmony rest earth)
    del: (fears hangover rest) (harmony rest mars)
  (succumb hangover rest pork uranus venus), cost: 1
    pre: (craves rest pork) (fears hangover rest) (harmony rest uranus)
    add: (craves hangover pork) (harmony rest venus)
    del: (fears hangover rest) (harmony rest uranus)
  (succumb hangover rest rice earth uranus), cost: 1
    pre: (craves rest rice) (fears hangover rest) (harmony rest earth)
    add: (craves hangover rice) (harmony rest uranus)
    del: (fears hangover rest) (harmony rest earth)
  (succumb hangover rest rice mars earth), cost: 1
    pre: (craves rest rice) (fears hangover rest) (harmony rest mars)
    add: (craves hangover rice) (harmony rest earth)
    del: (fears hangover rest) (harmony rest mars)
  (succumb hangover rest rice uranus venus), cost: 1
    pre: (craves rest rice) (fears hangover rest) (harmony rest uranus)
    add: (craves hangover rice) (harmony rest venus)
    del: (fears hangover rest) (harmony rest uranus)
Init State: (craves abrasion pork) (craves depression flounder) (craves hangover rice) (craves rest pork) (harmony rest venus) (locale flounder alsace) (locale lamb pennsylvania) (locale okra guanabara) (locale pear surrey) (locale pork quebec) (locale rice bosnia)
Goal: (craves abrasion rice)
