Domain: mystery-prime-strips
Problem: strips-mprime-x-10
Require: ff
Type[1]:
    [0]: object, parent: -1
Obj-by-Type:
    [0]: 0 1 2 3 4 5 6 7 8 9 10 11 12 13 14 15 16 17 18 19 20 21 22 23 24 25 26 27 28 29 30 31 32 33 34 35 36 37 38 39 40 41 42 43 44 45 46 47 48 49 50 51 52 53 54 55 56 57 58 59 60 61 62 63 64 65 66 67 68 69 70 71 72 73 74 75 76
Obj[77]:
    [0]: tofu, type: 0, is-constant: 0, is-private: 0, owner: -1, is-agent: 0
    [1]: snickers, type: 0, is-constant: 0, is-private: 0, owner: -1, is-agent: 0
    [2]: popover, type: 0, is-constant: 0, is-private: 0, owner: -1, is-agent: 0
    [3]: lamb, type: 0, is-constant: 0, is-private: 0, owner: -1, is-agent: 0
    [4]: potato, type: 0, is-constant: 0, is-private: 0, owner: -1, is-agent: 0
    [5]: melon, type: 0, is-constant: 0, is-private: 0, owner: -1, is-agent: 0
    [6]: beef, type: 0, is-constant: 0, is-private: 0, owner: -1, is-agent: 0
    [7]: pork, type: 0, is-constant: 0, is-private: 0, owner: -1, is-agent: 0
    [8]: bacon, type: 0, is-constant: 0, is-private: 0, owner: -1, is-agent: 0
    [9]: orange, type: 0, is-constant: 0, is-private: 0, owner: -1, is-agent: 0
    [10]: ham, type: 0, is-constant: 0, is-private: 0, owner: -1, is-agent: 0
    [11]: kale, type: 0, is-constant: 0, is-private: 0, owner: -1, is-agent: 0
    [12]: pepper, type: 0, is-constant: 0, is-private: 0, owner: -1, is-agent: 0
    [13]: hamburger, type: 0, is-constant: 0, is-private: 0, owner: -1, is-agent: 0
    [14]: cantelope, type: 0, is-constant: 0, is-private: 0, owner: -1, is-agent: 0
    [15]: flounder, type: 0, is-constant: 0, is-private: 0, owner: -1, is-agent: 0
    [16]: grapefruit, type: 0, is-constant: 0, is-private: 0, owner: -1, is-agent: 0
    [17]: wurst, type: 0, is-constant: 0, is-private: 0, owner: -1, is-agent: 0
    [18]: arugula, type: 0, is-constant: 0, is-private: 0, owner: -1, is-agent: 0
    [19]: triumph, type: 0, is-constant: 0, is-private: 0, owner: -1, is-agent: 0
    [20]: stimulation, type: 0, is-constant: 0, is-private: 0, owner: -1, is-agent: 0
    [21]: expectation, type: 0, is-constant: 0, is-private: 0, owner: -1, is-agent: 0
    [22]: rest, type: 0, is-constant: 0, is-private: 0, owner: -1, is-agent: 0
    [23]: love, type: 0, is-constant: 0, is-private: 0, owner: -1, is-agent: 0
    [24]: satisfaction, type: 0, is-constant: 0, is-private: 0, owner: -1, is-agent: 0
    [25]: learning, type: 0, is-constant: 0, is-private: 0, owner: -1, is-agent: 0
    [26]: aesthetics, type: 0, is-constant: 0, is-private: 0, owner: -1, is-agent: 0
    [27]: intoxication, type: 0, is-constant: 0, is-private: 0, owner: -1, is-agent: 0
    [28]: laceration, type: 0, is-constant: 0, is-private: 0, owner: -1, is-agent: 0
    [29]: depression, type: 0, is-constant: 0, is-private: 0, owner: -1, is-agent: 0
    [30]: loneliness, type: 0, is-constant: 0, is-private: 0, owner: -1, is-agent: 0
    [31]: hangover, type: 0, is-constant: 0, is-private: 0, owner: -1, is-agent: 0
    [32]: prostatitis, type: 0, is-constant: 0, is-private: 0, owner: -1, is-agent: 0
    [33]: angina, type: 0, is-constant: 0, is-private: 0, owner: -1, is-agent: 0
    [34]: anger, type: 0, is-constant: 0, is-private: 0, owner: -1, is-agent: 0
    [35]: grief, type: 0, is-constant: 0, is-private: 0, owner: -1, is-agent: 0
    [36]: anxiety, type: 0, is-constant: 0, is-private: 0, owner: -1, is-agent: 0
    [37]: sciatica, type: 0, is-constant: 0, is-private: 0, owner: -1, is-agent: 0
    [38]: jealousy, type: 0, is-constant: 0, is-private: 0, owner: -1, is-agent: 0
    [39]: boils, type: 0, is-constant: 0, is-private: 0, owner: -1, is-agent: 0
    [40]: dread, type: 0, is-constant: 0, is-private: 0, owner: -1, is-agent: 0
    [41]: loneliness-1, type: 0, is-constant: 0, is-private: 0, owner: -1, is-agent: 0
    [42]: grief-2, type: 0, is-constant: 0, is-private: 0, owner: -1, is-agent: 0
    [43]: abrasion, type: 0, is-constant: 0, is-private: 0, owner: -1, is-agent: 0
    [44]: dread-8, type: 0, is-constant: 0, is-private: 0, owner: -1, is-agent: 0
    [45]: angina-3, type: 0, is-constant: 0, is-private: 0, owner: -1, is-agent: 0
    [46]: sciatica-4, type: 0, is-constant: 0, is-private: 0, owner: -1, is-agent: 0
    [47]: anger-7, type: 0, is-constant: 0, is-private: 0, owner: -1, is-agent: 0
    [48]: abrasion-5, type: 0, is-constant: 0, is-private: 0, owner: -1, is-agent: 0
    [49]: hangover-6, type: 0, is-constant: 0, is-private: 0, owner: -1, is-agent: 0
    [50]: jealousy-16, type: 0, is-constant: 0, is-private: 0, owner: -1, is-agent: 0
    [51]: anxiety-12, type: 0, is-constant: 0, is-private: 0, owner: -1, is-agent: 0
    [52]: prostatitis-13, type: 0, is-constant: 0, is-private: 0, owner: -1, is-agent: 0
    [53]: depression-14, type: 0, is-constant: 0, is-private: 0, owner: -1, is-agent: 0
    [54]: boils-15, type: 0, is-constant: 0, is-private: 0, owner: -1, is-agent: 0
    [55]: loneliness-9, type: 0, is-constant: 0, is-private: 0, owner: -1, is-agent: 0
    [56]: anger-10, type: 0, is-constant: 0, is-private: 0, owner: -1, is-agent: 0
    [57]: laceration-11, type: 0, is-constant: 0, is-private: 0, owner: -1, is-agent: 0
    [58]: angina-30, type: 0, is-constant: 0, is-private: 0, owner: -1, is-agent: 0
    [59]: dread-31, type: 0, is-constant: 0, is-private: 0, owner: -1, is-agent: 0
    [60]: boils-32, type: 0, is-constant: 0, is-private: 0, owner: -1, is-agent: 0
    [61]: laceration-27, type: 0, is-constant: 0, is-private: 0, owner: -1, is-agent: 0
    [62]: jealousy-28, type: 0, is-constant: 0, is-private: 0, owner: -1, is-agent: 0
    [63]: hangover-29, type: 0, is-constant: 0, is-private: 0, owner: -1, is-agent: 0
    [64]: prostatitis-24, type: 0, is-constant: 0, is-private: 0, owner: -1, is-agent: 0
    [65]: anxiety-25, type: 0, is-constant: 0, is-private: 0, owner: -1, is-agent: 0
    [66]: grief-26, type: 0, is-constant: 0, is-private: 0, owner: -1, is-agent: 0
    [67]: surrey, type: 0, is-constant: 0, is-private: 0, owner: -1, is-agent: 0
    [68]: moravia, type: 0, is-constant: 0, is-private: 0, owner: -1, is-agent: 0
    [69]: quebec, type: 0, is-constant: 0, is-private: 0, owner: -1, is-agent: 0
    [70]: oregon, type: 0, is-constant: 0, is-private: 0, owner: -1, is-agent: 0
    [71]: alsace, type: 0, is-constant: 0, is-private: 0, owner: -1, is-agent: 0
    [72]: kentucky, type: 0, is-constant: 0, is-private: 0, owner: -1, is-agent: 0
    [73]: mercury, type: 0, is-constant: 0, is-private: 0, owner: -1, is-agent: 0
    [74]: mars, type: 0, is-constant: 0, is-private: 0, owner: -1, is-agent: 0
    [75]: neptune, type: 0, is-constant: 0, is-private: 0, owner: -1, is-agent: 0
    [76]: pluto, type: 0, is-constant: 0, is-private: 0, owner: -1, is-agent: 0
Predicate[13]:
    =: 0 0 :: is-private: 0, owner-param: -1, read: 1, write: 0
    province: 0 :: is-private: 0, owner-param: -1, read: 0, write: 0
    planet: 0 :: is-private: 0, owner-param: -1, read: 1, write: 0
    food: 0 :: is-private: 0, owner-param: -1, read: 1, write: 0
    pleasure: 0 :: is-private: 0, owner-param: -1, read: 1, write: 0
    pain: 0 :: is-private: 0, owner-param: -1, read: 1, write: 0
    eats: 0 0 :: is-private: 0, owner-param: -1, read: 1, write: 0
    craves: 0 0 :: is-private: 0, owner-param: -1, read: 1, write: 1
    fears: 0 0 :: is-private: 0, owner-param: -1, read: 1, write: 1
    locale: 0 0 :: is-private: 0, owner-param: -1, read: 1, write: 1
    harmony: 0 0 :: is-private: 0, owner-param: -1, read: 1, write: 1
    attacks: 0 0 :: is-private: 0, owner-param: -1, read: 1, write: 0
    orbits: 0 0 :: is-private: 0, owner-param: -1, read: 1, write: 0
Function[0]:
Action[4]:
    overcome: ?c:0 ?v:0 ?n:0 ?s1:0 ?s2:0
        pre: (and (R:pain ?c) (R:pleasure ?v) (RW:craves ?c ?n) (RW:craves ?v ?n) (R:food ?n) (RW:harmony ?v ?s2) (R:planet ?s2) (R:orbits ?s1 ?s2) (R:planet ?s1))
        eff: (and (N:RW:craves ?c ?n) (RW:fears ?c ?v) (N:RW:harmony ?v ?s2) (RW:harmony ?v ?s1))
    feast: ?v:0 ?n1:0 ?n2:0 ?l1:0 ?l2:0
        pre: (and (RW:craves ?v ?n1) (R:food ?n1) (R:pleasure ?v) (R:eats ?n1 ?n2) (R:food ?n2) (RW:locale ?n1 ?l2) (R:attacks ?l1 ?l2))
        eff: (and (N:RW:craves ?v ?n1) (RW:craves ?v ?n2) (N:RW:locale ?n1 ?l2) (RW:locale ?n1 ?l1))
    succumb: ?c:0 ?v:0 ?n:0 ?s1:0 ?s2:0
        pre: (and (RW:fears ?c ?v) (R:pain ?c) (R:pleasure ?v) (RW:craves ?v ?n) (R:food ?n) (RW:harmony ?v ?s1) (R:orbits ?s1 ?s2))
        eff: (and (N:RW:fears ?c ?v) (RW:craves ?c ?n) (N:RW:harmony ?v ?s1) (RW:harmony ?v ?s2))
    drink: ?n1:0 ?n2:0 ?l11:0 ?l12:0 ?l13:0 ?l21:0 ?l22:0
        pre: (and (N:R:= ?n1 ?n2) (RW:locale ?n1 ?l11) (R:attacks ?l12 ?l11) (R:attacks ?l13 ?l12) (RW:locale ?n2 ?l21) (R:attacks ?l21 ?l22))
        eff: (and (N:RW:locale ?n1 ?l11) (RW:locale ?n1 ?l12) (N:RW:locale ?n2 ?l21) (RW:locale ?n2 ?l22))
Init[209]:
  S:(food tofu)
  S:(food snickers)
  S:(food popover)
  S:(food lamb)
  S:(food potato)
  S:(food melon)
  S:(food beef)
  S:(food pork)
  S:(food bacon)
  S:(food orange)
  S:(food ham)
  S:(food kale)
  S:(food pepper)
  S:(food hamburger)
  S:(food cantelope)
  S:(food flounder)
  S:(food grapefruit)
  S:(food wurst)
  S:(food arugula)
  S:(pleasure triumph)
  S:(pleasure stimulation)
  S:(pleasure expectation)
  S:(pleasure rest)
  S:(pleasure love)
  S:(pleasure satisfaction)
  S:(pleasure learning)
  S:(pleasure aesthetics)
  S:(pleasure intoxication)
  S:(pain laceration)
  S:(pain depression)
  S:(pain loneliness)
  S:(pain hangover)
  S:(pain prostatitis)
  S:(pain angina)
  S:(pain anger)
  S:(pain grief)
  S:(pain anxiety)
  S:(pain sciatica)
  S:(pain jealousy)
  S:(pain boils)
  S:(pain dread)
  S:(pain loneliness-1)
  S:(pain grief-2)
  S:(pain abrasion)
  S:(pain dread-8)
  S:(pain angina-3)
  S:(pain sciatica-4)
  S:(pain anger-7)
  S:(pain abrasion-5)
  S:(pain hangover-6)
  S:(pain jealousy-16)
  S:(pain anxiety-12)
  S:(pain prostatitis-13)
  S:(pain depression-14)
  S:(pain boils-15)
  S:(pain loneliness-9)
  S:(pain anger-10)
  S:(pain laceration-11)
  S:(pain angina-30)
  S:(pain dread-31)
  S:(pain boils-32)
  S:(pain laceration-27)
  S:(pain jealousy-28)
  S:(pain hangover-29)
  S:(pain prostatitis-24)
  S:(pain anxiety-25)
  S:(pain grief-26)
  S:(province surrey)
  S:(province moravia)
  S:(province quebec)
  S:(province oregon)
  S:(province alsace)
  S:(province kentucky)
  S:(planet mercury)
  S:(planet mars)
  S:(planet neptune)
  S:(planet pluto)
  S:(eats snickers potato)
  S:(eats wurst grapefruit)
  S:(attacks quebec oregon)
  (craves prostatitis-13 pepper)
  S:(eats flounder kale)
  S:(eats ham pork)
  (harmony triumph pluto)
  S:(eats arugula hamburger)
  S:(eats beef snickers)
  (craves expectation beef)
  (craves loneliness snickers)
  (craves satisfaction ham)
  (locale kale quebec)
  (locale ham alsace)
  S:(attacks moravia quebec)
  S:(eats beef ham)
  (craves laceration-11 hamburger)
  S:(eats arugula cantelope)
  (craves aesthetics flounder)
  (craves anger popover)
  (craves anxiety-25 arugula)
  S:(eats beef arugula)
  (craves boils-15 pepper)
  S:(eats pepper cantelope)
  S:(eats orange beef)
  S:(eats hamburger cantelope)
  (harmony satisfaction neptune)
  (craves jealousy melon)
  S:(eats hamburger wurst)
  S:(eats pork bacon)
  S:(eats kale flounder)
  S:(eats tofu lamb)
  (locale potato quebec)
  S:(eats popover melon)
  (craves stimulation melon)
  (locale grapefruit oregon)
  (harmony expectation pluto)
  (craves dread-31 cantelope)
  (craves anger-7 orange)
  S:(attacks surrey moravia)
  S:(eats kale arugula)
  (craves dread beef)
  (craves loneliness-9 hamburger)
  (craves hangover-6 ham)
  (craves grief lamb)
  S:(eats ham beef)
  (craves boils-32 cantelope)
  S:(eats cantelope hamburger)
  S:(eats arugula beef)
  (craves love orange)
  S:(eats pork ham)
  (locale tofu surrey)
  (craves depression snickers)
  (craves angina-30 cantelope)
  (craves jealousy-16 kale)
  (craves anxiety potato)
  (craves learning pepper)
  (locale orange quebec)
  (harmony aesthetics neptune)
  (harmony rest mars)
  S:(eats wurst hamburger)
  S:(eats cantelope arugula)
  (craves prostatitis popover)
  S:(eats lamb tofu)
  (craves intoxication grapefruit)
  (craves abrasion pork)
  S:(eats grapefruit pepper)
  (locale hamburger quebec)
  (locale snickers alsace)
  (locale pork kentucky)
  S:(eats cantelope flounder)
  S:(orbits neptune pluto)
  (craves boils melon)
  S:(eats beef orange)
  S:(eats orange pork)
  (harmony love mars)
  (craves hangover popover)
  S:(eats cantelope pepper)
  S:(eats bacon orange)
  S:(eats orange bacon)
  (craves grief-26 arugula)
  (craves angina-3 bacon)
  S:(eats potato melon)
  (harmony stimulation pluto)
  (craves laceration snickers)
  (craves sciatica melon)
  S:(orbits mercury mars)
  (craves jealousy-28 grapefruit)
  (harmony learning mars)
  (craves loneliness-1 pork)
  (craves laceration-27 grapefruit)
  S:(eats flounder cantelope)
  (craves depression-14 pepper)
  S:(eats popover tofu)
  (craves hangover-29 grapefruit)
  S:(eats bacon pork)
  (locale beef moravia)
  (craves rest pork)
  S:(eats melon potato)
  (locale bacon alsace)
  S:(eats snickers beef)
  S:(eats arugula kale)
  (locale cantelope quebec)
  S:(eats hamburger arugula)
  (locale flounder moravia)
  S:(eats tofu popover)
  (craves dread-8 bacon)
  (craves prostatitis-24 arugula)
  (craves abrasion-5 ham)
  (locale arugula moravia)
  S:(eats melon popover)
  S:(orbits mars neptune)
  S:(eats lamb snickers)
  (craves angina popover)
  (locale wurst alsace)
  S:(attacks alsace kentucky)
  (craves triumph tofu)
  S:(eats potato snickers)
  S:(attacks oregon alsace)
  (locale pepper oregon)
  (craves anxiety-12 pepper)
  S:(eats pork orange)
  S:(eats snickers lamb)
  S:(eats grapefruit wurst)
  (locale melon alsace)
  (craves grief-2 pork)
  (craves anger-10 hamburger)
  (craves sciatica-4 bacon)
  (locale popover oregon)
  (locale lamb moravia)
  (harmony intoxication neptune)
  S:(eats pepper grapefruit)
Init[0]:
Goal: (RW:craves jealousy-16 tofu)
Metric: 0
