begin_version
3
end_version
begin_metric
1
end_metric
30
begin_variable
var0
-1
77
at_two straight0 f0-0f f0-1f
at_two straight0 f0-0f f1-0f
at_two straight0 f0-1f f0-0f
at_two straight0 f0-1f f0-2f
at_two straight0 f0-1f f1-1f
at_two straight0 f0-2f f0-1f
at_two straight0 f0-2f f0-3f
at_two straight0 f0-2f f1-2f
at_two straight0 f0-3f f0-2f
at_two straight0 f0-3f f1-3f
at_two straight0 f1-0f f0-0f
at_two straight0 f1-0f f1-1f
at_two straight0 f1-0f f2-0f
at_two straight0 f1-1f f0-1f
at_two straight0 f1-1f f1-0f
at_two straight0 f1-1f f1-2f
at_two straight0 f1-1f f2-1f
at_two straight0 f1-2f f0-2f
at_two straight0 f1-2f f1-1f
at_two straight0 f1-2f f1-3f
at_two straight0 f1-2f f2-2f
at_two straight0 f1-3f f0-3f
at_two straight0 f1-3f f1-2f
at_two straight0 f1-3f f2-3f
at_two straight0 f2-0f f1-0f
at_two straight0 f2-0f f2-1f
at_two straight0 f2-0f f3-0f
at_two straight0 f2-1f f1-1f
at_two straight0 f2-1f f2-0f
at_two straight0 f2-1f f2-2f
at_two straight0 f2-1f f3-1f
at_two straight0 f2-2f f1-2f
at_two straight0 f2-2f f2-1f
at_two straight0 f2-2f f2-3f
at_two straight0 f2-2f f3-2f
at_two straight0 f2-3f f1-3f
at_two straight0 f2-3f f2-2f
at_two straight0 f2-3f f3-3f
at_two straight0 f3-0f f2-0f
at_two straight0 f3-0f f3-1f
at_two straight0 f3-0f f4-0f
at_two straight0 f3-1f f2-1f
at_two straight0 f3-1f f3-0f
at_two straight0 f3-1f f3-2f
at_two straight0 f3-1f f4-1f
at_two straight0 f3-2f f2-2f
at_two straight0 f3-2f f3-1f
at_two straight0 f3-2f f3-3f
at_two straight0 f3-2f f4-2f
at_two straight0 f3-3f f2-3f
at_two straight0 f3-3f f3-2f
at_two straight0 f3-3f f4-3f
at_two straight0 f4-0f f3-0f
at_two straight0 f4-0f f4-1f
at_two straight0 f4-0f f5-0f
at_two straight0 f4-1f f3-1f
at_two straight0 f4-1f f4-0f
at_two straight0 f4-1f f4-2f
at_two straight0 f4-1f f5-1f
at_two straight0 f4-2f f3-2f
at_two straight0 f4-2f f4-1f
at_two straight0 f4-2f f4-3f
at_two straight0 f4-2f f5-2f
at_two straight0 f4-3f f3-3f
at_two straight0 f4-3f f4-2f
at_two straight0 f4-3f f5-3f
at_two straight0 f5-0f f4-0f
at_two straight0 f5-0f f5-1f
at_two straight0 f5-1f f4-1f
at_two straight0 f5-1f f5-0f
at_two straight0 f5-1f f5-2f
at_two straight0 f5-2f f4-2f
at_two straight0 f5-2f f5-1f
at_two straight0 f5-2f f5-3f
at_two straight0 f5-3f f4-3f
at_two straight0 f5-3f f5-2f
tnf-unknown
end_variable
begin_variable
var1
-1
25
at_square square0 f0-0f
at_square square0 f0-1f
at_square square0 f0-2f
at_square square0 f0-3f
at_square square0 f1-0f
at_square square0 f1-1f
at_square square0 f1-2f
at_square square0 f1-3f
at_square square0 f2-0f
at_square square0 f2-1f
at_square square0 f2-2f
at_square square0 f2-3f
at_square square0 f3-0f
at_square square0 f3-1f
at_square square0 f3-2f
at_square square0 f3-3f
at_square square0 f4-0f
at_square square0 f4-1f
at_square square0 f4-2f
at_square square0 f4-3f
at_square square0 f5-0f
at_square square0 f5-1f
at_square square0 f5-2f
at_square square0 f5-3f
tnf-unknown
end_variable
begin_variable
var2
-1
25
at_square square1 f0-0f
at_square square1 f0-1f
at_square square1 f0-2f
at_square square1 f0-3f
at_square square1 f1-0f
at_square square1 f1-1f
at_square square1 f1-2f
at_square square1 f1-3f
at_square square1 f2-0f
at_square square1 f2-1f
at_square square1 f2-2f
at_square square1 f2-3f
at_square square1 f3-0f
at_square square1 f3-1f
at_square square1 f3-2f
at_square square1 f3-3f
at_square square1 f4-0f
at_square square1 f4-1f
at_square square1 f4-2f
at_square square1 f4-3f
at_square square1 f5-0f
at_square square1 f5-1f
at_square square1 f5-2f
at_square square1 f5-3f
tnf-unknown
end_variable
begin_variable
var3
-1
25
at_square square2 f0-0f
at_square square2 f0-1f
at_square square2 f0-2f
at_square square2 f0-3f
at_square square2 f1-0f
at_square square2 f1-1f
at_square square2 f1-2f
at_square square2 f1-3f
at_square square2 f2-0f
at_square square2 f2-1f
at_square square2 f2-2f
at_square square2 f2-3f
at_square square2 f3-0f
at_square square2 f3-1f
at_square square2 f3-2f
at_square square2 f3-3f
at_square square2 f4-0f
at_square square2 f4-1f
at_square square2 f4-2f
at_square square2 f4-3f
at_square square2 f5-0f
at_square square2 f5-1f
at_square square2 f5-2f
at_square square2 f5-3f
tnf-unknown
end_variable
begin_variable
var4
-1
25
at_square square3 f0-0f
at_square square3 f0-1f
at_square square3 f0-2f
at_square square3 f0-3f
at_square square3 f1-0f
at_square square3 f1-1f
at_square square3 f1-2f
at_square square3 f1-3f
at_square square3 f2-0f
at_square square3 f2-1f
at_square square3 f2-2f
at_square square3 f2-3f
at_square square3 f3-0f
at_square square3 f3-1f
at_square square3 f3-2f
at_square square3 f3-3f
at_square square3 f4-0f
at_square square3 f4-1f
at_square square3 f4-2f
at_square square3 f4-3f
at_square square3 f5-0f
at_square square3 f5-1f
at_square square3 f5-2f
at_square square3 f5-3f
tnf-unknown
end_variable
begin_variable
var5
-1
16
at_right_l rightl0 f0-0f f1-0f f1-1f
at_right_l rightl0 f0-1f f1-1f f1-2f
at_right_l rightl0 f0-2f f1-2f f1-3f
at_right_l rightl0 f1-0f f2-0f f2-1f
at_right_l rightl0 f1-1f f2-1f f2-2f
at_right_l rightl0 f1-2f f2-2f f2-3f
at_right_l rightl0 f2-0f f3-0f f3-1f
at_right_l rightl0 f2-1f f3-1f f3-2f
at_right_l rightl0 f2-2f f3-2f f3-3f
at_right_l rightl0 f3-0f f4-0f f4-1f
at_right_l rightl0 f3-1f f4-1f f4-2f
at_right_l rightl0 f3-2f f4-2f f4-3f
at_right_l rightl0 f4-0f f5-0f f5-1f
at_right_l rightl0 f4-1f f5-1f f5-2f
at_right_l rightl0 f4-2f f5-2f f5-3f
tnf-unknown
end_variable
begin_variable
var6
-1
3
clear f0-0f
none-of-those
tnf-unkown
end_variable
begin_variable
var7
-1
3
clear f0-1f
none-of-those
tnf-unkown
end_variable
begin_variable
var8
-1
3
clear f0-2f
none-of-those
tnf-unkown
end_variable
begin_variable
var9
-1
3
clear f0-3f
none-of-those
tnf-unkown
end_variable
begin_variable
var10
-1
3
clear f1-0f
none-of-those
tnf-unkown
end_variable
begin_variable
var11
-1
3
clear f1-1f
none-of-those
tnf-unkown
end_variable
begin_variable
var12
-1
3
clear f1-2f
none-of-those
tnf-unkown
end_variable
begin_variable
var13
-1
3
clear f1-3f
none-of-those
tnf-unkown
end_variable
begin_variable
var14
-1
3
clear f2-0f
none-of-those
tnf-unkown
end_variable
begin_variable
var15
-1
3
clear f2-1f
none-of-those
tnf-unkown
end_variable
begin_variable
var16
-1
3
clear f2-2f
none-of-those
tnf-unkown
end_variable
begin_variable
var17
-1
3
clear f2-3f
none-of-those
tnf-unkown
end_variable
begin_variable
var18
-1
3
clear f3-0f
none-of-those
tnf-unkown
end_variable
begin_variable
var19
-1
3
clear f3-1f
none-of-those
tnf-unkown
end_variable
begin_variable
var20
-1
3
clear f3-2f
none-of-those
tnf-unkown
end_variable
begin_variable
var21
-1
3
clear f3-3f
none-of-those
tnf-unkown
end_variable
begin_variable
var22
-1
3
clear f4-0f
none-of-those
tnf-unkown
end_variable
begin_variable
var23
-1
3
clear f4-1f
none-of-those
tnf-unkown
end_variable
begin_variable
var24
-1
3
clear f4-2f
none-of-those
tnf-unkown
end_variable
begin_variable
var25
-1
3
clear f4-3f
none-of-those
tnf-unkown
end_variable
begin_variable
var26
-1
3
clear f5-0f
none-of-those
tnf-unkown
end_variable
begin_variable
var27
-1
3
clear f5-1f
none-of-those
tnf-unkown
end_variable
begin_variable
var28
-1
3
clear f5-2f
none-of-those
tnf-unkown
end_variable
begin_variable
var29
-1
3
clear f5-3f
none-of-those
tnf-unkown
end_variable
6
begin_mutex_group
15
5 0
5 1
5 2
5 3
5 4
5 5
5 6
5 7
5 8
5 9
5 10
5 11
5 12
5 13
5 14
end_mutex_group
begin_mutex_group
24
1 0
1 1
1 2
1 3
1 4
1 5
1 6
1 7
1 8
1 9
1 10
1 11
1 12
1 13
1 14
1 15
1 16
1 17
1 18
1 19
1 20
1 21
1 22
1 23
end_mutex_group
begin_mutex_group
24
2 0
2 1
2 2
2 3
2 4
2 5
2 6
2 7
2 8
2 9
2 10
2 11
2 12
2 13
2 14
2 15
2 16
2 17
2 18
2 19
2 20
2 21
2 22
2 23
end_mutex_group
begin_mutex_group
24
3 0
3 1
3 2
3 3
3 4
3 5
3 6
3 7
3 8
3 9
3 10
3 11
3 12
3 13
3 14
3 15
3 16
3 17
3 18
3 19
3 20
3 21
3 22
3 23
end_mutex_group
begin_mutex_group
24
4 0
4 1
4 2
4 3
4 4
4 5
4 6
4 7
4 8
4 9
4 10
4 11
4 12
4 13
4 14
4 15
4 16
4 17
4 18
4 19
4 20
4 21
4 22
4 23
end_mutex_group
begin_mutex_group
76
0 0
0 1
0 2
0 3
0 4
0 5
0 6
0 7
0 8
0 9
0 10
0 11
0 12
0 13
0 14
0 15
0 16
0 17
0 18
0 19
0 20
0 21
0 22
0 23
0 24
0 25
0 26
0 27
0 28
0 29
0 30
0 31
0 32
0 33
0 34
0 35
0 36
0 37
0 38
0 39
0 40
0 41
0 42
0 43
0 44
0 45
0 46
0 47
0 48
0 49
0 50
0 51
0 52
0 53
0 54
0 55
0 56
0 57
0 58
0 59
0 60
0 61
0 62
0 63
0 64
0 65
0 66
0 67
0 68
0 69
0 70
0 71
0 72
0 73
0 74
0 75
end_mutex_group
begin_state
1
1
5
6
8
8
1
1
0
0
1
1
1
0
1
0
1
0
0
0
1
1
0
0
0
0
0
0
0
0
end_state
begin_goal
30
0 76
1 24
2 24
3 24
4 24
5 15
6 0
7 0
8 0
9 0
10 0
11 0
12 0
13 0
14 0
15 0
16 0
17 0
18 2
19 2
20 2
21 2
22 2
23 2
24 2
25 2
26 2
27 2
28 2
29 2
end_goal
759
begin_operator
move_l_down f0-0f f1-0f f1-1f f2-0f f2-1f rightl0
0
5
0 5 0 3
0 6 2 0
0 11 2 0
0 14 0 1
0 15 0 1
3
end_operator
begin_operator
move_l_down f0-1f f1-1f f1-2f f2-1f f2-2f rightl0
0
5
0 5 1 4
0 7 2 0
0 12 2 0
0 15 0 1
0 16 0 1
3
end_operator
begin_operator
move_l_down f0-2f f1-2f f1-3f f2-2f f2-3f rightl0
0
5
0 5 2 5
0 8 2 0
0 13 2 0
0 16 0 1
0 17 0 1
3
end_operator
begin_operator
move_l_down f1-0f f2-0f f2-1f f3-0f f3-1f rightl0
0
5
0 5 3 6
0 10 2 0
0 15 2 0
0 18 0 1
0 19 0 1
3
end_operator
begin_operator
move_l_down f1-1f f2-1f f2-2f f3-1f f3-2f rightl0
0
5
0 5 4 7
0 11 2 0
0 16 2 0
0 19 0 1
0 20 0 1
3
end_operator
begin_operator
move_l_down f1-2f f2-2f f2-3f f3-2f f3-3f rightl0
0
5
0 5 5 8
0 12 2 0
0 17 2 0
0 20 0 1
0 21 0 1
3
end_operator
begin_operator
move_l_down f2-0f f3-0f f3-1f f4-0f f4-1f rightl0
0
5
0 5 6 9
0 14 2 0
0 19 2 0
0 22 0 1
0 23 0 1
3
end_operator
begin_operator
move_l_down f2-1f f3-1f f3-2f f4-1f f4-2f rightl0
0
5
0 5 7 10
0 15 2 0
0 20 2 0
0 23 0 1
0 24 0 1
3
end_operator
begin_operator
move_l_down f2-2f f3-2f f3-3f f4-2f f4-3f rightl0
0
5
0 5 8 11
0 16 2 0
0 21 2 0
0 24 0 1
0 25 0 1
3
end_operator
begin_operator
move_l_down f3-0f f4-0f f4-1f f5-0f f5-1f rightl0
0
5
0 5 9 12
0 18 2 0
0 23 2 0
0 26 0 1
0 27 0 1
3
end_operator
begin_operator
move_l_down f3-1f f4-1f f4-2f f5-1f f5-2f rightl0
0
5
0 5 10 13
0 19 2 0
0 24 2 0
0 27 0 1
0 28 0 1
3
end_operator
begin_operator
move_l_down f3-2f f4-2f f4-3f f5-2f f5-3f rightl0
0
5
0 5 11 14
0 20 2 0
0 25 2 0
0 28 0 1
0 29 0 1
3
end_operator
begin_operator
move_l_left f0-1f f1-1f f1-2f f0-0f f1-0f rightl0
0
5
0 5 1 0
0 6 0 1
0 7 2 0
0 10 0 1
0 12 2 0
3
end_operator
begin_operator
move_l_left f0-2f f1-2f f1-3f f0-1f f1-1f rightl0
0
5
0 5 2 1
0 7 0 1
0 8 2 0
0 11 0 1
0 13 2 0
3
end_operator
begin_operator
move_l_left f1-1f f2-1f f2-2f f1-0f f2-0f rightl0
0
5
0 5 4 3
0 10 0 1
0 11 2 0
0 14 0 1
0 16 2 0
3
end_operator
begin_operator
move_l_left f1-2f f2-2f f2-3f f1-1f f2-1f rightl0
0
5
0 5 5 4
0 11 0 1
0 12 2 0
0 15 0 1
0 17 2 0
3
end_operator
begin_operator
move_l_left f2-1f f3-1f f3-2f f2-0f f3-0f rightl0
0
5
0 5 7 6
0 14 0 1
0 15 2 0
0 18 0 1
0 20 2 0
3
end_operator
begin_operator
move_l_left f2-2f f3-2f f3-3f f2-1f f3-1f rightl0
0
5
0 5 8 7
0 15 0 1
0 16 2 0
0 19 0 1
0 21 2 0
3
end_operator
begin_operator
move_l_left f3-1f f4-1f f4-2f f3-0f f4-0f rightl0
0
5
0 5 10 9
0 18 0 1
0 19 2 0
0 22 0 1
0 24 2 0
3
end_operator
begin_operator
move_l_left f3-2f f4-2f f4-3f f3-1f f4-1f rightl0
0
5
0 5 11 10
0 19 0 1
0 20 2 0
0 23 0 1
0 25 2 0
3
end_operator
begin_operator
move_l_left f4-1f f5-1f f5-2f f4-0f f5-0f rightl0
0
5
0 5 13 12
0 22 0 1
0 23 2 0
0 26 0 1
0 28 2 0
3
end_operator
begin_operator
move_l_left f4-2f f5-2f f5-3f f4-1f f5-1f rightl0
0
5
0 5 14 13
0 23 0 1
0 24 2 0
0 27 0 1
0 29 2 0
3
end_operator
begin_operator
move_l_right f0-0f f1-0f f1-1f f0-1f f1-2f f0-2f rightl0
0
5
0 5 0 1
0 6 2 0
0 7 0 1
0 10 2 0
0 12 0 1
3
end_operator
begin_operator
move_l_right f0-1f f1-1f f1-2f f0-2f f1-3f f0-3f rightl0
0
5
0 5 1 2
0 7 2 0
0 8 0 1
0 11 2 0
0 13 0 1
3
end_operator
begin_operator
move_l_right f1-0f f2-0f f2-1f f1-1f f2-2f f1-2f rightl0
0
5
0 5 3 4
0 10 2 0
0 11 0 1
0 14 2 0
0 16 0 1
3
end_operator
begin_operator
move_l_right f1-1f f2-1f f2-2f f1-2f f2-3f f1-3f rightl0
0
5
0 5 4 5
0 11 2 0
0 12 0 1
0 15 2 0
0 17 0 1
3
end_operator
begin_operator
move_l_right f2-0f f3-0f f3-1f f2-1f f3-2f f2-2f rightl0
0
5
0 5 6 7
0 14 2 0
0 15 0 1
0 18 2 0
0 20 0 1
3
end_operator
begin_operator
move_l_right f2-1f f3-1f f3-2f f2-2f f3-3f f2-3f rightl0
0
5
0 5 7 8
0 15 2 0
0 16 0 1
0 19 2 0
0 21 0 1
3
end_operator
begin_operator
move_l_right f3-0f f4-0f f4-1f f3-1f f4-2f f3-2f rightl0
0
5
0 5 9 10
0 18 2 0
0 19 0 1
0 22 2 0
0 24 0 1
3
end_operator
begin_operator
move_l_right f3-1f f4-1f f4-2f f3-2f f4-3f f3-3f rightl0
0
5
0 5 10 11
0 19 2 0
0 20 0 1
0 23 2 0
0 25 0 1
3
end_operator
begin_operator
move_l_right f4-0f f5-0f f5-1f f4-1f f5-2f f4-2f rightl0
0
5
0 5 12 13
0 22 2 0
0 23 0 1
0 26 2 0
0 28 0 1
3
end_operator
begin_operator
move_l_right f4-1f f5-1f f5-2f f4-2f f5-3f f4-3f rightl0
0
5
0 5 13 14
0 23 2 0
0 24 0 1
0 27 2 0
0 29 0 1
3
end_operator
begin_operator
move_l_up f1-0f f2-0f f2-1f f0-0f f1-1f f0-1f rightl0
0
5
0 5 3 0
0 6 0 1
0 11 0 1
0 14 2 0
0 15 2 0
3
end_operator
begin_operator
move_l_up f1-1f f2-1f f2-2f f0-1f f1-2f f0-2f rightl0
0
5
0 5 4 1
0 7 0 1
0 12 0 1
0 15 2 0
0 16 2 0
3
end_operator
begin_operator
move_l_up f1-2f f2-2f f2-3f f0-2f f1-3f f0-3f rightl0
0
5
0 5 5 2
0 8 0 1
0 13 0 1
0 16 2 0
0 17 2 0
3
end_operator
begin_operator
move_l_up f2-0f f3-0f f3-1f f1-0f f2-1f f1-1f rightl0
0
5
0 5 6 3
0 10 0 1
0 15 0 1
0 18 2 0
0 19 2 0
3
end_operator
begin_operator
move_l_up f2-1f f3-1f f3-2f f1-1f f2-2f f1-2f rightl0
0
5
0 5 7 4
0 11 0 1
0 16 0 1
0 19 2 0
0 20 2 0
3
end_operator
begin_operator
move_l_up f2-2f f3-2f f3-3f f1-2f f2-3f f1-3f rightl0
0
5
0 5 8 5
0 12 0 1
0 17 0 1
0 20 2 0
0 21 2 0
3
end_operator
begin_operator
move_l_up f3-0f f4-0f f4-1f f2-0f f3-1f f2-1f rightl0
0
5
0 5 9 6
0 14 0 1
0 19 0 1
0 22 2 0
0 23 2 0
3
end_operator
begin_operator
move_l_up f3-1f f4-1f f4-2f f2-1f f3-2f f2-2f rightl0
0
5
0 5 10 7
0 15 0 1
0 20 0 1
0 23 2 0
0 24 2 0
3
end_operator
begin_operator
move_l_up f3-2f f4-2f f4-3f f2-2f f3-3f f2-3f rightl0
0
5
0 5 11 8
0 16 0 1
0 21 0 1
0 24 2 0
0 25 2 0
3
end_operator
begin_operator
move_l_up f4-0f f5-0f f5-1f f3-0f f4-1f f3-1f rightl0
0
5
0 5 12 9
0 18 0 1
0 23 0 1
0 26 2 0
0 27 2 0
3
end_operator
begin_operator
move_l_up f4-1f f5-1f f5-2f f3-1f f4-2f f3-2f rightl0
0
5
0 5 13 10
0 19 0 1
0 24 0 1
0 27 2 0
0 28 2 0
3
end_operator
begin_operator
move_l_up f4-2f f5-2f f5-3f f3-2f f4-3f f3-3f rightl0
0
5
0 5 14 11
0 20 0 1
0 25 0 1
0 28 2 0
0 29 2 0
3
end_operator
begin_operator
move_square f0-0f f0-1f square0
0
3
0 1 0 1
0 6 2 0
0 7 0 1
1
end_operator
begin_operator
move_square f0-0f f0-1f square1
0
3
0 2 0 1
0 6 2 0
0 7 0 1
1
end_operator
begin_operator
move_square f0-0f f0-1f square2
0
3
0 3 0 1
0 6 2 0
0 7 0 1
1
end_operator
begin_operator
move_square f0-0f f0-1f square3
0
3
0 4 0 1
0 6 2 0
0 7 0 1
1
end_operator
begin_operator
move_square f0-0f f1-0f square0
0
3
0 1 0 4
0 6 2 0
0 10 0 1
1
end_operator
begin_operator
move_square f0-0f f1-0f square1
0
3
0 2 0 4
0 6 2 0
0 10 0 1
1
end_operator
begin_operator
move_square f0-0f f1-0f square2
0
3
0 3 0 4
0 6 2 0
0 10 0 1
1
end_operator
begin_operator
move_square f0-0f f1-0f square3
0
3
0 4 0 4
0 6 2 0
0 10 0 1
1
end_operator
begin_operator
move_square f0-1f f0-0f square0
0
3
0 1 1 0
0 6 0 1
0 7 2 0
1
end_operator
begin_operator
move_square f0-1f f0-0f square1
0
3
0 2 1 0
0 6 0 1
0 7 2 0
1
end_operator
begin_operator
move_square f0-1f f0-0f square2
0
3
0 3 1 0
0 6 0 1
0 7 2 0
1
end_operator
begin_operator
move_square f0-1f f0-0f square3
0
3
0 4 1 0
0 6 0 1
0 7 2 0
1
end_operator
begin_operator
move_square f0-1f f0-2f square0
0
3
0 1 1 2
0 7 2 0
0 8 0 1
1
end_operator
begin_operator
move_square f0-1f f0-2f square1
0
3
0 2 1 2
0 7 2 0
0 8 0 1
1
end_operator
begin_operator
move_square f0-1f f0-2f square2
0
3
0 3 1 2
0 7 2 0
0 8 0 1
1
end_operator
begin_operator
move_square f0-1f f0-2f square3
0
3
0 4 1 2
0 7 2 0
0 8 0 1
1
end_operator
begin_operator
move_square f0-1f f1-1f square0
0
3
0 1 1 5
0 7 2 0
0 11 0 1
1
end_operator
begin_operator
move_square f0-1f f1-1f square1
0
3
0 2 1 5
0 7 2 0
0 11 0 1
1
end_operator
begin_operator
move_square f0-1f f1-1f square2
0
3
0 3 1 5
0 7 2 0
0 11 0 1
1
end_operator
begin_operator
move_square f0-1f f1-1f square3
0
3
0 4 1 5
0 7 2 0
0 11 0 1
1
end_operator
begin_operator
move_square f0-2f f0-1f square0
0
3
0 1 2 1
0 7 0 1
0 8 2 0
1
end_operator
begin_operator
move_square f0-2f f0-1f square1
0
3
0 2 2 1
0 7 0 1
0 8 2 0
1
end_operator
begin_operator
move_square f0-2f f0-1f square2
0
3
0 3 2 1
0 7 0 1
0 8 2 0
1
end_operator
begin_operator
move_square f0-2f f0-1f square3
0
3
0 4 2 1
0 7 0 1
0 8 2 0
1
end_operator
begin_operator
move_square f0-2f f0-3f square0
0
3
0 1 2 3
0 8 2 0
0 9 0 1
1
end_operator
begin_operator
move_square f0-2f f0-3f square1
0
3
0 2 2 3
0 8 2 0
0 9 0 1
1
end_operator
begin_operator
move_square f0-2f f0-3f square2
0
3
0 3 2 3
0 8 2 0
0 9 0 1
1
end_operator
begin_operator
move_square f0-2f f0-3f square3
0
3
0 4 2 3
0 8 2 0
0 9 0 1
1
end_operator
begin_operator
move_square f0-2f f1-2f square0
0
3
0 1 2 6
0 8 2 0
0 12 0 1
1
end_operator
begin_operator
move_square f0-2f f1-2f square1
0
3
0 2 2 6
0 8 2 0
0 12 0 1
1
end_operator
begin_operator
move_square f0-2f f1-2f square2
0
3
0 3 2 6
0 8 2 0
0 12 0 1
1
end_operator
begin_operator
move_square f0-2f f1-2f square3
0
3
0 4 2 6
0 8 2 0
0 12 0 1
1
end_operator
begin_operator
move_square f0-3f f0-2f square0
0
3
0 1 3 2
0 8 0 1
0 9 2 0
1
end_operator
begin_operator
move_square f0-3f f0-2f square1
0
3
0 2 3 2
0 8 0 1
0 9 2 0
1
end_operator
begin_operator
move_square f0-3f f0-2f square2
0
3
0 3 3 2
0 8 0 1
0 9 2 0
1
end_operator
begin_operator
move_square f0-3f f0-2f square3
0
3
0 4 3 2
0 8 0 1
0 9 2 0
1
end_operator
begin_operator
move_square f0-3f f1-3f square0
0
3
0 1 3 7
0 9 2 0
0 13 0 1
1
end_operator
begin_operator
move_square f0-3f f1-3f square1
0
3
0 2 3 7
0 9 2 0
0 13 0 1
1
end_operator
begin_operator
move_square f0-3f f1-3f square2
0
3
0 3 3 7
0 9 2 0
0 13 0 1
1
end_operator
begin_operator
move_square f0-3f f1-3f square3
0
3
0 4 3 7
0 9 2 0
0 13 0 1
1
end_operator
begin_operator
move_square f1-0f f0-0f square0
0
3
0 1 4 0
0 6 0 1
0 10 2 0
1
end_operator
begin_operator
move_square f1-0f f0-0f square1
0
3
0 2 4 0
0 6 0 1
0 10 2 0
1
end_operator
begin_operator
move_square f1-0f f0-0f square2
0
3
0 3 4 0
0 6 0 1
0 10 2 0
1
end_operator
begin_operator
move_square f1-0f f0-0f square3
0
3
0 4 4 0
0 6 0 1
0 10 2 0
1
end_operator
begin_operator
move_square f1-0f f1-1f square0
0
3
0 1 4 5
0 10 2 0
0 11 0 1
1
end_operator
begin_operator
move_square f1-0f f1-1f square1
0
3
0 2 4 5
0 10 2 0
0 11 0 1
1
end_operator
begin_operator
move_square f1-0f f1-1f square2
0
3
0 3 4 5
0 10 2 0
0 11 0 1
1
end_operator
begin_operator
move_square f1-0f f1-1f square3
0
3
0 4 4 5
0 10 2 0
0 11 0 1
1
end_operator
begin_operator
move_square f1-0f f2-0f square0
0
3
0 1 4 8
0 10 2 0
0 14 0 1
1
end_operator
begin_operator
move_square f1-0f f2-0f square1
0
3
0 2 4 8
0 10 2 0
0 14 0 1
1
end_operator
begin_operator
move_square f1-0f f2-0f square2
0
3
0 3 4 8
0 10 2 0
0 14 0 1
1
end_operator
begin_operator
move_square f1-0f f2-0f square3
0
3
0 4 4 8
0 10 2 0
0 14 0 1
1
end_operator
begin_operator
move_square f1-1f f0-1f square0
0
3
0 1 5 1
0 7 0 1
0 11 2 0
1
end_operator
begin_operator
move_square f1-1f f0-1f square1
0
3
0 2 5 1
0 7 0 1
0 11 2 0
1
end_operator
begin_operator
move_square f1-1f f0-1f square2
0
3
0 3 5 1
0 7 0 1
0 11 2 0
1
end_operator
begin_operator
move_square f1-1f f0-1f square3
0
3
0 4 5 1
0 7 0 1
0 11 2 0
1
end_operator
begin_operator
move_square f1-1f f1-0f square0
0
3
0 1 5 4
0 10 0 1
0 11 2 0
1
end_operator
begin_operator
move_square f1-1f f1-0f square1
0
3
0 2 5 4
0 10 0 1
0 11 2 0
1
end_operator
begin_operator
move_square f1-1f f1-0f square2
0
3
0 3 5 4
0 10 0 1
0 11 2 0
1
end_operator
begin_operator
move_square f1-1f f1-0f square3
0
3
0 4 5 4
0 10 0 1
0 11 2 0
1
end_operator
begin_operator
move_square f1-1f f1-2f square0
0
3
0 1 5 6
0 11 2 0
0 12 0 1
1
end_operator
begin_operator
move_square f1-1f f1-2f square1
0
3
0 2 5 6
0 11 2 0
0 12 0 1
1
end_operator
begin_operator
move_square f1-1f f1-2f square2
0
3
0 3 5 6
0 11 2 0
0 12 0 1
1
end_operator
begin_operator
move_square f1-1f f1-2f square3
0
3
0 4 5 6
0 11 2 0
0 12 0 1
1
end_operator
begin_operator
move_square f1-1f f2-1f square0
0
3
0 1 5 9
0 11 2 0
0 15 0 1
1
end_operator
begin_operator
move_square f1-1f f2-1f square1
0
3
0 2 5 9
0 11 2 0
0 15 0 1
1
end_operator
begin_operator
move_square f1-1f f2-1f square2
0
3
0 3 5 9
0 11 2 0
0 15 0 1
1
end_operator
begin_operator
move_square f1-1f f2-1f square3
0
3
0 4 5 9
0 11 2 0
0 15 0 1
1
end_operator
begin_operator
move_square f1-2f f0-2f square0
0
3
0 1 6 2
0 8 0 1
0 12 2 0
1
end_operator
begin_operator
move_square f1-2f f0-2f square1
0
3
0 2 6 2
0 8 0 1
0 12 2 0
1
end_operator
begin_operator
move_square f1-2f f0-2f square2
0
3
0 3 6 2
0 8 0 1
0 12 2 0
1
end_operator
begin_operator
move_square f1-2f f0-2f square3
0
3
0 4 6 2
0 8 0 1
0 12 2 0
1
end_operator
begin_operator
move_square f1-2f f1-1f square0
0
3
0 1 6 5
0 11 0 1
0 12 2 0
1
end_operator
begin_operator
move_square f1-2f f1-1f square1
0
3
0 2 6 5
0 11 0 1
0 12 2 0
1
end_operator
begin_operator
move_square f1-2f f1-1f square2
0
3
0 3 6 5
0 11 0 1
0 12 2 0
1
end_operator
begin_operator
move_square f1-2f f1-1f square3
0
3
0 4 6 5
0 11 0 1
0 12 2 0
1
end_operator
begin_operator
move_square f1-2f f1-3f square0
0
3
0 1 6 7
0 12 2 0
0 13 0 1
1
end_operator
begin_operator
move_square f1-2f f1-3f square1
0
3
0 2 6 7
0 12 2 0
0 13 0 1
1
end_operator
begin_operator
move_square f1-2f f1-3f square2
0
3
0 3 6 7
0 12 2 0
0 13 0 1
1
end_operator
begin_operator
move_square f1-2f f1-3f square3
0
3
0 4 6 7
0 12 2 0
0 13 0 1
1
end_operator
begin_operator
move_square f1-2f f2-2f square0
0
3
0 1 6 10
0 12 2 0
0 16 0 1
1
end_operator
begin_operator
move_square f1-2f f2-2f square1
0
3
0 2 6 10
0 12 2 0
0 16 0 1
1
end_operator
begin_operator
move_square f1-2f f2-2f square2
0
3
0 3 6 10
0 12 2 0
0 16 0 1
1
end_operator
begin_operator
move_square f1-2f f2-2f square3
0
3
0 4 6 10
0 12 2 0
0 16 0 1
1
end_operator
begin_operator
move_square f1-3f f0-3f square0
0
3
0 1 7 3
0 9 0 1
0 13 2 0
1
end_operator
begin_operator
move_square f1-3f f0-3f square1
0
3
0 2 7 3
0 9 0 1
0 13 2 0
1
end_operator
begin_operator
move_square f1-3f f0-3f square2
0
3
0 3 7 3
0 9 0 1
0 13 2 0
1
end_operator
begin_operator
move_square f1-3f f0-3f square3
0
3
0 4 7 3
0 9 0 1
0 13 2 0
1
end_operator
begin_operator
move_square f1-3f f1-2f square0
0
3
0 1 7 6
0 12 0 1
0 13 2 0
1
end_operator
begin_operator
move_square f1-3f f1-2f square1
0
3
0 2 7 6
0 12 0 1
0 13 2 0
1
end_operator
begin_operator
move_square f1-3f f1-2f square2
0
3
0 3 7 6
0 12 0 1
0 13 2 0
1
end_operator
begin_operator
move_square f1-3f f1-2f square3
0
3
0 4 7 6
0 12 0 1
0 13 2 0
1
end_operator
begin_operator
move_square f1-3f f2-3f square0
0
3
0 1 7 11
0 13 2 0
0 17 0 1
1
end_operator
begin_operator
move_square f1-3f f2-3f square1
0
3
0 2 7 11
0 13 2 0
0 17 0 1
1
end_operator
begin_operator
move_square f1-3f f2-3f square2
0
3
0 3 7 11
0 13 2 0
0 17 0 1
1
end_operator
begin_operator
move_square f1-3f f2-3f square3
0
3
0 4 7 11
0 13 2 0
0 17 0 1
1
end_operator
begin_operator
move_square f2-0f f1-0f square0
0
3
0 1 8 4
0 10 0 1
0 14 2 0
1
end_operator
begin_operator
move_square f2-0f f1-0f square1
0
3
0 2 8 4
0 10 0 1
0 14 2 0
1
end_operator
begin_operator
move_square f2-0f f1-0f square2
0
3
0 3 8 4
0 10 0 1
0 14 2 0
1
end_operator
begin_operator
move_square f2-0f f1-0f square3
0
3
0 4 8 4
0 10 0 1
0 14 2 0
1
end_operator
begin_operator
move_square f2-0f f2-1f square0
0
3
0 1 8 9
0 14 2 0
0 15 0 1
1
end_operator
begin_operator
move_square f2-0f f2-1f square1
0
3
0 2 8 9
0 14 2 0
0 15 0 1
1
end_operator
begin_operator
move_square f2-0f f2-1f square2
0
3
0 3 8 9
0 14 2 0
0 15 0 1
1
end_operator
begin_operator
move_square f2-0f f2-1f square3
0
3
0 4 8 9
0 14 2 0
0 15 0 1
1
end_operator
begin_operator
move_square f2-0f f3-0f square0
0
3
0 1 8 12
0 14 2 0
0 18 0 1
1
end_operator
begin_operator
move_square f2-0f f3-0f square1
0
3
0 2 8 12
0 14 2 0
0 18 0 1
1
end_operator
begin_operator
move_square f2-0f f3-0f square2
0
3
0 3 8 12
0 14 2 0
0 18 0 1
1
end_operator
begin_operator
move_square f2-0f f3-0f square3
0
3
0 4 8 12
0 14 2 0
0 18 0 1
1
end_operator
begin_operator
move_square f2-1f f1-1f square0
0
3
0 1 9 5
0 11 0 1
0 15 2 0
1
end_operator
begin_operator
move_square f2-1f f1-1f square1
0
3
0 2 9 5
0 11 0 1
0 15 2 0
1
end_operator
begin_operator
move_square f2-1f f1-1f square2
0
3
0 3 9 5
0 11 0 1
0 15 2 0
1
end_operator
begin_operator
move_square f2-1f f1-1f square3
0
3
0 4 9 5
0 11 0 1
0 15 2 0
1
end_operator
begin_operator
move_square f2-1f f2-0f square0
0
3
0 1 9 8
0 14 0 1
0 15 2 0
1
end_operator
begin_operator
move_square f2-1f f2-0f square1
0
3
0 2 9 8
0 14 0 1
0 15 2 0
1
end_operator
begin_operator
move_square f2-1f f2-0f square2
0
3
0 3 9 8
0 14 0 1
0 15 2 0
1
end_operator
begin_operator
move_square f2-1f f2-0f square3
0
3
0 4 9 8
0 14 0 1
0 15 2 0
1
end_operator
begin_operator
move_square f2-1f f2-2f square0
0
3
0 1 9 10
0 15 2 0
0 16 0 1
1
end_operator
begin_operator
move_square f2-1f f2-2f square1
0
3
0 2 9 10
0 15 2 0
0 16 0 1
1
end_operator
begin_operator
move_square f2-1f f2-2f square2
0
3
0 3 9 10
0 15 2 0
0 16 0 1
1
end_operator
begin_operator
move_square f2-1f f2-2f square3
0
3
0 4 9 10
0 15 2 0
0 16 0 1
1
end_operator
begin_operator
move_square f2-1f f3-1f square0
0
3
0 1 9 13
0 15 2 0
0 19 0 1
1
end_operator
begin_operator
move_square f2-1f f3-1f square1
0
3
0 2 9 13
0 15 2 0
0 19 0 1
1
end_operator
begin_operator
move_square f2-1f f3-1f square2
0
3
0 3 9 13
0 15 2 0
0 19 0 1
1
end_operator
begin_operator
move_square f2-1f f3-1f square3
0
3
0 4 9 13
0 15 2 0
0 19 0 1
1
end_operator
begin_operator
move_square f2-2f f1-2f square0
0
3
0 1 10 6
0 12 0 1
0 16 2 0
1
end_operator
begin_operator
move_square f2-2f f1-2f square1
0
3
0 2 10 6
0 12 0 1
0 16 2 0
1
end_operator
begin_operator
move_square f2-2f f1-2f square2
0
3
0 3 10 6
0 12 0 1
0 16 2 0
1
end_operator
begin_operator
move_square f2-2f f1-2f square3
0
3
0 4 10 6
0 12 0 1
0 16 2 0
1
end_operator
begin_operator
move_square f2-2f f2-1f square0
0
3
0 1 10 9
0 15 0 1
0 16 2 0
1
end_operator
begin_operator
move_square f2-2f f2-1f square1
0
3
0 2 10 9
0 15 0 1
0 16 2 0
1
end_operator
begin_operator
move_square f2-2f f2-1f square2
0
3
0 3 10 9
0 15 0 1
0 16 2 0
1
end_operator
begin_operator
move_square f2-2f f2-1f square3
0
3
0 4 10 9
0 15 0 1
0 16 2 0
1
end_operator
begin_operator
move_square f2-2f f2-3f square0
0
3
0 1 10 11
0 16 2 0
0 17 0 1
1
end_operator
begin_operator
move_square f2-2f f2-3f square1
0
3
0 2 10 11
0 16 2 0
0 17 0 1
1
end_operator
begin_operator
move_square f2-2f f2-3f square2
0
3
0 3 10 11
0 16 2 0
0 17 0 1
1
end_operator
begin_operator
move_square f2-2f f2-3f square3
0
3
0 4 10 11
0 16 2 0
0 17 0 1
1
end_operator
begin_operator
move_square f2-2f f3-2f square0
0
3
0 1 10 14
0 16 2 0
0 20 0 1
1
end_operator
begin_operator
move_square f2-2f f3-2f square1
0
3
0 2 10 14
0 16 2 0
0 20 0 1
1
end_operator
begin_operator
move_square f2-2f f3-2f square2
0
3
0 3 10 14
0 16 2 0
0 20 0 1
1
end_operator
begin_operator
move_square f2-2f f3-2f square3
0
3
0 4 10 14
0 16 2 0
0 20 0 1
1
end_operator
begin_operator
move_square f2-3f f1-3f square0
0
3
0 1 11 7
0 13 0 1
0 17 2 0
1
end_operator
begin_operator
move_square f2-3f f1-3f square1
0
3
0 2 11 7
0 13 0 1
0 17 2 0
1
end_operator
begin_operator
move_square f2-3f f1-3f square2
0
3
0 3 11 7
0 13 0 1
0 17 2 0
1
end_operator
begin_operator
move_square f2-3f f1-3f square3
0
3
0 4 11 7
0 13 0 1
0 17 2 0
1
end_operator
begin_operator
move_square f2-3f f2-2f square0
0
3
0 1 11 10
0 16 0 1
0 17 2 0
1
end_operator
begin_operator
move_square f2-3f f2-2f square1
0
3
0 2 11 10
0 16 0 1
0 17 2 0
1
end_operator
begin_operator
move_square f2-3f f2-2f square2
0
3
0 3 11 10
0 16 0 1
0 17 2 0
1
end_operator
begin_operator
move_square f2-3f f2-2f square3
0
3
0 4 11 10
0 16 0 1
0 17 2 0
1
end_operator
begin_operator
move_square f2-3f f3-3f square0
0
3
0 1 11 15
0 17 2 0
0 21 0 1
1
end_operator
begin_operator
move_square f2-3f f3-3f square1
0
3
0 2 11 15
0 17 2 0
0 21 0 1
1
end_operator
begin_operator
move_square f2-3f f3-3f square2
0
3
0 3 11 15
0 17 2 0
0 21 0 1
1
end_operator
begin_operator
move_square f2-3f f3-3f square3
0
3
0 4 11 15
0 17 2 0
0 21 0 1
1
end_operator
begin_operator
move_square f3-0f f2-0f square0
0
3
0 1 12 8
0 14 0 1
0 18 2 0
1
end_operator
begin_operator
move_square f3-0f f2-0f square1
0
3
0 2 12 8
0 14 0 1
0 18 2 0
1
end_operator
begin_operator
move_square f3-0f f2-0f square2
0
3
0 3 12 8
0 14 0 1
0 18 2 0
1
end_operator
begin_operator
move_square f3-0f f2-0f square3
0
3
0 4 12 8
0 14 0 1
0 18 2 0
1
end_operator
begin_operator
move_square f3-0f f3-1f square0
0
3
0 1 12 13
0 18 2 0
0 19 0 1
1
end_operator
begin_operator
move_square f3-0f f3-1f square1
0
3
0 2 12 13
0 18 2 0
0 19 0 1
1
end_operator
begin_operator
move_square f3-0f f3-1f square2
0
3
0 3 12 13
0 18 2 0
0 19 0 1
1
end_operator
begin_operator
move_square f3-0f f3-1f square3
0
3
0 4 12 13
0 18 2 0
0 19 0 1
1
end_operator
begin_operator
move_square f3-0f f4-0f square0
0
3
0 1 12 16
0 18 2 0
0 22 0 1
1
end_operator
begin_operator
move_square f3-0f f4-0f square1
0
3
0 2 12 16
0 18 2 0
0 22 0 1
1
end_operator
begin_operator
move_square f3-0f f4-0f square2
0
3
0 3 12 16
0 18 2 0
0 22 0 1
1
end_operator
begin_operator
move_square f3-0f f4-0f square3
0
3
0 4 12 16
0 18 2 0
0 22 0 1
1
end_operator
begin_operator
move_square f3-1f f2-1f square0
0
3
0 1 13 9
0 15 0 1
0 19 2 0
1
end_operator
begin_operator
move_square f3-1f f2-1f square1
0
3
0 2 13 9
0 15 0 1
0 19 2 0
1
end_operator
begin_operator
move_square f3-1f f2-1f square2
0
3
0 3 13 9
0 15 0 1
0 19 2 0
1
end_operator
begin_operator
move_square f3-1f f2-1f square3
0
3
0 4 13 9
0 15 0 1
0 19 2 0
1
end_operator
begin_operator
move_square f3-1f f3-0f square0
0
3
0 1 13 12
0 18 0 1
0 19 2 0
1
end_operator
begin_operator
move_square f3-1f f3-0f square1
0
3
0 2 13 12
0 18 0 1
0 19 2 0
1
end_operator
begin_operator
move_square f3-1f f3-0f square2
0
3
0 3 13 12
0 18 0 1
0 19 2 0
1
end_operator
begin_operator
move_square f3-1f f3-0f square3
0
3
0 4 13 12
0 18 0 1
0 19 2 0
1
end_operator
begin_operator
move_square f3-1f f3-2f square0
0
3
0 1 13 14
0 19 2 0
0 20 0 1
1
end_operator
begin_operator
move_square f3-1f f3-2f square1
0
3
0 2 13 14
0 19 2 0
0 20 0 1
1
end_operator
begin_operator
move_square f3-1f f3-2f square2
0
3
0 3 13 14
0 19 2 0
0 20 0 1
1
end_operator
begin_operator
move_square f3-1f f3-2f square3
0
3
0 4 13 14
0 19 2 0
0 20 0 1
1
end_operator
begin_operator
move_square f3-1f f4-1f square0
0
3
0 1 13 17
0 19 2 0
0 23 0 1
1
end_operator
begin_operator
move_square f3-1f f4-1f square1
0
3
0 2 13 17
0 19 2 0
0 23 0 1
1
end_operator
begin_operator
move_square f3-1f f4-1f square2
0
3
0 3 13 17
0 19 2 0
0 23 0 1
1
end_operator
begin_operator
move_square f3-1f f4-1f square3
0
3
0 4 13 17
0 19 2 0
0 23 0 1
1
end_operator
begin_operator
move_square f3-2f f2-2f square0
0
3
0 1 14 10
0 16 0 1
0 20 2 0
1
end_operator
begin_operator
move_square f3-2f f2-2f square1
0
3
0 2 14 10
0 16 0 1
0 20 2 0
1
end_operator
begin_operator
move_square f3-2f f2-2f square2
0
3
0 3 14 10
0 16 0 1
0 20 2 0
1
end_operator
begin_operator
move_square f3-2f f2-2f square3
0
3
0 4 14 10
0 16 0 1
0 20 2 0
1
end_operator
begin_operator
move_square f3-2f f3-1f square0
0
3
0 1 14 13
0 19 0 1
0 20 2 0
1
end_operator
begin_operator
move_square f3-2f f3-1f square1
0
3
0 2 14 13
0 19 0 1
0 20 2 0
1
end_operator
begin_operator
move_square f3-2f f3-1f square2
0
3
0 3 14 13
0 19 0 1
0 20 2 0
1
end_operator
begin_operator
move_square f3-2f f3-1f square3
0
3
0 4 14 13
0 19 0 1
0 20 2 0
1
end_operator
begin_operator
move_square f3-2f f3-3f square0
0
3
0 1 14 15
0 20 2 0
0 21 0 1
1
end_operator
begin_operator
move_square f3-2f f3-3f square1
0
3
0 2 14 15
0 20 2 0
0 21 0 1
1
end_operator
begin_operator
move_square f3-2f f3-3f square2
0
3
0 3 14 15
0 20 2 0
0 21 0 1
1
end_operator
begin_operator
move_square f3-2f f3-3f square3
0
3
0 4 14 15
0 20 2 0
0 21 0 1
1
end_operator
begin_operator
move_square f3-2f f4-2f square0
0
3
0 1 14 18
0 20 2 0
0 24 0 1
1
end_operator
begin_operator
move_square f3-2f f4-2f square1
0
3
0 2 14 18
0 20 2 0
0 24 0 1
1
end_operator
begin_operator
move_square f3-2f f4-2f square2
0
3
0 3 14 18
0 20 2 0
0 24 0 1
1
end_operator
begin_operator
move_square f3-2f f4-2f square3
0
3
0 4 14 18
0 20 2 0
0 24 0 1
1
end_operator
begin_operator
move_square f3-3f f2-3f square0
0
3
0 1 15 11
0 17 0 1
0 21 2 0
1
end_operator
begin_operator
move_square f3-3f f2-3f square1
0
3
0 2 15 11
0 17 0 1
0 21 2 0
1
end_operator
begin_operator
move_square f3-3f f2-3f square2
0
3
0 3 15 11
0 17 0 1
0 21 2 0
1
end_operator
begin_operator
move_square f3-3f f2-3f square3
0
3
0 4 15 11
0 17 0 1
0 21 2 0
1
end_operator
begin_operator
move_square f3-3f f3-2f square0
0
3
0 1 15 14
0 20 0 1
0 21 2 0
1
end_operator
begin_operator
move_square f3-3f f3-2f square1
0
3
0 2 15 14
0 20 0 1
0 21 2 0
1
end_operator
begin_operator
move_square f3-3f f3-2f square2
0
3
0 3 15 14
0 20 0 1
0 21 2 0
1
end_operator
begin_operator
move_square f3-3f f3-2f square3
0
3
0 4 15 14
0 20 0 1
0 21 2 0
1
end_operator
begin_operator
move_square f3-3f f4-3f square0
0
3
0 1 15 19
0 21 2 0
0 25 0 1
1
end_operator
begin_operator
move_square f3-3f f4-3f square1
0
3
0 2 15 19
0 21 2 0
0 25 0 1
1
end_operator
begin_operator
move_square f3-3f f4-3f square2
0
3
0 3 15 19
0 21 2 0
0 25 0 1
1
end_operator
begin_operator
move_square f3-3f f4-3f square3
0
3
0 4 15 19
0 21 2 0
0 25 0 1
1
end_operator
begin_operator
move_square f4-0f f3-0f square0
0
3
0 1 16 12
0 18 0 1
0 22 2 0
1
end_operator
begin_operator
move_square f4-0f f3-0f square1
0
3
0 2 16 12
0 18 0 1
0 22 2 0
1
end_operator
begin_operator
move_square f4-0f f3-0f square2
0
3
0 3 16 12
0 18 0 1
0 22 2 0
1
end_operator
begin_operator
move_square f4-0f f3-0f square3
0
3
0 4 16 12
0 18 0 1
0 22 2 0
1
end_operator
begin_operator
move_square f4-0f f4-1f square0
0
3
0 1 16 17
0 22 2 0
0 23 0 1
1
end_operator
begin_operator
move_square f4-0f f4-1f square1
0
3
0 2 16 17
0 22 2 0
0 23 0 1
1
end_operator
begin_operator
move_square f4-0f f4-1f square2
0
3
0 3 16 17
0 22 2 0
0 23 0 1
1
end_operator
begin_operator
move_square f4-0f f4-1f square3
0
3
0 4 16 17
0 22 2 0
0 23 0 1
1
end_operator
begin_operator
move_square f4-0f f5-0f square0
0
3
0 1 16 20
0 22 2 0
0 26 0 1
1
end_operator
begin_operator
move_square f4-0f f5-0f square1
0
3
0 2 16 20
0 22 2 0
0 26 0 1
1
end_operator
begin_operator
move_square f4-0f f5-0f square2
0
3
0 3 16 20
0 22 2 0
0 26 0 1
1
end_operator
begin_operator
move_square f4-0f f5-0f square3
0
3
0 4 16 20
0 22 2 0
0 26 0 1
1
end_operator
begin_operator
move_square f4-1f f3-1f square0
0
3
0 1 17 13
0 19 0 1
0 23 2 0
1
end_operator
begin_operator
move_square f4-1f f3-1f square1
0
3
0 2 17 13
0 19 0 1
0 23 2 0
1
end_operator
begin_operator
move_square f4-1f f3-1f square2
0
3
0 3 17 13
0 19 0 1
0 23 2 0
1
end_operator
begin_operator
move_square f4-1f f3-1f square3
0
3
0 4 17 13
0 19 0 1
0 23 2 0
1
end_operator
begin_operator
move_square f4-1f f4-0f square0
0
3
0 1 17 16
0 22 0 1
0 23 2 0
1
end_operator
begin_operator
move_square f4-1f f4-0f square1
0
3
0 2 17 16
0 22 0 1
0 23 2 0
1
end_operator
begin_operator
move_square f4-1f f4-0f square2
0
3
0 3 17 16
0 22 0 1
0 23 2 0
1
end_operator
begin_operator
move_square f4-1f f4-0f square3
0
3
0 4 17 16
0 22 0 1
0 23 2 0
1
end_operator
begin_operator
move_square f4-1f f4-2f square0
0
3
0 1 17 18
0 23 2 0
0 24 0 1
1
end_operator
begin_operator
move_square f4-1f f4-2f square1
0
3
0 2 17 18
0 23 2 0
0 24 0 1
1
end_operator
begin_operator
move_square f4-1f f4-2f square2
0
3
0 3 17 18
0 23 2 0
0 24 0 1
1
end_operator
begin_operator
move_square f4-1f f4-2f square3
0
3
0 4 17 18
0 23 2 0
0 24 0 1
1
end_operator
begin_operator
move_square f4-1f f5-1f square0
0
3
0 1 17 21
0 23 2 0
0 27 0 1
1
end_operator
begin_operator
move_square f4-1f f5-1f square1
0
3
0 2 17 21
0 23 2 0
0 27 0 1
1
end_operator
begin_operator
move_square f4-1f f5-1f square2
0
3
0 3 17 21
0 23 2 0
0 27 0 1
1
end_operator
begin_operator
move_square f4-1f f5-1f square3
0
3
0 4 17 21
0 23 2 0
0 27 0 1
1
end_operator
begin_operator
move_square f4-2f f3-2f square0
0
3
0 1 18 14
0 20 0 1
0 24 2 0
1
end_operator
begin_operator
move_square f4-2f f3-2f square1
0
3
0 2 18 14
0 20 0 1
0 24 2 0
1
end_operator
begin_operator
move_square f4-2f f3-2f square2
0
3
0 3 18 14
0 20 0 1
0 24 2 0
1
end_operator
begin_operator
move_square f4-2f f3-2f square3
0
3
0 4 18 14
0 20 0 1
0 24 2 0
1
end_operator
begin_operator
move_square f4-2f f4-1f square0
0
3
0 1 18 17
0 23 0 1
0 24 2 0
1
end_operator
begin_operator
move_square f4-2f f4-1f square1
0
3
0 2 18 17
0 23 0 1
0 24 2 0
1
end_operator
begin_operator
move_square f4-2f f4-1f square2
0
3
0 3 18 17
0 23 0 1
0 24 2 0
1
end_operator
begin_operator
move_square f4-2f f4-1f square3
0
3
0 4 18 17
0 23 0 1
0 24 2 0
1
end_operator
begin_operator
move_square f4-2f f4-3f square0
0
3
0 1 18 19
0 24 2 0
0 25 0 1
1
end_operator
begin_operator
move_square f4-2f f4-3f square1
0
3
0 2 18 19
0 24 2 0
0 25 0 1
1
end_operator
begin_operator
move_square f4-2f f4-3f square2
0
3
0 3 18 19
0 24 2 0
0 25 0 1
1
end_operator
begin_operator
move_square f4-2f f4-3f square3
0
3
0 4 18 19
0 24 2 0
0 25 0 1
1
end_operator
begin_operator
move_square f4-2f f5-2f square0
0
3
0 1 18 22
0 24 2 0
0 28 0 1
1
end_operator
begin_operator
move_square f4-2f f5-2f square1
0
3
0 2 18 22
0 24 2 0
0 28 0 1
1
end_operator
begin_operator
move_square f4-2f f5-2f square2
0
3
0 3 18 22
0 24 2 0
0 28 0 1
1
end_operator
begin_operator
move_square f4-2f f5-2f square3
0
3
0 4 18 22
0 24 2 0
0 28 0 1
1
end_operator
begin_operator
move_square f4-3f f3-3f square0
0
3
0 1 19 15
0 21 0 1
0 25 2 0
1
end_operator
begin_operator
move_square f4-3f f3-3f square1
0
3
0 2 19 15
0 21 0 1
0 25 2 0
1
end_operator
begin_operator
move_square f4-3f f3-3f square2
0
3
0 3 19 15
0 21 0 1
0 25 2 0
1
end_operator
begin_operator
move_square f4-3f f3-3f square3
0
3
0 4 19 15
0 21 0 1
0 25 2 0
1
end_operator
begin_operator
move_square f4-3f f4-2f square0
0
3
0 1 19 18
0 24 0 1
0 25 2 0
1
end_operator
begin_operator
move_square f4-3f f4-2f square1
0
3
0 2 19 18
0 24 0 1
0 25 2 0
1
end_operator
begin_operator
move_square f4-3f f4-2f square2
0
3
0 3 19 18
0 24 0 1
0 25 2 0
1
end_operator
begin_operator
move_square f4-3f f4-2f square3
0
3
0 4 19 18
0 24 0 1
0 25 2 0
1
end_operator
begin_operator
move_square f4-3f f5-3f square0
0
3
0 1 19 23
0 25 2 0
0 29 0 1
1
end_operator
begin_operator
move_square f4-3f f5-3f square1
0
3
0 2 19 23
0 25 2 0
0 29 0 1
1
end_operator
begin_operator
move_square f4-3f f5-3f square2
0
3
0 3 19 23
0 25 2 0
0 29 0 1
1
end_operator
begin_operator
move_square f4-3f f5-3f square3
0
3
0 4 19 23
0 25 2 0
0 29 0 1
1
end_operator
begin_operator
move_square f5-0f f4-0f square0
0
3
0 1 20 16
0 22 0 1
0 26 2 0
1
end_operator
begin_operator
move_square f5-0f f4-0f square1
0
3
0 2 20 16
0 22 0 1
0 26 2 0
1
end_operator
begin_operator
move_square f5-0f f4-0f square2
0
3
0 3 20 16
0 22 0 1
0 26 2 0
1
end_operator
begin_operator
move_square f5-0f f4-0f square3
0
3
0 4 20 16
0 22 0 1
0 26 2 0
1
end_operator
begin_operator
move_square f5-0f f5-1f square0
0
3
0 1 20 21
0 26 2 0
0 27 0 1
1
end_operator
begin_operator
move_square f5-0f f5-1f square1
0
3
0 2 20 21
0 26 2 0
0 27 0 1
1
end_operator
begin_operator
move_square f5-0f f5-1f square2
0
3
0 3 20 21
0 26 2 0
0 27 0 1
1
end_operator
begin_operator
move_square f5-0f f5-1f square3
0
3
0 4 20 21
0 26 2 0
0 27 0 1
1
end_operator
begin_operator
move_square f5-1f f4-1f square0
0
3
0 1 21 17
0 23 0 1
0 27 2 0
1
end_operator
begin_operator
move_square f5-1f f4-1f square1
0
3
0 2 21 17
0 23 0 1
0 27 2 0
1
end_operator
begin_operator
move_square f5-1f f4-1f square2
0
3
0 3 21 17
0 23 0 1
0 27 2 0
1
end_operator
begin_operator
move_square f5-1f f4-1f square3
0
3
0 4 21 17
0 23 0 1
0 27 2 0
1
end_operator
begin_operator
move_square f5-1f f5-0f square0
0
3
0 1 21 20
0 26 0 1
0 27 2 0
1
end_operator
begin_operator
move_square f5-1f f5-0f square1
0
3
0 2 21 20
0 26 0 1
0 27 2 0
1
end_operator
begin_operator
move_square f5-1f f5-0f square2
0
3
0 3 21 20
0 26 0 1
0 27 2 0
1
end_operator
begin_operator
move_square f5-1f f5-0f square3
0
3
0 4 21 20
0 26 0 1
0 27 2 0
1
end_operator
begin_operator
move_square f5-1f f5-2f square0
0
3
0 1 21 22
0 27 2 0
0 28 0 1
1
end_operator
begin_operator
move_square f5-1f f5-2f square1
0
3
0 2 21 22
0 27 2 0
0 28 0 1
1
end_operator
begin_operator
move_square f5-1f f5-2f square2
0
3
0 3 21 22
0 27 2 0
0 28 0 1
1
end_operator
begin_operator
move_square f5-1f f5-2f square3
0
3
0 4 21 22
0 27 2 0
0 28 0 1
1
end_operator
begin_operator
move_square f5-2f f4-2f square0
0
3
0 1 22 18
0 24 0 1
0 28 2 0
1
end_operator
begin_operator
move_square f5-2f f4-2f square1
0
3
0 2 22 18
0 24 0 1
0 28 2 0
1
end_operator
begin_operator
move_square f5-2f f4-2f square2
0
3
0 3 22 18
0 24 0 1
0 28 2 0
1
end_operator
begin_operator
move_square f5-2f f4-2f square3
0
3
0 4 22 18
0 24 0 1
0 28 2 0
1
end_operator
begin_operator
move_square f5-2f f5-1f square0
0
3
0 1 22 21
0 27 0 1
0 28 2 0
1
end_operator
begin_operator
move_square f5-2f f5-1f square1
0
3
0 2 22 21
0 27 0 1
0 28 2 0
1
end_operator
begin_operator
move_square f5-2f f5-1f square2
0
3
0 3 22 21
0 27 0 1
0 28 2 0
1
end_operator
begin_operator
move_square f5-2f f5-1f square3
0
3
0 4 22 21
0 27 0 1
0 28 2 0
1
end_operator
begin_operator
move_square f5-2f f5-3f square0
0
3
0 1 22 23
0 28 2 0
0 29 0 1
1
end_operator
begin_operator
move_square f5-2f f5-3f square1
0
3
0 2 22 23
0 28 2 0
0 29 0 1
1
end_operator
begin_operator
move_square f5-2f f5-3f square2
0
3
0 3 22 23
0 28 2 0
0 29 0 1
1
end_operator
begin_operator
move_square f5-2f f5-3f square3
0
3
0 4 22 23
0 28 2 0
0 29 0 1
1
end_operator
begin_operator
move_square f5-3f f4-3f square0
0
3
0 1 23 19
0 25 0 1
0 29 2 0
1
end_operator
begin_operator
move_square f5-3f f4-3f square1
0
3
0 2 23 19
0 25 0 1
0 29 2 0
1
end_operator
begin_operator
move_square f5-3f f4-3f square2
0
3
0 3 23 19
0 25 0 1
0 29 2 0
1
end_operator
begin_operator
move_square f5-3f f4-3f square3
0
3
0 4 23 19
0 25 0 1
0 29 2 0
1
end_operator
begin_operator
move_square f5-3f f5-2f square0
0
3
0 1 23 22
0 28 0 1
0 29 2 0
1
end_operator
begin_operator
move_square f5-3f f5-2f square1
0
3
0 2 23 22
0 28 0 1
0 29 2 0
1
end_operator
begin_operator
move_square f5-3f f5-2f square2
0
3
0 3 23 22
0 28 0 1
0 29 2 0
1
end_operator
begin_operator
move_square f5-3f f5-2f square3
0
3
0 4 23 22
0 28 0 1
0 29 2 0
1
end_operator
begin_operator
move_two f0-0f f0-1f f0-2f straight0
0
3
0 0 0 3
0 6 2 0
0 8 0 1
2
end_operator
begin_operator
move_two f0-0f f0-1f f1-1f straight0
0
3
0 0 0 4
0 6 2 0
0 11 0 1
2
end_operator
begin_operator
move_two f0-0f f1-0f f1-1f straight0
0
3
0 0 1 11
0 6 2 0
0 11 0 1
2
end_operator
begin_operator
move_two f0-0f f1-0f f2-0f straight0
0
3
0 0 1 12
0 6 2 0
0 14 0 1
2
end_operator
begin_operator
move_two f0-1f f0-0f f1-0f straight0
0
3
0 0 2 1
0 7 2 0
0 10 0 1
2
end_operator
begin_operator
move_two f0-1f f0-2f f0-3f straight0
0
3
0 0 3 6
0 7 2 0
0 9 0 1
2
end_operator
begin_operator
move_two f0-1f f0-2f f1-2f straight0
0
3
0 0 3 7
0 7 2 0
0 12 0 1
2
end_operator
begin_operator
move_two f0-1f f1-1f f1-0f straight0
0
3
0 0 4 14
0 7 2 0
0 10 0 1
2
end_operator
begin_operator
move_two f0-1f f1-1f f1-2f straight0
0
3
0 0 4 15
0 7 2 0
0 12 0 1
2
end_operator
begin_operator
move_two f0-1f f1-1f f2-1f straight0
0
3
0 0 4 16
0 7 2 0
0 15 0 1
2
end_operator
begin_operator
move_two f0-2f f0-1f f0-0f straight0
0
3
0 0 5 2
0 6 0 1
0 8 2 0
2
end_operator
begin_operator
move_two f0-2f f0-1f f1-1f straight0
0
3
0 0 5 4
0 8 2 0
0 11 0 1
2
end_operator
begin_operator
move_two f0-2f f0-3f f1-3f straight0
0
3
0 0 6 9
0 8 2 0
0 13 0 1
2
end_operator
begin_operator
move_two f0-2f f1-2f f1-1f straight0
0
3
0 0 7 18
0 8 2 0
0 11 0 1
2
end_operator
begin_operator
move_two f0-2f f1-2f f1-3f straight0
0
3
0 0 7 19
0 8 2 0
0 13 0 1
2
end_operator
begin_operator
move_two f0-2f f1-2f f2-2f straight0
0
3
0 0 7 20
0 8 2 0
0 16 0 1
2
end_operator
begin_operator
move_two f0-3f f0-2f f0-1f straight0
0
3
0 0 8 5
0 7 0 1
0 9 2 0
2
end_operator
begin_operator
move_two f0-3f f0-2f f1-2f straight0
0
3
0 0 8 7
0 9 2 0
0 12 0 1
2
end_operator
begin_operator
move_two f0-3f f1-3f f1-2f straight0
0
3
0 0 9 22
0 9 2 0
0 12 0 1
2
end_operator
begin_operator
move_two f0-3f f1-3f f2-3f straight0
0
3
0 0 9 23
0 9 2 0
0 17 0 1
2
end_operator
begin_operator
move_two f1-0f f0-0f f0-1f straight0
0
3
0 0 10 0
0 7 0 1
0 10 2 0
2
end_operator
begin_operator
move_two f1-0f f1-1f f0-1f straight0
0
3
0 0 11 13
0 7 0 1
0 10 2 0
2
end_operator
begin_operator
move_two f1-0f f1-1f f1-2f straight0
0
3
0 0 11 15
0 10 2 0
0 12 0 1
2
end_operator
begin_operator
move_two f1-0f f1-1f f2-1f straight0
0
3
0 0 11 16
0 10 2 0
0 15 0 1
2
end_operator
begin_operator
move_two f1-0f f2-0f f2-1f straight0
0
3
0 0 12 25
0 10 2 0
0 15 0 1
2
end_operator
begin_operator
move_two f1-0f f2-0f f3-0f straight0
0
3
0 0 12 26
0 10 2 0
0 18 0 1
2
end_operator
begin_operator
move_two f1-1f f0-1f f0-0f straight0
0
3
0 0 13 2
0 6 0 1
0 11 2 0
2
end_operator
begin_operator
move_two f1-1f f0-1f f0-2f straight0
0
3
0 0 13 3
0 8 0 1
0 11 2 0
2
end_operator
begin_operator
move_two f1-1f f1-0f f0-0f straight0
0
3
0 0 14 10
0 6 0 1
0 11 2 0
2
end_operator
begin_operator
move_two f1-1f f1-0f f2-0f straight0
0
3
0 0 14 12
0 11 2 0
0 14 0 1
2
end_operator
begin_operator
move_two f1-1f f1-2f f0-2f straight0
0
3
0 0 15 17
0 8 0 1
0 11 2 0
2
end_operator
begin_operator
move_two f1-1f f1-2f f1-3f straight0
0
3
0 0 15 19
0 11 2 0
0 13 0 1
2
end_operator
begin_operator
move_two f1-1f f1-2f f2-2f straight0
0
3
0 0 15 20
0 11 2 0
0 16 0 1
2
end_operator
begin_operator
move_two f1-1f f2-1f f2-0f straight0
0
3
0 0 16 28
0 11 2 0
0 14 0 1
2
end_operator
begin_operator
move_two f1-1f f2-1f f2-2f straight0
0
3
0 0 16 29
0 11 2 0
0 16 0 1
2
end_operator
begin_operator
move_two f1-1f f2-1f f3-1f straight0
0
3
0 0 16 30
0 11 2 0
0 19 0 1
2
end_operator
begin_operator
move_two f1-2f f0-2f f0-1f straight0
0
3
0 0 17 5
0 7 0 1
0 12 2 0
2
end_operator
begin_operator
move_two f1-2f f0-2f f0-3f straight0
0
3
0 0 17 6
0 9 0 1
0 12 2 0
2
end_operator
begin_operator
move_two f1-2f f1-1f f0-1f straight0
0
3
0 0 18 13
0 7 0 1
0 12 2 0
2
end_operator
begin_operator
move_two f1-2f f1-1f f1-0f straight0
0
3
0 0 18 14
0 10 0 1
0 12 2 0
2
end_operator
begin_operator
move_two f1-2f f1-1f f2-1f straight0
0
3
0 0 18 16
0 12 2 0
0 15 0 1
2
end_operator
begin_operator
move_two f1-2f f1-3f f0-3f straight0
0
3
0 0 19 21
0 9 0 1
0 12 2 0
2
end_operator
begin_operator
move_two f1-2f f1-3f f2-3f straight0
0
3
0 0 19 23
0 12 2 0
0 17 0 1
2
end_operator
begin_operator
move_two f1-2f f2-2f f2-1f straight0
0
3
0 0 20 32
0 12 2 0
0 15 0 1
2
end_operator
begin_operator
move_two f1-2f f2-2f f2-3f straight0
0
3
0 0 20 33
0 12 2 0
0 17 0 1
2
end_operator
begin_operator
move_two f1-2f f2-2f f3-2f straight0
0
3
0 0 20 34
0 12 2 0
0 20 0 1
2
end_operator
begin_operator
move_two f1-3f f0-3f f0-2f straight0
0
3
0 0 21 8
0 8 0 1
0 13 2 0
2
end_operator
begin_operator
move_two f1-3f f1-2f f0-2f straight0
0
3
0 0 22 17
0 8 0 1
0 13 2 0
2
end_operator
begin_operator
move_two f1-3f f1-2f f1-1f straight0
0
3
0 0 22 18
0 11 0 1
0 13 2 0
2
end_operator
begin_operator
move_two f1-3f f1-2f f2-2f straight0
0
3
0 0 22 20
0 13 2 0
0 16 0 1
2
end_operator
begin_operator
move_two f1-3f f2-3f f2-2f straight0
0
3
0 0 23 36
0 13 2 0
0 16 0 1
2
end_operator
begin_operator
move_two f1-3f f2-3f f3-3f straight0
0
3
0 0 23 37
0 13 2 0
0 21 0 1
2
end_operator
begin_operator
move_two f2-0f f1-0f f0-0f straight0
0
3
0 0 24 10
0 6 0 1
0 14 2 0
2
end_operator
begin_operator
move_two f2-0f f1-0f f1-1f straight0
0
3
0 0 24 11
0 11 0 1
0 14 2 0
2
end_operator
begin_operator
move_two f2-0f f2-1f f1-1f straight0
0
3
0 0 25 27
0 11 0 1
0 14 2 0
2
end_operator
begin_operator
move_two f2-0f f2-1f f2-2f straight0
0
3
0 0 25 29
0 14 2 0
0 16 0 1
2
end_operator
begin_operator
move_two f2-0f f2-1f f3-1f straight0
0
3
0 0 25 30
0 14 2 0
0 19 0 1
2
end_operator
begin_operator
move_two f2-0f f3-0f f3-1f straight0
0
3
0 0 26 39
0 14 2 0
0 19 0 1
2
end_operator
begin_operator
move_two f2-0f f3-0f f4-0f straight0
0
3
0 0 26 40
0 14 2 0
0 22 0 1
2
end_operator
begin_operator
move_two f2-1f f1-1f f0-1f straight0
0
3
0 0 27 13
0 7 0 1
0 15 2 0
2
end_operator
begin_operator
move_two f2-1f f1-1f f1-0f straight0
0
3
0 0 27 14
0 10 0 1
0 15 2 0
2
end_operator
begin_operator
move_two f2-1f f1-1f f1-2f straight0
0
3
0 0 27 15
0 12 0 1
0 15 2 0
2
end_operator
begin_operator
move_two f2-1f f2-0f f1-0f straight0
0
3
0 0 28 24
0 10 0 1
0 15 2 0
2
end_operator
begin_operator
move_two f2-1f f2-0f f3-0f straight0
0
3
0 0 28 26
0 15 2 0
0 18 0 1
2
end_operator
begin_operator
move_two f2-1f f2-2f f1-2f straight0
0
3
0 0 29 31
0 12 0 1
0 15 2 0
2
end_operator
begin_operator
move_two f2-1f f2-2f f2-3f straight0
0
3
0 0 29 33
0 15 2 0
0 17 0 1
2
end_operator
begin_operator
move_two f2-1f f2-2f f3-2f straight0
0
3
0 0 29 34
0 15 2 0
0 20 0 1
2
end_operator
begin_operator
move_two f2-1f f3-1f f3-0f straight0
0
3
0 0 30 42
0 15 2 0
0 18 0 1
2
end_operator
begin_operator
move_two f2-1f f3-1f f3-2f straight0
0
3
0 0 30 43
0 15 2 0
0 20 0 1
2
end_operator
begin_operator
move_two f2-1f f3-1f f4-1f straight0
0
3
0 0 30 44
0 15 2 0
0 23 0 1
2
end_operator
begin_operator
move_two f2-2f f1-2f f0-2f straight0
0
3
0 0 31 17
0 8 0 1
0 16 2 0
2
end_operator
begin_operator
move_two f2-2f f1-2f f1-1f straight0
0
3
0 0 31 18
0 11 0 1
0 16 2 0
2
end_operator
begin_operator
move_two f2-2f f1-2f f1-3f straight0
0
3
0 0 31 19
0 13 0 1
0 16 2 0
2
end_operator
begin_operator
move_two f2-2f f2-1f f1-1f straight0
0
3
0 0 32 27
0 11 0 1
0 16 2 0
2
end_operator
begin_operator
move_two f2-2f f2-1f f2-0f straight0
0
3
0 0 32 28
0 14 0 1
0 16 2 0
2
end_operator
begin_operator
move_two f2-2f f2-1f f3-1f straight0
0
3
0 0 32 30
0 16 2 0
0 19 0 1
2
end_operator
begin_operator
move_two f2-2f f2-3f f1-3f straight0
0
3
0 0 33 35
0 13 0 1
0 16 2 0
2
end_operator
begin_operator
move_two f2-2f f2-3f f3-3f straight0
0
3
0 0 33 37
0 16 2 0
0 21 0 1
2
end_operator
begin_operator
move_two f2-2f f3-2f f3-1f straight0
0
3
0 0 34 46
0 16 2 0
0 19 0 1
2
end_operator
begin_operator
move_two f2-2f f3-2f f3-3f straight0
0
3
0 0 34 47
0 16 2 0
0 21 0 1
2
end_operator
begin_operator
move_two f2-2f f3-2f f4-2f straight0
0
3
0 0 34 48
0 16 2 0
0 24 0 1
2
end_operator
begin_operator
move_two f2-3f f1-3f f0-3f straight0
0
3
0 0 35 21
0 9 0 1
0 17 2 0
2
end_operator
begin_operator
move_two f2-3f f1-3f f1-2f straight0
0
3
0 0 35 22
0 12 0 1
0 17 2 0
2
end_operator
begin_operator
move_two f2-3f f2-2f f1-2f straight0
0
3
0 0 36 31
0 12 0 1
0 17 2 0
2
end_operator
begin_operator
move_two f2-3f f2-2f f2-1f straight0
0
3
0 0 36 32
0 15 0 1
0 17 2 0
2
end_operator
begin_operator
move_two f2-3f f2-2f f3-2f straight0
0
3
0 0 36 34
0 17 2 0
0 20 0 1
2
end_operator
begin_operator
move_two f2-3f f3-3f f3-2f straight0
0
3
0 0 37 50
0 17 2 0
0 20 0 1
2
end_operator
begin_operator
move_two f2-3f f3-3f f4-3f straight0
0
3
0 0 37 51
0 17 2 0
0 25 0 1
2
end_operator
begin_operator
move_two f3-0f f2-0f f1-0f straight0
0
3
0 0 38 24
0 10 0 1
0 18 2 0
2
end_operator
begin_operator
move_two f3-0f f2-0f f2-1f straight0
0
3
0 0 38 25
0 15 0 1
0 18 2 0
2
end_operator
begin_operator
move_two f3-0f f3-1f f2-1f straight0
0
3
0 0 39 41
0 15 0 1
0 18 2 0
2
end_operator
begin_operator
move_two f3-0f f3-1f f3-2f straight0
0
3
0 0 39 43
0 18 2 0
0 20 0 1
2
end_operator
begin_operator
move_two f3-0f f3-1f f4-1f straight0
0
3
0 0 39 44
0 18 2 0
0 23 0 1
2
end_operator
begin_operator
move_two f3-0f f4-0f f4-1f straight0
0
3
0 0 40 53
0 18 2 0
0 23 0 1
2
end_operator
begin_operator
move_two f3-0f f4-0f f5-0f straight0
0
3
0 0 40 54
0 18 2 0
0 26 0 1
2
end_operator
begin_operator
move_two f3-1f f2-1f f1-1f straight0
0
3
0 0 41 27
0 11 0 1
0 19 2 0
2
end_operator
begin_operator
move_two f3-1f f2-1f f2-0f straight0
0
3
0 0 41 28
0 14 0 1
0 19 2 0
2
end_operator
begin_operator
move_two f3-1f f2-1f f2-2f straight0
0
3
0 0 41 29
0 16 0 1
0 19 2 0
2
end_operator
begin_operator
move_two f3-1f f3-0f f2-0f straight0
0
3
0 0 42 38
0 14 0 1
0 19 2 0
2
end_operator
begin_operator
move_two f3-1f f3-0f f4-0f straight0
0
3
0 0 42 40
0 19 2 0
0 22 0 1
2
end_operator
begin_operator
move_two f3-1f f3-2f f2-2f straight0
0
3
0 0 43 45
0 16 0 1
0 19 2 0
2
end_operator
begin_operator
move_two f3-1f f3-2f f3-3f straight0
0
3
0 0 43 47
0 19 2 0
0 21 0 1
2
end_operator
begin_operator
move_two f3-1f f3-2f f4-2f straight0
0
3
0 0 43 48
0 19 2 0
0 24 0 1
2
end_operator
begin_operator
move_two f3-1f f4-1f f4-0f straight0
0
3
0 0 44 56
0 19 2 0
0 22 0 1
2
end_operator
begin_operator
move_two f3-1f f4-1f f4-2f straight0
0
3
0 0 44 57
0 19 2 0
0 24 0 1
2
end_operator
begin_operator
move_two f3-1f f4-1f f5-1f straight0
0
3
0 0 44 58
0 19 2 0
0 27 0 1
2
end_operator
begin_operator
move_two f3-2f f2-2f f1-2f straight0
0
3
0 0 45 31
0 12 0 1
0 20 2 0
2
end_operator
begin_operator
move_two f3-2f f2-2f f2-1f straight0
0
3
0 0 45 32
0 15 0 1
0 20 2 0
2
end_operator
begin_operator
move_two f3-2f f2-2f f2-3f straight0
0
3
0 0 45 33
0 17 0 1
0 20 2 0
2
end_operator
begin_operator
move_two f3-2f f3-1f f2-1f straight0
0
3
0 0 46 41
0 15 0 1
0 20 2 0
2
end_operator
begin_operator
move_two f3-2f f3-1f f3-0f straight0
0
3
0 0 46 42
0 18 0 1
0 20 2 0
2
end_operator
begin_operator
move_two f3-2f f3-1f f4-1f straight0
0
3
0 0 46 44
0 20 2 0
0 23 0 1
2
end_operator
begin_operator
move_two f3-2f f3-3f f2-3f straight0
0
3
0 0 47 49
0 17 0 1
0 20 2 0
2
end_operator
begin_operator
move_two f3-2f f3-3f f4-3f straight0
0
3
0 0 47 51
0 20 2 0
0 25 0 1
2
end_operator
begin_operator
move_two f3-2f f4-2f f4-1f straight0
0
3
0 0 48 60
0 20 2 0
0 23 0 1
2
end_operator
begin_operator
move_two f3-2f f4-2f f4-3f straight0
0
3
0 0 48 61
0 20 2 0
0 25 0 1
2
end_operator
begin_operator
move_two f3-2f f4-2f f5-2f straight0
0
3
0 0 48 62
0 20 2 0
0 28 0 1
2
end_operator
begin_operator
move_two f3-3f f2-3f f1-3f straight0
0
3
0 0 49 35
0 13 0 1
0 21 2 0
2
end_operator
begin_operator
move_two f3-3f f2-3f f2-2f straight0
0
3
0 0 49 36
0 16 0 1
0 21 2 0
2
end_operator
begin_operator
move_two f3-3f f3-2f f2-2f straight0
0
3
0 0 50 45
0 16 0 1
0 21 2 0
2
end_operator
begin_operator
move_two f3-3f f3-2f f3-1f straight0
0
3
0 0 50 46
0 19 0 1
0 21 2 0
2
end_operator
begin_operator
move_two f3-3f f3-2f f4-2f straight0
0
3
0 0 50 48
0 21 2 0
0 24 0 1
2
end_operator
begin_operator
move_two f3-3f f4-3f f4-2f straight0
0
3
0 0 51 64
0 21 2 0
0 24 0 1
2
end_operator
begin_operator
move_two f3-3f f4-3f f5-3f straight0
0
3
0 0 51 65
0 21 2 0
0 29 0 1
2
end_operator
begin_operator
move_two f4-0f f3-0f f2-0f straight0
0
3
0 0 52 38
0 14 0 1
0 22 2 0
2
end_operator
begin_operator
move_two f4-0f f3-0f f3-1f straight0
0
3
0 0 52 39
0 19 0 1
0 22 2 0
2
end_operator
begin_operator
move_two f4-0f f4-1f f3-1f straight0
0
3
0 0 53 55
0 19 0 1
0 22 2 0
2
end_operator
begin_operator
move_two f4-0f f4-1f f4-2f straight0
0
3
0 0 53 57
0 22 2 0
0 24 0 1
2
end_operator
begin_operator
move_two f4-0f f4-1f f5-1f straight0
0
3
0 0 53 58
0 22 2 0
0 27 0 1
2
end_operator
begin_operator
move_two f4-0f f5-0f f5-1f straight0
0
3
0 0 54 67
0 22 2 0
0 27 0 1
2
end_operator
begin_operator
move_two f4-1f f3-1f f2-1f straight0
0
3
0 0 55 41
0 15 0 1
0 23 2 0
2
end_operator
begin_operator
move_two f4-1f f3-1f f3-0f straight0
0
3
0 0 55 42
0 18 0 1
0 23 2 0
2
end_operator
begin_operator
move_two f4-1f f3-1f f3-2f straight0
0
3
0 0 55 43
0 20 0 1
0 23 2 0
2
end_operator
begin_operator
move_two f4-1f f4-0f f3-0f straight0
0
3
0 0 56 52
0 18 0 1
0 23 2 0
2
end_operator
begin_operator
move_two f4-1f f4-0f f5-0f straight0
0
3
0 0 56 54
0 23 2 0
0 26 0 1
2
end_operator
begin_operator
move_two f4-1f f4-2f f3-2f straight0
0
3
0 0 57 59
0 20 0 1
0 23 2 0
2
end_operator
begin_operator
move_two f4-1f f4-2f f4-3f straight0
0
3
0 0 57 61
0 23 2 0
0 25 0 1
2
end_operator
begin_operator
move_two f4-1f f4-2f f5-2f straight0
0
3
0 0 57 62
0 23 2 0
0 28 0 1
2
end_operator
begin_operator
move_two f4-1f f5-1f f5-0f straight0
0
3
0 0 58 69
0 23 2 0
0 26 0 1
2
end_operator
begin_operator
move_two f4-1f f5-1f f5-2f straight0
0
3
0 0 58 70
0 23 2 0
0 28 0 1
2
end_operator
begin_operator
move_two f4-2f f3-2f f2-2f straight0
0
3
0 0 59 45
0 16 0 1
0 24 2 0
2
end_operator
begin_operator
move_two f4-2f f3-2f f3-1f straight0
0
3
0 0 59 46
0 19 0 1
0 24 2 0
2
end_operator
begin_operator
move_two f4-2f f3-2f f3-3f straight0
0
3
0 0 59 47
0 21 0 1
0 24 2 0
2
end_operator
begin_operator
move_two f4-2f f4-1f f3-1f straight0
0
3
0 0 60 55
0 19 0 1
0 24 2 0
2
end_operator
begin_operator
move_two f4-2f f4-1f f4-0f straight0
0
3
0 0 60 56
0 22 0 1
0 24 2 0
2
end_operator
begin_operator
move_two f4-2f f4-1f f5-1f straight0
0
3
0 0 60 58
0 24 2 0
0 27 0 1
2
end_operator
begin_operator
move_two f4-2f f4-3f f3-3f straight0
0
3
0 0 61 63
0 21 0 1
0 24 2 0
2
end_operator
begin_operator
move_two f4-2f f4-3f f5-3f straight0
0
3
0 0 61 65
0 24 2 0
0 29 0 1
2
end_operator
begin_operator
move_two f4-2f f5-2f f5-1f straight0
0
3
0 0 62 72
0 24 2 0
0 27 0 1
2
end_operator
begin_operator
move_two f4-2f f5-2f f5-3f straight0
0
3
0 0 62 73
0 24 2 0
0 29 0 1
2
end_operator
begin_operator
move_two f4-3f f3-3f f2-3f straight0
0
3
0 0 63 49
0 17 0 1
0 25 2 0
2
end_operator
begin_operator
move_two f4-3f f3-3f f3-2f straight0
0
3
0 0 63 50
0 20 0 1
0 25 2 0
2
end_operator
begin_operator
move_two f4-3f f4-2f f3-2f straight0
0
3
0 0 64 59
0 20 0 1
0 25 2 0
2
end_operator
begin_operator
move_two f4-3f f4-2f f4-1f straight0
0
3
0 0 64 60
0 23 0 1
0 25 2 0
2
end_operator
begin_operator
move_two f4-3f f4-2f f5-2f straight0
0
3
0 0 64 62
0 25 2 0
0 28 0 1
2
end_operator
begin_operator
move_two f4-3f f5-3f f5-2f straight0
0
3
0 0 65 75
0 25 2 0
0 28 0 1
2
end_operator
begin_operator
move_two f5-0f f4-0f f3-0f straight0
0
3
0 0 66 52
0 18 0 1
0 26 2 0
2
end_operator
begin_operator
move_two f5-0f f4-0f f4-1f straight0
0
3
0 0 66 53
0 23 0 1
0 26 2 0
2
end_operator
begin_operator
move_two f5-0f f5-1f f4-1f straight0
0
3
0 0 67 68
0 23 0 1
0 26 2 0
2
end_operator
begin_operator
move_two f5-0f f5-1f f5-2f straight0
0
3
0 0 67 70
0 26 2 0
0 28 0 1
2
end_operator
begin_operator
move_two f5-1f f4-1f f3-1f straight0
0
3
0 0 68 55
0 19 0 1
0 27 2 0
2
end_operator
begin_operator
move_two f5-1f f4-1f f4-0f straight0
0
3
0 0 68 56
0 22 0 1
0 27 2 0
2
end_operator
begin_operator
move_two f5-1f f4-1f f4-2f straight0
0
3
0 0 68 57
0 24 0 1
0 27 2 0
2
end_operator
begin_operator
move_two f5-1f f5-0f f4-0f straight0
0
3
0 0 69 66
0 22 0 1
0 27 2 0
2
end_operator
begin_operator
move_two f5-1f f5-2f f4-2f straight0
0
3
0 0 70 71
0 24 0 1
0 27 2 0
2
end_operator
begin_operator
move_two f5-1f f5-2f f5-3f straight0
0
3
0 0 70 73
0 27 2 0
0 29 0 1
2
end_operator
begin_operator
move_two f5-2f f4-2f f3-2f straight0
0
3
0 0 71 59
0 20 0 1
0 28 2 0
2
end_operator
begin_operator
move_two f5-2f f4-2f f4-1f straight0
0
3
0 0 71 60
0 23 0 1
0 28 2 0
2
end_operator
begin_operator
move_two f5-2f f4-2f f4-3f straight0
0
3
0 0 71 61
0 25 0 1
0 28 2 0
2
end_operator
begin_operator
move_two f5-2f f5-1f f4-1f straight0
0
3
0 0 72 68
0 23 0 1
0 28 2 0
2
end_operator
begin_operator
move_two f5-2f f5-1f f5-0f straight0
0
3
0 0 72 69
0 26 0 1
0 28 2 0
2
end_operator
begin_operator
move_two f5-2f f5-3f f4-3f straight0
0
3
0 0 73 74
0 25 0 1
0 28 2 0
2
end_operator
begin_operator
move_two f5-3f f4-3f f3-3f straight0
0
3
0 0 74 63
0 21 0 1
0 29 2 0
2
end_operator
begin_operator
move_two f5-3f f4-3f f4-2f straight0
0
3
0 0 74 64
0 24 0 1
0 29 2 0
2
end_operator
begin_operator
move_two f5-3f f5-2f f4-2f straight0
0
3
0 0 75 71
0 24 0 1
0 29 2 0
2
end_operator
begin_operator
move_two f5-3f f5-2f f5-1f straight0
0
3
0 0 75 72
0 27 0 1
0 29 2 0
2
end_operator
begin_operator
tnf-forget-0-0
0
1
0 0 0 76
0
end_operator
begin_operator
tnf-forget-0-1
0
1
0 0 1 76
0
end_operator
begin_operator
tnf-forget-0-2
0
1
0 0 2 76
0
end_operator
begin_operator
tnf-forget-0-3
0
1
0 0 3 76
0
end_operator
begin_operator
tnf-forget-0-4
0
1
0 0 4 76
0
end_operator
begin_operator
tnf-forget-0-5
0
1
0 0 5 76
0
end_operator
begin_operator
tnf-forget-0-6
0
1
0 0 6 76
0
end_operator
begin_operator
tnf-forget-0-7
0
1
0 0 7 76
0
end_operator
begin_operator
tnf-forget-0-8
0
1
0 0 8 76
0
end_operator
begin_operator
tnf-forget-0-9
0
1
0 0 9 76
0
end_operator
begin_operator
tnf-forget-0-10
0
1
0 0 10 76
0
end_operator
begin_operator
tnf-forget-0-11
0
1
0 0 11 76
0
end_operator
begin_operator
tnf-forget-0-12
0
1
0 0 12 76
0
end_operator
begin_operator
tnf-forget-0-13
0
1
0 0 13 76
0
end_operator
begin_operator
tnf-forget-0-14
0
1
0 0 14 76
0
end_operator
begin_operator
tnf-forget-0-15
0
1
0 0 15 76
0
end_operator
begin_operator
tnf-forget-0-16
0
1
0 0 16 76
0
end_operator
begin_operator
tnf-forget-0-17
0
1
0 0 17 76
0
end_operator
begin_operator
tnf-forget-0-18
0
1
0 0 18 76
0
end_operator
begin_operator
tnf-forget-0-19
0
1
0 0 19 76
0
end_operator
begin_operator
tnf-forget-0-20
0
1
0 0 20 76
0
end_operator
begin_operator
tnf-forget-0-21
0
1
0 0 21 76
0
end_operator
begin_operator
tnf-forget-0-22
0
1
0 0 22 76
0
end_operator
begin_operator
tnf-forget-0-23
0
1
0 0 23 76
0
end_operator
begin_operator
tnf-forget-0-24
0
1
0 0 24 76
0
end_operator
begin_operator
tnf-forget-0-25
0
1
0 0 25 76
0
end_operator
begin_operator
tnf-forget-0-26
0
1
0 0 26 76
0
end_operator
begin_operator
tnf-forget-0-27
0
1
0 0 27 76
0
end_operator
begin_operator
tnf-forget-0-28
0
1
0 0 28 76
0
end_operator
begin_operator
tnf-forget-0-29
0
1
0 0 29 76
0
end_operator
begin_operator
tnf-forget-0-30
0
1
0 0 30 76
0
end_operator
begin_operator
tnf-forget-0-31
0
1
0 0 31 76
0
end_operator
begin_operator
tnf-forget-0-32
0
1
0 0 32 76
0
end_operator
begin_operator
tnf-forget-0-33
0
1
0 0 33 76
0
end_operator
begin_operator
tnf-forget-0-34
0
1
0 0 34 76
0
end_operator
begin_operator
tnf-forget-0-35
0
1
0 0 35 76
0
end_operator
begin_operator
tnf-forget-0-36
0
1
0 0 36 76
0
end_operator
begin_operator
tnf-forget-0-37
0
1
0 0 37 76
0
end_operator
begin_operator
tnf-forget-0-38
0
1
0 0 38 76
0
end_operator
begin_operator
tnf-forget-0-39
0
1
0 0 39 76
0
end_operator
begin_operator
tnf-forget-0-40
0
1
0 0 40 76
0
end_operator
begin_operator
tnf-forget-0-41
0
1
0 0 41 76
0
end_operator
begin_operator
tnf-forget-0-42
0
1
0 0 42 76
0
end_operator
begin_operator
tnf-forget-0-43
0
1
0 0 43 76
0
end_operator
begin_operator
tnf-forget-0-44
0
1
0 0 44 76
0
end_operator
begin_operator
tnf-forget-0-45
0
1
0 0 45 76
0
end_operator
begin_operator
tnf-forget-0-46
0
1
0 0 46 76
0
end_operator
begin_operator
tnf-forget-0-47
0
1
0 0 47 76
0
end_operator
begin_operator
tnf-forget-0-48
0
1
0 0 48 76
0
end_operator
begin_operator
tnf-forget-0-49
0
1
0 0 49 76
0
end_operator
begin_operator
tnf-forget-0-50
0
1
0 0 50 76
0
end_operator
begin_operator
tnf-forget-0-51
0
1
0 0 51 76
0
end_operator
begin_operator
tnf-forget-0-52
0
1
0 0 52 76
0
end_operator
begin_operator
tnf-forget-0-53
0
1
0 0 53 76
0
end_operator
begin_operator
tnf-forget-0-54
0
1
0 0 54 76
0
end_operator
begin_operator
tnf-forget-0-55
0
1
0 0 55 76
0
end_operator
begin_operator
tnf-forget-0-56
0
1
0 0 56 76
0
end_operator
begin_operator
tnf-forget-0-57
0
1
0 0 57 76
0
end_operator
begin_operator
tnf-forget-0-58
0
1
0 0 58 76
0
end_operator
begin_operator
tnf-forget-0-59
0
1
0 0 59 76
0
end_operator
begin_operator
tnf-forget-0-60
0
1
0 0 60 76
0
end_operator
begin_operator
tnf-forget-0-61
0
1
0 0 61 76
0
end_operator
begin_operator
tnf-forget-0-62
0
1
0 0 62 76
0
end_operator
begin_operator
tnf-forget-0-63
0
1
0 0 63 76
0
end_operator
begin_operator
tnf-forget-0-64
0
1
0 0 64 76
0
end_operator
begin_operator
tnf-forget-0-65
0
1
0 0 65 76
0
end_operator
begin_operator
tnf-forget-0-66
0
1
0 0 66 76
0
end_operator
begin_operator
tnf-forget-0-67
0
1
0 0 67 76
0
end_operator
begin_operator
tnf-forget-0-68
0
1
0 0 68 76
0
end_operator
begin_operator
tnf-forget-0-69
0
1
0 0 69 76
0
end_operator
begin_operator
tnf-forget-0-70
0
1
0 0 70 76
0
end_operator
begin_operator
tnf-forget-0-71
0
1
0 0 71 76
0
end_operator
begin_operator
tnf-forget-0-72
0
1
0 0 72 76
0
end_operator
begin_operator
tnf-forget-0-73
0
1
0 0 73 76
0
end_operator
begin_operator
tnf-forget-0-74
0
1
0 0 74 76
0
end_operator
begin_operator
tnf-forget-0-75
0
1
0 0 75 76
0
end_operator
begin_operator
tnf-forget-1-0
0
1
0 1 0 24
0
end_operator
begin_operator
tnf-forget-1-1
0
1
0 1 1 24
0
end_operator
begin_operator
tnf-forget-1-2
0
1
0 1 2 24
0
end_operator
begin_operator
tnf-forget-1-3
0
1
0 1 3 24
0
end_operator
begin_operator
tnf-forget-1-4
0
1
0 1 4 24
0
end_operator
begin_operator
tnf-forget-1-5
0
1
0 1 5 24
0
end_operator
begin_operator
tnf-forget-1-6
0
1
0 1 6 24
0
end_operator
begin_operator
tnf-forget-1-7
0
1
0 1 7 24
0
end_operator
begin_operator
tnf-forget-1-8
0
1
0 1 8 24
0
end_operator
begin_operator
tnf-forget-1-9
0
1
0 1 9 24
0
end_operator
begin_operator
tnf-forget-1-10
0
1
0 1 10 24
0
end_operator
begin_operator
tnf-forget-1-11
0
1
0 1 11 24
0
end_operator
begin_operator
tnf-forget-1-12
0
1
0 1 12 24
0
end_operator
begin_operator
tnf-forget-1-13
0
1
0 1 13 24
0
end_operator
begin_operator
tnf-forget-1-14
0
1
0 1 14 24
0
end_operator
begin_operator
tnf-forget-1-15
0
1
0 1 15 24
0
end_operator
begin_operator
tnf-forget-1-16
0
1
0 1 16 24
0
end_operator
begin_operator
tnf-forget-1-17
0
1
0 1 17 24
0
end_operator
begin_operator
tnf-forget-1-18
0
1
0 1 18 24
0
end_operator
begin_operator
tnf-forget-1-19
0
1
0 1 19 24
0
end_operator
begin_operator
tnf-forget-1-20
0
1
0 1 20 24
0
end_operator
begin_operator
tnf-forget-1-21
0
1
0 1 21 24
0
end_operator
begin_operator
tnf-forget-1-22
0
1
0 1 22 24
0
end_operator
begin_operator
tnf-forget-1-23
0
1
0 1 23 24
0
end_operator
begin_operator
tnf-forget-2-0
0
1
0 2 0 24
0
end_operator
begin_operator
tnf-forget-2-1
0
1
0 2 1 24
0
end_operator
begin_operator
tnf-forget-2-2
0
1
0 2 2 24
0
end_operator
begin_operator
tnf-forget-2-3
0
1
0 2 3 24
0
end_operator
begin_operator
tnf-forget-2-4
0
1
0 2 4 24
0
end_operator
begin_operator
tnf-forget-2-5
0
1
0 2 5 24
0
end_operator
begin_operator
tnf-forget-2-6
0
1
0 2 6 24
0
end_operator
begin_operator
tnf-forget-2-7
0
1
0 2 7 24
0
end_operator
begin_operator
tnf-forget-2-8
0
1
0 2 8 24
0
end_operator
begin_operator
tnf-forget-2-9
0
1
0 2 9 24
0
end_operator
begin_operator
tnf-forget-2-10
0
1
0 2 10 24
0
end_operator
begin_operator
tnf-forget-2-11
0
1
0 2 11 24
0
end_operator
begin_operator
tnf-forget-2-12
0
1
0 2 12 24
0
end_operator
begin_operator
tnf-forget-2-13
0
1
0 2 13 24
0
end_operator
begin_operator
tnf-forget-2-14
0
1
0 2 14 24
0
end_operator
begin_operator
tnf-forget-2-15
0
1
0 2 15 24
0
end_operator
begin_operator
tnf-forget-2-16
0
1
0 2 16 24
0
end_operator
begin_operator
tnf-forget-2-17
0
1
0 2 17 24
0
end_operator
begin_operator
tnf-forget-2-18
0
1
0 2 18 24
0
end_operator
begin_operator
tnf-forget-2-19
0
1
0 2 19 24
0
end_operator
begin_operator
tnf-forget-2-20
0
1
0 2 20 24
0
end_operator
begin_operator
tnf-forget-2-21
0
1
0 2 21 24
0
end_operator
begin_operator
tnf-forget-2-22
0
1
0 2 22 24
0
end_operator
begin_operator
tnf-forget-2-23
0
1
0 2 23 24
0
end_operator
begin_operator
tnf-forget-3-0
0
1
0 3 0 24
0
end_operator
begin_operator
tnf-forget-3-1
0
1
0 3 1 24
0
end_operator
begin_operator
tnf-forget-3-2
0
1
0 3 2 24
0
end_operator
begin_operator
tnf-forget-3-3
0
1
0 3 3 24
0
end_operator
begin_operator
tnf-forget-3-4
0
1
0 3 4 24
0
end_operator
begin_operator
tnf-forget-3-5
0
1
0 3 5 24
0
end_operator
begin_operator
tnf-forget-3-6
0
1
0 3 6 24
0
end_operator
begin_operator
tnf-forget-3-7
0
1
0 3 7 24
0
end_operator
begin_operator
tnf-forget-3-8
0
1
0 3 8 24
0
end_operator
begin_operator
tnf-forget-3-9
0
1
0 3 9 24
0
end_operator
begin_operator
tnf-forget-3-10
0
1
0 3 10 24
0
end_operator
begin_operator
tnf-forget-3-11
0
1
0 3 11 24
0
end_operator
begin_operator
tnf-forget-3-12
0
1
0 3 12 24
0
end_operator
begin_operator
tnf-forget-3-13
0
1
0 3 13 24
0
end_operator
begin_operator
tnf-forget-3-14
0
1
0 3 14 24
0
end_operator
begin_operator
tnf-forget-3-15
0
1
0 3 15 24
0
end_operator
begin_operator
tnf-forget-3-16
0
1
0 3 16 24
0
end_operator
begin_operator
tnf-forget-3-17
0
1
0 3 17 24
0
end_operator
begin_operator
tnf-forget-3-18
0
1
0 3 18 24
0
end_operator
begin_operator
tnf-forget-3-19
0
1
0 3 19 24
0
end_operator
begin_operator
tnf-forget-3-20
0
1
0 3 20 24
0
end_operator
begin_operator
tnf-forget-3-21
0
1
0 3 21 24
0
end_operator
begin_operator
tnf-forget-3-22
0
1
0 3 22 24
0
end_operator
begin_operator
tnf-forget-3-23
0
1
0 3 23 24
0
end_operator
begin_operator
tnf-forget-4-0
0
1
0 4 0 24
0
end_operator
begin_operator
tnf-forget-4-1
0
1
0 4 1 24
0
end_operator
begin_operator
tnf-forget-4-2
0
1
0 4 2 24
0
end_operator
begin_operator
tnf-forget-4-3
0
1
0 4 3 24
0
end_operator
begin_operator
tnf-forget-4-4
0
1
0 4 4 24
0
end_operator
begin_operator
tnf-forget-4-5
0
1
0 4 5 24
0
end_operator
begin_operator
tnf-forget-4-6
0
1
0 4 6 24
0
end_operator
begin_operator
tnf-forget-4-7
0
1
0 4 7 24
0
end_operator
begin_operator
tnf-forget-4-8
0
1
0 4 8 24
0
end_operator
begin_operator
tnf-forget-4-9
0
1
0 4 9 24
0
end_operator
begin_operator
tnf-forget-4-10
0
1
0 4 10 24
0
end_operator
begin_operator
tnf-forget-4-11
0
1
0 4 11 24
0
end_operator
begin_operator
tnf-forget-4-12
0
1
0 4 12 24
0
end_operator
begin_operator
tnf-forget-4-13
0
1
0 4 13 24
0
end_operator
begin_operator
tnf-forget-4-14
0
1
0 4 14 24
0
end_operator
begin_operator
tnf-forget-4-15
0
1
0 4 15 24
0
end_operator
begin_operator
tnf-forget-4-16
0
1
0 4 16 24
0
end_operator
begin_operator
tnf-forget-4-17
0
1
0 4 17 24
0
end_operator
begin_operator
tnf-forget-4-18
0
1
0 4 18 24
0
end_operator
begin_operator
tnf-forget-4-19
0
1
0 4 19 24
0
end_operator
begin_operator
tnf-forget-4-20
0
1
0 4 20 24
0
end_operator
begin_operator
tnf-forget-4-21
0
1
0 4 21 24
0
end_operator
begin_operator
tnf-forget-4-22
0
1
0 4 22 24
0
end_operator
begin_operator
tnf-forget-4-23
0
1
0 4 23 24
0
end_operator
begin_operator
tnf-forget-5-0
0
1
0 5 0 15
0
end_operator
begin_operator
tnf-forget-5-1
0
1
0 5 1 15
0
end_operator
begin_operator
tnf-forget-5-2
0
1
0 5 2 15
0
end_operator
begin_operator
tnf-forget-5-3
0
1
0 5 3 15
0
end_operator
begin_operator
tnf-forget-5-4
0
1
0 5 4 15
0
end_operator
begin_operator
tnf-forget-5-5
0
1
0 5 5 15
0
end_operator
begin_operator
tnf-forget-5-6
0
1
0 5 6 15
0
end_operator
begin_operator
tnf-forget-5-7
0
1
0 5 7 15
0
end_operator
begin_operator
tnf-forget-5-8
0
1
0 5 8 15
0
end_operator
begin_operator
tnf-forget-5-9
0
1
0 5 9 15
0
end_operator
begin_operator
tnf-forget-5-10
0
1
0 5 10 15
0
end_operator
begin_operator
tnf-forget-5-11
0
1
0 5 11 15
0
end_operator
begin_operator
tnf-forget-5-12
0
1
0 5 12 15
0
end_operator
begin_operator
tnf-forget-5-13
0
1
0 5 13 15
0
end_operator
begin_operator
tnf-forget-5-14
0
1
0 5 14 15
0
end_operator
begin_operator
tnf-forget-6-0
0
1
0 6 0 2
0
end_operator
begin_operator
tnf-forget-6-1
0
1
0 6 1 2
0
end_operator
begin_operator
tnf-forget-7-0
0
1
0 7 0 2
0
end_operator
begin_operator
tnf-forget-7-1
0
1
0 7 1 2
0
end_operator
begin_operator
tnf-forget-8-0
0
1
0 8 0 2
0
end_operator
begin_operator
tnf-forget-8-1
0
1
0 8 1 2
0
end_operator
begin_operator
tnf-forget-9-0
0
1
0 9 0 2
0
end_operator
begin_operator
tnf-forget-9-1
0
1
0 9 1 2
0
end_operator
begin_operator
tnf-forget-10-0
0
1
0 10 0 2
0
end_operator
begin_operator
tnf-forget-10-1
0
1
0 10 1 2
0
end_operator
begin_operator
tnf-forget-11-0
0
1
0 11 0 2
0
end_operator
begin_operator
tnf-forget-11-1
0
1
0 11 1 2
0
end_operator
begin_operator
tnf-forget-12-0
0
1
0 12 0 2
0
end_operator
begin_operator
tnf-forget-12-1
0
1
0 12 1 2
0
end_operator
begin_operator
tnf-forget-13-0
0
1
0 13 0 2
0
end_operator
begin_operator
tnf-forget-13-1
0
1
0 13 1 2
0
end_operator
begin_operator
tnf-forget-14-0
0
1
0 14 0 2
0
end_operator
begin_operator
tnf-forget-14-1
0
1
0 14 1 2
0
end_operator
begin_operator
tnf-forget-15-0
0
1
0 15 0 2
0
end_operator
begin_operator
tnf-forget-15-1
0
1
0 15 1 2
0
end_operator
begin_operator
tnf-forget-16-0
0
1
0 16 0 2
0
end_operator
begin_operator
tnf-forget-16-1
0
1
0 16 1 2
0
end_operator
begin_operator
tnf-forget-17-0
0
1
0 17 0 2
0
end_operator
begin_operator
tnf-forget-17-1
0
1
0 17 1 2
0
end_operator
begin_operator
tnf-forget-18-0
0
1
0 18 0 2
0
end_operator
begin_operator
tnf-forget-18-1
0
1
0 18 1 2
0
end_operator
begin_operator
tnf-forget-19-0
0
1
0 19 0 2
0
end_operator
begin_operator
tnf-forget-19-1
0
1
0 19 1 2
0
end_operator
begin_operator
tnf-forget-20-0
0
1
0 20 0 2
0
end_operator
begin_operator
tnf-forget-20-1
0
1
0 20 1 2
0
end_operator
begin_operator
tnf-forget-21-0
0
1
0 21 0 2
0
end_operator
begin_operator
tnf-forget-21-1
0
1
0 21 1 2
0
end_operator
begin_operator
tnf-forget-22-0
0
1
0 22 0 2
0
end_operator
begin_operator
tnf-forget-22-1
0
1
0 22 1 2
0
end_operator
begin_operator
tnf-forget-23-0
0
1
0 23 0 2
0
end_operator
begin_operator
tnf-forget-23-1
0
1
0 23 1 2
0
end_operator
begin_operator
tnf-forget-24-0
0
1
0 24 0 2
0
end_operator
begin_operator
tnf-forget-24-1
0
1
0 24 1 2
0
end_operator
begin_operator
tnf-forget-25-0
0
1
0 25 0 2
0
end_operator
begin_operator
tnf-forget-25-1
0
1
0 25 1 2
0
end_operator
begin_operator
tnf-forget-26-0
0
1
0 26 0 2
0
end_operator
begin_operator
tnf-forget-26-1
0
1
0 26 1 2
0
end_operator
begin_operator
tnf-forget-27-0
0
1
0 27 0 2
0
end_operator
begin_operator
tnf-forget-27-1
0
1
0 27 1 2
0
end_operator
begin_operator
tnf-forget-28-0
0
1
0 28 0 2
0
end_operator
begin_operator
tnf-forget-28-1
0
1
0 28 1 2
0
end_operator
begin_operator
tnf-forget-29-0
0
1
0 29 0 2
0
end_operator
begin_operator
tnf-forget-29-1
0
1
0 29 1 2
0
end_operator
0
