< {at V0:object C1:object, at V0:object C2:object}:=1
, {at_soil_sample V0:object}
, {at_rock_sample V0:object}
, {empty V0:object, full V0:object}:=1
, {have_rock_analysis C1:object V0:object, at_rock_sample V0:object, have_rock_analysis C2:object V0:object}:=1
, {have_soil_analysis C1:object V0:object, at_soil_sample V0:object, have_soil_analysis C2:object V0:object}:=1
>
