begin_version
3
end_version
begin_metric
1
end_metric
12
begin_variable
var0
-1
17
boarded p0 fast0
boarded p0 fast1
boarded p0 slow0-0
boarded p0 slow1-0
passenger-at p0 n0
passenger-at p0 n1
passenger-at p0 n10
passenger-at p0 n11
passenger-at p0 n12
passenger-at p0 n2
passenger-at p0 n3
passenger-at p0 n4
passenger-at p0 n5
passenger-at p0 n6
passenger-at p0 n7
passenger-at p0 n8
passenger-at p0 n9
end_variable
begin_variable
var1
-1
17
boarded p1 fast0
boarded p1 fast1
boarded p1 slow0-0
boarded p1 slow1-0
passenger-at p1 n0
passenger-at p1 n1
passenger-at p1 n10
passenger-at p1 n11
passenger-at p1 n12
passenger-at p1 n2
passenger-at p1 n3
passenger-at p1 n4
passenger-at p1 n5
passenger-at p1 n6
passenger-at p1 n7
passenger-at p1 n8
passenger-at p1 n9
end_variable
begin_variable
var2
-1
17
boarded p2 fast0
boarded p2 fast1
boarded p2 slow0-0
boarded p2 slow1-0
passenger-at p2 n0
passenger-at p2 n1
passenger-at p2 n10
passenger-at p2 n11
passenger-at p2 n12
passenger-at p2 n2
passenger-at p2 n3
passenger-at p2 n4
passenger-at p2 n5
passenger-at p2 n6
passenger-at p2 n7
passenger-at p2 n8
passenger-at p2 n9
end_variable
begin_variable
var3
-1
17
boarded p3 fast0
boarded p3 fast1
boarded p3 slow0-0
boarded p3 slow1-0
passenger-at p3 n0
passenger-at p3 n1
passenger-at p3 n10
passenger-at p3 n11
passenger-at p3 n12
passenger-at p3 n2
passenger-at p3 n3
passenger-at p3 n4
passenger-at p3 n5
passenger-at p3 n6
passenger-at p3 n7
passenger-at p3 n8
passenger-at p3 n9
end_variable
begin_variable
var4
-1
7
lift-at slow0-0 n0
lift-at slow0-0 n1
lift-at slow0-0 n2
lift-at slow0-0 n3
lift-at slow0-0 n4
lift-at slow0-0 n5
lift-at slow0-0 n6
end_variable
begin_variable
var5
-1
7
lift-at slow1-0 n10
lift-at slow1-0 n11
lift-at slow1-0 n12
lift-at slow1-0 n6
lift-at slow1-0 n7
lift-at slow1-0 n8
lift-at slow1-0 n9
end_variable
begin_variable
var6
-1
5
lift-at fast0 n0
lift-at fast0 n12
lift-at fast0 n3
lift-at fast0 n6
lift-at fast0 n9
end_variable
begin_variable
var7
-1
5
lift-at fast1 n0
lift-at fast1 n12
lift-at fast1 n3
lift-at fast1 n6
lift-at fast1 n9
end_variable
begin_variable
var8
-1
4
passengers fast0 n0
passengers fast0 n1
passengers fast0 n2
passengers fast0 n3
end_variable
begin_variable
var9
-1
4
passengers fast1 n0
passengers fast1 n1
passengers fast1 n2
passengers fast1 n3
end_variable
begin_variable
var10
-1
3
passengers slow0-0 n0
passengers slow0-0 n1
passengers slow0-0 n2
end_variable
begin_variable
var11
-1
3
passengers slow1-0 n0
passengers slow1-0 n1
passengers slow1-0 n2
end_variable
12
begin_mutex_group
3
10 0
10 1
10 2
end_mutex_group
begin_mutex_group
3
11 0
11 1
11 2
end_mutex_group
begin_mutex_group
4
8 0
8 1
8 2
8 3
end_mutex_group
begin_mutex_group
4
9 0
9 1
9 2
9 3
end_mutex_group
begin_mutex_group
5
6 0
6 1
6 2
6 3
6 4
end_mutex_group
begin_mutex_group
5
7 0
7 1
7 2
7 3
7 4
end_mutex_group
begin_mutex_group
7
4 0
4 1
4 2
4 3
4 4
4 5
4 6
end_mutex_group
begin_mutex_group
7
5 0
5 1
5 2
5 3
5 4
5 5
5 6
end_mutex_group
begin_mutex_group
17
0 0
0 1
0 2
0 3
0 4
0 5
0 6
0 7
0 8
0 9
0 10
0 11
0 12
0 13
0 14
0 15
0 16
end_mutex_group
begin_mutex_group
17
1 0
1 1
1 2
1 3
1 4
1 5
1 6
1 7
1 8
1 9
1 10
1 11
1 12
1 13
1 14
1 15
1 16
end_mutex_group
begin_mutex_group
17
2 0
2 1
2 2
2 3
2 4
2 5
2 6
2 7
2 8
2 9
2 10
2 11
2 12
2 13
2 14
2 15
2 16
end_mutex_group
begin_mutex_group
17
3 0
3 1
3 2
3 3
3 4
3 5
3 6
3 7
3 8
3 9
3 10
3 11
3 12
3 13
3 14
3 15
3 16
end_mutex_group
begin_state
15
15
8
11
2
3
1
4
0
0
0
0
end_state
begin_goal
4
0 9
1 5
2 14
3 14
end_goal
588
begin_operator
board p0 fast0 n0 n0 n1
1
6 0
2
0 0 4 0
0 8 0 1
0
end_operator
begin_operator
board p0 fast0 n0 n1 n2
1
6 0
2
0 0 4 0
0 8 1 2
0
end_operator
begin_operator
board p0 fast0 n0 n2 n3
1
6 0
2
0 0 4 0
0 8 2 3
0
end_operator
begin_operator
board p0 fast0 n12 n0 n1
1
6 1
2
0 0 8 0
0 8 0 1
0
end_operator
begin_operator
board p0 fast0 n12 n1 n2
1
6 1
2
0 0 8 0
0 8 1 2
0
end_operator
begin_operator
board p0 fast0 n12 n2 n3
1
6 1
2
0 0 8 0
0 8 2 3
0
end_operator
begin_operator
board p0 fast0 n3 n0 n1
1
6 2
2
0 0 10 0
0 8 0 1
0
end_operator
begin_operator
board p0 fast0 n3 n1 n2
1
6 2
2
0 0 10 0
0 8 1 2
0
end_operator
begin_operator
board p0 fast0 n3 n2 n3
1
6 2
2
0 0 10 0
0 8 2 3
0
end_operator
begin_operator
board p0 fast0 n6 n0 n1
1
6 3
2
0 0 13 0
0 8 0 1
0
end_operator
begin_operator
board p0 fast0 n6 n1 n2
1
6 3
2
0 0 13 0
0 8 1 2
0
end_operator
begin_operator
board p0 fast0 n6 n2 n3
1
6 3
2
0 0 13 0
0 8 2 3
0
end_operator
begin_operator
board p0 fast0 n9 n0 n1
1
6 4
2
0 0 16 0
0 8 0 1
0
end_operator
begin_operator
board p0 fast0 n9 n1 n2
1
6 4
2
0 0 16 0
0 8 1 2
0
end_operator
begin_operator
board p0 fast0 n9 n2 n3
1
6 4
2
0 0 16 0
0 8 2 3
0
end_operator
begin_operator
board p0 fast1 n0 n0 n1
1
7 0
2
0 0 4 1
0 9 0 1
0
end_operator
begin_operator
board p0 fast1 n0 n1 n2
1
7 0
2
0 0 4 1
0 9 1 2
0
end_operator
begin_operator
board p0 fast1 n0 n2 n3
1
7 0
2
0 0 4 1
0 9 2 3
0
end_operator
begin_operator
board p0 fast1 n12 n0 n1
1
7 1
2
0 0 8 1
0 9 0 1
0
end_operator
begin_operator
board p0 fast1 n12 n1 n2
1
7 1
2
0 0 8 1
0 9 1 2
0
end_operator
begin_operator
board p0 fast1 n12 n2 n3
1
7 1
2
0 0 8 1
0 9 2 3
0
end_operator
begin_operator
board p0 fast1 n3 n0 n1
1
7 2
2
0 0 10 1
0 9 0 1
0
end_operator
begin_operator
board p0 fast1 n3 n1 n2
1
7 2
2
0 0 10 1
0 9 1 2
0
end_operator
begin_operator
board p0 fast1 n3 n2 n3
1
7 2
2
0 0 10 1
0 9 2 3
0
end_operator
begin_operator
board p0 fast1 n6 n0 n1
1
7 3
2
0 0 13 1
0 9 0 1
0
end_operator
begin_operator
board p0 fast1 n6 n1 n2
1
7 3
2
0 0 13 1
0 9 1 2
0
end_operator
begin_operator
board p0 fast1 n6 n2 n3
1
7 3
2
0 0 13 1
0 9 2 3
0
end_operator
begin_operator
board p0 fast1 n9 n0 n1
1
7 4
2
0 0 16 1
0 9 0 1
0
end_operator
begin_operator
board p0 fast1 n9 n1 n2
1
7 4
2
0 0 16 1
0 9 1 2
0
end_operator
begin_operator
board p0 fast1 n9 n2 n3
1
7 4
2
0 0 16 1
0 9 2 3
0
end_operator
begin_operator
board p0 slow0-0 n0 n0 n1
1
4 0
2
0 0 4 2
0 10 0 1
0
end_operator
begin_operator
board p0 slow0-0 n0 n1 n2
1
4 0
2
0 0 4 2
0 10 1 2
0
end_operator
begin_operator
board p0 slow0-0 n1 n0 n1
1
4 1
2
0 0 5 2
0 10 0 1
0
end_operator
begin_operator
board p0 slow0-0 n1 n1 n2
1
4 1
2
0 0 5 2
0 10 1 2
0
end_operator
begin_operator
board p0 slow0-0 n2 n0 n1
1
4 2
2
0 0 9 2
0 10 0 1
0
end_operator
begin_operator
board p0 slow0-0 n2 n1 n2
1
4 2
2
0 0 9 2
0 10 1 2
0
end_operator
begin_operator
board p0 slow0-0 n3 n0 n1
1
4 3
2
0 0 10 2
0 10 0 1
0
end_operator
begin_operator
board p0 slow0-0 n3 n1 n2
1
4 3
2
0 0 10 2
0 10 1 2
0
end_operator
begin_operator
board p0 slow0-0 n4 n0 n1
1
4 4
2
0 0 11 2
0 10 0 1
0
end_operator
begin_operator
board p0 slow0-0 n4 n1 n2
1
4 4
2
0 0 11 2
0 10 1 2
0
end_operator
begin_operator
board p0 slow0-0 n5 n0 n1
1
4 5
2
0 0 12 2
0 10 0 1
0
end_operator
begin_operator
board p0 slow0-0 n5 n1 n2
1
4 5
2
0 0 12 2
0 10 1 2
0
end_operator
begin_operator
board p0 slow0-0 n6 n0 n1
1
4 6
2
0 0 13 2
0 10 0 1
0
end_operator
begin_operator
board p0 slow0-0 n6 n1 n2
1
4 6
2
0 0 13 2
0 10 1 2
0
end_operator
begin_operator
board p0 slow1-0 n10 n0 n1
1
5 0
2
0 0 6 3
0 11 0 1
0
end_operator
begin_operator
board p0 slow1-0 n10 n1 n2
1
5 0
2
0 0 6 3
0 11 1 2
0
end_operator
begin_operator
board p0 slow1-0 n11 n0 n1
1
5 1
2
0 0 7 3
0 11 0 1
0
end_operator
begin_operator
board p0 slow1-0 n11 n1 n2
1
5 1
2
0 0 7 3
0 11 1 2
0
end_operator
begin_operator
board p0 slow1-0 n12 n0 n1
1
5 2
2
0 0 8 3
0 11 0 1
0
end_operator
begin_operator
board p0 slow1-0 n12 n1 n2
1
5 2
2
0 0 8 3
0 11 1 2
0
end_operator
begin_operator
board p0 slow1-0 n6 n0 n1
1
5 3
2
0 0 13 3
0 11 0 1
0
end_operator
begin_operator
board p0 slow1-0 n6 n1 n2
1
5 3
2
0 0 13 3
0 11 1 2
0
end_operator
begin_operator
board p0 slow1-0 n7 n0 n1
1
5 4
2
0 0 14 3
0 11 0 1
0
end_operator
begin_operator
board p0 slow1-0 n7 n1 n2
1
5 4
2
0 0 14 3
0 11 1 2
0
end_operator
begin_operator
board p0 slow1-0 n8 n0 n1
1
5 5
2
0 0 15 3
0 11 0 1
0
end_operator
begin_operator
board p0 slow1-0 n8 n1 n2
1
5 5
2
0 0 15 3
0 11 1 2
0
end_operator
begin_operator
board p0 slow1-0 n9 n0 n1
1
5 6
2
0 0 16 3
0 11 0 1
0
end_operator
begin_operator
board p0 slow1-0 n9 n1 n2
1
5 6
2
0 0 16 3
0 11 1 2
0
end_operator
begin_operator
board p1 fast0 n0 n0 n1
1
6 0
2
0 1 4 0
0 8 0 1
0
end_operator
begin_operator
board p1 fast0 n0 n1 n2
1
6 0
2
0 1 4 0
0 8 1 2
0
end_operator
begin_operator
board p1 fast0 n0 n2 n3
1
6 0
2
0 1 4 0
0 8 2 3
0
end_operator
begin_operator
board p1 fast0 n12 n0 n1
1
6 1
2
0 1 8 0
0 8 0 1
0
end_operator
begin_operator
board p1 fast0 n12 n1 n2
1
6 1
2
0 1 8 0
0 8 1 2
0
end_operator
begin_operator
board p1 fast0 n12 n2 n3
1
6 1
2
0 1 8 0
0 8 2 3
0
end_operator
begin_operator
board p1 fast0 n3 n0 n1
1
6 2
2
0 1 10 0
0 8 0 1
0
end_operator
begin_operator
board p1 fast0 n3 n1 n2
1
6 2
2
0 1 10 0
0 8 1 2
0
end_operator
begin_operator
board p1 fast0 n3 n2 n3
1
6 2
2
0 1 10 0
0 8 2 3
0
end_operator
begin_operator
board p1 fast0 n6 n0 n1
1
6 3
2
0 1 13 0
0 8 0 1
0
end_operator
begin_operator
board p1 fast0 n6 n1 n2
1
6 3
2
0 1 13 0
0 8 1 2
0
end_operator
begin_operator
board p1 fast0 n6 n2 n3
1
6 3
2
0 1 13 0
0 8 2 3
0
end_operator
begin_operator
board p1 fast0 n9 n0 n1
1
6 4
2
0 1 16 0
0 8 0 1
0
end_operator
begin_operator
board p1 fast0 n9 n1 n2
1
6 4
2
0 1 16 0
0 8 1 2
0
end_operator
begin_operator
board p1 fast0 n9 n2 n3
1
6 4
2
0 1 16 0
0 8 2 3
0
end_operator
begin_operator
board p1 fast1 n0 n0 n1
1
7 0
2
0 1 4 1
0 9 0 1
0
end_operator
begin_operator
board p1 fast1 n0 n1 n2
1
7 0
2
0 1 4 1
0 9 1 2
0
end_operator
begin_operator
board p1 fast1 n0 n2 n3
1
7 0
2
0 1 4 1
0 9 2 3
0
end_operator
begin_operator
board p1 fast1 n12 n0 n1
1
7 1
2
0 1 8 1
0 9 0 1
0
end_operator
begin_operator
board p1 fast1 n12 n1 n2
1
7 1
2
0 1 8 1
0 9 1 2
0
end_operator
begin_operator
board p1 fast1 n12 n2 n3
1
7 1
2
0 1 8 1
0 9 2 3
0
end_operator
begin_operator
board p1 fast1 n3 n0 n1
1
7 2
2
0 1 10 1
0 9 0 1
0
end_operator
begin_operator
board p1 fast1 n3 n1 n2
1
7 2
2
0 1 10 1
0 9 1 2
0
end_operator
begin_operator
board p1 fast1 n3 n2 n3
1
7 2
2
0 1 10 1
0 9 2 3
0
end_operator
begin_operator
board p1 fast1 n6 n0 n1
1
7 3
2
0 1 13 1
0 9 0 1
0
end_operator
begin_operator
board p1 fast1 n6 n1 n2
1
7 3
2
0 1 13 1
0 9 1 2
0
end_operator
begin_operator
board p1 fast1 n6 n2 n3
1
7 3
2
0 1 13 1
0 9 2 3
0
end_operator
begin_operator
board p1 fast1 n9 n0 n1
1
7 4
2
0 1 16 1
0 9 0 1
0
end_operator
begin_operator
board p1 fast1 n9 n1 n2
1
7 4
2
0 1 16 1
0 9 1 2
0
end_operator
begin_operator
board p1 fast1 n9 n2 n3
1
7 4
2
0 1 16 1
0 9 2 3
0
end_operator
begin_operator
board p1 slow0-0 n0 n0 n1
1
4 0
2
0 1 4 2
0 10 0 1
0
end_operator
begin_operator
board p1 slow0-0 n0 n1 n2
1
4 0
2
0 1 4 2
0 10 1 2
0
end_operator
begin_operator
board p1 slow0-0 n1 n0 n1
1
4 1
2
0 1 5 2
0 10 0 1
0
end_operator
begin_operator
board p1 slow0-0 n1 n1 n2
1
4 1
2
0 1 5 2
0 10 1 2
0
end_operator
begin_operator
board p1 slow0-0 n2 n0 n1
1
4 2
2
0 1 9 2
0 10 0 1
0
end_operator
begin_operator
board p1 slow0-0 n2 n1 n2
1
4 2
2
0 1 9 2
0 10 1 2
0
end_operator
begin_operator
board p1 slow0-0 n3 n0 n1
1
4 3
2
0 1 10 2
0 10 0 1
0
end_operator
begin_operator
board p1 slow0-0 n3 n1 n2
1
4 3
2
0 1 10 2
0 10 1 2
0
end_operator
begin_operator
board p1 slow0-0 n4 n0 n1
1
4 4
2
0 1 11 2
0 10 0 1
0
end_operator
begin_operator
board p1 slow0-0 n4 n1 n2
1
4 4
2
0 1 11 2
0 10 1 2
0
end_operator
begin_operator
board p1 slow0-0 n5 n0 n1
1
4 5
2
0 1 12 2
0 10 0 1
0
end_operator
begin_operator
board p1 slow0-0 n5 n1 n2
1
4 5
2
0 1 12 2
0 10 1 2
0
end_operator
begin_operator
board p1 slow0-0 n6 n0 n1
1
4 6
2
0 1 13 2
0 10 0 1
0
end_operator
begin_operator
board p1 slow0-0 n6 n1 n2
1
4 6
2
0 1 13 2
0 10 1 2
0
end_operator
begin_operator
board p1 slow1-0 n10 n0 n1
1
5 0
2
0 1 6 3
0 11 0 1
0
end_operator
begin_operator
board p1 slow1-0 n10 n1 n2
1
5 0
2
0 1 6 3
0 11 1 2
0
end_operator
begin_operator
board p1 slow1-0 n11 n0 n1
1
5 1
2
0 1 7 3
0 11 0 1
0
end_operator
begin_operator
board p1 slow1-0 n11 n1 n2
1
5 1
2
0 1 7 3
0 11 1 2
0
end_operator
begin_operator
board p1 slow1-0 n12 n0 n1
1
5 2
2
0 1 8 3
0 11 0 1
0
end_operator
begin_operator
board p1 slow1-0 n12 n1 n2
1
5 2
2
0 1 8 3
0 11 1 2
0
end_operator
begin_operator
board p1 slow1-0 n6 n0 n1
1
5 3
2
0 1 13 3
0 11 0 1
0
end_operator
begin_operator
board p1 slow1-0 n6 n1 n2
1
5 3
2
0 1 13 3
0 11 1 2
0
end_operator
begin_operator
board p1 slow1-0 n7 n0 n1
1
5 4
2
0 1 14 3
0 11 0 1
0
end_operator
begin_operator
board p1 slow1-0 n7 n1 n2
1
5 4
2
0 1 14 3
0 11 1 2
0
end_operator
begin_operator
board p1 slow1-0 n8 n0 n1
1
5 5
2
0 1 15 3
0 11 0 1
0
end_operator
begin_operator
board p1 slow1-0 n8 n1 n2
1
5 5
2
0 1 15 3
0 11 1 2
0
end_operator
begin_operator
board p1 slow1-0 n9 n0 n1
1
5 6
2
0 1 16 3
0 11 0 1
0
end_operator
begin_operator
board p1 slow1-0 n9 n1 n2
1
5 6
2
0 1 16 3
0 11 1 2
0
end_operator
begin_operator
board p2 fast0 n0 n0 n1
1
6 0
2
0 2 4 0
0 8 0 1
0
end_operator
begin_operator
board p2 fast0 n0 n1 n2
1
6 0
2
0 2 4 0
0 8 1 2
0
end_operator
begin_operator
board p2 fast0 n0 n2 n3
1
6 0
2
0 2 4 0
0 8 2 3
0
end_operator
begin_operator
board p2 fast0 n12 n0 n1
1
6 1
2
0 2 8 0
0 8 0 1
0
end_operator
begin_operator
board p2 fast0 n12 n1 n2
1
6 1
2
0 2 8 0
0 8 1 2
0
end_operator
begin_operator
board p2 fast0 n12 n2 n3
1
6 1
2
0 2 8 0
0 8 2 3
0
end_operator
begin_operator
board p2 fast0 n3 n0 n1
1
6 2
2
0 2 10 0
0 8 0 1
0
end_operator
begin_operator
board p2 fast0 n3 n1 n2
1
6 2
2
0 2 10 0
0 8 1 2
0
end_operator
begin_operator
board p2 fast0 n3 n2 n3
1
6 2
2
0 2 10 0
0 8 2 3
0
end_operator
begin_operator
board p2 fast0 n6 n0 n1
1
6 3
2
0 2 13 0
0 8 0 1
0
end_operator
begin_operator
board p2 fast0 n6 n1 n2
1
6 3
2
0 2 13 0
0 8 1 2
0
end_operator
begin_operator
board p2 fast0 n6 n2 n3
1
6 3
2
0 2 13 0
0 8 2 3
0
end_operator
begin_operator
board p2 fast0 n9 n0 n1
1
6 4
2
0 2 16 0
0 8 0 1
0
end_operator
begin_operator
board p2 fast0 n9 n1 n2
1
6 4
2
0 2 16 0
0 8 1 2
0
end_operator
begin_operator
board p2 fast0 n9 n2 n3
1
6 4
2
0 2 16 0
0 8 2 3
0
end_operator
begin_operator
board p2 fast1 n0 n0 n1
1
7 0
2
0 2 4 1
0 9 0 1
0
end_operator
begin_operator
board p2 fast1 n0 n1 n2
1
7 0
2
0 2 4 1
0 9 1 2
0
end_operator
begin_operator
board p2 fast1 n0 n2 n3
1
7 0
2
0 2 4 1
0 9 2 3
0
end_operator
begin_operator
board p2 fast1 n12 n0 n1
1
7 1
2
0 2 8 1
0 9 0 1
0
end_operator
begin_operator
board p2 fast1 n12 n1 n2
1
7 1
2
0 2 8 1
0 9 1 2
0
end_operator
begin_operator
board p2 fast1 n12 n2 n3
1
7 1
2
0 2 8 1
0 9 2 3
0
end_operator
begin_operator
board p2 fast1 n3 n0 n1
1
7 2
2
0 2 10 1
0 9 0 1
0
end_operator
begin_operator
board p2 fast1 n3 n1 n2
1
7 2
2
0 2 10 1
0 9 1 2
0
end_operator
begin_operator
board p2 fast1 n3 n2 n3
1
7 2
2
0 2 10 1
0 9 2 3
0
end_operator
begin_operator
board p2 fast1 n6 n0 n1
1
7 3
2
0 2 13 1
0 9 0 1
0
end_operator
begin_operator
board p2 fast1 n6 n1 n2
1
7 3
2
0 2 13 1
0 9 1 2
0
end_operator
begin_operator
board p2 fast1 n6 n2 n3
1
7 3
2
0 2 13 1
0 9 2 3
0
end_operator
begin_operator
board p2 fast1 n9 n0 n1
1
7 4
2
0 2 16 1
0 9 0 1
0
end_operator
begin_operator
board p2 fast1 n9 n1 n2
1
7 4
2
0 2 16 1
0 9 1 2
0
end_operator
begin_operator
board p2 fast1 n9 n2 n3
1
7 4
2
0 2 16 1
0 9 2 3
0
end_operator
begin_operator
board p2 slow0-0 n0 n0 n1
1
4 0
2
0 2 4 2
0 10 0 1
0
end_operator
begin_operator
board p2 slow0-0 n0 n1 n2
1
4 0
2
0 2 4 2
0 10 1 2
0
end_operator
begin_operator
board p2 slow0-0 n1 n0 n1
1
4 1
2
0 2 5 2
0 10 0 1
0
end_operator
begin_operator
board p2 slow0-0 n1 n1 n2
1
4 1
2
0 2 5 2
0 10 1 2
0
end_operator
begin_operator
board p2 slow0-0 n2 n0 n1
1
4 2
2
0 2 9 2
0 10 0 1
0
end_operator
begin_operator
board p2 slow0-0 n2 n1 n2
1
4 2
2
0 2 9 2
0 10 1 2
0
end_operator
begin_operator
board p2 slow0-0 n3 n0 n1
1
4 3
2
0 2 10 2
0 10 0 1
0
end_operator
begin_operator
board p2 slow0-0 n3 n1 n2
1
4 3
2
0 2 10 2
0 10 1 2
0
end_operator
begin_operator
board p2 slow0-0 n4 n0 n1
1
4 4
2
0 2 11 2
0 10 0 1
0
end_operator
begin_operator
board p2 slow0-0 n4 n1 n2
1
4 4
2
0 2 11 2
0 10 1 2
0
end_operator
begin_operator
board p2 slow0-0 n5 n0 n1
1
4 5
2
0 2 12 2
0 10 0 1
0
end_operator
begin_operator
board p2 slow0-0 n5 n1 n2
1
4 5
2
0 2 12 2
0 10 1 2
0
end_operator
begin_operator
board p2 slow0-0 n6 n0 n1
1
4 6
2
0 2 13 2
0 10 0 1
0
end_operator
begin_operator
board p2 slow0-0 n6 n1 n2
1
4 6
2
0 2 13 2
0 10 1 2
0
end_operator
begin_operator
board p2 slow1-0 n10 n0 n1
1
5 0
2
0 2 6 3
0 11 0 1
0
end_operator
begin_operator
board p2 slow1-0 n10 n1 n2
1
5 0
2
0 2 6 3
0 11 1 2
0
end_operator
begin_operator
board p2 slow1-0 n11 n0 n1
1
5 1
2
0 2 7 3
0 11 0 1
0
end_operator
begin_operator
board p2 slow1-0 n11 n1 n2
1
5 1
2
0 2 7 3
0 11 1 2
0
end_operator
begin_operator
board p2 slow1-0 n12 n0 n1
1
5 2
2
0 2 8 3
0 11 0 1
0
end_operator
begin_operator
board p2 slow1-0 n12 n1 n2
1
5 2
2
0 2 8 3
0 11 1 2
0
end_operator
begin_operator
board p2 slow1-0 n6 n0 n1
1
5 3
2
0 2 13 3
0 11 0 1
0
end_operator
begin_operator
board p2 slow1-0 n6 n1 n2
1
5 3
2
0 2 13 3
0 11 1 2
0
end_operator
begin_operator
board p2 slow1-0 n7 n0 n1
1
5 4
2
0 2 14 3
0 11 0 1
0
end_operator
begin_operator
board p2 slow1-0 n7 n1 n2
1
5 4
2
0 2 14 3
0 11 1 2
0
end_operator
begin_operator
board p2 slow1-0 n8 n0 n1
1
5 5
2
0 2 15 3
0 11 0 1
0
end_operator
begin_operator
board p2 slow1-0 n8 n1 n2
1
5 5
2
0 2 15 3
0 11 1 2
0
end_operator
begin_operator
board p2 slow1-0 n9 n0 n1
1
5 6
2
0 2 16 3
0 11 0 1
0
end_operator
begin_operator
board p2 slow1-0 n9 n1 n2
1
5 6
2
0 2 16 3
0 11 1 2
0
end_operator
begin_operator
board p3 fast0 n0 n0 n1
1
6 0
2
0 3 4 0
0 8 0 1
0
end_operator
begin_operator
board p3 fast0 n0 n1 n2
1
6 0
2
0 3 4 0
0 8 1 2
0
end_operator
begin_operator
board p3 fast0 n0 n2 n3
1
6 0
2
0 3 4 0
0 8 2 3
0
end_operator
begin_operator
board p3 fast0 n12 n0 n1
1
6 1
2
0 3 8 0
0 8 0 1
0
end_operator
begin_operator
board p3 fast0 n12 n1 n2
1
6 1
2
0 3 8 0
0 8 1 2
0
end_operator
begin_operator
board p3 fast0 n12 n2 n3
1
6 1
2
0 3 8 0
0 8 2 3
0
end_operator
begin_operator
board p3 fast0 n3 n0 n1
1
6 2
2
0 3 10 0
0 8 0 1
0
end_operator
begin_operator
board p3 fast0 n3 n1 n2
1
6 2
2
0 3 10 0
0 8 1 2
0
end_operator
begin_operator
board p3 fast0 n3 n2 n3
1
6 2
2
0 3 10 0
0 8 2 3
0
end_operator
begin_operator
board p3 fast0 n6 n0 n1
1
6 3
2
0 3 13 0
0 8 0 1
0
end_operator
begin_operator
board p3 fast0 n6 n1 n2
1
6 3
2
0 3 13 0
0 8 1 2
0
end_operator
begin_operator
board p3 fast0 n6 n2 n3
1
6 3
2
0 3 13 0
0 8 2 3
0
end_operator
begin_operator
board p3 fast0 n9 n0 n1
1
6 4
2
0 3 16 0
0 8 0 1
0
end_operator
begin_operator
board p3 fast0 n9 n1 n2
1
6 4
2
0 3 16 0
0 8 1 2
0
end_operator
begin_operator
board p3 fast0 n9 n2 n3
1
6 4
2
0 3 16 0
0 8 2 3
0
end_operator
begin_operator
board p3 fast1 n0 n0 n1
1
7 0
2
0 3 4 1
0 9 0 1
0
end_operator
begin_operator
board p3 fast1 n0 n1 n2
1
7 0
2
0 3 4 1
0 9 1 2
0
end_operator
begin_operator
board p3 fast1 n0 n2 n3
1
7 0
2
0 3 4 1
0 9 2 3
0
end_operator
begin_operator
board p3 fast1 n12 n0 n1
1
7 1
2
0 3 8 1
0 9 0 1
0
end_operator
begin_operator
board p3 fast1 n12 n1 n2
1
7 1
2
0 3 8 1
0 9 1 2
0
end_operator
begin_operator
board p3 fast1 n12 n2 n3
1
7 1
2
0 3 8 1
0 9 2 3
0
end_operator
begin_operator
board p3 fast1 n3 n0 n1
1
7 2
2
0 3 10 1
0 9 0 1
0
end_operator
begin_operator
board p3 fast1 n3 n1 n2
1
7 2
2
0 3 10 1
0 9 1 2
0
end_operator
begin_operator
board p3 fast1 n3 n2 n3
1
7 2
2
0 3 10 1
0 9 2 3
0
end_operator
begin_operator
board p3 fast1 n6 n0 n1
1
7 3
2
0 3 13 1
0 9 0 1
0
end_operator
begin_operator
board p3 fast1 n6 n1 n2
1
7 3
2
0 3 13 1
0 9 1 2
0
end_operator
begin_operator
board p3 fast1 n6 n2 n3
1
7 3
2
0 3 13 1
0 9 2 3
0
end_operator
begin_operator
board p3 fast1 n9 n0 n1
1
7 4
2
0 3 16 1
0 9 0 1
0
end_operator
begin_operator
board p3 fast1 n9 n1 n2
1
7 4
2
0 3 16 1
0 9 1 2
0
end_operator
begin_operator
board p3 fast1 n9 n2 n3
1
7 4
2
0 3 16 1
0 9 2 3
0
end_operator
begin_operator
board p3 slow0-0 n0 n0 n1
1
4 0
2
0 3 4 2
0 10 0 1
0
end_operator
begin_operator
board p3 slow0-0 n0 n1 n2
1
4 0
2
0 3 4 2
0 10 1 2
0
end_operator
begin_operator
board p3 slow0-0 n1 n0 n1
1
4 1
2
0 3 5 2
0 10 0 1
0
end_operator
begin_operator
board p3 slow0-0 n1 n1 n2
1
4 1
2
0 3 5 2
0 10 1 2
0
end_operator
begin_operator
board p3 slow0-0 n2 n0 n1
1
4 2
2
0 3 9 2
0 10 0 1
0
end_operator
begin_operator
board p3 slow0-0 n2 n1 n2
1
4 2
2
0 3 9 2
0 10 1 2
0
end_operator
begin_operator
board p3 slow0-0 n3 n0 n1
1
4 3
2
0 3 10 2
0 10 0 1
0
end_operator
begin_operator
board p3 slow0-0 n3 n1 n2
1
4 3
2
0 3 10 2
0 10 1 2
0
end_operator
begin_operator
board p3 slow0-0 n4 n0 n1
1
4 4
2
0 3 11 2
0 10 0 1
0
end_operator
begin_operator
board p3 slow0-0 n4 n1 n2
1
4 4
2
0 3 11 2
0 10 1 2
0
end_operator
begin_operator
board p3 slow0-0 n5 n0 n1
1
4 5
2
0 3 12 2
0 10 0 1
0
end_operator
begin_operator
board p3 slow0-0 n5 n1 n2
1
4 5
2
0 3 12 2
0 10 1 2
0
end_operator
begin_operator
board p3 slow0-0 n6 n0 n1
1
4 6
2
0 3 13 2
0 10 0 1
0
end_operator
begin_operator
board p3 slow0-0 n6 n1 n2
1
4 6
2
0 3 13 2
0 10 1 2
0
end_operator
begin_operator
board p3 slow1-0 n10 n0 n1
1
5 0
2
0 3 6 3
0 11 0 1
0
end_operator
begin_operator
board p3 slow1-0 n10 n1 n2
1
5 0
2
0 3 6 3
0 11 1 2
0
end_operator
begin_operator
board p3 slow1-0 n11 n0 n1
1
5 1
2
0 3 7 3
0 11 0 1
0
end_operator
begin_operator
board p3 slow1-0 n11 n1 n2
1
5 1
2
0 3 7 3
0 11 1 2
0
end_operator
begin_operator
board p3 slow1-0 n12 n0 n1
1
5 2
2
0 3 8 3
0 11 0 1
0
end_operator
begin_operator
board p3 slow1-0 n12 n1 n2
1
5 2
2
0 3 8 3
0 11 1 2
0
end_operator
begin_operator
board p3 slow1-0 n6 n0 n1
1
5 3
2
0 3 13 3
0 11 0 1
0
end_operator
begin_operator
board p3 slow1-0 n6 n1 n2
1
5 3
2
0 3 13 3
0 11 1 2
0
end_operator
begin_operator
board p3 slow1-0 n7 n0 n1
1
5 4
2
0 3 14 3
0 11 0 1
0
end_operator
begin_operator
board p3 slow1-0 n7 n1 n2
1
5 4
2
0 3 14 3
0 11 1 2
0
end_operator
begin_operator
board p3 slow1-0 n8 n0 n1
1
5 5
2
0 3 15 3
0 11 0 1
0
end_operator
begin_operator
board p3 slow1-0 n8 n1 n2
1
5 5
2
0 3 15 3
0 11 1 2
0
end_operator
begin_operator
board p3 slow1-0 n9 n0 n1
1
5 6
2
0 3 16 3
0 11 0 1
0
end_operator
begin_operator
board p3 slow1-0 n9 n1 n2
1
5 6
2
0 3 16 3
0 11 1 2
0
end_operator
begin_operator
leave p0 fast0 n0 n1 n0
1
6 0
2
0 0 0 4
0 8 1 0
0
end_operator
begin_operator
leave p0 fast0 n0 n2 n1
1
6 0
2
0 0 0 4
0 8 2 1
0
end_operator
begin_operator
leave p0 fast0 n0 n3 n2
1
6 0
2
0 0 0 4
0 8 3 2
0
end_operator
begin_operator
leave p0 fast0 n12 n1 n0
1
6 1
2
0 0 0 8
0 8 1 0
0
end_operator
begin_operator
leave p0 fast0 n12 n2 n1
1
6 1
2
0 0 0 8
0 8 2 1
0
end_operator
begin_operator
leave p0 fast0 n12 n3 n2
1
6 1
2
0 0 0 8
0 8 3 2
0
end_operator
begin_operator
leave p0 fast0 n3 n1 n0
1
6 2
2
0 0 0 10
0 8 1 0
0
end_operator
begin_operator
leave p0 fast0 n3 n2 n1
1
6 2
2
0 0 0 10
0 8 2 1
0
end_operator
begin_operator
leave p0 fast0 n3 n3 n2
1
6 2
2
0 0 0 10
0 8 3 2
0
end_operator
begin_operator
leave p0 fast0 n6 n1 n0
1
6 3
2
0 0 0 13
0 8 1 0
0
end_operator
begin_operator
leave p0 fast0 n6 n2 n1
1
6 3
2
0 0 0 13
0 8 2 1
0
end_operator
begin_operator
leave p0 fast0 n6 n3 n2
1
6 3
2
0 0 0 13
0 8 3 2
0
end_operator
begin_operator
leave p0 fast0 n9 n1 n0
1
6 4
2
0 0 0 16
0 8 1 0
0
end_operator
begin_operator
leave p0 fast0 n9 n2 n1
1
6 4
2
0 0 0 16
0 8 2 1
0
end_operator
begin_operator
leave p0 fast0 n9 n3 n2
1
6 4
2
0 0 0 16
0 8 3 2
0
end_operator
begin_operator
leave p0 fast1 n0 n1 n0
1
7 0
2
0 0 1 4
0 9 1 0
0
end_operator
begin_operator
leave p0 fast1 n0 n2 n1
1
7 0
2
0 0 1 4
0 9 2 1
0
end_operator
begin_operator
leave p0 fast1 n0 n3 n2
1
7 0
2
0 0 1 4
0 9 3 2
0
end_operator
begin_operator
leave p0 fast1 n12 n1 n0
1
7 1
2
0 0 1 8
0 9 1 0
0
end_operator
begin_operator
leave p0 fast1 n12 n2 n1
1
7 1
2
0 0 1 8
0 9 2 1
0
end_operator
begin_operator
leave p0 fast1 n12 n3 n2
1
7 1
2
0 0 1 8
0 9 3 2
0
end_operator
begin_operator
leave p0 fast1 n3 n1 n0
1
7 2
2
0 0 1 10
0 9 1 0
0
end_operator
begin_operator
leave p0 fast1 n3 n2 n1
1
7 2
2
0 0 1 10
0 9 2 1
0
end_operator
begin_operator
leave p0 fast1 n3 n3 n2
1
7 2
2
0 0 1 10
0 9 3 2
0
end_operator
begin_operator
leave p0 fast1 n6 n1 n0
1
7 3
2
0 0 1 13
0 9 1 0
0
end_operator
begin_operator
leave p0 fast1 n6 n2 n1
1
7 3
2
0 0 1 13
0 9 2 1
0
end_operator
begin_operator
leave p0 fast1 n6 n3 n2
1
7 3
2
0 0 1 13
0 9 3 2
0
end_operator
begin_operator
leave p0 fast1 n9 n1 n0
1
7 4
2
0 0 1 16
0 9 1 0
0
end_operator
begin_operator
leave p0 fast1 n9 n2 n1
1
7 4
2
0 0 1 16
0 9 2 1
0
end_operator
begin_operator
leave p0 fast1 n9 n3 n2
1
7 4
2
0 0 1 16
0 9 3 2
0
end_operator
begin_operator
leave p0 slow0-0 n0 n1 n0
1
4 0
2
0 0 2 4
0 10 1 0
0
end_operator
begin_operator
leave p0 slow0-0 n0 n2 n1
1
4 0
2
0 0 2 4
0 10 2 1
0
end_operator
begin_operator
leave p0 slow0-0 n1 n1 n0
1
4 1
2
0 0 2 5
0 10 1 0
0
end_operator
begin_operator
leave p0 slow0-0 n1 n2 n1
1
4 1
2
0 0 2 5
0 10 2 1
0
end_operator
begin_operator
leave p0 slow0-0 n2 n1 n0
1
4 2
2
0 0 2 9
0 10 1 0
0
end_operator
begin_operator
leave p0 slow0-0 n2 n2 n1
1
4 2
2
0 0 2 9
0 10 2 1
0
end_operator
begin_operator
leave p0 slow0-0 n3 n1 n0
1
4 3
2
0 0 2 10
0 10 1 0
0
end_operator
begin_operator
leave p0 slow0-0 n3 n2 n1
1
4 3
2
0 0 2 10
0 10 2 1
0
end_operator
begin_operator
leave p0 slow0-0 n4 n1 n0
1
4 4
2
0 0 2 11
0 10 1 0
0
end_operator
begin_operator
leave p0 slow0-0 n4 n2 n1
1
4 4
2
0 0 2 11
0 10 2 1
0
end_operator
begin_operator
leave p0 slow0-0 n5 n1 n0
1
4 5
2
0 0 2 12
0 10 1 0
0
end_operator
begin_operator
leave p0 slow0-0 n5 n2 n1
1
4 5
2
0 0 2 12
0 10 2 1
0
end_operator
begin_operator
leave p0 slow0-0 n6 n1 n0
1
4 6
2
0 0 2 13
0 10 1 0
0
end_operator
begin_operator
leave p0 slow0-0 n6 n2 n1
1
4 6
2
0 0 2 13
0 10 2 1
0
end_operator
begin_operator
leave p0 slow1-0 n10 n1 n0
1
5 0
2
0 0 3 6
0 11 1 0
0
end_operator
begin_operator
leave p0 slow1-0 n10 n2 n1
1
5 0
2
0 0 3 6
0 11 2 1
0
end_operator
begin_operator
leave p0 slow1-0 n11 n1 n0
1
5 1
2
0 0 3 7
0 11 1 0
0
end_operator
begin_operator
leave p0 slow1-0 n11 n2 n1
1
5 1
2
0 0 3 7
0 11 2 1
0
end_operator
begin_operator
leave p0 slow1-0 n12 n1 n0
1
5 2
2
0 0 3 8
0 11 1 0
0
end_operator
begin_operator
leave p0 slow1-0 n12 n2 n1
1
5 2
2
0 0 3 8
0 11 2 1
0
end_operator
begin_operator
leave p0 slow1-0 n6 n1 n0
1
5 3
2
0 0 3 13
0 11 1 0
0
end_operator
begin_operator
leave p0 slow1-0 n6 n2 n1
1
5 3
2
0 0 3 13
0 11 2 1
0
end_operator
begin_operator
leave p0 slow1-0 n7 n1 n0
1
5 4
2
0 0 3 14
0 11 1 0
0
end_operator
begin_operator
leave p0 slow1-0 n7 n2 n1
1
5 4
2
0 0 3 14
0 11 2 1
0
end_operator
begin_operator
leave p0 slow1-0 n8 n1 n0
1
5 5
2
0 0 3 15
0 11 1 0
0
end_operator
begin_operator
leave p0 slow1-0 n8 n2 n1
1
5 5
2
0 0 3 15
0 11 2 1
0
end_operator
begin_operator
leave p0 slow1-0 n9 n1 n0
1
5 6
2
0 0 3 16
0 11 1 0
0
end_operator
begin_operator
leave p0 slow1-0 n9 n2 n1
1
5 6
2
0 0 3 16
0 11 2 1
0
end_operator
begin_operator
leave p1 fast0 n0 n1 n0
1
6 0
2
0 1 0 4
0 8 1 0
0
end_operator
begin_operator
leave p1 fast0 n0 n2 n1
1
6 0
2
0 1 0 4
0 8 2 1
0
end_operator
begin_operator
leave p1 fast0 n0 n3 n2
1
6 0
2
0 1 0 4
0 8 3 2
0
end_operator
begin_operator
leave p1 fast0 n12 n1 n0
1
6 1
2
0 1 0 8
0 8 1 0
0
end_operator
begin_operator
leave p1 fast0 n12 n2 n1
1
6 1
2
0 1 0 8
0 8 2 1
0
end_operator
begin_operator
leave p1 fast0 n12 n3 n2
1
6 1
2
0 1 0 8
0 8 3 2
0
end_operator
begin_operator
leave p1 fast0 n3 n1 n0
1
6 2
2
0 1 0 10
0 8 1 0
0
end_operator
begin_operator
leave p1 fast0 n3 n2 n1
1
6 2
2
0 1 0 10
0 8 2 1
0
end_operator
begin_operator
leave p1 fast0 n3 n3 n2
1
6 2
2
0 1 0 10
0 8 3 2
0
end_operator
begin_operator
leave p1 fast0 n6 n1 n0
1
6 3
2
0 1 0 13
0 8 1 0
0
end_operator
begin_operator
leave p1 fast0 n6 n2 n1
1
6 3
2
0 1 0 13
0 8 2 1
0
end_operator
begin_operator
leave p1 fast0 n6 n3 n2
1
6 3
2
0 1 0 13
0 8 3 2
0
end_operator
begin_operator
leave p1 fast0 n9 n1 n0
1
6 4
2
0 1 0 16
0 8 1 0
0
end_operator
begin_operator
leave p1 fast0 n9 n2 n1
1
6 4
2
0 1 0 16
0 8 2 1
0
end_operator
begin_operator
leave p1 fast0 n9 n3 n2
1
6 4
2
0 1 0 16
0 8 3 2
0
end_operator
begin_operator
leave p1 fast1 n0 n1 n0
1
7 0
2
0 1 1 4
0 9 1 0
0
end_operator
begin_operator
leave p1 fast1 n0 n2 n1
1
7 0
2
0 1 1 4
0 9 2 1
0
end_operator
begin_operator
leave p1 fast1 n0 n3 n2
1
7 0
2
0 1 1 4
0 9 3 2
0
end_operator
begin_operator
leave p1 fast1 n12 n1 n0
1
7 1
2
0 1 1 8
0 9 1 0
0
end_operator
begin_operator
leave p1 fast1 n12 n2 n1
1
7 1
2
0 1 1 8
0 9 2 1
0
end_operator
begin_operator
leave p1 fast1 n12 n3 n2
1
7 1
2
0 1 1 8
0 9 3 2
0
end_operator
begin_operator
leave p1 fast1 n3 n1 n0
1
7 2
2
0 1 1 10
0 9 1 0
0
end_operator
begin_operator
leave p1 fast1 n3 n2 n1
1
7 2
2
0 1 1 10
0 9 2 1
0
end_operator
begin_operator
leave p1 fast1 n3 n3 n2
1
7 2
2
0 1 1 10
0 9 3 2
0
end_operator
begin_operator
leave p1 fast1 n6 n1 n0
1
7 3
2
0 1 1 13
0 9 1 0
0
end_operator
begin_operator
leave p1 fast1 n6 n2 n1
1
7 3
2
0 1 1 13
0 9 2 1
0
end_operator
begin_operator
leave p1 fast1 n6 n3 n2
1
7 3
2
0 1 1 13
0 9 3 2
0
end_operator
begin_operator
leave p1 fast1 n9 n1 n0
1
7 4
2
0 1 1 16
0 9 1 0
0
end_operator
begin_operator
leave p1 fast1 n9 n2 n1
1
7 4
2
0 1 1 16
0 9 2 1
0
end_operator
begin_operator
leave p1 fast1 n9 n3 n2
1
7 4
2
0 1 1 16
0 9 3 2
0
end_operator
begin_operator
leave p1 slow0-0 n0 n1 n0
1
4 0
2
0 1 2 4
0 10 1 0
0
end_operator
begin_operator
leave p1 slow0-0 n0 n2 n1
1
4 0
2
0 1 2 4
0 10 2 1
0
end_operator
begin_operator
leave p1 slow0-0 n1 n1 n0
1
4 1
2
0 1 2 5
0 10 1 0
0
end_operator
begin_operator
leave p1 slow0-0 n1 n2 n1
1
4 1
2
0 1 2 5
0 10 2 1
0
end_operator
begin_operator
leave p1 slow0-0 n2 n1 n0
1
4 2
2
0 1 2 9
0 10 1 0
0
end_operator
begin_operator
leave p1 slow0-0 n2 n2 n1
1
4 2
2
0 1 2 9
0 10 2 1
0
end_operator
begin_operator
leave p1 slow0-0 n3 n1 n0
1
4 3
2
0 1 2 10
0 10 1 0
0
end_operator
begin_operator
leave p1 slow0-0 n3 n2 n1
1
4 3
2
0 1 2 10
0 10 2 1
0
end_operator
begin_operator
leave p1 slow0-0 n4 n1 n0
1
4 4
2
0 1 2 11
0 10 1 0
0
end_operator
begin_operator
leave p1 slow0-0 n4 n2 n1
1
4 4
2
0 1 2 11
0 10 2 1
0
end_operator
begin_operator
leave p1 slow0-0 n5 n1 n0
1
4 5
2
0 1 2 12
0 10 1 0
0
end_operator
begin_operator
leave p1 slow0-0 n5 n2 n1
1
4 5
2
0 1 2 12
0 10 2 1
0
end_operator
begin_operator
leave p1 slow0-0 n6 n1 n0
1
4 6
2
0 1 2 13
0 10 1 0
0
end_operator
begin_operator
leave p1 slow0-0 n6 n2 n1
1
4 6
2
0 1 2 13
0 10 2 1
0
end_operator
begin_operator
leave p1 slow1-0 n10 n1 n0
1
5 0
2
0 1 3 6
0 11 1 0
0
end_operator
begin_operator
leave p1 slow1-0 n10 n2 n1
1
5 0
2
0 1 3 6
0 11 2 1
0
end_operator
begin_operator
leave p1 slow1-0 n11 n1 n0
1
5 1
2
0 1 3 7
0 11 1 0
0
end_operator
begin_operator
leave p1 slow1-0 n11 n2 n1
1
5 1
2
0 1 3 7
0 11 2 1
0
end_operator
begin_operator
leave p1 slow1-0 n12 n1 n0
1
5 2
2
0 1 3 8
0 11 1 0
0
end_operator
begin_operator
leave p1 slow1-0 n12 n2 n1
1
5 2
2
0 1 3 8
0 11 2 1
0
end_operator
begin_operator
leave p1 slow1-0 n6 n1 n0
1
5 3
2
0 1 3 13
0 11 1 0
0
end_operator
begin_operator
leave p1 slow1-0 n6 n2 n1
1
5 3
2
0 1 3 13
0 11 2 1
0
end_operator
begin_operator
leave p1 slow1-0 n7 n1 n0
1
5 4
2
0 1 3 14
0 11 1 0
0
end_operator
begin_operator
leave p1 slow1-0 n7 n2 n1
1
5 4
2
0 1 3 14
0 11 2 1
0
end_operator
begin_operator
leave p1 slow1-0 n8 n1 n0
1
5 5
2
0 1 3 15
0 11 1 0
0
end_operator
begin_operator
leave p1 slow1-0 n8 n2 n1
1
5 5
2
0 1 3 15
0 11 2 1
0
end_operator
begin_operator
leave p1 slow1-0 n9 n1 n0
1
5 6
2
0 1 3 16
0 11 1 0
0
end_operator
begin_operator
leave p1 slow1-0 n9 n2 n1
1
5 6
2
0 1 3 16
0 11 2 1
0
end_operator
begin_operator
leave p2 fast0 n0 n1 n0
1
6 0
2
0 2 0 4
0 8 1 0
0
end_operator
begin_operator
leave p2 fast0 n0 n2 n1
1
6 0
2
0 2 0 4
0 8 2 1
0
end_operator
begin_operator
leave p2 fast0 n0 n3 n2
1
6 0
2
0 2 0 4
0 8 3 2
0
end_operator
begin_operator
leave p2 fast0 n12 n1 n0
1
6 1
2
0 2 0 8
0 8 1 0
0
end_operator
begin_operator
leave p2 fast0 n12 n2 n1
1
6 1
2
0 2 0 8
0 8 2 1
0
end_operator
begin_operator
leave p2 fast0 n12 n3 n2
1
6 1
2
0 2 0 8
0 8 3 2
0
end_operator
begin_operator
leave p2 fast0 n3 n1 n0
1
6 2
2
0 2 0 10
0 8 1 0
0
end_operator
begin_operator
leave p2 fast0 n3 n2 n1
1
6 2
2
0 2 0 10
0 8 2 1
0
end_operator
begin_operator
leave p2 fast0 n3 n3 n2
1
6 2
2
0 2 0 10
0 8 3 2
0
end_operator
begin_operator
leave p2 fast0 n6 n1 n0
1
6 3
2
0 2 0 13
0 8 1 0
0
end_operator
begin_operator
leave p2 fast0 n6 n2 n1
1
6 3
2
0 2 0 13
0 8 2 1
0
end_operator
begin_operator
leave p2 fast0 n6 n3 n2
1
6 3
2
0 2 0 13
0 8 3 2
0
end_operator
begin_operator
leave p2 fast0 n9 n1 n0
1
6 4
2
0 2 0 16
0 8 1 0
0
end_operator
begin_operator
leave p2 fast0 n9 n2 n1
1
6 4
2
0 2 0 16
0 8 2 1
0
end_operator
begin_operator
leave p2 fast0 n9 n3 n2
1
6 4
2
0 2 0 16
0 8 3 2
0
end_operator
begin_operator
leave p2 fast1 n0 n1 n0
1
7 0
2
0 2 1 4
0 9 1 0
0
end_operator
begin_operator
leave p2 fast1 n0 n2 n1
1
7 0
2
0 2 1 4
0 9 2 1
0
end_operator
begin_operator
leave p2 fast1 n0 n3 n2
1
7 0
2
0 2 1 4
0 9 3 2
0
end_operator
begin_operator
leave p2 fast1 n12 n1 n0
1
7 1
2
0 2 1 8
0 9 1 0
0
end_operator
begin_operator
leave p2 fast1 n12 n2 n1
1
7 1
2
0 2 1 8
0 9 2 1
0
end_operator
begin_operator
leave p2 fast1 n12 n3 n2
1
7 1
2
0 2 1 8
0 9 3 2
0
end_operator
begin_operator
leave p2 fast1 n3 n1 n0
1
7 2
2
0 2 1 10
0 9 1 0
0
end_operator
begin_operator
leave p2 fast1 n3 n2 n1
1
7 2
2
0 2 1 10
0 9 2 1
0
end_operator
begin_operator
leave p2 fast1 n3 n3 n2
1
7 2
2
0 2 1 10
0 9 3 2
0
end_operator
begin_operator
leave p2 fast1 n6 n1 n0
1
7 3
2
0 2 1 13
0 9 1 0
0
end_operator
begin_operator
leave p2 fast1 n6 n2 n1
1
7 3
2
0 2 1 13
0 9 2 1
0
end_operator
begin_operator
leave p2 fast1 n6 n3 n2
1
7 3
2
0 2 1 13
0 9 3 2
0
end_operator
begin_operator
leave p2 fast1 n9 n1 n0
1
7 4
2
0 2 1 16
0 9 1 0
0
end_operator
begin_operator
leave p2 fast1 n9 n2 n1
1
7 4
2
0 2 1 16
0 9 2 1
0
end_operator
begin_operator
leave p2 fast1 n9 n3 n2
1
7 4
2
0 2 1 16
0 9 3 2
0
end_operator
begin_operator
leave p2 slow0-0 n0 n1 n0
1
4 0
2
0 2 2 4
0 10 1 0
0
end_operator
begin_operator
leave p2 slow0-0 n0 n2 n1
1
4 0
2
0 2 2 4
0 10 2 1
0
end_operator
begin_operator
leave p2 slow0-0 n1 n1 n0
1
4 1
2
0 2 2 5
0 10 1 0
0
end_operator
begin_operator
leave p2 slow0-0 n1 n2 n1
1
4 1
2
0 2 2 5
0 10 2 1
0
end_operator
begin_operator
leave p2 slow0-0 n2 n1 n0
1
4 2
2
0 2 2 9
0 10 1 0
0
end_operator
begin_operator
leave p2 slow0-0 n2 n2 n1
1
4 2
2
0 2 2 9
0 10 2 1
0
end_operator
begin_operator
leave p2 slow0-0 n3 n1 n0
1
4 3
2
0 2 2 10
0 10 1 0
0
end_operator
begin_operator
leave p2 slow0-0 n3 n2 n1
1
4 3
2
0 2 2 10
0 10 2 1
0
end_operator
begin_operator
leave p2 slow0-0 n4 n1 n0
1
4 4
2
0 2 2 11
0 10 1 0
0
end_operator
begin_operator
leave p2 slow0-0 n4 n2 n1
1
4 4
2
0 2 2 11
0 10 2 1
0
end_operator
begin_operator
leave p2 slow0-0 n5 n1 n0
1
4 5
2
0 2 2 12
0 10 1 0
0
end_operator
begin_operator
leave p2 slow0-0 n5 n2 n1
1
4 5
2
0 2 2 12
0 10 2 1
0
end_operator
begin_operator
leave p2 slow0-0 n6 n1 n0
1
4 6
2
0 2 2 13
0 10 1 0
0
end_operator
begin_operator
leave p2 slow0-0 n6 n2 n1
1
4 6
2
0 2 2 13
0 10 2 1
0
end_operator
begin_operator
leave p2 slow1-0 n10 n1 n0
1
5 0
2
0 2 3 6
0 11 1 0
0
end_operator
begin_operator
leave p2 slow1-0 n10 n2 n1
1
5 0
2
0 2 3 6
0 11 2 1
0
end_operator
begin_operator
leave p2 slow1-0 n11 n1 n0
1
5 1
2
0 2 3 7
0 11 1 0
0
end_operator
begin_operator
leave p2 slow1-0 n11 n2 n1
1
5 1
2
0 2 3 7
0 11 2 1
0
end_operator
begin_operator
leave p2 slow1-0 n12 n1 n0
1
5 2
2
0 2 3 8
0 11 1 0
0
end_operator
begin_operator
leave p2 slow1-0 n12 n2 n1
1
5 2
2
0 2 3 8
0 11 2 1
0
end_operator
begin_operator
leave p2 slow1-0 n6 n1 n0
1
5 3
2
0 2 3 13
0 11 1 0
0
end_operator
begin_operator
leave p2 slow1-0 n6 n2 n1
1
5 3
2
0 2 3 13
0 11 2 1
0
end_operator
begin_operator
leave p2 slow1-0 n7 n1 n0
1
5 4
2
0 2 3 14
0 11 1 0
0
end_operator
begin_operator
leave p2 slow1-0 n7 n2 n1
1
5 4
2
0 2 3 14
0 11 2 1
0
end_operator
begin_operator
leave p2 slow1-0 n8 n1 n0
1
5 5
2
0 2 3 15
0 11 1 0
0
end_operator
begin_operator
leave p2 slow1-0 n8 n2 n1
1
5 5
2
0 2 3 15
0 11 2 1
0
end_operator
begin_operator
leave p2 slow1-0 n9 n1 n0
1
5 6
2
0 2 3 16
0 11 1 0
0
end_operator
begin_operator
leave p2 slow1-0 n9 n2 n1
1
5 6
2
0 2 3 16
0 11 2 1
0
end_operator
begin_operator
leave p3 fast0 n0 n1 n0
1
6 0
2
0 3 0 4
0 8 1 0
0
end_operator
begin_operator
leave p3 fast0 n0 n2 n1
1
6 0
2
0 3 0 4
0 8 2 1
0
end_operator
begin_operator
leave p3 fast0 n0 n3 n2
1
6 0
2
0 3 0 4
0 8 3 2
0
end_operator
begin_operator
leave p3 fast0 n12 n1 n0
1
6 1
2
0 3 0 8
0 8 1 0
0
end_operator
begin_operator
leave p3 fast0 n12 n2 n1
1
6 1
2
0 3 0 8
0 8 2 1
0
end_operator
begin_operator
leave p3 fast0 n12 n3 n2
1
6 1
2
0 3 0 8
0 8 3 2
0
end_operator
begin_operator
leave p3 fast0 n3 n1 n0
1
6 2
2
0 3 0 10
0 8 1 0
0
end_operator
begin_operator
leave p3 fast0 n3 n2 n1
1
6 2
2
0 3 0 10
0 8 2 1
0
end_operator
begin_operator
leave p3 fast0 n3 n3 n2
1
6 2
2
0 3 0 10
0 8 3 2
0
end_operator
begin_operator
leave p3 fast0 n6 n1 n0
1
6 3
2
0 3 0 13
0 8 1 0
0
end_operator
begin_operator
leave p3 fast0 n6 n2 n1
1
6 3
2
0 3 0 13
0 8 2 1
0
end_operator
begin_operator
leave p3 fast0 n6 n3 n2
1
6 3
2
0 3 0 13
0 8 3 2
0
end_operator
begin_operator
leave p3 fast0 n9 n1 n0
1
6 4
2
0 3 0 16
0 8 1 0
0
end_operator
begin_operator
leave p3 fast0 n9 n2 n1
1
6 4
2
0 3 0 16
0 8 2 1
0
end_operator
begin_operator
leave p3 fast0 n9 n3 n2
1
6 4
2
0 3 0 16
0 8 3 2
0
end_operator
begin_operator
leave p3 fast1 n0 n1 n0
1
7 0
2
0 3 1 4
0 9 1 0
0
end_operator
begin_operator
leave p3 fast1 n0 n2 n1
1
7 0
2
0 3 1 4
0 9 2 1
0
end_operator
begin_operator
leave p3 fast1 n0 n3 n2
1
7 0
2
0 3 1 4
0 9 3 2
0
end_operator
begin_operator
leave p3 fast1 n12 n1 n0
1
7 1
2
0 3 1 8
0 9 1 0
0
end_operator
begin_operator
leave p3 fast1 n12 n2 n1
1
7 1
2
0 3 1 8
0 9 2 1
0
end_operator
begin_operator
leave p3 fast1 n12 n3 n2
1
7 1
2
0 3 1 8
0 9 3 2
0
end_operator
begin_operator
leave p3 fast1 n3 n1 n0
1
7 2
2
0 3 1 10
0 9 1 0
0
end_operator
begin_operator
leave p3 fast1 n3 n2 n1
1
7 2
2
0 3 1 10
0 9 2 1
0
end_operator
begin_operator
leave p3 fast1 n3 n3 n2
1
7 2
2
0 3 1 10
0 9 3 2
0
end_operator
begin_operator
leave p3 fast1 n6 n1 n0
1
7 3
2
0 3 1 13
0 9 1 0
0
end_operator
begin_operator
leave p3 fast1 n6 n2 n1
1
7 3
2
0 3 1 13
0 9 2 1
0
end_operator
begin_operator
leave p3 fast1 n6 n3 n2
1
7 3
2
0 3 1 13
0 9 3 2
0
end_operator
begin_operator
leave p3 fast1 n9 n1 n0
1
7 4
2
0 3 1 16
0 9 1 0
0
end_operator
begin_operator
leave p3 fast1 n9 n2 n1
1
7 4
2
0 3 1 16
0 9 2 1
0
end_operator
begin_operator
leave p3 fast1 n9 n3 n2
1
7 4
2
0 3 1 16
0 9 3 2
0
end_operator
begin_operator
leave p3 slow0-0 n0 n1 n0
1
4 0
2
0 3 2 4
0 10 1 0
0
end_operator
begin_operator
leave p3 slow0-0 n0 n2 n1
1
4 0
2
0 3 2 4
0 10 2 1
0
end_operator
begin_operator
leave p3 slow0-0 n1 n1 n0
1
4 1
2
0 3 2 5
0 10 1 0
0
end_operator
begin_operator
leave p3 slow0-0 n1 n2 n1
1
4 1
2
0 3 2 5
0 10 2 1
0
end_operator
begin_operator
leave p3 slow0-0 n2 n1 n0
1
4 2
2
0 3 2 9
0 10 1 0
0
end_operator
begin_operator
leave p3 slow0-0 n2 n2 n1
1
4 2
2
0 3 2 9
0 10 2 1
0
end_operator
begin_operator
leave p3 slow0-0 n3 n1 n0
1
4 3
2
0 3 2 10
0 10 1 0
0
end_operator
begin_operator
leave p3 slow0-0 n3 n2 n1
1
4 3
2
0 3 2 10
0 10 2 1
0
end_operator
begin_operator
leave p3 slow0-0 n4 n1 n0
1
4 4
2
0 3 2 11
0 10 1 0
0
end_operator
begin_operator
leave p3 slow0-0 n4 n2 n1
1
4 4
2
0 3 2 11
0 10 2 1
0
end_operator
begin_operator
leave p3 slow0-0 n5 n1 n0
1
4 5
2
0 3 2 12
0 10 1 0
0
end_operator
begin_operator
leave p3 slow0-0 n5 n2 n1
1
4 5
2
0 3 2 12
0 10 2 1
0
end_operator
begin_operator
leave p3 slow0-0 n6 n1 n0
1
4 6
2
0 3 2 13
0 10 1 0
0
end_operator
begin_operator
leave p3 slow0-0 n6 n2 n1
1
4 6
2
0 3 2 13
0 10 2 1
0
end_operator
begin_operator
leave p3 slow1-0 n10 n1 n0
1
5 0
2
0 3 3 6
0 11 1 0
0
end_operator
begin_operator
leave p3 slow1-0 n10 n2 n1
1
5 0
2
0 3 3 6
0 11 2 1
0
end_operator
begin_operator
leave p3 slow1-0 n11 n1 n0
1
5 1
2
0 3 3 7
0 11 1 0
0
end_operator
begin_operator
leave p3 slow1-0 n11 n2 n1
1
5 1
2
0 3 3 7
0 11 2 1
0
end_operator
begin_operator
leave p3 slow1-0 n12 n1 n0
1
5 2
2
0 3 3 8
0 11 1 0
0
end_operator
begin_operator
leave p3 slow1-0 n12 n2 n1
1
5 2
2
0 3 3 8
0 11 2 1
0
end_operator
begin_operator
leave p3 slow1-0 n6 n1 n0
1
5 3
2
0 3 3 13
0 11 1 0
0
end_operator
begin_operator
leave p3 slow1-0 n6 n2 n1
1
5 3
2
0 3 3 13
0 11 2 1
0
end_operator
begin_operator
leave p3 slow1-0 n7 n1 n0
1
5 4
2
0 3 3 14
0 11 1 0
0
end_operator
begin_operator
leave p3 slow1-0 n7 n2 n1
1
5 4
2
0 3 3 14
0 11 2 1
0
end_operator
begin_operator
leave p3 slow1-0 n8 n1 n0
1
5 5
2
0 3 3 15
0 11 1 0
0
end_operator
begin_operator
leave p3 slow1-0 n8 n2 n1
1
5 5
2
0 3 3 15
0 11 2 1
0
end_operator
begin_operator
leave p3 slow1-0 n9 n1 n0
1
5 6
2
0 3 3 16
0 11 1 0
0
end_operator
begin_operator
leave p3 slow1-0 n9 n2 n1
1
5 6
2
0 3 3 16
0 11 2 1
0
end_operator
begin_operator
move-down-fast fast0 n12 n0
0
1
0 6 1 0
37
end_operator
begin_operator
move-down-fast fast0 n12 n3
0
1
0 6 1 2
28
end_operator
begin_operator
move-down-fast fast0 n12 n6
0
1
0 6 1 3
19
end_operator
begin_operator
move-down-fast fast0 n12 n9
0
1
0 6 1 4
10
end_operator
begin_operator
move-down-fast fast0 n3 n0
0
1
0 6 2 0
10
end_operator
begin_operator
move-down-fast fast0 n6 n0
0
1
0 6 3 0
19
end_operator
begin_operator
move-down-fast fast0 n6 n3
0
1
0 6 3 2
10
end_operator
begin_operator
move-down-fast fast0 n9 n0
0
1
0 6 4 0
28
end_operator
begin_operator
move-down-fast fast0 n9 n3
0
1
0 6 4 2
19
end_operator
begin_operator
move-down-fast fast0 n9 n6
0
1
0 6 4 3
10
end_operator
begin_operator
move-down-fast fast1 n12 n0
0
1
0 7 1 0
37
end_operator
begin_operator
move-down-fast fast1 n12 n3
0
1
0 7 1 2
28
end_operator
begin_operator
move-down-fast fast1 n12 n6
0
1
0 7 1 3
19
end_operator
begin_operator
move-down-fast fast1 n12 n9
0
1
0 7 1 4
10
end_operator
begin_operator
move-down-fast fast1 n3 n0
0
1
0 7 2 0
10
end_operator
begin_operator
move-down-fast fast1 n6 n0
0
1
0 7 3 0
19
end_operator
begin_operator
move-down-fast fast1 n6 n3
0
1
0 7 3 2
10
end_operator
begin_operator
move-down-fast fast1 n9 n0
0
1
0 7 4 0
28
end_operator
begin_operator
move-down-fast fast1 n9 n3
0
1
0 7 4 2
19
end_operator
begin_operator
move-down-fast fast1 n9 n6
0
1
0 7 4 3
10
end_operator
begin_operator
move-down-slow slow0-0 n1 n0
0
1
0 4 1 0
6
end_operator
begin_operator
move-down-slow slow0-0 n2 n0
0
1
0 4 2 0
7
end_operator
begin_operator
move-down-slow slow0-0 n2 n1
0
1
0 4 2 1
6
end_operator
begin_operator
move-down-slow slow0-0 n3 n0
0
1
0 4 3 0
8
end_operator
begin_operator
move-down-slow slow0-0 n3 n1
0
1
0 4 3 1
7
end_operator
begin_operator
move-down-slow slow0-0 n3 n2
0
1
0 4 3 2
6
end_operator
begin_operator
move-down-slow slow0-0 n4 n0
0
1
0 4 4 0
9
end_operator
begin_operator
move-down-slow slow0-0 n4 n1
0
1
0 4 4 1
8
end_operator
begin_operator
move-down-slow slow0-0 n4 n2
0
1
0 4 4 2
7
end_operator
begin_operator
move-down-slow slow0-0 n4 n3
0
1
0 4 4 3
6
end_operator
begin_operator
move-down-slow slow0-0 n5 n0
0
1
0 4 5 0
10
end_operator
begin_operator
move-down-slow slow0-0 n5 n1
0
1
0 4 5 1
9
end_operator
begin_operator
move-down-slow slow0-0 n5 n2
0
1
0 4 5 2
8
end_operator
begin_operator
move-down-slow slow0-0 n5 n3
0
1
0 4 5 3
7
end_operator
begin_operator
move-down-slow slow0-0 n5 n4
0
1
0 4 5 4
6
end_operator
begin_operator
move-down-slow slow0-0 n6 n0
0
1
0 4 6 0
11
end_operator
begin_operator
move-down-slow slow0-0 n6 n1
0
1
0 4 6 1
10
end_operator
begin_operator
move-down-slow slow0-0 n6 n2
0
1
0 4 6 2
9
end_operator
begin_operator
move-down-slow slow0-0 n6 n3
0
1
0 4 6 3
8
end_operator
begin_operator
move-down-slow slow0-0 n6 n4
0
1
0 4 6 4
7
end_operator
begin_operator
move-down-slow slow0-0 n6 n5
0
1
0 4 6 5
6
end_operator
begin_operator
move-down-slow slow1-0 n10 n6
0
1
0 5 0 3
9
end_operator
begin_operator
move-down-slow slow1-0 n10 n7
0
1
0 5 0 4
8
end_operator
begin_operator
move-down-slow slow1-0 n10 n8
0
1
0 5 0 5
7
end_operator
begin_operator
move-down-slow slow1-0 n10 n9
0
1
0 5 0 6
6
end_operator
begin_operator
move-down-slow slow1-0 n11 n10
0
1
0 5 1 0
6
end_operator
begin_operator
move-down-slow slow1-0 n11 n6
0
1
0 5 1 3
10
end_operator
begin_operator
move-down-slow slow1-0 n11 n7
0
1
0 5 1 4
9
end_operator
begin_operator
move-down-slow slow1-0 n11 n8
0
1
0 5 1 5
8
end_operator
begin_operator
move-down-slow slow1-0 n11 n9
0
1
0 5 1 6
7
end_operator
begin_operator
move-down-slow slow1-0 n12 n10
0
1
0 5 2 0
7
end_operator
begin_operator
move-down-slow slow1-0 n12 n11
0
1
0 5 2 1
6
end_operator
begin_operator
move-down-slow slow1-0 n12 n6
0
1
0 5 2 3
11
end_operator
begin_operator
move-down-slow slow1-0 n12 n7
0
1
0 5 2 4
10
end_operator
begin_operator
move-down-slow slow1-0 n12 n8
0
1
0 5 2 5
9
end_operator
begin_operator
move-down-slow slow1-0 n12 n9
0
1
0 5 2 6
8
end_operator
begin_operator
move-down-slow slow1-0 n7 n6
0
1
0 5 4 3
6
end_operator
begin_operator
move-down-slow slow1-0 n8 n6
0
1
0 5 5 3
7
end_operator
begin_operator
move-down-slow slow1-0 n8 n7
0
1
0 5 5 4
6
end_operator
begin_operator
move-down-slow slow1-0 n9 n6
0
1
0 5 6 3
8
end_operator
begin_operator
move-down-slow slow1-0 n9 n7
0
1
0 5 6 4
7
end_operator
begin_operator
move-down-slow slow1-0 n9 n8
0
1
0 5 6 5
6
end_operator
begin_operator
move-up-fast fast0 n0 n12
0
1
0 6 0 1
37
end_operator
begin_operator
move-up-fast fast0 n0 n3
0
1
0 6 0 2
10
end_operator
begin_operator
move-up-fast fast0 n0 n6
0
1
0 6 0 3
19
end_operator
begin_operator
move-up-fast fast0 n0 n9
0
1
0 6 0 4
28
end_operator
begin_operator
move-up-fast fast0 n3 n12
0
1
0 6 2 1
28
end_operator
begin_operator
move-up-fast fast0 n3 n6
0
1
0 6 2 3
10
end_operator
begin_operator
move-up-fast fast0 n3 n9
0
1
0 6 2 4
19
end_operator
begin_operator
move-up-fast fast0 n6 n12
0
1
0 6 3 1
19
end_operator
begin_operator
move-up-fast fast0 n6 n9
0
1
0 6 3 4
10
end_operator
begin_operator
move-up-fast fast0 n9 n12
0
1
0 6 4 1
10
end_operator
begin_operator
move-up-fast fast1 n0 n12
0
1
0 7 0 1
37
end_operator
begin_operator
move-up-fast fast1 n0 n3
0
1
0 7 0 2
10
end_operator
begin_operator
move-up-fast fast1 n0 n6
0
1
0 7 0 3
19
end_operator
begin_operator
move-up-fast fast1 n0 n9
0
1
0 7 0 4
28
end_operator
begin_operator
move-up-fast fast1 n3 n12
0
1
0 7 2 1
28
end_operator
begin_operator
move-up-fast fast1 n3 n6
0
1
0 7 2 3
10
end_operator
begin_operator
move-up-fast fast1 n3 n9
0
1
0 7 2 4
19
end_operator
begin_operator
move-up-fast fast1 n6 n12
0
1
0 7 3 1
19
end_operator
begin_operator
move-up-fast fast1 n6 n9
0
1
0 7 3 4
10
end_operator
begin_operator
move-up-fast fast1 n9 n12
0
1
0 7 4 1
10
end_operator
begin_operator
move-up-slow slow0-0 n0 n1
0
1
0 4 0 1
6
end_operator
begin_operator
move-up-slow slow0-0 n0 n2
0
1
0 4 0 2
7
end_operator
begin_operator
move-up-slow slow0-0 n0 n3
0
1
0 4 0 3
8
end_operator
begin_operator
move-up-slow slow0-0 n0 n4
0
1
0 4 0 4
9
end_operator
begin_operator
move-up-slow slow0-0 n0 n5
0
1
0 4 0 5
10
end_operator
begin_operator
move-up-slow slow0-0 n0 n6
0
1
0 4 0 6
11
end_operator
begin_operator
move-up-slow slow0-0 n1 n2
0
1
0 4 1 2
6
end_operator
begin_operator
move-up-slow slow0-0 n1 n3
0
1
0 4 1 3
7
end_operator
begin_operator
move-up-slow slow0-0 n1 n4
0
1
0 4 1 4
8
end_operator
begin_operator
move-up-slow slow0-0 n1 n5
0
1
0 4 1 5
9
end_operator
begin_operator
move-up-slow slow0-0 n1 n6
0
1
0 4 1 6
10
end_operator
begin_operator
move-up-slow slow0-0 n2 n3
0
1
0 4 2 3
6
end_operator
begin_operator
move-up-slow slow0-0 n2 n4
0
1
0 4 2 4
7
end_operator
begin_operator
move-up-slow slow0-0 n2 n5
0
1
0 4 2 5
8
end_operator
begin_operator
move-up-slow slow0-0 n2 n6
0
1
0 4 2 6
9
end_operator
begin_operator
move-up-slow slow0-0 n3 n4
0
1
0 4 3 4
6
end_operator
begin_operator
move-up-slow slow0-0 n3 n5
0
1
0 4 3 5
7
end_operator
begin_operator
move-up-slow slow0-0 n3 n6
0
1
0 4 3 6
8
end_operator
begin_operator
move-up-slow slow0-0 n4 n5
0
1
0 4 4 5
6
end_operator
begin_operator
move-up-slow slow0-0 n4 n6
0
1
0 4 4 6
7
end_operator
begin_operator
move-up-slow slow0-0 n5 n6
0
1
0 4 5 6
6
end_operator
begin_operator
move-up-slow slow1-0 n10 n11
0
1
0 5 0 1
6
end_operator
begin_operator
move-up-slow slow1-0 n10 n12
0
1
0 5 0 2
7
end_operator
begin_operator
move-up-slow slow1-0 n11 n12
0
1
0 5 1 2
6
end_operator
begin_operator
move-up-slow slow1-0 n6 n10
0
1
0 5 3 0
9
end_operator
begin_operator
move-up-slow slow1-0 n6 n11
0
1
0 5 3 1
10
end_operator
begin_operator
move-up-slow slow1-0 n6 n12
0
1
0 5 3 2
11
end_operator
begin_operator
move-up-slow slow1-0 n6 n7
0
1
0 5 3 4
6
end_operator
begin_operator
move-up-slow slow1-0 n6 n8
0
1
0 5 3 5
7
end_operator
begin_operator
move-up-slow slow1-0 n6 n9
0
1
0 5 3 6
8
end_operator
begin_operator
move-up-slow slow1-0 n7 n10
0
1
0 5 4 0
8
end_operator
begin_operator
move-up-slow slow1-0 n7 n11
0
1
0 5 4 1
9
end_operator
begin_operator
move-up-slow slow1-0 n7 n12
0
1
0 5 4 2
10
end_operator
begin_operator
move-up-slow slow1-0 n7 n8
0
1
0 5 4 5
6
end_operator
begin_operator
move-up-slow slow1-0 n7 n9
0
1
0 5 4 6
7
end_operator
begin_operator
move-up-slow slow1-0 n8 n10
0
1
0 5 5 0
7
end_operator
begin_operator
move-up-slow slow1-0 n8 n11
0
1
0 5 5 1
8
end_operator
begin_operator
move-up-slow slow1-0 n8 n12
0
1
0 5 5 2
9
end_operator
begin_operator
move-up-slow slow1-0 n8 n9
0
1
0 5 5 6
6
end_operator
begin_operator
move-up-slow slow1-0 n9 n10
0
1
0 5 6 0
6
end_operator
begin_operator
move-up-slow slow1-0 n9 n11
0
1
0 5 6 1
7
end_operator
begin_operator
move-up-slow slow1-0 n9 n12
0
1
0 5 6 2
8
end_operator
0
