begin_version
3
end_version
begin_metric
1
end_metric
22
begin_variable
var0
-1
5
treatment p0 colourfragments
treatment p0 glazed
treatment p0 untreated
treatment p0 varnished
unused p0
end_variable
begin_variable
var1
-1
5
treatment p1 colourfragments
treatment p1 glazed
treatment p1 untreated
treatment p1 varnished
unused p1
end_variable
begin_variable
var2
-1
5
treatment p2 colourfragments
treatment p2 glazed
treatment p2 untreated
treatment p2 varnished
tnf-unknown
end_variable
begin_variable
var3
-1
4
empty highspeed-saw0
in-highspeed-saw b0 highspeed-saw0
in-highspeed-saw b1 highspeed-saw0
tnf-unknown
end_variable
begin_variable
var4
-1
5
surface-condition p0 rough
surface-condition p0 smooth
surface-condition p0 verysmooth
none-of-those
tnf-unkown
end_variable
begin_variable
var5
-1
5
surface-condition p1 rough
surface-condition p1 smooth
surface-condition p1 verysmooth
none-of-those
tnf-unkown
end_variable
begin_variable
var6
-1
3
surface-condition p2 smooth
surface-condition p2 verysmooth
tnf-unknown
end_variable
begin_variable
var7
-1
3
available b0
none-of-those
tnf-unkown
end_variable
begin_variable
var8
-1
3
available b1
none-of-those
tnf-unkown
end_variable
begin_variable
var9
-1
3
available p0
none-of-those
tnf-unkown
end_variable
begin_variable
var10
-1
3
available p1
none-of-those
tnf-unkown
end_variable
begin_variable
var11
-1
3
wood p0 beech
none-of-those
tnf-unkown
end_variable
begin_variable
var12
-1
3
wood p1 cherry
none-of-those
tnf-unkown
end_variable
begin_variable
var13
-1
3
colour p0 green
none-of-those
tnf-unkown
end_variable
begin_variable
var14
-1
3
colour p0 mauve
none-of-those
tnf-unkown
end_variable
begin_variable
var15
-1
3
colour p0 natural
none-of-those
tnf-unkown
end_variable
begin_variable
var16
-1
3
colour p1 green
none-of-those
tnf-unkown
end_variable
begin_variable
var17
-1
3
colour p1 mauve
none-of-those
tnf-unkown
end_variable
begin_variable
var18
-1
3
colour p1 natural
none-of-those
tnf-unkown
end_variable
begin_variable
var19
-1
3
colour p2 green
none-of-those
tnf-unkown
end_variable
begin_variable
var20
-1
3
colour p2 mauve
none-of-those
tnf-unkown
end_variable
begin_variable
var21
-1
3
colour p2 natural
none-of-those
tnf-unkown
end_variable
15
begin_mutex_group
1
0 4
end_mutex_group
begin_mutex_group
1
1 4
end_mutex_group
begin_mutex_group
2
7 0
3 1
end_mutex_group
begin_mutex_group
2
8 0
3 2
end_mutex_group
begin_mutex_group
2
9 0
0 4
end_mutex_group
begin_mutex_group
2
10 0
1 4
end_mutex_group
begin_mutex_group
2
6 0
6 1
end_mutex_group
begin_mutex_group
2
0 4
11 0
end_mutex_group
begin_mutex_group
2
1 4
12 0
end_mutex_group
begin_mutex_group
3
3 0
3 1
3 2
end_mutex_group
begin_mutex_group
4
4 0
4 1
4 2
0 4
end_mutex_group
begin_mutex_group
4
5 0
5 1
5 2
1 4
end_mutex_group
begin_mutex_group
4
2 0
2 1
2 2
2 3
end_mutex_group
begin_mutex_group
5
0 0
0 1
0 2
0 3
0 4
end_mutex_group
begin_mutex_group
5
1 0
1 1
1 2
1 3
1 4
end_mutex_group
begin_state
4
4
0
0
3
3
1
0
0
1
1
1
1
1
1
1
1
1
1
1
1
0
end_state
begin_goal
22
0 3
1 1
2 4
3 3
4 2
5 1
6 2
7 2
8 2
9 0
10 0
11 0
12 0
13 2
14 0
15 2
16 0
17 2
18 2
19 2
20 0
21 2
end_goal
125
begin_operator
cut-board-medium b0 p0 highspeed-saw0 beech rough s3 s2 s1
1
3 1
5
0 0 4 2
0 4 4 0
0 9 2 0
0 11 2 0
0 15 2 0
10
end_operator
begin_operator
cut-board-medium b0 p1 highspeed-saw0 beech rough s3 s2 s1
1
3 1
4
0 1 4 2
0 5 4 0
0 10 2 0
0 18 2 0
10
end_operator
begin_operator
cut-board-medium b1 p0 highspeed-saw0 cherry rough s3 s2 s1
1
3 2
4
0 0 4 2
0 4 4 0
0 9 2 0
0 15 2 0
10
end_operator
begin_operator
cut-board-medium b1 p1 highspeed-saw0 cherry rough s3 s2 s1
1
3 2
5
0 1 4 2
0 5 4 0
0 10 2 0
0 12 2 0
0 18 2 0
10
end_operator
begin_operator
do-glaze p0 glazer0 green
1
9 0
3
0 0 2 1
0 13 2 0
0 15 2 1
15
end_operator
begin_operator
do-glaze p0 glazer0 mauve
1
9 0
3
0 0 2 1
0 14 2 0
0 15 2 1
15
end_operator
begin_operator
do-glaze p1 glazer0 green
1
10 0
3
0 1 2 1
0 16 2 0
0 18 2 1
15
end_operator
begin_operator
do-glaze p1 glazer0 mauve
1
10 0
3
0 1 2 1
0 17 2 0
0 18 2 1
15
end_operator
begin_operator
do-glaze p2 glazer0 green
0
3
0 2 2 1
0 19 2 0
0 21 2 1
10
end_operator
begin_operator
do-glaze p2 glazer0 mauve
0
3
0 2 2 1
0 20 2 0
0 21 2 1
10
end_operator
begin_operator
do-grind p0 grinder0 smooth green glazed untreated
1
9 0
4
0 0 1 2
0 4 1 2
0 13 0 1
0 15 2 0
30
end_operator
begin_operator
do-grind p0 grinder0 smooth mauve glazed untreated
1
9 0
4
0 0 1 2
0 4 1 2
0 14 0 1
0 15 2 0
30
end_operator
begin_operator
do-grind p0 grinder0 smooth mauve varnished colourfragments
1
9 0
4
0 0 3 0
0 4 1 2
0 14 0 1
0 15 2 0
30
end_operator
begin_operator
do-grind p0 grinder0 smooth natural untreated untreated
3
0 2
9 0
15 0
1
0 4 1 2
30
end_operator
begin_operator
do-grind p0 grinder0 verysmooth green glazed untreated
2
4 2
9 0
3
0 0 1 2
0 13 0 1
0 15 2 0
30
end_operator
begin_operator
do-grind p0 grinder0 verysmooth mauve glazed untreated
2
4 2
9 0
3
0 0 1 2
0 14 0 1
0 15 2 0
30
end_operator
begin_operator
do-grind p0 grinder0 verysmooth mauve varnished colourfragments
2
4 2
9 0
3
0 0 3 0
0 14 0 1
0 15 2 0
30
end_operator
begin_operator
do-grind p0 grinder0 verysmooth natural colourfragments untreated
3
4 2
9 0
15 0
1
0 0 0 2
30
end_operator
begin_operator
do-grind p1 grinder0 smooth green glazed untreated
1
10 0
4
0 1 1 2
0 5 1 2
0 16 0 1
0 18 2 0
30
end_operator
begin_operator
do-grind p1 grinder0 smooth mauve glazed untreated
1
10 0
4
0 1 1 2
0 5 1 2
0 17 0 1
0 18 2 0
30
end_operator
begin_operator
do-grind p1 grinder0 smooth mauve varnished colourfragments
1
10 0
4
0 1 3 0
0 5 1 2
0 17 0 1
0 18 2 0
30
end_operator
begin_operator
do-grind p1 grinder0 smooth natural untreated untreated
3
1 2
10 0
18 0
1
0 5 1 2
30
end_operator
begin_operator
do-grind p1 grinder0 verysmooth green glazed untreated
2
5 2
10 0
3
0 1 1 2
0 16 0 1
0 18 2 0
30
end_operator
begin_operator
do-grind p1 grinder0 verysmooth mauve glazed untreated
2
5 2
10 0
3
0 1 1 2
0 17 0 1
0 18 2 0
30
end_operator
begin_operator
do-grind p1 grinder0 verysmooth mauve varnished colourfragments
2
5 2
10 0
3
0 1 3 0
0 17 0 1
0 18 2 0
30
end_operator
begin_operator
do-grind p1 grinder0 verysmooth natural colourfragments untreated
3
5 2
10 0
18 0
1
0 1 0 2
30
end_operator
begin_operator
do-grind p2 grinder0 smooth green glazed untreated
0
4
0 2 1 2
0 6 0 1
0 19 0 1
0 21 2 0
15
end_operator
begin_operator
do-grind p2 grinder0 smooth mauve glazed untreated
0
4
0 2 1 2
0 6 0 1
0 20 0 1
0 21 2 0
15
end_operator
begin_operator
do-grind p2 grinder0 smooth mauve varnished colourfragments
0
4
0 2 3 0
0 6 0 1
0 20 0 1
0 21 2 0
15
end_operator
begin_operator
do-grind p2 grinder0 smooth natural untreated untreated
2
2 2
21 0
1
0 6 0 1
15
end_operator
begin_operator
do-grind p2 grinder0 verysmooth green glazed untreated
1
6 1
3
0 2 1 2
0 19 0 1
0 21 2 0
15
end_operator
begin_operator
do-grind p2 grinder0 verysmooth mauve glazed untreated
1
6 1
3
0 2 1 2
0 20 0 1
0 21 2 0
15
end_operator
begin_operator
do-grind p2 grinder0 verysmooth mauve varnished colourfragments
1
6 1
3
0 2 3 0
0 20 0 1
0 21 2 0
15
end_operator
begin_operator
do-grind p2 grinder0 verysmooth natural colourfragments untreated
2
6 1
21 0
1
0 2 0 2
15
end_operator
begin_operator
do-immersion-varnish p0 immersion-varnisher0 mauve smooth
2
4 1
9 0
3
0 0 2 3
0 14 2 0
0 15 2 1
10
end_operator
begin_operator
do-immersion-varnish p0 immersion-varnisher0 mauve verysmooth
2
4 2
9 0
3
0 0 2 3
0 14 2 0
0 15 2 1
10
end_operator
begin_operator
do-immersion-varnish p1 immersion-varnisher0 mauve smooth
2
5 1
10 0
3
0 1 2 3
0 17 2 0
0 18 2 1
10
end_operator
begin_operator
do-immersion-varnish p1 immersion-varnisher0 mauve verysmooth
2
5 2
10 0
3
0 1 2 3
0 17 2 0
0 18 2 1
10
end_operator
begin_operator
do-plane p0 planer0 rough green glazed
1
9 0
4
0 0 1 2
0 4 0 1
0 13 0 1
0 15 2 0
20
end_operator
begin_operator
do-plane p0 planer0 rough mauve glazed
1
9 0
4
0 0 1 2
0 4 0 1
0 14 0 1
0 15 2 0
20
end_operator
begin_operator
do-plane p0 planer0 rough natural untreated
3
0 2
9 0
15 0
1
0 4 0 1
20
end_operator
begin_operator
do-plane p0 planer0 smooth green glazed
2
4 1
9 0
3
0 0 1 2
0 13 0 1
0 15 2 0
20
end_operator
begin_operator
do-plane p0 planer0 smooth mauve glazed
2
4 1
9 0
3
0 0 1 2
0 14 0 1
0 15 2 0
20
end_operator
begin_operator
do-plane p0 planer0 smooth mauve varnished
2
4 1
9 0
3
0 0 3 2
0 14 0 1
0 15 2 0
20
end_operator
begin_operator
do-plane p0 planer0 verysmooth green glazed
1
9 0
4
0 0 1 2
0 4 2 1
0 13 0 1
0 15 2 0
20
end_operator
begin_operator
do-plane p0 planer0 verysmooth mauve glazed
1
9 0
4
0 0 1 2
0 4 2 1
0 14 0 1
0 15 2 0
20
end_operator
begin_operator
do-plane p0 planer0 verysmooth mauve varnished
1
9 0
4
0 0 3 2
0 4 2 1
0 14 0 1
0 15 2 0
20
end_operator
begin_operator
do-plane p0 planer0 verysmooth natural colourfragments
2
9 0
15 0
2
0 0 0 2
0 4 2 1
20
end_operator
begin_operator
do-plane p0 planer0 verysmooth natural untreated
3
0 2
9 0
15 0
1
0 4 2 1
20
end_operator
begin_operator
do-plane p1 planer0 rough green glazed
1
10 0
4
0 1 1 2
0 5 0 1
0 16 0 1
0 18 2 0
20
end_operator
begin_operator
do-plane p1 planer0 rough mauve glazed
1
10 0
4
0 1 1 2
0 5 0 1
0 17 0 1
0 18 2 0
20
end_operator
begin_operator
do-plane p1 planer0 rough natural untreated
3
1 2
10 0
18 0
1
0 5 0 1
20
end_operator
begin_operator
do-plane p1 planer0 smooth green glazed
2
5 1
10 0
3
0 1 1 2
0 16 0 1
0 18 2 0
20
end_operator
begin_operator
do-plane p1 planer0 smooth mauve glazed
2
5 1
10 0
3
0 1 1 2
0 17 0 1
0 18 2 0
20
end_operator
begin_operator
do-plane p1 planer0 smooth mauve varnished
2
5 1
10 0
3
0 1 3 2
0 17 0 1
0 18 2 0
20
end_operator
begin_operator
do-plane p1 planer0 verysmooth green glazed
1
10 0
4
0 1 1 2
0 5 2 1
0 16 0 1
0 18 2 0
20
end_operator
begin_operator
do-plane p1 planer0 verysmooth mauve glazed
1
10 0
4
0 1 1 2
0 5 2 1
0 17 0 1
0 18 2 0
20
end_operator
begin_operator
do-plane p1 planer0 verysmooth mauve varnished
1
10 0
4
0 1 3 2
0 5 2 1
0 17 0 1
0 18 2 0
20
end_operator
begin_operator
do-plane p1 planer0 verysmooth natural colourfragments
2
10 0
18 0
2
0 1 0 2
0 5 2 1
20
end_operator
begin_operator
do-plane p1 planer0 verysmooth natural untreated
3
1 2
10 0
18 0
1
0 5 2 1
20
end_operator
begin_operator
do-plane p2 planer0 smooth green glazed
1
6 0
3
0 2 1 2
0 19 0 1
0 21 2 0
10
end_operator
begin_operator
do-plane p2 planer0 smooth mauve glazed
1
6 0
3
0 2 1 2
0 20 0 1
0 21 2 0
10
end_operator
begin_operator
do-plane p2 planer0 smooth mauve varnished
1
6 0
3
0 2 3 2
0 20 0 1
0 21 2 0
10
end_operator
begin_operator
do-plane p2 planer0 verysmooth green glazed
0
4
0 2 1 2
0 6 1 0
0 19 0 1
0 21 2 0
10
end_operator
begin_operator
do-plane p2 planer0 verysmooth mauve glazed
0
4
0 2 1 2
0 6 1 0
0 20 0 1
0 21 2 0
10
end_operator
begin_operator
do-plane p2 planer0 verysmooth mauve varnished
0
4
0 2 3 2
0 6 1 0
0 20 0 1
0 21 2 0
10
end_operator
begin_operator
do-plane p2 planer0 verysmooth natural colourfragments
1
21 0
2
0 2 0 2
0 6 1 0
10
end_operator
begin_operator
do-plane p2 planer0 verysmooth natural untreated
2
2 2
21 0
1
0 6 1 0
10
end_operator
begin_operator
do-saw-medium b0 p0 saw0 beech rough s3 s2 s1
1
7 0
5
0 0 4 2
0 4 4 0
0 9 2 0
0 11 2 0
0 15 2 0
30
end_operator
begin_operator
do-saw-medium b0 p1 saw0 beech rough s3 s2 s1
1
7 0
4
0 1 4 2
0 5 4 0
0 10 2 0
0 18 2 0
30
end_operator
begin_operator
do-saw-medium b1 p0 saw0 cherry rough s3 s2 s1
1
8 0
4
0 0 4 2
0 4 4 0
0 9 2 0
0 15 2 0
30
end_operator
begin_operator
do-saw-medium b1 p1 saw0 cherry rough s3 s2 s1
1
8 0
5
0 1 4 2
0 5 4 0
0 10 2 0
0 12 2 0
0 18 2 0
30
end_operator
begin_operator
do-spray-varnish p2 spray-varnisher0 mauve smooth
1
6 0
3
0 2 2 3
0 20 2 0
0 21 2 1
5
end_operator
begin_operator
do-spray-varnish p2 spray-varnisher0 mauve verysmooth
1
6 1
3
0 2 2 3
0 20 2 0
0 21 2 1
5
end_operator
begin_operator
load-highspeed-saw b0 highspeed-saw0
0
2
0 3 0 1
0 7 0 1
30
end_operator
begin_operator
load-highspeed-saw b1 highspeed-saw0
0
2
0 3 0 2
0 8 0 1
30
end_operator
begin_operator
unload-highspeed-saw b0 highspeed-saw0
0
2
0 3 1 0
0 7 2 0
10
end_operator
begin_operator
unload-highspeed-saw b1 highspeed-saw0
0
2
0 3 2 0
0 8 2 0
10
end_operator
begin_operator
tnf-forget-2-0
0
1
0 2 0 4
0
end_operator
begin_operator
tnf-forget-2-1
0
1
0 2 1 4
0
end_operator
begin_operator
tnf-forget-2-2
0
1
0 2 2 4
0
end_operator
begin_operator
tnf-forget-2-3
0
1
0 2 3 4
0
end_operator
begin_operator
tnf-forget-3-0
0
1
0 3 0 3
0
end_operator
begin_operator
tnf-forget-3-1
0
1
0 3 1 3
0
end_operator
begin_operator
tnf-forget-3-2
0
1
0 3 2 3
0
end_operator
begin_operator
tnf-forget-4-0
0
1
0 4 0 4
0
end_operator
begin_operator
tnf-forget-4-1
0
1
0 4 1 4
0
end_operator
begin_operator
tnf-forget-4-2
0
1
0 4 2 4
0
end_operator
begin_operator
tnf-forget-4-3
0
1
0 4 3 4
0
end_operator
begin_operator
tnf-forget-5-0
0
1
0 5 0 4
0
end_operator
begin_operator
tnf-forget-5-1
0
1
0 5 1 4
0
end_operator
begin_operator
tnf-forget-5-2
0
1
0 5 2 4
0
end_operator
begin_operator
tnf-forget-5-3
0
1
0 5 3 4
0
end_operator
begin_operator
tnf-forget-6-0
0
1
0 6 0 2
0
end_operator
begin_operator
tnf-forget-6-1
0
1
0 6 1 2
0
end_operator
begin_operator
tnf-forget-7-0
0
1
0 7 0 2
0
end_operator
begin_operator
tnf-forget-7-1
0
1
0 7 1 2
0
end_operator
begin_operator
tnf-forget-8-0
0
1
0 8 0 2
0
end_operator
begin_operator
tnf-forget-8-1
0
1
0 8 1 2
0
end_operator
begin_operator
tnf-forget-9-0
0
1
0 9 0 2
0
end_operator
begin_operator
tnf-forget-9-1
0
1
0 9 1 2
0
end_operator
begin_operator
tnf-forget-10-0
0
1
0 10 0 2
0
end_operator
begin_operator
tnf-forget-10-1
0
1
0 10 1 2
0
end_operator
begin_operator
tnf-forget-11-0
0
1
0 11 0 2
0
end_operator
begin_operator
tnf-forget-11-1
0
1
0 11 1 2
0
end_operator
begin_operator
tnf-forget-12-0
0
1
0 12 0 2
0
end_operator
begin_operator
tnf-forget-12-1
0
1
0 12 1 2
0
end_operator
begin_operator
tnf-forget-13-0
0
1
0 13 0 2
0
end_operator
begin_operator
tnf-forget-13-1
0
1
0 13 1 2
0
end_operator
begin_operator
tnf-forget-14-0
0
1
0 14 0 2
0
end_operator
begin_operator
tnf-forget-14-1
0
1
0 14 1 2
0
end_operator
begin_operator
tnf-forget-15-0
0
1
0 15 0 2
0
end_operator
begin_operator
tnf-forget-15-1
0
1
0 15 1 2
0
end_operator
begin_operator
tnf-forget-16-0
0
1
0 16 0 2
0
end_operator
begin_operator
tnf-forget-16-1
0
1
0 16 1 2
0
end_operator
begin_operator
tnf-forget-17-0
0
1
0 17 0 2
0
end_operator
begin_operator
tnf-forget-17-1
0
1
0 17 1 2
0
end_operator
begin_operator
tnf-forget-18-0
0
1
0 18 0 2
0
end_operator
begin_operator
tnf-forget-18-1
0
1
0 18 1 2
0
end_operator
begin_operator
tnf-forget-19-0
0
1
0 19 0 2
0
end_operator
begin_operator
tnf-forget-19-1
0
1
0 19 1 2
0
end_operator
begin_operator
tnf-forget-20-0
0
1
0 20 0 2
0
end_operator
begin_operator
tnf-forget-20-1
0
1
0 20 1 2
0
end_operator
begin_operator
tnf-forget-21-0
0
1
0 21 0 2
0
end_operator
begin_operator
tnf-forget-21-1
0
1
0 21 1 2
0
end_operator
0
