begin_version
3
end_version
begin_metric
1
end_metric
11
begin_variable
var0
-1
7
stacks-avail n0
stacks-avail n1
stacks-avail n2
stacks-avail n3
stacks-avail n4
stacks-avail n5
tnf-unknown
end_variable
begin_variable
var1
-1
3
shipped o1
started o1
waiting o1
end_variable
begin_variable
var2
-1
3
shipped o2
started o2
waiting o2
end_variable
begin_variable
var3
-1
3
shipped o3
started o3
waiting o3
end_variable
begin_variable
var4
-1
3
shipped o4
started o4
waiting o4
end_variable
begin_variable
var5
-1
3
shipped o5
started o5
waiting o5
end_variable
begin_variable
var6
-1
3
NOT-made p1
made p1
tnf-unknown
end_variable
begin_variable
var7
-1
3
NOT-made p2
made p2
tnf-unknown
end_variable
begin_variable
var8
-1
3
NOT-made p3
made p3
tnf-unknown
end_variable
begin_variable
var9
-1
3
NOT-made p4
made p4
tnf-unknown
end_variable
begin_variable
var10
-1
3
NOT-made p5
made p5
tnf-unknown
end_variable
26
begin_mutex_group
1
6 0
end_mutex_group
begin_mutex_group
1
7 0
end_mutex_group
begin_mutex_group
1
8 0
end_mutex_group
begin_mutex_group
1
9 0
end_mutex_group
begin_mutex_group
1
10 0
end_mutex_group
begin_mutex_group
1
1 2
end_mutex_group
begin_mutex_group
1
2 2
end_mutex_group
begin_mutex_group
1
3 2
end_mutex_group
begin_mutex_group
1
4 2
end_mutex_group
begin_mutex_group
1
5 2
end_mutex_group
begin_mutex_group
2
6 0
6 1
end_mutex_group
begin_mutex_group
2
7 0
7 1
end_mutex_group
begin_mutex_group
2
8 0
8 1
end_mutex_group
begin_mutex_group
2
9 0
9 1
end_mutex_group
begin_mutex_group
2
10 0
10 1
end_mutex_group
begin_mutex_group
2
1 1
1 2
end_mutex_group
begin_mutex_group
2
2 1
2 2
end_mutex_group
begin_mutex_group
2
3 1
3 2
end_mutex_group
begin_mutex_group
2
4 1
4 2
end_mutex_group
begin_mutex_group
2
5 1
5 2
end_mutex_group
begin_mutex_group
3
1 0
1 1
1 2
end_mutex_group
begin_mutex_group
3
2 0
2 1
2 2
end_mutex_group
begin_mutex_group
3
3 0
3 1
3 2
end_mutex_group
begin_mutex_group
3
4 0
4 1
4 2
end_mutex_group
begin_mutex_group
3
5 0
5 1
5 2
end_mutex_group
begin_mutex_group
6
0 0
0 1
0 2
0 3
0 4
0 5
end_mutex_group
begin_state
0
2
2
2
2
2
0
0
0
0
0
end_state
begin_goal
11
0 6
1 0
2 0
3 0
4 0
5 0
6 2
7 2
8 2
9 2
10 2
end_goal
76
begin_operator
make-product p1
1
2 1
1
0 6 0 1
0
end_operator
begin_operator
make-product p2
2
1 1
2 1
1
0 7 0 1
0
end_operator
begin_operator
make-product p3
2
3 1
4 1
1
0 8 0 1
0
end_operator
begin_operator
make-product p4
1
4 1
1
0 9 0 1
0
end_operator
begin_operator
make-product p5
1
5 1
1
0 10 0 1
0
end_operator
begin_operator
open-new-stack n0 n1
0
1
0 0 0 1
1
end_operator
begin_operator
open-new-stack n1 n2
0
1
0 0 1 2
1
end_operator
begin_operator
open-new-stack n2 n3
0
1
0 0 2 3
1
end_operator
begin_operator
open-new-stack n3 n4
0
1
0 0 3 4
1
end_operator
begin_operator
open-new-stack n4 n5
0
1
0 0 4 5
1
end_operator
begin_operator
ship-order o1 n0 n1
1
7 1
2
0 0 0 1
0 1 1 0
0
end_operator
begin_operator
ship-order o1 n1 n2
1
7 1
2
0 0 1 2
0 1 1 0
0
end_operator
begin_operator
ship-order o1 n2 n3
1
7 1
2
0 0 2 3
0 1 1 0
0
end_operator
begin_operator
ship-order o1 n3 n4
1
7 1
2
0 0 3 4
0 1 1 0
0
end_operator
begin_operator
ship-order o1 n4 n5
1
7 1
2
0 0 4 5
0 1 1 0
0
end_operator
begin_operator
ship-order o2 n0 n1
2
6 1
7 1
2
0 0 0 1
0 2 1 0
0
end_operator
begin_operator
ship-order o2 n1 n2
2
6 1
7 1
2
0 0 1 2
0 2 1 0
0
end_operator
begin_operator
ship-order o2 n2 n3
2
6 1
7 1
2
0 0 2 3
0 2 1 0
0
end_operator
begin_operator
ship-order o2 n3 n4
2
6 1
7 1
2
0 0 3 4
0 2 1 0
0
end_operator
begin_operator
ship-order o2 n4 n5
2
6 1
7 1
2
0 0 4 5
0 2 1 0
0
end_operator
begin_operator
ship-order o3 n0 n1
1
8 1
2
0 0 0 1
0 3 1 0
0
end_operator
begin_operator
ship-order o3 n1 n2
1
8 1
2
0 0 1 2
0 3 1 0
0
end_operator
begin_operator
ship-order o3 n2 n3
1
8 1
2
0 0 2 3
0 3 1 0
0
end_operator
begin_operator
ship-order o3 n3 n4
1
8 1
2
0 0 3 4
0 3 1 0
0
end_operator
begin_operator
ship-order o3 n4 n5
1
8 1
2
0 0 4 5
0 3 1 0
0
end_operator
begin_operator
ship-order o4 n0 n1
2
8 1
9 1
2
0 0 0 1
0 4 1 0
0
end_operator
begin_operator
ship-order o4 n1 n2
2
8 1
9 1
2
0 0 1 2
0 4 1 0
0
end_operator
begin_operator
ship-order o4 n2 n3
2
8 1
9 1
2
0 0 2 3
0 4 1 0
0
end_operator
begin_operator
ship-order o4 n3 n4
2
8 1
9 1
2
0 0 3 4
0 4 1 0
0
end_operator
begin_operator
ship-order o4 n4 n5
2
8 1
9 1
2
0 0 4 5
0 4 1 0
0
end_operator
begin_operator
ship-order o5 n0 n1
1
10 1
2
0 0 0 1
0 5 1 0
0
end_operator
begin_operator
ship-order o5 n1 n2
1
10 1
2
0 0 1 2
0 5 1 0
0
end_operator
begin_operator
ship-order o5 n2 n3
1
10 1
2
0 0 2 3
0 5 1 0
0
end_operator
begin_operator
ship-order o5 n3 n4
1
10 1
2
0 0 3 4
0 5 1 0
0
end_operator
begin_operator
ship-order o5 n4 n5
1
10 1
2
0 0 4 5
0 5 1 0
0
end_operator
begin_operator
start-order o1 n1 n0
0
2
0 0 1 0
0 1 2 1
0
end_operator
begin_operator
start-order o1 n2 n1
0
2
0 0 2 1
0 1 2 1
0
end_operator
begin_operator
start-order o1 n3 n2
0
2
0 0 3 2
0 1 2 1
0
end_operator
begin_operator
start-order o1 n4 n3
0
2
0 0 4 3
0 1 2 1
0
end_operator
begin_operator
start-order o1 n5 n4
0
2
0 0 5 4
0 1 2 1
0
end_operator
begin_operator
start-order o2 n1 n0
0
2
0 0 1 0
0 2 2 1
0
end_operator
begin_operator
start-order o2 n2 n1
0
2
0 0 2 1
0 2 2 1
0
end_operator
begin_operator
start-order o2 n3 n2
0
2
0 0 3 2
0 2 2 1
0
end_operator
begin_operator
start-order o2 n4 n3
0
2
0 0 4 3
0 2 2 1
0
end_operator
begin_operator
start-order o2 n5 n4
0
2
0 0 5 4
0 2 2 1
0
end_operator
begin_operator
start-order o3 n1 n0
0
2
0 0 1 0
0 3 2 1
0
end_operator
begin_operator
start-order o3 n2 n1
0
2
0 0 2 1
0 3 2 1
0
end_operator
begin_operator
start-order o3 n3 n2
0
2
0 0 3 2
0 3 2 1
0
end_operator
begin_operator
start-order o3 n4 n3
0
2
0 0 4 3
0 3 2 1
0
end_operator
begin_operator
start-order o3 n5 n4
0
2
0 0 5 4
0 3 2 1
0
end_operator
begin_operator
start-order o4 n1 n0
0
2
0 0 1 0
0 4 2 1
0
end_operator
begin_operator
start-order o4 n2 n1
0
2
0 0 2 1
0 4 2 1
0
end_operator
begin_operator
start-order o4 n3 n2
0
2
0 0 3 2
0 4 2 1
0
end_operator
begin_operator
start-order o4 n4 n3
0
2
0 0 4 3
0 4 2 1
0
end_operator
begin_operator
start-order o4 n5 n4
0
2
0 0 5 4
0 4 2 1
0
end_operator
begin_operator
start-order o5 n1 n0
0
2
0 0 1 0
0 5 2 1
0
end_operator
begin_operator
start-order o5 n2 n1
0
2
0 0 2 1
0 5 2 1
0
end_operator
begin_operator
start-order o5 n3 n2
0
2
0 0 3 2
0 5 2 1
0
end_operator
begin_operator
start-order o5 n4 n3
0
2
0 0 4 3
0 5 2 1
0
end_operator
begin_operator
start-order o5 n5 n4
0
2
0 0 5 4
0 5 2 1
0
end_operator
begin_operator
tnf-forget-0-0
0
1
0 0 0 6
0
end_operator
begin_operator
tnf-forget-0-1
0
1
0 0 1 6
0
end_operator
begin_operator
tnf-forget-0-2
0
1
0 0 2 6
0
end_operator
begin_operator
tnf-forget-0-3
0
1
0 0 3 6
0
end_operator
begin_operator
tnf-forget-0-4
0
1
0 0 4 6
0
end_operator
begin_operator
tnf-forget-0-5
0
1
0 0 5 6
0
end_operator
begin_operator
tnf-forget-6-0
0
1
0 6 0 2
0
end_operator
begin_operator
tnf-forget-6-1
0
1
0 6 1 2
0
end_operator
begin_operator
tnf-forget-7-0
0
1
0 7 0 2
0
end_operator
begin_operator
tnf-forget-7-1
0
1
0 7 1 2
0
end_operator
begin_operator
tnf-forget-8-0
0
1
0 8 0 2
0
end_operator
begin_operator
tnf-forget-8-1
0
1
0 8 1 2
0
end_operator
begin_operator
tnf-forget-9-0
0
1
0 9 0 2
0
end_operator
begin_operator
tnf-forget-9-1
0
1
0 9 1 2
0
end_operator
begin_operator
tnf-forget-10-0
0
1
0 10 0 2
0
end_operator
begin_operator
tnf-forget-10-1
0
1
0 10 1 2
0
end_operator
0
