 (down tent0) (up tent0):=1
 (down tent1) (up tent1):=1
 (at_car car0 place0) (at_car car0 place1) (at_car car0 place2) (at_car car0 place3) (at_car car0 place4):=1
 (at_car car1 place0) (at_car car1 place1) (at_car car1 place2) (at_car car1 place3) (at_car car1 place4):=1
 (at_car car2 place0) (at_car car2 place1) (at_car car2 place2) (at_car car2 place3) (at_car car2 place4):=1
 (at_person girl0 place0) (at_person girl0 place1) (at_person girl0 place2) (at_person girl0 place3) (at_person girl0 place4):=1
 (at_person girl1 place0) (at_person girl1 place1) (at_person girl1 place2) (at_person girl1 place3) (at_person girl1 place4):=1
 (at_person guy0 place0) (at_person guy0 place1) (at_person guy0 place2) (at_person guy0 place3) (at_person guy0 place4):=1
 (at_person guy1 place0) (at_person guy1 place1) (at_person guy1 place2) (at_person guy1 place3) (at_person guy1 place4):=1
 (at_tent tent0 place0) (at_tent tent0 place1) (at_tent tent0 place2) (at_tent tent0 place3) (at_tent tent0 place4):=1
 (at_tent tent1 place0) (at_tent tent1 place1) (at_tent tent1 place2) (at_tent tent1 place3) (at_tent tent1 place4):=1
 (walked couple0 place0) (walked couple0 place1) (walked couple0 place2) (walked couple0 place3) (walked couple0 place4):=1:G
 (walked couple1 place0) (walked couple1 place1) (walked couple1 place2) (walked couple1 place3) (walked couple1 place4):=1:G

