 (NOT-created id_barat) (knows id_barat):=1:fam
 (NOT-created id_barat) (knows_property id_barat pexecutable):=1:fam
 (NOT-created id_barat) (knows_property id_barat phost):=1:fam
 (NOT-created id_barat) (prop_elevated id_barat yes):=1:fam
 (NOT-created id_barat) (prop_executable id_barat somepath):=1:fam
 (NOT-created id_bbrat) (knows id_bbrat):=1:fam
 (NOT-created id_bbrat) (knows_property id_bbrat pexecutable):=1:fam
 (NOT-created id_bbrat) (knows_property id_bbrat phost):=1:fam
 (NOT-created id_bbrat) (prop_elevated id_bbrat yes):=1:fam
 (NOT-created id_bbrat) (prop_executable id_bbrat somepath):=1:fam
 (NOT-created id_bbrat) (prop_host id_bbrat id_rhost):=1:fam:G
 (NOT-created id_befile) (knows id_befile):=1:fam
 (NOT-created id_befile) (knows_property id_befile phost):=1:fam
 (NOT-created id_befile) (knows_property id_befile ppath):=1:fam
 (NOT-created id_befile) (prop_path id_befile somepath):=1:fam
 (NOT-created id_bffile) (knows id_bffile):=1:fam
 (NOT-created id_bffile) (knows_property id_bffile phost):=1:fam
 (NOT-created id_bffile) (knows_property id_bffile ppath):=1:fam
 (NOT-created id_bffile) (prop_path id_bffile somepath):=1:fam
 (NOT-created id_bgshare) (knows id_bgshare):=1:fam
 (NOT-created id_bgshare) (knows_property id_bgshare pdest_host):=1:fam
 (NOT-created id_bgshare) (knows_property id_bgshare pshare_path):=1:fam
 (NOT-created id_bgshare) (knows_property id_bgshare psrc_host):=1:fam
 (NOT-created id_bgshare) (prop_share_path id_bgshare whatever):=1:fam
 (NOT-created id_bhshare) (knows id_bhshare):=1:fam
 (NOT-created id_bhshare) (knows_property id_bhshare pdest_host):=1:fam
 (NOT-created id_bhshare) (knows_property id_bhshare pshare_path):=1:fam
 (NOT-created id_bhshare) (knows_property id_bhshare psrc_host):=1:fam
 (NOT-created id_bhshare) (prop_share_path id_bhshare whatever):=1:fam
 (NOT-created id_yrat) (prop_executable id_yrat somepath):=1:fam
 (NOT-created id_yrat) (prop_host id_yrat id_rhost):fam
 (NOT-created id_barat) (prop_host id_barat id_khost) (prop_host id_barat id_rhost):=1:fam
 (NOT-created id_befile) (prop_host id_befile id_khost) (prop_host id_befile id_rhost):=1:fam
 (NOT-created id_bffile) (prop_host id_bffile id_khost) (prop_host id_bffile id_rhost):=1:fam
 (NOT-created id_bgshare) (prop_dest_host id_bgshare id_khost) (prop_dest_host id_bgshare id_rhost):=1:fam
 (NOT-created id_bgshare) (prop_dest_host id_bgshare id_khost) (prop_src_host id_bgshare id_khost):=1:fam
 (NOT-created id_bgshare) (prop_dest_host id_bgshare id_rhost) (prop_src_host id_bgshare id_rhost):=1:fam
 (NOT-created id_bgshare) (prop_src_host id_bgshare id_khost) (prop_src_host id_bgshare id_rhost):=1:fam
 (NOT-created id_bhshare) (prop_dest_host id_bhshare id_khost) (prop_dest_host id_bhshare id_rhost):=1:fam
 (NOT-created id_bhshare) (prop_dest_host id_bhshare id_khost) (prop_src_host id_bhshare id_khost):=1:fam
 (NOT-created id_bhshare) (prop_dest_host id_bhshare id_rhost) (prop_src_host id_bhshare id_rhost):=1:fam
 (NOT-created id_bhshare) (prop_src_host id_bhshare id_khost) (prop_src_host id_bhshare id_rhost):=1:fam

