begin_version
3
end_version
begin_metric
1
end_metric
220
begin_variable
var0
-1
217
at player-01 pos-02-16
at player-01 pos-03-02
at player-01 pos-03-03
at player-01 pos-03-04
at player-01 pos-03-05
at player-01 pos-03-06
at player-01 pos-03-07
at player-01 pos-03-08
at player-01 pos-03-09
at player-01 pos-03-10
at player-01 pos-03-11
at player-01 pos-03-12
at player-01 pos-03-13
at player-01 pos-03-14
at player-01 pos-03-15
at player-01 pos-03-16
at player-01 pos-04-02
at player-01 pos-04-16
at player-01 pos-05-02
at player-01 pos-05-04
at player-01 pos-05-05
at player-01 pos-05-06
at player-01 pos-05-07
at player-01 pos-05-08
at player-01 pos-05-09
at player-01 pos-05-10
at player-01 pos-05-11
at player-01 pos-05-12
at player-01 pos-05-13
at player-01 pos-05-14
at player-01 pos-05-15
at player-01 pos-05-16
at player-01 pos-06-02
at player-01 pos-06-04
at player-01 pos-07-02
at player-01 pos-07-04
at player-01 pos-07-06
at player-01 pos-07-07
at player-01 pos-07-08
at player-01 pos-07-09
at player-01 pos-07-10
at player-01 pos-07-11
at player-01 pos-07-12
at player-01 pos-07-13
at player-01 pos-07-14
at player-01 pos-07-15
at player-01 pos-07-16
at player-01 pos-08-02
at player-01 pos-08-04
at player-01 pos-08-06
at player-01 pos-08-16
at player-01 pos-09-02
at player-01 pos-09-04
at player-01 pos-09-06
at player-01 pos-09-08
at player-01 pos-09-09
at player-01 pos-09-10
at player-01 pos-09-11
at player-01 pos-09-12
at player-01 pos-09-13
at player-01 pos-09-14
at player-01 pos-09-16
at player-01 pos-10-02
at player-01 pos-10-04
at player-01 pos-10-06
at player-01 pos-10-08
at player-01 pos-10-14
at player-01 pos-10-16
at player-01 pos-11-02
at player-01 pos-11-04
at player-01 pos-11-06
at player-01 pos-11-08
at player-01 pos-11-10
at player-01 pos-11-11
at player-01 pos-11-12
at player-01 pos-11-14
at player-01 pos-11-16
at player-01 pos-12-02
at player-01 pos-12-04
at player-01 pos-12-06
at player-01 pos-12-08
at player-01 pos-12-10
at player-01 pos-12-12
at player-01 pos-12-14
at player-01 pos-12-16
at player-01 pos-13-02
at player-01 pos-13-04
at player-01 pos-13-06
at player-01 pos-13-08
at player-01 pos-13-10
at player-01 pos-13-12
at player-01 pos-13-14
at player-01 pos-13-16
at player-01 pos-14-02
at player-01 pos-14-04
at player-01 pos-14-06
at player-01 pos-14-08
at player-01 pos-14-10
at player-01 pos-14-12
at player-01 pos-14-14
at player-01 pos-14-16
at player-01 pos-15-02
at player-01 pos-15-04
at player-01 pos-15-06
at player-01 pos-15-08
at player-01 pos-15-10
at player-01 pos-15-12
at player-01 pos-15-14
at player-01 pos-15-16
at player-01 pos-16-02
at player-01 pos-16-04
at player-01 pos-16-06
at player-01 pos-16-08
at player-01 pos-16-10
at player-01 pos-16-12
at player-01 pos-16-14
at player-01 pos-16-16
at player-01 pos-17-02
at player-01 pos-17-04
at player-01 pos-17-06
at player-01 pos-17-08
at player-01 pos-17-10
at player-01 pos-17-12
at player-01 pos-17-14
at player-01 pos-17-16
at player-01 pos-18-02
at player-01 pos-18-04
at player-01 pos-18-06
at player-01 pos-18-08
at player-01 pos-18-10
at player-01 pos-18-12
at player-01 pos-18-14
at player-01 pos-18-16
at player-01 pos-19-02
at player-01 pos-19-04
at player-01 pos-19-06
at player-01 pos-19-08
at player-01 pos-19-10
at player-01 pos-19-12
at player-01 pos-19-14
at player-01 pos-19-16
at player-01 pos-20-02
at player-01 pos-20-04
at player-01 pos-20-06
at player-01 pos-20-08
at player-01 pos-20-10
at player-01 pos-20-12
at player-01 pos-20-14
at player-01 pos-20-16
at player-01 pos-21-02
at player-01 pos-21-04
at player-01 pos-21-06
at player-01 pos-21-08
at player-01 pos-21-10
at player-01 pos-21-12
at player-01 pos-21-14
at player-01 pos-21-16
at player-01 pos-22-02
at player-01 pos-22-04
at player-01 pos-22-06
at player-01 pos-22-08
at player-01 pos-22-09
at player-01 pos-22-10
at player-01 pos-22-12
at player-01 pos-22-14
at player-01 pos-22-16
at player-01 pos-23-02
at player-01 pos-23-04
at player-01 pos-23-06
at player-01 pos-23-12
at player-01 pos-23-14
at player-01 pos-23-16
at player-01 pos-24-02
at player-01 pos-24-04
at player-01 pos-24-06
at player-01 pos-24-07
at player-01 pos-24-08
at player-01 pos-24-09
at player-01 pos-24-10
at player-01 pos-24-11
at player-01 pos-24-12
at player-01 pos-24-14
at player-01 pos-24-16
at player-01 pos-25-02
at player-01 pos-25-04
at player-01 pos-25-14
at player-01 pos-25-16
at player-01 pos-26-02
at player-01 pos-26-04
at player-01 pos-26-05
at player-01 pos-26-06
at player-01 pos-26-07
at player-01 pos-26-08
at player-01 pos-26-09
at player-01 pos-26-10
at player-01 pos-26-11
at player-01 pos-26-12
at player-01 pos-26-13
at player-01 pos-26-14
at player-01 pos-26-16
at player-01 pos-27-02
at player-01 pos-27-16
at player-01 pos-28-02
at player-01 pos-28-03
at player-01 pos-28-04
at player-01 pos-28-05
at player-01 pos-28-06
at player-01 pos-28-07
at player-01 pos-28-08
at player-01 pos-28-09
at player-01 pos-28-10
at player-01 pos-28-11
at player-01 pos-28-12
at player-01 pos-28-13
at player-01 pos-28-14
at player-01 pos-28-15
at player-01 pos-28-16
end_variable
begin_variable
var1
-1
15
at stone-01 pos-03-03
at stone-01 pos-03-04
at stone-01 pos-03-05
at stone-01 pos-03-06
at stone-01 pos-03-07
at stone-01 pos-03-08
at stone-01 pos-03-09
at stone-01 pos-03-10
at stone-01 pos-03-11
at stone-01 pos-03-12
at stone-01 pos-03-13
at stone-01 pos-03-14
at stone-01 pos-03-15
at stone-01 pos-03-16
none-of-those
end_variable
begin_variable
var2
-1
2
at player-01 pos-05-09
clear pos-05-09
end_variable
begin_variable
var3
-1
2
at player-01 pos-05-10
clear pos-05-10
end_variable
begin_variable
var4
-1
2
at player-01 pos-05-11
clear pos-05-11
end_variable
begin_variable
var5
-1
2
at player-01 pos-05-12
clear pos-05-12
end_variable
begin_variable
var6
-1
2
at player-01 pos-05-13
clear pos-05-13
end_variable
begin_variable
var7
-1
2
at player-01 pos-05-14
clear pos-05-14
end_variable
begin_variable
var8
-1
2
at player-01 pos-05-15
clear pos-05-15
end_variable
begin_variable
var9
-1
2
at player-01 pos-05-16
clear pos-05-16
end_variable
begin_variable
var10
-1
2
at player-01 pos-06-02
clear pos-06-02
end_variable
begin_variable
var11
-1
2
at player-01 pos-06-04
clear pos-06-04
end_variable
begin_variable
var12
-1
2
at player-01 pos-07-02
clear pos-07-02
end_variable
begin_variable
var13
-1
2
at player-01 pos-07-04
clear pos-07-04
end_variable
begin_variable
var14
-1
2
at player-01 pos-07-06
clear pos-07-06
end_variable
begin_variable
var15
-1
2
at player-01 pos-07-07
clear pos-07-07
end_variable
begin_variable
var16
-1
2
at player-01 pos-07-08
clear pos-07-08
end_variable
begin_variable
var17
-1
2
at player-01 pos-07-09
clear pos-07-09
end_variable
begin_variable
var18
-1
2
at player-01 pos-07-10
clear pos-07-10
end_variable
begin_variable
var19
-1
2
at player-01 pos-07-11
clear pos-07-11
end_variable
begin_variable
var20
-1
2
at player-01 pos-07-12
clear pos-07-12
end_variable
begin_variable
var21
-1
2
at player-01 pos-07-13
clear pos-07-13
end_variable
begin_variable
var22
-1
2
at player-01 pos-07-14
clear pos-07-14
end_variable
begin_variable
var23
-1
2
at player-01 pos-07-15
clear pos-07-15
end_variable
begin_variable
var24
-1
2
at player-01 pos-07-16
clear pos-07-16
end_variable
begin_variable
var25
-1
2
at player-01 pos-08-02
clear pos-08-02
end_variable
begin_variable
var26
-1
2
at player-01 pos-08-04
clear pos-08-04
end_variable
begin_variable
var27
-1
2
at player-01 pos-08-06
clear pos-08-06
end_variable
begin_variable
var28
-1
2
at player-01 pos-08-16
clear pos-08-16
end_variable
begin_variable
var29
-1
2
at player-01 pos-09-02
clear pos-09-02
end_variable
begin_variable
var30
-1
2
at player-01 pos-09-04
clear pos-09-04
end_variable
begin_variable
var31
-1
2
at player-01 pos-09-06
clear pos-09-06
end_variable
begin_variable
var32
-1
2
at player-01 pos-09-08
clear pos-09-08
end_variable
begin_variable
var33
-1
2
at player-01 pos-09-09
clear pos-09-09
end_variable
begin_variable
var34
-1
2
at player-01 pos-09-10
clear pos-09-10
end_variable
begin_variable
var35
-1
2
at player-01 pos-09-11
clear pos-09-11
end_variable
begin_variable
var36
-1
2
at player-01 pos-09-12
clear pos-09-12
end_variable
begin_variable
var37
-1
2
at player-01 pos-09-13
clear pos-09-13
end_variable
begin_variable
var38
-1
2
at player-01 pos-09-14
clear pos-09-14
end_variable
begin_variable
var39
-1
2
at player-01 pos-09-16
clear pos-09-16
end_variable
begin_variable
var40
-1
2
at player-01 pos-10-02
clear pos-10-02
end_variable
begin_variable
var41
-1
2
at player-01 pos-10-04
clear pos-10-04
end_variable
begin_variable
var42
-1
2
at player-01 pos-10-06
clear pos-10-06
end_variable
begin_variable
var43
-1
2
at player-01 pos-10-08
clear pos-10-08
end_variable
begin_variable
var44
-1
2
at player-01 pos-10-14
clear pos-10-14
end_variable
begin_variable
var45
-1
2
at player-01 pos-10-16
clear pos-10-16
end_variable
begin_variable
var46
-1
2
at player-01 pos-11-02
clear pos-11-02
end_variable
begin_variable
var47
-1
2
at player-01 pos-11-04
clear pos-11-04
end_variable
begin_variable
var48
-1
2
at player-01 pos-11-06
clear pos-11-06
end_variable
begin_variable
var49
-1
2
at player-01 pos-11-08
clear pos-11-08
end_variable
begin_variable
var50
-1
2
at player-01 pos-11-10
clear pos-11-10
end_variable
begin_variable
var51
-1
2
at player-01 pos-11-11
clear pos-11-11
end_variable
begin_variable
var52
-1
2
at player-01 pos-11-12
clear pos-11-12
end_variable
begin_variable
var53
-1
2
at player-01 pos-11-14
clear pos-11-14
end_variable
begin_variable
var54
-1
2
at player-01 pos-11-16
clear pos-11-16
end_variable
begin_variable
var55
-1
2
at player-01 pos-12-02
clear pos-12-02
end_variable
begin_variable
var56
-1
2
at player-01 pos-12-04
clear pos-12-04
end_variable
begin_variable
var57
-1
2
at player-01 pos-12-06
clear pos-12-06
end_variable
begin_variable
var58
-1
2
at player-01 pos-12-08
clear pos-12-08
end_variable
begin_variable
var59
-1
2
at player-01 pos-12-10
clear pos-12-10
end_variable
begin_variable
var60
-1
2
at player-01 pos-12-12
clear pos-12-12
end_variable
begin_variable
var61
-1
2
at player-01 pos-12-14
clear pos-12-14
end_variable
begin_variable
var62
-1
2
at player-01 pos-12-16
clear pos-12-16
end_variable
begin_variable
var63
-1
2
at player-01 pos-13-02
clear pos-13-02
end_variable
begin_variable
var64
-1
2
at player-01 pos-13-04
clear pos-13-04
end_variable
begin_variable
var65
-1
2
at player-01 pos-13-06
clear pos-13-06
end_variable
begin_variable
var66
-1
2
at player-01 pos-13-08
clear pos-13-08
end_variable
begin_variable
var67
-1
2
at player-01 pos-13-10
clear pos-13-10
end_variable
begin_variable
var68
-1
2
at player-01 pos-13-12
clear pos-13-12
end_variable
begin_variable
var69
-1
2
at player-01 pos-13-14
clear pos-13-14
end_variable
begin_variable
var70
-1
2
at player-01 pos-13-16
clear pos-13-16
end_variable
begin_variable
var71
-1
2
at player-01 pos-14-02
clear pos-14-02
end_variable
begin_variable
var72
-1
2
at player-01 pos-14-04
clear pos-14-04
end_variable
begin_variable
var73
-1
2
at player-01 pos-14-06
clear pos-14-06
end_variable
begin_variable
var74
-1
2
at player-01 pos-14-08
clear pos-14-08
end_variable
begin_variable
var75
-1
2
at player-01 pos-14-10
clear pos-14-10
end_variable
begin_variable
var76
-1
2
at player-01 pos-14-12
clear pos-14-12
end_variable
begin_variable
var77
-1
2
at player-01 pos-14-14
clear pos-14-14
end_variable
begin_variable
var78
-1
2
at player-01 pos-14-16
clear pos-14-16
end_variable
begin_variable
var79
-1
2
at player-01 pos-15-02
clear pos-15-02
end_variable
begin_variable
var80
-1
2
at player-01 pos-15-04
clear pos-15-04
end_variable
begin_variable
var81
-1
2
at player-01 pos-15-06
clear pos-15-06
end_variable
begin_variable
var82
-1
2
at player-01 pos-15-08
clear pos-15-08
end_variable
begin_variable
var83
-1
2
at player-01 pos-15-10
clear pos-15-10
end_variable
begin_variable
var84
-1
2
at player-01 pos-15-12
clear pos-15-12
end_variable
begin_variable
var85
-1
2
at player-01 pos-15-14
clear pos-15-14
end_variable
begin_variable
var86
-1
2
at player-01 pos-15-16
clear pos-15-16
end_variable
begin_variable
var87
-1
2
at player-01 pos-16-02
clear pos-16-02
end_variable
begin_variable
var88
-1
2
at player-01 pos-16-04
clear pos-16-04
end_variable
begin_variable
var89
-1
2
at player-01 pos-16-06
clear pos-16-06
end_variable
begin_variable
var90
-1
2
at player-01 pos-16-08
clear pos-16-08
end_variable
begin_variable
var91
-1
2
at player-01 pos-16-10
clear pos-16-10
end_variable
begin_variable
var92
-1
2
at player-01 pos-16-12
clear pos-16-12
end_variable
begin_variable
var93
-1
2
at player-01 pos-16-14
clear pos-16-14
end_variable
begin_variable
var94
-1
2
at player-01 pos-16-16
clear pos-16-16
end_variable
begin_variable
var95
-1
2
at player-01 pos-17-02
clear pos-17-02
end_variable
begin_variable
var96
-1
2
at player-01 pos-17-04
clear pos-17-04
end_variable
begin_variable
var97
-1
2
at player-01 pos-17-06
clear pos-17-06
end_variable
begin_variable
var98
-1
2
at player-01 pos-17-08
clear pos-17-08
end_variable
begin_variable
var99
-1
2
at player-01 pos-17-10
clear pos-17-10
end_variable
begin_variable
var100
-1
2
at player-01 pos-17-12
clear pos-17-12
end_variable
begin_variable
var101
-1
2
at player-01 pos-17-14
clear pos-17-14
end_variable
begin_variable
var102
-1
2
at player-01 pos-17-16
clear pos-17-16
end_variable
begin_variable
var103
-1
2
at player-01 pos-18-02
clear pos-18-02
end_variable
begin_variable
var104
-1
2
at player-01 pos-18-04
clear pos-18-04
end_variable
begin_variable
var105
-1
2
at player-01 pos-18-06
clear pos-18-06
end_variable
begin_variable
var106
-1
2
at player-01 pos-18-08
clear pos-18-08
end_variable
begin_variable
var107
-1
2
at player-01 pos-18-10
clear pos-18-10
end_variable
begin_variable
var108
-1
2
at player-01 pos-18-12
clear pos-18-12
end_variable
begin_variable
var109
-1
2
at player-01 pos-18-14
clear pos-18-14
end_variable
begin_variable
var110
-1
2
at player-01 pos-18-16
clear pos-18-16
end_variable
begin_variable
var111
-1
2
at player-01 pos-19-02
clear pos-19-02
end_variable
begin_variable
var112
-1
2
at player-01 pos-19-04
clear pos-19-04
end_variable
begin_variable
var113
-1
2
at player-01 pos-19-06
clear pos-19-06
end_variable
begin_variable
var114
-1
2
at player-01 pos-19-08
clear pos-19-08
end_variable
begin_variable
var115
-1
2
at player-01 pos-19-10
clear pos-19-10
end_variable
begin_variable
var116
-1
2
at player-01 pos-19-12
clear pos-19-12
end_variable
begin_variable
var117
-1
2
at player-01 pos-19-14
clear pos-19-14
end_variable
begin_variable
var118
-1
2
at player-01 pos-19-16
clear pos-19-16
end_variable
begin_variable
var119
-1
2
at player-01 pos-20-02
clear pos-20-02
end_variable
begin_variable
var120
-1
2
at player-01 pos-20-04
clear pos-20-04
end_variable
begin_variable
var121
-1
2
at player-01 pos-20-06
clear pos-20-06
end_variable
begin_variable
var122
-1
2
at player-01 pos-20-08
clear pos-20-08
end_variable
begin_variable
var123
-1
2
at player-01 pos-20-10
clear pos-20-10
end_variable
begin_variable
var124
-1
2
at player-01 pos-20-12
clear pos-20-12
end_variable
begin_variable
var125
-1
2
at player-01 pos-20-14
clear pos-20-14
end_variable
begin_variable
var126
-1
2
at player-01 pos-20-16
clear pos-20-16
end_variable
begin_variable
var127
-1
2
at player-01 pos-21-02
clear pos-21-02
end_variable
begin_variable
var128
-1
2
at player-01 pos-21-04
clear pos-21-04
end_variable
begin_variable
var129
-1
2
at player-01 pos-21-06
clear pos-21-06
end_variable
begin_variable
var130
-1
2
at player-01 pos-21-08
clear pos-21-08
end_variable
begin_variable
var131
-1
2
at player-01 pos-21-10
clear pos-21-10
end_variable
begin_variable
var132
-1
2
at player-01 pos-21-12
clear pos-21-12
end_variable
begin_variable
var133
-1
2
at player-01 pos-21-14
clear pos-21-14
end_variable
begin_variable
var134
-1
2
at player-01 pos-21-16
clear pos-21-16
end_variable
begin_variable
var135
-1
2
at player-01 pos-22-02
clear pos-22-02
end_variable
begin_variable
var136
-1
2
at player-01 pos-22-04
clear pos-22-04
end_variable
begin_variable
var137
-1
2
at player-01 pos-22-06
clear pos-22-06
end_variable
begin_variable
var138
-1
2
at player-01 pos-22-08
clear pos-22-08
end_variable
begin_variable
var139
-1
2
at player-01 pos-22-09
clear pos-22-09
end_variable
begin_variable
var140
-1
2
at player-01 pos-22-10
clear pos-22-10
end_variable
begin_variable
var141
-1
2
at player-01 pos-22-12
clear pos-22-12
end_variable
begin_variable
var142
-1
2
at player-01 pos-22-14
clear pos-22-14
end_variable
begin_variable
var143
-1
2
at player-01 pos-22-16
clear pos-22-16
end_variable
begin_variable
var144
-1
2
at player-01 pos-23-02
clear pos-23-02
end_variable
begin_variable
var145
-1
2
at player-01 pos-23-04
clear pos-23-04
end_variable
begin_variable
var146
-1
2
at player-01 pos-23-06
clear pos-23-06
end_variable
begin_variable
var147
-1
2
at player-01 pos-23-12
clear pos-23-12
end_variable
begin_variable
var148
-1
2
at player-01 pos-23-14
clear pos-23-14
end_variable
begin_variable
var149
-1
2
at player-01 pos-23-16
clear pos-23-16
end_variable
begin_variable
var150
-1
2
at player-01 pos-24-02
clear pos-24-02
end_variable
begin_variable
var151
-1
2
at player-01 pos-24-04
clear pos-24-04
end_variable
begin_variable
var152
-1
2
at player-01 pos-24-06
clear pos-24-06
end_variable
begin_variable
var153
-1
2
at player-01 pos-24-07
clear pos-24-07
end_variable
begin_variable
var154
-1
2
at player-01 pos-24-08
clear pos-24-08
end_variable
begin_variable
var155
-1
2
at player-01 pos-24-09
clear pos-24-09
end_variable
begin_variable
var156
-1
2
at player-01 pos-24-10
clear pos-24-10
end_variable
begin_variable
var157
-1
2
at player-01 pos-24-11
clear pos-24-11
end_variable
begin_variable
var158
-1
2
at player-01 pos-24-12
clear pos-24-12
end_variable
begin_variable
var159
-1
2
at player-01 pos-24-14
clear pos-24-14
end_variable
begin_variable
var160
-1
2
at player-01 pos-24-16
clear pos-24-16
end_variable
begin_variable
var161
-1
2
at player-01 pos-25-02
clear pos-25-02
end_variable
begin_variable
var162
-1
2
at player-01 pos-25-04
clear pos-25-04
end_variable
begin_variable
var163
-1
2
at player-01 pos-25-14
clear pos-25-14
end_variable
begin_variable
var164
-1
2
at player-01 pos-25-16
clear pos-25-16
end_variable
begin_variable
var165
-1
2
at player-01 pos-26-02
clear pos-26-02
end_variable
begin_variable
var166
-1
2
at player-01 pos-26-04
clear pos-26-04
end_variable
begin_variable
var167
-1
2
at player-01 pos-26-05
clear pos-26-05
end_variable
begin_variable
var168
-1
2
at player-01 pos-26-06
clear pos-26-06
end_variable
begin_variable
var169
-1
2
at player-01 pos-26-07
clear pos-26-07
end_variable
begin_variable
var170
-1
2
at player-01 pos-26-08
clear pos-26-08
end_variable
begin_variable
var171
-1
2
at player-01 pos-26-09
clear pos-26-09
end_variable
begin_variable
var172
-1
2
at player-01 pos-26-10
clear pos-26-10
end_variable
begin_variable
var173
-1
2
at player-01 pos-26-11
clear pos-26-11
end_variable
begin_variable
var174
-1
2
at player-01 pos-26-12
clear pos-26-12
end_variable
begin_variable
var175
-1
2
at player-01 pos-26-13
clear pos-26-13
end_variable
begin_variable
var176
-1
2
at player-01 pos-26-14
clear pos-26-14
end_variable
begin_variable
var177
-1
2
at player-01 pos-26-16
clear pos-26-16
end_variable
begin_variable
var178
-1
2
at player-01 pos-27-02
clear pos-27-02
end_variable
begin_variable
var179
-1
2
at player-01 pos-27-16
clear pos-27-16
end_variable
begin_variable
var180
-1
2
at player-01 pos-28-02
clear pos-28-02
end_variable
begin_variable
var181
-1
2
at player-01 pos-28-03
clear pos-28-03
end_variable
begin_variable
var182
-1
2
at player-01 pos-28-04
clear pos-28-04
end_variable
begin_variable
var183
-1
2
at player-01 pos-28-05
clear pos-28-05
end_variable
begin_variable
var184
-1
2
at player-01 pos-28-06
clear pos-28-06
end_variable
begin_variable
var185
-1
2
at player-01 pos-28-07
clear pos-28-07
end_variable
begin_variable
var186
-1
2
at player-01 pos-28-08
clear pos-28-08
end_variable
begin_variable
var187
-1
2
at player-01 pos-28-09
clear pos-28-09
end_variable
begin_variable
var188
-1
2
at player-01 pos-28-10
clear pos-28-10
end_variable
begin_variable
var189
-1
2
at player-01 pos-28-11
clear pos-28-11
end_variable
begin_variable
var190
-1
2
at player-01 pos-28-12
clear pos-28-12
end_variable
begin_variable
var191
-1
2
at player-01 pos-28-13
clear pos-28-13
end_variable
begin_variable
var192
-1
2
at player-01 pos-28-14
clear pos-28-14
end_variable
begin_variable
var193
-1
2
at player-01 pos-28-15
clear pos-28-15
end_variable
begin_variable
var194
-1
2
at player-01 pos-28-16
clear pos-28-16
end_variable
begin_variable
var195
-1
3
at player-01 pos-02-16
clear pos-02-16
none-of-those
end_variable
begin_variable
var196
-1
3
at player-01 pos-03-02
clear pos-03-02
none-of-those
end_variable
begin_variable
var197
-1
3
at player-01 pos-03-03
at stone-01 pos-03-03
clear pos-03-03
end_variable
begin_variable
var198
-1
3
at player-01 pos-03-04
at stone-01 pos-03-04
clear pos-03-04
end_variable
begin_variable
var199
-1
3
at player-01 pos-03-05
at stone-01 pos-03-05
clear pos-03-05
end_variable
begin_variable
var200
-1
3
at player-01 pos-03-06
at stone-01 pos-03-06
clear pos-03-06
end_variable
begin_variable
var201
-1
3
at player-01 pos-03-07
at stone-01 pos-03-07
clear pos-03-07
end_variable
begin_variable
var202
-1
3
at player-01 pos-03-08
at stone-01 pos-03-08
clear pos-03-08
end_variable
begin_variable
var203
-1
3
at player-01 pos-03-09
at stone-01 pos-03-09
clear pos-03-09
end_variable
begin_variable
var204
-1
3
at player-01 pos-03-10
at stone-01 pos-03-10
clear pos-03-10
end_variable
begin_variable
var205
-1
3
at player-01 pos-03-11
at stone-01 pos-03-11
clear pos-03-11
end_variable
begin_variable
var206
-1
3
at player-01 pos-03-12
at stone-01 pos-03-12
clear pos-03-12
end_variable
begin_variable
var207
-1
3
at player-01 pos-03-13
at stone-01 pos-03-13
clear pos-03-13
end_variable
begin_variable
var208
-1
3
at player-01 pos-03-14
at stone-01 pos-03-14
clear pos-03-14
end_variable
begin_variable
var209
-1
3
at player-01 pos-03-15
at stone-01 pos-03-15
clear pos-03-15
end_variable
begin_variable
var210
-1
3
at player-01 pos-03-16
at stone-01 pos-03-16
clear pos-03-16
end_variable
begin_variable
var211
-1
2
at player-01 pos-04-02
clear pos-04-02
end_variable
begin_variable
var212
-1
2
at player-01 pos-04-16
clear pos-04-16
end_variable
begin_variable
var213
-1
2
at player-01 pos-05-02
clear pos-05-02
end_variable
begin_variable
var214
-1
2
at player-01 pos-05-04
clear pos-05-04
end_variable
begin_variable
var215
-1
2
at player-01 pos-05-05
clear pos-05-05
end_variable
begin_variable
var216
-1
2
at player-01 pos-05-06
clear pos-05-06
end_variable
begin_variable
var217
-1
2
at player-01 pos-05-07
clear pos-05-07
end_variable
begin_variable
var218
-1
2
at player-01 pos-05-08
clear pos-05-08
end_variable
begin_variable
var219
-1
2
at-goal stone-01
none-of-those
end_variable
219
begin_mutex_group
2
0 0
195 1
end_mutex_group
begin_mutex_group
2
0 1
196 1
end_mutex_group
begin_mutex_group
2
0 16
211 1
end_mutex_group
begin_mutex_group
2
0 17
212 1
end_mutex_group
begin_mutex_group
2
0 18
213 1
end_mutex_group
begin_mutex_group
2
0 19
214 1
end_mutex_group
begin_mutex_group
2
0 20
215 1
end_mutex_group
begin_mutex_group
2
0 21
216 1
end_mutex_group
begin_mutex_group
2
0 22
217 1
end_mutex_group
begin_mutex_group
2
0 23
218 1
end_mutex_group
begin_mutex_group
2
0 24
2 1
end_mutex_group
begin_mutex_group
2
0 25
3 1
end_mutex_group
begin_mutex_group
2
0 26
4 1
end_mutex_group
begin_mutex_group
2
0 27
5 1
end_mutex_group
begin_mutex_group
2
0 28
6 1
end_mutex_group
begin_mutex_group
2
0 29
7 1
end_mutex_group
begin_mutex_group
2
0 30
8 1
end_mutex_group
begin_mutex_group
2
0 31
9 1
end_mutex_group
begin_mutex_group
2
0 32
10 1
end_mutex_group
begin_mutex_group
2
0 33
11 1
end_mutex_group
begin_mutex_group
2
0 34
12 1
end_mutex_group
begin_mutex_group
2
0 35
13 1
end_mutex_group
begin_mutex_group
2
0 36
14 1
end_mutex_group
begin_mutex_group
2
0 37
15 1
end_mutex_group
begin_mutex_group
2
0 38
16 1
end_mutex_group
begin_mutex_group
2
0 39
17 1
end_mutex_group
begin_mutex_group
2
0 40
18 1
end_mutex_group
begin_mutex_group
2
0 41
19 1
end_mutex_group
begin_mutex_group
2
0 42
20 1
end_mutex_group
begin_mutex_group
2
0 43
21 1
end_mutex_group
begin_mutex_group
2
0 44
22 1
end_mutex_group
begin_mutex_group
2
0 45
23 1
end_mutex_group
begin_mutex_group
2
0 46
24 1
end_mutex_group
begin_mutex_group
2
0 47
25 1
end_mutex_group
begin_mutex_group
2
0 48
26 1
end_mutex_group
begin_mutex_group
2
0 49
27 1
end_mutex_group
begin_mutex_group
2
0 50
28 1
end_mutex_group
begin_mutex_group
2
0 51
29 1
end_mutex_group
begin_mutex_group
2
0 52
30 1
end_mutex_group
begin_mutex_group
2
0 53
31 1
end_mutex_group
begin_mutex_group
2
0 54
32 1
end_mutex_group
begin_mutex_group
2
0 55
33 1
end_mutex_group
begin_mutex_group
2
0 56
34 1
end_mutex_group
begin_mutex_group
2
0 57
35 1
end_mutex_group
begin_mutex_group
2
0 58
36 1
end_mutex_group
begin_mutex_group
2
0 59
37 1
end_mutex_group
begin_mutex_group
2
0 60
38 1
end_mutex_group
begin_mutex_group
2
0 61
39 1
end_mutex_group
begin_mutex_group
2
0 62
40 1
end_mutex_group
begin_mutex_group
2
0 63
41 1
end_mutex_group
begin_mutex_group
2
0 64
42 1
end_mutex_group
begin_mutex_group
2
0 65
43 1
end_mutex_group
begin_mutex_group
2
0 66
44 1
end_mutex_group
begin_mutex_group
2
0 67
45 1
end_mutex_group
begin_mutex_group
2
0 68
46 1
end_mutex_group
begin_mutex_group
2
0 69
47 1
end_mutex_group
begin_mutex_group
2
0 70
48 1
end_mutex_group
begin_mutex_group
2
0 71
49 1
end_mutex_group
begin_mutex_group
2
0 72
50 1
end_mutex_group
begin_mutex_group
2
0 73
51 1
end_mutex_group
begin_mutex_group
2
0 74
52 1
end_mutex_group
begin_mutex_group
2
0 75
53 1
end_mutex_group
begin_mutex_group
2
0 76
54 1
end_mutex_group
begin_mutex_group
2
0 77
55 1
end_mutex_group
begin_mutex_group
2
0 78
56 1
end_mutex_group
begin_mutex_group
2
0 79
57 1
end_mutex_group
begin_mutex_group
2
0 80
58 1
end_mutex_group
begin_mutex_group
2
0 81
59 1
end_mutex_group
begin_mutex_group
2
0 82
60 1
end_mutex_group
begin_mutex_group
2
0 83
61 1
end_mutex_group
begin_mutex_group
2
0 84
62 1
end_mutex_group
begin_mutex_group
2
0 85
63 1
end_mutex_group
begin_mutex_group
2
0 86
64 1
end_mutex_group
begin_mutex_group
2
0 87
65 1
end_mutex_group
begin_mutex_group
2
0 88
66 1
end_mutex_group
begin_mutex_group
2
0 89
67 1
end_mutex_group
begin_mutex_group
2
0 90
68 1
end_mutex_group
begin_mutex_group
2
0 91
69 1
end_mutex_group
begin_mutex_group
2
0 92
70 1
end_mutex_group
begin_mutex_group
2
0 93
71 1
end_mutex_group
begin_mutex_group
2
0 94
72 1
end_mutex_group
begin_mutex_group
2
0 95
73 1
end_mutex_group
begin_mutex_group
2
0 96
74 1
end_mutex_group
begin_mutex_group
2
0 97
75 1
end_mutex_group
begin_mutex_group
2
0 98
76 1
end_mutex_group
begin_mutex_group
2
0 99
77 1
end_mutex_group
begin_mutex_group
2
0 100
78 1
end_mutex_group
begin_mutex_group
2
0 101
79 1
end_mutex_group
begin_mutex_group
2
0 102
80 1
end_mutex_group
begin_mutex_group
2
0 103
81 1
end_mutex_group
begin_mutex_group
2
0 104
82 1
end_mutex_group
begin_mutex_group
2
0 105
83 1
end_mutex_group
begin_mutex_group
2
0 106
84 1
end_mutex_group
begin_mutex_group
2
0 107
85 1
end_mutex_group
begin_mutex_group
2
0 108
86 1
end_mutex_group
begin_mutex_group
2
0 109
87 1
end_mutex_group
begin_mutex_group
2
0 110
88 1
end_mutex_group
begin_mutex_group
2
0 111
89 1
end_mutex_group
begin_mutex_group
2
0 112
90 1
end_mutex_group
begin_mutex_group
2
0 113
91 1
end_mutex_group
begin_mutex_group
2
0 114
92 1
end_mutex_group
begin_mutex_group
2
0 115
93 1
end_mutex_group
begin_mutex_group
2
0 116
94 1
end_mutex_group
begin_mutex_group
2
0 117
95 1
end_mutex_group
begin_mutex_group
2
0 118
96 1
end_mutex_group
begin_mutex_group
2
0 119
97 1
end_mutex_group
begin_mutex_group
2
0 120
98 1
end_mutex_group
begin_mutex_group
2
0 121
99 1
end_mutex_group
begin_mutex_group
2
0 122
100 1
end_mutex_group
begin_mutex_group
2
0 123
101 1
end_mutex_group
begin_mutex_group
2
0 124
102 1
end_mutex_group
begin_mutex_group
2
0 125
103 1
end_mutex_group
begin_mutex_group
2
0 126
104 1
end_mutex_group
begin_mutex_group
2
0 127
105 1
end_mutex_group
begin_mutex_group
2
0 128
106 1
end_mutex_group
begin_mutex_group
2
0 129
107 1
end_mutex_group
begin_mutex_group
2
0 130
108 1
end_mutex_group
begin_mutex_group
2
0 131
109 1
end_mutex_group
begin_mutex_group
2
0 132
110 1
end_mutex_group
begin_mutex_group
2
0 133
111 1
end_mutex_group
begin_mutex_group
2
0 134
112 1
end_mutex_group
begin_mutex_group
2
0 135
113 1
end_mutex_group
begin_mutex_group
2
0 136
114 1
end_mutex_group
begin_mutex_group
2
0 137
115 1
end_mutex_group
begin_mutex_group
2
0 138
116 1
end_mutex_group
begin_mutex_group
2
0 139
117 1
end_mutex_group
begin_mutex_group
2
0 140
118 1
end_mutex_group
begin_mutex_group
2
0 141
119 1
end_mutex_group
begin_mutex_group
2
0 142
120 1
end_mutex_group
begin_mutex_group
2
0 143
121 1
end_mutex_group
begin_mutex_group
2
0 144
122 1
end_mutex_group
begin_mutex_group
2
0 145
123 1
end_mutex_group
begin_mutex_group
2
0 146
124 1
end_mutex_group
begin_mutex_group
2
0 147
125 1
end_mutex_group
begin_mutex_group
2
0 148
126 1
end_mutex_group
begin_mutex_group
2
0 149
127 1
end_mutex_group
begin_mutex_group
2
0 150
128 1
end_mutex_group
begin_mutex_group
2
0 151
129 1
end_mutex_group
begin_mutex_group
2
0 152
130 1
end_mutex_group
begin_mutex_group
2
0 153
131 1
end_mutex_group
begin_mutex_group
2
0 154
132 1
end_mutex_group
begin_mutex_group
2
0 155
133 1
end_mutex_group
begin_mutex_group
2
0 156
134 1
end_mutex_group
begin_mutex_group
2
0 157
135 1
end_mutex_group
begin_mutex_group
2
0 158
136 1
end_mutex_group
begin_mutex_group
2
0 159
137 1
end_mutex_group
begin_mutex_group
2
0 160
138 1
end_mutex_group
begin_mutex_group
2
0 161
139 1
end_mutex_group
begin_mutex_group
2
0 162
140 1
end_mutex_group
begin_mutex_group
2
0 163
141 1
end_mutex_group
begin_mutex_group
2
0 164
142 1
end_mutex_group
begin_mutex_group
2
0 165
143 1
end_mutex_group
begin_mutex_group
2
0 166
144 1
end_mutex_group
begin_mutex_group
2
0 167
145 1
end_mutex_group
begin_mutex_group
2
0 168
146 1
end_mutex_group
begin_mutex_group
2
0 169
147 1
end_mutex_group
begin_mutex_group
2
0 170
148 1
end_mutex_group
begin_mutex_group
2
0 171
149 1
end_mutex_group
begin_mutex_group
2
0 172
150 1
end_mutex_group
begin_mutex_group
2
0 173
151 1
end_mutex_group
begin_mutex_group
2
0 174
152 1
end_mutex_group
begin_mutex_group
2
0 175
153 1
end_mutex_group
begin_mutex_group
2
0 176
154 1
end_mutex_group
begin_mutex_group
2
0 177
155 1
end_mutex_group
begin_mutex_group
2
0 178
156 1
end_mutex_group
begin_mutex_group
2
0 179
157 1
end_mutex_group
begin_mutex_group
2
0 180
158 1
end_mutex_group
begin_mutex_group
2
0 181
159 1
end_mutex_group
begin_mutex_group
2
0 182
160 1
end_mutex_group
begin_mutex_group
2
0 183
161 1
end_mutex_group
begin_mutex_group
2
0 184
162 1
end_mutex_group
begin_mutex_group
2
0 185
163 1
end_mutex_group
begin_mutex_group
2
0 186
164 1
end_mutex_group
begin_mutex_group
2
0 187
165 1
end_mutex_group
begin_mutex_group
2
0 188
166 1
end_mutex_group
begin_mutex_group
2
0 189
167 1
end_mutex_group
begin_mutex_group
2
0 190
168 1
end_mutex_group
begin_mutex_group
2
0 191
169 1
end_mutex_group
begin_mutex_group
2
0 192
170 1
end_mutex_group
begin_mutex_group
2
0 193
171 1
end_mutex_group
begin_mutex_group
2
0 194
172 1
end_mutex_group
begin_mutex_group
2
0 195
173 1
end_mutex_group
begin_mutex_group
2
0 196
174 1
end_mutex_group
begin_mutex_group
2
0 197
175 1
end_mutex_group
begin_mutex_group
2
0 198
176 1
end_mutex_group
begin_mutex_group
2
0 199
177 1
end_mutex_group
begin_mutex_group
2
0 200
178 1
end_mutex_group
begin_mutex_group
2
0 201
179 1
end_mutex_group
begin_mutex_group
2
0 202
180 1
end_mutex_group
begin_mutex_group
2
0 203
181 1
end_mutex_group
begin_mutex_group
2
0 204
182 1
end_mutex_group
begin_mutex_group
2
0 205
183 1
end_mutex_group
begin_mutex_group
2
0 206
184 1
end_mutex_group
begin_mutex_group
2
0 207
185 1
end_mutex_group
begin_mutex_group
2
0 208
186 1
end_mutex_group
begin_mutex_group
2
0 209
187 1
end_mutex_group
begin_mutex_group
2
0 210
188 1
end_mutex_group
begin_mutex_group
2
0 211
189 1
end_mutex_group
begin_mutex_group
2
0 212
190 1
end_mutex_group
begin_mutex_group
2
0 213
191 1
end_mutex_group
begin_mutex_group
2
0 214
192 1
end_mutex_group
begin_mutex_group
2
0 215
193 1
end_mutex_group
begin_mutex_group
2
0 216
194 1
end_mutex_group
begin_mutex_group
3
0 2
1 0
197 2
end_mutex_group
begin_mutex_group
3
0 3
1 1
198 2
end_mutex_group
begin_mutex_group
3
0 4
1 2
199 2
end_mutex_group
begin_mutex_group
3
0 5
1 3
200 2
end_mutex_group
begin_mutex_group
3
0 6
1 4
201 2
end_mutex_group
begin_mutex_group
3
0 7
1 5
202 2
end_mutex_group
begin_mutex_group
3
0 8
1 6
203 2
end_mutex_group
begin_mutex_group
3
0 9
1 7
204 2
end_mutex_group
begin_mutex_group
3
0 10
1 8
205 2
end_mutex_group
begin_mutex_group
3
0 11
1 9
206 2
end_mutex_group
begin_mutex_group
3
0 12
1 10
207 2
end_mutex_group
begin_mutex_group
3
0 13
1 11
208 2
end_mutex_group
begin_mutex_group
3
0 14
1 12
209 2
end_mutex_group
begin_mutex_group
3
0 15
1 13
210 2
end_mutex_group
begin_mutex_group
14
1 0
1 1
1 2
1 3
1 4
1 5
1 6
1 7
1 8
1 9
1 10
1 11
1 12
1 13
end_mutex_group
begin_mutex_group
217
0 0
0 1
0 2
0 3
0 4
0 5
0 6
0 7
0 8
0 9
0 10
0 11
0 12
0 13
0 14
0 15
0 16
0 17
0 18
0 19
0 20
0 21
0 22
0 23
0 24
0 25
0 26
0 27
0 28
0 29
0 30
0 31
0 32
0 33
0 34
0 35
0 36
0 37
0 38
0 39
0 40
0 41
0 42
0 43
0 44
0 45
0 46
0 47
0 48
0 49
0 50
0 51
0 52
0 53
0 54
0 55
0 56
0 57
0 58
0 59
0 60
0 61
0 62
0 63
0 64
0 65
0 66
0 67
0 68
0 69
0 70
0 71
0 72
0 73
0 74
0 75
0 76
0 77
0 78
0 79
0 80
0 81
0 82
0 83
0 84
0 85
0 86
0 87
0 88
0 89
0 90
0 91
0 92
0 93
0 94
0 95
0 96
0 97
0 98
0 99
0 100
0 101
0 102
0 103
0 104
0 105
0 106
0 107
0 108
0 109
0 110
0 111
0 112
0 113
0 114
0 115
0 116
0 117
0 118
0 119
0 120
0 121
0 122
0 123
0 124
0 125
0 126
0 127
0 128
0 129
0 130
0 131
0 132
0 133
0 134
0 135
0 136
0 137
0 138
0 139
0 140
0 141
0 142
0 143
0 144
0 145
0 146
0 147
0 148
0 149
0 150
0 151
0 152
0 153
0 154
0 155
0 156
0 157
0 158
0 159
0 160
0 161
0 162
0 163
0 164
0 165
0 166
0 167
0 168
0 169
0 170
0 171
0 172
0 173
0 174
0 175
0 176
0 177
0 178
0 179
0 180
0 181
0 182
0 183
0 184
0 185
0 186
0 187
0 188
0 189
0 190
0 191
0 192
0 193
0 194
0 195
0 196
0 197
0 198
0 199
0 200
0 201
0 202
0 203
0 204
0 205
0 206
0 207
0 208
0 209
0 210
0 211
0 212
0 213
0 214
0 215
0 216
end_mutex_group
begin_state
17
12
1
1
1
1
1
1
1
1
1
1
1
1
1
1
1
1
1
1
1
1
1
1
1
1
1
1
1
1
1
1
1
1
1
1
1
1
1
1
1
1
1
1
1
1
1
1
1
1
1
1
1
1
1
1
1
1
1
1
1
1
1
1
1
1
1
1
1
1
1
1
1
1
1
1
1
1
1
1
1
1
1
1
1
1
1
1
1
1
1
1
1
1
1
1
1
1
1
1
1
1
1
1
1
1
1
1
1
1
1
1
1
1
1
1
1
1
1
1
1
1
1
1
1
1
1
1
1
1
1
1
1
1
1
1
1
1
1
1
1
1
1
1
1
1
1
1
1
1
1
1
1
1
1
1
1
1
1
1
1
1
1
1
1
1
1
1
1
1
1
1
1
1
1
1
1
1
1
1
1
1
1
1
1
1
1
1
1
1
1
1
1
1
1
1
1
2
2
2
2
2
2
2
2
2
2
2
2
1
2
1
0
1
1
1
1
1
1
1
end_state
begin_goal
1
219 0
end_goal
461
begin_operator
move player-01 pos-02-16 pos-03-16 dir-right
0
3
0 0 0 15
0 195 0 1
0 210 2 0
0
end_operator
begin_operator
move player-01 pos-03-02 pos-03-03 dir-down
0
3
0 0 1 2
0 196 0 1
0 197 2 0
0
end_operator
begin_operator
move player-01 pos-03-02 pos-04-02 dir-right
0
3
0 0 1 16
0 196 0 1
0 211 1 0
0
end_operator
begin_operator
move player-01 pos-03-03 pos-03-02 dir-up
0
3
0 0 2 1
0 196 1 0
0 197 0 2
0
end_operator
begin_operator
move player-01 pos-03-03 pos-03-04 dir-down
0
3
0 0 2 3
0 197 0 2
0 198 2 0
0
end_operator
begin_operator
move player-01 pos-03-04 pos-03-03 dir-up
0
3
0 0 3 2
0 197 2 0
0 198 0 2
0
end_operator
begin_operator
move player-01 pos-03-04 pos-03-05 dir-down
0
3
0 0 3 4
0 198 0 2
0 199 2 0
0
end_operator
begin_operator
move player-01 pos-03-05 pos-03-04 dir-up
0
3
0 0 4 3
0 198 2 0
0 199 0 2
0
end_operator
begin_operator
move player-01 pos-03-05 pos-03-06 dir-down
0
3
0 0 4 5
0 199 0 2
0 200 2 0
0
end_operator
begin_operator
move player-01 pos-03-06 pos-03-05 dir-up
0
3
0 0 5 4
0 199 2 0
0 200 0 2
0
end_operator
begin_operator
move player-01 pos-03-06 pos-03-07 dir-down
0
3
0 0 5 6
0 200 0 2
0 201 2 0
0
end_operator
begin_operator
move player-01 pos-03-07 pos-03-06 dir-up
0
3
0 0 6 5
0 200 2 0
0 201 0 2
0
end_operator
begin_operator
move player-01 pos-03-07 pos-03-08 dir-down
0
3
0 0 6 7
0 201 0 2
0 202 2 0
0
end_operator
begin_operator
move player-01 pos-03-08 pos-03-07 dir-up
0
3
0 0 7 6
0 201 2 0
0 202 0 2
0
end_operator
begin_operator
move player-01 pos-03-08 pos-03-09 dir-down
0
3
0 0 7 8
0 202 0 2
0 203 2 0
0
end_operator
begin_operator
move player-01 pos-03-09 pos-03-08 dir-up
0
3
0 0 8 7
0 202 2 0
0 203 0 2
0
end_operator
begin_operator
move player-01 pos-03-09 pos-03-10 dir-down
0
3
0 0 8 9
0 203 0 2
0 204 2 0
0
end_operator
begin_operator
move player-01 pos-03-10 pos-03-09 dir-up
0
3
0 0 9 8
0 203 2 0
0 204 0 2
0
end_operator
begin_operator
move player-01 pos-03-10 pos-03-11 dir-down
0
3
0 0 9 10
0 204 0 2
0 205 2 0
0
end_operator
begin_operator
move player-01 pos-03-11 pos-03-10 dir-up
0
3
0 0 10 9
0 204 2 0
0 205 0 2
0
end_operator
begin_operator
move player-01 pos-03-11 pos-03-12 dir-down
0
3
0 0 10 11
0 205 0 2
0 206 2 0
0
end_operator
begin_operator
move player-01 pos-03-12 pos-03-11 dir-up
0
3
0 0 11 10
0 205 2 0
0 206 0 2
0
end_operator
begin_operator
move player-01 pos-03-12 pos-03-13 dir-down
0
3
0 0 11 12
0 206 0 2
0 207 2 0
0
end_operator
begin_operator
move player-01 pos-03-13 pos-03-12 dir-up
0
3
0 0 12 11
0 206 2 0
0 207 0 2
0
end_operator
begin_operator
move player-01 pos-03-13 pos-03-14 dir-down
0
3
0 0 12 13
0 207 0 2
0 208 2 0
0
end_operator
begin_operator
move player-01 pos-03-14 pos-03-13 dir-up
0
3
0 0 13 12
0 207 2 0
0 208 0 2
0
end_operator
begin_operator
move player-01 pos-03-14 pos-03-15 dir-down
0
3
0 0 13 14
0 208 0 2
0 209 2 0
0
end_operator
begin_operator
move player-01 pos-03-15 pos-03-14 dir-up
0
3
0 0 14 13
0 208 2 0
0 209 0 2
0
end_operator
begin_operator
move player-01 pos-03-15 pos-03-16 dir-down
0
3
0 0 14 15
0 209 0 2
0 210 2 0
0
end_operator
begin_operator
move player-01 pos-03-16 pos-02-16 dir-left
0
3
0 0 15 0
0 195 1 0
0 210 0 2
0
end_operator
begin_operator
move player-01 pos-03-16 pos-03-15 dir-up
0
3
0 0 15 14
0 209 2 0
0 210 0 2
0
end_operator
begin_operator
move player-01 pos-03-16 pos-04-16 dir-right
0
3
0 0 15 17
0 210 0 2
0 212 1 0
0
end_operator
begin_operator
move player-01 pos-04-02 pos-03-02 dir-left
0
3
0 0 16 1
0 196 1 0
0 211 0 1
0
end_operator
begin_operator
move player-01 pos-04-02 pos-05-02 dir-right
0
3
0 0 16 18
0 211 0 1
0 213 1 0
0
end_operator
begin_operator
move player-01 pos-04-16 pos-03-16 dir-left
0
3
0 0 17 15
0 210 2 0
0 212 0 1
0
end_operator
begin_operator
move player-01 pos-04-16 pos-05-16 dir-right
0
3
0 0 17 31
0 9 1 0
0 212 0 1
0
end_operator
begin_operator
move player-01 pos-05-02 pos-04-02 dir-left
0
3
0 0 18 16
0 211 1 0
0 213 0 1
0
end_operator
begin_operator
move player-01 pos-05-02 pos-06-02 dir-right
0
3
0 0 18 32
0 10 1 0
0 213 0 1
0
end_operator
begin_operator
move player-01 pos-05-04 pos-05-05 dir-down
0
3
0 0 19 20
0 214 0 1
0 215 1 0
0
end_operator
begin_operator
move player-01 pos-05-04 pos-06-04 dir-right
0
3
0 0 19 33
0 11 1 0
0 214 0 1
0
end_operator
begin_operator
move player-01 pos-05-05 pos-05-04 dir-up
0
3
0 0 20 19
0 214 1 0
0 215 0 1
0
end_operator
begin_operator
move player-01 pos-05-05 pos-05-06 dir-down
0
3
0 0 20 21
0 215 0 1
0 216 1 0
0
end_operator
begin_operator
move player-01 pos-05-06 pos-05-05 dir-up
0
3
0 0 21 20
0 215 1 0
0 216 0 1
0
end_operator
begin_operator
move player-01 pos-05-06 pos-05-07 dir-down
0
3
0 0 21 22
0 216 0 1
0 217 1 0
0
end_operator
begin_operator
move player-01 pos-05-07 pos-05-06 dir-up
0
3
0 0 22 21
0 216 1 0
0 217 0 1
0
end_operator
begin_operator
move player-01 pos-05-07 pos-05-08 dir-down
0
3
0 0 22 23
0 217 0 1
0 218 1 0
0
end_operator
begin_operator
move player-01 pos-05-08 pos-05-07 dir-up
0
3
0 0 23 22
0 217 1 0
0 218 0 1
0
end_operator
begin_operator
move player-01 pos-05-08 pos-05-09 dir-down
0
3
0 0 23 24
0 2 1 0
0 218 0 1
0
end_operator
begin_operator
move player-01 pos-05-09 pos-05-08 dir-up
0
3
0 0 24 23
0 2 0 1
0 218 1 0
0
end_operator
begin_operator
move player-01 pos-05-09 pos-05-10 dir-down
0
3
0 0 24 25
0 2 0 1
0 3 1 0
0
end_operator
begin_operator
move player-01 pos-05-10 pos-05-09 dir-up
0
3
0 0 25 24
0 2 1 0
0 3 0 1
0
end_operator
begin_operator
move player-01 pos-05-10 pos-05-11 dir-down
0
3
0 0 25 26
0 3 0 1
0 4 1 0
0
end_operator
begin_operator
move player-01 pos-05-11 pos-05-10 dir-up
0
3
0 0 26 25
0 3 1 0
0 4 0 1
0
end_operator
begin_operator
move player-01 pos-05-11 pos-05-12 dir-down
0
3
0 0 26 27
0 4 0 1
0 5 1 0
0
end_operator
begin_operator
move player-01 pos-05-12 pos-05-11 dir-up
0
3
0 0 27 26
0 4 1 0
0 5 0 1
0
end_operator
begin_operator
move player-01 pos-05-12 pos-05-13 dir-down
0
3
0 0 27 28
0 5 0 1
0 6 1 0
0
end_operator
begin_operator
move player-01 pos-05-13 pos-05-12 dir-up
0
3
0 0 28 27
0 5 1 0
0 6 0 1
0
end_operator
begin_operator
move player-01 pos-05-13 pos-05-14 dir-down
0
3
0 0 28 29
0 6 0 1
0 7 1 0
0
end_operator
begin_operator
move player-01 pos-05-14 pos-05-13 dir-up
0
3
0 0 29 28
0 6 1 0
0 7 0 1
0
end_operator
begin_operator
move player-01 pos-05-14 pos-05-15 dir-down
0
3
0 0 29 30
0 7 0 1
0 8 1 0
0
end_operator
begin_operator
move player-01 pos-05-15 pos-05-14 dir-up
0
3
0 0 30 29
0 7 1 0
0 8 0 1
0
end_operator
begin_operator
move player-01 pos-05-15 pos-05-16 dir-down
0
3
0 0 30 31
0 8 0 1
0 9 1 0
0
end_operator
begin_operator
move player-01 pos-05-16 pos-04-16 dir-left
0
3
0 0 31 17
0 9 0 1
0 212 1 0
0
end_operator
begin_operator
move player-01 pos-05-16 pos-05-15 dir-up
0
3
0 0 31 30
0 8 1 0
0 9 0 1
0
end_operator
begin_operator
move player-01 pos-06-02 pos-05-02 dir-left
0
3
0 0 32 18
0 10 0 1
0 213 1 0
0
end_operator
begin_operator
move player-01 pos-06-02 pos-07-02 dir-right
0
3
0 0 32 34
0 10 0 1
0 12 1 0
0
end_operator
begin_operator
move player-01 pos-06-04 pos-05-04 dir-left
0
3
0 0 33 19
0 11 0 1
0 214 1 0
0
end_operator
begin_operator
move player-01 pos-06-04 pos-07-04 dir-right
0
3
0 0 33 35
0 11 0 1
0 13 1 0
0
end_operator
begin_operator
move player-01 pos-07-02 pos-06-02 dir-left
0
3
0 0 34 32
0 10 1 0
0 12 0 1
0
end_operator
begin_operator
move player-01 pos-07-02 pos-08-02 dir-right
0
3
0 0 34 47
0 12 0 1
0 25 1 0
0
end_operator
begin_operator
move player-01 pos-07-04 pos-06-04 dir-left
0
3
0 0 35 33
0 11 1 0
0 13 0 1
0
end_operator
begin_operator
move player-01 pos-07-04 pos-08-04 dir-right
0
3
0 0 35 48
0 13 0 1
0 26 1 0
0
end_operator
begin_operator
move player-01 pos-07-06 pos-07-07 dir-down
0
3
0 0 36 37
0 14 0 1
0 15 1 0
0
end_operator
begin_operator
move player-01 pos-07-06 pos-08-06 dir-right
0
3
0 0 36 49
0 14 0 1
0 27 1 0
0
end_operator
begin_operator
move player-01 pos-07-07 pos-07-06 dir-up
0
3
0 0 37 36
0 14 1 0
0 15 0 1
0
end_operator
begin_operator
move player-01 pos-07-07 pos-07-08 dir-down
0
3
0 0 37 38
0 15 0 1
0 16 1 0
0
end_operator
begin_operator
move player-01 pos-07-08 pos-07-07 dir-up
0
3
0 0 38 37
0 15 1 0
0 16 0 1
0
end_operator
begin_operator
move player-01 pos-07-08 pos-07-09 dir-down
0
3
0 0 38 39
0 16 0 1
0 17 1 0
0
end_operator
begin_operator
move player-01 pos-07-09 pos-07-08 dir-up
0
3
0 0 39 38
0 16 1 0
0 17 0 1
0
end_operator
begin_operator
move player-01 pos-07-09 pos-07-10 dir-down
0
3
0 0 39 40
0 17 0 1
0 18 1 0
0
end_operator
begin_operator
move player-01 pos-07-10 pos-07-09 dir-up
0
3
0 0 40 39
0 17 1 0
0 18 0 1
0
end_operator
begin_operator
move player-01 pos-07-10 pos-07-11 dir-down
0
3
0 0 40 41
0 18 0 1
0 19 1 0
0
end_operator
begin_operator
move player-01 pos-07-11 pos-07-10 dir-up
0
3
0 0 41 40
0 18 1 0
0 19 0 1
0
end_operator
begin_operator
move player-01 pos-07-11 pos-07-12 dir-down
0
3
0 0 41 42
0 19 0 1
0 20 1 0
0
end_operator
begin_operator
move player-01 pos-07-12 pos-07-11 dir-up
0
3
0 0 42 41
0 19 1 0
0 20 0 1
0
end_operator
begin_operator
move player-01 pos-07-12 pos-07-13 dir-down
0
3
0 0 42 43
0 20 0 1
0 21 1 0
0
end_operator
begin_operator
move player-01 pos-07-13 pos-07-12 dir-up
0
3
0 0 43 42
0 20 1 0
0 21 0 1
0
end_operator
begin_operator
move player-01 pos-07-13 pos-07-14 dir-down
0
3
0 0 43 44
0 21 0 1
0 22 1 0
0
end_operator
begin_operator
move player-01 pos-07-14 pos-07-13 dir-up
0
3
0 0 44 43
0 21 1 0
0 22 0 1
0
end_operator
begin_operator
move player-01 pos-07-14 pos-07-15 dir-down
0
3
0 0 44 45
0 22 0 1
0 23 1 0
0
end_operator
begin_operator
move player-01 pos-07-15 pos-07-14 dir-up
0
3
0 0 45 44
0 22 1 0
0 23 0 1
0
end_operator
begin_operator
move player-01 pos-07-15 pos-07-16 dir-down
0
3
0 0 45 46
0 23 0 1
0 24 1 0
0
end_operator
begin_operator
move player-01 pos-07-16 pos-07-15 dir-up
0
3
0 0 46 45
0 23 1 0
0 24 0 1
0
end_operator
begin_operator
move player-01 pos-07-16 pos-08-16 dir-right
0
3
0 0 46 50
0 24 0 1
0 28 1 0
0
end_operator
begin_operator
move player-01 pos-08-02 pos-07-02 dir-left
0
3
0 0 47 34
0 12 1 0
0 25 0 1
0
end_operator
begin_operator
move player-01 pos-08-02 pos-09-02 dir-right
0
3
0 0 47 51
0 25 0 1
0 29 1 0
0
end_operator
begin_operator
move player-01 pos-08-04 pos-07-04 dir-left
0
3
0 0 48 35
0 13 1 0
0 26 0 1
0
end_operator
begin_operator
move player-01 pos-08-04 pos-09-04 dir-right
0
3
0 0 48 52
0 26 0 1
0 30 1 0
0
end_operator
begin_operator
move player-01 pos-08-06 pos-07-06 dir-left
0
3
0 0 49 36
0 14 1 0
0 27 0 1
0
end_operator
begin_operator
move player-01 pos-08-06 pos-09-06 dir-right
0
3
0 0 49 53
0 27 0 1
0 31 1 0
0
end_operator
begin_operator
move player-01 pos-08-16 pos-07-16 dir-left
0
3
0 0 50 46
0 24 1 0
0 28 0 1
0
end_operator
begin_operator
move player-01 pos-08-16 pos-09-16 dir-right
0
3
0 0 50 61
0 28 0 1
0 39 1 0
0
end_operator
begin_operator
move player-01 pos-09-02 pos-08-02 dir-left
0
3
0 0 51 47
0 25 1 0
0 29 0 1
0
end_operator
begin_operator
move player-01 pos-09-02 pos-10-02 dir-right
0
3
0 0 51 62
0 29 0 1
0 40 1 0
0
end_operator
begin_operator
move player-01 pos-09-04 pos-08-04 dir-left
0
3
0 0 52 48
0 26 1 0
0 30 0 1
0
end_operator
begin_operator
move player-01 pos-09-04 pos-10-04 dir-right
0
3
0 0 52 63
0 30 0 1
0 41 1 0
0
end_operator
begin_operator
move player-01 pos-09-06 pos-08-06 dir-left
0
3
0 0 53 49
0 27 1 0
0 31 0 1
0
end_operator
begin_operator
move player-01 pos-09-06 pos-10-06 dir-right
0
3
0 0 53 64
0 31 0 1
0 42 1 0
0
end_operator
begin_operator
move player-01 pos-09-08 pos-09-09 dir-down
0
3
0 0 54 55
0 32 0 1
0 33 1 0
0
end_operator
begin_operator
move player-01 pos-09-08 pos-10-08 dir-right
0
3
0 0 54 65
0 32 0 1
0 43 1 0
0
end_operator
begin_operator
move player-01 pos-09-09 pos-09-08 dir-up
0
3
0 0 55 54
0 32 1 0
0 33 0 1
0
end_operator
begin_operator
move player-01 pos-09-09 pos-09-10 dir-down
0
3
0 0 55 56
0 33 0 1
0 34 1 0
0
end_operator
begin_operator
move player-01 pos-09-10 pos-09-09 dir-up
0
3
0 0 56 55
0 33 1 0
0 34 0 1
0
end_operator
begin_operator
move player-01 pos-09-10 pos-09-11 dir-down
0
3
0 0 56 57
0 34 0 1
0 35 1 0
0
end_operator
begin_operator
move player-01 pos-09-11 pos-09-10 dir-up
0
3
0 0 57 56
0 34 1 0
0 35 0 1
0
end_operator
begin_operator
move player-01 pos-09-11 pos-09-12 dir-down
0
3
0 0 57 58
0 35 0 1
0 36 1 0
0
end_operator
begin_operator
move player-01 pos-09-12 pos-09-11 dir-up
0
3
0 0 58 57
0 35 1 0
0 36 0 1
0
end_operator
begin_operator
move player-01 pos-09-12 pos-09-13 dir-down
0
3
0 0 58 59
0 36 0 1
0 37 1 0
0
end_operator
begin_operator
move player-01 pos-09-13 pos-09-12 dir-up
0
3
0 0 59 58
0 36 1 0
0 37 0 1
0
end_operator
begin_operator
move player-01 pos-09-13 pos-09-14 dir-down
0
3
0 0 59 60
0 37 0 1
0 38 1 0
0
end_operator
begin_operator
move player-01 pos-09-14 pos-09-13 dir-up
0
3
0 0 60 59
0 37 1 0
0 38 0 1
0
end_operator
begin_operator
move player-01 pos-09-14 pos-10-14 dir-right
0
3
0 0 60 66
0 38 0 1
0 44 1 0
0
end_operator
begin_operator
move player-01 pos-09-16 pos-08-16 dir-left
0
3
0 0 61 50
0 28 1 0
0 39 0 1
0
end_operator
begin_operator
move player-01 pos-09-16 pos-10-16 dir-right
0
3
0 0 61 67
0 39 0 1
0 45 1 0
0
end_operator
begin_operator
move player-01 pos-10-02 pos-09-02 dir-left
0
3
0 0 62 51
0 29 1 0
0 40 0 1
0
end_operator
begin_operator
move player-01 pos-10-02 pos-11-02 dir-right
0
3
0 0 62 68
0 40 0 1
0 46 1 0
0
end_operator
begin_operator
move player-01 pos-10-04 pos-09-04 dir-left
0
3
0 0 63 52
0 30 1 0
0 41 0 1
0
end_operator
begin_operator
move player-01 pos-10-04 pos-11-04 dir-right
0
3
0 0 63 69
0 41 0 1
0 47 1 0
0
end_operator
begin_operator
move player-01 pos-10-06 pos-09-06 dir-left
0
3
0 0 64 53
0 31 1 0
0 42 0 1
0
end_operator
begin_operator
move player-01 pos-10-06 pos-11-06 dir-right
0
3
0 0 64 70
0 42 0 1
0 48 1 0
0
end_operator
begin_operator
move player-01 pos-10-08 pos-09-08 dir-left
0
3
0 0 65 54
0 32 1 0
0 43 0 1
0
end_operator
begin_operator
move player-01 pos-10-08 pos-11-08 dir-right
0
3
0 0 65 71
0 43 0 1
0 49 1 0
0
end_operator
begin_operator
move player-01 pos-10-14 pos-09-14 dir-left
0
3
0 0 66 60
0 38 1 0
0 44 0 1
0
end_operator
begin_operator
move player-01 pos-10-14 pos-11-14 dir-right
0
3
0 0 66 75
0 44 0 1
0 53 1 0
0
end_operator
begin_operator
move player-01 pos-10-16 pos-09-16 dir-left
0
3
0 0 67 61
0 39 1 0
0 45 0 1
0
end_operator
begin_operator
move player-01 pos-10-16 pos-11-16 dir-right
0
3
0 0 67 76
0 45 0 1
0 54 1 0
0
end_operator
begin_operator
move player-01 pos-11-02 pos-10-02 dir-left
0
3
0 0 68 62
0 40 1 0
0 46 0 1
0
end_operator
begin_operator
move player-01 pos-11-02 pos-12-02 dir-right
0
3
0 0 68 77
0 46 0 1
0 55 1 0
0
end_operator
begin_operator
move player-01 pos-11-04 pos-10-04 dir-left
0
3
0 0 69 63
0 41 1 0
0 47 0 1
0
end_operator
begin_operator
move player-01 pos-11-04 pos-12-04 dir-right
0
3
0 0 69 78
0 47 0 1
0 56 1 0
0
end_operator
begin_operator
move player-01 pos-11-06 pos-10-06 dir-left
0
3
0 0 70 64
0 42 1 0
0 48 0 1
0
end_operator
begin_operator
move player-01 pos-11-06 pos-12-06 dir-right
0
3
0 0 70 79
0 48 0 1
0 57 1 0
0
end_operator
begin_operator
move player-01 pos-11-08 pos-10-08 dir-left
0
3
0 0 71 65
0 43 1 0
0 49 0 1
0
end_operator
begin_operator
move player-01 pos-11-08 pos-12-08 dir-right
0
3
0 0 71 80
0 49 0 1
0 58 1 0
0
end_operator
begin_operator
move player-01 pos-11-10 pos-11-11 dir-down
0
3
0 0 72 73
0 50 0 1
0 51 1 0
0
end_operator
begin_operator
move player-01 pos-11-10 pos-12-10 dir-right
0
3
0 0 72 81
0 50 0 1
0 59 1 0
0
end_operator
begin_operator
move player-01 pos-11-11 pos-11-10 dir-up
0
3
0 0 73 72
0 50 1 0
0 51 0 1
0
end_operator
begin_operator
move player-01 pos-11-11 pos-11-12 dir-down
0
3
0 0 73 74
0 51 0 1
0 52 1 0
0
end_operator
begin_operator
move player-01 pos-11-12 pos-11-11 dir-up
0
3
0 0 74 73
0 51 1 0
0 52 0 1
0
end_operator
begin_operator
move player-01 pos-11-12 pos-12-12 dir-right
0
3
0 0 74 82
0 52 0 1
0 60 1 0
0
end_operator
begin_operator
move player-01 pos-11-14 pos-10-14 dir-left
0
3
0 0 75 66
0 44 1 0
0 53 0 1
0
end_operator
begin_operator
move player-01 pos-11-14 pos-12-14 dir-right
0
3
0 0 75 83
0 53 0 1
0 61 1 0
0
end_operator
begin_operator
move player-01 pos-11-16 pos-10-16 dir-left
0
3
0 0 76 67
0 45 1 0
0 54 0 1
0
end_operator
begin_operator
move player-01 pos-11-16 pos-12-16 dir-right
0
3
0 0 76 84
0 54 0 1
0 62 1 0
0
end_operator
begin_operator
move player-01 pos-12-02 pos-11-02 dir-left
0
3
0 0 77 68
0 46 1 0
0 55 0 1
0
end_operator
begin_operator
move player-01 pos-12-02 pos-13-02 dir-right
0
3
0 0 77 85
0 55 0 1
0 63 1 0
0
end_operator
begin_operator
move player-01 pos-12-04 pos-11-04 dir-left
0
3
0 0 78 69
0 47 1 0
0 56 0 1
0
end_operator
begin_operator
move player-01 pos-12-04 pos-13-04 dir-right
0
3
0 0 78 86
0 56 0 1
0 64 1 0
0
end_operator
begin_operator
move player-01 pos-12-06 pos-11-06 dir-left
0
3
0 0 79 70
0 48 1 0
0 57 0 1
0
end_operator
begin_operator
move player-01 pos-12-06 pos-13-06 dir-right
0
3
0 0 79 87
0 57 0 1
0 65 1 0
0
end_operator
begin_operator
move player-01 pos-12-08 pos-11-08 dir-left
0
3
0 0 80 71
0 49 1 0
0 58 0 1
0
end_operator
begin_operator
move player-01 pos-12-08 pos-13-08 dir-right
0
3
0 0 80 88
0 58 0 1
0 66 1 0
0
end_operator
begin_operator
move player-01 pos-12-10 pos-11-10 dir-left
0
3
0 0 81 72
0 50 1 0
0 59 0 1
0
end_operator
begin_operator
move player-01 pos-12-10 pos-13-10 dir-right
0
3
0 0 81 89
0 59 0 1
0 67 1 0
0
end_operator
begin_operator
move player-01 pos-12-12 pos-11-12 dir-left
0
3
0 0 82 74
0 52 1 0
0 60 0 1
0
end_operator
begin_operator
move player-01 pos-12-12 pos-13-12 dir-right
0
3
0 0 82 90
0 60 0 1
0 68 1 0
0
end_operator
begin_operator
move player-01 pos-12-14 pos-11-14 dir-left
0
3
0 0 83 75
0 53 1 0
0 61 0 1
0
end_operator
begin_operator
move player-01 pos-12-14 pos-13-14 dir-right
0
3
0 0 83 91
0 61 0 1
0 69 1 0
0
end_operator
begin_operator
move player-01 pos-12-16 pos-11-16 dir-left
0
3
0 0 84 76
0 54 1 0
0 62 0 1
0
end_operator
begin_operator
move player-01 pos-12-16 pos-13-16 dir-right
0
3
0 0 84 92
0 62 0 1
0 70 1 0
0
end_operator
begin_operator
move player-01 pos-13-02 pos-12-02 dir-left
0
3
0 0 85 77
0 55 1 0
0 63 0 1
0
end_operator
begin_operator
move player-01 pos-13-02 pos-14-02 dir-right
0
3
0 0 85 93
0 63 0 1
0 71 1 0
0
end_operator
begin_operator
move player-01 pos-13-04 pos-12-04 dir-left
0
3
0 0 86 78
0 56 1 0
0 64 0 1
0
end_operator
begin_operator
move player-01 pos-13-04 pos-14-04 dir-right
0
3
0 0 86 94
0 64 0 1
0 72 1 0
0
end_operator
begin_operator
move player-01 pos-13-06 pos-12-06 dir-left
0
3
0 0 87 79
0 57 1 0
0 65 0 1
0
end_operator
begin_operator
move player-01 pos-13-06 pos-14-06 dir-right
0
3
0 0 87 95
0 65 0 1
0 73 1 0
0
end_operator
begin_operator
move player-01 pos-13-08 pos-12-08 dir-left
0
3
0 0 88 80
0 58 1 0
0 66 0 1
0
end_operator
begin_operator
move player-01 pos-13-08 pos-14-08 dir-right
0
3
0 0 88 96
0 66 0 1
0 74 1 0
0
end_operator
begin_operator
move player-01 pos-13-10 pos-12-10 dir-left
0
3
0 0 89 81
0 59 1 0
0 67 0 1
0
end_operator
begin_operator
move player-01 pos-13-10 pos-14-10 dir-right
0
3
0 0 89 97
0 67 0 1
0 75 1 0
0
end_operator
begin_operator
move player-01 pos-13-12 pos-12-12 dir-left
0
3
0 0 90 82
0 60 1 0
0 68 0 1
0
end_operator
begin_operator
move player-01 pos-13-12 pos-14-12 dir-right
0
3
0 0 90 98
0 68 0 1
0 76 1 0
0
end_operator
begin_operator
move player-01 pos-13-14 pos-12-14 dir-left
0
3
0 0 91 83
0 61 1 0
0 69 0 1
0
end_operator
begin_operator
move player-01 pos-13-14 pos-14-14 dir-right
0
3
0 0 91 99
0 69 0 1
0 77 1 0
0
end_operator
begin_operator
move player-01 pos-13-16 pos-12-16 dir-left
0
3
0 0 92 84
0 62 1 0
0 70 0 1
0
end_operator
begin_operator
move player-01 pos-13-16 pos-14-16 dir-right
0
3
0 0 92 100
0 70 0 1
0 78 1 0
0
end_operator
begin_operator
move player-01 pos-14-02 pos-13-02 dir-left
0
3
0 0 93 85
0 63 1 0
0 71 0 1
0
end_operator
begin_operator
move player-01 pos-14-02 pos-15-02 dir-right
0
3
0 0 93 101
0 71 0 1
0 79 1 0
0
end_operator
begin_operator
move player-01 pos-14-04 pos-13-04 dir-left
0
3
0 0 94 86
0 64 1 0
0 72 0 1
0
end_operator
begin_operator
move player-01 pos-14-04 pos-15-04 dir-right
0
3
0 0 94 102
0 72 0 1
0 80 1 0
0
end_operator
begin_operator
move player-01 pos-14-06 pos-13-06 dir-left
0
3
0 0 95 87
0 65 1 0
0 73 0 1
0
end_operator
begin_operator
move player-01 pos-14-06 pos-15-06 dir-right
0
3
0 0 95 103
0 73 0 1
0 81 1 0
0
end_operator
begin_operator
move player-01 pos-14-08 pos-13-08 dir-left
0
3
0 0 96 88
0 66 1 0
0 74 0 1
0
end_operator
begin_operator
move player-01 pos-14-08 pos-15-08 dir-right
0
3
0 0 96 104
0 74 0 1
0 82 1 0
0
end_operator
begin_operator
move player-01 pos-14-10 pos-13-10 dir-left
0
3
0 0 97 89
0 67 1 0
0 75 0 1
0
end_operator
begin_operator
move player-01 pos-14-10 pos-15-10 dir-right
0
3
0 0 97 105
0 75 0 1
0 83 1 0
0
end_operator
begin_operator
move player-01 pos-14-12 pos-13-12 dir-left
0
3
0 0 98 90
0 68 1 0
0 76 0 1
0
end_operator
begin_operator
move player-01 pos-14-12 pos-15-12 dir-right
0
3
0 0 98 106
0 76 0 1
0 84 1 0
0
end_operator
begin_operator
move player-01 pos-14-14 pos-13-14 dir-left
0
3
0 0 99 91
0 69 1 0
0 77 0 1
0
end_operator
begin_operator
move player-01 pos-14-14 pos-15-14 dir-right
0
3
0 0 99 107
0 77 0 1
0 85 1 0
0
end_operator
begin_operator
move player-01 pos-14-16 pos-13-16 dir-left
0
3
0 0 100 92
0 70 1 0
0 78 0 1
0
end_operator
begin_operator
move player-01 pos-14-16 pos-15-16 dir-right
0
3
0 0 100 108
0 78 0 1
0 86 1 0
0
end_operator
begin_operator
move player-01 pos-15-02 pos-14-02 dir-left
0
3
0 0 101 93
0 71 1 0
0 79 0 1
0
end_operator
begin_operator
move player-01 pos-15-02 pos-16-02 dir-right
0
3
0 0 101 109
0 79 0 1
0 87 1 0
0
end_operator
begin_operator
move player-01 pos-15-04 pos-14-04 dir-left
0
3
0 0 102 94
0 72 1 0
0 80 0 1
0
end_operator
begin_operator
move player-01 pos-15-04 pos-16-04 dir-right
0
3
0 0 102 110
0 80 0 1
0 88 1 0
0
end_operator
begin_operator
move player-01 pos-15-06 pos-14-06 dir-left
0
3
0 0 103 95
0 73 1 0
0 81 0 1
0
end_operator
begin_operator
move player-01 pos-15-06 pos-16-06 dir-right
0
3
0 0 103 111
0 81 0 1
0 89 1 0
0
end_operator
begin_operator
move player-01 pos-15-08 pos-14-08 dir-left
0
3
0 0 104 96
0 74 1 0
0 82 0 1
0
end_operator
begin_operator
move player-01 pos-15-08 pos-16-08 dir-right
0
3
0 0 104 112
0 82 0 1
0 90 1 0
0
end_operator
begin_operator
move player-01 pos-15-10 pos-14-10 dir-left
0
3
0 0 105 97
0 75 1 0
0 83 0 1
0
end_operator
begin_operator
move player-01 pos-15-10 pos-16-10 dir-right
0
3
0 0 105 113
0 83 0 1
0 91 1 0
0
end_operator
begin_operator
move player-01 pos-15-12 pos-14-12 dir-left
0
3
0 0 106 98
0 76 1 0
0 84 0 1
0
end_operator
begin_operator
move player-01 pos-15-12 pos-16-12 dir-right
0
3
0 0 106 114
0 84 0 1
0 92 1 0
0
end_operator
begin_operator
move player-01 pos-15-14 pos-14-14 dir-left
0
3
0 0 107 99
0 77 1 0
0 85 0 1
0
end_operator
begin_operator
move player-01 pos-15-14 pos-16-14 dir-right
0
3
0 0 107 115
0 85 0 1
0 93 1 0
0
end_operator
begin_operator
move player-01 pos-15-16 pos-14-16 dir-left
0
3
0 0 108 100
0 78 1 0
0 86 0 1
0
end_operator
begin_operator
move player-01 pos-15-16 pos-16-16 dir-right
0
3
0 0 108 116
0 86 0 1
0 94 1 0
0
end_operator
begin_operator
move player-01 pos-16-02 pos-15-02 dir-left
0
3
0 0 109 101
0 79 1 0
0 87 0 1
0
end_operator
begin_operator
move player-01 pos-16-02 pos-17-02 dir-right
0
3
0 0 109 117
0 87 0 1
0 95 1 0
0
end_operator
begin_operator
move player-01 pos-16-04 pos-15-04 dir-left
0
3
0 0 110 102
0 80 1 0
0 88 0 1
0
end_operator
begin_operator
move player-01 pos-16-04 pos-17-04 dir-right
0
3
0 0 110 118
0 88 0 1
0 96 1 0
0
end_operator
begin_operator
move player-01 pos-16-06 pos-15-06 dir-left
0
3
0 0 111 103
0 81 1 0
0 89 0 1
0
end_operator
begin_operator
move player-01 pos-16-06 pos-17-06 dir-right
0
3
0 0 111 119
0 89 0 1
0 97 1 0
0
end_operator
begin_operator
move player-01 pos-16-08 pos-15-08 dir-left
0
3
0 0 112 104
0 82 1 0
0 90 0 1
0
end_operator
begin_operator
move player-01 pos-16-08 pos-17-08 dir-right
0
3
0 0 112 120
0 90 0 1
0 98 1 0
0
end_operator
begin_operator
move player-01 pos-16-10 pos-15-10 dir-left
0
3
0 0 113 105
0 83 1 0
0 91 0 1
0
end_operator
begin_operator
move player-01 pos-16-10 pos-17-10 dir-right
0
3
0 0 113 121
0 91 0 1
0 99 1 0
0
end_operator
begin_operator
move player-01 pos-16-12 pos-15-12 dir-left
0
3
0 0 114 106
0 84 1 0
0 92 0 1
0
end_operator
begin_operator
move player-01 pos-16-12 pos-17-12 dir-right
0
3
0 0 114 122
0 92 0 1
0 100 1 0
0
end_operator
begin_operator
move player-01 pos-16-14 pos-15-14 dir-left
0
3
0 0 115 107
0 85 1 0
0 93 0 1
0
end_operator
begin_operator
move player-01 pos-16-14 pos-17-14 dir-right
0
3
0 0 115 123
0 93 0 1
0 101 1 0
0
end_operator
begin_operator
move player-01 pos-16-16 pos-15-16 dir-left
0
3
0 0 116 108
0 86 1 0
0 94 0 1
0
end_operator
begin_operator
move player-01 pos-16-16 pos-17-16 dir-right
0
3
0 0 116 124
0 94 0 1
0 102 1 0
0
end_operator
begin_operator
move player-01 pos-17-02 pos-16-02 dir-left
0
3
0 0 117 109
0 87 1 0
0 95 0 1
0
end_operator
begin_operator
move player-01 pos-17-02 pos-18-02 dir-right
0
3
0 0 117 125
0 95 0 1
0 103 1 0
0
end_operator
begin_operator
move player-01 pos-17-04 pos-16-04 dir-left
0
3
0 0 118 110
0 88 1 0
0 96 0 1
0
end_operator
begin_operator
move player-01 pos-17-04 pos-18-04 dir-right
0
3
0 0 118 126
0 96 0 1
0 104 1 0
0
end_operator
begin_operator
move player-01 pos-17-06 pos-16-06 dir-left
0
3
0 0 119 111
0 89 1 0
0 97 0 1
0
end_operator
begin_operator
move player-01 pos-17-06 pos-18-06 dir-right
0
3
0 0 119 127
0 97 0 1
0 105 1 0
0
end_operator
begin_operator
move player-01 pos-17-08 pos-16-08 dir-left
0
3
0 0 120 112
0 90 1 0
0 98 0 1
0
end_operator
begin_operator
move player-01 pos-17-08 pos-18-08 dir-right
0
3
0 0 120 128
0 98 0 1
0 106 1 0
0
end_operator
begin_operator
move player-01 pos-17-10 pos-16-10 dir-left
0
3
0 0 121 113
0 91 1 0
0 99 0 1
0
end_operator
begin_operator
move player-01 pos-17-10 pos-18-10 dir-right
0
3
0 0 121 129
0 99 0 1
0 107 1 0
0
end_operator
begin_operator
move player-01 pos-17-12 pos-16-12 dir-left
0
3
0 0 122 114
0 92 1 0
0 100 0 1
0
end_operator
begin_operator
move player-01 pos-17-12 pos-18-12 dir-right
0
3
0 0 122 130
0 100 0 1
0 108 1 0
0
end_operator
begin_operator
move player-01 pos-17-14 pos-16-14 dir-left
0
3
0 0 123 115
0 93 1 0
0 101 0 1
0
end_operator
begin_operator
move player-01 pos-17-14 pos-18-14 dir-right
0
3
0 0 123 131
0 101 0 1
0 109 1 0
0
end_operator
begin_operator
move player-01 pos-17-16 pos-16-16 dir-left
0
3
0 0 124 116
0 94 1 0
0 102 0 1
0
end_operator
begin_operator
move player-01 pos-17-16 pos-18-16 dir-right
0
3
0 0 124 132
0 102 0 1
0 110 1 0
0
end_operator
begin_operator
move player-01 pos-18-02 pos-17-02 dir-left
0
3
0 0 125 117
0 95 1 0
0 103 0 1
0
end_operator
begin_operator
move player-01 pos-18-02 pos-19-02 dir-right
0
3
0 0 125 133
0 103 0 1
0 111 1 0
0
end_operator
begin_operator
move player-01 pos-18-04 pos-17-04 dir-left
0
3
0 0 126 118
0 96 1 0
0 104 0 1
0
end_operator
begin_operator
move player-01 pos-18-04 pos-19-04 dir-right
0
3
0 0 126 134
0 104 0 1
0 112 1 0
0
end_operator
begin_operator
move player-01 pos-18-06 pos-17-06 dir-left
0
3
0 0 127 119
0 97 1 0
0 105 0 1
0
end_operator
begin_operator
move player-01 pos-18-06 pos-19-06 dir-right
0
3
0 0 127 135
0 105 0 1
0 113 1 0
0
end_operator
begin_operator
move player-01 pos-18-08 pos-17-08 dir-left
0
3
0 0 128 120
0 98 1 0
0 106 0 1
0
end_operator
begin_operator
move player-01 pos-18-08 pos-19-08 dir-right
0
3
0 0 128 136
0 106 0 1
0 114 1 0
0
end_operator
begin_operator
move player-01 pos-18-10 pos-17-10 dir-left
0
3
0 0 129 121
0 99 1 0
0 107 0 1
0
end_operator
begin_operator
move player-01 pos-18-10 pos-19-10 dir-right
0
3
0 0 129 137
0 107 0 1
0 115 1 0
0
end_operator
begin_operator
move player-01 pos-18-12 pos-17-12 dir-left
0
3
0 0 130 122
0 100 1 0
0 108 0 1
0
end_operator
begin_operator
move player-01 pos-18-12 pos-19-12 dir-right
0
3
0 0 130 138
0 108 0 1
0 116 1 0
0
end_operator
begin_operator
move player-01 pos-18-14 pos-17-14 dir-left
0
3
0 0 131 123
0 101 1 0
0 109 0 1
0
end_operator
begin_operator
move player-01 pos-18-14 pos-19-14 dir-right
0
3
0 0 131 139
0 109 0 1
0 117 1 0
0
end_operator
begin_operator
move player-01 pos-18-16 pos-17-16 dir-left
0
3
0 0 132 124
0 102 1 0
0 110 0 1
0
end_operator
begin_operator
move player-01 pos-18-16 pos-19-16 dir-right
0
3
0 0 132 140
0 110 0 1
0 118 1 0
0
end_operator
begin_operator
move player-01 pos-19-02 pos-18-02 dir-left
0
3
0 0 133 125
0 103 1 0
0 111 0 1
0
end_operator
begin_operator
move player-01 pos-19-02 pos-20-02 dir-right
0
3
0 0 133 141
0 111 0 1
0 119 1 0
0
end_operator
begin_operator
move player-01 pos-19-04 pos-18-04 dir-left
0
3
0 0 134 126
0 104 1 0
0 112 0 1
0
end_operator
begin_operator
move player-01 pos-19-04 pos-20-04 dir-right
0
3
0 0 134 142
0 112 0 1
0 120 1 0
0
end_operator
begin_operator
move player-01 pos-19-06 pos-18-06 dir-left
0
3
0 0 135 127
0 105 1 0
0 113 0 1
0
end_operator
begin_operator
move player-01 pos-19-06 pos-20-06 dir-right
0
3
0 0 135 143
0 113 0 1
0 121 1 0
0
end_operator
begin_operator
move player-01 pos-19-08 pos-18-08 dir-left
0
3
0 0 136 128
0 106 1 0
0 114 0 1
0
end_operator
begin_operator
move player-01 pos-19-08 pos-20-08 dir-right
0
3
0 0 136 144
0 114 0 1
0 122 1 0
0
end_operator
begin_operator
move player-01 pos-19-10 pos-18-10 dir-left
0
3
0 0 137 129
0 107 1 0
0 115 0 1
0
end_operator
begin_operator
move player-01 pos-19-10 pos-20-10 dir-right
0
3
0 0 137 145
0 115 0 1
0 123 1 0
0
end_operator
begin_operator
move player-01 pos-19-12 pos-18-12 dir-left
0
3
0 0 138 130
0 108 1 0
0 116 0 1
0
end_operator
begin_operator
move player-01 pos-19-12 pos-20-12 dir-right
0
3
0 0 138 146
0 116 0 1
0 124 1 0
0
end_operator
begin_operator
move player-01 pos-19-14 pos-18-14 dir-left
0
3
0 0 139 131
0 109 1 0
0 117 0 1
0
end_operator
begin_operator
move player-01 pos-19-14 pos-20-14 dir-right
0
3
0 0 139 147
0 117 0 1
0 125 1 0
0
end_operator
begin_operator
move player-01 pos-19-16 pos-18-16 dir-left
0
3
0 0 140 132
0 110 1 0
0 118 0 1
0
end_operator
begin_operator
move player-01 pos-19-16 pos-20-16 dir-right
0
3
0 0 140 148
0 118 0 1
0 126 1 0
0
end_operator
begin_operator
move player-01 pos-20-02 pos-19-02 dir-left
0
3
0 0 141 133
0 111 1 0
0 119 0 1
0
end_operator
begin_operator
move player-01 pos-20-02 pos-21-02 dir-right
0
3
0 0 141 149
0 119 0 1
0 127 1 0
0
end_operator
begin_operator
move player-01 pos-20-04 pos-19-04 dir-left
0
3
0 0 142 134
0 112 1 0
0 120 0 1
0
end_operator
begin_operator
move player-01 pos-20-04 pos-21-04 dir-right
0
3
0 0 142 150
0 120 0 1
0 128 1 0
0
end_operator
begin_operator
move player-01 pos-20-06 pos-19-06 dir-left
0
3
0 0 143 135
0 113 1 0
0 121 0 1
0
end_operator
begin_operator
move player-01 pos-20-06 pos-21-06 dir-right
0
3
0 0 143 151
0 121 0 1
0 129 1 0
0
end_operator
begin_operator
move player-01 pos-20-08 pos-19-08 dir-left
0
3
0 0 144 136
0 114 1 0
0 122 0 1
0
end_operator
begin_operator
move player-01 pos-20-08 pos-21-08 dir-right
0
3
0 0 144 152
0 122 0 1
0 130 1 0
0
end_operator
begin_operator
move player-01 pos-20-10 pos-19-10 dir-left
0
3
0 0 145 137
0 115 1 0
0 123 0 1
0
end_operator
begin_operator
move player-01 pos-20-10 pos-21-10 dir-right
0
3
0 0 145 153
0 123 0 1
0 131 1 0
0
end_operator
begin_operator
move player-01 pos-20-12 pos-19-12 dir-left
0
3
0 0 146 138
0 116 1 0
0 124 0 1
0
end_operator
begin_operator
move player-01 pos-20-12 pos-21-12 dir-right
0
3
0 0 146 154
0 124 0 1
0 132 1 0
0
end_operator
begin_operator
move player-01 pos-20-14 pos-19-14 dir-left
0
3
0 0 147 139
0 117 1 0
0 125 0 1
0
end_operator
begin_operator
move player-01 pos-20-14 pos-21-14 dir-right
0
3
0 0 147 155
0 125 0 1
0 133 1 0
0
end_operator
begin_operator
move player-01 pos-20-16 pos-19-16 dir-left
0
3
0 0 148 140
0 118 1 0
0 126 0 1
0
end_operator
begin_operator
move player-01 pos-20-16 pos-21-16 dir-right
0
3
0 0 148 156
0 126 0 1
0 134 1 0
0
end_operator
begin_operator
move player-01 pos-21-02 pos-20-02 dir-left
0
3
0 0 149 141
0 119 1 0
0 127 0 1
0
end_operator
begin_operator
move player-01 pos-21-02 pos-22-02 dir-right
0
3
0 0 149 157
0 127 0 1
0 135 1 0
0
end_operator
begin_operator
move player-01 pos-21-04 pos-20-04 dir-left
0
3
0 0 150 142
0 120 1 0
0 128 0 1
0
end_operator
begin_operator
move player-01 pos-21-04 pos-22-04 dir-right
0
3
0 0 150 158
0 128 0 1
0 136 1 0
0
end_operator
begin_operator
move player-01 pos-21-06 pos-20-06 dir-left
0
3
0 0 151 143
0 121 1 0
0 129 0 1
0
end_operator
begin_operator
move player-01 pos-21-06 pos-22-06 dir-right
0
3
0 0 151 159
0 129 0 1
0 137 1 0
0
end_operator
begin_operator
move player-01 pos-21-08 pos-20-08 dir-left
0
3
0 0 152 144
0 122 1 0
0 130 0 1
0
end_operator
begin_operator
move player-01 pos-21-08 pos-22-08 dir-right
0
3
0 0 152 160
0 130 0 1
0 138 1 0
0
end_operator
begin_operator
move player-01 pos-21-10 pos-20-10 dir-left
0
3
0 0 153 145
0 123 1 0
0 131 0 1
0
end_operator
begin_operator
move player-01 pos-21-10 pos-22-10 dir-right
0
3
0 0 153 162
0 131 0 1
0 140 1 0
0
end_operator
begin_operator
move player-01 pos-21-12 pos-20-12 dir-left
0
3
0 0 154 146
0 124 1 0
0 132 0 1
0
end_operator
begin_operator
move player-01 pos-21-12 pos-22-12 dir-right
0
3
0 0 154 163
0 132 0 1
0 141 1 0
0
end_operator
begin_operator
move player-01 pos-21-14 pos-20-14 dir-left
0
3
0 0 155 147
0 125 1 0
0 133 0 1
0
end_operator
begin_operator
move player-01 pos-21-14 pos-22-14 dir-right
0
3
0 0 155 164
0 133 0 1
0 142 1 0
0
end_operator
begin_operator
move player-01 pos-21-16 pos-20-16 dir-left
0
3
0 0 156 148
0 126 1 0
0 134 0 1
0
end_operator
begin_operator
move player-01 pos-21-16 pos-22-16 dir-right
0
3
0 0 156 165
0 134 0 1
0 143 1 0
0
end_operator
begin_operator
move player-01 pos-22-02 pos-21-02 dir-left
0
3
0 0 157 149
0 127 1 0
0 135 0 1
0
end_operator
begin_operator
move player-01 pos-22-02 pos-23-02 dir-right
0
3
0 0 157 166
0 135 0 1
0 144 1 0
0
end_operator
begin_operator
move player-01 pos-22-04 pos-21-04 dir-left
0
3
0 0 158 150
0 128 1 0
0 136 0 1
0
end_operator
begin_operator
move player-01 pos-22-04 pos-23-04 dir-right
0
3
0 0 158 167
0 136 0 1
0 145 1 0
0
end_operator
begin_operator
move player-01 pos-22-06 pos-21-06 dir-left
0
3
0 0 159 151
0 129 1 0
0 137 0 1
0
end_operator
begin_operator
move player-01 pos-22-06 pos-23-06 dir-right
0
3
0 0 159 168
0 137 0 1
0 146 1 0
0
end_operator
begin_operator
move player-01 pos-22-08 pos-21-08 dir-left
0
3
0 0 160 152
0 130 1 0
0 138 0 1
0
end_operator
begin_operator
move player-01 pos-22-08 pos-22-09 dir-down
0
3
0 0 160 161
0 138 0 1
0 139 1 0
0
end_operator
begin_operator
move player-01 pos-22-09 pos-22-08 dir-up
0
3
0 0 161 160
0 138 1 0
0 139 0 1
0
end_operator
begin_operator
move player-01 pos-22-09 pos-22-10 dir-down
0
3
0 0 161 162
0 139 0 1
0 140 1 0
0
end_operator
begin_operator
move player-01 pos-22-10 pos-21-10 dir-left
0
3
0 0 162 153
0 131 1 0
0 140 0 1
0
end_operator
begin_operator
move player-01 pos-22-10 pos-22-09 dir-up
0
3
0 0 162 161
0 139 1 0
0 140 0 1
0
end_operator
begin_operator
move player-01 pos-22-12 pos-21-12 dir-left
0
3
0 0 163 154
0 132 1 0
0 141 0 1
0
end_operator
begin_operator
move player-01 pos-22-12 pos-23-12 dir-right
0
3
0 0 163 169
0 141 0 1
0 147 1 0
0
end_operator
begin_operator
move player-01 pos-22-14 pos-21-14 dir-left
0
3
0 0 164 155
0 133 1 0
0 142 0 1
0
end_operator
begin_operator
move player-01 pos-22-14 pos-23-14 dir-right
0
3
0 0 164 170
0 142 0 1
0 148 1 0
0
end_operator
begin_operator
move player-01 pos-22-16 pos-21-16 dir-left
0
3
0 0 165 156
0 134 1 0
0 143 0 1
0
end_operator
begin_operator
move player-01 pos-22-16 pos-23-16 dir-right
0
3
0 0 165 171
0 143 0 1
0 149 1 0
0
end_operator
begin_operator
move player-01 pos-23-02 pos-22-02 dir-left
0
3
0 0 166 157
0 135 1 0
0 144 0 1
0
end_operator
begin_operator
move player-01 pos-23-02 pos-24-02 dir-right
0
3
0 0 166 172
0 144 0 1
0 150 1 0
0
end_operator
begin_operator
move player-01 pos-23-04 pos-22-04 dir-left
0
3
0 0 167 158
0 136 1 0
0 145 0 1
0
end_operator
begin_operator
move player-01 pos-23-04 pos-24-04 dir-right
0
3
0 0 167 173
0 145 0 1
0 151 1 0
0
end_operator
begin_operator
move player-01 pos-23-06 pos-22-06 dir-left
0
3
0 0 168 159
0 137 1 0
0 146 0 1
0
end_operator
begin_operator
move player-01 pos-23-06 pos-24-06 dir-right
0
3
0 0 168 174
0 146 0 1
0 152 1 0
0
end_operator
begin_operator
move player-01 pos-23-12 pos-22-12 dir-left
0
3
0 0 169 163
0 141 1 0
0 147 0 1
0
end_operator
begin_operator
move player-01 pos-23-12 pos-24-12 dir-right
0
3
0 0 169 180
0 147 0 1
0 158 1 0
0
end_operator
begin_operator
move player-01 pos-23-14 pos-22-14 dir-left
0
3
0 0 170 164
0 142 1 0
0 148 0 1
0
end_operator
begin_operator
move player-01 pos-23-14 pos-24-14 dir-right
0
3
0 0 170 181
0 148 0 1
0 159 1 0
0
end_operator
begin_operator
move player-01 pos-23-16 pos-22-16 dir-left
0
3
0 0 171 165
0 143 1 0
0 149 0 1
0
end_operator
begin_operator
move player-01 pos-23-16 pos-24-16 dir-right
0
3
0 0 171 182
0 149 0 1
0 160 1 0
0
end_operator
begin_operator
move player-01 pos-24-02 pos-23-02 dir-left
0
3
0 0 172 166
0 144 1 0
0 150 0 1
0
end_operator
begin_operator
move player-01 pos-24-02 pos-25-02 dir-right
0
3
0 0 172 183
0 150 0 1
0 161 1 0
0
end_operator
begin_operator
move player-01 pos-24-04 pos-23-04 dir-left
0
3
0 0 173 167
0 145 1 0
0 151 0 1
0
end_operator
begin_operator
move player-01 pos-24-04 pos-25-04 dir-right
0
3
0 0 173 184
0 151 0 1
0 162 1 0
0
end_operator
begin_operator
move player-01 pos-24-06 pos-23-06 dir-left
0
3
0 0 174 168
0 146 1 0
0 152 0 1
0
end_operator
begin_operator
move player-01 pos-24-06 pos-24-07 dir-down
0
3
0 0 174 175
0 152 0 1
0 153 1 0
0
end_operator
begin_operator
move player-01 pos-24-07 pos-24-06 dir-up
0
3
0 0 175 174
0 152 1 0
0 153 0 1
0
end_operator
begin_operator
move player-01 pos-24-07 pos-24-08 dir-down
0
3
0 0 175 176
0 153 0 1
0 154 1 0
0
end_operator
begin_operator
move player-01 pos-24-08 pos-24-07 dir-up
0
3
0 0 176 175
0 153 1 0
0 154 0 1
0
end_operator
begin_operator
move player-01 pos-24-08 pos-24-09 dir-down
0
3
0 0 176 177
0 154 0 1
0 155 1 0
0
end_operator
begin_operator
move player-01 pos-24-09 pos-24-08 dir-up
0
3
0 0 177 176
0 154 1 0
0 155 0 1
0
end_operator
begin_operator
move player-01 pos-24-09 pos-24-10 dir-down
0
3
0 0 177 178
0 155 0 1
0 156 1 0
0
end_operator
begin_operator
move player-01 pos-24-10 pos-24-09 dir-up
0
3
0 0 178 177
0 155 1 0
0 156 0 1
0
end_operator
begin_operator
move player-01 pos-24-10 pos-24-11 dir-down
0
3
0 0 178 179
0 156 0 1
0 157 1 0
0
end_operator
begin_operator
move player-01 pos-24-11 pos-24-10 dir-up
0
3
0 0 179 178
0 156 1 0
0 157 0 1
0
end_operator
begin_operator
move player-01 pos-24-11 pos-24-12 dir-down
0
3
0 0 179 180
0 157 0 1
0 158 1 0
0
end_operator
begin_operator
move player-01 pos-24-12 pos-23-12 dir-left
0
3
0 0 180 169
0 147 1 0
0 158 0 1
0
end_operator
begin_operator
move player-01 pos-24-12 pos-24-11 dir-up
0
3
0 0 180 179
0 157 1 0
0 158 0 1
0
end_operator
begin_operator
move player-01 pos-24-14 pos-23-14 dir-left
0
3
0 0 181 170
0 148 1 0
0 159 0 1
0
end_operator
begin_operator
move player-01 pos-24-14 pos-25-14 dir-right
0
3
0 0 181 185
0 159 0 1
0 163 1 0
0
end_operator
begin_operator
move player-01 pos-24-16 pos-23-16 dir-left
0
3
0 0 182 171
0 149 1 0
0 160 0 1
0
end_operator
begin_operator
move player-01 pos-24-16 pos-25-16 dir-right
0
3
0 0 182 186
0 160 0 1
0 164 1 0
0
end_operator
begin_operator
move player-01 pos-25-02 pos-24-02 dir-left
0
3
0 0 183 172
0 150 1 0
0 161 0 1
0
end_operator
begin_operator
move player-01 pos-25-02 pos-26-02 dir-right
0
3
0 0 183 187
0 161 0 1
0 165 1 0
0
end_operator
begin_operator
move player-01 pos-25-04 pos-24-04 dir-left
0
3
0 0 184 173
0 151 1 0
0 162 0 1
0
end_operator
begin_operator
move player-01 pos-25-04 pos-26-04 dir-right
0
3
0 0 184 188
0 162 0 1
0 166 1 0
0
end_operator
begin_operator
move player-01 pos-25-14 pos-24-14 dir-left
0
3
0 0 185 181
0 159 1 0
0 163 0 1
0
end_operator
begin_operator
move player-01 pos-25-14 pos-26-14 dir-right
0
3
0 0 185 198
0 163 0 1
0 176 1 0
0
end_operator
begin_operator
move player-01 pos-25-16 pos-24-16 dir-left
0
3
0 0 186 182
0 160 1 0
0 164 0 1
0
end_operator
begin_operator
move player-01 pos-25-16 pos-26-16 dir-right
0
3
0 0 186 199
0 164 0 1
0 177 1 0
0
end_operator
begin_operator
move player-01 pos-26-02 pos-25-02 dir-left
0
3
0 0 187 183
0 161 1 0
0 165 0 1
0
end_operator
begin_operator
move player-01 pos-26-02 pos-27-02 dir-right
0
3
0 0 187 200
0 165 0 1
0 178 1 0
0
end_operator
begin_operator
move player-01 pos-26-04 pos-25-04 dir-left
0
3
0 0 188 184
0 162 1 0
0 166 0 1
0
end_operator
begin_operator
move player-01 pos-26-04 pos-26-05 dir-down
0
3
0 0 188 189
0 166 0 1
0 167 1 0
0
end_operator
begin_operator
move player-01 pos-26-05 pos-26-04 dir-up
0
3
0 0 189 188
0 166 1 0
0 167 0 1
0
end_operator
begin_operator
move player-01 pos-26-05 pos-26-06 dir-down
0
3
0 0 189 190
0 167 0 1
0 168 1 0
0
end_operator
begin_operator
move player-01 pos-26-06 pos-26-05 dir-up
0
3
0 0 190 189
0 167 1 0
0 168 0 1
0
end_operator
begin_operator
move player-01 pos-26-06 pos-26-07 dir-down
0
3
0 0 190 191
0 168 0 1
0 169 1 0
0
end_operator
begin_operator
move player-01 pos-26-07 pos-26-06 dir-up
0
3
0 0 191 190
0 168 1 0
0 169 0 1
0
end_operator
begin_operator
move player-01 pos-26-07 pos-26-08 dir-down
0
3
0 0 191 192
0 169 0 1
0 170 1 0
0
end_operator
begin_operator
move player-01 pos-26-08 pos-26-07 dir-up
0
3
0 0 192 191
0 169 1 0
0 170 0 1
0
end_operator
begin_operator
move player-01 pos-26-08 pos-26-09 dir-down
0
3
0 0 192 193
0 170 0 1
0 171 1 0
0
end_operator
begin_operator
move player-01 pos-26-09 pos-26-08 dir-up
0
3
0 0 193 192
0 170 1 0
0 171 0 1
0
end_operator
begin_operator
move player-01 pos-26-09 pos-26-10 dir-down
0
3
0 0 193 194
0 171 0 1
0 172 1 0
0
end_operator
begin_operator
move player-01 pos-26-10 pos-26-09 dir-up
0
3
0 0 194 193
0 171 1 0
0 172 0 1
0
end_operator
begin_operator
move player-01 pos-26-10 pos-26-11 dir-down
0
3
0 0 194 195
0 172 0 1
0 173 1 0
0
end_operator
begin_operator
move player-01 pos-26-11 pos-26-10 dir-up
0
3
0 0 195 194
0 172 1 0
0 173 0 1
0
end_operator
begin_operator
move player-01 pos-26-11 pos-26-12 dir-down
0
3
0 0 195 196
0 173 0 1
0 174 1 0
0
end_operator
begin_operator
move player-01 pos-26-12 pos-26-11 dir-up
0
3
0 0 196 195
0 173 1 0
0 174 0 1
0
end_operator
begin_operator
move player-01 pos-26-12 pos-26-13 dir-down
0
3
0 0 196 197
0 174 0 1
0 175 1 0
0
end_operator
begin_operator
move player-01 pos-26-13 pos-26-12 dir-up
0
3
0 0 197 196
0 174 1 0
0 175 0 1
0
end_operator
begin_operator
move player-01 pos-26-13 pos-26-14 dir-down
0
3
0 0 197 198
0 175 0 1
0 176 1 0
0
end_operator
begin_operator
move player-01 pos-26-14 pos-25-14 dir-left
0
3
0 0 198 185
0 163 1 0
0 176 0 1
0
end_operator
begin_operator
move player-01 pos-26-14 pos-26-13 dir-up
0
3
0 0 198 197
0 175 1 0
0 176 0 1
0
end_operator
begin_operator
move player-01 pos-26-16 pos-25-16 dir-left
0
3
0 0 199 186
0 164 1 0
0 177 0 1
0
end_operator
begin_operator
move player-01 pos-26-16 pos-27-16 dir-right
0
3
0 0 199 201
0 177 0 1
0 179 1 0
0
end_operator
begin_operator
move player-01 pos-27-02 pos-26-02 dir-left
0
3
0 0 200 187
0 165 1 0
0 178 0 1
0
end_operator
begin_operator
move player-01 pos-27-02 pos-28-02 dir-right
0
3
0 0 200 202
0 178 0 1
0 180 1 0
0
end_operator
begin_operator
move player-01 pos-27-16 pos-26-16 dir-left
0
3
0 0 201 199
0 177 1 0
0 179 0 1
0
end_operator
begin_operator
move player-01 pos-27-16 pos-28-16 dir-right
0
3
0 0 201 216
0 179 0 1
0 194 1 0
0
end_operator
begin_operator
move player-01 pos-28-02 pos-27-02 dir-left
0
3
0 0 202 200
0 178 1 0
0 180 0 1
0
end_operator
begin_operator
move player-01 pos-28-02 pos-28-03 dir-down
0
3
0 0 202 203
0 180 0 1
0 181 1 0
0
end_operator
begin_operator
move player-01 pos-28-03 pos-28-02 dir-up
0
3
0 0 203 202
0 180 1 0
0 181 0 1
0
end_operator
begin_operator
move player-01 pos-28-03 pos-28-04 dir-down
0
3
0 0 203 204
0 181 0 1
0 182 1 0
0
end_operator
begin_operator
move player-01 pos-28-04 pos-28-03 dir-up
0
3
0 0 204 203
0 181 1 0
0 182 0 1
0
end_operator
begin_operator
move player-01 pos-28-04 pos-28-05 dir-down
0
3
0 0 204 205
0 182 0 1
0 183 1 0
0
end_operator
begin_operator
move player-01 pos-28-05 pos-28-04 dir-up
0
3
0 0 205 204
0 182 1 0
0 183 0 1
0
end_operator
begin_operator
move player-01 pos-28-05 pos-28-06 dir-down
0
3
0 0 205 206
0 183 0 1
0 184 1 0
0
end_operator
begin_operator
move player-01 pos-28-06 pos-28-05 dir-up
0
3
0 0 206 205
0 183 1 0
0 184 0 1
0
end_operator
begin_operator
move player-01 pos-28-06 pos-28-07 dir-down
0
3
0 0 206 207
0 184 0 1
0 185 1 0
0
end_operator
begin_operator
move player-01 pos-28-07 pos-28-06 dir-up
0
3
0 0 207 206
0 184 1 0
0 185 0 1
0
end_operator
begin_operator
move player-01 pos-28-07 pos-28-08 dir-down
0
3
0 0 207 208
0 185 0 1
0 186 1 0
0
end_operator
begin_operator
move player-01 pos-28-08 pos-28-07 dir-up
0
3
0 0 208 207
0 185 1 0
0 186 0 1
0
end_operator
begin_operator
move player-01 pos-28-08 pos-28-09 dir-down
0
3
0 0 208 209
0 186 0 1
0 187 1 0
0
end_operator
begin_operator
move player-01 pos-28-09 pos-28-08 dir-up
0
3
0 0 209 208
0 186 1 0
0 187 0 1
0
end_operator
begin_operator
move player-01 pos-28-09 pos-28-10 dir-down
0
3
0 0 209 210
0 187 0 1
0 188 1 0
0
end_operator
begin_operator
move player-01 pos-28-10 pos-28-09 dir-up
0
3
0 0 210 209
0 187 1 0
0 188 0 1
0
end_operator
begin_operator
move player-01 pos-28-10 pos-28-11 dir-down
0
3
0 0 210 211
0 188 0 1
0 189 1 0
0
end_operator
begin_operator
move player-01 pos-28-11 pos-28-10 dir-up
0
3
0 0 211 210
0 188 1 0
0 189 0 1
0
end_operator
begin_operator
move player-01 pos-28-11 pos-28-12 dir-down
0
3
0 0 211 212
0 189 0 1
0 190 1 0
0
end_operator
begin_operator
move player-01 pos-28-12 pos-28-11 dir-up
0
3
0 0 212 211
0 189 1 0
0 190 0 1
0
end_operator
begin_operator
move player-01 pos-28-12 pos-28-13 dir-down
0
3
0 0 212 213
0 190 0 1
0 191 1 0
0
end_operator
begin_operator
move player-01 pos-28-13 pos-28-12 dir-up
0
3
0 0 213 212
0 190 1 0
0 191 0 1
0
end_operator
begin_operator
move player-01 pos-28-13 pos-28-14 dir-down
0
3
0 0 213 214
0 191 0 1
0 192 1 0
0
end_operator
begin_operator
move player-01 pos-28-14 pos-28-13 dir-up
0
3
0 0 214 213
0 191 1 0
0 192 0 1
0
end_operator
begin_operator
move player-01 pos-28-14 pos-28-15 dir-down
0
3
0 0 214 215
0 192 0 1
0 193 1 0
0
end_operator
begin_operator
move player-01 pos-28-15 pos-28-14 dir-up
0
3
0 0 215 214
0 192 1 0
0 193 0 1
0
end_operator
begin_operator
move player-01 pos-28-15 pos-28-16 dir-down
0
3
0 0 215 216
0 193 0 1
0 194 1 0
0
end_operator
begin_operator
move player-01 pos-28-16 pos-27-16 dir-left
0
3
0 0 216 201
0 179 1 0
0 194 0 1
0
end_operator
begin_operator
move player-01 pos-28-16 pos-28-15 dir-up
0
3
0 0 216 215
0 193 1 0
0 194 0 1
0
end_operator
begin_operator
push-to-goal player-01 stone-01 pos-04-16 pos-03-16 pos-02-16 dir-left
0
6
0 0 17 15
0 1 13 14
0 195 1 2
0 210 1 0
0 212 0 1
0 219 -1 0
1
end_operator
begin_operator
push-to-nongoal player-01 stone-01 pos-03-02 pos-03-03 pos-03-04 dir-down
0
5
0 0 1 2
0 1 0 1
0 196 0 1
0 197 1 0
0 198 2 1
1
end_operator
begin_operator
push-to-nongoal player-01 stone-01 pos-03-03 pos-03-04 pos-03-05 dir-down
0
5
0 0 2 3
0 1 1 2
0 197 0 2
0 198 1 0
0 199 2 1
1
end_operator
begin_operator
push-to-nongoal player-01 stone-01 pos-03-04 pos-03-03 pos-03-02 dir-up
0
5
0 0 3 2
0 1 0 14
0 196 1 2
0 197 1 0
0 198 0 2
1
end_operator
begin_operator
push-to-nongoal player-01 stone-01 pos-03-04 pos-03-05 pos-03-06 dir-down
0
5
0 0 3 4
0 1 2 3
0 198 0 2
0 199 1 0
0 200 2 1
1
end_operator
begin_operator
push-to-nongoal player-01 stone-01 pos-03-05 pos-03-04 pos-03-03 dir-up
0
5
0 0 4 3
0 1 1 0
0 197 2 1
0 198 1 0
0 199 0 2
1
end_operator
begin_operator
push-to-nongoal player-01 stone-01 pos-03-05 pos-03-06 pos-03-07 dir-down
0
5
0 0 4 5
0 1 3 4
0 199 0 2
0 200 1 0
0 201 2 1
1
end_operator
begin_operator
push-to-nongoal player-01 stone-01 pos-03-06 pos-03-05 pos-03-04 dir-up
0
5
0 0 5 4
0 1 2 1
0 198 2 1
0 199 1 0
0 200 0 2
1
end_operator
begin_operator
push-to-nongoal player-01 stone-01 pos-03-06 pos-03-07 pos-03-08 dir-down
0
5
0 0 5 6
0 1 4 5
0 200 0 2
0 201 1 0
0 202 2 1
1
end_operator
begin_operator
push-to-nongoal player-01 stone-01 pos-03-07 pos-03-06 pos-03-05 dir-up
0
5
0 0 6 5
0 1 3 2
0 199 2 1
0 200 1 0
0 201 0 2
1
end_operator
begin_operator
push-to-nongoal player-01 stone-01 pos-03-07 pos-03-08 pos-03-09 dir-down
0
5
0 0 6 7
0 1 5 6
0 201 0 2
0 202 1 0
0 203 2 1
1
end_operator
begin_operator
push-to-nongoal player-01 stone-01 pos-03-08 pos-03-07 pos-03-06 dir-up
0
5
0 0 7 6
0 1 4 3
0 200 2 1
0 201 1 0
0 202 0 2
1
end_operator
begin_operator
push-to-nongoal player-01 stone-01 pos-03-08 pos-03-09 pos-03-10 dir-down
0
5
0 0 7 8
0 1 6 7
0 202 0 2
0 203 1 0
0 204 2 1
1
end_operator
begin_operator
push-to-nongoal player-01 stone-01 pos-03-09 pos-03-08 pos-03-07 dir-up
0
5
0 0 8 7
0 1 5 4
0 201 2 1
0 202 1 0
0 203 0 2
1
end_operator
begin_operator
push-to-nongoal player-01 stone-01 pos-03-09 pos-03-10 pos-03-11 dir-down
0
5
0 0 8 9
0 1 7 8
0 203 0 2
0 204 1 0
0 205 2 1
1
end_operator
begin_operator
push-to-nongoal player-01 stone-01 pos-03-10 pos-03-09 pos-03-08 dir-up
0
5
0 0 9 8
0 1 6 5
0 202 2 1
0 203 1 0
0 204 0 2
1
end_operator
begin_operator
push-to-nongoal player-01 stone-01 pos-03-10 pos-03-11 pos-03-12 dir-down
0
5
0 0 9 10
0 1 8 9
0 204 0 2
0 205 1 0
0 206 2 1
1
end_operator
begin_operator
push-to-nongoal player-01 stone-01 pos-03-11 pos-03-10 pos-03-09 dir-up
0
5
0 0 10 9
0 1 7 6
0 203 2 1
0 204 1 0
0 205 0 2
1
end_operator
begin_operator
push-to-nongoal player-01 stone-01 pos-03-11 pos-03-12 pos-03-13 dir-down
0
5
0 0 10 11
0 1 9 10
0 205 0 2
0 206 1 0
0 207 2 1
1
end_operator
begin_operator
push-to-nongoal player-01 stone-01 pos-03-12 pos-03-11 pos-03-10 dir-up
0
5
0 0 11 10
0 1 8 7
0 204 2 1
0 205 1 0
0 206 0 2
1
end_operator
begin_operator
push-to-nongoal player-01 stone-01 pos-03-12 pos-03-13 pos-03-14 dir-down
0
5
0 0 11 12
0 1 10 11
0 206 0 2
0 207 1 0
0 208 2 1
1
end_operator
begin_operator
push-to-nongoal player-01 stone-01 pos-03-13 pos-03-12 pos-03-11 dir-up
0
5
0 0 12 11
0 1 9 8
0 205 2 1
0 206 1 0
0 207 0 2
1
end_operator
begin_operator
push-to-nongoal player-01 stone-01 pos-03-13 pos-03-14 pos-03-15 dir-down
0
5
0 0 12 13
0 1 11 12
0 207 0 2
0 208 1 0
0 209 2 1
1
end_operator
begin_operator
push-to-nongoal player-01 stone-01 pos-03-14 pos-03-13 pos-03-12 dir-up
0
5
0 0 13 12
0 1 10 9
0 206 2 1
0 207 1 0
0 208 0 2
1
end_operator
begin_operator
push-to-nongoal player-01 stone-01 pos-03-14 pos-03-15 pos-03-16 dir-down
0
5
0 0 13 14
0 1 12 13
0 208 0 2
0 209 1 0
0 210 2 1
1
end_operator
begin_operator
push-to-nongoal player-01 stone-01 pos-03-15 pos-03-14 pos-03-13 dir-up
0
5
0 0 14 13
0 1 11 10
0 207 2 1
0 208 1 0
0 209 0 2
1
end_operator
begin_operator
push-to-nongoal player-01 stone-01 pos-03-16 pos-03-15 pos-03-14 dir-up
0
5
0 0 15 14
0 1 12 11
0 208 2 1
0 209 1 0
0 210 0 2
1
end_operator
0
