Collapsing type 1:order with 50 objects
Reduced 151 -> 102
Domain: openstacks-sequencedstrips-nonadl
Problem: os-sequencedstrips-p50_3
Require: 200ff
Type[4]:
    [0]: object, parent: -1
    [1]: order, parent: 0
    [2]: product, parent: 0
    [3]: count, parent: 0
Obj-by-Type:
    [0]: 0 1 2 3 4 5 6 7 8 9 10 11 12 13 14 15 16 17 18 19 20 21 22 23 24 25 26 27 28 29 30 31 32 33 34 35 36 37 38 39 40 41 42 43 44 45 46 47 48 49 50 51 52 53 54 55 56 57 58 59 60 61 62 63 64 65 66 67 68 69 70 71 72 73 74 75 76 77 78 79 80 81 82 83 84 85 86 87 88 89 90 91 92 93 94 95 96 97 98 99 100 101
    [1]: 50
    [2]: 0 1 2 3 4 5 6 7 8 9 10 11 12 13 14 15 16 17 18 19 20 21 22 23 24 25 26 27 28 29 30 31 32 33 34 35 36 37 38 39 40 41 42 43 44 45 46 47 48 49
    [3]: 51 52 53 54 55 56 57 58 59 60 61 62 63 64 65 66 67 68 69 70 71 72 73 74 75 76 77 78 79 80 81 82 83 84 85 86 87 88 89 90 91 92 93 94 95 96 97 98 99 100 101
Obj[102]:
    [0]: p1, type: 2, is-constant: 1, is-private: 0, owner: -1, is-agent: 0
    [1]: p2, type: 2, is-constant: 1, is-private: 0, owner: -1, is-agent: 0
    [2]: p3, type: 2, is-constant: 1, is-private: 0, owner: -1, is-agent: 0
    [3]: p4, type: 2, is-constant: 1, is-private: 0, owner: -1, is-agent: 0
    [4]: p5, type: 2, is-constant: 1, is-private: 0, owner: -1, is-agent: 0
    [5]: p6, type: 2, is-constant: 1, is-private: 0, owner: -1, is-agent: 0
    [6]: p7, type: 2, is-constant: 1, is-private: 0, owner: -1, is-agent: 0
    [7]: p8, type: 2, is-constant: 1, is-private: 0, owner: -1, is-agent: 0
    [8]: p9, type: 2, is-constant: 1, is-private: 0, owner: -1, is-agent: 0
    [9]: p10, type: 2, is-constant: 1, is-private: 0, owner: -1, is-agent: 0
    [10]: p11, type: 2, is-constant: 1, is-private: 0, owner: -1, is-agent: 0
    [11]: p12, type: 2, is-constant: 1, is-private: 0, owner: -1, is-agent: 0
    [12]: p13, type: 2, is-constant: 1, is-private: 0, owner: -1, is-agent: 0
    [13]: p14, type: 2, is-constant: 1, is-private: 0, owner: -1, is-agent: 0
    [14]: p15, type: 2, is-constant: 1, is-private: 0, owner: -1, is-agent: 0
    [15]: p16, type: 2, is-constant: 1, is-private: 0, owner: -1, is-agent: 0
    [16]: p17, type: 2, is-constant: 1, is-private: 0, owner: -1, is-agent: 0
    [17]: p18, type: 2, is-constant: 1, is-private: 0, owner: -1, is-agent: 0
    [18]: p19, type: 2, is-constant: 1, is-private: 0, owner: -1, is-agent: 0
    [19]: p20, type: 2, is-constant: 1, is-private: 0, owner: -1, is-agent: 0
    [20]: p21, type: 2, is-constant: 1, is-private: 0, owner: -1, is-agent: 0
    [21]: p22, type: 2, is-constant: 1, is-private: 0, owner: -1, is-agent: 0
    [22]: p23, type: 2, is-constant: 1, is-private: 0, owner: -1, is-agent: 0
    [23]: p24, type: 2, is-constant: 1, is-private: 0, owner: -1, is-agent: 0
    [24]: p25, type: 2, is-constant: 1, is-private: 0, owner: -1, is-agent: 0
    [25]: p26, type: 2, is-constant: 1, is-private: 0, owner: -1, is-agent: 0
    [26]: p27, type: 2, is-constant: 1, is-private: 0, owner: -1, is-agent: 0
    [27]: p28, type: 2, is-constant: 1, is-private: 0, owner: -1, is-agent: 0
    [28]: p29, type: 2, is-constant: 1, is-private: 0, owner: -1, is-agent: 0
    [29]: p30, type: 2, is-constant: 1, is-private: 0, owner: -1, is-agent: 0
    [30]: p31, type: 2, is-constant: 1, is-private: 0, owner: -1, is-agent: 0
    [31]: p32, type: 2, is-constant: 1, is-private: 0, owner: -1, is-agent: 0
    [32]: p33, type: 2, is-constant: 1, is-private: 0, owner: -1, is-agent: 0
    [33]: p34, type: 2, is-constant: 1, is-private: 0, owner: -1, is-agent: 0
    [34]: p35, type: 2, is-constant: 1, is-private: 0, owner: -1, is-agent: 0
    [35]: p36, type: 2, is-constant: 1, is-private: 0, owner: -1, is-agent: 0
    [36]: p37, type: 2, is-constant: 1, is-private: 0, owner: -1, is-agent: 0
    [37]: p38, type: 2, is-constant: 1, is-private: 0, owner: -1, is-agent: 0
    [38]: p39, type: 2, is-constant: 1, is-private: 0, owner: -1, is-agent: 0
    [39]: p40, type: 2, is-constant: 1, is-private: 0, owner: -1, is-agent: 0
    [40]: p41, type: 2, is-constant: 1, is-private: 0, owner: -1, is-agent: 0
    [41]: p42, type: 2, is-constant: 1, is-private: 0, owner: -1, is-agent: 0
    [42]: p43, type: 2, is-constant: 1, is-private: 0, owner: -1, is-agent: 0
    [43]: p44, type: 2, is-constant: 1, is-private: 0, owner: -1, is-agent: 0
    [44]: p45, type: 2, is-constant: 1, is-private: 0, owner: -1, is-agent: 0
    [45]: p46, type: 2, is-constant: 1, is-private: 0, owner: -1, is-agent: 0
    [46]: p47, type: 2, is-constant: 1, is-private: 0, owner: -1, is-agent: 0
    [47]: p48, type: 2, is-constant: 1, is-private: 0, owner: -1, is-agent: 0
    [48]: p49, type: 2, is-constant: 1, is-private: 0, owner: -1, is-agent: 0
    [49]: p50, type: 2, is-constant: 1, is-private: 0, owner: -1, is-agent: 0
    [50]: o1, type: 1, is-constant: 1, is-private: 0, owner: -1, is-agent: 0
    [51]: n0, type: 3, is-constant: 0, is-private: 0, owner: -1, is-agent: 0
    [52]: n1, type: 3, is-constant: 0, is-private: 0, owner: -1, is-agent: 0
    [53]: n2, type: 3, is-constant: 0, is-private: 0, owner: -1, is-agent: 0
    [54]: n3, type: 3, is-constant: 0, is-private: 0, owner: -1, is-agent: 0
    [55]: n4, type: 3, is-constant: 0, is-private: 0, owner: -1, is-agent: 0
    [56]: n5, type: 3, is-constant: 0, is-private: 0, owner: -1, is-agent: 0
    [57]: n6, type: 3, is-constant: 0, is-private: 0, owner: -1, is-agent: 0
    [58]: n7, type: 3, is-constant: 0, is-private: 0, owner: -1, is-agent: 0
    [59]: n8, type: 3, is-constant: 0, is-private: 0, owner: -1, is-agent: 0
    [60]: n9, type: 3, is-constant: 0, is-private: 0, owner: -1, is-agent: 0
    [61]: n10, type: 3, is-constant: 0, is-private: 0, owner: -1, is-agent: 0
    [62]: n11, type: 3, is-constant: 0, is-private: 0, owner: -1, is-agent: 0
    [63]: n12, type: 3, is-constant: 0, is-private: 0, owner: -1, is-agent: 0
    [64]: n13, type: 3, is-constant: 0, is-private: 0, owner: -1, is-agent: 0
    [65]: n14, type: 3, is-constant: 0, is-private: 0, owner: -1, is-agent: 0
    [66]: n15, type: 3, is-constant: 0, is-private: 0, owner: -1, is-agent: 0
    [67]: n16, type: 3, is-constant: 0, is-private: 0, owner: -1, is-agent: 0
    [68]: n17, type: 3, is-constant: 0, is-private: 0, owner: -1, is-agent: 0
    [69]: n18, type: 3, is-constant: 0, is-private: 0, owner: -1, is-agent: 0
    [70]: n19, type: 3, is-constant: 0, is-private: 0, owner: -1, is-agent: 0
    [71]: n20, type: 3, is-constant: 0, is-private: 0, owner: -1, is-agent: 0
    [72]: n21, type: 3, is-constant: 0, is-private: 0, owner: -1, is-agent: 0
    [73]: n22, type: 3, is-constant: 0, is-private: 0, owner: -1, is-agent: 0
    [74]: n23, type: 3, is-constant: 0, is-private: 0, owner: -1, is-agent: 0
    [75]: n24, type: 3, is-constant: 0, is-private: 0, owner: -1, is-agent: 0
    [76]: n25, type: 3, is-constant: 0, is-private: 0, owner: -1, is-agent: 0
    [77]: n26, type: 3, is-constant: 0, is-private: 0, owner: -1, is-agent: 0
    [78]: n27, type: 3, is-constant: 0, is-private: 0, owner: -1, is-agent: 0
    [79]: n28, type: 3, is-constant: 0, is-private: 0, owner: -1, is-agent: 0
    [80]: n29, type: 3, is-constant: 0, is-private: 0, owner: -1, is-agent: 0
    [81]: n30, type: 3, is-constant: 0, is-private: 0, owner: -1, is-agent: 0
    [82]: n31, type: 3, is-constant: 0, is-private: 0, owner: -1, is-agent: 0
    [83]: n32, type: 3, is-constant: 0, is-private: 0, owner: -1, is-agent: 0
    [84]: n33, type: 3, is-constant: 0, is-private: 0, owner: -1, is-agent: 0
    [85]: n34, type: 3, is-constant: 0, is-private: 0, owner: -1, is-agent: 0
    [86]: n35, type: 3, is-constant: 0, is-private: 0, owner: -1, is-agent: 0
    [87]: n36, type: 3, is-constant: 0, is-private: 0, owner: -1, is-agent: 0
    [88]: n37, type: 3, is-constant: 0, is-private: 0, owner: -1, is-agent: 0
    [89]: n38, type: 3, is-constant: 0, is-private: 0, owner: -1, is-agent: 0
    [90]: n39, type: 3, is-constant: 0, is-private: 0, owner: -1, is-agent: 0
    [91]: n40, type: 3, is-constant: 0, is-private: 0, owner: -1, is-agent: 0
    [92]: n41, type: 3, is-constant: 0, is-private: 0, owner: -1, is-agent: 0
    [93]: n42, type: 3, is-constant: 0, is-private: 0, owner: -1, is-agent: 0
    [94]: n43, type: 3, is-constant: 0, is-private: 0, owner: -1, is-agent: 0
    [95]: n44, type: 3, is-constant: 0, is-private: 0, owner: -1, is-agent: 0
    [96]: n45, type: 3, is-constant: 0, is-private: 0, owner: -1, is-agent: 0
    [97]: n46, type: 3, is-constant: 0, is-private: 0, owner: -1, is-agent: 0
    [98]: n47, type: 3, is-constant: 0, is-private: 0, owner: -1, is-agent: 0
    [99]: n48, type: 3, is-constant: 0, is-private: 0, owner: -1, is-agent: 0
    [100]: n49, type: 3, is-constant: 0, is-private: 0, owner: -1, is-agent: 0
    [101]: n50, type: 3, is-constant: 0, is-private: 0, owner: -1, is-agent: 0
Predicate[9]:
    =: 0 0 :: is-private: 0, owner-param: -1, read: 0, write: 0
    includes: 1 2 :: is-private: 0, owner-param: -1, read: 0, write: 0
    waiting: 1 :: is-private: 0, owner-param: -1, read: 1, write: 1
    started: 1 :: is-private: 0, owner-param: -1, read: 1, write: 1
    shipped: 1 :: is-private: 0, owner-param: -1, read: 0, write: 1
    made: 2 :: is-private: 0, owner-param: -1, read: 1, write: 1, neg-of: 8
    stacks-avail: 3 :: is-private: 0, owner-param: -1, read: 1, write: 1
    next-count: 3 3 :: is-private: 0, owner-param: -1, read: 1, write: 0
    NOT-made: 2 :: is-private: 0, owner-param: -1, read: 1, write: 1, neg-of: 5
Function[1]:
    total-cost: :: is-private: 0, owner-param: -1, read: 0, write: 0
Action[102]:
    open-new-stack: ?open:3 ?new-open:3
        pre: (and (RW:stacks-avail ?open) (R:next-count ?open ?new-open))
        eff: (and (N:RW:stacks-avail ?open) (RW:stacks-avail ?new-open) (increase (total-cost) 1))
    start-order: ?o:1 ?avail:3 ?new-avail:3
        pre: (and (RW:waiting ?o) (RW:stacks-avail ?avail) (R:next-count ?new-avail ?avail))
        eff: (and (RW:started ?o) (N:RW:stacks-avail ?avail) (RW:stacks-avail ?new-avail))
    make-product-p1: 
        pre: (and (RW:NOT-made p1) (RW:started o1) (RW:started o1) (RW:started o1) (RW:started o1))
        eff: (and (RW:made p1) (N:RW:NOT-made p1))
    make-product-p2: 
        pre: (and (RW:NOT-made p2) (RW:started o1) (RW:started o1) (RW:started o1))
        eff: (and (RW:made p2) (N:RW:NOT-made p2))
    make-product-p3: 
        pre: (and (RW:NOT-made p3) (RW:started o1) (RW:started o1) (RW:started o1) (RW:started o1) (RW:started o1))
        eff: (and (RW:made p3) (N:RW:NOT-made p3))
    make-product-p4: 
        pre: (and (RW:NOT-made p4) (RW:started o1) (RW:started o1) (RW:started o1) (RW:started o1))
        eff: (and (RW:made p4) (N:RW:NOT-made p4))
    make-product-p5: 
        pre: (and (RW:NOT-made p5) (RW:started o1) (RW:started o1) (RW:started o1))
        eff: (and (RW:made p5) (N:RW:NOT-made p5))
    make-product-p6: 
        pre: (and (RW:NOT-made p6) (RW:started o1) (RW:started o1) (RW:started o1) (RW:started o1))
        eff: (and (RW:made p6) (N:RW:NOT-made p6))
    make-product-p7: 
        pre: (and (RW:NOT-made p7) (RW:started o1) (RW:started o1) (RW:started o1) (RW:started o1) (RW:started o1) (RW:started o1))
        eff: (and (RW:made p7) (N:RW:NOT-made p7))
    make-product-p8: 
        pre: (and (RW:NOT-made p8) (RW:started o1) (RW:started o1) (RW:started o1))
        eff: (and (RW:made p8) (N:RW:NOT-made p8))
    make-product-p9: 
        pre: (and (RW:NOT-made p9) (RW:started o1) (RW:started o1) (RW:started o1) (RW:started o1) (RW:started o1) (RW:started o1) (RW:started o1) (RW:started o1) (RW:started o1) (RW:started o1))
        eff: (and (RW:made p9) (N:RW:NOT-made p9))
    make-product-p10: 
        pre: (and (RW:NOT-made p10) (RW:started o1) (RW:started o1) (RW:started o1) (RW:started o1))
        eff: (and (RW:made p10) (N:RW:NOT-made p10))
    make-product-p11: 
        pre: (and (RW:NOT-made p11) (RW:started o1) (RW:started o1) (RW:started o1) (RW:started o1))
        eff: (and (RW:made p11) (N:RW:NOT-made p11))
    make-product-p12: 
        pre: (and (RW:NOT-made p12) (RW:started o1) (RW:started o1) (RW:started o1) (RW:started o1) (RW:started o1) (RW:started o1) (RW:started o1))
        eff: (and (RW:made p12) (N:RW:NOT-made p12))
    make-product-p13: 
        pre: (and (RW:NOT-made p13) (RW:started o1) (RW:started o1))
        eff: (and (RW:made p13) (N:RW:NOT-made p13))
    make-product-p14: 
        pre: (and (RW:NOT-made p14) (RW:started o1) (RW:started o1) (RW:started o1) (RW:started o1))
        eff: (and (RW:made p14) (N:RW:NOT-made p14))
    make-product-p15: 
        pre: (and (RW:NOT-made p15) (RW:started o1) (RW:started o1) (RW:started o1) (RW:started o1) (RW:started o1))
        eff: (and (RW:made p15) (N:RW:NOT-made p15))
    make-product-p16: 
        pre: (and (RW:NOT-made p16) (RW:started o1) (RW:started o1) (RW:started o1) (RW:started o1) (RW:started o1))
        eff: (and (RW:made p16) (N:RW:NOT-made p16))
    make-product-p17: 
        pre: (and (RW:NOT-made p17) (RW:started o1) (RW:started o1) (RW:started o1) (RW:started o1) (RW:started o1) (RW:started o1) (RW:started o1) (RW:started o1) (RW:started o1))
        eff: (and (RW:made p17) (N:RW:NOT-made p17))
    make-product-p18: 
        pre: (and (RW:NOT-made p18) (RW:started o1) (RW:started o1) (RW:started o1) (RW:started o1) (RW:started o1) (RW:started o1) (RW:started o1))
        eff: (and (RW:made p18) (N:RW:NOT-made p18))
    make-product-p19: 
        pre: (and (RW:NOT-made p19) (RW:started o1) (RW:started o1) (RW:started o1) (RW:started o1))
        eff: (and (RW:made p19) (N:RW:NOT-made p19))
    make-product-p20: 
        pre: (and (RW:NOT-made p20) (RW:started o1) (RW:started o1) (RW:started o1) (RW:started o1))
        eff: (and (RW:made p20) (N:RW:NOT-made p20))
    make-product-p21: 
        pre: (and (RW:NOT-made p21) (RW:started o1) (RW:started o1))
        eff: (and (RW:made p21) (N:RW:NOT-made p21))
    make-product-p22: 
        pre: (and (RW:NOT-made p22) (RW:started o1) (RW:started o1) (RW:started o1) (RW:started o1))
        eff: (and (RW:made p22) (N:RW:NOT-made p22))
    make-product-p23: 
        pre: (and (RW:NOT-made p23) (RW:started o1) (RW:started o1) (RW:started o1) (RW:started o1) (RW:started o1) (RW:started o1) (RW:started o1))
        eff: (and (RW:made p23) (N:RW:NOT-made p23))
    make-product-p24: 
        pre: (and (RW:NOT-made p24) (RW:started o1) (RW:started o1))
        eff: (and (RW:made p24) (N:RW:NOT-made p24))
    make-product-p25: 
        pre: (and (RW:NOT-made p25) (RW:started o1) (RW:started o1) (RW:started o1) (RW:started o1) (RW:started o1) (RW:started o1) (RW:started o1) (RW:started o1))
        eff: (and (RW:made p25) (N:RW:NOT-made p25))
    make-product-p26: 
        pre: (and (RW:NOT-made p26) (RW:started o1) (RW:started o1) (RW:started o1) (RW:started o1))
        eff: (and (RW:made p26) (N:RW:NOT-made p26))
    make-product-p27: 
        pre: (and (RW:NOT-made p27) (RW:started o1) (RW:started o1) (RW:started o1) (RW:started o1))
        eff: (and (RW:made p27) (N:RW:NOT-made p27))
    make-product-p28: 
        pre: (and (RW:NOT-made p28) (RW:started o1) (RW:started o1) (RW:started o1) (RW:started o1) (RW:started o1) (RW:started o1))
        eff: (and (RW:made p28) (N:RW:NOT-made p28))
    make-product-p29: 
        pre: (and (RW:NOT-made p29) (RW:started o1))
        eff: (and (RW:made p29) (N:RW:NOT-made p29))
    make-product-p30: 
        pre: (and (RW:NOT-made p30) (RW:started o1) (RW:started o1) (RW:started o1) (RW:started o1))
        eff: (and (RW:made p30) (N:RW:NOT-made p30))
    make-product-p31: 
        pre: (and (RW:NOT-made p31) (RW:started o1) (RW:started o1) (RW:started o1))
        eff: (and (RW:made p31) (N:RW:NOT-made p31))
    make-product-p32: 
        pre: (and (RW:NOT-made p32) (RW:started o1) (RW:started o1) (RW:started o1) (RW:started o1))
        eff: (and (RW:made p32) (N:RW:NOT-made p32))
    make-product-p33: 
        pre: (and (RW:NOT-made p33) (RW:started o1) (RW:started o1))
        eff: (and (RW:made p33) (N:RW:NOT-made p33))
    make-product-p34: 
        pre: (and (RW:NOT-made p34) (RW:started o1) (RW:started o1) (RW:started o1) (RW:started o1) (RW:started o1) (RW:started o1) (RW:started o1))
        eff: (and (RW:made p34) (N:RW:NOT-made p34))
    make-product-p35: 
        pre: (and (RW:NOT-made p35) (RW:started o1) (RW:started o1) (RW:started o1))
        eff: (and (RW:made p35) (N:RW:NOT-made p35))
    make-product-p36: 
        pre: (and (RW:NOT-made p36) (RW:started o1) (RW:started o1) (RW:started o1) (RW:started o1))
        eff: (and (RW:made p36) (N:RW:NOT-made p36))
    make-product-p37: 
        pre: (and (RW:NOT-made p37) (RW:started o1))
        eff: (and (RW:made p37) (N:RW:NOT-made p37))
    make-product-p38: 
        pre: (and (RW:NOT-made p38) (RW:started o1) (RW:started o1) (RW:started o1) (RW:started o1) (RW:started o1))
        eff: (and (RW:made p38) (N:RW:NOT-made p38))
    make-product-p39: 
        pre: (and (RW:NOT-made p39) (RW:started o1) (RW:started o1) (RW:started o1) (RW:started o1) (RW:started o1))
        eff: (and (RW:made p39) (N:RW:NOT-made p39))
    make-product-p40: 
        pre: (and (RW:NOT-made p40) (RW:started o1) (RW:started o1) (RW:started o1) (RW:started o1))
        eff: (and (RW:made p40) (N:RW:NOT-made p40))
    make-product-p41: 
        pre: (and (RW:NOT-made p41) (RW:started o1) (RW:started o1) (RW:started o1) (RW:started o1) (RW:started o1))
        eff: (and (RW:made p41) (N:RW:NOT-made p41))
    make-product-p42: 
        pre: (and (RW:NOT-made p42) (RW:started o1) (RW:started o1) (RW:started o1) (RW:started o1))
        eff: (and (RW:made p42) (N:RW:NOT-made p42))
    make-product-p43: 
        pre: (and (RW:NOT-made p43) (RW:started o1) (RW:started o1) (RW:started o1))
        eff: (and (RW:made p43) (N:RW:NOT-made p43))
    make-product-p44: 
        pre: (and (RW:NOT-made p44) (RW:started o1) (RW:started o1) (RW:started o1) (RW:started o1) (RW:started o1))
        eff: (and (RW:made p44) (N:RW:NOT-made p44))
    make-product-p45: 
        pre: (and (RW:NOT-made p45) (RW:started o1) (RW:started o1) (RW:started o1) (RW:started o1))
        eff: (and (RW:made p45) (N:RW:NOT-made p45))
    make-product-p46: 
        pre: (and (RW:NOT-made p46) (RW:started o1) (RW:started o1) (RW:started o1))
        eff: (and (RW:made p46) (N:RW:NOT-made p46))
    make-product-p47: 
        pre: (and (RW:NOT-made p47) (RW:started o1) (RW:started o1) (RW:started o1) (RW:started o1) (RW:started o1) (RW:started o1))
        eff: (and (RW:made p47) (N:RW:NOT-made p47))
    make-product-p48: 
        pre: (and (RW:NOT-made p48) (RW:started o1) (RW:started o1) (RW:started o1) (RW:started o1))
        eff: (and (RW:made p48) (N:RW:NOT-made p48))
    make-product-p49: 
        pre: (and (RW:NOT-made p49) (RW:started o1))
        eff: (and (RW:made p49) (N:RW:NOT-made p49))
    make-product-p50: 
        pre: (and (RW:NOT-made p50) (RW:started o1) (RW:started o1) (RW:started o1) (RW:started o1) (RW:started o1) (RW:started o1) (RW:started o1) (RW:started o1) (RW:started o1))
        eff: (and (RW:made p50) (N:RW:NOT-made p50))
    ship-order-o1: ?avail:3 ?new-avail:3
        pre: (and (RW:started o1) (RW:made p8) (RW:made p36) (RW:made p39) (RW:made p43) (RW:made p45) (RW:made p50) (RW:stacks-avail ?avail) (R:next-count ?avail ?new-avail))
        eff: (and (N:RW:started o1) (W:shipped o1) (N:RW:stacks-avail ?avail) (RW:stacks-avail ?new-avail))
    ship-order-o2: ?avail:3 ?new-avail:3
        pre: (and (RW:started o1) (RW:made p4) (RW:made p9) (RW:made p48) (RW:stacks-avail ?avail) (R:next-count ?avail ?new-avail))
        eff: (and (N:RW:started o1) (W:shipped o1) (N:RW:stacks-avail ?avail) (RW:stacks-avail ?new-avail))
    ship-order-o3: ?avail:3 ?new-avail:3
        pre: (and (RW:started o1) (RW:made p11) (RW:made p15) (RW:made p18) (RW:made p34) (RW:made p38) (RW:stacks-avail ?avail) (R:next-count ?avail ?new-avail))
        eff: (and (N:RW:started o1) (W:shipped o1) (N:RW:stacks-avail ?avail) (RW:stacks-avail ?new-avail))
    ship-order-o4: ?avail:3 ?new-avail:3
        pre: (and (RW:started o1) (RW:made p9) (RW:made p15) (RW:made p17) (RW:made p18) (RW:made p19) (RW:made p38) (RW:made p46) (RW:stacks-avail ?avail) (R:next-count ?avail ?new-avail))
        eff: (and (N:RW:started o1) (W:shipped o1) (N:RW:stacks-avail ?avail) (RW:stacks-avail ?new-avail))
    ship-order-o5: ?avail:3 ?new-avail:3
        pre: (and (RW:started o1) (RW:made p6) (RW:stacks-avail ?avail) (R:next-count ?avail ?new-avail))
        eff: (and (N:RW:started o1) (W:shipped o1) (N:RW:stacks-avail ?avail) (RW:stacks-avail ?new-avail))
    ship-order-o6: ?avail:3 ?new-avail:3
        pre: (and (RW:started o1) (RW:made p1) (RW:made p10) (RW:made p16) (RW:stacks-avail ?avail) (R:next-count ?avail ?new-avail))
        eff: (and (N:RW:started o1) (W:shipped o1) (N:RW:stacks-avail ?avail) (RW:stacks-avail ?new-avail))
    ship-order-o7: ?avail:3 ?new-avail:3
        pre: (and (RW:started o1) (RW:made p5) (RW:made p13) (RW:made p17) (RW:stacks-avail ?avail) (R:next-count ?avail ?new-avail))
        eff: (and (N:RW:started o1) (W:shipped o1) (N:RW:stacks-avail ?avail) (RW:stacks-avail ?new-avail))
    ship-order-o8: ?avail:3 ?new-avail:3
        pre: (and (RW:started o1) (RW:made p4) (RW:made p10) (RW:made p15) (RW:made p34) (RW:made p48) (RW:stacks-avail ?avail) (R:next-count ?avail ?new-avail))
        eff: (and (N:RW:started o1) (W:shipped o1) (N:RW:stacks-avail ?avail) (RW:stacks-avail ?new-avail))
    ship-order-o9: ?avail:3 ?new-avail:3
        pre: (and (RW:started o1) (RW:made p9) (RW:made p18) (RW:made p22) (RW:made p42) (RW:made p44) (RW:made p50) (RW:stacks-avail ?avail) (R:next-count ?avail ?new-avail))
        eff: (and (N:RW:started o1) (W:shipped o1) (N:RW:stacks-avail ?avail) (RW:stacks-avail ?new-avail))
    ship-order-o10: ?avail:3 ?new-avail:3
        pre: (and (RW:started o1) (RW:made p9) (RW:made p17) (RW:made p25) (RW:made p33) (RW:made p34) (RW:stacks-avail ?avail) (R:next-count ?avail ?new-avail))
        eff: (and (N:RW:started o1) (W:shipped o1) (N:RW:stacks-avail ?avail) (RW:stacks-avail ?new-avail))
    ship-order-o11: ?avail:3 ?new-avail:3
        pre: (and (RW:started o1) (RW:made p5) (RW:made p35) (RW:made p38) (RW:made p48) (RW:stacks-avail ?avail) (R:next-count ?avail ?new-avail))
        eff: (and (N:RW:started o1) (W:shipped o1) (N:RW:stacks-avail ?avail) (RW:stacks-avail ?new-avail))
    ship-order-o12: ?avail:3 ?new-avail:3
        pre: (and (RW:started o1) (RW:made p12) (RW:made p28) (RW:made p32) (RW:stacks-avail ?avail) (R:next-count ?avail ?new-avail))
        eff: (and (N:RW:started o1) (W:shipped o1) (N:RW:stacks-avail ?avail) (RW:stacks-avail ?new-avail))
    ship-order-o13: ?avail:3 ?new-avail:3
        pre: (and (RW:started o1) (RW:made p7) (RW:made p8) (RW:made p16) (RW:made p23) (RW:made p25) (RW:made p28) (RW:stacks-avail ?avail) (R:next-count ?avail ?new-avail))
        eff: (and (N:RW:started o1) (W:shipped o1) (N:RW:stacks-avail ?avail) (RW:stacks-avail ?new-avail))
    ship-order-o14: ?avail:3 ?new-avail:3
        pre: (and (RW:started o1) (RW:made p9) (RW:made p17) (RW:made p18) (RW:made p22) (RW:made p25) (RW:stacks-avail ?avail) (R:next-count ?avail ?new-avail))
        eff: (and (N:RW:started o1) (W:shipped o1) (N:RW:stacks-avail ?avail) (RW:stacks-avail ?new-avail))
    ship-order-o15: ?avail:3 ?new-avail:3
        pre: (and (RW:started o1) (RW:made p3) (RW:made p12) (RW:made p23) (RW:made p28) (RW:made p31) (RW:made p32) (RW:made p50) (RW:stacks-avail ?avail) (R:next-count ?avail ?new-avail))
        eff: (and (N:RW:started o1) (W:shipped o1) (N:RW:stacks-avail ?avail) (RW:stacks-avail ?new-avail))
    ship-order-o16: ?avail:3 ?new-avail:3
        pre: (and (RW:started o1) (RW:made p9) (RW:made p25) (RW:made p30) (RW:made p39) (RW:stacks-avail ?avail) (R:next-count ?avail ?new-avail))
        eff: (and (N:RW:started o1) (W:shipped o1) (N:RW:stacks-avail ?avail) (RW:stacks-avail ?new-avail))
    ship-order-o17: ?avail:3 ?new-avail:3
        pre: (and (RW:started o1) (RW:made p9) (RW:made p18) (RW:made p42) (RW:made p46) (RW:stacks-avail ?avail) (R:next-count ?avail ?new-avail))
        eff: (and (N:RW:started o1) (W:shipped o1) (N:RW:stacks-avail ?avail) (RW:stacks-avail ?new-avail))
    ship-order-o18: ?avail:3 ?new-avail:3
        pre: (and (RW:started o1) (RW:made p11) (RW:made p15) (RW:made p35) (RW:stacks-avail ?avail) (R:next-count ?avail ?new-avail))
        eff: (and (N:RW:started o1) (W:shipped o1) (N:RW:stacks-avail ?avail) (RW:stacks-avail ?new-avail))
    ship-order-o19: ?avail:3 ?new-avail:3
        pre: (and (RW:started o1) (RW:made p20) (RW:made p23) (RW:made p34) (RW:made p39) (RW:made p43) (RW:made p45) (RW:made p47) (RW:stacks-avail ?avail) (R:next-count ?avail ?new-avail))
        eff: (and (N:RW:started o1) (W:shipped o1) (N:RW:stacks-avail ?avail) (RW:stacks-avail ?new-avail))
    ship-order-o20: ?avail:3 ?new-avail:3
        pre: (and (RW:started o1) (RW:made p4) (RW:made p17) (RW:made p31) (RW:made p42) (RW:made p43) (RW:stacks-avail ?avail) (R:next-count ?avail ?new-avail))
        eff: (and (N:RW:started o1) (W:shipped o1) (N:RW:stacks-avail ?avail) (RW:stacks-avail ?new-avail))
    ship-order-o21: ?avail:3 ?new-avail:3
        pre: (and (RW:started o1) (RW:made p36) (RW:made p49) (RW:stacks-avail ?avail) (R:next-count ?avail ?new-avail))
        eff: (and (N:RW:started o1) (W:shipped o1) (N:RW:stacks-avail ?avail) (RW:stacks-avail ?new-avail))
    ship-order-o22: ?avail:3 ?new-avail:3
        pre: (and (RW:started o1) (RW:made p7) (RW:made p17) (RW:made p25) (RW:made p26) (RW:made p38) (RW:stacks-avail ?avail) (R:next-count ?avail ?new-avail))
        eff: (and (N:RW:started o1) (W:shipped o1) (N:RW:stacks-avail ?avail) (RW:stacks-avail ?new-avail))
    ship-order-o23: ?avail:3 ?new-avail:3
        pre: (and (RW:started o1) (RW:made p1) (RW:stacks-avail ?avail) (R:next-count ?avail ?new-avail))
        eff: (and (N:RW:started o1) (W:shipped o1) (N:RW:stacks-avail ?avail) (RW:stacks-avail ?new-avail))
    ship-order-o24: ?avail:3 ?new-avail:3
        pre: (and (RW:started o1) (RW:made p24) (RW:made p41) (RW:made p44) (RW:stacks-avail ?avail) (R:next-count ?avail ?new-avail))
        eff: (and (N:RW:started o1) (W:shipped o1) (N:RW:stacks-avail ?avail) (RW:stacks-avail ?new-avail))
    ship-order-o25: ?avail:3 ?new-avail:3
        pre: (and (RW:started o1) (RW:made p1) (RW:made p10) (RW:made p17) (RW:made p18) (RW:made p21) (RW:made p30) (RW:made p34) (RW:made p40) (RW:stacks-avail ?avail) (R:next-count ?avail ?new-avail))
        eff: (and (N:RW:started o1) (W:shipped o1) (N:RW:stacks-avail ?avail) (RW:stacks-avail ?new-avail))
    ship-order-o26: ?avail:3 ?new-avail:3
        pre: (and (RW:started o1) (RW:made p9) (RW:made p17) (RW:made p19) (RW:made p22) (RW:made p35) (RW:made p48) (RW:stacks-avail ?avail) (R:next-count ?avail ?new-avail))
        eff: (and (N:RW:started o1) (W:shipped o1) (N:RW:stacks-avail ?avail) (RW:stacks-avail ?new-avail))
    ship-order-o27: ?avail:3 ?new-avail:3
        pre: (and (RW:started o1) (RW:made p11) (RW:made p19) (RW:made p40) (RW:made p47) (RW:stacks-avail ?avail) (R:next-count ?avail ?new-avail))
        eff: (and (N:RW:started o1) (W:shipped o1) (N:RW:stacks-avail ?avail) (RW:stacks-avail ?new-avail))
    ship-order-o28: ?avail:3 ?new-avail:3
        pre: (and (RW:started o1) (RW:made p2) (RW:made p6) (RW:made p12) (RW:made p26) (RW:made p50) (RW:stacks-avail ?avail) (R:next-count ?avail ?new-avail))
        eff: (and (N:RW:started o1) (W:shipped o1) (N:RW:stacks-avail ?avail) (RW:stacks-avail ?new-avail))
    ship-order-o29: ?avail:3 ?new-avail:3
        pre: (and (RW:started o1) (RW:made p7) (RW:made p12) (RW:made p16) (RW:made p23) (RW:made p28) (RW:made p41) (RW:made p44) (RW:stacks-avail ?avail) (R:next-count ?avail ?new-avail))
        eff: (and (N:RW:started o1) (W:shipped o1) (N:RW:stacks-avail ?avail) (RW:stacks-avail ?new-avail))
    ship-order-o30: ?avail:3 ?new-avail:3
        pre: (and (RW:started o1) (RW:made p21) (RW:stacks-avail ?avail) (R:next-count ?avail ?new-avail))
        eff: (and (N:RW:started o1) (W:shipped o1) (N:RW:stacks-avail ?avail) (RW:stacks-avail ?new-avail))
    ship-order-o31: ?avail:3 ?new-avail:3
        pre: (and (RW:started o1) (RW:made p14) (RW:made p20) (RW:stacks-avail ?avail) (R:next-count ?avail ?new-avail))
        eff: (and (N:RW:started o1) (W:shipped o1) (N:RW:stacks-avail ?avail) (RW:stacks-avail ?new-avail))
    ship-order-o32: ?avail:3 ?new-avail:3
        pre: (and (RW:started o1) (RW:made p2) (RW:made p3) (RW:made p8) (RW:made p28) (RW:stacks-avail ?avail) (R:next-count ?avail ?new-avail))
        eff: (and (N:RW:started o1) (W:shipped o1) (N:RW:stacks-avail ?avail) (RW:stacks-avail ?new-avail))
    ship-order-o33: ?avail:3 ?new-avail:3
        pre: (and (RW:started o1) (RW:made p14) (RW:made p16) (RW:made p32) (RW:made p34) (RW:made p39) (RW:stacks-avail ?avail) (R:next-count ?avail ?new-avail))
        eff: (and (N:RW:started o1) (W:shipped o1) (N:RW:stacks-avail ?avail) (RW:stacks-avail ?new-avail))
    ship-order-o34: ?avail:3 ?new-avail:3
        pre: (and (RW:started o1) (RW:made p2) (RW:made p3) (RW:made p7) (RW:made p23) (RW:made p27) (RW:made p39) (RW:made p47) (RW:made p50) (RW:stacks-avail ?avail) (R:next-count ?avail ?new-avail))
        eff: (and (N:RW:started o1) (W:shipped o1) (N:RW:stacks-avail ?avail) (RW:stacks-avail ?new-avail))
    ship-order-o35: ?avail:3 ?new-avail:3
        pre: (and (RW:started o1) (RW:made p50) (RW:stacks-avail ?avail) (R:next-count ?avail ?new-avail))
        eff: (and (N:RW:started o1) (W:shipped o1) (N:RW:stacks-avail ?avail) (RW:stacks-avail ?new-avail))
    ship-order-o36: ?avail:3 ?new-avail:3
        pre: (and (RW:started o1) (RW:made p6) (RW:made p14) (RW:made p27) (RW:made p30) (RW:made p36) (RW:made p50) (RW:stacks-avail ?avail) (R:next-count ?avail ?new-avail))
        eff: (and (N:RW:started o1) (W:shipped o1) (N:RW:stacks-avail ?avail) (RW:stacks-avail ?new-avail))
    ship-order-o37: ?avail:3 ?new-avail:3
        pre: (and (RW:started o1) (RW:made p5) (RW:made p9) (RW:made p15) (RW:made p25) (RW:made p38) (RW:stacks-avail ?avail) (R:next-count ?avail ?new-avail))
        eff: (and (N:RW:started o1) (W:shipped o1) (N:RW:stacks-avail ?avail) (RW:stacks-avail ?new-avail))
    ship-order-o38: ?avail:3 ?new-avail:3
        pre: (and (RW:started o1) (RW:made p27) (RW:made p32) (RW:stacks-avail ?avail) (R:next-count ?avail ?new-avail))
        eff: (and (N:RW:started o1) (W:shipped o1) (N:RW:stacks-avail ?avail) (RW:stacks-avail ?new-avail))
    ship-order-o39: ?avail:3 ?new-avail:3
        pre: (and (RW:started o1) (RW:made p4) (RW:made p11) (RW:stacks-avail ?avail) (R:next-count ?avail ?new-avail))
        eff: (and (N:RW:started o1) (W:shipped o1) (N:RW:stacks-avail ?avail) (RW:stacks-avail ?new-avail))
    ship-order-o40: ?avail:3 ?new-avail:3
        pre: (and (RW:started o1) (RW:made p17) (RW:made p20) (RW:made p22) (RW:made p25) (RW:made p41) (RW:made p42) (RW:stacks-avail ?avail) (R:next-count ?avail ?new-avail))
        eff: (and (N:RW:started o1) (W:shipped o1) (N:RW:stacks-avail ?avail) (RW:stacks-avail ?new-avail))
    ship-order-o41: ?avail:3 ?new-avail:3
        pre: (and (RW:started o1) (RW:made p12) (RW:made p23) (RW:made p29) (RW:made p47) (RW:stacks-avail ?avail) (R:next-count ?avail ?new-avail))
        eff: (and (N:RW:started o1) (W:shipped o1) (N:RW:stacks-avail ?avail) (RW:stacks-avail ?new-avail))
    ship-order-o42: ?avail:3 ?new-avail:3
        pre: (and (RW:started o1) (RW:made p1) (RW:made p19) (RW:made p25) (RW:made p33) (RW:made p40) (RW:made p46) (RW:stacks-avail ?avail) (R:next-count ?avail ?new-avail))
        eff: (and (N:RW:started o1) (W:shipped o1) (N:RW:stacks-avail ?avail) (RW:stacks-avail ?new-avail))
    ship-order-o43: ?avail:3 ?new-avail:3
        pre: (and (RW:started o1) (RW:made p3) (RW:made p16) (RW:made p26) (RW:made p30) (RW:made p45) (RW:stacks-avail ?avail) (R:next-count ?avail ?new-avail))
        eff: (and (N:RW:started o1) (W:shipped o1) (N:RW:stacks-avail ?avail) (RW:stacks-avail ?new-avail))
    ship-order-o44: ?avail:3 ?new-avail:3
        pre: (and (RW:started o1) (RW:made p3) (RW:made p37) (RW:made p41) (RW:stacks-avail ?avail) (R:next-count ?avail ?new-avail))
        eff: (and (N:RW:started o1) (W:shipped o1) (N:RW:stacks-avail ?avail) (RW:stacks-avail ?new-avail))
    ship-order-o45: ?avail:3 ?new-avail:3
        pre: (and (RW:started o1) (RW:made p7) (RW:made p13) (RW:made p28) (RW:made p34) (RW:stacks-avail ?avail) (R:next-count ?avail ?new-avail))
        eff: (and (N:RW:started o1) (W:shipped o1) (N:RW:stacks-avail ?avail) (RW:stacks-avail ?new-avail))
    ship-order-o46: ?avail:3 ?new-avail:3
        pre: (and (RW:started o1) (RW:made p9) (RW:made p10) (RW:made p24) (RW:made p41) (RW:made p50) (RW:stacks-avail ?avail) (R:next-count ?avail ?new-avail))
        eff: (and (N:RW:started o1) (W:shipped o1) (N:RW:stacks-avail ?avail) (RW:stacks-avail ?new-avail))
    ship-order-o47: ?avail:3 ?new-avail:3
        pre: (and (RW:started o1) (RW:made p6) (RW:made p12) (RW:made p23) (RW:made p36) (RW:made p44) (RW:made p45) (RW:made p47) (RW:made p50) (RW:stacks-avail ?avail) (R:next-count ?avail ?new-avail))
        eff: (and (N:RW:started o1) (W:shipped o1) (N:RW:stacks-avail ?avail) (RW:stacks-avail ?new-avail))
    ship-order-o48: ?avail:3 ?new-avail:3
        pre: (and (RW:started o1) (RW:made p7) (RW:made p18) (RW:stacks-avail ?avail) (R:next-count ?avail ?new-avail))
        eff: (and (N:RW:started o1) (W:shipped o1) (N:RW:stacks-avail ?avail) (RW:stacks-avail ?new-avail))
    ship-order-o49: ?avail:3 ?new-avail:3
        pre: (and (RW:started o1) (RW:made p12) (RW:made p14) (RW:made p27) (RW:made p47) (RW:stacks-avail ?avail) (R:next-count ?avail ?new-avail))
        eff: (and (N:RW:started o1) (W:shipped o1) (N:RW:stacks-avail ?avail) (RW:stacks-avail ?new-avail))
    ship-order-o50: ?avail:3 ?new-avail:3
        pre: (and (RW:started o1) (RW:made p20) (RW:made p26) (RW:made p31) (RW:made p40) (RW:made p44) (RW:stacks-avail ?avail) (R:next-count ?avail ?new-avail))
        eff: (and (N:RW:started o1) (W:shipped o1) (N:RW:stacks-avail ?avail) (RW:stacks-avail ?new-avail))
Init[372]:
  S:(next-count n0 n1)
  S:(next-count n1 n2)
  S:(next-count n2 n3)
  S:(next-count n3 n4)
  S:(next-count n4 n5)
  S:(next-count n5 n6)
  S:(next-count n6 n7)
  S:(next-count n7 n8)
  S:(next-count n8 n9)
  S:(next-count n9 n10)
  S:(next-count n10 n11)
  S:(next-count n11 n12)
  S:(next-count n12 n13)
  S:(next-count n13 n14)
  S:(next-count n14 n15)
  S:(next-count n15 n16)
  S:(next-count n16 n17)
  S:(next-count n17 n18)
  S:(next-count n18 n19)
  S:(next-count n19 n20)
  S:(next-count n20 n21)
  S:(next-count n21 n22)
  S:(next-count n22 n23)
  S:(next-count n23 n24)
  S:(next-count n24 n25)
  S:(next-count n25 n26)
  S:(next-count n26 n27)
  S:(next-count n27 n28)
  S:(next-count n28 n29)
  S:(next-count n29 n30)
  S:(next-count n30 n31)
  S:(next-count n31 n32)
  S:(next-count n32 n33)
  S:(next-count n33 n34)
  S:(next-count n34 n35)
  S:(next-count n35 n36)
  S:(next-count n36 n37)
  S:(next-count n37 n38)
  S:(next-count n38 n39)
  S:(next-count n39 n40)
  S:(next-count n40 n41)
  S:(next-count n41 n42)
  S:(next-count n42 n43)
  S:(next-count n43 n44)
  S:(next-count n44 n45)
  S:(next-count n45 n46)
  S:(next-count n46 n47)
  S:(next-count n47 n48)
  S:(next-count n48 n49)
  S:(next-count n49 n50)
  (stacks-avail n0)
  (waiting o1)
  S:(includes o1 p8)
  S:(includes o1 p36)
  S:(includes o1 p39)
  S:(includes o1 p43)
  S:(includes o1 p45)
  S:(includes o1 p50)
  (waiting o1)
  S:(includes o1 p4)
  S:(includes o1 p9)
  S:(includes o1 p48)
  (waiting o1)
  S:(includes o1 p11)
  S:(includes o1 p15)
  S:(includes o1 p18)
  S:(includes o1 p34)
  S:(includes o1 p38)
  (waiting o1)
  S:(includes o1 p9)
  S:(includes o1 p15)
  S:(includes o1 p17)
  S:(includes o1 p18)
  S:(includes o1 p19)
  S:(includes o1 p38)
  S:(includes o1 p46)
  (waiting o1)
  S:(includes o1 p6)
  (waiting o1)
  S:(includes o1 p1)
  S:(includes o1 p10)
  S:(includes o1 p16)
  (waiting o1)
  S:(includes o1 p5)
  S:(includes o1 p13)
  S:(includes o1 p17)
  (waiting o1)
  S:(includes o1 p4)
  S:(includes o1 p10)
  S:(includes o1 p15)
  S:(includes o1 p34)
  S:(includes o1 p48)
  (waiting o1)
  S:(includes o1 p9)
  S:(includes o1 p18)
  S:(includes o1 p22)
  S:(includes o1 p42)
  S:(includes o1 p44)
  S:(includes o1 p50)
  (waiting o1)
  S:(includes o1 p9)
  S:(includes o1 p17)
  S:(includes o1 p25)
  S:(includes o1 p33)
  S:(includes o1 p34)
  (waiting o1)
  S:(includes o1 p5)
  S:(includes o1 p35)
  S:(includes o1 p38)
  S:(includes o1 p48)
  (waiting o1)
  S:(includes o1 p12)
  S:(includes o1 p28)
  S:(includes o1 p32)
  (waiting o1)
  S:(includes o1 p7)
  S:(includes o1 p8)
  S:(includes o1 p16)
  S:(includes o1 p23)
  S:(includes o1 p25)
  S:(includes o1 p28)
  (waiting o1)
  S:(includes o1 p9)
  S:(includes o1 p17)
  S:(includes o1 p18)
  S:(includes o1 p22)
  S:(includes o1 p25)
  (waiting o1)
  S:(includes o1 p3)
  S:(includes o1 p12)
  S:(includes o1 p23)
  S:(includes o1 p28)
  S:(includes o1 p31)
  S:(includes o1 p32)
  S:(includes o1 p50)
  (waiting o1)
  S:(includes o1 p9)
  S:(includes o1 p25)
  S:(includes o1 p30)
  S:(includes o1 p39)
  (waiting o1)
  S:(includes o1 p9)
  S:(includes o1 p18)
  S:(includes o1 p42)
  S:(includes o1 p46)
  (waiting o1)
  S:(includes o1 p11)
  S:(includes o1 p15)
  S:(includes o1 p35)
  (waiting o1)
  S:(includes o1 p20)
  S:(includes o1 p23)
  S:(includes o1 p34)
  S:(includes o1 p39)
  S:(includes o1 p43)
  S:(includes o1 p45)
  S:(includes o1 p47)
  (waiting o1)
  S:(includes o1 p4)
  S:(includes o1 p17)
  S:(includes o1 p31)
  S:(includes o1 p42)
  S:(includes o1 p43)
  (waiting o1)
  S:(includes o1 p36)
  S:(includes o1 p49)
  (waiting o1)
  S:(includes o1 p7)
  S:(includes o1 p17)
  S:(includes o1 p25)
  S:(includes o1 p26)
  S:(includes o1 p38)
  (waiting o1)
  S:(includes o1 p1)
  (waiting o1)
  S:(includes o1 p24)
  S:(includes o1 p41)
  S:(includes o1 p44)
  (waiting o1)
  S:(includes o1 p1)
  S:(includes o1 p10)
  S:(includes o1 p17)
  S:(includes o1 p18)
  S:(includes o1 p21)
  S:(includes o1 p30)
  S:(includes o1 p34)
  S:(includes o1 p40)
  (waiting o1)
  S:(includes o1 p9)
  S:(includes o1 p17)
  S:(includes o1 p19)
  S:(includes o1 p22)
  S:(includes o1 p35)
  S:(includes o1 p48)
  (waiting o1)
  S:(includes o1 p11)
  S:(includes o1 p19)
  S:(includes o1 p40)
  S:(includes o1 p47)
  (waiting o1)
  S:(includes o1 p2)
  S:(includes o1 p6)
  S:(includes o1 p12)
  S:(includes o1 p26)
  S:(includes o1 p50)
  (waiting o1)
  S:(includes o1 p7)
  S:(includes o1 p12)
  S:(includes o1 p16)
  S:(includes o1 p23)
  S:(includes o1 p28)
  S:(includes o1 p41)
  S:(includes o1 p44)
  (waiting o1)
  S:(includes o1 p21)
  (waiting o1)
  S:(includes o1 p14)
  S:(includes o1 p20)
  (waiting o1)
  S:(includes o1 p2)
  S:(includes o1 p3)
  S:(includes o1 p8)
  S:(includes o1 p28)
  (waiting o1)
  S:(includes o1 p14)
  S:(includes o1 p16)
  S:(includes o1 p32)
  S:(includes o1 p34)
  S:(includes o1 p39)
  (waiting o1)
  S:(includes o1 p2)
  S:(includes o1 p3)
  S:(includes o1 p7)
  S:(includes o1 p23)
  S:(includes o1 p27)
  S:(includes o1 p39)
  S:(includes o1 p47)
  S:(includes o1 p50)
  (waiting o1)
  S:(includes o1 p50)
  (waiting o1)
  S:(includes o1 p6)
  S:(includes o1 p14)
  S:(includes o1 p27)
  S:(includes o1 p30)
  S:(includes o1 p36)
  S:(includes o1 p50)
  (waiting o1)
  S:(includes o1 p5)
  S:(includes o1 p9)
  S:(includes o1 p15)
  S:(includes o1 p25)
  S:(includes o1 p38)
  (waiting o1)
  S:(includes o1 p27)
  S:(includes o1 p32)
  (waiting o1)
  S:(includes o1 p4)
  S:(includes o1 p11)
  (waiting o1)
  S:(includes o1 p17)
  S:(includes o1 p20)
  S:(includes o1 p22)
  S:(includes o1 p25)
  S:(includes o1 p41)
  S:(includes o1 p42)
  (waiting o1)
  S:(includes o1 p12)
  S:(includes o1 p23)
  S:(includes o1 p29)
  S:(includes o1 p47)
  (waiting o1)
  S:(includes o1 p1)
  S:(includes o1 p19)
  S:(includes o1 p25)
  S:(includes o1 p33)
  S:(includes o1 p40)
  S:(includes o1 p46)
  (waiting o1)
  S:(includes o1 p3)
  S:(includes o1 p16)
  S:(includes o1 p26)
  S:(includes o1 p30)
  S:(includes o1 p45)
  (waiting o1)
  S:(includes o1 p3)
  S:(includes o1 p37)
  S:(includes o1 p41)
  (waiting o1)
  S:(includes o1 p7)
  S:(includes o1 p13)
  S:(includes o1 p28)
  S:(includes o1 p34)
  (waiting o1)
  S:(includes o1 p9)
  S:(includes o1 p10)
  S:(includes o1 p24)
  S:(includes o1 p41)
  S:(includes o1 p50)
  (waiting o1)
  S:(includes o1 p6)
  S:(includes o1 p12)
  S:(includes o1 p23)
  S:(includes o1 p36)
  S:(includes o1 p44)
  S:(includes o1 p45)
  S:(includes o1 p47)
  S:(includes o1 p50)
  (waiting o1)
  S:(includes o1 p7)
  S:(includes o1 p18)
  (waiting o1)
  S:(includes o1 p12)
  S:(includes o1 p14)
  S:(includes o1 p27)
  S:(includes o1 p47)
  (waiting o1)
  S:(includes o1 p20)
  S:(includes o1 p26)
  S:(includes o1 p31)
  S:(includes o1 p40)
  S:(includes o1 p44)
  (NOT-made p1)
  (NOT-made p2)
  (NOT-made p3)
  (NOT-made p4)
  (NOT-made p5)
  (NOT-made p6)
  (NOT-made p7)
  (NOT-made p8)
  (NOT-made p9)
  (NOT-made p10)
  (NOT-made p11)
  (NOT-made p12)
  (NOT-made p13)
  (NOT-made p14)
  (NOT-made p15)
  (NOT-made p16)
  (NOT-made p17)
  (NOT-made p18)
  (NOT-made p19)
  (NOT-made p20)
  (NOT-made p21)
  (NOT-made p22)
  (NOT-made p23)
  (NOT-made p24)
  (NOT-made p25)
  (NOT-made p26)
  (NOT-made p27)
  (NOT-made p28)
  (NOT-made p29)
  (NOT-made p30)
  (NOT-made p31)
  (NOT-made p32)
  (NOT-made p33)
  (NOT-made p34)
  (NOT-made p35)
  (NOT-made p36)
  (NOT-made p37)
  (NOT-made p38)
  (NOT-made p39)
  (NOT-made p40)
  (NOT-made p41)
  (NOT-made p42)
  (NOT-made p43)
  (NOT-made p44)
  (NOT-made p45)
  (NOT-made p46)
  (NOT-made p47)
  (NOT-made p48)
  (NOT-made p49)
  (NOT-made p50)
Init[1]:
  (= (total-cost) 0)
Goal: (and (W:shipped o1) (W:shipped o1) (W:shipped o1) (W:shipped o1) (W:shipped o1) (W:shipped o1) (W:shipped o1) (W:shipped o1) (W:shipped o1) (W:shipped o1) (W:shipped o1) (W:shipped o1) (W:shipped o1) (W:shipped o1) (W:shipped o1) (W:shipped o1) (W:shipped o1) (W:shipped o1) (W:shipped o1) (W:shipped o1) (W:shipped o1) (W:shipped o1) (W:shipped o1) (W:shipped o1) (W:shipped o1) (W:shipped o1) (W:shipped o1) (W:shipped o1) (W:shipped o1) (W:shipped o1) (W:shipped o1) (W:shipped o1) (W:shipped o1) (W:shipped o1) (W:shipped o1) (W:shipped o1) (W:shipped o1) (W:shipped o1) (W:shipped o1) (W:shipped o1) (W:shipped o1) (W:shipped o1) (W:shipped o1) (W:shipped o1) (W:shipped o1) (W:shipped o1) (W:shipped o1) (W:shipped o1) (W:shipped o1) (W:shipped o1))
Metric: 1
