Symmetric facts:
 (at-robot loc-x0-y1) (at-robot loc-x1-y0)
 (visited loc-x0-y1) (visited loc-x1-y0)
Symmetric ops:
 (move loc-x0-y0 loc-x0-y1) (move loc-x0-y0 loc-x1-y0)
 (move loc-x0-y1 loc-x0-y0) (move loc-x1-y0 loc-x0-y0)
 (move loc-x0-y1 loc-x1-y1) (move loc-x1-y0 loc-x1-y1)
 (move loc-x1-y1 loc-x0-y1) (move loc-x1-y1 loc-x1-y0)
