Init: (NOT-token t1961) (NOT-token t1963) (NOT-token t1964) (NOT-token t1965) (NOT-token t1966) (NOT-token t1967) (NOT-token t1968) (NOT-token t1969) (NOT-token t1972) (NOT-token t1973) (NOT-token t1974) (NOT-token t1975) (NOT-token t1976) (NOT-token t1977) (NOT-token t1978) (NOT-token t1980) (NOT-token t1984) (NOT-token t1985) (NOT-token t1986) (NOT-token t1987) (NOT-token t1988) (NOT-token t1990) (NOT-token t1994) (NOT-token t1995) (NOT-token t1996) (NOT-token t1997) (NOT-token t2002) (NOT-token t2004) (NOT-token t2006) (NOT-token t2007) (NOT-token t2008) (NOT-token t2009) (NOT-token t2010) (NOT-token t2011) (NOT-token t2018) (NOT-token t2019) (NOT-token t2020) (NOT-token t2022) (NOT-token t2023) (NOT-token t2025) (NOT-token t2026) (NOT-token t2027) (NOT-token t2030) (NOT-token t2031) (NOT-token t2032) (NOT-token t2033) (NOT-token t2040) (NOT-token t2041) (NOT-token t2042) (NOT-token t2043) (NOT-token t2044) (NOT-token t2045) (NOT-token t2052) (NOT-token t2053) (NOT-token t2056) (NOT-token t2057) (NOT-token t2058) (NOT-token t2059) (NOT-token t2060) (NOT-token t2061) (NOT-token t2062) (NOT-token t2063) (NOT-token t2064) (NOT-token t2065) (NOT-token t2066) (NOT-token t2067) (NOT-token t2068) (NOT-token t2069) (NOT-token t2070) (NOT-token t2071) (NOT-token t2072) (NOT-token t2073) (NOT-token t2074) (NOT-token t2075) (NOT-token t2076) (NOT-token t2077) (NOT-token t2078) (NOT-token t2079) (NOT-token t2080) (NOT-token t2081) (NOT-token t2082) (NOT-token t2083) (NOT-token t2084) (NOT-token t2085) (NOT-token t2086) (NOT-token t2087) (NOT-token t2088) (NOT-token t2089) (NOT-token t2090) (NOT-token t2091) (NOT-token t2092) (NOT-token t2093) (NOT-token t2094) (NOT-token t2095) (NOT-token t2096) (NOT-token t2097) (NOT-token t2098) (NOT-token t2099) (NOT-token t2100) (NOT-token t2101) (NOT-token t2102) (NOT-token t2103) (NOT-token t2104) (NOT-token t2105) (NOT-token t2106) (NOT-token t2107) (NOT-token t2108) (NOT-token t2109) (NOT-token t2110) (NOT-token t2111) (NOT-token t2112) (NOT-token t2113) (NOT-token t2114) (NOT-token t2115) (NOT-token t2116) (NOT-token t2117) (NOT-token t2118) (NOT-token t2119) (NOT-token t2120) (NOT-token t2121) (NOT-token t2122) (NOT-token t2123) (NOT-token t2124) (NOT-token t2125) (NOT-token t2126) (NOT-token t2127) (NOT-token t2128) (NOT-token t2129) (NOT-token t2130) (NOT-token t2131) (NOT-token t2132) (NOT-token t2133) (NOT-token t2134) (NOT-token t2135) (NOT-token t2136) (NOT-token t2137) (NOT-token t2138) (NOT-token t2139) (NOT-token t2140) (NOT-token t2141) (NOT-token t2142) (NOT-token t2143) (NOT-token t2144) (NOT-token t2145) (NOT-token t2146) (NOT-token t2147) (NOT-token t2148) (NOT-token t2149) (NOT-token t2150) (NOT-token t2151) (NOT-token t2152) (NOT-token t2153) (NOT-token t2154) (NOT-token t2155) (NOT-token t2156) (NOT-token t2157) (NOT-token t2158) (NOT-token t2159) (NOT-token t2160) (NOT-token t2161) (NOT-token t2162) (NOT-token t2163) (NOT-token t2164) (NOT-token t2165) (NOT-token t2166) (NOT-token t2167) (NOT-token t2168) (NOT-token t2169) (NOT-token t2170) (NOT-token t2171) (NOT-token t2172) (NOT-token t2173) (NOT-token t2174) (NOT-token t2175) (NOT-token t2176) (NOT-token t2177) (NOT-token t2178) (NOT-token t2179) (NOT-token t2180) (NOT-token t2181) (NOT-token t2182) (NOT-token t2183) (NOT-token t2184) (NOT-token t2185) (NOT-token t2186) (NOT-token t2187) (NOT-token t2188) (NOT-token t2189) (NOT-token t2190) (NOT-token t2191) (NOT-token t2192) (NOT-token t2193) (NOT-token t2194) (NOT-token t2195) (NOT-token t2196) (NOT-token t2197) (NOT-token t2198) (NOT-token t2199) (NOT-token t2200) (NOT-token t2201) (NOT-token t2202) (NOT-token t2203) (NOT-token t2204) (NOT-token t2205) (NOT-token t2206) (NOT-token t2207) (NOT-token t2208) (NOT-token t2209) (NOT-token t2210) (NOT-token t2211) (NOT-token t2212) (NOT-token t2213) (NOT-token t2214) (NOT-token t2215) (NOT-token t2216) (NOT-token t2217) (NOT-token t2218) (NOT-token t2219) (NOT-token t2220) (NOT-token t2221) (NOT-token t2222) (NOT-token t2223) (NOT-token t2224) (NOT-token t2225) (NOT-token t2226) (NOT-token t2227) (NOT-token t2228) (NOT-token t2229) (NOT-token t2230) (NOT-token t2231) (NOT-token t2232) (NOT-token t2233) (NOT-token t2234) (NOT-token t2235) (NOT-token t2236) (NOT-token t2237) (NOT-token t2238) (NOT-token t2239) (NOT-token t2240) (NOT-token t2241) (NOT-token t2242) (NOT-token t2243) (NOT-token t2244) (NOT-token t2245) (NOT-token t2246) (NOT-token t2247) (NOT-token t2248) (NOT-token t2249) (NOT-token t2250) (NOT-token t2251) (NOT-token t2252) (NOT-token t2253) (NOT-token t2254) (NOT-token t2255) (NOT-token t2256) (NOT-token t2257) (NOT-token t2258) (NOT-token t2259) (NOT-token t2260) (NOT-token t2261) (NOT-token t2262) (NOT-token t2263) (NOT-token t2264) (NOT-token t2265) (NOT-token t2266) (allowed) (token t1741)
Unreachable facts [126/660]:
  (tracepointer ev1)
  (tracepointer ev10)
  (tracepointer ev100)
  (tracepointer ev101)
  (tracepointer ev102)
  (tracepointer ev103)
  (tracepointer ev104)
  (tracepointer ev105)
  (tracepointer ev106)
  (tracepointer ev107)
  (tracepointer ev108)
  (tracepointer ev109)
  (tracepointer ev11)
  (tracepointer ev110)
  (tracepointer ev111)
  (tracepointer ev112)
  (tracepointer ev113)
  (tracepointer ev114)
  (tracepointer ev115)
  (tracepointer ev116)
  (tracepointer ev117)
  (tracepointer ev118)
  (tracepointer ev119)
  (tracepointer ev12)
  (tracepointer ev120)
  (tracepointer ev121)
  (tracepointer ev122)
  (tracepointer ev123)
  (tracepointer ev124)
  (tracepointer ev125)
  (tracepointer ev13)
  (tracepointer ev14)
  (tracepointer ev15)
  (tracepointer ev16)
  (tracepointer ev17)
  (tracepointer ev18)
  (tracepointer ev19)
  (tracepointer ev2)
  (tracepointer ev20)
  (tracepointer ev21)
  (tracepointer ev22)
  (tracepointer ev23)
  (tracepointer ev24)
  (tracepointer ev25)
  (tracepointer ev26)
  (tracepointer ev27)
  (tracepointer ev28)
  (tracepointer ev29)
  (tracepointer ev3)
  (tracepointer ev30)
  (tracepointer ev31)
  (tracepointer ev32)
  (tracepointer ev33)
  (tracepointer ev34)
  (tracepointer ev35)
  (tracepointer ev36)
  (tracepointer ev37)
  (tracepointer ev38)
  (tracepointer ev39)
  (tracepointer ev4)
  (tracepointer ev40)
  (tracepointer ev41)
  (tracepointer ev42)
  (tracepointer ev43)
  (tracepointer ev44)
  (tracepointer ev45)
  (tracepointer ev46)
  (tracepointer ev47)
  (tracepointer ev48)
  (tracepointer ev49)
  (tracepointer ev5)
  (tracepointer ev50)
  (tracepointer ev51)
  (tracepointer ev52)
  (tracepointer ev53)
  (tracepointer ev54)
  (tracepointer ev55)
  (tracepointer ev56)
  (tracepointer ev57)
  (tracepointer ev58)
  (tracepointer ev59)
  (tracepointer ev6)
  (tracepointer ev60)
  (tracepointer ev61)
  (tracepointer ev62)
  (tracepointer ev63)
  (tracepointer ev64)
  (tracepointer ev65)
  (tracepointer ev66)
  (tracepointer ev67)
  (tracepointer ev68)
  (tracepointer ev69)
  (tracepointer ev7)
  (tracepointer ev70)
  (tracepointer ev71)
  (tracepointer ev72)
  (tracepointer ev73)
  (tracepointer ev74)
  (tracepointer ev75)
  (tracepointer ev76)
  (tracepointer ev77)
  (tracepointer ev78)
  (tracepointer ev79)
  (tracepointer ev8)
  (tracepointer ev80)
  (tracepointer ev81)
  (tracepointer ev82)
  (tracepointer ev83)
  (tracepointer ev84)
  (tracepointer ev85)
  (tracepointer ev86)
  (tracepointer ev87)
  (tracepointer ev88)
  (tracepointer ev89)
  (tracepointer ev9)
  (tracepointer ev90)
  (tracepointer ev91)
  (tracepointer ev92)
  (tracepointer ev93)
  (tracepointer ev94)
  (tracepointer ev95)
  (tracepointer ev96)
  (tracepointer ev97)
  (tracepointer ev98)
  (tracepointer ev99)
  (tracepointer evend)
Unreachable ops [250/497]:
  (moveinthelog-activitya-ev1-ev2)
  (moveinthelog-activityb-ev12-ev13)
  (moveinthelog-activitybd-ev13-ev14)
  (moveinthelog-activitybe-ev42-ev43)
  (moveinthelog-activitybf-ev14-ev15)
  (moveinthelog-activitybg-ev27-ev28)
  (moveinthelog-activitybh-ev16-ev17)
  (moveinthelog-activitybh-ev25-ev26)
  (moveinthelog-activitybi-ev20-ev21)
  (moveinthelog-activitybj-ev31-ev32)
  (moveinthelog-activitybk-ev33-ev34)
  (moveinthelog-activitybl-ev34-ev35)
  (moveinthelog-activitybm-ev35-ev36)
  (moveinthelog-activitybn-ev36-ev37)
  (moveinthelog-activitybo-ev39-ev40)
  (moveinthelog-activitybp-ev38-ev39)
  (moveinthelog-activitybq-ev40-ev41)
  (moveinthelog-activitybr-ev15-ev16)
  (moveinthelog-activitybs-ev19-ev20)
  (moveinthelog-activitybt-ev23-ev24)
  (moveinthelog-activitybu-ev26-ev27)
  (moveinthelog-activitybv-ev32-ev33)
  (moveinthelog-activitybw-ev30-ev31)
  (moveinthelog-activityby-ev18-ev19)
  (moveinthelog-activitybz-ev37-ev38)
  (moveinthelog-activityc-ev3-ev4)
  (moveinthelog-activitycx-ev17-ev18)
  (moveinthelog-activitycy-ev29-ev30)
  (moveinthelog-activitycz-ev22-ev23)
  (moveinthelog-activityd-ev11-ev12)
  (moveinthelog-activityda-ev28-ev29)
  (moveinthelog-activitydb-ev21-ev22)
  (moveinthelog-activitydc-ev24-ev25)
  (moveinthelog-activitydd-ev41-ev42)
  (moveinthelog-activityde-ev84-ev85)
  (moveinthelog-activitydf-ev46-ev47)
  (moveinthelog-activitydg-ev81-ev82)
  (moveinthelog-activitydh-ev52-ev53)
  (moveinthelog-activitydi-ev61-ev62)
  (moveinthelog-activitydj-ev66-ev67)
  (moveinthelog-activitydk-ev50-ev51)
  (moveinthelog-activitydl-ev65-ev66)
  (moveinthelog-activitydm-ev59-ev60)
  (moveinthelog-activitydn-ev55-ev56)
  (moveinthelog-activitydo-ev57-ev58)
  (moveinthelog-activitydp-ev58-ev59)
  (moveinthelog-activitydq-ev70-ev71)
  (moveinthelog-activitydr-ev79-ev80)
  (moveinthelog-activitydt-ev76-ev77)
  (moveinthelog-activitydw-ev51-ev52)
  (moveinthelog-activitydx-ev67-ev68)
  (moveinthelog-activitydy-ev60-ev61)
  (moveinthelog-activityea-ev72-ev73)
  (moveinthelog-activityeb-ev44-ev45)
  (moveinthelog-activityec-ev73-ev74)
  (moveinthelog-activityed-ev47-ev48)
  (moveinthelog-activityee-ev69-ev70)
  (moveinthelog-activityef-ev56-ev57)
  (moveinthelog-activityeg-ev64-ev65)
  (moveinthelog-activityeo-ev45-ev46)
  (moveinthelog-activityep-ev77-ev78)
  (moveinthelog-activityeq-ev49-ev50)
  (moveinthelog-activityer-ev63-ev64)
  (moveinthelog-activityes-ev54-ev55)
  (moveinthelog-activityev-ev71-ev72)
  (moveinthelog-activityew-ev75-ev76)
  (moveinthelog-activityey-ev43-ev44)
  (moveinthelog-activityez-ev48-ev49)
  (moveinthelog-activityfa-ev53-ev54)
  (moveinthelog-activityfb-ev68-ev69)
  (moveinthelog-activityfc-ev62-ev63)
  (moveinthelog-activityfe-ev74-ev75)
  (moveinthelog-activityff-ev82-ev83)
  (moveinthelog-activityfl-ev78-ev79)
  (moveinthelog-activityfm-ev83-ev84)
  (moveinthelog-activityfn-ev80-ev81)
  (moveinthelog-activityfp-ev85-ev86)
  (moveinthelog-activityfq-ev124-ev125)
  (moveinthelog-activityfr-ev87-ev88)
  (moveinthelog-activityfs-ev115-ev116)
  (moveinthelog-activityft-ev91-ev92)
  (moveinthelog-activityfu-ev112-ev113)
  (moveinthelog-activityfx-ev96-ev97)
  (moveinthelog-activityfy-ev108-ev109)
  (moveinthelog-activityfz-ev103-ev104)
  (moveinthelog-activityge-ev88-ev89)
  (moveinthelog-activitygf-ev107-ev108)
  (moveinthelog-activitygg-ev93-ev94)
  (moveinthelog-activitygh-ev94-ev95)
  (moveinthelog-activitygi-ev99-ev100)
  (moveinthelog-activitygj-ev90-ev91)
  (moveinthelog-activitygk-ev110-ev111)
  (moveinthelog-activitygr-ev95-ev96)
  (moveinthelog-activitygs-ev106-ev107)
  (moveinthelog-activitygt-ev102-ev103)
  (moveinthelog-activitygu-ev101-ev102)
  (moveinthelog-activitygv-ev100-ev101)
  (moveinthelog-activitygw-ev104-ev105)
  (moveinthelog-activityhc-ev86-ev87)
  (moveinthelog-activityhd-ev89-ev90)
  (moveinthelog-activityhe-ev125-evend)
  (moveinthelog-activityhf-ev109-ev110)
  (moveinthelog-activityhf-ev116-ev117)
  (moveinthelog-activityhf-ev121-ev122)
  (moveinthelog-activityhf-ev92-ev93)
  (moveinthelog-activityhg-ev105-ev106)
  (moveinthelog-activityhg-ev114-ev115)
  (moveinthelog-activityhg-ev119-ev120)
  (moveinthelog-activityhg-ev123-ev124)
  (moveinthelog-activityhh-ev111-ev112)
  (moveinthelog-activityhh-ev117-ev118)
  (moveinthelog-activityhh-ev122-ev123)
  (moveinthelog-activityhh-ev97-ev98)
  (moveinthelog-activityhi-ev113-ev114)
  (moveinthelog-activityhi-ev118-ev119)
  (moveinthelog-activityhi-ev120-ev121)
  (moveinthelog-activityhi-ev98-ev99)
  (moveinthelog-activityp-ev2-ev3)
  (moveinthelog-activityq-ev6-ev7)
  (moveinthelog-activityr-ev4-ev5)
  (moveinthelog-activityu-ev5-ev6)
  (moveinthelog-activityv-ev10-ev11)
  (moveinthelog-activityw-ev8-ev9)
  (moveinthelog-activityx-ev7-ev8)
  (moveinthelog-activityy-ev9-ev10)
  (movesync-activitya-ev1)
  (movesync-activityb-ev12)
  (movesync-activitybd-ev13)
  (movesync-activitybe-ev42)
  (movesync-activitybf-ev14)
  (movesync-activitybg-ev27)
  (movesync-activitybh-ev16)
  (movesync-activitybh-ev25)
  (movesync-activitybi-ev20)
  (movesync-activitybj-ev31)
  (movesync-activitybk-ev33)
  (movesync-activitybl-ev34)
  (movesync-activitybm-ev35)
  (movesync-activitybn-ev36)
  (movesync-activitybo-ev39)
  (movesync-activitybp-ev38)
  (movesync-activitybq-ev40)
  (movesync-activitybr-ev15)
  (movesync-activitybs-ev19)
  (movesync-activitybt-ev23)
  (movesync-activitybu-ev26)
  (movesync-activitybv-ev32)
  (movesync-activitybw-ev30)
  (movesync-activityby-ev18)
  (movesync-activitybz-ev37)
  (movesync-activityc-ev3)
  (movesync-activitycx-ev17)
  (movesync-activitycy-ev29)
  (movesync-activitycz-ev22)
  (movesync-activityd-ev11)
  (movesync-activityda-ev28)
  (movesync-activitydb-ev21)
  (movesync-activitydc-ev24)
  (movesync-activitydd-ev41)
  (movesync-activityde-ev84)
  (movesync-activitydf-ev46)
  (movesync-activitydg-ev81)
  (movesync-activitydh-ev52)
  (movesync-activitydi-ev61)
  (movesync-activitydj-ev66)
  (movesync-activitydk-ev50)
  (movesync-activitydl-ev65)
  (movesync-activitydm-ev59)
  (movesync-activitydn-ev55)
  (movesync-activitydo-ev57)
  (movesync-activitydp-ev58)
  (movesync-activitydq-ev70)
  (movesync-activitydr-ev79)
  (movesync-activitydt-ev76)
  (movesync-activitydw-ev51)
  (movesync-activitydx-ev67)
  (movesync-activitydy-ev60)
  (movesync-activityea-ev72)
  (movesync-activityeb-ev44)
  (movesync-activityec-ev73)
  (movesync-activityed-ev47)
  (movesync-activityee-ev69)
  (movesync-activityef-ev56)
  (movesync-activityeg-ev64)
  (movesync-activityeo-ev45)
  (movesync-activityep-ev77)
  (movesync-activityeq-ev49)
  (movesync-activityer-ev63)
  (movesync-activityes-ev54)
  (movesync-activityev-ev71)
  (movesync-activityew-ev75)
  (movesync-activityey-ev43)
  (movesync-activityez-ev48)
  (movesync-activityfa-ev53)
  (movesync-activityfb-ev68)
  (movesync-activityfc-ev62)
  (movesync-activityfe-ev74)
  (movesync-activityff-ev82)
  (movesync-activityfl-ev78)
  (movesync-activityfm-ev83)
  (movesync-activityfn-ev80)
  (movesync-activityfp-ev85)
  (movesync-activityfq-ev124)
  (movesync-activityfr-ev87)
  (movesync-activityfs-ev115)
  (movesync-activityft-ev91)
  (movesync-activityfu-ev112)
  (movesync-activityfx-ev96)
  (movesync-activityfy-ev108)
  (movesync-activityfz-ev103)
  (movesync-activityge-ev88)
  (movesync-activitygf-ev107)
  (movesync-activitygg-ev93)
  (movesync-activitygh-ev94)
  (movesync-activitygi-ev99)
  (movesync-activitygj-ev90)
  (movesync-activitygk-ev110)
  (movesync-activitygr-ev95)
  (movesync-activitygs-ev106)
  (movesync-activitygt-ev102)
  (movesync-activitygu-ev101)
  (movesync-activitygv-ev100)
  (movesync-activitygw-ev104)
  (movesync-activityhc-ev86)
  (movesync-activityhd-ev89)
  (movesync-activityhe-ev125)
  (movesync-activityhf-ev109)
  (movesync-activityhf-ev116)
  (movesync-activityhf-ev121)
  (movesync-activityhf-ev92)
  (movesync-activityhg-ev105)
  (movesync-activityhg-ev114)
  (movesync-activityhg-ev119)
  (movesync-activityhg-ev123)
  (movesync-activityhh-ev111)
  (movesync-activityhh-ev117)
  (movesync-activityhh-ev122)
  (movesync-activityhh-ev97)
  (movesync-activityhi-ev113)
  (movesync-activityhi-ev118)
  (movesync-activityhi-ev120)
  (movesync-activityhi-ev98)
  (movesync-activityp-ev2)
  (movesync-activityq-ev6)
  (movesync-activityr-ev4)
  (movesync-activityu-ev5)
  (movesync-activityv-ev10)
  (movesync-activityw-ev8)
  (movesync-activityx-ev7)
  (movesync-activityy-ev9)
