Reduced 26 -> 26
Domain: driverlog
Problem: dlog-2-3-6
Require: ff
Type[1]:
    [0]: object, parent: -1
Obj-by-Type:
    [0]: 0 1 2 3 4 5 6 7 8 9 10 11 12 13 14 15 16 17 18 19 20 21 22 23 24 25
Obj[26]:
    [0]: driver1, type: 0, is-constant: 0, is-private: 0, owner: -1, is-agent: 0
    [1]: driver2, type: 0, is-constant: 0, is-private: 0, owner: -1, is-agent: 0
    [2]: truck1, type: 0, is-constant: 0, is-private: 0, owner: -1, is-agent: 0
    [3]: truck2, type: 0, is-constant: 0, is-private: 0, owner: -1, is-agent: 0
    [4]: truck3, type: 0, is-constant: 0, is-private: 0, owner: -1, is-agent: 0
    [5]: package1, type: 0, is-constant: 0, is-private: 0, owner: -1, is-agent: 0
    [6]: package2, type: 0, is-constant: 0, is-private: 0, owner: -1, is-agent: 0
    [7]: package3, type: 0, is-constant: 0, is-private: 0, owner: -1, is-agent: 0
    [8]: package4, type: 0, is-constant: 0, is-private: 0, owner: -1, is-agent: 0
    [9]: package5, type: 0, is-constant: 0, is-private: 0, owner: -1, is-agent: 0
    [10]: package6, type: 0, is-constant: 0, is-private: 0, owner: -1, is-agent: 0
    [11]: s0, type: 0, is-constant: 0, is-private: 0, owner: -1, is-agent: 0
    [12]: s1, type: 0, is-constant: 0, is-private: 0, owner: -1, is-agent: 0
    [13]: s2, type: 0, is-constant: 0, is-private: 0, owner: -1, is-agent: 0
    [14]: s3, type: 0, is-constant: 0, is-private: 0, owner: -1, is-agent: 0
    [15]: s4, type: 0, is-constant: 0, is-private: 0, owner: -1, is-agent: 0
    [16]: s5, type: 0, is-constant: 0, is-private: 0, owner: -1, is-agent: 0
    [17]: p1-0, type: 0, is-constant: 0, is-private: 0, owner: -1, is-agent: 0
    [18]: p1-4, type: 0, is-constant: 0, is-private: 0, owner: -1, is-agent: 0
    [19]: p1-5, type: 0, is-constant: 0, is-private: 0, owner: -1, is-agent: 0
    [20]: p2-1, type: 0, is-constant: 0, is-private: 0, owner: -1, is-agent: 0
    [21]: p2-3, type: 0, is-constant: 0, is-private: 0, owner: -1, is-agent: 0
    [22]: p3-0, type: 0, is-constant: 0, is-private: 0, owner: -1, is-agent: 0
    [23]: p3-1, type: 0, is-constant: 0, is-private: 0, owner: -1, is-agent: 0
    [24]: p3-5, type: 0, is-constant: 0, is-private: 0, owner: -1, is-agent: 0
    [25]: p4-5, type: 0, is-constant: 0, is-private: 0, owner: -1, is-agent: 0
Predicate[11]:
    =: 0 0 :: is-private: 0, owner-param: -1, read: 0, write: 0
    obj: 0 :: is-private: 0, owner-param: -1, read: 1, write: 0
    truck: 0 :: is-private: 0, owner-param: -1, read: 1, write: 0
    location: 0 :: is-private: 0, owner-param: -1, read: 1, write: 0
    driver: 0 :: is-private: 0, owner-param: -1, read: 1, write: 0
    at: 0 0 :: is-private: 0, owner-param: -1, read: 1, write: 1
    in: 0 0 :: is-private: 0, owner-param: -1, read: 1, write: 1
    driving: 0 0 :: is-private: 0, owner-param: -1, read: 1, write: 1
    link: 0 0 :: is-private: 0, owner-param: -1, read: 1, write: 0
    path: 0 0 :: is-private: 0, owner-param: -1, read: 1, write: 0
    empty: 0 :: is-private: 0, owner-param: -1, read: 1, write: 1
Function[0]:
Action[6]:
    load-truck: ?obj:0 ?truck:0 ?loc:0
        pre: (and (R:obj ?obj) (R:truck ?truck) (R:location ?loc) (RW:at ?truck ?loc) (RW:at ?obj ?loc))
        eff: (and (N:RW:at ?obj ?loc) (RW:in ?obj ?truck))
    unload-truck: ?obj:0 ?truck:0 ?loc:0
        pre: (and (R:obj ?obj) (R:truck ?truck) (R:location ?loc) (RW:at ?truck ?loc) (RW:in ?obj ?truck))
        eff: (and (N:RW:in ?obj ?truck) (RW:at ?obj ?loc))
    board-truck: ?driver:0 ?truck:0 ?loc:0
        pre: (and (R:driver ?driver) (R:truck ?truck) (R:location ?loc) (RW:at ?truck ?loc) (RW:at ?driver ?loc) (RW:empty ?truck))
        eff: (and (N:RW:at ?driver ?loc) (RW:driving ?driver ?truck) (N:RW:empty ?truck))
    disembark-truck: ?driver:0 ?truck:0 ?loc:0
        pre: (and (R:driver ?driver) (R:truck ?truck) (R:location ?loc) (RW:at ?truck ?loc) (RW:driving ?driver ?truck))
        eff: (and (N:RW:driving ?driver ?truck) (RW:at ?driver ?loc) (RW:empty ?truck))
    drive-truck: ?truck:0 ?loc-from:0 ?loc-to:0 ?driver:0
        pre: (and (R:truck ?truck) (R:location ?loc-from) (R:location ?loc-to) (R:driver ?driver) (RW:at ?truck ?loc-from) (RW:driving ?driver ?truck) (R:link ?loc-from ?loc-to))
        eff: (and (N:RW:at ?truck ?loc-from) (RW:at ?truck ?loc-to))
    walk: ?driver:0 ?loc-from:0 ?loc-to:0
        pre: (and (R:driver ?driver) (R:location ?loc-from) (R:location ?loc-to) (RW:at ?driver ?loc-from) (R:path ?loc-from ?loc-to))
        eff: (and (N:RW:at ?driver ?loc-from) (RW:at ?driver ?loc-to))
Init[102]:
  (at driver1 s4)
  S:(driver driver1)
  (at driver2 s0)
  S:(driver driver2)
  (at truck1 s0)
  (empty truck1)
  S:(truck truck1)
  (at truck2 s4)
  (empty truck2)
  S:(truck truck2)
  (at truck3 s5)
  (empty truck3)
  S:(truck truck3)
  (at package1 s1)
  S:(obj package1)
  (at package2 s0)
  S:(obj package2)
  (at package3 s4)
  S:(obj package3)
  (at package4 s4)
  S:(obj package4)
  (at package5 s4)
  S:(obj package5)
  (at package6 s2)
  S:(obj package6)
  S:(location s0)
  S:(location s1)
  S:(location s2)
  S:(location s3)
  S:(location s4)
  S:(location s5)
  S:(location p1-0)
  S:(location p1-4)
  S:(location p1-5)
  S:(location p2-1)
  S:(location p2-3)
  S:(location p3-0)
  S:(location p3-1)
  S:(location p3-5)
  S:(location p4-5)
  S:(path s1 p1-0)
  S:(path p1-0 s1)
  S:(path s0 p1-0)
  S:(path p1-0 s0)
  S:(path s1 p1-4)
  S:(path p1-4 s1)
  S:(path s4 p1-4)
  S:(path p1-4 s4)
  S:(path s1 p1-5)
  S:(path p1-5 s1)
  S:(path s5 p1-5)
  S:(path p1-5 s5)
  S:(path s2 p2-1)
  S:(path p2-1 s2)
  S:(path s1 p2-1)
  S:(path p2-1 s1)
  S:(path s2 p2-3)
  S:(path p2-3 s2)
  S:(path s3 p2-3)
  S:(path p2-3 s3)
  S:(path s3 p3-0)
  S:(path p3-0 s3)
  S:(path s0 p3-0)
  S:(path p3-0 s0)
  S:(path s3 p3-1)
  S:(path p3-1 s3)
  S:(path s1 p3-1)
  S:(path p3-1 s1)
  S:(path s3 p3-5)
  S:(path p3-5 s3)
  S:(path s5 p3-5)
  S:(path p3-5 s5)
  S:(path s4 p4-5)
  S:(path p4-5 s4)
  S:(path s5 p4-5)
  S:(path p4-5 s5)
  S:(link s0 s5)
  S:(link s5 s0)
  S:(link s1 s0)
  S:(link s0 s1)
  S:(link s1 s2)
  S:(link s2 s1)
  S:(link s1 s4)
  S:(link s4 s1)
  S:(link s1 s5)
  S:(link s5 s1)
  S:(link s2 s0)
  S:(link s0 s2)
  S:(link s3 s0)
  S:(link s0 s3)
  S:(link s3 s1)
  S:(link s1 s3)
  S:(link s3 s2)
  S:(link s2 s3)
  S:(link s3 s4)
  S:(link s4 s3)
  S:(link s4 s0)
  S:(link s0 s4)
  S:(link s5 s3)
  S:(link s3 s5)
  S:(link s5 s4)
  S:(link s4 s5)
Init[0]:
Goal: (and (RW:at driver1 s1) (RW:at driver2 s0) (RW:at package1 s5) (RW:at package2 s1) (RW:at package3 s5) (RW:at package4 s1) (RW:at package5 s3) (RW:at package6 s2))
Metric: 0
