Reduced 24 -> 20
Domain: maintenance-scheduling-domain
Problem: maintenance-scheduling-1-3-10-10-2-0
Require: ff
Type[4]:
    [0]: object, parent: -1
    [1]: plane, parent: 0
    [2]: day, parent: 0
    [3]: airport, parent: 0
Obj-by-Type:
    [0]: 0 1 2 3 4 5 6 7 8 9 10 11 12 13 14 15 16 17 18 19
    [1]: 10 11 12 13 14 15 16 17 18 19
    [2]: 0 1 2 3 4 5 6
    [3]: 7 8 9
Obj[20]:
    [0]: d1, type: 2, is-constant: 0, is-private: 0, owner: -1, is-agent: 0
    [1]: d2, type: 2, is-constant: 0, is-private: 0, owner: -1, is-agent: 0
    [2]: d3, type: 2, is-constant: 0, is-private: 0, owner: -1, is-agent: 0
    [3]: d4, type: 2, is-constant: 0, is-private: 0, owner: -1, is-agent: 0
    [4]: d7, type: 2, is-constant: 0, is-private: 0, owner: -1, is-agent: 0
    [5]: d8, type: 2, is-constant: 0, is-private: 0, owner: -1, is-agent: 0
    [6]: d10, type: 2, is-constant: 0, is-private: 0, owner: -1, is-agent: 0
    [7]: fra, type: 3, is-constant: 0, is-private: 0, owner: -1, is-agent: 0
    [8]: ber, type: 3, is-constant: 0, is-private: 0, owner: -1, is-agent: 0
    [9]: ham, type: 3, is-constant: 0, is-private: 0, owner: -1, is-agent: 0
    [10]: ap1, type: 1, is-constant: 0, is-private: 0, owner: -1, is-agent: 0
    [11]: ap2, type: 1, is-constant: 0, is-private: 0, owner: -1, is-agent: 0
    [12]: ap3, type: 1, is-constant: 0, is-private: 0, owner: -1, is-agent: 0
    [13]: ap4, type: 1, is-constant: 0, is-private: 0, owner: -1, is-agent: 0
    [14]: ap5, type: 1, is-constant: 0, is-private: 0, owner: -1, is-agent: 0
    [15]: ap6, type: 1, is-constant: 0, is-private: 0, owner: -1, is-agent: 0
    [16]: ap7, type: 1, is-constant: 0, is-private: 0, owner: -1, is-agent: 0
    [17]: ap8, type: 1, is-constant: 0, is-private: 0, owner: -1, is-agent: 0
    [18]: ap9, type: 1, is-constant: 0, is-private: 0, owner: -1, is-agent: 0
    [19]: ap10, type: 1, is-constant: 0, is-private: 0, owner: -1, is-agent: 0
Predicate[5]:
    =: 0 0 :: is-private: 0, owner-param: -1, read: 0, write: 0
    done: 1 :: is-private: 0, owner-param: -1, read: 0, write: 1
    today: 2 :: is-private: 0, owner-param: -1, read: 1, write: 1
    at: 1 2 3 :: is-private: 0, owner-param: -1, read: 1, write: 0
    next: 2 2 :: is-private: 0, owner-param: -1, read: 0, write: 0
Function[0]:
Action[1]:
    workat: ?day:2 ?airport:3
        pre: (and (RW:today ?day))
        eff: (and (N:RW:today ?day) (when (R:at ap1 ?day ?airport) (W:done ap1)) (when (R:at ap2 ?day ?airport) (W:done ap2)) (when (R:at ap3 ?day ?airport) (W:done ap3)) (when (R:at ap4 ?day ?airport) (W:done ap4)) (when (R:at ap5 ?day ?airport) (W:done ap5)) (when (R:at ap6 ?day ?airport) (W:done ap6)) (when (R:at ap7 ?day ?airport) (W:done ap7)) (when (R:at ap8 ?day ?airport) (W:done ap8)) (when (R:at ap9 ?day ?airport) (W:done ap9)) (when (R:at ap10 ?day ?airport) (W:done ap10)))
Init[27]:
  (today d1)
  (today d2)
  (today d3)
  (today d4)
  (today d7)
  (today d8)
  (today d10)
  S:(at ap1 d4 ber)
  S:(at ap1 d8 ber)
  S:(at ap2 d7 fra)
  S:(at ap2 d4 ber)
  S:(at ap3 d3 ber)
  S:(at ap3 d10 ber)
  S:(at ap4 d1 ber)
  S:(at ap4 d4 ber)
  S:(at ap5 d1 fra)
  S:(at ap5 d3 ber)
  S:(at ap6 d8 fra)
  S:(at ap6 d2 ham)
  S:(at ap7 d3 ber)
  S:(at ap7 d3 ham)
  S:(at ap8 d10 fra)
  S:(at ap8 d8 ber)
  S:(at ap9 d3 fra)
  S:(at ap9 d10 fra)
  S:(at ap10 d2 ber)
  S:(at ap10 d4 ber)
Init[0]:
Goal: (and (W:done ap1) (W:done ap2) (W:done ap3) (W:done ap4) (W:done ap5) (W:done ap6) (W:done ap7) (W:done ap8) (W:done ap9) (W:done ap10))
Metric: 0
