Maximal 2:
 (power_avail satellite0) (power_on instrument0):=1:fam
 (pointing satellite0 groundstation1) (pointing satellite0 groundstation2) (pointing satellite0 phenomenon3) (pointing satellite0 phenomenon4) (pointing satellite0 phenomenon6) (pointing satellite0 star0) (pointing satellite0 star5):=1:fam


Mutex Group Cover Number: 6
