RSE-Invertible facts:
0:(at rover0 waypoint0) in-fam-group
1:(at rover0 waypoint1) in-fam-group
2:(at rover0 waypoint10) in-fam-group
3:(at rover0 waypoint11) in-fam-group
4:(at rover0 waypoint12) in-fam-group
5:(at rover0 waypoint13) in-fam-group
6:(at rover0 waypoint14) in-fam-group
7:(at rover0 waypoint15) in-fam-group
8:(at rover0 waypoint16) in-fam-group
9:(at rover0 waypoint17) in-fam-group
10:(at rover0 waypoint18) in-fam-group
11:(at rover0 waypoint19) in-fam-group
12:(at rover0 waypoint2) in-fam-group
13:(at rover0 waypoint20) in-fam-group
14:(at rover0 waypoint21) in-fam-group
15:(at rover0 waypoint22) in-fam-group
16:(at rover0 waypoint23) in-fam-group
17:(at rover0 waypoint24) in-fam-group
18:(at rover0 waypoint3) in-fam-group
19:(at rover0 waypoint4) in-fam-group
20:(at rover0 waypoint5) in-fam-group
21:(at rover0 waypoint6) in-fam-group
22:(at rover0 waypoint7) in-fam-group
23:(at rover0 waypoint8) in-fam-group
24:(at rover0 waypoint9) in-fam-group
25:(at rover1 waypoint0) in-fam-group
26:(at rover1 waypoint1) in-fam-group
27:(at rover1 waypoint10) in-fam-group
28:(at rover1 waypoint11) in-fam-group
29:(at rover1 waypoint12) in-fam-group
30:(at rover1 waypoint13) in-fam-group
31:(at rover1 waypoint14) in-fam-group
32:(at rover1 waypoint15) in-fam-group
33:(at rover1 waypoint16) in-fam-group
34:(at rover1 waypoint17) in-fam-group
35:(at rover1 waypoint18) in-fam-group
36:(at rover1 waypoint19) in-fam-group
37:(at rover1 waypoint2) in-fam-group
38:(at rover1 waypoint20) in-fam-group
39:(at rover1 waypoint21) in-fam-group
40:(at rover1 waypoint22) in-fam-group
41:(at rover1 waypoint23) in-fam-group
42:(at rover1 waypoint24) in-fam-group
43:(at rover1 waypoint3) in-fam-group
44:(at rover1 waypoint4) in-fam-group
45:(at rover1 waypoint5) in-fam-group
46:(at rover1 waypoint6) in-fam-group
47:(at rover1 waypoint7) in-fam-group
48:(at rover1 waypoint8) in-fam-group
49:(at rover1 waypoint9) in-fam-group
50:(at rover2 waypoint0) in-fam-group
51:(at rover2 waypoint1) in-fam-group
52:(at rover2 waypoint10) in-fam-group
53:(at rover2 waypoint11) in-fam-group
54:(at rover2 waypoint12) in-fam-group
55:(at rover2 waypoint13) in-fam-group
56:(at rover2 waypoint14) in-fam-group
57:(at rover2 waypoint15) in-fam-group
58:(at rover2 waypoint16) in-fam-group
59:(at rover2 waypoint17) in-fam-group
60:(at rover2 waypoint18) in-fam-group
61:(at rover2 waypoint19) in-fam-group
62:(at rover2 waypoint2) in-fam-group
63:(at rover2 waypoint20) in-fam-group
64:(at rover2 waypoint21) in-fam-group
65:(at rover2 waypoint22) in-fam-group
66:(at rover2 waypoint23) in-fam-group
67:(at rover2 waypoint24) in-fam-group
68:(at rover2 waypoint3) in-fam-group
69:(at rover2 waypoint4) in-fam-group
70:(at rover2 waypoint5) in-fam-group
71:(at rover2 waypoint6) in-fam-group
72:(at rover2 waypoint7) in-fam-group
73:(at rover2 waypoint8) in-fam-group
74:(at rover2 waypoint9) in-fam-group
75:(at rover3 waypoint0) in-fam-group
76:(at rover3 waypoint1) in-fam-group
77:(at rover3 waypoint10) in-fam-group
78:(at rover3 waypoint11) in-fam-group
79:(at rover3 waypoint12) in-fam-group
80:(at rover3 waypoint13) in-fam-group
81:(at rover3 waypoint14) in-fam-group
82:(at rover3 waypoint15) in-fam-group
83:(at rover3 waypoint16) in-fam-group
84:(at rover3 waypoint17) in-fam-group
85:(at rover3 waypoint18) in-fam-group
86:(at rover3 waypoint19) in-fam-group
87:(at rover3 waypoint2) in-fam-group
88:(at rover3 waypoint20) in-fam-group
89:(at rover3 waypoint21) in-fam-group
90:(at rover3 waypoint22) in-fam-group
91:(at rover3 waypoint23) in-fam-group
92:(at rover3 waypoint24) in-fam-group
93:(at rover3 waypoint3) in-fam-group
94:(at rover3 waypoint4) in-fam-group
95:(at rover3 waypoint5) in-fam-group
96:(at rover3 waypoint6) in-fam-group
97:(at rover3 waypoint7) in-fam-group
98:(at rover3 waypoint8) in-fam-group
99:(at rover3 waypoint9) in-fam-group
100:(at rover4 waypoint0) in-fam-group
101:(at rover4 waypoint1) in-fam-group
102:(at rover4 waypoint10) in-fam-group
103:(at rover4 waypoint11) in-fam-group
104:(at rover4 waypoint12) in-fam-group
105:(at rover4 waypoint13) in-fam-group
106:(at rover4 waypoint14) in-fam-group
107:(at rover4 waypoint15) in-fam-group
108:(at rover4 waypoint16) in-fam-group
109:(at rover4 waypoint17) in-fam-group
110:(at rover4 waypoint18) in-fam-group
111:(at rover4 waypoint19) in-fam-group
112:(at rover4 waypoint2) in-fam-group
113:(at rover4 waypoint20) in-fam-group
114:(at rover4 waypoint21) in-fam-group
115:(at rover4 waypoint22) in-fam-group
116:(at rover4 waypoint23) in-fam-group
117:(at rover4 waypoint24) in-fam-group
118:(at rover4 waypoint3) in-fam-group
119:(at rover4 waypoint4) in-fam-group
120:(at rover4 waypoint5) in-fam-group
121:(at rover4 waypoint6) in-fam-group
122:(at rover4 waypoint7) in-fam-group
123:(at rover4 waypoint8) in-fam-group
124:(at rover4 waypoint9) in-fam-group
125:(at rover5 waypoint0) in-fam-group
126:(at rover5 waypoint1) in-fam-group
127:(at rover5 waypoint10) in-fam-group
128:(at rover5 waypoint11) in-fam-group
129:(at rover5 waypoint12) in-fam-group
130:(at rover5 waypoint13) in-fam-group
131:(at rover5 waypoint14) in-fam-group
132:(at rover5 waypoint15) in-fam-group
133:(at rover5 waypoint16) in-fam-group
134:(at rover5 waypoint17) in-fam-group
135:(at rover5 waypoint18) in-fam-group
136:(at rover5 waypoint19) in-fam-group
137:(at rover5 waypoint2) in-fam-group
138:(at rover5 waypoint20) in-fam-group
139:(at rover5 waypoint21) in-fam-group
140:(at rover5 waypoint22) in-fam-group
141:(at rover5 waypoint23) in-fam-group
142:(at rover5 waypoint24) in-fam-group
143:(at rover5 waypoint3) in-fam-group
144:(at rover5 waypoint4) in-fam-group
145:(at rover5 waypoint5) in-fam-group
146:(at rover5 waypoint6) in-fam-group
147:(at rover5 waypoint7) in-fam-group
148:(at rover5 waypoint8) in-fam-group
149:(at rover5 waypoint9) in-fam-group
150:(at rover6 waypoint0) in-fam-group
151:(at rover6 waypoint1) in-fam-group
152:(at rover6 waypoint10) in-fam-group
153:(at rover6 waypoint11) in-fam-group
154:(at rover6 waypoint12) in-fam-group
155:(at rover6 waypoint13) in-fam-group
156:(at rover6 waypoint14) in-fam-group
157:(at rover6 waypoint15) in-fam-group
158:(at rover6 waypoint16) in-fam-group
159:(at rover6 waypoint17) in-fam-group
160:(at rover6 waypoint18) in-fam-group
161:(at rover6 waypoint19) in-fam-group
162:(at rover6 waypoint2) in-fam-group
163:(at rover6 waypoint20) in-fam-group
164:(at rover6 waypoint21) in-fam-group
165:(at rover6 waypoint22) in-fam-group
166:(at rover6 waypoint23) in-fam-group
167:(at rover6 waypoint24) in-fam-group
168:(at rover6 waypoint3) in-fam-group
169:(at rover6 waypoint4) in-fam-group
170:(at rover6 waypoint5) in-fam-group
171:(at rover6 waypoint6) in-fam-group
172:(at rover6 waypoint7) in-fam-group
173:(at rover6 waypoint8) in-fam-group
174:(at rover6 waypoint9) in-fam-group
175:(at rover7 waypoint0) in-fam-group
176:(at rover7 waypoint1) in-fam-group
177:(at rover7 waypoint10) in-fam-group
178:(at rover7 waypoint11) in-fam-group
179:(at rover7 waypoint12) in-fam-group
180:(at rover7 waypoint13) in-fam-group
181:(at rover7 waypoint14) in-fam-group
182:(at rover7 waypoint15) in-fam-group
183:(at rover7 waypoint16) in-fam-group
184:(at rover7 waypoint17) in-fam-group
185:(at rover7 waypoint18) in-fam-group
186:(at rover7 waypoint19) in-fam-group
187:(at rover7 waypoint2) in-fam-group
188:(at rover7 waypoint20) in-fam-group
189:(at rover7 waypoint21) in-fam-group
190:(at rover7 waypoint23) in-fam-group
191:(at rover7 waypoint24) in-fam-group
192:(at rover7 waypoint3) in-fam-group
193:(at rover7 waypoint4) in-fam-group
194:(at rover7 waypoint5) in-fam-group
195:(at rover7 waypoint6) in-fam-group
196:(at rover7 waypoint7) in-fam-group
197:(at rover7 waypoint8) in-fam-group
198:(at rover7 waypoint9) in-fam-group
226:(calibrated camera4 rover1)
227:(calibrated camera5 rover5)
