Domain: zeno-travel
Problem: ztravel-3-8
Require: ff
Type[1]:
    [0]: object, parent: -1
Obj-by-Type:
    [0]: 0 1 2 3 4 5 6 7 8 9 10 11 12 13 14 15 16 17 18 19 20 21 22
Obj[23]:
    [0]: plane1, type: 0, is-constant: 0, is-private: 0, owner: -1, is-agent: 0
    [1]: plane2, type: 0, is-constant: 0, is-private: 0, owner: -1, is-agent: 0
    [2]: plane3, type: 0, is-constant: 0, is-private: 0, owner: -1, is-agent: 0
    [3]: person1, type: 0, is-constant: 0, is-private: 0, owner: -1, is-agent: 0
    [4]: person2, type: 0, is-constant: 0, is-private: 0, owner: -1, is-agent: 0
    [5]: person3, type: 0, is-constant: 0, is-private: 0, owner: -1, is-agent: 0
    [6]: person4, type: 0, is-constant: 0, is-private: 0, owner: -1, is-agent: 0
    [7]: person5, type: 0, is-constant: 0, is-private: 0, owner: -1, is-agent: 0
    [8]: person6, type: 0, is-constant: 0, is-private: 0, owner: -1, is-agent: 0
    [9]: person7, type: 0, is-constant: 0, is-private: 0, owner: -1, is-agent: 0
    [10]: person8, type: 0, is-constant: 0, is-private: 0, owner: -1, is-agent: 0
    [11]: city0, type: 0, is-constant: 0, is-private: 0, owner: -1, is-agent: 0
    [12]: city1, type: 0, is-constant: 0, is-private: 0, owner: -1, is-agent: 0
    [13]: city2, type: 0, is-constant: 0, is-private: 0, owner: -1, is-agent: 0
    [14]: city3, type: 0, is-constant: 0, is-private: 0, owner: -1, is-agent: 0
    [15]: city4, type: 0, is-constant: 0, is-private: 0, owner: -1, is-agent: 0
    [16]: fl0, type: 0, is-constant: 0, is-private: 0, owner: -1, is-agent: 0
    [17]: fl1, type: 0, is-constant: 0, is-private: 0, owner: -1, is-agent: 0
    [18]: fl2, type: 0, is-constant: 0, is-private: 0, owner: -1, is-agent: 0
    [19]: fl3, type: 0, is-constant: 0, is-private: 0, owner: -1, is-agent: 0
    [20]: fl4, type: 0, is-constant: 0, is-private: 0, owner: -1, is-agent: 0
    [21]: fl5, type: 0, is-constant: 0, is-private: 0, owner: -1, is-agent: 0
    [22]: fl6, type: 0, is-constant: 0, is-private: 0, owner: -1, is-agent: 0
Predicate[9]:
    =: 0 0 :: is-private: 0, owner-param: -1, read: 0, write: 0
    at: 0 0 :: is-private: 0, owner-param: -1, read: 1, write: 1
    in: 0 0 :: is-private: 0, owner-param: -1, read: 1, write: 1
    fuel-level: 0 0 :: is-private: 0, owner-param: -1, read: 1, write: 1
    next: 0 0 :: is-private: 0, owner-param: -1, read: 1, write: 0
    aircraft: 0 :: is-private: 0, owner-param: -1, read: 1, write: 0
    person: 0 :: is-private: 0, owner-param: -1, read: 1, write: 0
    city: 0 :: is-private: 0, owner-param: -1, read: 1, write: 0
    flevel: 0 :: is-private: 0, owner-param: -1, read: 1, write: 0
Function[0]:
Action[5]:
    board: ?p:0 ?a:0 ?c:0
        pre: (and (R:person ?p) (R:aircraft ?a) (R:city ?c) (RW:at ?p ?c) (RW:at ?a ?c))
        eff: (and (RW:in ?p ?a) (N:RW:at ?p ?c))
    debark: ?p:0 ?a:0 ?c:0
        pre: (and (R:person ?p) (R:aircraft ?a) (R:city ?c) (RW:in ?p ?a) (RW:at ?a ?c))
        eff: (and (RW:at ?p ?c) (N:RW:in ?p ?a))
    fly: ?a:0 ?c1:0 ?c2:0 ?l1:0 ?l2:0
        pre: (and (R:aircraft ?a) (R:city ?c1) (R:city ?c2) (R:flevel ?l1) (R:flevel ?l2) (RW:at ?a ?c1) (RW:fuel-level ?a ?l1) (R:next ?l2 ?l1))
        eff: (and (RW:at ?a ?c2) (RW:fuel-level ?a ?l2) (N:RW:at ?a ?c1) (N:RW:fuel-level ?a ?l1))
    zoom: ?a:0 ?c1:0 ?c2:0 ?l1:0 ?l2:0 ?l3:0
        pre: (and (R:aircraft ?a) (R:city ?c1) (R:city ?c2) (R:flevel ?l1) (R:flevel ?l2) (R:flevel ?l3) (RW:at ?a ?c1) (RW:fuel-level ?a ?l1) (R:next ?l2 ?l1) (R:next ?l3 ?l2))
        eff: (and (RW:at ?a ?c2) (RW:fuel-level ?a ?l3) (N:RW:at ?a ?c1) (N:RW:fuel-level ?a ?l1))
    refuel: ?a:0 ?c:0 ?l:0 ?l1:0
        pre: (and (R:aircraft ?a) (R:city ?c) (R:flevel ?l) (R:flevel ?l1) (RW:fuel-level ?a ?l) (R:next ?l ?l1) (RW:at ?a ?c))
        eff: (and (RW:fuel-level ?a ?l1) (N:RW:fuel-level ?a ?l))
Init[43]:
  (at plane1 city0)
  S:(aircraft plane1)
  (fuel-level plane1 fl2)
  (at plane2 city4)
  S:(aircraft plane2)
  (fuel-level plane2 fl5)
  (at plane3 city2)
  S:(aircraft plane3)
  (fuel-level plane3 fl2)
  (at person1 city3)
  S:(person person1)
  (at person2 city3)
  S:(person person2)
  (at person3 city4)
  S:(person person3)
  (at person4 city4)
  S:(person person4)
  (at person5 city1)
  S:(person person5)
  (at person6 city0)
  S:(person person6)
  (at person7 city1)
  S:(person person7)
  (at person8 city0)
  S:(person person8)
  S:(city city0)
  S:(city city1)
  S:(city city2)
  S:(city city3)
  S:(city city4)
  S:(next fl0 fl1)
  S:(next fl1 fl2)
  S:(next fl2 fl3)
  S:(next fl3 fl4)
  S:(next fl4 fl5)
  S:(next fl5 fl6)
  S:(flevel fl0)
  S:(flevel fl1)
  S:(flevel fl2)
  S:(flevel fl3)
  S:(flevel fl4)
  S:(flevel fl5)
  S:(flevel fl6)
Init[0]:
Goal: (and (RW:at plane1 city2) (RW:at person1 city1) (RW:at person2 city2) (RW:at person3 city3) (RW:at person4 city1) (RW:at person5 city0) (RW:at person6 city3) (RW:at person7 city4) (RW:at person8 city3))
Metric: 0
