Domain: agricola
Problem: opt20-9-5
Require: 200ff
Type[19]:
    [0]: object, parent: -1
    [1]: actiontag, parent: 0
    [2]: goods, parent: 0
    [3]: stage, parent: 0
    [4]: round, parent: 0
    [5]: worker, parent: 0
    [6]: improvement, parent: 0
    [7]: roundclass, parent: 0
    [8]: phaseclass, parent: 0
    [9]: roundparts, parent: 0
    [10]: resource, parent: 0
    [11]: room, parent: 0
    [12]: num, parent: 0
    [13]: buildtag, parent: 1
    [14]: animaltag, parent: 1
    [15]: vegtag, parent: 1
    [16]: gentag, parent: 1
    [17]: animal, parent: 2
    [18]: vegetable, parent: 2
Obj-by-Type:
    [0]: 0 1 2 3 4 5 6 7 8 9 10 11 12 13 14 15 16 17 18 19 20 21 22 23 24 25 26 27 28 29 30 31 32 33 34 35 36 37 38 39 40 41 42 43 44 45 46 47 48 49 50 51 52 53 54 55 56 57 58 59 60 61 62 63 64 65 66 67 68 69 70 71 72 73 74 75 76 77 78 79 80 81 82 83 84 85 86 87 88 89 90 91 92 93
    [1]: 17 18 19 20 21 22 23 24 25 26 27 28 29 32 33 34 35 36
    [2]: 8 9 10 11 12
    [3]: 56 57 58 59 60 61 62 63 64 65
    [4]: 66 67 68 69 70 71 72 73 74 75 76 77 78 79 80 81 82 83
    [5]: 1 84 85 86 87 88
    [6]: 30 31
    [7]: 2 3
    [8]: 4 5 6 7
    [9]: 37 38 39
    [10]: 13 14 15 16
    [11]: 89 90 91 92 93
    [12]: 0 40 41 42 43 44 45 46 47 48 49 50 51 52 53 54 55
    [13]: 26 27 28 29
    [14]: 34 35 36
    [15]: 32 33
    [16]: 17 18 19 20 21 22 23 24 25
    [17]: 8 9 10
    [18]: 11 12
Obj[94]:
    [0]: num0, type: 12, is-constant: 1, is-private: 0, owner: -1, is-agent: 0
    [1]: noworker, type: 5, is-constant: 1, is-private: 0, owner: -1, is-agent: 0
    [2]: tnormal, type: 7, is-constant: 1, is-private: 0, owner: -1, is-agent: 0
    [3]: tharvest, type: 7, is-constant: 1, is-private: 0, owner: -1, is-agent: 0
    [4]: harvest_init, type: 8, is-constant: 1, is-private: 0, owner: -1, is-agent: 0
    [5]: harvest_feeding, type: 8, is-constant: 1, is-private: 0, owner: -1, is-agent: 0
    [6]: harvest_breeding, type: 8, is-constant: 1, is-private: 0, owner: -1, is-agent: 0
    [7]: harvest_end, type: 8, is-constant: 1, is-private: 0, owner: -1, is-agent: 0
    [8]: sheep, type: 17, is-constant: 1, is-private: 0, owner: -1, is-agent: 0
    [9]: boar, type: 17, is-constant: 1, is-private: 0, owner: -1, is-agent: 0
    [10]: cattle, type: 17, is-constant: 1, is-private: 0, owner: -1, is-agent: 0
    [11]: grain, type: 18, is-constant: 1, is-private: 0, owner: -1, is-agent: 0
    [12]: carrot, type: 18, is-constant: 1, is-private: 0, owner: -1, is-agent: 0
    [13]: wood, type: 10, is-constant: 1, is-private: 0, owner: -1, is-agent: 0
    [14]: clay, type: 10, is-constant: 1, is-private: 0, owner: -1, is-agent: 0
    [15]: reed, type: 10, is-constant: 1, is-private: 0, owner: -1, is-agent: 0
    [16]: stone, type: 10, is-constant: 1, is-private: 0, owner: -1, is-agent: 0
    [17]: act_rest, type: 16, is-constant: 1, is-private: 0, owner: -1, is-agent: 0
    [18]: act_labor, type: 16, is-constant: 1, is-private: 0, owner: -1, is-agent: 0
    [19]: act_plow, type: 16, is-constant: 1, is-private: 0, owner: -1, is-agent: 0
    [20]: act_build, type: 16, is-constant: 1, is-private: 0, owner: -1, is-agent: 0
    [21]: act_family, type: 16, is-constant: 1, is-private: 0, owner: -1, is-agent: 0
    [22]: act_sow, type: 16, is-constant: 1, is-private: 0, owner: -1, is-agent: 0
    [23]: act_fences, type: 16, is-constant: 1, is-private: 0, owner: -1, is-agent: 0
    [24]: act_improve, type: 16, is-constant: 1, is-private: 0, owner: -1, is-agent: 0
    [25]: void, type: 16, is-constant: 1, is-private: 0, owner: -1, is-agent: 0
    [26]: act_wood, type: 13, is-constant: 1, is-private: 0, owner: -1, is-agent: 0
    [27]: act_clay, type: 13, is-constant: 1, is-private: 0, owner: -1, is-agent: 0
    [28]: act_reed, type: 13, is-constant: 1, is-private: 0, owner: -1, is-agent: 0
    [29]: act_stone, type: 13, is-constant: 1, is-private: 0, owner: -1, is-agent: 0
    [30]: oven, type: 6, is-constant: 1, is-private: 0, owner: -1, is-agent: 0
    [31]: fireplace, type: 6, is-constant: 1, is-private: 0, owner: -1, is-agent: 0
    [32]: act_grain, type: 15, is-constant: 1, is-private: 0, owner: -1, is-agent: 0
    [33]: act_carrot, type: 15, is-constant: 1, is-private: 0, owner: -1, is-agent: 0
    [34]: act_sheep, type: 14, is-constant: 1, is-private: 0, owner: -1, is-agent: 0
    [35]: act_boar, type: 14, is-constant: 1, is-private: 0, owner: -1, is-agent: 0
    [36]: act_cattle, type: 14, is-constant: 1, is-private: 0, owner: -1, is-agent: 0
    [37]: backhome, type: 9, is-constant: 1, is-private: 0, owner: -1, is-agent: 0
    [38]: renew, type: 9, is-constant: 1, is-private: 0, owner: -1, is-agent: 0
    [39]: roundend, type: 9, is-constant: 1, is-private: 0, owner: -1, is-agent: 0
    [40]: num1, type: 12, is-constant: 0, is-private: 0, owner: -1, is-agent: 0
    [41]: num2, type: 12, is-constant: 0, is-private: 0, owner: -1, is-agent: 0
    [42]: num3, type: 12, is-constant: 0, is-private: 0, owner: -1, is-agent: 0
    [43]: num4, type: 12, is-constant: 0, is-private: 0, owner: -1, is-agent: 0
    [44]: num5, type: 12, is-constant: 0, is-private: 0, owner: -1, is-agent: 0
    [45]: num6, type: 12, is-constant: 0, is-private: 0, owner: -1, is-agent: 0
    [46]: num7, type: 12, is-constant: 0, is-private: 0, owner: -1, is-agent: 0
    [47]: num8, type: 12, is-constant: 0, is-private: 0, owner: -1, is-agent: 0
    [48]: num9, type: 12, is-constant: 0, is-private: 0, owner: -1, is-agent: 0
    [49]: num10, type: 12, is-constant: 0, is-private: 0, owner: -1, is-agent: 0
    [50]: num11, type: 12, is-constant: 0, is-private: 0, owner: -1, is-agent: 0
    [51]: num12, type: 12, is-constant: 0, is-private: 0, owner: -1, is-agent: 0
    [52]: num13, type: 12, is-constant: 0, is-private: 0, owner: -1, is-agent: 0
    [53]: num14, type: 12, is-constant: 0, is-private: 0, owner: -1, is-agent: 0
    [54]: num15, type: 12, is-constant: 0, is-private: 0, owner: -1, is-agent: 0
    [55]: num16, type: 12, is-constant: 0, is-private: 0, owner: -1, is-agent: 0
    [56]: stage1, type: 3, is-constant: 0, is-private: 0, owner: -1, is-agent: 0
    [57]: stage2, type: 3, is-constant: 0, is-private: 0, owner: -1, is-agent: 0
    [58]: stage3, type: 3, is-constant: 0, is-private: 0, owner: -1, is-agent: 0
    [59]: stage4, type: 3, is-constant: 0, is-private: 0, owner: -1, is-agent: 0
    [60]: stage5, type: 3, is-constant: 0, is-private: 0, owner: -1, is-agent: 0
    [61]: stage6, type: 3, is-constant: 0, is-private: 0, owner: -1, is-agent: 0
    [62]: stage7, type: 3, is-constant: 0, is-private: 0, owner: -1, is-agent: 0
    [63]: stage8, type: 3, is-constant: 0, is-private: 0, owner: -1, is-agent: 0
    [64]: stage9, type: 3, is-constant: 0, is-private: 0, owner: -1, is-agent: 0
    [65]: stage10, type: 3, is-constant: 0, is-private: 0, owner: -1, is-agent: 0
    [66]: round1, type: 4, is-constant: 0, is-private: 0, owner: -1, is-agent: 0
    [67]: round2, type: 4, is-constant: 0, is-private: 0, owner: -1, is-agent: 0
    [68]: round3, type: 4, is-constant: 0, is-private: 0, owner: -1, is-agent: 0
    [69]: round4, type: 4, is-constant: 0, is-private: 0, owner: -1, is-agent: 0
    [70]: round5, type: 4, is-constant: 0, is-private: 0, owner: -1, is-agent: 0
    [71]: round6, type: 4, is-constant: 0, is-private: 0, owner: -1, is-agent: 0
    [72]: round7, type: 4, is-constant: 0, is-private: 0, owner: -1, is-agent: 0
    [73]: round8, type: 4, is-constant: 0, is-private: 0, owner: -1, is-agent: 0
    [74]: round9, type: 4, is-constant: 0, is-private: 0, owner: -1, is-agent: 0
    [75]: round10, type: 4, is-constant: 0, is-private: 0, owner: -1, is-agent: 0
    [76]: round11, type: 4, is-constant: 0, is-private: 0, owner: -1, is-agent: 0
    [77]: round12, type: 4, is-constant: 0, is-private: 0, owner: -1, is-agent: 0
    [78]: round13, type: 4, is-constant: 0, is-private: 0, owner: -1, is-agent: 0
    [79]: round14, type: 4, is-constant: 0, is-private: 0, owner: -1, is-agent: 0
    [80]: round15, type: 4, is-constant: 0, is-private: 0, owner: -1, is-agent: 0
    [81]: round16, type: 4, is-constant: 0, is-private: 0, owner: -1, is-agent: 0
    [82]: round17, type: 4, is-constant: 0, is-private: 0, owner: -1, is-agent: 0
    [83]: round18, type: 4, is-constant: 0, is-private: 0, owner: -1, is-agent: 0
    [84]: worker1, type: 5, is-constant: 0, is-private: 0, owner: -1, is-agent: 0
    [85]: worker2, type: 5, is-constant: 0, is-private: 0, owner: -1, is-agent: 0
    [86]: worker3, type: 5, is-constant: 0, is-private: 0, owner: -1, is-agent: 0
    [87]: worker4, type: 5, is-constant: 0, is-private: 0, owner: -1, is-agent: 0
    [88]: worker5, type: 5, is-constant: 0, is-private: 0, owner: -1, is-agent: 0
    [89]: room1, type: 11, is-constant: 0, is-private: 0, owner: -1, is-agent: 0
    [90]: room2, type: 11, is-constant: 0, is-private: 0, owner: -1, is-agent: 0
    [91]: room3, type: 11, is-constant: 0, is-private: 0, owner: -1, is-agent: 0
    [92]: room4, type: 11, is-constant: 0, is-private: 0, owner: -1, is-agent: 0
    [93]: room5, type: 11, is-constant: 0, is-private: 0, owner: -1, is-agent: 0
Predicate[33]:
    =: 0 0 :: is-private: 0, owner-param: -1, read: 0, write: 0
    next_stage: 3 3 :: is-private: 0, owner-param: -1, read: 1, write: 0
    current_stage: 3 :: is-private: 0, owner-param: -1, read: 1, write: 1
    harvest_phase: 3 8 :: is-private: 0, owner-param: -1, read: 1, write: 1
    next_round: 4 4 :: is-private: 0, owner-param: -1, read: 1, write: 0
    hold_round: 4 9 :: is-private: 0, owner-param: -1, read: 1, write: 1
    current_round: 4 :: is-private: 0, owner-param: -1, read: 1, write: 1
    category_round: 4 7 :: is-private: 0, owner-param: -1, read: 1, write: 0
    next_worker: 5 5 :: is-private: 0, owner-param: -1, read: 1, write: 0
    current_worker: 5 :: is-private: 0, owner-param: -1, read: 1, write: 1
    max_worker: 5 :: is-private: 0, owner-param: -1, read: 1, write: 1
    newborn: :: is-private: 0, owner-param: -1, read: 1, write: 1
    plowed_fields: :: is-private: 0, owner-param: -1, read: 1, write: 1
    stored_veg: 18 :: is-private: 0, owner-param: -1, read: 1, write: 1
    sown_veg: 18 :: is-private: 0, owner-param: -1, read: 1, write: 1
    can_harvest: 18 :: is-private: 0, owner-param: -1, read: 1, write: 1
    fences_for: 17 :: is-private: 0, owner-param: -1, read: 1, write: 1
    owned_animals: 17 :: is-private: 0, owner-param: -1, read: 1, write: 1
    can_breed: 17 :: is-private: 0, owner-param: -1, read: 1, write: 1
    next_num: 12 12 :: is-private: 0, owner-param: -1, read: 1, write: 0
    next2_num: 12 12 :: is-private: 0, owner-param: -1, read: 1, write: 0
    num_substract: 12 12 12 :: is-private: 0, owner-param: -1, read: 1, write: 0
    food_required: 5 12 :: is-private: 0, owner-param: -1, read: 1, write: 0
    open_action: 1 :: is-private: 0, owner-param: -1, read: 1, write: 1
    available_action: 1 :: is-private: 0, owner-param: -1, read: 1, write: 1
    drawcard_round: 1 4 :: is-private: 0, owner-param: -1, read: 1, write: 0
    num_food: 12 :: is-private: 0, owner-param: -1, read: 1, write: 1
    stored_resource: 10 :: is-private: 0, owner-param: -1, read: 1, write: 1
    supply_resource: 13 10 :: is-private: 0, owner-param: -1, read: 1, write: 0
    space_rooms: 11 :: is-private: 0, owner-param: -1, read: 1, write: 1
    built_rooms: 11 5 :: is-private: 0, owner-param: -1, read: 1, write: 1
    ok: :: is-private: 0, owner-param: -1, read: 0, write: 1
    home_improvement: 6 :: is-private: 0, owner-param: -1, read: 1, write: 1
Function[2]:
    total-cost: :: is-private: 0, owner-param: -1, read: 0, write: 0
    group_worker_cost: 5 :: is-private: 0, owner-param: -1, read: 0, write: 0
Action[22]:
    ag__harvest_collect_end: ?r:4 ?s:3
        pre: (and (RW:hold_round ?r roundend) (RW:harvest_phase ?s harvest_init) (R:category_round ?r tharvest))
        eff: (and (N:RW:harvest_phase ?s harvest_init) (RW:harvest_phase ?s harvest_feeding) (increase (total-cost) 1))
    ag__harvest_collecting_veg: ?r:4 ?s:3 ?v:18 ?i1:12 ?i2:12 ?i3:12
        pre: (and (RW:hold_round ?r roundend) (RW:harvest_phase ?s harvest_init) (R:category_round ?r tharvest) (RW:sown_veg ?v) (RW:num_food ?i1) (R:next2_num ?i1 ?i2) (R:next_num ?i2 ?i3) (RW:can_harvest ?v))
        eff: (and (N:RW:num_food ?i1) (RW:num_food ?i3) (N:RW:sown_veg ?v) (N:RW:can_harvest ?v) (increase (total-cost) 1))
    ag__harvest_collecting_fromoven: ?r:4 ?s:3 ?v:18 ?i1:12 ?i2:12 ?i3:12
        pre: (and (RW:hold_round ?r roundend) (RW:harvest_phase ?s harvest_init) (R:category_round ?r tharvest) (RW:home_improvement oven) (RW:sown_veg ?v) (RW:num_food ?i1) (R:next2_num ?i1 ?i2) (R:next2_num ?i2 ?i3) (RW:can_harvest ?v))
        eff: (and (N:RW:num_food ?i1) (RW:num_food ?i3) (N:RW:sown_veg ?v) (N:RW:can_harvest ?v) (increase (total-cost) 1))
    ag__harvest_feed: ?r:4 ?s:3 ?wmax:5 ?inow:12 ?ifeed:12 ?irest:12
        pre: (and (RW:hold_round ?r roundend) (RW:harvest_phase ?s harvest_feeding) (R:category_round ?r tharvest) (RW:max_worker ?wmax) (R:food_required ?wmax ?ifeed) (RW:num_food ?inow) (R:num_substract ?inow ?ifeed ?irest))
        eff: (and (N:RW:harvest_phase ?s harvest_feeding) (RW:harvest_phase ?s harvest_breeding) (N:RW:num_food ?inow) (RW:num_food ?irest) (increase (total-cost) 1) (RW:can_breed sheep) (RW:can_breed boar) (RW:can_breed cattle))
    ag__harvest_breeding_animal: ?r:4 ?s:3 ?a:17 ?i:12 ?i2:12
        pre: (and (RW:hold_round ?r roundend) (RW:harvest_phase ?s harvest_breeding) (R:category_round ?r tharvest) (RW:owned_animals ?a) (RW:num_food ?i) (R:next2_num ?i ?i2) (RW:can_breed ?a))
        eff: (and (N:RW:num_food ?i) (RW:num_food ?i2) (N:RW:can_breed ?a) (increase (total-cost) 1))
    ag__harvest_breed_end: ?r:4 ?s:3
        pre: (and (RW:hold_round ?r roundend) (RW:harvest_phase ?s harvest_breeding) (R:category_round ?r tharvest))
        eff: (and (N:RW:harvest_phase ?s harvest_breeding) (RW:harvest_phase ?s harvest_end) (increase (total-cost) 1))
    ag__finish_round_backhome: ?r:4 ?maxw:5
        pre: (and (RW:current_round ?r) (RW:current_worker noworker) (RW:max_worker ?maxw) (N:RW:newborn))
        eff: (and (N:RW:current_worker noworker) (RW:current_worker ?maxw) (N:RW:current_round ?r) (RW:hold_round ?r backhome) (increase (total-cost) 1))
    ag__finish_round_backhome_withchild: ?r:4 ?maxw:5 ?newmax:5
        pre: (and (RW:current_round ?r) (RW:current_worker noworker) (RW:max_worker ?maxw) (R:next_worker ?newmax ?maxw) (RW:newborn))
        eff: (and (N:RW:current_worker noworker) (RW:current_worker ?newmax) (N:RW:max_worker ?maxw) (RW:max_worker ?newmax) (N:RW:current_round ?r) (N:RW:newborn) (RW:hold_round ?r backhome) (increase (total-cost) 1))
    ag__finish_round_renew: ?r:4 ?maxw:5
        pre: (and (RW:hold_round ?r backhome))
        eff: (and (N:RW:hold_round ?r backhome) (RW:hold_round ?r roundend) (RW:available_action act_rest) (RW:available_action act_labor) (RW:available_action act_plow) (RW:available_action act_grain) (RW:available_action act_sow) (RW:available_action act_sheep) (RW:available_action act_wood) (RW:available_action act_clay) (RW:available_action act_stone) (RW:available_action act_reed) (RW:available_action act_family) (RW:available_action act_build) (RW:available_action act_fences) (RW:available_action act_improve) (RW:can_harvest grain) (RW:can_harvest carrot) (increase (total-cost) 1))
    ag__advance_round_normal: ?r1:4 ?r2:4 ?act:1
        pre: (and (R:category_round ?r1 tnormal) (RW:hold_round ?r1 roundend) (R:next_round ?r1 ?r2) (R:drawcard_round ?act ?r2))
        eff: (and (N:RW:hold_round ?r1 roundend) (RW:current_round ?r2) (RW:open_action ?act) (increase (total-cost) 1))
    ag__finish_stage: ?s1:3 ?s2:3 ?r1:4 ?r2:4 ?act:1
        pre: (and (R:category_round ?r1 tharvest) (RW:hold_round ?r1 roundend) (RW:harvest_phase ?s1 harvest_end) (RW:current_stage ?s1) (R:next_stage ?s1 ?s2) (R:next_round ?r1 ?r2) (R:drawcard_round ?act ?r2))
        eff: (and (N:RW:hold_round ?r1 roundend) (N:RW:current_stage ?s1) (RW:current_round ?r2) (RW:current_stage ?s2) (RW:harvest_phase ?s2 harvest_init) (RW:open_action ?act) (increase (total-cost) 1))
    take_food: ?w1:5 ?w2:5 ?wmax:5 ?r:4 ?i1:12 ?i2:12
        pre: (and (RW:available_action act_labor) (RW:current_worker ?w1) (R:next_worker ?w1 ?w2) (RW:max_worker ?wmax) (RW:current_round ?r) (RW:num_food ?i1) (R:next_num ?i1 ?i2))
        eff: (and (N:RW:available_action act_labor) (N:RW:current_worker ?w1) (RW:current_worker ?w2) (N:RW:num_food ?i1) (RW:num_food ?i2) (increase (total-cost) (group_worker_cost ?wmax)))
    plow_field: ?w1:5 ?w2:5 ?wmax:5 ?r:4
        pre: (and (RW:available_action act_plow) (RW:current_worker ?w1) (R:next_worker ?w1 ?w2) (RW:max_worker ?wmax) (RW:current_round ?r) (N:RW:plowed_fields))
        eff: (and (N:RW:available_action act_plow) (RW:plowed_fields) (N:RW:current_worker ?w1) (RW:current_worker ?w2) (increase (total-cost) (group_worker_cost ?wmax)))
    take_grain: ?w1:5 ?w2:5 ?wmax:5 ?r:4 ?v:18
        pre: (and (RW:available_action act_grain) (RW:current_worker ?w1) (R:next_worker ?w1 ?w2) (RW:max_worker ?wmax) (RW:current_round ?r))
        eff: (and (N:RW:available_action act_grain) (RW:stored_veg ?v) (N:RW:current_worker ?w1) (RW:current_worker ?w2) (increase (total-cost) (group_worker_cost ?wmax)))
    build_fences: ?a:17 ?w1:5 ?w2:5 ?wmax:5 ?r:4
        pre: (and (RW:available_action act_fences) (RW:open_action act_fences) (RW:current_worker ?w1) (R:next_worker ?w1 ?w2) (RW:max_worker ?wmax) (RW:current_round ?r))
        eff: (and (N:RW:available_action act_fences) (N:RW:current_worker ?w1) (RW:current_worker ?w2) (RW:fences_for ?a) (increase (total-cost) (group_worker_cost ?wmax)))
    collect_animal: ?a:17 ?act:14 ?w1:5 ?w2:5 ?wmax:5 ?r:4
        pre: (and (RW:available_action ?act) (RW:open_action ?act) (RW:current_worker ?w1) (R:next_worker ?w1 ?w2) (RW:max_worker ?wmax) (RW:current_round ?r) (RW:fences_for ?a))
        eff: (and (N:RW:available_action ?act) (N:RW:current_worker ?w1) (RW:current_worker ?w2) (RW:owned_animals ?a) (increase (total-cost) (group_worker_cost ?wmax)))
    collect_cook_animal: ?a:17 ?act:14 ?w1:5 ?w2:5 ?wmax:5 ?r:4 ?i1:12 ?i2:12
        pre: (and (RW:available_action ?act) (RW:open_action ?act) (RW:current_worker ?w1) (R:next_worker ?w1 ?w2) (RW:max_worker ?wmax) (RW:current_round ?r) (RW:home_improvement fireplace) (RW:num_food ?i1) (R:next2_num ?i1 ?i2))
        eff: (and (N:RW:available_action ?act) (N:RW:current_worker ?w1) (RW:current_worker ?w2) (N:RW:num_food ?i1) (RW:num_food ?i2) (W:ok) (increase (total-cost) (group_worker_cost ?wmax)))
    collect_resource: ?w1:5 ?w2:5 ?wmax:5 ?r:4 ?act:13 ?res:10
        pre: (and (RW:available_action ?act) (RW:open_action ?act) (RW:current_worker ?w1) (R:next_worker ?w1 ?w2) (RW:max_worker ?wmax) (RW:current_round ?r) (R:supply_resource ?act ?res))
        eff: (and (N:RW:available_action ?act) (N:RW:current_worker ?w1) (RW:current_worker ?w2) (RW:stored_resource ?res) (increase (total-cost) (group_worker_cost ?wmax)))
    build_room: ?w1:5 ?w2:5 ?wmax:5 ?wnewmax:5 ?r:4 ?room:11
        pre: (and (RW:available_action act_build) (RW:open_action act_build) (RW:current_worker ?w1) (R:next_worker ?w1 ?w2) (RW:max_worker ?wmax) (R:next_worker ?wnewmax ?wmax) (RW:current_round ?r) (RW:stored_resource wood) (RW:stored_resource reed) (RW:space_rooms ?room))
        eff: (and (N:RW:available_action act_build) (N:RW:current_worker ?w1) (RW:current_worker ?w2) (N:RW:space_rooms ?room) (RW:built_rooms ?room ?wnewmax) (N:RW:stored_resource wood) (N:RW:stored_resource reed) (increase (total-cost) (group_worker_cost ?wmax)))
    improve_home: ?w1:5 ?w2:5 ?wmax:5 ?r:4 ?imp:6
        pre: (and (RW:available_action act_improve) (RW:open_action act_improve) (RW:current_worker ?w1) (R:next_worker ?w1 ?w2) (RW:max_worker ?wmax) (RW:current_round ?r) (RW:stored_resource clay) (RW:stored_resource stone))
        eff: (and (N:RW:available_action act_improve) (N:RW:current_worker ?w1) (RW:current_worker ?w2) (RW:home_improvement ?imp) (N:RW:stored_resource clay) (N:RW:stored_resource stone) (increase (total-cost) (group_worker_cost ?wmax)))
    family_growth: ?w1:5 ?w2:5 ?wmax:5 ?wnewmax:5 ?r:4 ?res:10 ?room:11
        pre: (and (RW:available_action act_family) (RW:open_action act_family) (RW:current_worker ?w1) (R:next_worker ?w1 ?w2) (RW:max_worker ?wmax) (R:next_worker ?wnewmax ?wmax) (RW:built_rooms ?room ?wnewmax) (RW:current_round ?r))
        eff: (and (N:RW:available_action act_family) (N:RW:current_worker ?w1) (RW:current_worker ?w2) (RW:newborn) (increase (total-cost) (group_worker_cost ?wmax)))
    sow: ?w1:5 ?w2:5 ?wmax:5 ?r:4 ?v:18
        pre: (and (RW:available_action act_sow) (RW:open_action act_sow) (RW:current_worker ?w1) (R:next_worker ?w1 ?w2) (RW:max_worker ?wmax) (RW:current_round ?r) (RW:plowed_fields) (RW:stored_veg ?v))
        eff: (and (N:RW:available_action act_plow) (N:RW:stored_veg ?v) (RW:sown_veg ?v) (N:RW:current_worker ?w1) (RW:current_worker ?w2) (increase (total-cost) (group_worker_cost ?wmax)))
Init[282]:
  S:(next_num num0 num1)
  S:(next_num num1 num2)
  S:(next_num num2 num3)
  S:(next_num num3 num4)
  S:(next_num num4 num5)
  S:(next_num num5 num6)
  S:(next_num num6 num7)
  S:(next_num num7 num8)
  S:(next_num num8 num9)
  S:(next_num num9 num10)
  S:(next_num num10 num11)
  S:(next_num num11 num12)
  S:(next_num num12 num13)
  S:(next_num num13 num14)
  S:(next_num num14 num15)
  S:(next_num num15 num16)
  S:(num_substract num1 num1 num0)
  S:(num_substract num2 num1 num1)
  S:(num_substract num2 num2 num0)
  S:(num_substract num3 num1 num2)
  S:(num_substract num3 num2 num1)
  S:(num_substract num3 num3 num0)
  S:(num_substract num4 num1 num3)
  S:(num_substract num4 num2 num2)
  S:(num_substract num4 num3 num1)
  S:(num_substract num4 num4 num0)
  S:(num_substract num5 num1 num4)
  S:(num_substract num5 num2 num3)
  S:(num_substract num5 num3 num2)
  S:(num_substract num5 num4 num1)
  S:(num_substract num5 num5 num0)
  S:(num_substract num6 num1 num5)
  S:(num_substract num6 num2 num4)
  S:(num_substract num6 num3 num3)
  S:(num_substract num6 num4 num2)
  S:(num_substract num6 num5 num1)
  S:(num_substract num6 num6 num0)
  S:(num_substract num7 num1 num6)
  S:(num_substract num7 num2 num5)
  S:(num_substract num7 num3 num4)
  S:(num_substract num7 num4 num3)
  S:(num_substract num7 num5 num2)
  S:(num_substract num7 num6 num1)
  S:(num_substract num7 num7 num0)
  S:(num_substract num8 num1 num7)
  S:(num_substract num8 num2 num6)
  S:(num_substract num8 num3 num5)
  S:(num_substract num8 num4 num4)
  S:(num_substract num8 num5 num3)
  S:(num_substract num8 num6 num2)
  S:(num_substract num8 num7 num1)
  S:(num_substract num8 num8 num0)
  S:(num_substract num9 num1 num8)
  S:(num_substract num9 num2 num7)
  S:(num_substract num9 num3 num6)
  S:(num_substract num9 num4 num5)
  S:(num_substract num9 num5 num4)
  S:(num_substract num9 num6 num3)
  S:(num_substract num9 num7 num2)
  S:(num_substract num9 num8 num1)
  S:(num_substract num9 num9 num0)
  S:(num_substract num10 num1 num9)
  S:(num_substract num10 num2 num8)
  S:(num_substract num10 num3 num7)
  S:(num_substract num10 num4 num6)
  S:(num_substract num10 num5 num5)
  S:(num_substract num10 num6 num4)
  S:(num_substract num10 num7 num3)
  S:(num_substract num10 num8 num2)
  S:(num_substract num10 num9 num1)
  S:(num_substract num10 num10 num0)
  S:(num_substract num11 num1 num10)
  S:(num_substract num11 num2 num9)
  S:(num_substract num11 num3 num8)
  S:(num_substract num11 num4 num7)
  S:(num_substract num11 num5 num6)
  S:(num_substract num11 num6 num5)
  S:(num_substract num11 num7 num4)
  S:(num_substract num11 num8 num3)
  S:(num_substract num11 num9 num2)
  S:(num_substract num11 num10 num1)
  S:(num_substract num11 num11 num0)
  S:(num_substract num12 num1 num11)
  S:(num_substract num12 num2 num10)
  S:(num_substract num12 num3 num9)
  S:(num_substract num12 num4 num8)
  S:(num_substract num12 num5 num7)
  S:(num_substract num12 num6 num6)
  S:(num_substract num12 num7 num5)
  S:(num_substract num12 num8 num4)
  S:(num_substract num12 num9 num3)
  S:(num_substract num12 num10 num2)
  S:(num_substract num12 num11 num1)
  S:(num_substract num12 num12 num0)
  S:(num_substract num13 num1 num12)
  S:(num_substract num13 num2 num11)
  S:(num_substract num13 num3 num10)
  S:(num_substract num13 num4 num9)
  S:(num_substract num13 num5 num8)
  S:(num_substract num13 num6 num7)
  S:(num_substract num13 num7 num6)
  S:(num_substract num13 num8 num5)
  S:(num_substract num13 num9 num4)
  S:(num_substract num13 num10 num3)
  S:(num_substract num13 num11 num2)
  S:(num_substract num13 num12 num1)
  S:(num_substract num13 num13 num0)
  S:(num_substract num14 num1 num13)
  S:(num_substract num14 num2 num12)
  S:(num_substract num14 num3 num11)
  S:(num_substract num14 num4 num10)
  S:(num_substract num14 num5 num9)
  S:(num_substract num14 num6 num8)
  S:(num_substract num14 num7 num7)
  S:(num_substract num14 num8 num6)
  S:(num_substract num14 num9 num5)
  S:(num_substract num14 num10 num4)
  S:(num_substract num14 num11 num3)
  S:(num_substract num14 num12 num2)
  S:(num_substract num14 num13 num1)
  S:(num_substract num14 num14 num0)
  S:(num_substract num15 num1 num14)
  S:(num_substract num15 num2 num13)
  S:(num_substract num15 num3 num12)
  S:(num_substract num15 num4 num11)
  S:(num_substract num15 num5 num10)
  S:(num_substract num15 num6 num9)
  S:(num_substract num15 num7 num8)
  S:(num_substract num15 num8 num7)
  S:(num_substract num15 num9 num6)
  S:(num_substract num15 num10 num5)
  S:(num_substract num15 num11 num4)
  S:(num_substract num15 num12 num3)
  S:(num_substract num15 num13 num2)
  S:(num_substract num15 num14 num1)
  S:(num_substract num15 num15 num0)
  S:(num_substract num16 num1 num15)
  S:(num_substract num16 num2 num14)
  S:(num_substract num16 num3 num13)
  S:(num_substract num16 num4 num12)
  S:(num_substract num16 num5 num11)
  S:(num_substract num16 num6 num10)
  S:(num_substract num16 num7 num9)
  S:(num_substract num16 num8 num8)
  S:(num_substract num16 num9 num7)
  S:(num_substract num16 num10 num6)
  S:(num_substract num16 num11 num5)
  S:(num_substract num16 num12 num4)
  S:(num_substract num16 num13 num3)
  S:(num_substract num16 num14 num2)
  S:(num_substract num16 num15 num1)
  S:(num_substract num16 num16 num0)
  S:(next2_num num0 num2)
  S:(next2_num num1 num3)
  S:(next2_num num2 num4)
  S:(next2_num num3 num5)
  S:(next2_num num4 num6)
  S:(next2_num num5 num7)
  S:(next2_num num6 num8)
  S:(next2_num num7 num9)
  S:(next2_num num8 num10)
  S:(next2_num num9 num11)
  S:(next2_num num10 num12)
  S:(next2_num num11 num13)
  S:(next2_num num12 num14)
  S:(next2_num num13 num15)
  S:(next2_num num14 num16)
  S:(next_stage stage1 stage2)
  S:(next_stage stage2 stage3)
  S:(next_stage stage3 stage4)
  S:(next_stage stage4 stage5)
  S:(next_stage stage5 stage6)
  S:(next_stage stage6 stage7)
  S:(next_stage stage7 stage8)
  S:(next_stage stage8 stage9)
  S:(next_stage stage9 stage10)
  S:(next_round round1 round2)
  S:(next_round round2 round3)
  S:(next_round round3 round4)
  S:(next_round round4 round5)
  S:(next_round round5 round6)
  S:(next_round round6 round7)
  S:(next_round round7 round8)
  S:(next_round round8 round9)
  S:(next_round round9 round10)
  S:(next_round round10 round11)
  S:(next_round round11 round12)
  S:(next_round round12 round13)
  S:(next_round round13 round14)
  S:(next_round round14 round15)
  S:(next_round round15 round16)
  S:(next_round round16 round17)
  S:(next_round round17 round18)
  S:(next_worker worker5 worker4)
  S:(next_worker worker4 worker3)
  S:(next_worker worker3 worker2)
  S:(next_worker worker2 worker1)
  S:(next_worker worker1 noworker)
  S:(category_round round1 tnormal)
  S:(category_round round2 tnormal)
  S:(category_round round3 tnormal)
  S:(category_round round4 tharvest)
  S:(category_round round5 tnormal)
  S:(category_round round6 tnormal)
  S:(category_round round7 tharvest)
  S:(category_round round8 tnormal)
  S:(category_round round9 tharvest)
  S:(category_round round10 tnormal)
  S:(category_round round11 tharvest)
  S:(category_round round12 tnormal)
  S:(category_round round13 tharvest)
  S:(category_round round14 tharvest)
  S:(category_round round15 tharvest)
  S:(category_round round16 tharvest)
  S:(category_round round17 tharvest)
  S:(category_round round18 tharvest)
  (open_action act_labor)
  (open_action act_wood)
  (open_action act_clay)
  (open_action act_reed)
  (open_action act_build)
  (open_action act_plow)
  (open_action act_grain)
  (open_action act_stone)
  (open_action act_fences)
  S:(drawcard_round act_fences round1)
  S:(drawcard_round act_sheep round2)
  S:(drawcard_round act_sow round3)
  S:(drawcard_round act_family round4)
  S:(drawcard_round act_boar round5)
  S:(drawcard_round act_carrot round6)
  S:(drawcard_round act_improve round7)
  S:(drawcard_round act_cattle round8)
  S:(drawcard_round void round9)
  S:(drawcard_round void round10)
  S:(drawcard_round void round11)
  S:(drawcard_round void round12)
  S:(drawcard_round void round13)
  S:(drawcard_round void round14)
  S:(drawcard_round void round15)
  S:(drawcard_round void round16)
  S:(drawcard_round void round17)
  S:(drawcard_round void round18)
  (available_action act_labor)
  (available_action act_wood)
  (available_action act_clay)
  (available_action act_reed)
  (available_action act_build)
  (available_action act_plow)
  (available_action act_grain)
  (available_action act_stone)
  (available_action act_fences)
  (available_action act_sheep)
  (available_action act_sow)
  (available_action act_family)
  (available_action act_improve)
  (available_action act_carrot)
  (available_action act_boar)
  (available_action act_cattle)
  S:(food_required worker2 num4)
  S:(food_required worker2 num5)
  S:(food_required worker3 num6)
  S:(food_required worker3 num7)
  S:(food_required worker4 num8)
  S:(food_required worker4 num9)
  S:(food_required worker5 num10)
  S:(food_required worker5 num11)
  (current_worker worker2)
  (max_worker worker2)
  (current_round round1)
  (current_stage stage1)
  (harvest_phase stage1 harvest_init)
  (num_food num3)
  S:(supply_resource act_wood wood)
  S:(supply_resource act_clay clay)
  S:(supply_resource act_reed reed)
  S:(supply_resource act_stone stone)
  (built_rooms room1 worker1)
  (built_rooms room2 worker2)
  (space_rooms room3)
  (space_rooms room4)
  (space_rooms room5)
Init[4]:
  (= (group_worker_cost worker2) 60)
  (= (group_worker_cost worker3) 30)
  (= (group_worker_cost worker4) 15)
  (= (group_worker_cost worker5) 6)
Goal: (and (RW:harvest_phase stage9 harvest_end))
Metric: 1
