Reduced 38 -> 37
Domain: organic-synthesis
Problem: alkene_p18
Require: ff
Type[11]:
    [0]: object, parent: -1
    [1]: chemical_atom, parent: 0
    [2]: sulfur, parent: 1
    [3]: r_group, parent: 1
    [4]: halogen, parent: 3
    [5]: hcno, parent: 3
    [6]: hc, parent: 5
    [7]: oxygen, parent: 5
    [8]: hydrogen, parent: 6
    [9]: carbon, parent: 6
    [10]: chlorine, parent: 4
Obj-by-Type:
    [0]: 0 1 2 3 4 5 6 7 8 9 10 11 12 13 14 15 16 17 18 19 20 21 22 23 24 25 26 27 28 29 30 31 32 33 34 35 36
    [1]: 0 1 2 3 4 5 6 7 8 9 10 11 12 13 14 15 16 17 18 19 20 21 22 23 24 25 26 27 28 29 30 31 32 33 34 35 36
    [2]: 36
    [3]: 0 1 2 3 4 5 6 7 8 9 10 11 12 13 14 15 16 17 18 19 20 21 22 23 24 25 26 27 28 29 30 31 32 33 34 35
    [4]: 14
    [5]: 0 1 2 3 4 5 6 7 8 9 10 11 12 13 15 16 17 18 19 20 21 22 23 24 25 26 27 28 29 30 31 32 33 34 35
    [6]: 0 1 2 3 4 5 6 7 8 9 10 11 12 13 15 16 17 18 19 20 21 22 23 24 25 26 27 28 29 30 31 32
    [7]: 33 34 35
    [8]: 15 16 17 18 19 20 21 22 23 24 25 26 27 28 29 30 31 32
    [9]: 0 1 2 3 4 5 6 7 8 9 10 11 12 13
    [10]: 14
Obj[37]:
    [0]: c016, type: 9, is-constant: 0, is-private: 0, owner: -1, is-agent: 0
    [1]: c019, type: 9, is-constant: 0, is-private: 0, owner: -1, is-agent: 0
    [2]: c020, type: 9, is-constant: 0, is-private: 0, owner: -1, is-agent: 0
    [3]: c021, type: 9, is-constant: 0, is-private: 0, owner: -1, is-agent: 0
    [4]: c022, type: 9, is-constant: 0, is-private: 0, owner: -1, is-agent: 0
    [5]: c023, type: 9, is-constant: 0, is-private: 0, owner: -1, is-agent: 0
    [6]: c024, type: 9, is-constant: 0, is-private: 0, owner: -1, is-agent: 0
    [7]: c032, type: 9, is-constant: 0, is-private: 0, owner: -1, is-agent: 0
    [8]: c033, type: 9, is-constant: 0, is-private: 0, owner: -1, is-agent: 0
    [9]: c034, type: 9, is-constant: 0, is-private: 0, owner: -1, is-agent: 0
    [10]: c035, type: 9, is-constant: 0, is-private: 0, owner: -1, is-agent: 0
    [11]: c036, type: 9, is-constant: 0, is-private: 0, owner: -1, is-agent: 0
    [12]: c037, type: 9, is-constant: 0, is-private: 0, owner: -1, is-agent: 0
    [13]: c038, type: 9, is-constant: 0, is-private: 0, owner: -1, is-agent: 0
    [14]: cl073, type: 10, is-constant: 0, is-private: 0, owner: -1, is-agent: 0
    [15]: h060, type: 8, is-constant: 0, is-private: 0, owner: -1, is-agent: 0
    [16]: h061, type: 8, is-constant: 0, is-private: 0, owner: -1, is-agent: 0
    [17]: h106, type: 8, is-constant: 0, is-private: 0, owner: -1, is-agent: 0
    [18]: h107, type: 8, is-constant: 0, is-private: 0, owner: -1, is-agent: 0
    [19]: h108, type: 8, is-constant: 0, is-private: 0, owner: -1, is-agent: 0
    [20]: h133, type: 8, is-constant: 0, is-private: 0, owner: -1, is-agent: 0
    [21]: h134, type: 8, is-constant: 0, is-private: 0, owner: -1, is-agent: 0
    [22]: h135, type: 8, is-constant: 0, is-private: 0, owner: -1, is-agent: 0
    [23]: h136, type: 8, is-constant: 0, is-private: 0, owner: -1, is-agent: 0
    [24]: h137, type: 8, is-constant: 0, is-private: 0, owner: -1, is-agent: 0
    [25]: h138, type: 8, is-constant: 0, is-private: 0, owner: -1, is-agent: 0
    [26]: h139, type: 8, is-constant: 0, is-private: 0, owner: -1, is-agent: 0
    [27]: h140, type: 8, is-constant: 0, is-private: 0, owner: -1, is-agent: 0
    [28]: h141, type: 8, is-constant: 0, is-private: 0, owner: -1, is-agent: 0
    [29]: h142, type: 8, is-constant: 0, is-private: 0, owner: -1, is-agent: 0
    [30]: h143, type: 8, is-constant: 0, is-private: 0, owner: -1, is-agent: 0
    [31]: h144, type: 8, is-constant: 0, is-private: 0, owner: -1, is-agent: 0
    [32]: h180, type: 8, is-constant: 0, is-private: 0, owner: -1, is-agent: 0
    [33]: o066, type: 7, is-constant: 0, is-private: 0, owner: -1, is-agent: 0
    [34]: o068, type: 7, is-constant: 0, is-private: 0, owner: -1, is-agent: 0
    [35]: o178, type: 7, is-constant: 0, is-private: 0, owner: -1, is-agent: 0
    [36]: s072, type: 2, is-constant: 0, is-private: 0, owner: -1, is-agent: 0
Predicate[5]:
    =: 0 0 :: is-private: 0, owner-param: -1, read: 1, write: 0
    bond: 1 1 :: is-private: 0, owner-param: -1, read: 1, write: 1
    doublebond: 1 1 :: is-private: 0, owner-param: -1, read: 1, write: 1
    triplebond: 1 1 :: is-private: 0, owner-param: -1, read: 0, write: 0
    aromaticbond: 1 1 :: is-private: 0, owner-param: -1, read: 0, write: 0
Function[0]:
Action[7]:
    additionofrohacrossgemdisubstitutedalkene: ?c_1:9 ?c_2:9 ?h_5:8 ?o_6:7 ?r1_8:9 ?h_4:8 ?r0_7:6 ?h_3:8 ?r2_9:6
        pre: (and (N:R:= ?c_1 ?c_2) (N:R:= ?h_4 ?h_3) (RW:bond ?c_2 ?h_3) (RW:bond ?c_2 ?h_4) (RW:bond ?c_1 ?r1_8) (RW:doublebond ?c_1 ?c_2) (RW:bond ?r0_7 ?c_1) (RW:bond ?o_6 ?h_5) (RW:bond ?r2_9 ?o_6))
        eff: (and (N:RW:doublebond ?c_1 ?c_2) (N:RW:doublebond ?c_2 ?c_1) (RW:bond ?c_1 ?c_2) (RW:bond ?c_2 ?c_1) (RW:bond ?c_1 ?o_6) (RW:bond ?o_6 ?c_1) (RW:bond ?c_2 ?h_5) (RW:bond ?h_5 ?c_2) (N:RW:bond ?o_6 ?h_5) (N:RW:bond ?h_5 ?o_6))
    additionofrohacrossmonosubstitutedalkene: ?c_1:9 ?h_6:8 ?o_7:7 ?c_2:9 ?r0_8:6 ?h_4:8 ?h_5:8 ?h_3:8 ?r1_9:6
        pre: (and (N:R:= ?c_1 ?c_2) (N:R:= ?h_5 ?h_3) (N:R:= ?h_4 ?h_3) (N:R:= ?h_4 ?h_5) (RW:bond ?c_1 ?h_3) (RW:bond ?c_2 ?h_5) (RW:bond ?c_2 ?h_4) (RW:doublebond ?c_1 ?c_2) (RW:bond ?r0_8 ?c_1) (RW:bond ?o_7 ?h_6) (RW:bond ?r1_9 ?o_7))
        eff: (and (N:RW:doublebond ?c_1 ?c_2) (N:RW:doublebond ?c_2 ?c_1) (RW:bond ?c_1 ?c_2) (RW:bond ?c_2 ?c_1) (RW:bond ?c_1 ?o_7) (RW:bond ?o_7 ?c_1) (RW:bond ?c_2 ?h_6) (RW:bond ?h_6 ?c_2) (N:RW:bond ?o_7 ?h_6) (N:RW:bond ?h_6 ?o_7))
    additionofrohacrosstetrasubstitutedalkene: ?c_1:9 ?o_4:7 ?c_2:9 ?h_3:8 ?r1_6:9 ?r2_7:9 ?r3_8:9 ?r0_5:9 ?r4_9:6
        pre: (and (N:R:= ?c_1 ?c_2) (N:R:= ?r3_8 ?r0_5) (N:R:= ?r2_7 ?r3_8) (N:R:= ?r2_7 ?r0_5) (N:R:= ?r1_6 ?r0_5) (N:R:= ?r1_6 ?r2_7) (N:R:= ?r1_6 ?r3_8) (RW:bond ?c_2 ?r3_8) (RW:bond ?c_1 ?r1_6) (RW:bond ?c_2 ?r2_7) (RW:doublebond ?c_1 ?c_2) (RW:bond ?r0_5 ?c_1) (RW:bond ?o_4 ?h_3) (RW:bond ?r4_9 ?o_4))
        eff: (and (N:RW:doublebond ?c_1 ?c_2) (N:RW:doublebond ?c_2 ?c_1) (RW:bond ?c_1 ?c_2) (RW:bond ?c_2 ?c_1) (RW:bond ?c_1 ?o_4) (RW:bond ?o_4 ?c_1) (RW:bond ?c_2 ?h_3) (RW:bond ?h_3 ?c_2) (N:RW:bond ?o_4 ?h_3) (N:RW:bond ?h_3 ?o_4))
    additionofrohacrosstrisubstitutedalkene: ?c_1:9 ?o_5:7 ?h_4:8 ?c_2:9 ?r2_8:9 ?h_3:8 ?r0_6:9 ?r1_7:9 ?r3_9:6
        pre: (and (N:R:= ?c_1 ?c_2) (N:R:= ?r2_8 ?r0_6) (N:R:= ?r0_6 ?r1_7) (N:R:= ?r2_8 ?r1_7) (RW:bond ?r0_6 ?c_1) (RW:bond ?c_1 ?r1_7) (RW:doublebond ?c_1 ?c_2) (RW:bond ?c_2 ?h_3) (RW:bond ?c_2 ?r2_8) (RW:bond ?r3_9 ?o_5) (RW:bond ?o_5 ?h_4))
        eff: (and (N:RW:doublebond ?c_1 ?c_2) (N:RW:doublebond ?c_2 ?c_1) (RW:bond ?c_1 ?c_2) (RW:bond ?c_2 ?c_1) (RW:bond ?c_1 ?o_5) (RW:bond ?o_5 ?c_1) (RW:bond ?c_2 ?h_4) (RW:bond ?h_4 ?c_2) (N:RW:bond ?o_5 ?h_4) (N:RW:bond ?h_4 ?o_5))
    additionofrohacrossvicdisubstitutedalkene: ?c_1:9 ?c_2:9 ?h_5:8 ?o_6:7 ?r1_8:9 ?h_4:8 ?r0_7:9 ?h_3:8 ?r2_9:6
        pre: (and (N:R:= ?c_1 ?c_2) (N:R:= ?r1_8 ?r0_7) (N:R:= ?h_4 ?h_3) (RW:bond ?c_1 ?h_3) (RW:bond ?c_2 ?h_4) (RW:bond ?c_2 ?r1_8) (RW:doublebond ?c_1 ?c_2) (RW:bond ?r0_7 ?c_1) (RW:bond ?o_6 ?h_5) (RW:bond ?r2_9 ?o_6))
        eff: (and (N:RW:doublebond ?c_1 ?c_2) (N:RW:doublebond ?c_2 ?c_1) (RW:bond ?c_1 ?c_2) (RW:bond ?c_2 ?c_1) (RW:bond ?c_1 ?o_6) (RW:bond ?o_6 ?c_1) (RW:bond ?c_2 ?h_5) (RW:bond ?h_5 ?c_2) (N:RW:bond ?o_6 ?h_5) (N:RW:bond ?h_5 ?o_6))
    etherformationbysulfonatedisplacement: ?h_5:8 ?o_4:7 ?c_2:9 ?o_3:7 ?o_6:7 ?s_7:2 ?h_1:8 ?r2_11:9 ?o_8:7 ?r1_10:6 ?r0_9:6 ?r3_12:9
        pre: (and (N:R:= ?o_4 ?o_3) (N:R:= ?o_3 ?o_6) (N:R:= ?o_6 ?o_8) (N:R:= ?r1_10 ?r0_9) (N:R:= ?o_3 ?o_8) (RW:bond ?c_2 ?h_1) (RW:doublebond ?s_7 ?o_8) (RW:doublebond ?s_7 ?o_6) (RW:bond ?s_7 ?r2_11) (RW:bond ?o_3 ?s_7) (RW:bond ?c_2 ?r0_9) (RW:bond ?c_2 ?r1_10) (RW:bond ?c_2 ?o_3) (RW:bond ?r3_12 ?o_4) (RW:bond ?h_5 ?o_4))
        eff: (and (N:RW:bond ?c_2 ?o_3) (N:RW:bond ?o_3 ?c_2) (RW:bond ?c_2 ?o_4) (RW:bond ?o_4 ?c_2) (RW:bond ?o_3 ?h_5) (RW:bond ?h_5 ?o_3) (N:RW:bond ?h_5 ?o_4) (N:RW:bond ?o_4 ?h_5))
    sulfonylationofalcohol: ?h_2:8 ?o_1:7 ?s_5:2 ?cl_3:10 ?r0_7:9 ?o_4:7 ?r1_8:9 ?o_6:7
        pre: (and (RW:bond ?r0_7 ?o_1) (RW:bond ?o_1 ?h_2) (N:R:= ?o_4 ?o_6) (RW:doublebond ?s_5 ?o_6) (RW:doublebond ?s_5 ?o_4) (RW:bond ?s_5 ?r1_8) (RW:bond ?cl_3 ?s_5))
        eff: (and (N:RW:bond ?o_1 ?h_2) (N:RW:bond ?h_2 ?o_1) (RW:bond ?o_1 ?s_5) (RW:bond ?s_5 ?o_1) (RW:bond ?h_2 ?cl_3) (RW:bond ?cl_3 ?h_2) (N:RW:bond ?cl_3 ?s_5) (N:RW:bond ?s_5 ?cl_3))
Init[72]:
  (bond c016 h108)
  (bond h108 c016)
  (bond c016 h107)
  (bond h107 c016)
  (bond c016 h106)
  (bond h106 c016)
  (bond c016 o066)
  (bond o066 c016)
  (doublebond c019 c024)
  (doublebond c024 c019)
  (bond c019 c020)
  (bond c020 c019)
  (doublebond c020 c021)
  (doublebond c021 c020)
  (bond c021 s072)
  (bond s072 c021)
  (bond c021 c022)
  (bond c022 c021)
  (doublebond c022 c023)
  (doublebond c023 c022)
  (bond c023 c024)
  (bond c024 c023)
  (bond c032 o178)
  (bond o178 c032)
  (bond c032 c033)
  (bond c033 c032)
  (bond c032 h134)
  (bond h134 c032)
  (bond c032 h133)
  (bond h133 c032)
  (bond c033 h060)
  (bond h060 c033)
  (bond c033 c038)
  (bond c038 c033)
  (bond c033 c034)
  (bond c034 c033)
  (bond c034 h136)
  (bond h136 c034)
  (bond c034 h135)
  (bond h135 c034)
  (bond c034 c035)
  (bond c035 c034)
  (bond c035 h138)
  (bond h138 c035)
  (bond c035 h137)
  (bond h137 c035)
  (bond c035 c036)
  (bond c036 c035)
  (bond c036 c037)
  (bond c037 c036)
  (bond c036 h140)
  (bond h140 c036)
  (bond c036 h139)
  (bond h139 c036)
  (bond c037 h142)
  (bond h142 c037)
  (bond c037 h141)
  (bond h141 c037)
  (bond c037 c038)
  (bond c038 c037)
  (bond c038 h144)
  (bond h144 c038)
  (bond c038 h143)
  (bond h143 c038)
  (bond cl073 s072)
  (bond s072 cl073)
  (bond h061 o066)
  (bond o066 h061)
  (bond h180 o178)
  (bond o178 h180)
  (doublebond o068 s072)
  (doublebond s072 o068)
Init[0]:
Goal: (and (RW:bond c016 o066) (RW:bond o066 c016) (RW:bond c016 h107) (RW:bond h107 c016) (RW:bond c016 h106) (RW:bond h106 c016) (RW:bond c016 h108) (RW:bond h108 c016) (RW:bond c032 c033) (RW:bond c033 c032) (RW:bond c032 o066) (RW:bond o066 c032) (RW:bond c032 h133) (RW:bond h133 c032) (RW:bond c032 h134) (RW:bond h134 c032) (RW:bond c033 c034) (RW:bond c034 c033) (RW:bond c033 c038) (RW:bond c038 c033) (RW:bond c033 h060) (RW:bond h060 c033) (RW:bond c034 c035) (RW:bond c035 c034) (RW:bond c034 h135) (RW:bond h135 c034) (RW:bond c034 h136) (RW:bond h136 c034) (RW:bond c035 c036) (RW:bond c036 c035) (RW:bond c035 h137) (RW:bond h137 c035) (RW:bond c035 h138) (RW:bond h138 c035) (RW:bond c036 c037) (RW:bond c037 c036) (RW:bond c036 h140) (RW:bond h140 c036) (RW:bond c036 h139) (RW:bond h139 c036) (RW:bond c037 c038) (RW:bond c038 c037) (RW:bond c037 h142) (RW:bond h142 c037) (RW:bond c037 h141) (RW:bond h141 c037) (RW:bond c038 h144) (RW:bond h144 c038) (RW:bond c038 h143) (RW:bond h143 c038))
Metric: 0
