Fact[145]:
  (at-robot loc-x0-y0)
  (at-robot loc-x0-y1)
  (at-robot loc-x0-y2)
  (at-robot loc-x0-y3)
  (at-robot loc-x0-y4)
  (at-robot loc-x0-y5)
  (at-robot loc-x0-y6)
  (at-robot loc-x0-y7)
  (at-robot loc-x0-y8)
  (at-robot loc-x0-y9)
  (at-robot loc-x1-y0)
  (at-robot loc-x1-y1)
  (at-robot loc-x1-y2)
  (at-robot loc-x1-y3)
  (at-robot loc-x1-y4)
  (at-robot loc-x1-y5)
  (at-robot loc-x1-y6)
  (at-robot loc-x1-y7)
  (at-robot loc-x1-y8)
  (at-robot loc-x1-y9)
  (at-robot loc-x2-y0)
  (at-robot loc-x2-y1)
  (at-robot loc-x2-y2)
  (at-robot loc-x2-y3)
  (at-robot loc-x2-y4)
  (at-robot loc-x2-y5)
  (at-robot loc-x2-y6)
  (at-robot loc-x2-y7)
  (at-robot loc-x2-y8)
  (at-robot loc-x2-y9)
  (at-robot loc-x3-y0)
  (at-robot loc-x3-y1)
  (at-robot loc-x3-y2)
  (at-robot loc-x3-y3)
  (at-robot loc-x3-y4)
  (at-robot loc-x3-y5)
  (at-robot loc-x3-y6)
  (at-robot loc-x3-y7)
  (at-robot loc-x3-y8)
  (at-robot loc-x3-y9)
  (at-robot loc-x4-y0)
  (at-robot loc-x4-y1)
  (at-robot loc-x4-y2)
  (at-robot loc-x4-y3)
  (at-robot loc-x4-y4)
  (at-robot loc-x4-y5)
  (at-robot loc-x4-y6)
  (at-robot loc-x4-y7)
  (at-robot loc-x4-y8)
  (at-robot loc-x4-y9)
  (at-robot loc-x5-y0)
  (at-robot loc-x5-y1)
  (at-robot loc-x5-y2)
  (at-robot loc-x5-y3)
  (at-robot loc-x5-y4)
  (at-robot loc-x5-y5)
  (at-robot loc-x5-y6)
  (at-robot loc-x5-y7)
  (at-robot loc-x5-y8)
  (at-robot loc-x5-y9)
  (at-robot loc-x6-y0)
  (at-robot loc-x6-y1)
  (at-robot loc-x6-y2)
  (at-robot loc-x6-y3)
  (at-robot loc-x6-y4)
  (at-robot loc-x6-y5)
  (at-robot loc-x6-y6)
  (at-robot loc-x6-y7)
  (at-robot loc-x6-y8)
  (at-robot loc-x6-y9)
  (at-robot loc-x7-y0)
  (at-robot loc-x7-y1)
  (at-robot loc-x7-y2)
  (at-robot loc-x7-y3)
  (at-robot loc-x7-y4)
  (at-robot loc-x7-y5)
  (at-robot loc-x7-y6)
  (at-robot loc-x7-y7)
  (at-robot loc-x7-y8)
  (at-robot loc-x7-y9)
  (at-robot loc-x8-y0)
  (at-robot loc-x8-y1)
  (at-robot loc-x8-y2)
  (at-robot loc-x8-y3)
  (at-robot loc-x8-y4)
  (at-robot loc-x8-y5)
  (at-robot loc-x8-y6)
  (at-robot loc-x8-y7)
  (at-robot loc-x8-y8)
  (at-robot loc-x8-y9)
  (at-robot loc-x9-y0)
  (at-robot loc-x9-y1)
  (at-robot loc-x9-y2)
  (at-robot loc-x9-y3)
  (at-robot loc-x9-y4)
  (at-robot loc-x9-y5)
  (at-robot loc-x9-y6)
  (at-robot loc-x9-y7)
  (at-robot loc-x9-y8)
  (at-robot loc-x9-y9)
  (visited loc-x0-y2)
  (visited loc-x0-y4)
  (visited loc-x0-y6)
  (visited loc-x0-y7)
  (visited loc-x0-y9)
  (visited loc-x1-y0)
  (visited loc-x1-y1)
  (visited loc-x1-y2)
  (visited loc-x1-y8)
  (visited loc-x2-y0)
  (visited loc-x2-y1)
  (visited loc-x2-y2)
  (visited loc-x2-y3)
  (visited loc-x2-y4)
  (visited loc-x2-y8)
  (visited loc-x2-y9)
  (visited loc-x3-y0)
  (visited loc-x3-y1)
  (visited loc-x3-y2)
  (visited loc-x3-y3)
  (visited loc-x3-y5)
  (visited loc-x3-y7)
  (visited loc-x4-y0)
  (visited loc-x4-y1)
  (visited loc-x4-y2)
  (visited loc-x4-y5)
  (visited loc-x4-y8)
  (visited loc-x4-y9)
  (visited loc-x5-y6)
  (visited loc-x5-y8)
  (visited loc-x5-y9)
  (visited loc-x6-y5)
  (visited loc-x6-y6)
  (visited loc-x6-y7)
  (visited loc-x6-y8)
  (visited loc-x6-y9)
  (visited loc-x7-y2)
  (visited loc-x7-y4)
  (visited loc-x7-y9)
  (visited loc-x8-y2)
  (visited loc-x8-y9)
  (visited loc-x9-y3)
  (visited loc-x9-y5)
  (visited loc-x9-y6)
  (visited loc-x9-y7)
Op[360]:
  (move loc-x0-y0 loc-x0-y1), cost: 1
    pre: (at-robot loc-x0-y0)
    add: (at-robot loc-x0-y1)
    del: (at-robot loc-x0-y0)
  (move loc-x0-y0 loc-x1-y0), cost: 1
    pre: (at-robot loc-x0-y0)
    add: (at-robot loc-x1-y0) (visited loc-x1-y0)
    del: (at-robot loc-x0-y0)
  (move loc-x0-y1 loc-x0-y0), cost: 1
    pre: (at-robot loc-x0-y1)
    add: (at-robot loc-x0-y0)
    del: (at-robot loc-x0-y1)
  (move loc-x0-y1 loc-x0-y2), cost: 1
    pre: (at-robot loc-x0-y1)
    add: (at-robot loc-x0-y2) (visited loc-x0-y2)
    del: (at-robot loc-x0-y1)
  (move loc-x0-y1 loc-x1-y1), cost: 1
    pre: (at-robot loc-x0-y1)
    add: (at-robot loc-x1-y1) (visited loc-x1-y1)
    del: (at-robot loc-x0-y1)
  (move loc-x0-y2 loc-x0-y1), cost: 1
    pre: (at-robot loc-x0-y2)
    add: (at-robot loc-x0-y1)
    del: (at-robot loc-x0-y2)
  (move loc-x0-y2 loc-x0-y3), cost: 1
    pre: (at-robot loc-x0-y2)
    add: (at-robot loc-x0-y3)
    del: (at-robot loc-x0-y2)
  (move loc-x0-y2 loc-x1-y2), cost: 1
    pre: (at-robot loc-x0-y2)
    add: (at-robot loc-x1-y2) (visited loc-x1-y2)
    del: (at-robot loc-x0-y2)
  (move loc-x0-y3 loc-x0-y2), cost: 1
    pre: (at-robot loc-x0-y3)
    add: (at-robot loc-x0-y2) (visited loc-x0-y2)
    del: (at-robot loc-x0-y3)
  (move loc-x0-y3 loc-x0-y4), cost: 1
    pre: (at-robot loc-x0-y3)
    add: (at-robot loc-x0-y4) (visited loc-x0-y4)
    del: (at-robot loc-x0-y3)
  (move loc-x0-y3 loc-x1-y3), cost: 1
    pre: (at-robot loc-x0-y3)
    add: (at-robot loc-x1-y3)
    del: (at-robot loc-x0-y3)
  (move loc-x0-y4 loc-x0-y3), cost: 1
    pre: (at-robot loc-x0-y4)
    add: (at-robot loc-x0-y3)
    del: (at-robot loc-x0-y4)
  (move loc-x0-y4 loc-x0-y5), cost: 1
    pre: (at-robot loc-x0-y4)
    add: (at-robot loc-x0-y5)
    del: (at-robot loc-x0-y4)
  (move loc-x0-y4 loc-x1-y4), cost: 1
    pre: (at-robot loc-x0-y4)
    add: (at-robot loc-x1-y4)
    del: (at-robot loc-x0-y4)
  (move loc-x0-y5 loc-x0-y4), cost: 1
    pre: (at-robot loc-x0-y5)
    add: (at-robot loc-x0-y4) (visited loc-x0-y4)
    del: (at-robot loc-x0-y5)
  (move loc-x0-y5 loc-x0-y6), cost: 1
    pre: (at-robot loc-x0-y5)
    add: (at-robot loc-x0-y6) (visited loc-x0-y6)
    del: (at-robot loc-x0-y5)
  (move loc-x0-y5 loc-x1-y5), cost: 1
    pre: (at-robot loc-x0-y5)
    add: (at-robot loc-x1-y5)
    del: (at-robot loc-x0-y5)
  (move loc-x0-y6 loc-x0-y5), cost: 1
    pre: (at-robot loc-x0-y6)
    add: (at-robot loc-x0-y5)
    del: (at-robot loc-x0-y6)
  (move loc-x0-y6 loc-x0-y7), cost: 1
    pre: (at-robot loc-x0-y6)
    add: (at-robot loc-x0-y7) (visited loc-x0-y7)
    del: (at-robot loc-x0-y6)
  (move loc-x0-y6 loc-x1-y6), cost: 1
    pre: (at-robot loc-x0-y6)
    add: (at-robot loc-x1-y6)
    del: (at-robot loc-x0-y6)
  (move loc-x0-y7 loc-x0-y6), cost: 1
    pre: (at-robot loc-x0-y7)
    add: (at-robot loc-x0-y6) (visited loc-x0-y6)
    del: (at-robot loc-x0-y7)
  (move loc-x0-y7 loc-x0-y8), cost: 1
    pre: (at-robot loc-x0-y7)
    add: (at-robot loc-x0-y8)
    del: (at-robot loc-x0-y7)
  (move loc-x0-y7 loc-x1-y7), cost: 1
    pre: (at-robot loc-x0-y7)
    add: (at-robot loc-x1-y7)
    del: (at-robot loc-x0-y7)
  (move loc-x0-y8 loc-x0-y7), cost: 1
    pre: (at-robot loc-x0-y8)
    add: (at-robot loc-x0-y7) (visited loc-x0-y7)
    del: (at-robot loc-x0-y8)
  (move loc-x0-y8 loc-x0-y9), cost: 1
    pre: (at-robot loc-x0-y8)
    add: (at-robot loc-x0-y9) (visited loc-x0-y9)
    del: (at-robot loc-x0-y8)
  (move loc-x0-y8 loc-x1-y8), cost: 1
    pre: (at-robot loc-x0-y8)
    add: (at-robot loc-x1-y8) (visited loc-x1-y8)
    del: (at-robot loc-x0-y8)
  (move loc-x0-y9 loc-x0-y8), cost: 1
    pre: (at-robot loc-x0-y9)
    add: (at-robot loc-x0-y8)
    del: (at-robot loc-x0-y9)
  (move loc-x0-y9 loc-x1-y9), cost: 1
    pre: (at-robot loc-x0-y9)
    add: (at-robot loc-x1-y9)
    del: (at-robot loc-x0-y9)
  (move loc-x1-y0 loc-x0-y0), cost: 1
    pre: (at-robot loc-x1-y0)
    add: (at-robot loc-x0-y0)
    del: (at-robot loc-x1-y0)
  (move loc-x1-y0 loc-x1-y1), cost: 1
    pre: (at-robot loc-x1-y0)
    add: (at-robot loc-x1-y1) (visited loc-x1-y1)
    del: (at-robot loc-x1-y0)
  (move loc-x1-y0 loc-x2-y0), cost: 1
    pre: (at-robot loc-x1-y0)
    add: (at-robot loc-x2-y0) (visited loc-x2-y0)
    del: (at-robot loc-x1-y0)
  (move loc-x1-y1 loc-x0-y1), cost: 1
    pre: (at-robot loc-x1-y1)
    add: (at-robot loc-x0-y1)
    del: (at-robot loc-x1-y1)
  (move loc-x1-y1 loc-x1-y0), cost: 1
    pre: (at-robot loc-x1-y1)
    add: (at-robot loc-x1-y0) (visited loc-x1-y0)
    del: (at-robot loc-x1-y1)
  (move loc-x1-y1 loc-x1-y2), cost: 1
    pre: (at-robot loc-x1-y1)
    add: (at-robot loc-x1-y2) (visited loc-x1-y2)
    del: (at-robot loc-x1-y1)
  (move loc-x1-y1 loc-x2-y1), cost: 1
    pre: (at-robot loc-x1-y1)
    add: (at-robot loc-x2-y1) (visited loc-x2-y1)
    del: (at-robot loc-x1-y1)
  (move loc-x1-y2 loc-x0-y2), cost: 1
    pre: (at-robot loc-x1-y2)
    add: (at-robot loc-x0-y2) (visited loc-x0-y2)
    del: (at-robot loc-x1-y2)
  (move loc-x1-y2 loc-x1-y1), cost: 1
    pre: (at-robot loc-x1-y2)
    add: (at-robot loc-x1-y1) (visited loc-x1-y1)
    del: (at-robot loc-x1-y2)
  (move loc-x1-y2 loc-x1-y3), cost: 1
    pre: (at-robot loc-x1-y2)
    add: (at-robot loc-x1-y3)
    del: (at-robot loc-x1-y2)
  (move loc-x1-y2 loc-x2-y2), cost: 1
    pre: (at-robot loc-x1-y2)
    add: (at-robot loc-x2-y2) (visited loc-x2-y2)
    del: (at-robot loc-x1-y2)
  (move loc-x1-y3 loc-x0-y3), cost: 1
    pre: (at-robot loc-x1-y3)
    add: (at-robot loc-x0-y3)
    del: (at-robot loc-x1-y3)
  (move loc-x1-y3 loc-x1-y2), cost: 1
    pre: (at-robot loc-x1-y3)
    add: (at-robot loc-x1-y2) (visited loc-x1-y2)
    del: (at-robot loc-x1-y3)
  (move loc-x1-y3 loc-x1-y4), cost: 1
    pre: (at-robot loc-x1-y3)
    add: (at-robot loc-x1-y4)
    del: (at-robot loc-x1-y3)
  (move loc-x1-y3 loc-x2-y3), cost: 1
    pre: (at-robot loc-x1-y3)
    add: (at-robot loc-x2-y3) (visited loc-x2-y3)
    del: (at-robot loc-x1-y3)
  (move loc-x1-y4 loc-x0-y4), cost: 1
    pre: (at-robot loc-x1-y4)
    add: (at-robot loc-x0-y4) (visited loc-x0-y4)
    del: (at-robot loc-x1-y4)
  (move loc-x1-y4 loc-x1-y3), cost: 1
    pre: (at-robot loc-x1-y4)
    add: (at-robot loc-x1-y3)
    del: (at-robot loc-x1-y4)
  (move loc-x1-y4 loc-x1-y5), cost: 1
    pre: (at-robot loc-x1-y4)
    add: (at-robot loc-x1-y5)
    del: (at-robot loc-x1-y4)
  (move loc-x1-y4 loc-x2-y4), cost: 1
    pre: (at-robot loc-x1-y4)
    add: (at-robot loc-x2-y4) (visited loc-x2-y4)
    del: (at-robot loc-x1-y4)
  (move loc-x1-y5 loc-x0-y5), cost: 1
    pre: (at-robot loc-x1-y5)
    add: (at-robot loc-x0-y5)
    del: (at-robot loc-x1-y5)
  (move loc-x1-y5 loc-x1-y4), cost: 1
    pre: (at-robot loc-x1-y5)
    add: (at-robot loc-x1-y4)
    del: (at-robot loc-x1-y5)
  (move loc-x1-y5 loc-x1-y6), cost: 1
    pre: (at-robot loc-x1-y5)
    add: (at-robot loc-x1-y6)
    del: (at-robot loc-x1-y5)
  (move loc-x1-y5 loc-x2-y5), cost: 1
    pre: (at-robot loc-x1-y5)
    add: (at-robot loc-x2-y5)
    del: (at-robot loc-x1-y5)
  (move loc-x1-y6 loc-x0-y6), cost: 1
    pre: (at-robot loc-x1-y6)
    add: (at-robot loc-x0-y6) (visited loc-x0-y6)
    del: (at-robot loc-x1-y6)
  (move loc-x1-y6 loc-x1-y5), cost: 1
    pre: (at-robot loc-x1-y6)
    add: (at-robot loc-x1-y5)
    del: (at-robot loc-x1-y6)
  (move loc-x1-y6 loc-x1-y7), cost: 1
    pre: (at-robot loc-x1-y6)
    add: (at-robot loc-x1-y7)
    del: (at-robot loc-x1-y6)
  (move loc-x1-y6 loc-x2-y6), cost: 1
    pre: (at-robot loc-x1-y6)
    add: (at-robot loc-x2-y6)
    del: (at-robot loc-x1-y6)
  (move loc-x1-y7 loc-x0-y7), cost: 1
    pre: (at-robot loc-x1-y7)
    add: (at-robot loc-x0-y7) (visited loc-x0-y7)
    del: (at-robot loc-x1-y7)
  (move loc-x1-y7 loc-x1-y6), cost: 1
    pre: (at-robot loc-x1-y7)
    add: (at-robot loc-x1-y6)
    del: (at-robot loc-x1-y7)
  (move loc-x1-y7 loc-x1-y8), cost: 1
    pre: (at-robot loc-x1-y7)
    add: (at-robot loc-x1-y8) (visited loc-x1-y8)
    del: (at-robot loc-x1-y7)
  (move loc-x1-y7 loc-x2-y7), cost: 1
    pre: (at-robot loc-x1-y7)
    add: (at-robot loc-x2-y7)
    del: (at-robot loc-x1-y7)
  (move loc-x1-y8 loc-x0-y8), cost: 1
    pre: (at-robot loc-x1-y8)
    add: (at-robot loc-x0-y8)
    del: (at-robot loc-x1-y8)
  (move loc-x1-y8 loc-x1-y7), cost: 1
    pre: (at-robot loc-x1-y8)
    add: (at-robot loc-x1-y7)
    del: (at-robot loc-x1-y8)
  (move loc-x1-y8 loc-x1-y9), cost: 1
    pre: (at-robot loc-x1-y8)
    add: (at-robot loc-x1-y9)
    del: (at-robot loc-x1-y8)
  (move loc-x1-y8 loc-x2-y8), cost: 1
    pre: (at-robot loc-x1-y8)
    add: (at-robot loc-x2-y8) (visited loc-x2-y8)
    del: (at-robot loc-x1-y8)
  (move loc-x1-y9 loc-x0-y9), cost: 1
    pre: (at-robot loc-x1-y9)
    add: (at-robot loc-x0-y9) (visited loc-x0-y9)
    del: (at-robot loc-x1-y9)
  (move loc-x1-y9 loc-x1-y8), cost: 1
    pre: (at-robot loc-x1-y9)
    add: (at-robot loc-x1-y8) (visited loc-x1-y8)
    del: (at-robot loc-x1-y9)
  (move loc-x1-y9 loc-x2-y9), cost: 1
    pre: (at-robot loc-x1-y9)
    add: (at-robot loc-x2-y9) (visited loc-x2-y9)
    del: (at-robot loc-x1-y9)
  (move loc-x2-y0 loc-x1-y0), cost: 1
    pre: (at-robot loc-x2-y0)
    add: (at-robot loc-x1-y0) (visited loc-x1-y0)
    del: (at-robot loc-x2-y0)
  (move loc-x2-y0 loc-x2-y1), cost: 1
    pre: (at-robot loc-x2-y0)
    add: (at-robot loc-x2-y1) (visited loc-x2-y1)
    del: (at-robot loc-x2-y0)
  (move loc-x2-y0 loc-x3-y0), cost: 1
    pre: (at-robot loc-x2-y0)
    add: (at-robot loc-x3-y0) (visited loc-x3-y0)
    del: (at-robot loc-x2-y0)
  (move loc-x2-y1 loc-x1-y1), cost: 1
    pre: (at-robot loc-x2-y1)
    add: (at-robot loc-x1-y1) (visited loc-x1-y1)
    del: (at-robot loc-x2-y1)
  (move loc-x2-y1 loc-x2-y0), cost: 1
    pre: (at-robot loc-x2-y1)
    add: (at-robot loc-x2-y0) (visited loc-x2-y0)
    del: (at-robot loc-x2-y1)
  (move loc-x2-y1 loc-x2-y2), cost: 1
    pre: (at-robot loc-x2-y1)
    add: (at-robot loc-x2-y2) (visited loc-x2-y2)
    del: (at-robot loc-x2-y1)
  (move loc-x2-y1 loc-x3-y1), cost: 1
    pre: (at-robot loc-x2-y1)
    add: (at-robot loc-x3-y1) (visited loc-x3-y1)
    del: (at-robot loc-x2-y1)
  (move loc-x2-y2 loc-x1-y2), cost: 1
    pre: (at-robot loc-x2-y2)
    add: (at-robot loc-x1-y2) (visited loc-x1-y2)
    del: (at-robot loc-x2-y2)
  (move loc-x2-y2 loc-x2-y1), cost: 1
    pre: (at-robot loc-x2-y2)
    add: (at-robot loc-x2-y1) (visited loc-x2-y1)
    del: (at-robot loc-x2-y2)
  (move loc-x2-y2 loc-x2-y3), cost: 1
    pre: (at-robot loc-x2-y2)
    add: (at-robot loc-x2-y3) (visited loc-x2-y3)
    del: (at-robot loc-x2-y2)
  (move loc-x2-y2 loc-x3-y2), cost: 1
    pre: (at-robot loc-x2-y2)
    add: (at-robot loc-x3-y2) (visited loc-x3-y2)
    del: (at-robot loc-x2-y2)
  (move loc-x2-y3 loc-x1-y3), cost: 1
    pre: (at-robot loc-x2-y3)
    add: (at-robot loc-x1-y3)
    del: (at-robot loc-x2-y3)
  (move loc-x2-y3 loc-x2-y2), cost: 1
    pre: (at-robot loc-x2-y3)
    add: (at-robot loc-x2-y2) (visited loc-x2-y2)
    del: (at-robot loc-x2-y3)
  (move loc-x2-y3 loc-x2-y4), cost: 1
    pre: (at-robot loc-x2-y3)
    add: (at-robot loc-x2-y4) (visited loc-x2-y4)
    del: (at-robot loc-x2-y3)
  (move loc-x2-y3 loc-x3-y3), cost: 1
    pre: (at-robot loc-x2-y3)
    add: (at-robot loc-x3-y3) (visited loc-x3-y3)
    del: (at-robot loc-x2-y3)
  (move loc-x2-y4 loc-x1-y4), cost: 1
    pre: (at-robot loc-x2-y4)
    add: (at-robot loc-x1-y4)
    del: (at-robot loc-x2-y4)
  (move loc-x2-y4 loc-x2-y3), cost: 1
    pre: (at-robot loc-x2-y4)
    add: (at-robot loc-x2-y3) (visited loc-x2-y3)
    del: (at-robot loc-x2-y4)
  (move loc-x2-y4 loc-x2-y5), cost: 1
    pre: (at-robot loc-x2-y4)
    add: (at-robot loc-x2-y5)
    del: (at-robot loc-x2-y4)
  (move loc-x2-y4 loc-x3-y4), cost: 1
    pre: (at-robot loc-x2-y4)
    add: (at-robot loc-x3-y4)
    del: (at-robot loc-x2-y4)
  (move loc-x2-y5 loc-x1-y5), cost: 1
    pre: (at-robot loc-x2-y5)
    add: (at-robot loc-x1-y5)
    del: (at-robot loc-x2-y5)
  (move loc-x2-y5 loc-x2-y4), cost: 1
    pre: (at-robot loc-x2-y5)
    add: (at-robot loc-x2-y4) (visited loc-x2-y4)
    del: (at-robot loc-x2-y5)
  (move loc-x2-y5 loc-x2-y6), cost: 1
    pre: (at-robot loc-x2-y5)
    add: (at-robot loc-x2-y6)
    del: (at-robot loc-x2-y5)
  (move loc-x2-y5 loc-x3-y5), cost: 1
    pre: (at-robot loc-x2-y5)
    add: (at-robot loc-x3-y5) (visited loc-x3-y5)
    del: (at-robot loc-x2-y5)
  (move loc-x2-y6 loc-x1-y6), cost: 1
    pre: (at-robot loc-x2-y6)
    add: (at-robot loc-x1-y6)
    del: (at-robot loc-x2-y6)
  (move loc-x2-y6 loc-x2-y5), cost: 1
    pre: (at-robot loc-x2-y6)
    add: (at-robot loc-x2-y5)
    del: (at-robot loc-x2-y6)
  (move loc-x2-y6 loc-x2-y7), cost: 1
    pre: (at-robot loc-x2-y6)
    add: (at-robot loc-x2-y7)
    del: (at-robot loc-x2-y6)
  (move loc-x2-y6 loc-x3-y6), cost: 1
    pre: (at-robot loc-x2-y6)
    add: (at-robot loc-x3-y6)
    del: (at-robot loc-x2-y6)
  (move loc-x2-y7 loc-x1-y7), cost: 1
    pre: (at-robot loc-x2-y7)
    add: (at-robot loc-x1-y7)
    del: (at-robot loc-x2-y7)
  (move loc-x2-y7 loc-x2-y6), cost: 1
    pre: (at-robot loc-x2-y7)
    add: (at-robot loc-x2-y6)
    del: (at-robot loc-x2-y7)
  (move loc-x2-y7 loc-x2-y8), cost: 1
    pre: (at-robot loc-x2-y7)
    add: (at-robot loc-x2-y8) (visited loc-x2-y8)
    del: (at-robot loc-x2-y7)
  (move loc-x2-y7 loc-x3-y7), cost: 1
    pre: (at-robot loc-x2-y7)
    add: (at-robot loc-x3-y7) (visited loc-x3-y7)
    del: (at-robot loc-x2-y7)
  (move loc-x2-y8 loc-x1-y8), cost: 1
    pre: (at-robot loc-x2-y8)
    add: (at-robot loc-x1-y8) (visited loc-x1-y8)
    del: (at-robot loc-x2-y8)
  (move loc-x2-y8 loc-x2-y7), cost: 1
    pre: (at-robot loc-x2-y8)
    add: (at-robot loc-x2-y7)
    del: (at-robot loc-x2-y8)
  (move loc-x2-y8 loc-x2-y9), cost: 1
    pre: (at-robot loc-x2-y8)
    add: (at-robot loc-x2-y9) (visited loc-x2-y9)
    del: (at-robot loc-x2-y8)
  (move loc-x2-y8 loc-x3-y8), cost: 1
    pre: (at-robot loc-x2-y8)
    add: (at-robot loc-x3-y8)
    del: (at-robot loc-x2-y8)
  (move loc-x2-y9 loc-x1-y9), cost: 1
    pre: (at-robot loc-x2-y9)
    add: (at-robot loc-x1-y9)
    del: (at-robot loc-x2-y9)
  (move loc-x2-y9 loc-x2-y8), cost: 1
    pre: (at-robot loc-x2-y9)
    add: (at-robot loc-x2-y8) (visited loc-x2-y8)
    del: (at-robot loc-x2-y9)
  (move loc-x2-y9 loc-x3-y9), cost: 1
    pre: (at-robot loc-x2-y9)
    add: (at-robot loc-x3-y9)
    del: (at-robot loc-x2-y9)
  (move loc-x3-y0 loc-x2-y0), cost: 1
    pre: (at-robot loc-x3-y0)
    add: (at-robot loc-x2-y0) (visited loc-x2-y0)
    del: (at-robot loc-x3-y0)
  (move loc-x3-y0 loc-x3-y1), cost: 1
    pre: (at-robot loc-x3-y0)
    add: (at-robot loc-x3-y1) (visited loc-x3-y1)
    del: (at-robot loc-x3-y0)
  (move loc-x3-y0 loc-x4-y0), cost: 1
    pre: (at-robot loc-x3-y0)
    add: (at-robot loc-x4-y0) (visited loc-x4-y0)
    del: (at-robot loc-x3-y0)
  (move loc-x3-y1 loc-x2-y1), cost: 1
    pre: (at-robot loc-x3-y1)
    add: (at-robot loc-x2-y1) (visited loc-x2-y1)
    del: (at-robot loc-x3-y1)
  (move loc-x3-y1 loc-x3-y0), cost: 1
    pre: (at-robot loc-x3-y1)
    add: (at-robot loc-x3-y0) (visited loc-x3-y0)
    del: (at-robot loc-x3-y1)
  (move loc-x3-y1 loc-x3-y2), cost: 1
    pre: (at-robot loc-x3-y1)
    add: (at-robot loc-x3-y2) (visited loc-x3-y2)
    del: (at-robot loc-x3-y1)
  (move loc-x3-y1 loc-x4-y1), cost: 1
    pre: (at-robot loc-x3-y1)
    add: (at-robot loc-x4-y1) (visited loc-x4-y1)
    del: (at-robot loc-x3-y1)
  (move loc-x3-y2 loc-x2-y2), cost: 1
    pre: (at-robot loc-x3-y2)
    add: (at-robot loc-x2-y2) (visited loc-x2-y2)
    del: (at-robot loc-x3-y2)
  (move loc-x3-y2 loc-x3-y1), cost: 1
    pre: (at-robot loc-x3-y2)
    add: (at-robot loc-x3-y1) (visited loc-x3-y1)
    del: (at-robot loc-x3-y2)
  (move loc-x3-y2 loc-x3-y3), cost: 1
    pre: (at-robot loc-x3-y2)
    add: (at-robot loc-x3-y3) (visited loc-x3-y3)
    del: (at-robot loc-x3-y2)
  (move loc-x3-y2 loc-x4-y2), cost: 1
    pre: (at-robot loc-x3-y2)
    add: (at-robot loc-x4-y2) (visited loc-x4-y2)
    del: (at-robot loc-x3-y2)
  (move loc-x3-y3 loc-x2-y3), cost: 1
    pre: (at-robot loc-x3-y3)
    add: (at-robot loc-x2-y3) (visited loc-x2-y3)
    del: (at-robot loc-x3-y3)
  (move loc-x3-y3 loc-x3-y2), cost: 1
    pre: (at-robot loc-x3-y3)
    add: (at-robot loc-x3-y2) (visited loc-x3-y2)
    del: (at-robot loc-x3-y3)
  (move loc-x3-y3 loc-x3-y4), cost: 1
    pre: (at-robot loc-x3-y3)
    add: (at-robot loc-x3-y4)
    del: (at-robot loc-x3-y3)
  (move loc-x3-y3 loc-x4-y3), cost: 1
    pre: (at-robot loc-x3-y3)
    add: (at-robot loc-x4-y3)
    del: (at-robot loc-x3-y3)
  (move loc-x3-y4 loc-x2-y4), cost: 1
    pre: (at-robot loc-x3-y4)
    add: (at-robot loc-x2-y4) (visited loc-x2-y4)
    del: (at-robot loc-x3-y4)
  (move loc-x3-y4 loc-x3-y3), cost: 1
    pre: (at-robot loc-x3-y4)
    add: (at-robot loc-x3-y3) (visited loc-x3-y3)
    del: (at-robot loc-x3-y4)
  (move loc-x3-y4 loc-x3-y5), cost: 1
    pre: (at-robot loc-x3-y4)
    add: (at-robot loc-x3-y5) (visited loc-x3-y5)
    del: (at-robot loc-x3-y4)
  (move loc-x3-y4 loc-x4-y4), cost: 1
    pre: (at-robot loc-x3-y4)
    add: (at-robot loc-x4-y4)
    del: (at-robot loc-x3-y4)
  (move loc-x3-y5 loc-x2-y5), cost: 1
    pre: (at-robot loc-x3-y5)
    add: (at-robot loc-x2-y5)
    del: (at-robot loc-x3-y5)
  (move loc-x3-y5 loc-x3-y4), cost: 1
    pre: (at-robot loc-x3-y5)
    add: (at-robot loc-x3-y4)
    del: (at-robot loc-x3-y5)
  (move loc-x3-y5 loc-x3-y6), cost: 1
    pre: (at-robot loc-x3-y5)
    add: (at-robot loc-x3-y6)
    del: (at-robot loc-x3-y5)
  (move loc-x3-y5 loc-x4-y5), cost: 1
    pre: (at-robot loc-x3-y5)
    add: (at-robot loc-x4-y5) (visited loc-x4-y5)
    del: (at-robot loc-x3-y5)
  (move loc-x3-y6 loc-x2-y6), cost: 1
    pre: (at-robot loc-x3-y6)
    add: (at-robot loc-x2-y6)
    del: (at-robot loc-x3-y6)
  (move loc-x3-y6 loc-x3-y5), cost: 1
    pre: (at-robot loc-x3-y6)
    add: (at-robot loc-x3-y5) (visited loc-x3-y5)
    del: (at-robot loc-x3-y6)
  (move loc-x3-y6 loc-x3-y7), cost: 1
    pre: (at-robot loc-x3-y6)
    add: (at-robot loc-x3-y7) (visited loc-x3-y7)
    del: (at-robot loc-x3-y6)
  (move loc-x3-y6 loc-x4-y6), cost: 1
    pre: (at-robot loc-x3-y6)
    add: (at-robot loc-x4-y6)
    del: (at-robot loc-x3-y6)
  (move loc-x3-y7 loc-x2-y7), cost: 1
    pre: (at-robot loc-x3-y7)
    add: (at-robot loc-x2-y7)
    del: (at-robot loc-x3-y7)
  (move loc-x3-y7 loc-x3-y6), cost: 1
    pre: (at-robot loc-x3-y7)
    add: (at-robot loc-x3-y6)
    del: (at-robot loc-x3-y7)
  (move loc-x3-y7 loc-x3-y8), cost: 1
    pre: (at-robot loc-x3-y7)
    add: (at-robot loc-x3-y8)
    del: (at-robot loc-x3-y7)
  (move loc-x3-y7 loc-x4-y7), cost: 1
    pre: (at-robot loc-x3-y7)
    add: (at-robot loc-x4-y7)
    del: (at-robot loc-x3-y7)
  (move loc-x3-y8 loc-x2-y8), cost: 1
    pre: (at-robot loc-x3-y8)
    add: (at-robot loc-x2-y8) (visited loc-x2-y8)
    del: (at-robot loc-x3-y8)
  (move loc-x3-y8 loc-x3-y7), cost: 1
    pre: (at-robot loc-x3-y8)
    add: (at-robot loc-x3-y7) (visited loc-x3-y7)
    del: (at-robot loc-x3-y8)
  (move loc-x3-y8 loc-x3-y9), cost: 1
    pre: (at-robot loc-x3-y8)
    add: (at-robot loc-x3-y9)
    del: (at-robot loc-x3-y8)
  (move loc-x3-y8 loc-x4-y8), cost: 1
    pre: (at-robot loc-x3-y8)
    add: (at-robot loc-x4-y8) (visited loc-x4-y8)
    del: (at-robot loc-x3-y8)
  (move loc-x3-y9 loc-x2-y9), cost: 1
    pre: (at-robot loc-x3-y9)
    add: (at-robot loc-x2-y9) (visited loc-x2-y9)
    del: (at-robot loc-x3-y9)
  (move loc-x3-y9 loc-x3-y8), cost: 1
    pre: (at-robot loc-x3-y9)
    add: (at-robot loc-x3-y8)
    del: (at-robot loc-x3-y9)
  (move loc-x3-y9 loc-x4-y9), cost: 1
    pre: (at-robot loc-x3-y9)
    add: (at-robot loc-x4-y9) (visited loc-x4-y9)
    del: (at-robot loc-x3-y9)
  (move loc-x4-y0 loc-x3-y0), cost: 1
    pre: (at-robot loc-x4-y0)
    add: (at-robot loc-x3-y0) (visited loc-x3-y0)
    del: (at-robot loc-x4-y0)
  (move loc-x4-y0 loc-x4-y1), cost: 1
    pre: (at-robot loc-x4-y0)
    add: (at-robot loc-x4-y1) (visited loc-x4-y1)
    del: (at-robot loc-x4-y0)
  (move loc-x4-y0 loc-x5-y0), cost: 1
    pre: (at-robot loc-x4-y0)
    add: (at-robot loc-x5-y0)
    del: (at-robot loc-x4-y0)
  (move loc-x4-y1 loc-x3-y1), cost: 1
    pre: (at-robot loc-x4-y1)
    add: (at-robot loc-x3-y1) (visited loc-x3-y1)
    del: (at-robot loc-x4-y1)
  (move loc-x4-y1 loc-x4-y0), cost: 1
    pre: (at-robot loc-x4-y1)
    add: (at-robot loc-x4-y0) (visited loc-x4-y0)
    del: (at-robot loc-x4-y1)
  (move loc-x4-y1 loc-x4-y2), cost: 1
    pre: (at-robot loc-x4-y1)
    add: (at-robot loc-x4-y2) (visited loc-x4-y2)
    del: (at-robot loc-x4-y1)
  (move loc-x4-y1 loc-x5-y1), cost: 1
    pre: (at-robot loc-x4-y1)
    add: (at-robot loc-x5-y1)
    del: (at-robot loc-x4-y1)
  (move loc-x4-y2 loc-x3-y2), cost: 1
    pre: (at-robot loc-x4-y2)
    add: (at-robot loc-x3-y2) (visited loc-x3-y2)
    del: (at-robot loc-x4-y2)
  (move loc-x4-y2 loc-x4-y1), cost: 1
    pre: (at-robot loc-x4-y2)
    add: (at-robot loc-x4-y1) (visited loc-x4-y1)
    del: (at-robot loc-x4-y2)
  (move loc-x4-y2 loc-x4-y3), cost: 1
    pre: (at-robot loc-x4-y2)
    add: (at-robot loc-x4-y3)
    del: (at-robot loc-x4-y2)
  (move loc-x4-y2 loc-x5-y2), cost: 1
    pre: (at-robot loc-x4-y2)
    add: (at-robot loc-x5-y2)
    del: (at-robot loc-x4-y2)
  (move loc-x4-y3 loc-x3-y3), cost: 1
    pre: (at-robot loc-x4-y3)
    add: (at-robot loc-x3-y3) (visited loc-x3-y3)
    del: (at-robot loc-x4-y3)
  (move loc-x4-y3 loc-x4-y2), cost: 1
    pre: (at-robot loc-x4-y3)
    add: (at-robot loc-x4-y2) (visited loc-x4-y2)
    del: (at-robot loc-x4-y3)
  (move loc-x4-y3 loc-x4-y4), cost: 1
    pre: (at-robot loc-x4-y3)
    add: (at-robot loc-x4-y4)
    del: (at-robot loc-x4-y3)
  (move loc-x4-y3 loc-x5-y3), cost: 1
    pre: (at-robot loc-x4-y3)
    add: (at-robot loc-x5-y3)
    del: (at-robot loc-x4-y3)
  (move loc-x4-y4 loc-x3-y4), cost: 1
    pre: (at-robot loc-x4-y4)
    add: (at-robot loc-x3-y4)
    del: (at-robot loc-x4-y4)
  (move loc-x4-y4 loc-x4-y3), cost: 1
    pre: (at-robot loc-x4-y4)
    add: (at-robot loc-x4-y3)
    del: (at-robot loc-x4-y4)
  (move loc-x4-y4 loc-x4-y5), cost: 1
    pre: (at-robot loc-x4-y4)
    add: (at-robot loc-x4-y5) (visited loc-x4-y5)
    del: (at-robot loc-x4-y4)
  (move loc-x4-y4 loc-x5-y4), cost: 1
    pre: (at-robot loc-x4-y4)
    add: (at-robot loc-x5-y4)
    del: (at-robot loc-x4-y4)
  (move loc-x4-y5 loc-x3-y5), cost: 1
    pre: (at-robot loc-x4-y5)
    add: (at-robot loc-x3-y5) (visited loc-x3-y5)
    del: (at-robot loc-x4-y5)
  (move loc-x4-y5 loc-x4-y4), cost: 1
    pre: (at-robot loc-x4-y5)
    add: (at-robot loc-x4-y4)
    del: (at-robot loc-x4-y5)
  (move loc-x4-y5 loc-x4-y6), cost: 1
    pre: (at-robot loc-x4-y5)
    add: (at-robot loc-x4-y6)
    del: (at-robot loc-x4-y5)
  (move loc-x4-y5 loc-x5-y5), cost: 1
    pre: (at-robot loc-x4-y5)
    add: (at-robot loc-x5-y5)
    del: (at-robot loc-x4-y5)
  (move loc-x4-y6 loc-x3-y6), cost: 1
    pre: (at-robot loc-x4-y6)
    add: (at-robot loc-x3-y6)
    del: (at-robot loc-x4-y6)
  (move loc-x4-y6 loc-x4-y5), cost: 1
    pre: (at-robot loc-x4-y6)
    add: (at-robot loc-x4-y5) (visited loc-x4-y5)
    del: (at-robot loc-x4-y6)
  (move loc-x4-y6 loc-x4-y7), cost: 1
    pre: (at-robot loc-x4-y6)
    add: (at-robot loc-x4-y7)
    del: (at-robot loc-x4-y6)
  (move loc-x4-y6 loc-x5-y6), cost: 1
    pre: (at-robot loc-x4-y6)
    add: (at-robot loc-x5-y6) (visited loc-x5-y6)
    del: (at-robot loc-x4-y6)
  (move loc-x4-y7 loc-x3-y7), cost: 1
    pre: (at-robot loc-x4-y7)
    add: (at-robot loc-x3-y7) (visited loc-x3-y7)
    del: (at-robot loc-x4-y7)
  (move loc-x4-y7 loc-x4-y6), cost: 1
    pre: (at-robot loc-x4-y7)
    add: (at-robot loc-x4-y6)
    del: (at-robot loc-x4-y7)
  (move loc-x4-y7 loc-x4-y8), cost: 1
    pre: (at-robot loc-x4-y7)
    add: (at-robot loc-x4-y8) (visited loc-x4-y8)
    del: (at-robot loc-x4-y7)
  (move loc-x4-y7 loc-x5-y7), cost: 1
    pre: (at-robot loc-x4-y7)
    add: (at-robot loc-x5-y7)
    del: (at-robot loc-x4-y7)
  (move loc-x4-y8 loc-x3-y8), cost: 1
    pre: (at-robot loc-x4-y8)
    add: (at-robot loc-x3-y8)
    del: (at-robot loc-x4-y8)
  (move loc-x4-y8 loc-x4-y7), cost: 1
    pre: (at-robot loc-x4-y8)
    add: (at-robot loc-x4-y7)
    del: (at-robot loc-x4-y8)
  (move loc-x4-y8 loc-x4-y9), cost: 1
    pre: (at-robot loc-x4-y8)
    add: (at-robot loc-x4-y9) (visited loc-x4-y9)
    del: (at-robot loc-x4-y8)
  (move loc-x4-y8 loc-x5-y8), cost: 1
    pre: (at-robot loc-x4-y8)
    add: (at-robot loc-x5-y8) (visited loc-x5-y8)
    del: (at-robot loc-x4-y8)
  (move loc-x4-y9 loc-x3-y9), cost: 1
    pre: (at-robot loc-x4-y9)
    add: (at-robot loc-x3-y9)
    del: (at-robot loc-x4-y9)
  (move loc-x4-y9 loc-x4-y8), cost: 1
    pre: (at-robot loc-x4-y9)
    add: (at-robot loc-x4-y8) (visited loc-x4-y8)
    del: (at-robot loc-x4-y9)
  (move loc-x4-y9 loc-x5-y9), cost: 1
    pre: (at-robot loc-x4-y9)
    add: (at-robot loc-x5-y9) (visited loc-x5-y9)
    del: (at-robot loc-x4-y9)
  (move loc-x5-y0 loc-x4-y0), cost: 1
    pre: (at-robot loc-x5-y0)
    add: (at-robot loc-x4-y0) (visited loc-x4-y0)
    del: (at-robot loc-x5-y0)
  (move loc-x5-y0 loc-x5-y1), cost: 1
    pre: (at-robot loc-x5-y0)
    add: (at-robot loc-x5-y1)
    del: (at-robot loc-x5-y0)
  (move loc-x5-y0 loc-x6-y0), cost: 1
    pre: (at-robot loc-x5-y0)
    add: (at-robot loc-x6-y0)
    del: (at-robot loc-x5-y0)
  (move loc-x5-y1 loc-x4-y1), cost: 1
    pre: (at-robot loc-x5-y1)
    add: (at-robot loc-x4-y1) (visited loc-x4-y1)
    del: (at-robot loc-x5-y1)
  (move loc-x5-y1 loc-x5-y0), cost: 1
    pre: (at-robot loc-x5-y1)
    add: (at-robot loc-x5-y0)
    del: (at-robot loc-x5-y1)
  (move loc-x5-y1 loc-x5-y2), cost: 1
    pre: (at-robot loc-x5-y1)
    add: (at-robot loc-x5-y2)
    del: (at-robot loc-x5-y1)
  (move loc-x5-y1 loc-x6-y1), cost: 1
    pre: (at-robot loc-x5-y1)
    add: (at-robot loc-x6-y1)
    del: (at-robot loc-x5-y1)
  (move loc-x5-y2 loc-x4-y2), cost: 1
    pre: (at-robot loc-x5-y2)
    add: (at-robot loc-x4-y2) (visited loc-x4-y2)
    del: (at-robot loc-x5-y2)
  (move loc-x5-y2 loc-x5-y1), cost: 1
    pre: (at-robot loc-x5-y2)
    add: (at-robot loc-x5-y1)
    del: (at-robot loc-x5-y2)
  (move loc-x5-y2 loc-x5-y3), cost: 1
    pre: (at-robot loc-x5-y2)
    add: (at-robot loc-x5-y3)
    del: (at-robot loc-x5-y2)
  (move loc-x5-y2 loc-x6-y2), cost: 1
    pre: (at-robot loc-x5-y2)
    add: (at-robot loc-x6-y2)
    del: (at-robot loc-x5-y2)
  (move loc-x5-y3 loc-x4-y3), cost: 1
    pre: (at-robot loc-x5-y3)
    add: (at-robot loc-x4-y3)
    del: (at-robot loc-x5-y3)
  (move loc-x5-y3 loc-x5-y2), cost: 1
    pre: (at-robot loc-x5-y3)
    add: (at-robot loc-x5-y2)
    del: (at-robot loc-x5-y3)
  (move loc-x5-y3 loc-x5-y4), cost: 1
    pre: (at-robot loc-x5-y3)
    add: (at-robot loc-x5-y4)
    del: (at-robot loc-x5-y3)
  (move loc-x5-y3 loc-x6-y3), cost: 1
    pre: (at-robot loc-x5-y3)
    add: (at-robot loc-x6-y3)
    del: (at-robot loc-x5-y3)
  (move loc-x5-y4 loc-x4-y4), cost: 1
    pre: (at-robot loc-x5-y4)
    add: (at-robot loc-x4-y4)
    del: (at-robot loc-x5-y4)
  (move loc-x5-y4 loc-x5-y3), cost: 1
    pre: (at-robot loc-x5-y4)
    add: (at-robot loc-x5-y3)
    del: (at-robot loc-x5-y4)
  (move loc-x5-y4 loc-x5-y5), cost: 1
    pre: (at-robot loc-x5-y4)
    add: (at-robot loc-x5-y5)
    del: (at-robot loc-x5-y4)
  (move loc-x5-y4 loc-x6-y4), cost: 1
    pre: (at-robot loc-x5-y4)
    add: (at-robot loc-x6-y4)
    del: (at-robot loc-x5-y4)
  (move loc-x5-y5 loc-x4-y5), cost: 1
    pre: (at-robot loc-x5-y5)
    add: (at-robot loc-x4-y5) (visited loc-x4-y5)
    del: (at-robot loc-x5-y5)
  (move loc-x5-y5 loc-x5-y4), cost: 1
    pre: (at-robot loc-x5-y5)
    add: (at-robot loc-x5-y4)
    del: (at-robot loc-x5-y5)
  (move loc-x5-y5 loc-x5-y6), cost: 1
    pre: (at-robot loc-x5-y5)
    add: (at-robot loc-x5-y6) (visited loc-x5-y6)
    del: (at-robot loc-x5-y5)
  (move loc-x5-y5 loc-x6-y5), cost: 1
    pre: (at-robot loc-x5-y5)
    add: (at-robot loc-x6-y5) (visited loc-x6-y5)
    del: (at-robot loc-x5-y5)
  (move loc-x5-y6 loc-x4-y6), cost: 1
    pre: (at-robot loc-x5-y6)
    add: (at-robot loc-x4-y6)
    del: (at-robot loc-x5-y6)
  (move loc-x5-y6 loc-x5-y5), cost: 1
    pre: (at-robot loc-x5-y6)
    add: (at-robot loc-x5-y5)
    del: (at-robot loc-x5-y6)
  (move loc-x5-y6 loc-x5-y7), cost: 1
    pre: (at-robot loc-x5-y6)
    add: (at-robot loc-x5-y7)
    del: (at-robot loc-x5-y6)
  (move loc-x5-y6 loc-x6-y6), cost: 1
    pre: (at-robot loc-x5-y6)
    add: (at-robot loc-x6-y6) (visited loc-x6-y6)
    del: (at-robot loc-x5-y6)
  (move loc-x5-y7 loc-x4-y7), cost: 1
    pre: (at-robot loc-x5-y7)
    add: (at-robot loc-x4-y7)
    del: (at-robot loc-x5-y7)
  (move loc-x5-y7 loc-x5-y6), cost: 1
    pre: (at-robot loc-x5-y7)
    add: (at-robot loc-x5-y6) (visited loc-x5-y6)
    del: (at-robot loc-x5-y7)
  (move loc-x5-y7 loc-x5-y8), cost: 1
    pre: (at-robot loc-x5-y7)
    add: (at-robot loc-x5-y8) (visited loc-x5-y8)
    del: (at-robot loc-x5-y7)
  (move loc-x5-y7 loc-x6-y7), cost: 1
    pre: (at-robot loc-x5-y7)
    add: (at-robot loc-x6-y7) (visited loc-x6-y7)
    del: (at-robot loc-x5-y7)
  (move loc-x5-y8 loc-x4-y8), cost: 1
    pre: (at-robot loc-x5-y8)
    add: (at-robot loc-x4-y8) (visited loc-x4-y8)
    del: (at-robot loc-x5-y8)
  (move loc-x5-y8 loc-x5-y7), cost: 1
    pre: (at-robot loc-x5-y8)
    add: (at-robot loc-x5-y7)
    del: (at-robot loc-x5-y8)
  (move loc-x5-y8 loc-x5-y9), cost: 1
    pre: (at-robot loc-x5-y8)
    add: (at-robot loc-x5-y9) (visited loc-x5-y9)
    del: (at-robot loc-x5-y8)
  (move loc-x5-y8 loc-x6-y8), cost: 1
    pre: (at-robot loc-x5-y8)
    add: (at-robot loc-x6-y8) (visited loc-x6-y8)
    del: (at-robot loc-x5-y8)
  (move loc-x5-y9 loc-x4-y9), cost: 1
    pre: (at-robot loc-x5-y9)
    add: (at-robot loc-x4-y9) (visited loc-x4-y9)
    del: (at-robot loc-x5-y9)
  (move loc-x5-y9 loc-x5-y8), cost: 1
    pre: (at-robot loc-x5-y9)
    add: (at-robot loc-x5-y8) (visited loc-x5-y8)
    del: (at-robot loc-x5-y9)
  (move loc-x5-y9 loc-x6-y9), cost: 1
    pre: (at-robot loc-x5-y9)
    add: (at-robot loc-x6-y9) (visited loc-x6-y9)
    del: (at-robot loc-x5-y9)
  (move loc-x6-y0 loc-x5-y0), cost: 1
    pre: (at-robot loc-x6-y0)
    add: (at-robot loc-x5-y0)
    del: (at-robot loc-x6-y0)
  (move loc-x6-y0 loc-x6-y1), cost: 1
    pre: (at-robot loc-x6-y0)
    add: (at-robot loc-x6-y1)
    del: (at-robot loc-x6-y0)
  (move loc-x6-y0 loc-x7-y0), cost: 1
    pre: (at-robot loc-x6-y0)
    add: (at-robot loc-x7-y0)
    del: (at-robot loc-x6-y0)
  (move loc-x6-y1 loc-x5-y1), cost: 1
    pre: (at-robot loc-x6-y1)
    add: (at-robot loc-x5-y1)
    del: (at-robot loc-x6-y1)
  (move loc-x6-y1 loc-x6-y0), cost: 1
    pre: (at-robot loc-x6-y1)
    add: (at-robot loc-x6-y0)
    del: (at-robot loc-x6-y1)
  (move loc-x6-y1 loc-x6-y2), cost: 1
    pre: (at-robot loc-x6-y1)
    add: (at-robot loc-x6-y2)
    del: (at-robot loc-x6-y1)
  (move loc-x6-y1 loc-x7-y1), cost: 1
    pre: (at-robot loc-x6-y1)
    add: (at-robot loc-x7-y1)
    del: (at-robot loc-x6-y1)
  (move loc-x6-y2 loc-x5-y2), cost: 1
    pre: (at-robot loc-x6-y2)
    add: (at-robot loc-x5-y2)
    del: (at-robot loc-x6-y2)
  (move loc-x6-y2 loc-x6-y1), cost: 1
    pre: (at-robot loc-x6-y2)
    add: (at-robot loc-x6-y1)
    del: (at-robot loc-x6-y2)
  (move loc-x6-y2 loc-x6-y3), cost: 1
    pre: (at-robot loc-x6-y2)
    add: (at-robot loc-x6-y3)
    del: (at-robot loc-x6-y2)
  (move loc-x6-y2 loc-x7-y2), cost: 1
    pre: (at-robot loc-x6-y2)
    add: (at-robot loc-x7-y2) (visited loc-x7-y2)
    del: (at-robot loc-x6-y2)
  (move loc-x6-y3 loc-x5-y3), cost: 1
    pre: (at-robot loc-x6-y3)
    add: (at-robot loc-x5-y3)
    del: (at-robot loc-x6-y3)
  (move loc-x6-y3 loc-x6-y2), cost: 1
    pre: (at-robot loc-x6-y3)
    add: (at-robot loc-x6-y2)
    del: (at-robot loc-x6-y3)
  (move loc-x6-y3 loc-x6-y4), cost: 1
    pre: (at-robot loc-x6-y3)
    add: (at-robot loc-x6-y4)
    del: (at-robot loc-x6-y3)
  (move loc-x6-y3 loc-x7-y3), cost: 1
    pre: (at-robot loc-x6-y3)
    add: (at-robot loc-x7-y3)
    del: (at-robot loc-x6-y3)
  (move loc-x6-y4 loc-x5-y4), cost: 1
    pre: (at-robot loc-x6-y4)
    add: (at-robot loc-x5-y4)
    del: (at-robot loc-x6-y4)
  (move loc-x6-y4 loc-x6-y3), cost: 1
    pre: (at-robot loc-x6-y4)
    add: (at-robot loc-x6-y3)
    del: (at-robot loc-x6-y4)
  (move loc-x6-y4 loc-x6-y5), cost: 1
    pre: (at-robot loc-x6-y4)
    add: (at-robot loc-x6-y5) (visited loc-x6-y5)
    del: (at-robot loc-x6-y4)
  (move loc-x6-y4 loc-x7-y4), cost: 1
    pre: (at-robot loc-x6-y4)
    add: (at-robot loc-x7-y4) (visited loc-x7-y4)
    del: (at-robot loc-x6-y4)
  (move loc-x6-y5 loc-x5-y5), cost: 1
    pre: (at-robot loc-x6-y5)
    add: (at-robot loc-x5-y5)
    del: (at-robot loc-x6-y5)
  (move loc-x6-y5 loc-x6-y4), cost: 1
    pre: (at-robot loc-x6-y5)
    add: (at-robot loc-x6-y4)
    del: (at-robot loc-x6-y5)
  (move loc-x6-y5 loc-x6-y6), cost: 1
    pre: (at-robot loc-x6-y5)
    add: (at-robot loc-x6-y6) (visited loc-x6-y6)
    del: (at-robot loc-x6-y5)
  (move loc-x6-y5 loc-x7-y5), cost: 1
    pre: (at-robot loc-x6-y5)
    add: (at-robot loc-x7-y5)
    del: (at-robot loc-x6-y5)
  (move loc-x6-y6 loc-x5-y6), cost: 1
    pre: (at-robot loc-x6-y6)
    add: (at-robot loc-x5-y6) (visited loc-x5-y6)
    del: (at-robot loc-x6-y6)
  (move loc-x6-y6 loc-x6-y5), cost: 1
    pre: (at-robot loc-x6-y6)
    add: (at-robot loc-x6-y5) (visited loc-x6-y5)
    del: (at-robot loc-x6-y6)
  (move loc-x6-y6 loc-x6-y7), cost: 1
    pre: (at-robot loc-x6-y6)
    add: (at-robot loc-x6-y7) (visited loc-x6-y7)
    del: (at-robot loc-x6-y6)
  (move loc-x6-y6 loc-x7-y6), cost: 1
    pre: (at-robot loc-x6-y6)
    add: (at-robot loc-x7-y6)
    del: (at-robot loc-x6-y6)
  (move loc-x6-y7 loc-x5-y7), cost: 1
    pre: (at-robot loc-x6-y7)
    add: (at-robot loc-x5-y7)
    del: (at-robot loc-x6-y7)
  (move loc-x6-y7 loc-x6-y6), cost: 1
    pre: (at-robot loc-x6-y7)
    add: (at-robot loc-x6-y6) (visited loc-x6-y6)
    del: (at-robot loc-x6-y7)
  (move loc-x6-y7 loc-x6-y8), cost: 1
    pre: (at-robot loc-x6-y7)
    add: (at-robot loc-x6-y8) (visited loc-x6-y8)
    del: (at-robot loc-x6-y7)
  (move loc-x6-y7 loc-x7-y7), cost: 1
    pre: (at-robot loc-x6-y7)
    add: (at-robot loc-x7-y7)
    del: (at-robot loc-x6-y7)
  (move loc-x6-y8 loc-x5-y8), cost: 1
    pre: (at-robot loc-x6-y8)
    add: (at-robot loc-x5-y8) (visited loc-x5-y8)
    del: (at-robot loc-x6-y8)
  (move loc-x6-y8 loc-x6-y7), cost: 1
    pre: (at-robot loc-x6-y8)
    add: (at-robot loc-x6-y7) (visited loc-x6-y7)
    del: (at-robot loc-x6-y8)
  (move loc-x6-y8 loc-x6-y9), cost: 1
    pre: (at-robot loc-x6-y8)
    add: (at-robot loc-x6-y9) (visited loc-x6-y9)
    del: (at-robot loc-x6-y8)
  (move loc-x6-y8 loc-x7-y8), cost: 1
    pre: (at-robot loc-x6-y8)
    add: (at-robot loc-x7-y8)
    del: (at-robot loc-x6-y8)
  (move loc-x6-y9 loc-x5-y9), cost: 1
    pre: (at-robot loc-x6-y9)
    add: (at-robot loc-x5-y9) (visited loc-x5-y9)
    del: (at-robot loc-x6-y9)
  (move loc-x6-y9 loc-x6-y8), cost: 1
    pre: (at-robot loc-x6-y9)
    add: (at-robot loc-x6-y8) (visited loc-x6-y8)
    del: (at-robot loc-x6-y9)
  (move loc-x6-y9 loc-x7-y9), cost: 1
    pre: (at-robot loc-x6-y9)
    add: (at-robot loc-x7-y9) (visited loc-x7-y9)
    del: (at-robot loc-x6-y9)
  (move loc-x7-y0 loc-x6-y0), cost: 1
    pre: (at-robot loc-x7-y0)
    add: (at-robot loc-x6-y0)
    del: (at-robot loc-x7-y0)
  (move loc-x7-y0 loc-x7-y1), cost: 1
    pre: (at-robot loc-x7-y0)
    add: (at-robot loc-x7-y1)
    del: (at-robot loc-x7-y0)
  (move loc-x7-y0 loc-x8-y0), cost: 1
    pre: (at-robot loc-x7-y0)
    add: (at-robot loc-x8-y0)
    del: (at-robot loc-x7-y0)
  (move loc-x7-y1 loc-x6-y1), cost: 1
    pre: (at-robot loc-x7-y1)
    add: (at-robot loc-x6-y1)
    del: (at-robot loc-x7-y1)
  (move loc-x7-y1 loc-x7-y0), cost: 1
    pre: (at-robot loc-x7-y1)
    add: (at-robot loc-x7-y0)
    del: (at-robot loc-x7-y1)
  (move loc-x7-y1 loc-x7-y2), cost: 1
    pre: (at-robot loc-x7-y1)
    add: (at-robot loc-x7-y2) (visited loc-x7-y2)
    del: (at-robot loc-x7-y1)
  (move loc-x7-y1 loc-x8-y1), cost: 1
    pre: (at-robot loc-x7-y1)
    add: (at-robot loc-x8-y1)
    del: (at-robot loc-x7-y1)
  (move loc-x7-y2 loc-x6-y2), cost: 1
    pre: (at-robot loc-x7-y2)
    add: (at-robot loc-x6-y2)
    del: (at-robot loc-x7-y2)
  (move loc-x7-y2 loc-x7-y1), cost: 1
    pre: (at-robot loc-x7-y2)
    add: (at-robot loc-x7-y1)
    del: (at-robot loc-x7-y2)
  (move loc-x7-y2 loc-x7-y3), cost: 1
    pre: (at-robot loc-x7-y2)
    add: (at-robot loc-x7-y3)
    del: (at-robot loc-x7-y2)
  (move loc-x7-y2 loc-x8-y2), cost: 1
    pre: (at-robot loc-x7-y2)
    add: (at-robot loc-x8-y2) (visited loc-x8-y2)
    del: (at-robot loc-x7-y2)
  (move loc-x7-y3 loc-x6-y3), cost: 1
    pre: (at-robot loc-x7-y3)
    add: (at-robot loc-x6-y3)
    del: (at-robot loc-x7-y3)
  (move loc-x7-y3 loc-x7-y2), cost: 1
    pre: (at-robot loc-x7-y3)
    add: (at-robot loc-x7-y2) (visited loc-x7-y2)
    del: (at-robot loc-x7-y3)
  (move loc-x7-y3 loc-x7-y4), cost: 1
    pre: (at-robot loc-x7-y3)
    add: (at-robot loc-x7-y4) (visited loc-x7-y4)
    del: (at-robot loc-x7-y3)
  (move loc-x7-y3 loc-x8-y3), cost: 1
    pre: (at-robot loc-x7-y3)
    add: (at-robot loc-x8-y3)
    del: (at-robot loc-x7-y3)
  (move loc-x7-y4 loc-x6-y4), cost: 1
    pre: (at-robot loc-x7-y4)
    add: (at-robot loc-x6-y4)
    del: (at-robot loc-x7-y4)
  (move loc-x7-y4 loc-x7-y3), cost: 1
    pre: (at-robot loc-x7-y4)
    add: (at-robot loc-x7-y3)
    del: (at-robot loc-x7-y4)
  (move loc-x7-y4 loc-x7-y5), cost: 1
    pre: (at-robot loc-x7-y4)
    add: (at-robot loc-x7-y5)
    del: (at-robot loc-x7-y4)
  (move loc-x7-y4 loc-x8-y4), cost: 1
    pre: (at-robot loc-x7-y4)
    add: (at-robot loc-x8-y4)
    del: (at-robot loc-x7-y4)
  (move loc-x7-y5 loc-x6-y5), cost: 1
    pre: (at-robot loc-x7-y5)
    add: (at-robot loc-x6-y5) (visited loc-x6-y5)
    del: (at-robot loc-x7-y5)
  (move loc-x7-y5 loc-x7-y4), cost: 1
    pre: (at-robot loc-x7-y5)
    add: (at-robot loc-x7-y4) (visited loc-x7-y4)
    del: (at-robot loc-x7-y5)
  (move loc-x7-y5 loc-x7-y6), cost: 1
    pre: (at-robot loc-x7-y5)
    add: (at-robot loc-x7-y6)
    del: (at-robot loc-x7-y5)
  (move loc-x7-y5 loc-x8-y5), cost: 1
    pre: (at-robot loc-x7-y5)
    add: (at-robot loc-x8-y5)
    del: (at-robot loc-x7-y5)
  (move loc-x7-y6 loc-x6-y6), cost: 1
    pre: (at-robot loc-x7-y6)
    add: (at-robot loc-x6-y6) (visited loc-x6-y6)
    del: (at-robot loc-x7-y6)
  (move loc-x7-y6 loc-x7-y5), cost: 1
    pre: (at-robot loc-x7-y6)
    add: (at-robot loc-x7-y5)
    del: (at-robot loc-x7-y6)
  (move loc-x7-y6 loc-x7-y7), cost: 1
    pre: (at-robot loc-x7-y6)
    add: (at-robot loc-x7-y7)
    del: (at-robot loc-x7-y6)
  (move loc-x7-y6 loc-x8-y6), cost: 1
    pre: (at-robot loc-x7-y6)
    add: (at-robot loc-x8-y6)
    del: (at-robot loc-x7-y6)
  (move loc-x7-y7 loc-x6-y7), cost: 1
    pre: (at-robot loc-x7-y7)
    add: (at-robot loc-x6-y7) (visited loc-x6-y7)
    del: (at-robot loc-x7-y7)
  (move loc-x7-y7 loc-x7-y6), cost: 1
    pre: (at-robot loc-x7-y7)
    add: (at-robot loc-x7-y6)
    del: (at-robot loc-x7-y7)
  (move loc-x7-y7 loc-x7-y8), cost: 1
    pre: (at-robot loc-x7-y7)
    add: (at-robot loc-x7-y8)
    del: (at-robot loc-x7-y7)
  (move loc-x7-y7 loc-x8-y7), cost: 1
    pre: (at-robot loc-x7-y7)
    add: (at-robot loc-x8-y7)
    del: (at-robot loc-x7-y7)
  (move loc-x7-y8 loc-x6-y8), cost: 1
    pre: (at-robot loc-x7-y8)
    add: (at-robot loc-x6-y8) (visited loc-x6-y8)
    del: (at-robot loc-x7-y8)
  (move loc-x7-y8 loc-x7-y7), cost: 1
    pre: (at-robot loc-x7-y8)
    add: (at-robot loc-x7-y7)
    del: (at-robot loc-x7-y8)
  (move loc-x7-y8 loc-x7-y9), cost: 1
    pre: (at-robot loc-x7-y8)
    add: (at-robot loc-x7-y9) (visited loc-x7-y9)
    del: (at-robot loc-x7-y8)
  (move loc-x7-y8 loc-x8-y8), cost: 1
    pre: (at-robot loc-x7-y8)
    add: (at-robot loc-x8-y8)
    del: (at-robot loc-x7-y8)
  (move loc-x7-y9 loc-x6-y9), cost: 1
    pre: (at-robot loc-x7-y9)
    add: (at-robot loc-x6-y9) (visited loc-x6-y9)
    del: (at-robot loc-x7-y9)
  (move loc-x7-y9 loc-x7-y8), cost: 1
    pre: (at-robot loc-x7-y9)
    add: (at-robot loc-x7-y8)
    del: (at-robot loc-x7-y9)
  (move loc-x7-y9 loc-x8-y9), cost: 1
    pre: (at-robot loc-x7-y9)
    add: (at-robot loc-x8-y9) (visited loc-x8-y9)
    del: (at-robot loc-x7-y9)
  (move loc-x8-y0 loc-x7-y0), cost: 1
    pre: (at-robot loc-x8-y0)
    add: (at-robot loc-x7-y0)
    del: (at-robot loc-x8-y0)
  (move loc-x8-y0 loc-x8-y1), cost: 1
    pre: (at-robot loc-x8-y0)
    add: (at-robot loc-x8-y1)
    del: (at-robot loc-x8-y0)
  (move loc-x8-y0 loc-x9-y0), cost: 1
    pre: (at-robot loc-x8-y0)
    add: (at-robot loc-x9-y0)
    del: (at-robot loc-x8-y0)
  (move loc-x8-y1 loc-x7-y1), cost: 1
    pre: (at-robot loc-x8-y1)
    add: (at-robot loc-x7-y1)
    del: (at-robot loc-x8-y1)
  (move loc-x8-y1 loc-x8-y0), cost: 1
    pre: (at-robot loc-x8-y1)
    add: (at-robot loc-x8-y0)
    del: (at-robot loc-x8-y1)
  (move loc-x8-y1 loc-x8-y2), cost: 1
    pre: (at-robot loc-x8-y1)
    add: (at-robot loc-x8-y2) (visited loc-x8-y2)
    del: (at-robot loc-x8-y1)
  (move loc-x8-y1 loc-x9-y1), cost: 1
    pre: (at-robot loc-x8-y1)
    add: (at-robot loc-x9-y1)
    del: (at-robot loc-x8-y1)
  (move loc-x8-y2 loc-x7-y2), cost: 1
    pre: (at-robot loc-x8-y2)
    add: (at-robot loc-x7-y2) (visited loc-x7-y2)
    del: (at-robot loc-x8-y2)
  (move loc-x8-y2 loc-x8-y1), cost: 1
    pre: (at-robot loc-x8-y2)
    add: (at-robot loc-x8-y1)
    del: (at-robot loc-x8-y2)
  (move loc-x8-y2 loc-x8-y3), cost: 1
    pre: (at-robot loc-x8-y2)
    add: (at-robot loc-x8-y3)
    del: (at-robot loc-x8-y2)
  (move loc-x8-y2 loc-x9-y2), cost: 1
    pre: (at-robot loc-x8-y2)
    add: (at-robot loc-x9-y2)
    del: (at-robot loc-x8-y2)
  (move loc-x8-y3 loc-x7-y3), cost: 1
    pre: (at-robot loc-x8-y3)
    add: (at-robot loc-x7-y3)
    del: (at-robot loc-x8-y3)
  (move loc-x8-y3 loc-x8-y2), cost: 1
    pre: (at-robot loc-x8-y3)
    add: (at-robot loc-x8-y2) (visited loc-x8-y2)
    del: (at-robot loc-x8-y3)
  (move loc-x8-y3 loc-x8-y4), cost: 1
    pre: (at-robot loc-x8-y3)
    add: (at-robot loc-x8-y4)
    del: (at-robot loc-x8-y3)
  (move loc-x8-y3 loc-x9-y3), cost: 1
    pre: (at-robot loc-x8-y3)
    add: (at-robot loc-x9-y3) (visited loc-x9-y3)
    del: (at-robot loc-x8-y3)
  (move loc-x8-y4 loc-x7-y4), cost: 1
    pre: (at-robot loc-x8-y4)
    add: (at-robot loc-x7-y4) (visited loc-x7-y4)
    del: (at-robot loc-x8-y4)
  (move loc-x8-y4 loc-x8-y3), cost: 1
    pre: (at-robot loc-x8-y4)
    add: (at-robot loc-x8-y3)
    del: (at-robot loc-x8-y4)
  (move loc-x8-y4 loc-x8-y5), cost: 1
    pre: (at-robot loc-x8-y4)
    add: (at-robot loc-x8-y5)
    del: (at-robot loc-x8-y4)
  (move loc-x8-y4 loc-x9-y4), cost: 1
    pre: (at-robot loc-x8-y4)
    add: (at-robot loc-x9-y4)
    del: (at-robot loc-x8-y4)
  (move loc-x8-y5 loc-x7-y5), cost: 1
    pre: (at-robot loc-x8-y5)
    add: (at-robot loc-x7-y5)
    del: (at-robot loc-x8-y5)
  (move loc-x8-y5 loc-x8-y4), cost: 1
    pre: (at-robot loc-x8-y5)
    add: (at-robot loc-x8-y4)
    del: (at-robot loc-x8-y5)
  (move loc-x8-y5 loc-x8-y6), cost: 1
    pre: (at-robot loc-x8-y5)
    add: (at-robot loc-x8-y6)
    del: (at-robot loc-x8-y5)
  (move loc-x8-y5 loc-x9-y5), cost: 1
    pre: (at-robot loc-x8-y5)
    add: (at-robot loc-x9-y5) (visited loc-x9-y5)
    del: (at-robot loc-x8-y5)
  (move loc-x8-y6 loc-x7-y6), cost: 1
    pre: (at-robot loc-x8-y6)
    add: (at-robot loc-x7-y6)
    del: (at-robot loc-x8-y6)
  (move loc-x8-y6 loc-x8-y5), cost: 1
    pre: (at-robot loc-x8-y6)
    add: (at-robot loc-x8-y5)
    del: (at-robot loc-x8-y6)
  (move loc-x8-y6 loc-x8-y7), cost: 1
    pre: (at-robot loc-x8-y6)
    add: (at-robot loc-x8-y7)
    del: (at-robot loc-x8-y6)
  (move loc-x8-y6 loc-x9-y6), cost: 1
    pre: (at-robot loc-x8-y6)
    add: (at-robot loc-x9-y6) (visited loc-x9-y6)
    del: (at-robot loc-x8-y6)
  (move loc-x8-y7 loc-x7-y7), cost: 1
    pre: (at-robot loc-x8-y7)
    add: (at-robot loc-x7-y7)
    del: (at-robot loc-x8-y7)
  (move loc-x8-y7 loc-x8-y6), cost: 1
    pre: (at-robot loc-x8-y7)
    add: (at-robot loc-x8-y6)
    del: (at-robot loc-x8-y7)
  (move loc-x8-y7 loc-x8-y8), cost: 1
    pre: (at-robot loc-x8-y7)
    add: (at-robot loc-x8-y8)
    del: (at-robot loc-x8-y7)
  (move loc-x8-y7 loc-x9-y7), cost: 1
    pre: (at-robot loc-x8-y7)
    add: (at-robot loc-x9-y7) (visited loc-x9-y7)
    del: (at-robot loc-x8-y7)
  (move loc-x8-y8 loc-x7-y8), cost: 1
    pre: (at-robot loc-x8-y8)
    add: (at-robot loc-x7-y8)
    del: (at-robot loc-x8-y8)
  (move loc-x8-y8 loc-x8-y7), cost: 1
    pre: (at-robot loc-x8-y8)
    add: (at-robot loc-x8-y7)
    del: (at-robot loc-x8-y8)
  (move loc-x8-y8 loc-x8-y9), cost: 1
    pre: (at-robot loc-x8-y8)
    add: (at-robot loc-x8-y9) (visited loc-x8-y9)
    del: (at-robot loc-x8-y8)
  (move loc-x8-y8 loc-x9-y8), cost: 1
    pre: (at-robot loc-x8-y8)
    add: (at-robot loc-x9-y8)
    del: (at-robot loc-x8-y8)
  (move loc-x8-y9 loc-x7-y9), cost: 1
    pre: (at-robot loc-x8-y9)
    add: (at-robot loc-x7-y9) (visited loc-x7-y9)
    del: (at-robot loc-x8-y9)
  (move loc-x8-y9 loc-x8-y8), cost: 1
    pre: (at-robot loc-x8-y9)
    add: (at-robot loc-x8-y8)
    del: (at-robot loc-x8-y9)
  (move loc-x8-y9 loc-x9-y9), cost: 1
    pre: (at-robot loc-x8-y9)
    add: (at-robot loc-x9-y9)
    del: (at-robot loc-x8-y9)
  (move loc-x9-y0 loc-x8-y0), cost: 1
    pre: (at-robot loc-x9-y0)
    add: (at-robot loc-x8-y0)
    del: (at-robot loc-x9-y0)
  (move loc-x9-y0 loc-x9-y1), cost: 1
    pre: (at-robot loc-x9-y0)
    add: (at-robot loc-x9-y1)
    del: (at-robot loc-x9-y0)
  (move loc-x9-y1 loc-x8-y1), cost: 1
    pre: (at-robot loc-x9-y1)
    add: (at-robot loc-x8-y1)
    del: (at-robot loc-x9-y1)
  (move loc-x9-y1 loc-x9-y0), cost: 1
    pre: (at-robot loc-x9-y1)
    add: (at-robot loc-x9-y0)
    del: (at-robot loc-x9-y1)
  (move loc-x9-y1 loc-x9-y2), cost: 1
    pre: (at-robot loc-x9-y1)
    add: (at-robot loc-x9-y2)
    del: (at-robot loc-x9-y1)
  (move loc-x9-y2 loc-x8-y2), cost: 1
    pre: (at-robot loc-x9-y2)
    add: (at-robot loc-x8-y2) (visited loc-x8-y2)
    del: (at-robot loc-x9-y2)
  (move loc-x9-y2 loc-x9-y1), cost: 1
    pre: (at-robot loc-x9-y2)
    add: (at-robot loc-x9-y1)
    del: (at-robot loc-x9-y2)
  (move loc-x9-y2 loc-x9-y3), cost: 1
    pre: (at-robot loc-x9-y2)
    add: (at-robot loc-x9-y3) (visited loc-x9-y3)
    del: (at-robot loc-x9-y2)
  (move loc-x9-y3 loc-x8-y3), cost: 1
    pre: (at-robot loc-x9-y3)
    add: (at-robot loc-x8-y3)
    del: (at-robot loc-x9-y3)
  (move loc-x9-y3 loc-x9-y2), cost: 1
    pre: (at-robot loc-x9-y3)
    add: (at-robot loc-x9-y2)
    del: (at-robot loc-x9-y3)
  (move loc-x9-y3 loc-x9-y4), cost: 1
    pre: (at-robot loc-x9-y3)
    add: (at-robot loc-x9-y4)
    del: (at-robot loc-x9-y3)
  (move loc-x9-y4 loc-x8-y4), cost: 1
    pre: (at-robot loc-x9-y4)
    add: (at-robot loc-x8-y4)
    del: (at-robot loc-x9-y4)
  (move loc-x9-y4 loc-x9-y3), cost: 1
    pre: (at-robot loc-x9-y4)
    add: (at-robot loc-x9-y3) (visited loc-x9-y3)
    del: (at-robot loc-x9-y4)
  (move loc-x9-y4 loc-x9-y5), cost: 1
    pre: (at-robot loc-x9-y4)
    add: (at-robot loc-x9-y5) (visited loc-x9-y5)
    del: (at-robot loc-x9-y4)
  (move loc-x9-y5 loc-x8-y5), cost: 1
    pre: (at-robot loc-x9-y5)
    add: (at-robot loc-x8-y5)
    del: (at-robot loc-x9-y5)
  (move loc-x9-y5 loc-x9-y4), cost: 1
    pre: (at-robot loc-x9-y5)
    add: (at-robot loc-x9-y4)
    del: (at-robot loc-x9-y5)
  (move loc-x9-y5 loc-x9-y6), cost: 1
    pre: (at-robot loc-x9-y5)
    add: (at-robot loc-x9-y6) (visited loc-x9-y6)
    del: (at-robot loc-x9-y5)
  (move loc-x9-y6 loc-x8-y6), cost: 1
    pre: (at-robot loc-x9-y6)
    add: (at-robot loc-x8-y6)
    del: (at-robot loc-x9-y6)
  (move loc-x9-y6 loc-x9-y5), cost: 1
    pre: (at-robot loc-x9-y6)
    add: (at-robot loc-x9-y5) (visited loc-x9-y5)
    del: (at-robot loc-x9-y6)
  (move loc-x9-y6 loc-x9-y7), cost: 1
    pre: (at-robot loc-x9-y6)
    add: (at-robot loc-x9-y7) (visited loc-x9-y7)
    del: (at-robot loc-x9-y6)
  (move loc-x9-y7 loc-x8-y7), cost: 1
    pre: (at-robot loc-x9-y7)
    add: (at-robot loc-x8-y7)
    del: (at-robot loc-x9-y7)
  (move loc-x9-y7 loc-x9-y6), cost: 1
    pre: (at-robot loc-x9-y7)
    add: (at-robot loc-x9-y6) (visited loc-x9-y6)
    del: (at-robot loc-x9-y7)
  (move loc-x9-y7 loc-x9-y8), cost: 1
    pre: (at-robot loc-x9-y7)
    add: (at-robot loc-x9-y8)
    del: (at-robot loc-x9-y7)
  (move loc-x9-y8 loc-x8-y8), cost: 1
    pre: (at-robot loc-x9-y8)
    add: (at-robot loc-x8-y8)
    del: (at-robot loc-x9-y8)
  (move loc-x9-y8 loc-x9-y7), cost: 1
    pre: (at-robot loc-x9-y8)
    add: (at-robot loc-x9-y7) (visited loc-x9-y7)
    del: (at-robot loc-x9-y8)
  (move loc-x9-y8 loc-x9-y9), cost: 1
    pre: (at-robot loc-x9-y8)
    add: (at-robot loc-x9-y9)
    del: (at-robot loc-x9-y8)
  (move loc-x9-y9 loc-x8-y9), cost: 1
    pre: (at-robot loc-x9-y9)
    add: (at-robot loc-x8-y9) (visited loc-x8-y9)
    del: (at-robot loc-x9-y9)
  (move loc-x9-y9 loc-x9-y8), cost: 1
    pre: (at-robot loc-x9-y9)
    add: (at-robot loc-x9-y8)
    del: (at-robot loc-x9-y9)
Init State: (at-robot loc-x5-y5)
Goal: (visited loc-x0-y2) (visited loc-x0-y4) (visited loc-x0-y6) (visited loc-x0-y7) (visited loc-x0-y9) (visited loc-x1-y0) (visited loc-x1-y1) (visited loc-x1-y2) (visited loc-x1-y8) (visited loc-x2-y0) (visited loc-x2-y1) (visited loc-x2-y2) (visited loc-x2-y3) (visited loc-x2-y4) (visited loc-x2-y8) (visited loc-x2-y9) (visited loc-x3-y0) (visited loc-x3-y1) (visited loc-x3-y2) (visited loc-x3-y3) (visited loc-x3-y5) (visited loc-x3-y7) (visited loc-x4-y0) (visited loc-x4-y1) (visited loc-x4-y2) (visited loc-x4-y5) (visited loc-x4-y8) (visited loc-x4-y9) (visited loc-x5-y6) (visited loc-x5-y8) (visited loc-x5-y9) (visited loc-x6-y5) (visited loc-x6-y6) (visited loc-x6-y7) (visited loc-x6-y8) (visited loc-x6-y9) (visited loc-x7-y2) (visited loc-x7-y4) (visited loc-x7-y9) (visited loc-x8-y2) (visited loc-x8-y9) (visited loc-x9-y3) (visited loc-x9-y5) (visited loc-x9-y6) (visited loc-x9-y7)
