 (harmony rest earth) (harmony rest mars) (harmony rest uranus) (harmony rest venus):=1:fam
 (craves rest flounder) (craves rest lamb) (craves rest okra) (craves rest pear) (craves rest pork) (craves rest rice):=1:fam
 (craves abrasion flounder) (craves abrasion lamb) (craves abrasion okra) (craves abrasion pear) (craves abrasion pork) (craves abrasion rice) (fears abrasion rest):=1:fam:G
 (craves depression flounder) (craves depression lamb) (craves depression okra) (craves depression pear) (craves depression pork) (craves depression rice) (fears depression rest):=1:fam
 (craves hangover flounder) (craves hangover lamb) (craves hangover okra) (craves hangover pear) (craves hangover pork) (craves hangover rice) (fears hangover rest):=1:fam
 (locale flounder alsace) (locale flounder bosnia) (locale flounder guanabara) (locale flounder kentucky) (locale flounder pennsylvania) (locale flounder quebec) (locale flounder surrey):=1:fam
 (locale lamb alsace) (locale lamb bosnia) (locale lamb guanabara) (locale lamb kentucky) (locale lamb pennsylvania) (locale lamb quebec) (locale lamb surrey):=1:fam
 (locale okra alsace) (locale okra bosnia) (locale okra guanabara) (locale okra kentucky) (locale okra pennsylvania) (locale okra quebec) (locale okra surrey):=1:fam
 (locale pear alsace) (locale pear bosnia) (locale pear guanabara) (locale pear kentucky) (locale pear pennsylvania) (locale pear quebec) (locale pear surrey):=1:fam
 (locale pork alsace) (locale pork bosnia) (locale pork guanabara) (locale pork kentucky) (locale pork pennsylvania) (locale pork quebec) (locale pork surrey):=1:fam
 (locale rice alsace) (locale rice bosnia) (locale rice guanabara) (locale rice kentucky) (locale rice pennsylvania) (locale rice quebec) (locale rice surrey):=1:fam

