Maximal 13:
 (today d1):fam
 (today d10):fam
 (today d12):fam
 (today d13):fam
 (today d14):fam
 (today d2):fam
 (today d3):fam
 (today d5):fam
 (today d6):fam
 (today d8):fam
 (today d9):fam
 (done ap1) (today d15):fam:G
 (done ap10) (today d4):fam:G


Mutex Group Cover Number: 31
