Domain: tetris
Problem: tetris-6-4-5911272
Require: 200ff
Type[6]:
    [0]: object, parent: -1
    [1]: pieces, parent: 0
    [2]: one_square, parent: 1
    [3]: two_straight, parent: 1
    [4]: right_l, parent: 1
    [5]: position, parent: 0
Obj-by-Type:
    [0]: 0 1 2 3 4 5 6 7 8 9 10 11 12 13 14 15 16 17 18 19 20 21 22 23 24 25 26 27 28 29
    [1]: 24 25 26 27 28 29
    [2]: 24 25 26 27
    [3]: 28
    [4]: 29
    [5]: 0 1 2 3 4 5 6 7 8 9 10 11 12 13 14 15 16 17 18 19 20 21 22 23
Obj[30]:
    [0]: f0-0f, type: 5, is-constant: 0, is-private: 0, owner: -1, is-agent: 0
    [1]: f0-1f, type: 5, is-constant: 0, is-private: 0, owner: -1, is-agent: 0
    [2]: f0-2f, type: 5, is-constant: 0, is-private: 0, owner: -1, is-agent: 0
    [3]: f0-3f, type: 5, is-constant: 0, is-private: 0, owner: -1, is-agent: 0
    [4]: f1-0f, type: 5, is-constant: 0, is-private: 0, owner: -1, is-agent: 0
    [5]: f1-1f, type: 5, is-constant: 0, is-private: 0, owner: -1, is-agent: 0
    [6]: f1-2f, type: 5, is-constant: 0, is-private: 0, owner: -1, is-agent: 0
    [7]: f1-3f, type: 5, is-constant: 0, is-private: 0, owner: -1, is-agent: 0
    [8]: f2-0f, type: 5, is-constant: 0, is-private: 0, owner: -1, is-agent: 0
    [9]: f2-1f, type: 5, is-constant: 0, is-private: 0, owner: -1, is-agent: 0
    [10]: f2-2f, type: 5, is-constant: 0, is-private: 0, owner: -1, is-agent: 0
    [11]: f2-3f, type: 5, is-constant: 0, is-private: 0, owner: -1, is-agent: 0
    [12]: f3-0f, type: 5, is-constant: 0, is-private: 0, owner: -1, is-agent: 0
    [13]: f3-1f, type: 5, is-constant: 0, is-private: 0, owner: -1, is-agent: 0
    [14]: f3-2f, type: 5, is-constant: 0, is-private: 0, owner: -1, is-agent: 0
    [15]: f3-3f, type: 5, is-constant: 0, is-private: 0, owner: -1, is-agent: 0
    [16]: f4-0f, type: 5, is-constant: 0, is-private: 0, owner: -1, is-agent: 0
    [17]: f4-1f, type: 5, is-constant: 0, is-private: 0, owner: -1, is-agent: 0
    [18]: f4-2f, type: 5, is-constant: 0, is-private: 0, owner: -1, is-agent: 0
    [19]: f4-3f, type: 5, is-constant: 0, is-private: 0, owner: -1, is-agent: 0
    [20]: f5-0f, type: 5, is-constant: 0, is-private: 0, owner: -1, is-agent: 0
    [21]: f5-1f, type: 5, is-constant: 0, is-private: 0, owner: -1, is-agent: 0
    [22]: f5-2f, type: 5, is-constant: 0, is-private: 0, owner: -1, is-agent: 0
    [23]: f5-3f, type: 5, is-constant: 0, is-private: 0, owner: -1, is-agent: 0
    [24]: square0, type: 2, is-constant: 0, is-private: 0, owner: -1, is-agent: 0
    [25]: square1, type: 2, is-constant: 0, is-private: 0, owner: -1, is-agent: 0
    [26]: square2, type: 2, is-constant: 0, is-private: 0, owner: -1, is-agent: 0
    [27]: square3, type: 2, is-constant: 0, is-private: 0, owner: -1, is-agent: 0
    [28]: straight0, type: 3, is-constant: 0, is-private: 0, owner: -1, is-agent: 0
    [29]: rightl0, type: 4, is-constant: 0, is-private: 0, owner: -1, is-agent: 0
Predicate[6]:
    =: 0 0 :: is-private: 0, owner-param: -1, read: 1, write: 0
    clear: 5 :: is-private: 0, owner-param: -1, read: 1, write: 1
    connected: 5 5 :: is-private: 0, owner-param: -1, read: 1, write: 0
    at_square: 2 5 :: is-private: 0, owner-param: -1, read: 1, write: 1
    at_two: 3 5 5 :: is-private: 0, owner-param: -1, read: 1, write: 1
    at_right_l: 4 5 5 5 :: is-private: 0, owner-param: -1, read: 1, write: 1
Function[1]:
    total-cost: :: is-private: 0, owner-param: -1, read: 0, write: 0
Action[6]:
    move_square: ?xy_initial:5 ?xy_final:5 ?element:2
        pre: (and (RW:clear ?xy_final) (RW:at_square ?element ?xy_initial) (R:connected ?xy_initial ?xy_final) (R:connected ?xy_final ?xy_initial))
        eff: (and (RW:clear ?xy_initial) (RW:at_square ?element ?xy_final) (N:RW:clear ?xy_final) (N:RW:at_square ?element ?xy_initial) (increase (total-cost) 1))
    move_two: ?xy_initial1:5 ?xy_initial2:5 ?xy_final:5 ?element:3
        pre: (and (RW:clear ?xy_final) (RW:at_two ?element ?xy_initial1 ?xy_initial2) (R:connected ?xy_initial2 ?xy_final))
        eff: (and (RW:clear ?xy_initial1) (RW:at_two ?element ?xy_initial2 ?xy_final) (N:RW:clear ?xy_final) (N:RW:at_two ?element ?xy_initial1 ?xy_initial2) (increase (total-cost) 2))
    move_l_right: ?xy_initial1:5 ?xy_initial2:5 ?xy_initial3:5 ?xy_final:5 ?xy_final2:5 ?xy_between_final:5 ?element:4
        pre: (and (RW:clear ?xy_final) (RW:clear ?xy_final2) (RW:at_right_l ?element ?xy_initial1 ?xy_initial2 ?xy_initial3) (R:connected ?xy_initial1 ?xy_final) (R:connected ?xy_initial3 ?xy_final2) (R:connected ?xy_initial3 ?xy_final) (R:connected ?xy_final ?xy_between_final) (R:connected ?xy_final2 ?xy_between_final) (N:R:= ?xy_final ?xy_final2) (N:R:= ?xy_between_final ?xy_initial3) (N:R:connected ?xy_initial1 ?xy_final2))
        eff: (and (RW:clear ?xy_initial2) (RW:clear ?xy_initial1) (RW:at_right_l ?element ?xy_final ?xy_initial3 ?xy_final2) (N:RW:clear ?xy_final) (N:RW:clear ?xy_final2) (N:RW:at_right_l ?element ?xy_initial1 ?xy_initial2 ?xy_initial3) (increase (total-cost) 3))
    move_l_left: ?xy_initial1:5 ?xy_initial2:5 ?xy_initial3:5 ?xy_final:5 ?xy_final2:5 ?element:4
        pre: (and (RW:clear ?xy_final) (RW:clear ?xy_final2) (RW:at_right_l ?element ?xy_initial1 ?xy_initial2 ?xy_initial3) (R:connected ?xy_initial1 ?xy_final) (R:connected ?xy_initial2 ?xy_final2) (R:connected ?xy_final2 ?xy_final) (N:R:= ?xy_final ?xy_final2))
        eff: (and (RW:clear ?xy_initial3) (RW:clear ?xy_initial1) (RW:at_right_l ?element ?xy_final ?xy_final2 ?xy_initial2) (N:RW:clear ?xy_final) (N:RW:clear ?xy_final2) (N:RW:at_right_l ?element ?xy_initial1 ?xy_initial2 ?xy_initial3) (increase (total-cost) 3))
    move_l_up: ?xy_initial1:5 ?xy_initial2:5 ?xy_initial3:5 ?xy_final:5 ?xy_final2:5 ?xy_between_final:5 ?element:4
        pre: (and (RW:clear ?xy_final) (RW:clear ?xy_final2) (RW:at_right_l ?element ?xy_initial1 ?xy_initial2 ?xy_initial3) (R:connected ?xy_initial1 ?xy_final) (R:connected ?xy_initial3 ?xy_final2) (R:connected ?xy_initial1 ?xy_final2) (R:connected ?xy_final ?xy_between_final) (R:connected ?xy_final2 ?xy_between_final) (N:R:= ?xy_final ?xy_final2) (N:R:= ?xy_between_final ?xy_initial1) (N:R:connected ?xy_initial3 ?xy_final))
        eff: (and (RW:clear ?xy_initial2) (RW:clear ?xy_initial3) (RW:at_right_l ?element ?xy_final ?xy_initial1 ?xy_final2) (N:RW:clear ?xy_final) (N:RW:clear ?xy_final2) (N:RW:at_right_l ?element ?xy_initial1 ?xy_initial2 ?xy_initial3) (increase (total-cost) 3))
    move_l_down: ?xy_initial1:5 ?xy_initial2:5 ?xy_initial3:5 ?xy_final:5 ?xy_final2:5 ?element:4
        pre: (and (RW:clear ?xy_final) (RW:clear ?xy_final2) (RW:at_right_l ?element ?xy_initial1 ?xy_initial2 ?xy_initial3) (R:connected ?xy_initial2 ?xy_final) (R:connected ?xy_initial3 ?xy_final2) (R:connected ?xy_final2 ?xy_final) (N:R:= ?xy_final ?xy_final2))
        eff: (and (RW:clear ?xy_initial3) (RW:clear ?xy_initial1) (RW:at_right_l ?element ?xy_initial2 ?xy_final ?xy_final2) (N:RW:clear ?xy_final) (N:RW:clear ?xy_final2) (N:RW:at_right_l ?element ?xy_initial1 ?xy_initial2 ?xy_initial3) (increase (total-cost) 3))
Init[97]:
  S:(connected f0-0f f0-1f)
  S:(connected f0-1f f0-0f)
  S:(connected f0-1f f0-2f)
  S:(connected f0-2f f0-1f)
  S:(connected f0-2f f0-3f)
  S:(connected f0-3f f0-2f)
  S:(connected f1-0f f1-1f)
  S:(connected f1-1f f1-0f)
  S:(connected f1-1f f1-2f)
  S:(connected f1-2f f1-1f)
  S:(connected f1-2f f1-3f)
  S:(connected f1-3f f1-2f)
  S:(connected f2-0f f2-1f)
  S:(connected f2-1f f2-0f)
  S:(connected f2-1f f2-2f)
  S:(connected f2-2f f2-1f)
  S:(connected f2-2f f2-3f)
  S:(connected f2-3f f2-2f)
  S:(connected f3-0f f3-1f)
  S:(connected f3-1f f3-0f)
  S:(connected f3-1f f3-2f)
  S:(connected f3-2f f3-1f)
  S:(connected f3-2f f3-3f)
  S:(connected f3-3f f3-2f)
  S:(connected f4-0f f4-1f)
  S:(connected f4-1f f4-0f)
  S:(connected f4-1f f4-2f)
  S:(connected f4-2f f4-1f)
  S:(connected f4-2f f4-3f)
  S:(connected f4-3f f4-2f)
  S:(connected f5-0f f5-1f)
  S:(connected f5-1f f5-0f)
  S:(connected f5-1f f5-2f)
  S:(connected f5-2f f5-1f)
  S:(connected f5-2f f5-3f)
  S:(connected f5-3f f5-2f)
  S:(connected f0-0f f1-0f)
  S:(connected f1-0f f0-0f)
  S:(connected f0-1f f1-1f)
  S:(connected f1-1f f0-1f)
  S:(connected f0-2f f1-2f)
  S:(connected f1-2f f0-2f)
  S:(connected f0-3f f1-3f)
  S:(connected f1-3f f0-3f)
  S:(connected f1-0f f2-0f)
  S:(connected f2-0f f1-0f)
  S:(connected f1-1f f2-1f)
  S:(connected f2-1f f1-1f)
  S:(connected f1-2f f2-2f)
  S:(connected f2-2f f1-2f)
  S:(connected f1-3f f2-3f)
  S:(connected f2-3f f1-3f)
  S:(connected f2-0f f3-0f)
  S:(connected f3-0f f2-0f)
  S:(connected f2-1f f3-1f)
  S:(connected f3-1f f2-1f)
  S:(connected f2-2f f3-2f)
  S:(connected f3-2f f2-2f)
  S:(connected f2-3f f3-3f)
  S:(connected f3-3f f2-3f)
  S:(connected f3-0f f4-0f)
  S:(connected f4-0f f3-0f)
  S:(connected f3-1f f4-1f)
  S:(connected f4-1f f3-1f)
  S:(connected f3-2f f4-2f)
  S:(connected f4-2f f3-2f)
  S:(connected f3-3f f4-3f)
  S:(connected f4-3f f3-3f)
  S:(connected f4-0f f5-0f)
  S:(connected f5-0f f4-0f)
  S:(connected f4-1f f5-1f)
  S:(connected f5-1f f4-1f)
  S:(connected f4-2f f5-2f)
  S:(connected f5-2f f4-2f)
  S:(connected f4-3f f5-3f)
  S:(connected f5-3f f4-3f)
  (clear f0-2f)
  (clear f0-3f)
  (clear f1-3f)
  (clear f2-1f)
  (clear f2-3f)
  (clear f3-0f)
  (clear f3-1f)
  (clear f4-0f)
  (clear f4-1f)
  (clear f4-2f)
  (clear f4-3f)
  (clear f5-0f)
  (clear f5-1f)
  (clear f5-2f)
  (clear f5-3f)
  (at_right_l rightl0 f2-2f f3-2f f3-3f)
  (at_two straight0 f0-0f f1-0f)
  (at_square square0 f0-1f)
  (at_square square1 f1-1f)
  (at_square square2 f1-2f)
  (at_square square3 f2-0f)
Init[0]:
Goal: (and (RW:clear f0-0f) (RW:clear f0-1f) (RW:clear f0-2f) (RW:clear f0-3f) (RW:clear f1-0f) (RW:clear f1-1f) (RW:clear f1-2f) (RW:clear f1-3f) (RW:clear f2-0f) (RW:clear f2-1f) (RW:clear f2-2f) (RW:clear f2-3f))
Metric: 1
