< {locale V0:object C1:object, locale V0:object C2:object}:=1
, {harmony C0:object C1:object, harmony C2:object C3:object}:=1
, {craves V0:object C1:object, fears V0:object C2:object, craves V0:object C3:object, fears V0:object C4:object}:=1
>
