Reduced 12 -> 7
Domain: satellite
Problem: strips-sat-x-1
Require: ff
Type[1]:
    [0]: object, parent: -1
Obj-by-Type:
    [0]: 0 1 2 3 4 5 6
Obj[7]:
    [0]: satellite0, type: 0, is-constant: 0, is-private: 0, owner: -1, is-agent: 0
    [1]: instrument0, type: 0, is-constant: 0, is-private: 0, owner: -1, is-agent: 0
    [2]: image1, type: 0, is-constant: 0, is-private: 0, owner: -1, is-agent: 0
    [3]: star0, type: 0, is-constant: 0, is-private: 0, owner: -1, is-agent: 0
    [4]: phenomenon4, type: 0, is-constant: 0, is-private: 0, owner: -1, is-agent: 0
    [5]: star5, type: 0, is-constant: 0, is-private: 0, owner: -1, is-agent: 0
    [6]: phenomenon6, type: 0, is-constant: 0, is-private: 0, owner: -1, is-agent: 0
Predicate[13]:
    =: 0 0 :: is-private: 0, owner-param: -1, read: 0, write: 0
    on_board: 0 0 :: is-private: 0, owner-param: -1, read: 1, write: 0
    supports: 0 0 :: is-private: 0, owner-param: -1, read: 1, write: 0
    pointing: 0 0 :: is-private: 0, owner-param: -1, read: 1, write: 1
    power_avail: 0 :: is-private: 0, owner-param: -1, read: 1, write: 1
    power_on: 0 :: is-private: 0, owner-param: -1, read: 1, write: 1
    calibrated: 0 :: is-private: 0, owner-param: -1, read: 1, write: 1
    have_image: 0 0 :: is-private: 0, owner-param: -1, read: 0, write: 1
    calibration_target: 0 0 :: is-private: 0, owner-param: -1, read: 1, write: 0
    satellite: 0 :: is-private: 0, owner-param: -1, read: 1, write: 0
    direction: 0 :: is-private: 0, owner-param: -1, read: 1, write: 0
    instrument: 0 :: is-private: 0, owner-param: -1, read: 1, write: 0
    mode: 0 :: is-private: 0, owner-param: -1, read: 1, write: 0
Function[0]:
Action[5]:
    turn_to: ?s:0 ?d_new:0 ?d_prev:0
        pre: (and (R:satellite ?s) (R:direction ?d_new) (R:direction ?d_prev) (RW:pointing ?s ?d_prev))
        eff: (and (RW:pointing ?s ?d_new) (N:RW:pointing ?s ?d_prev))
    switch_on: ?i:0 ?s:0
        pre: (and (R:instrument ?i) (R:satellite ?s) (R:on_board ?i ?s) (RW:power_avail ?s))
        eff: (and (RW:power_on ?i) (N:RW:calibrated ?i) (N:RW:power_avail ?s))
    switch_off: ?i:0 ?s:0
        pre: (and (R:instrument ?i) (R:satellite ?s) (R:on_board ?i ?s) (RW:power_on ?i))
        eff: (and (RW:power_avail ?s) (N:RW:power_on ?i))
    calibrate: ?s:0 ?i:0 ?d:0
        pre: (and (R:satellite ?s) (R:instrument ?i) (R:direction ?d) (R:on_board ?i ?s) (R:calibration_target ?i ?d) (RW:pointing ?s ?d) (RW:power_on ?i))
        eff: (and (RW:calibrated ?i))
    take_image: ?s:0 ?d:0 ?i:0 ?m:0
        pre: (and (R:satellite ?s) (R:direction ?d) (R:instrument ?i) (R:mode ?m) (RW:calibrated ?i) (R:on_board ?i ?s) (R:supports ?i ?m) (RW:power_on ?i) (RW:pointing ?s ?d))
        eff: (and (W:have_image ?d ?m))
Init[12]:
  S:(satellite satellite0)
  S:(instrument instrument0)
  S:(supports instrument0 image1)
  S:(calibration_target instrument0 star0)
  S:(on_board instrument0 satellite0)
  (power_avail satellite0)
  (pointing satellite0 phenomenon6)
  S:(mode image1)
  S:(direction star0)
  S:(direction phenomenon4)
  S:(direction star5)
  S:(direction phenomenon6)
Init[0]:
Goal: (and (W:have_image phenomenon4 image1) (W:have_image star5 image1) (W:have_image phenomenon6 image1))
Metric: 0
