Reduced 47 -> 47
Domain: floor-tile
Problem: prob020
Require: ff
Type[4]:
    [0]: object, parent: -1
    [1]: robot, parent: 0
    [2]: tile, parent: 0
    [3]: color, parent: 0
Obj-by-Type:
    [0]: 0 1 2 3 4 5 6 7 8 9 10 11 12 13 14 15 16 17 18 19 20 21 22 23 24 25 26 27 28 29 30 31 32 33 34 35 36 37 38 39 40 41 42 43 44 45 46
    [1]: 42 43 44
    [2]: 0 1 2 3 4 5 6 7 8 9 10 11 12 13 14 15 16 17 18 19 20 21 22 23 24 25 26 27 28 29 30 31 32 33 34 35 36 37 38 39 40 41
    [3]: 45 46
Obj[47]:
    [0]: tile_0-1, type: 2, is-constant: 0, is-private: 0, owner: -1, is-agent: 0
    [1]: tile_0-2, type: 2, is-constant: 0, is-private: 0, owner: -1, is-agent: 0
    [2]: tile_0-3, type: 2, is-constant: 0, is-private: 0, owner: -1, is-agent: 0
    [3]: tile_0-4, type: 2, is-constant: 0, is-private: 0, owner: -1, is-agent: 0
    [4]: tile_0-5, type: 2, is-constant: 0, is-private: 0, owner: -1, is-agent: 0
    [5]: tile_0-6, type: 2, is-constant: 0, is-private: 0, owner: -1, is-agent: 0
    [6]: tile_1-1, type: 2, is-constant: 0, is-private: 0, owner: -1, is-agent: 0
    [7]: tile_1-2, type: 2, is-constant: 0, is-private: 0, owner: -1, is-agent: 0
    [8]: tile_1-3, type: 2, is-constant: 0, is-private: 0, owner: -1, is-agent: 0
    [9]: tile_1-4, type: 2, is-constant: 0, is-private: 0, owner: -1, is-agent: 0
    [10]: tile_1-5, type: 2, is-constant: 0, is-private: 0, owner: -1, is-agent: 0
    [11]: tile_1-6, type: 2, is-constant: 0, is-private: 0, owner: -1, is-agent: 0
    [12]: tile_2-1, type: 2, is-constant: 0, is-private: 0, owner: -1, is-agent: 0
    [13]: tile_2-2, type: 2, is-constant: 0, is-private: 0, owner: -1, is-agent: 0
    [14]: tile_2-3, type: 2, is-constant: 0, is-private: 0, owner: -1, is-agent: 0
    [15]: tile_2-4, type: 2, is-constant: 0, is-private: 0, owner: -1, is-agent: 0
    [16]: tile_2-5, type: 2, is-constant: 0, is-private: 0, owner: -1, is-agent: 0
    [17]: tile_2-6, type: 2, is-constant: 0, is-private: 0, owner: -1, is-agent: 0
    [18]: tile_3-1, type: 2, is-constant: 0, is-private: 0, owner: -1, is-agent: 0
    [19]: tile_3-2, type: 2, is-constant: 0, is-private: 0, owner: -1, is-agent: 0
    [20]: tile_3-3, type: 2, is-constant: 0, is-private: 0, owner: -1, is-agent: 0
    [21]: tile_3-4, type: 2, is-constant: 0, is-private: 0, owner: -1, is-agent: 0
    [22]: tile_3-5, type: 2, is-constant: 0, is-private: 0, owner: -1, is-agent: 0
    [23]: tile_3-6, type: 2, is-constant: 0, is-private: 0, owner: -1, is-agent: 0
    [24]: tile_4-1, type: 2, is-constant: 0, is-private: 0, owner: -1, is-agent: 0
    [25]: tile_4-2, type: 2, is-constant: 0, is-private: 0, owner: -1, is-agent: 0
    [26]: tile_4-3, type: 2, is-constant: 0, is-private: 0, owner: -1, is-agent: 0
    [27]: tile_4-4, type: 2, is-constant: 0, is-private: 0, owner: -1, is-agent: 0
    [28]: tile_4-5, type: 2, is-constant: 0, is-private: 0, owner: -1, is-agent: 0
    [29]: tile_4-6, type: 2, is-constant: 0, is-private: 0, owner: -1, is-agent: 0
    [30]: tile_5-1, type: 2, is-constant: 0, is-private: 0, owner: -1, is-agent: 0
    [31]: tile_5-2, type: 2, is-constant: 0, is-private: 0, owner: -1, is-agent: 0
    [32]: tile_5-3, type: 2, is-constant: 0, is-private: 0, owner: -1, is-agent: 0
    [33]: tile_5-4, type: 2, is-constant: 0, is-private: 0, owner: -1, is-agent: 0
    [34]: tile_5-5, type: 2, is-constant: 0, is-private: 0, owner: -1, is-agent: 0
    [35]: tile_5-6, type: 2, is-constant: 0, is-private: 0, owner: -1, is-agent: 0
    [36]: tile_6-1, type: 2, is-constant: 0, is-private: 0, owner: -1, is-agent: 0
    [37]: tile_6-2, type: 2, is-constant: 0, is-private: 0, owner: -1, is-agent: 0
    [38]: tile_6-3, type: 2, is-constant: 0, is-private: 0, owner: -1, is-agent: 0
    [39]: tile_6-4, type: 2, is-constant: 0, is-private: 0, owner: -1, is-agent: 0
    [40]: tile_6-5, type: 2, is-constant: 0, is-private: 0, owner: -1, is-agent: 0
    [41]: tile_6-6, type: 2, is-constant: 0, is-private: 0, owner: -1, is-agent: 0
    [42]: robot1, type: 1, is-constant: 0, is-private: 0, owner: -1, is-agent: 0
    [43]: robot2, type: 1, is-constant: 0, is-private: 0, owner: -1, is-agent: 0
    [44]: robot3, type: 1, is-constant: 0, is-private: 0, owner: -1, is-agent: 0
    [45]: white, type: 3, is-constant: 0, is-private: 0, owner: -1, is-agent: 0
    [46]: black, type: 3, is-constant: 0, is-private: 0, owner: -1, is-agent: 0
Predicate[11]:
    =: 0 0 :: is-private: 0, owner-param: -1, read: 0, write: 0
    robot-at: 1 2 :: is-private: 0, owner-param: -1, read: 1, write: 1
    up: 2 2 :: is-private: 0, owner-param: -1, read: 1, write: 0
    down: 2 2 :: is-private: 0, owner-param: -1, read: 1, write: 0
    right: 2 2 :: is-private: 0, owner-param: -1, read: 1, write: 0
    left: 2 2 :: is-private: 0, owner-param: -1, read: 1, write: 0
    clear: 2 :: is-private: 0, owner-param: -1, read: 1, write: 1
    painted: 2 3 :: is-private: 0, owner-param: -1, read: 0, write: 1
    robot-has: 1 3 :: is-private: 0, owner-param: -1, read: 1, write: 1
    available-color: 3 :: is-private: 0, owner-param: -1, read: 1, write: 0
    free-color: 1 :: is-private: 0, owner-param: -1, read: 0, write: 0
Function[1]:
    total-cost: :: is-private: 0, owner-param: -1, read: 0, write: 0
Action[7]:
    change-color: ?r:1 ?c:3 ?c2:3
        pre: (and (RW:robot-has ?r ?c) (R:available-color ?c2))
        eff: (and (N:RW:robot-has ?r ?c) (RW:robot-has ?r ?c2) (increase (total-cost) 5))
    paint-up: ?r:1 ?y:2 ?x:2 ?c:3
        pre: (and (RW:robot-has ?r ?c) (RW:robot-at ?r ?x) (R:up ?y ?x) (RW:clear ?y))
        eff: (and (N:RW:clear ?y) (W:painted ?y ?c) (increase (total-cost) 2))
    paint-down: ?r:1 ?y:2 ?x:2 ?c:3
        pre: (and (RW:robot-has ?r ?c) (RW:robot-at ?r ?x) (R:down ?y ?x) (RW:clear ?y))
        eff: (and (N:RW:clear ?y) (W:painted ?y ?c) (increase (total-cost) 2))
    up: ?r:1 ?x:2 ?y:2
        pre: (and (RW:robot-at ?r ?x) (R:up ?y ?x) (RW:clear ?y))
        eff: (and (RW:robot-at ?r ?y) (N:RW:robot-at ?r ?x) (RW:clear ?x) (N:RW:clear ?y) (increase (total-cost) 3))
    down: ?r:1 ?x:2 ?y:2
        pre: (and (RW:robot-at ?r ?x) (R:down ?y ?x) (RW:clear ?y))
        eff: (and (RW:robot-at ?r ?y) (N:RW:robot-at ?r ?x) (RW:clear ?x) (N:RW:clear ?y) (increase (total-cost) 1))
    right: ?r:1 ?x:2 ?y:2
        pre: (and (RW:robot-at ?r ?x) (R:right ?y ?x) (RW:clear ?y))
        eff: (and (RW:robot-at ?r ?y) (N:RW:robot-at ?r ?x) (RW:clear ?x) (N:RW:clear ?y) (increase (total-cost) 1))
    left: ?r:1 ?x:2 ?y:2
        pre: (and (RW:robot-at ?r ?x) (R:left ?y ?x) (RW:clear ?y))
        eff: (and (RW:robot-at ?r ?y) (N:RW:robot-at ?r ?x) (RW:clear ?x) (N:RW:clear ?y) (increase (total-cost) 1))
Init[189]:
  (robot-at robot1 tile_1-5)
  (robot-has robot1 white)
  (robot-at robot2 tile_3-2)
  (robot-has robot2 black)
  (robot-at robot3 tile_3-3)
  (robot-has robot3 white)
  S:(available-color white)
  S:(available-color black)
  (clear tile_0-1)
  (clear tile_0-2)
  (clear tile_0-3)
  (clear tile_0-4)
  (clear tile_0-5)
  (clear tile_0-6)
  (clear tile_1-1)
  (clear tile_1-2)
  (clear tile_1-3)
  (clear tile_1-4)
  (clear tile_1-6)
  (clear tile_2-1)
  (clear tile_2-2)
  (clear tile_2-3)
  (clear tile_2-4)
  (clear tile_2-5)
  (clear tile_2-6)
  (clear tile_3-1)
  (clear tile_3-4)
  (clear tile_3-5)
  (clear tile_3-6)
  (clear tile_4-1)
  (clear tile_4-2)
  (clear tile_4-3)
  (clear tile_4-4)
  (clear tile_4-5)
  (clear tile_4-6)
  (clear tile_5-1)
  (clear tile_5-2)
  (clear tile_5-3)
  (clear tile_5-4)
  (clear tile_5-5)
  (clear tile_5-6)
  (clear tile_6-1)
  (clear tile_6-2)
  (clear tile_6-3)
  (clear tile_6-4)
  (clear tile_6-5)
  (clear tile_6-6)
  S:(up tile_1-1 tile_0-1)
  S:(up tile_1-2 tile_0-2)
  S:(up tile_1-3 tile_0-3)
  S:(up tile_1-4 tile_0-4)
  S:(up tile_1-5 tile_0-5)
  S:(up tile_1-6 tile_0-6)
  S:(up tile_2-1 tile_1-1)
  S:(up tile_2-2 tile_1-2)
  S:(up tile_2-3 tile_1-3)
  S:(up tile_2-4 tile_1-4)
  S:(up tile_2-5 tile_1-5)
  S:(up tile_2-6 tile_1-6)
  S:(up tile_3-1 tile_2-1)
  S:(up tile_3-2 tile_2-2)
  S:(up tile_3-3 tile_2-3)
  S:(up tile_3-4 tile_2-4)
  S:(up tile_3-5 tile_2-5)
  S:(up tile_3-6 tile_2-6)
  S:(up tile_4-1 tile_3-1)
  S:(up tile_4-2 tile_3-2)
  S:(up tile_4-3 tile_3-3)
  S:(up tile_4-4 tile_3-4)
  S:(up tile_4-5 tile_3-5)
  S:(up tile_4-6 tile_3-6)
  S:(up tile_5-1 tile_4-1)
  S:(up tile_5-2 tile_4-2)
  S:(up tile_5-3 tile_4-3)
  S:(up tile_5-4 tile_4-4)
  S:(up tile_5-5 tile_4-5)
  S:(up tile_5-6 tile_4-6)
  S:(up tile_6-1 tile_5-1)
  S:(up tile_6-2 tile_5-2)
  S:(up tile_6-3 tile_5-3)
  S:(up tile_6-4 tile_5-4)
  S:(up tile_6-5 tile_5-5)
  S:(up tile_6-6 tile_5-6)
  S:(down tile_0-1 tile_1-1)
  S:(down tile_0-2 tile_1-2)
  S:(down tile_0-3 tile_1-3)
  S:(down tile_0-4 tile_1-4)
  S:(down tile_0-5 tile_1-5)
  S:(down tile_0-6 tile_1-6)
  S:(down tile_1-1 tile_2-1)
  S:(down tile_1-2 tile_2-2)
  S:(down tile_1-3 tile_2-3)
  S:(down tile_1-4 tile_2-4)
  S:(down tile_1-5 tile_2-5)
  S:(down tile_1-6 tile_2-6)
  S:(down tile_2-1 tile_3-1)
  S:(down tile_2-2 tile_3-2)
  S:(down tile_2-3 tile_3-3)
  S:(down tile_2-4 tile_3-4)
  S:(down tile_2-5 tile_3-5)
  S:(down tile_2-6 tile_3-6)
  S:(down tile_3-1 tile_4-1)
  S:(down tile_3-2 tile_4-2)
  S:(down tile_3-3 tile_4-3)
  S:(down tile_3-4 tile_4-4)
  S:(down tile_3-5 tile_4-5)
  S:(down tile_3-6 tile_4-6)
  S:(down tile_4-1 tile_5-1)
  S:(down tile_4-2 tile_5-2)
  S:(down tile_4-3 tile_5-3)
  S:(down tile_4-4 tile_5-4)
  S:(down tile_4-5 tile_5-5)
  S:(down tile_4-6 tile_5-6)
  S:(down tile_5-1 tile_6-1)
  S:(down tile_5-2 tile_6-2)
  S:(down tile_5-3 tile_6-3)
  S:(down tile_5-4 tile_6-4)
  S:(down tile_5-5 tile_6-5)
  S:(down tile_5-6 tile_6-6)
  S:(right tile_0-2 tile_0-1)
  S:(right tile_0-3 tile_0-2)
  S:(right tile_0-4 tile_0-3)
  S:(right tile_0-5 tile_0-4)
  S:(right tile_0-6 tile_0-5)
  S:(right tile_1-2 tile_1-1)
  S:(right tile_1-3 tile_1-2)
  S:(right tile_1-4 tile_1-3)
  S:(right tile_1-5 tile_1-4)
  S:(right tile_1-6 tile_1-5)
  S:(right tile_2-2 tile_2-1)
  S:(right tile_2-3 tile_2-2)
  S:(right tile_2-4 tile_2-3)
  S:(right tile_2-5 tile_2-4)
  S:(right tile_2-6 tile_2-5)
  S:(right tile_3-2 tile_3-1)
  S:(right tile_3-3 tile_3-2)
  S:(right tile_3-4 tile_3-3)
  S:(right tile_3-5 tile_3-4)
  S:(right tile_3-6 tile_3-5)
  S:(right tile_4-2 tile_4-1)
  S:(right tile_4-3 tile_4-2)
  S:(right tile_4-4 tile_4-3)
  S:(right tile_4-5 tile_4-4)
  S:(right tile_4-6 tile_4-5)
  S:(right tile_5-2 tile_5-1)
  S:(right tile_5-3 tile_5-2)
  S:(right tile_5-4 tile_5-3)
  S:(right tile_5-5 tile_5-4)
  S:(right tile_5-6 tile_5-5)
  S:(right tile_6-2 tile_6-1)
  S:(right tile_6-3 tile_6-2)
  S:(right tile_6-4 tile_6-3)
  S:(right tile_6-5 tile_6-4)
  S:(right tile_6-6 tile_6-5)
  S:(left tile_0-1 tile_0-2)
  S:(left tile_0-2 tile_0-3)
  S:(left tile_0-3 tile_0-4)
  S:(left tile_0-4 tile_0-5)
  S:(left tile_0-5 tile_0-6)
  S:(left tile_1-1 tile_1-2)
  S:(left tile_1-2 tile_1-3)
  S:(left tile_1-3 tile_1-4)
  S:(left tile_1-4 tile_1-5)
  S:(left tile_1-5 tile_1-6)
  S:(left tile_2-1 tile_2-2)
  S:(left tile_2-2 tile_2-3)
  S:(left tile_2-3 tile_2-4)
  S:(left tile_2-4 tile_2-5)
  S:(left tile_2-5 tile_2-6)
  S:(left tile_3-1 tile_3-2)
  S:(left tile_3-2 tile_3-3)
  S:(left tile_3-3 tile_3-4)
  S:(left tile_3-4 tile_3-5)
  S:(left tile_3-5 tile_3-6)
  S:(left tile_4-1 tile_4-2)
  S:(left tile_4-2 tile_4-3)
  S:(left tile_4-3 tile_4-4)
  S:(left tile_4-4 tile_4-5)
  S:(left tile_4-5 tile_4-6)
  S:(left tile_5-1 tile_5-2)
  S:(left tile_5-2 tile_5-3)
  S:(left tile_5-3 tile_5-4)
  S:(left tile_5-4 tile_5-5)
  S:(left tile_5-5 tile_5-6)
  S:(left tile_6-1 tile_6-2)
  S:(left tile_6-2 tile_6-3)
  S:(left tile_6-3 tile_6-4)
  S:(left tile_6-4 tile_6-5)
  S:(left tile_6-5 tile_6-6)
Init[1]:
  (= (total-cost) 0)
Goal: (and (W:painted tile_1-1 white) (W:painted tile_1-2 black) (W:painted tile_1-3 white) (W:painted tile_1-4 black) (W:painted tile_1-5 white) (W:painted tile_1-6 black) (W:painted tile_2-1 black) (W:painted tile_2-2 white) (W:painted tile_2-3 black) (W:painted tile_2-4 white) (W:painted tile_2-5 black) (W:painted tile_2-6 white) (W:painted tile_3-1 white) (W:painted tile_3-2 black) (W:painted tile_3-3 white) (W:painted tile_3-4 black) (W:painted tile_3-5 white) (W:painted tile_3-6 black) (W:painted tile_4-1 black) (W:painted tile_4-2 white) (W:painted tile_4-3 black) (W:painted tile_4-4 white) (W:painted tile_4-5 black) (W:painted tile_4-6 white) (W:painted tile_5-1 white) (W:painted tile_5-2 black) (W:painted tile_5-3 white) (W:painted tile_5-4 black) (W:painted tile_5-5 white) (W:painted tile_5-6 black) (W:painted tile_6-1 black) (W:painted tile_6-2 white) (W:painted tile_6-3 black) (W:painted tile_6-4 white) (W:painted tile_6-5 black) (W:painted tile_6-6 white))
Metric: 1
