Reduced 39 -> 29
Domain: maintenance-scheduling-domain
Problem: maintenance-scheduling-1-3-15-20-2-2
Require: ff
Type[4]:
    [0]: object, parent: -1
    [1]: plane, parent: 0
    [2]: day, parent: 0
    [3]: airport, parent: 0
Obj-by-Type:
    [0]: 0 1 2 3 4 5 6 7 8 9 10 11 12 13 14 15 16 17 18 19 20 21 22 23 24 25 26 27 28
    [1]: 16 17 18 19 20 21 22 23 24 25 26 27 28
    [2]: 0 1 2 3 4 5 6 7 8 9 10 11 12
    [3]: 13 14 15
Obj[29]:
    [0]: d1, type: 2, is-constant: 0, is-private: 0, owner: -1, is-agent: 0
    [1]: d2, type: 2, is-constant: 0, is-private: 0, owner: -1, is-agent: 0
    [2]: d3, type: 2, is-constant: 0, is-private: 0, owner: -1, is-agent: 0
    [3]: d4, type: 2, is-constant: 0, is-private: 0, owner: -1, is-agent: 0
    [4]: d5, type: 2, is-constant: 0, is-private: 0, owner: -1, is-agent: 0
    [5]: d6, type: 2, is-constant: 0, is-private: 0, owner: -1, is-agent: 0
    [6]: d7, type: 2, is-constant: 0, is-private: 0, owner: -1, is-agent: 0
    [7]: d8, type: 2, is-constant: 0, is-private: 0, owner: -1, is-agent: 0
    [8]: d9, type: 2, is-constant: 0, is-private: 0, owner: -1, is-agent: 0
    [9]: d10, type: 2, is-constant: 0, is-private: 0, owner: -1, is-agent: 0
    [10]: d11, type: 2, is-constant: 0, is-private: 0, owner: -1, is-agent: 0
    [11]: d15, type: 2, is-constant: 0, is-private: 0, owner: -1, is-agent: 0
    [12]: d16, type: 2, is-constant: 0, is-private: 0, owner: -1, is-agent: 0
    [13]: fra, type: 3, is-constant: 0, is-private: 0, owner: -1, is-agent: 0
    [14]: ber, type: 3, is-constant: 0, is-private: 0, owner: -1, is-agent: 0
    [15]: ham, type: 3, is-constant: 0, is-private: 0, owner: -1, is-agent: 0
    [16]: ap1, type: 1, is-constant: 0, is-private: 0, owner: -1, is-agent: 0
    [17]: ap2, type: 1, is-constant: 0, is-private: 0, owner: -1, is-agent: 0
    [18]: ap4, type: 1, is-constant: 0, is-private: 0, owner: -1, is-agent: 0
    [19]: ap5, type: 1, is-constant: 0, is-private: 0, owner: -1, is-agent: 0
    [20]: ap6, type: 1, is-constant: 0, is-private: 0, owner: -1, is-agent: 0
    [21]: ap7, type: 1, is-constant: 0, is-private: 0, owner: -1, is-agent: 0
    [22]: ap8, type: 1, is-constant: 0, is-private: 0, owner: -1, is-agent: 0
    [23]: ap9, type: 1, is-constant: 0, is-private: 0, owner: -1, is-agent: 0
    [24]: ap13, type: 1, is-constant: 0, is-private: 0, owner: -1, is-agent: 0
    [25]: ap15, type: 1, is-constant: 0, is-private: 0, owner: -1, is-agent: 0
    [26]: ap16, type: 1, is-constant: 0, is-private: 0, owner: -1, is-agent: 0
    [27]: ap17, type: 1, is-constant: 0, is-private: 0, owner: -1, is-agent: 0
    [28]: ap19, type: 1, is-constant: 0, is-private: 0, owner: -1, is-agent: 0
Predicate[5]:
    =: 0 0 :: is-private: 0, owner-param: -1, read: 0, write: 0
    done: 1 :: is-private: 0, owner-param: -1, read: 0, write: 1
    today: 2 :: is-private: 0, owner-param: -1, read: 1, write: 1
    at: 1 2 3 :: is-private: 0, owner-param: -1, read: 1, write: 0
    next: 2 2 :: is-private: 0, owner-param: -1, read: 0, write: 0
Function[0]:
Action[1]:
    workat: ?day:2 ?airport:3
        pre: (and (RW:today ?day))
        eff: (and (when (R:at ap1 ?day ?airport) (W:done ap1)) (when (R:at ap2 ?day ?airport) (W:done ap2)) (when (R:at ap1 ?day ?airport) (W:done ap1)) (when (R:at ap4 ?day ?airport) (W:done ap4)) (when (R:at ap5 ?day ?airport) (W:done ap5)) (when (R:at ap6 ?day ?airport) (W:done ap6)) (when (R:at ap7 ?day ?airport) (W:done ap7)) (when (R:at ap8 ?day ?airport) (W:done ap8)) (when (R:at ap9 ?day ?airport) (W:done ap9)) (when (R:at ap4 ?day ?airport) (W:done ap4)) (when (R:at ap2 ?day ?airport) (W:done ap2)) (when (R:at ap2 ?day ?airport) (W:done ap2)) (when (R:at ap13 ?day ?airport) (W:done ap13)) (when (R:at ap5 ?day ?airport) (W:done ap5)) (when (R:at ap15 ?day ?airport) (W:done ap15)) (when (R:at ap16 ?day ?airport) (W:done ap16)) (when (R:at ap17 ?day ?airport) (W:done ap17)) (when (R:at ap1 ?day ?airport) (W:done ap1)) (when (R:at ap19 ?day ?airport) (W:done ap19)) (when (R:at ap9 ?day ?airport) (W:done ap9)))
Init[54]:
  (today d1)
  (today d2)
  (today d3)
  (today d4)
  (today d5)
  (today d6)
  (today d7)
  (today d8)
  (today d9)
  (today d10)
  (today d11)
  (today d2)
  (today d2)
  (today d2)
  (today d15)
  S:(at ap1 d15 ber)
  S:(at ap1 d15 ham)
  S:(at ap2 d2 ber)
  S:(at ap2 d2 ham)
  S:(at ap1 d10 ber)
  S:(at ap1 d15 ber)
  S:(at ap4 d4 fra)
  S:(at ap4 d3 ham)
  S:(at ap5 d3 ber)
  S:(at ap5 d10 ber)
  S:(at ap6 d3 ber)
  S:(at ap6 d8 ham)
  S:(at ap7 d10 ber)
  S:(at ap7 d6 ham)
  S:(at ap8 d9 ber)
  S:(at ap8 d15 ber)
  S:(at ap9 d1 ber)
  S:(at ap9 d9 ham)
  S:(at ap4 d4 fra)
  S:(at ap2 d2 ber)
  S:(at ap2 d2 ber)
  S:(at ap2 d2 ber)
  S:(at ap2 d9 ham)
  S:(at ap13 d4 fra)
  S:(at ap13 d5 ber)
  S:(at ap5 d3 fra)
  S:(at ap5 d10 fra)
  S:(at ap15 d15 fra)
  S:(at ap15 d1 ham)
  S:(at ap16 d6 ham)
  S:(at ap16 d8 ham)
  S:(at ap17 d5 fra)
  S:(at ap17 d6 ham)
  S:(at ap1 d15 ber)
  S:(at ap1 d10 ham)
  S:(at ap19 d8 fra)
  S:(at ap19 d2 ham)
  S:(at ap9 d1 ber)
  S:(at ap9 d9 ham)
Init[0]:
Goal: (and (W:done ap1) (W:done ap2) (W:done ap1) (W:done ap4) (W:done ap5) (W:done ap6) (W:done ap7) (W:done ap8) (W:done ap9) (W:done ap4) (W:done ap2) (W:done ap2) (W:done ap13) (W:done ap5) (W:done ap15) (W:done ap16) (W:done ap17) (W:done ap1) (W:done ap19) (W:done ap9))
Metric: 0
