Monotonicity invariants:
< {location V0:sheet_t C1:location_t}
, {notprintedwith V0:sheet_t V1:side_t V2:color_t}
, {notprintedwith V0:sheet_t V1:side_t C2:color_t}
, {notprintedwith V0:sheet_t C2:side_t V1:color_t}
, {notprintedwith C2:sheet_t V0:side_t V1:color_t}
, {uninitialized}
, {hasimage V0:sheet_t V1:side_t V2:image_t, notprintedwith V0:sheet_t V1:side_t C3:color_t}
, {hasimage V0:sheet_t V1:side_t C2:image_t, notprintedwith V0:sheet_t V1:side_t C3:color_t}
>
FD Mutex Groups:
< {location V0:sheet_t C1:location_t}:=1
, {notprintedwith V0:sheet_t V1:side_t V2:color_t}
, {uninitialized}
>
FD Goal aware:
< {notprintedwith sheet1 front black}
, {notprintedwith sheet1 back black}
, {notprintedwith sheet1 back color}
, {notprintedwith sheet2 front black}
, {notprintedwith sheet2 back black}
, {notprintedwith sheet2 back color}
, {notprintedwith sheet3 front color}
, {notprintedwith sheet3 back black}
, {notprintedwith sheet3 back color}
, {notprintedwith sheet4 front color}
, {notprintedwith sheet4 back black}
, {notprintedwith sheet4 back color}
, {notprintedwith sheet5 front color}
, {notprintedwith sheet5 back black}
, {notprintedwith sheet5 back color}
, {notprintedwith sheet6 front black}
, {notprintedwith sheet6 back black}
, {notprintedwith sheet6 back color}
, {notprintedwith sheet7 front color}
, {notprintedwith sheet7 back black}
, {notprintedwith sheet7 back color}
, {notprintedwith sheet8 front black}
, {notprintedwith sheet8 back black}
, {notprintedwith sheet9 front color}
, {notprintedwith sheet9 back black}
, {notprintedwith sheet9 back color}
, {notprintedwith sheet10 front color}
, {notprintedwith sheet10 back black}
, {notprintedwith sheet10 back color}
>
