begin_version
3
end_version
begin_metric
1
end_metric
4
begin_variable
var0
-1
5
at-robot loc-x0-y0
at-robot loc-x0-y1
at-robot loc-x1-y0
at-robot loc-x1-y1
tnf-unknown
end_variable
begin_variable
var1
-1
3
visited loc-x0-y0
none-of-those
tnf-unkown
end_variable
begin_variable
var2
-1
3
visited loc-x0-y1
none-of-those
tnf-unkown
end_variable
begin_variable
var3
-1
3
visited loc-x1-y0
none-of-those
tnf-unkown
end_variable
1
begin_mutex_group
4
0 0
0 1
0 2
0 3
end_mutex_group
begin_state
3
1
1
1
end_state
begin_goal
4
0 4
1 0
2 0
3 0
end_goal
18
begin_operator
move loc-x0-y0 loc-x0-y1
0
2
0 0 0 1
0 2 2 0
1
end_operator
begin_operator
move loc-x0-y0 loc-x1-y0
0
2
0 0 0 2
0 3 2 0
1
end_operator
begin_operator
move loc-x0-y1 loc-x0-y0
0
2
0 0 1 0
0 1 2 0
1
end_operator
begin_operator
move loc-x0-y1 loc-x1-y1
0
1
0 0 1 3
1
end_operator
begin_operator
move loc-x1-y0 loc-x0-y0
0
2
0 0 2 0
0 1 2 0
1
end_operator
begin_operator
move loc-x1-y0 loc-x1-y1
0
1
0 0 2 3
1
end_operator
begin_operator
move loc-x1-y1 loc-x0-y1
0
2
0 0 3 1
0 2 2 0
1
end_operator
begin_operator
move loc-x1-y1 loc-x1-y0
0
2
0 0 3 2
0 3 2 0
1
end_operator
begin_operator
tnf-forget-0-0
0
1
0 0 0 4
0
end_operator
begin_operator
tnf-forget-0-1
0
1
0 0 1 4
0
end_operator
begin_operator
tnf-forget-0-2
0
1
0 0 2 4
0
end_operator
begin_operator
tnf-forget-0-3
0
1
0 0 3 4
0
end_operator
begin_operator
tnf-forget-1-0
0
1
0 1 0 2
0
end_operator
begin_operator
tnf-forget-1-1
0
1
0 1 1 2
0
end_operator
begin_operator
tnf-forget-2-0
0
1
0 2 0 2
0
end_operator
begin_operator
tnf-forget-2-1
0
1
0 2 1 2
0
end_operator
begin_operator
tnf-forget-3-0
0
1
0 3 0 2
0
end_operator
begin_operator
tnf-forget-3-1
0
1
0 3 1 2
0
end_operator
0
