RSE-Invertible facts:
0:(at hoist0 container-0-0) in-fam-group
1:(at hoist0 container-0-1) in-fam-group
2:(at hoist0 container-0-2) in-fam-group
3:(at hoist0 container-0-3) in-fam-group
4:(at hoist0 depot0-1-1) in-fam-group
5:(at hoist0 depot0-1-2) in-fam-group
6:(at hoist0 depot0-1-3) in-fam-group
7:(at hoist0 depot0-1-4) in-fam-group
8:(at hoist0 depot0-2-1) in-fam-group
9:(at hoist0 depot0-2-2) in-fam-group
10:(at hoist0 depot0-2-3) in-fam-group
11:(at hoist0 depot0-2-4) in-fam-group
12:(at hoist0 loadarea) in-fam-group
13:(available hoist0) in-fam-group
14:(clear container-0-0) in-fam-group
15:(clear container-0-1) in-fam-group
16:(clear container-0-2) in-fam-group
17:(clear container-0-3) in-fam-group
18:(clear depot0-1-1) in-fam-group
19:(clear depot0-1-2) in-fam-group
20:(clear depot0-1-3) in-fam-group
21:(clear depot0-1-4) in-fam-group
22:(clear depot0-2-1) in-fam-group
23:(clear depot0-2-2) in-fam-group
24:(clear depot0-2-3) in-fam-group
25:(clear depot0-2-4) in-fam-group
26:(in crate0 depot0)
27:(in crate1 depot0)
28:(in crate2 depot0)
29:(in crate3 depot0)
30:(lifting hoist0 crate0) in-fam-group
31:(lifting hoist0 crate1) in-fam-group
32:(lifting hoist0 crate2) in-fam-group
33:(lifting hoist0 crate3) in-fam-group
34:(on crate0 container-0-0) in-fam-group
35:(on crate0 container-0-1) in-fam-group
36:(on crate0 container-0-2) in-fam-group
37:(on crate0 container-0-3) in-fam-group
38:(on crate0 depot0-1-1) in-fam-group
39:(on crate0 depot0-1-2) in-fam-group
40:(on crate0 depot0-1-3) in-fam-group
41:(on crate0 depot0-1-4) in-fam-group
42:(on crate0 depot0-2-1) in-fam-group
43:(on crate0 depot0-2-2) in-fam-group
44:(on crate0 depot0-2-3) in-fam-group
45:(on crate0 depot0-2-4) in-fam-group
46:(on crate1 container-0-0) in-fam-group
47:(on crate1 container-0-1) in-fam-group
48:(on crate1 container-0-2) in-fam-group
49:(on crate1 container-0-3) in-fam-group
50:(on crate1 depot0-1-1) in-fam-group
51:(on crate1 depot0-1-2) in-fam-group
52:(on crate1 depot0-1-3) in-fam-group
53:(on crate1 depot0-1-4) in-fam-group
54:(on crate1 depot0-2-1) in-fam-group
55:(on crate1 depot0-2-2) in-fam-group
56:(on crate1 depot0-2-3) in-fam-group
57:(on crate1 depot0-2-4) in-fam-group
58:(on crate2 container-0-0) in-fam-group
59:(on crate2 container-0-1) in-fam-group
60:(on crate2 container-0-2) in-fam-group
61:(on crate2 container-0-3) in-fam-group
62:(on crate2 depot0-1-1) in-fam-group
63:(on crate2 depot0-1-2) in-fam-group
64:(on crate2 depot0-1-3) in-fam-group
65:(on crate2 depot0-1-4) in-fam-group
66:(on crate2 depot0-2-1) in-fam-group
67:(on crate2 depot0-2-2) in-fam-group
68:(on crate2 depot0-2-3) in-fam-group
69:(on crate2 depot0-2-4) in-fam-group
70:(on crate3 container-0-0) in-fam-group
71:(on crate3 container-0-1) in-fam-group
72:(on crate3 container-0-2) in-fam-group
73:(on crate3 container-0-3) in-fam-group
74:(on crate3 depot0-1-1) in-fam-group
75:(on crate3 depot0-1-2) in-fam-group
76:(on crate3 depot0-1-3) in-fam-group
77:(on crate3 depot0-1-4) in-fam-group
78:(on crate3 depot0-2-1) in-fam-group
79:(on crate3 depot0-2-2) in-fam-group
80:(on crate3 depot0-2-3) in-fam-group
81:(on crate3 depot0-2-4) in-fam-group
