RSE-Invertible facts:
0:(at package-1 city-loc-1) in-fam-group
1:(at package-1 city-loc-2) in-fam-group
2:(at package-1 city-loc-3) in-fam-group
3:(at package-1 city-loc-4) in-fam-group
4:(at package-1 city-loc-5) in-fam-group
5:(at package-2 city-loc-1) in-fam-group
6:(at package-2 city-loc-2) in-fam-group
7:(at package-2 city-loc-3) in-fam-group
8:(at package-2 city-loc-4) in-fam-group
9:(at package-2 city-loc-5) in-fam-group
10:(at package-3 city-loc-1) in-fam-group
11:(at package-3 city-loc-2) in-fam-group
12:(at package-3 city-loc-3) in-fam-group
13:(at package-3 city-loc-4) in-fam-group
14:(at package-3 city-loc-5) in-fam-group
15:(at package-4 city-loc-1) in-fam-group
16:(at package-4 city-loc-2) in-fam-group
17:(at package-4 city-loc-3) in-fam-group
18:(at package-4 city-loc-4) in-fam-group
19:(at package-4 city-loc-5) in-fam-group
20:(at truck-1 city-loc-1) in-fam-group
21:(at truck-1 city-loc-2) in-fam-group
22:(at truck-1 city-loc-3) in-fam-group
23:(at truck-1 city-loc-4) in-fam-group
24:(at truck-1 city-loc-5) in-fam-group
25:(at truck-2 city-loc-1) in-fam-group
26:(at truck-2 city-loc-2) in-fam-group
27:(at truck-2 city-loc-3) in-fam-group
28:(at truck-2 city-loc-4) in-fam-group
29:(at truck-2 city-loc-5) in-fam-group
30:(capacity truck-1 capacity-0) in-fam-group
31:(capacity truck-1 capacity-1) in-fam-group
32:(capacity truck-1 capacity-2) in-fam-group
33:(capacity truck-1 capacity-3) in-fam-group
34:(capacity truck-1 capacity-4) in-fam-group
35:(capacity truck-2 capacity-0) in-fam-group
36:(capacity truck-2 capacity-1) in-fam-group
37:(capacity truck-2 capacity-2) in-fam-group
38:(capacity truck-2 capacity-3) in-fam-group
39:(capacity truck-2 capacity-4) in-fam-group
40:(in package-1 truck-1) in-fam-group
41:(in package-1 truck-2) in-fam-group
42:(in package-2 truck-1) in-fam-group
43:(in package-2 truck-2) in-fam-group
44:(in package-3 truck-1) in-fam-group
45:(in package-3 truck-2) in-fam-group
46:(in package-4 truck-1) in-fam-group
47:(in package-4 truck-2) in-fam-group
