Fact[19]:
  (at rover0 waypoint0)
  (at rover0 waypoint1)
  (at rover0 waypoint2)
  (at rover0 waypoint3)
  (at_rock_sample waypoint1)
  (at_rock_sample waypoint2)
  (at_rock_sample waypoint3)
  (at_soil_sample waypoint0)
  (at_soil_sample waypoint2)
  (at_soil_sample waypoint3)
  (calibrated camera0 rover0)
  (communicated_image_data objective1 high_res)
  (communicated_rock_data waypoint3)
  (communicated_soil_data waypoint2)
  (empty rover0store)
  (full rover0store)
  (have_image rover0 objective1 high_res)
  (have_rock_analysis rover0 waypoint3)
  (have_soil_analysis rover0 waypoint2)
Op[42]:
  (calibrate rover0 camera0 objective1 waypoint0), cost: 1
    pre: (at rover0 waypoint0)
    add: (calibrated camera0 rover0)
    del:
  (calibrate rover0 camera0 objective1 waypoint1), cost: 1
    pre: (at rover0 waypoint1)
    add: (calibrated camera0 rover0)
    del:
  (calibrate rover0 camera0 objective1 waypoint2), cost: 1
    pre: (at rover0 waypoint2)
    add: (calibrated camera0 rover0)
    del:
  (calibrate rover0 camera0 objective1 waypoint3), cost: 1
    pre: (at rover0 waypoint3)
    add: (calibrated camera0 rover0)
    del:
  (communicate_image_data rover0 general objective1 high_res waypoint1 waypoint0), cost: 1
    pre: (at rover0 waypoint1) (have_image rover0 objective1 high_res)
    add: (communicated_image_data objective1 high_res)
    del:
  (communicate_image_data rover0 general objective1 high_res waypoint2 waypoint0), cost: 1
    pre: (at rover0 waypoint2) (have_image rover0 objective1 high_res)
    add: (communicated_image_data objective1 high_res)
    del:
  (communicate_image_data rover0 general objective1 high_res waypoint3 waypoint0), cost: 1
    pre: (at rover0 waypoint3) (have_image rover0 objective1 high_res)
    add: (communicated_image_data objective1 high_res)
    del:
  (communicate_rock_data rover0 general waypoint3 waypoint1 waypoint0), cost: 1
    pre: (at rover0 waypoint1) (have_rock_analysis rover0 waypoint3)
    add: (communicated_rock_data waypoint3)
    del:
  (communicate_rock_data rover0 general waypoint3 waypoint2 waypoint0), cost: 1
    pre: (at rover0 waypoint2) (have_rock_analysis rover0 waypoint3)
    add: (communicated_rock_data waypoint3)
    del:
  (communicate_rock_data rover0 general waypoint3 waypoint3 waypoint0), cost: 1
    pre: (at rover0 waypoint3) (have_rock_analysis rover0 waypoint3)
    add: (communicated_rock_data waypoint3)
    del:
  (communicate_soil_data rover0 general waypoint2 waypoint1 waypoint0), cost: 1
    pre: (at rover0 waypoint1) (have_soil_analysis rover0 waypoint2)
    add: (communicated_soil_data waypoint2)
    del:
  (communicate_soil_data rover0 general waypoint2 waypoint2 waypoint0), cost: 1
    pre: (at rover0 waypoint2) (have_soil_analysis rover0 waypoint2)
    add: (communicated_soil_data waypoint2)
    del:
  (communicate_soil_data rover0 general waypoint2 waypoint3 waypoint0), cost: 1
    pre: (at rover0 waypoint3) (have_soil_analysis rover0 waypoint2)
    add: (communicated_soil_data waypoint2)
    del:
  (drop rover0 rover0store), cost: 1
    pre: (full rover0store)
    add: (empty rover0store)
    del: (full rover0store)
  (navigate rover0 waypoint0 waypoint3), cost: 1
    pre: (at rover0 waypoint0)
    add: (at rover0 waypoint3)
    del: (at rover0 waypoint0)
  (navigate rover0 waypoint1 waypoint2), cost: 1
    pre: (at rover0 waypoint1)
    add: (at rover0 waypoint2)
    del: (at rover0 waypoint1)
  (navigate rover0 waypoint1 waypoint3), cost: 1
    pre: (at rover0 waypoint1)
    add: (at rover0 waypoint3)
    del: (at rover0 waypoint1)
  (navigate rover0 waypoint2 waypoint1), cost: 1
    pre: (at rover0 waypoint2)
    add: (at rover0 waypoint1)
    del: (at rover0 waypoint2)
  (navigate rover0 waypoint3 waypoint0), cost: 1
    pre: (at rover0 waypoint3)
    add: (at rover0 waypoint0)
    del: (at rover0 waypoint3)
  (navigate rover0 waypoint3 waypoint1), cost: 1
    pre: (at rover0 waypoint3)
    add: (at rover0 waypoint1)
    del: (at rover0 waypoint3)
  (sample_rock rover0 rover0store waypoint1), cost: 1
    pre: (at rover0 waypoint1) (at_rock_sample waypoint1) (empty rover0store)
    add: (full rover0store)
    del: (at_rock_sample waypoint1) (empty rover0store)
  (sample_rock rover0 rover0store waypoint2), cost: 1
    pre: (at rover0 waypoint2) (at_rock_sample waypoint2) (empty rover0store)
    add: (full rover0store)
    del: (at_rock_sample waypoint2) (empty rover0store)
  (sample_rock rover0 rover0store waypoint3), cost: 1
    pre: (at rover0 waypoint3) (at_rock_sample waypoint3) (empty rover0store)
    add: (full rover0store) (have_rock_analysis rover0 waypoint3)
    del: (at_rock_sample waypoint3) (empty rover0store)
  (sample_soil rover0 rover0store waypoint0), cost: 1
    pre: (at rover0 waypoint0) (at_soil_sample waypoint0) (empty rover0store)
    add: (full rover0store)
    del: (at_soil_sample waypoint0) (empty rover0store)
  (sample_soil rover0 rover0store waypoint2), cost: 1
    pre: (at rover0 waypoint2) (at_soil_sample waypoint2) (empty rover0store)
    add: (full rover0store) (have_soil_analysis rover0 waypoint2)
    del: (at_soil_sample waypoint2) (empty rover0store)
  (sample_soil rover0 rover0store waypoint3), cost: 1
    pre: (at rover0 waypoint3) (at_soil_sample waypoint3) (empty rover0store)
    add: (full rover0store)
    del: (at_soil_sample waypoint3) (empty rover0store)
  (take_image rover0 waypoint0 objective0 camera0 colour), cost: 1
    pre: (at rover0 waypoint0) (calibrated camera0 rover0)
    add:
    del: (calibrated camera0 rover0)
  (take_image rover0 waypoint0 objective0 camera0 high_res), cost: 1
    pre: (at rover0 waypoint0) (calibrated camera0 rover0)
    add:
    del: (calibrated camera0 rover0)
  (take_image rover0 waypoint0 objective1 camera0 colour), cost: 1
    pre: (at rover0 waypoint0) (calibrated camera0 rover0)
    add:
    del: (calibrated camera0 rover0)
  (take_image rover0 waypoint0 objective1 camera0 high_res), cost: 1
    pre: (at rover0 waypoint0) (calibrated camera0 rover0)
    add: (have_image rover0 objective1 high_res)
    del: (calibrated camera0 rover0)
  (take_image rover0 waypoint1 objective0 camera0 colour), cost: 1
    pre: (at rover0 waypoint1) (calibrated camera0 rover0)
    add:
    del: (calibrated camera0 rover0)
  (take_image rover0 waypoint1 objective0 camera0 high_res), cost: 1
    pre: (at rover0 waypoint1) (calibrated camera0 rover0)
    add:
    del: (calibrated camera0 rover0)
  (take_image rover0 waypoint1 objective1 camera0 colour), cost: 1
    pre: (at rover0 waypoint1) (calibrated camera0 rover0)
    add:
    del: (calibrated camera0 rover0)
  (take_image rover0 waypoint1 objective1 camera0 high_res), cost: 1
    pre: (at rover0 waypoint1) (calibrated camera0 rover0)
    add: (have_image rover0 objective1 high_res)
    del: (calibrated camera0 rover0)
  (take_image rover0 waypoint2 objective0 camera0 colour), cost: 1
    pre: (at rover0 waypoint2) (calibrated camera0 rover0)
    add:
    del: (calibrated camera0 rover0)
  (take_image rover0 waypoint2 objective0 camera0 high_res), cost: 1
    pre: (at rover0 waypoint2) (calibrated camera0 rover0)
    add:
    del: (calibrated camera0 rover0)
  (take_image rover0 waypoint2 objective1 camera0 colour), cost: 1
    pre: (at rover0 waypoint2) (calibrated camera0 rover0)
    add:
    del: (calibrated camera0 rover0)
  (take_image rover0 waypoint2 objective1 camera0 high_res), cost: 1
    pre: (at rover0 waypoint2) (calibrated camera0 rover0)
    add: (have_image rover0 objective1 high_res)
    del: (calibrated camera0 rover0)
  (take_image rover0 waypoint3 objective0 camera0 colour), cost: 1
    pre: (at rover0 waypoint3) (calibrated camera0 rover0)
    add:
    del: (calibrated camera0 rover0)
  (take_image rover0 waypoint3 objective0 camera0 high_res), cost: 1
    pre: (at rover0 waypoint3) (calibrated camera0 rover0)
    add:
    del: (calibrated camera0 rover0)
  (take_image rover0 waypoint3 objective1 camera0 colour), cost: 1
    pre: (at rover0 waypoint3) (calibrated camera0 rover0)
    add:
    del: (calibrated camera0 rover0)
  (take_image rover0 waypoint3 objective1 camera0 high_res), cost: 1
    pre: (at rover0 waypoint3) (calibrated camera0 rover0)
    add: (have_image rover0 objective1 high_res)
    del: (calibrated camera0 rover0)
Init State: (at rover0 waypoint3) (at_rock_sample waypoint1) (at_rock_sample waypoint2) (at_rock_sample waypoint3) (at_soil_sample waypoint0) (at_soil_sample waypoint2) (at_soil_sample waypoint3) (empty rover0store)
Goal: (communicated_image_data objective1 high_res) (communicated_rock_data waypoint3) (communicated_soil_data waypoint2)
