Reduced 121 -> 121
Domain: grid-visit-all
Problem: grid-11
Require: ff
Type[2]:
    [0]: object, parent: -1
    [1]: place, parent: 0
Obj-by-Type:
    [0]: 0 1 2 3 4 5 6 7 8 9 10 11 12 13 14 15 16 17 18 19 20 21 22 23 24 25 26 27 28 29 30 31 32 33 34 35 36 37 38 39 40 41 42 43 44 45 46 47 48 49 50 51 52 53 54 55 56 57 58 59 60 61 62 63 64 65 66 67 68 69 70 71 72 73 74 75 76 77 78 79 80 81 82 83 84 85 86 87 88 89 90 91 92 93 94 95 96 97 98 99 100 101 102 103 104 105 106 107 108 109 110 111 112 113 114 115 116 117 118 119 120
    [1]: 0 1 2 3 4 5 6 7 8 9 10 11 12 13 14 15 16 17 18 19 20 21 22 23 24 25 26 27 28 29 30 31 32 33 34 35 36 37 38 39 40 41 42 43 44 45 46 47 48 49 50 51 52 53 54 55 56 57 58 59 60 61 62 63 64 65 66 67 68 69 70 71 72 73 74 75 76 77 78 79 80 81 82 83 84 85 86 87 88 89 90 91 92 93 94 95 96 97 98 99 100 101 102 103 104 105 106 107 108 109 110 111 112 113 114 115 116 117 118 119 120
Obj[121]:
    [0]: loc-x0-y0, type: 1, is-constant: 0, is-private: 0, owner: -1, is-agent: 0
    [1]: loc-x0-y1, type: 1, is-constant: 0, is-private: 0, owner: -1, is-agent: 0
    [2]: loc-x0-y2, type: 1, is-constant: 0, is-private: 0, owner: -1, is-agent: 0
    [3]: loc-x0-y3, type: 1, is-constant: 0, is-private: 0, owner: -1, is-agent: 0
    [4]: loc-x0-y4, type: 1, is-constant: 0, is-private: 0, owner: -1, is-agent: 0
    [5]: loc-x0-y5, type: 1, is-constant: 0, is-private: 0, owner: -1, is-agent: 0
    [6]: loc-x0-y6, type: 1, is-constant: 0, is-private: 0, owner: -1, is-agent: 0
    [7]: loc-x0-y7, type: 1, is-constant: 0, is-private: 0, owner: -1, is-agent: 0
    [8]: loc-x0-y8, type: 1, is-constant: 0, is-private: 0, owner: -1, is-agent: 0
    [9]: loc-x0-y9, type: 1, is-constant: 0, is-private: 0, owner: -1, is-agent: 0
    [10]: loc-x0-y10, type: 1, is-constant: 0, is-private: 0, owner: -1, is-agent: 0
    [11]: loc-x1-y0, type: 1, is-constant: 0, is-private: 0, owner: -1, is-agent: 0
    [12]: loc-x1-y1, type: 1, is-constant: 0, is-private: 0, owner: -1, is-agent: 0
    [13]: loc-x1-y2, type: 1, is-constant: 0, is-private: 0, owner: -1, is-agent: 0
    [14]: loc-x1-y3, type: 1, is-constant: 0, is-private: 0, owner: -1, is-agent: 0
    [15]: loc-x1-y4, type: 1, is-constant: 0, is-private: 0, owner: -1, is-agent: 0
    [16]: loc-x1-y5, type: 1, is-constant: 0, is-private: 0, owner: -1, is-agent: 0
    [17]: loc-x1-y6, type: 1, is-constant: 0, is-private: 0, owner: -1, is-agent: 0
    [18]: loc-x1-y7, type: 1, is-constant: 0, is-private: 0, owner: -1, is-agent: 0
    [19]: loc-x1-y8, type: 1, is-constant: 0, is-private: 0, owner: -1, is-agent: 0
    [20]: loc-x1-y9, type: 1, is-constant: 0, is-private: 0, owner: -1, is-agent: 0
    [21]: loc-x1-y10, type: 1, is-constant: 0, is-private: 0, owner: -1, is-agent: 0
    [22]: loc-x2-y0, type: 1, is-constant: 0, is-private: 0, owner: -1, is-agent: 0
    [23]: loc-x2-y1, type: 1, is-constant: 0, is-private: 0, owner: -1, is-agent: 0
    [24]: loc-x2-y2, type: 1, is-constant: 0, is-private: 0, owner: -1, is-agent: 0
    [25]: loc-x2-y3, type: 1, is-constant: 0, is-private: 0, owner: -1, is-agent: 0
    [26]: loc-x2-y4, type: 1, is-constant: 0, is-private: 0, owner: -1, is-agent: 0
    [27]: loc-x2-y5, type: 1, is-constant: 0, is-private: 0, owner: -1, is-agent: 0
    [28]: loc-x2-y6, type: 1, is-constant: 0, is-private: 0, owner: -1, is-agent: 0
    [29]: loc-x2-y7, type: 1, is-constant: 0, is-private: 0, owner: -1, is-agent: 0
    [30]: loc-x2-y8, type: 1, is-constant: 0, is-private: 0, owner: -1, is-agent: 0
    [31]: loc-x2-y9, type: 1, is-constant: 0, is-private: 0, owner: -1, is-agent: 0
    [32]: loc-x2-y10, type: 1, is-constant: 0, is-private: 0, owner: -1, is-agent: 0
    [33]: loc-x3-y0, type: 1, is-constant: 0, is-private: 0, owner: -1, is-agent: 0
    [34]: loc-x3-y1, type: 1, is-constant: 0, is-private: 0, owner: -1, is-agent: 0
    [35]: loc-x3-y2, type: 1, is-constant: 0, is-private: 0, owner: -1, is-agent: 0
    [36]: loc-x3-y3, type: 1, is-constant: 0, is-private: 0, owner: -1, is-agent: 0
    [37]: loc-x3-y4, type: 1, is-constant: 0, is-private: 0, owner: -1, is-agent: 0
    [38]: loc-x3-y5, type: 1, is-constant: 0, is-private: 0, owner: -1, is-agent: 0
    [39]: loc-x3-y6, type: 1, is-constant: 0, is-private: 0, owner: -1, is-agent: 0
    [40]: loc-x3-y7, type: 1, is-constant: 0, is-private: 0, owner: -1, is-agent: 0
    [41]: loc-x3-y8, type: 1, is-constant: 0, is-private: 0, owner: -1, is-agent: 0
    [42]: loc-x3-y9, type: 1, is-constant: 0, is-private: 0, owner: -1, is-agent: 0
    [43]: loc-x3-y10, type: 1, is-constant: 0, is-private: 0, owner: -1, is-agent: 0
    [44]: loc-x4-y0, type: 1, is-constant: 0, is-private: 0, owner: -1, is-agent: 0
    [45]: loc-x4-y1, type: 1, is-constant: 0, is-private: 0, owner: -1, is-agent: 0
    [46]: loc-x4-y2, type: 1, is-constant: 0, is-private: 0, owner: -1, is-agent: 0
    [47]: loc-x4-y3, type: 1, is-constant: 0, is-private: 0, owner: -1, is-agent: 0
    [48]: loc-x4-y4, type: 1, is-constant: 0, is-private: 0, owner: -1, is-agent: 0
    [49]: loc-x4-y5, type: 1, is-constant: 0, is-private: 0, owner: -1, is-agent: 0
    [50]: loc-x4-y6, type: 1, is-constant: 0, is-private: 0, owner: -1, is-agent: 0
    [51]: loc-x4-y7, type: 1, is-constant: 0, is-private: 0, owner: -1, is-agent: 0
    [52]: loc-x4-y8, type: 1, is-constant: 0, is-private: 0, owner: -1, is-agent: 0
    [53]: loc-x4-y9, type: 1, is-constant: 0, is-private: 0, owner: -1, is-agent: 0
    [54]: loc-x4-y10, type: 1, is-constant: 0, is-private: 0, owner: -1, is-agent: 0
    [55]: loc-x5-y0, type: 1, is-constant: 0, is-private: 0, owner: -1, is-agent: 0
    [56]: loc-x5-y1, type: 1, is-constant: 0, is-private: 0, owner: -1, is-agent: 0
    [57]: loc-x5-y2, type: 1, is-constant: 0, is-private: 0, owner: -1, is-agent: 0
    [58]: loc-x5-y3, type: 1, is-constant: 0, is-private: 0, owner: -1, is-agent: 0
    [59]: loc-x5-y4, type: 1, is-constant: 0, is-private: 0, owner: -1, is-agent: 0
    [60]: loc-x5-y5, type: 1, is-constant: 0, is-private: 0, owner: -1, is-agent: 0
    [61]: loc-x5-y6, type: 1, is-constant: 0, is-private: 0, owner: -1, is-agent: 0
    [62]: loc-x5-y7, type: 1, is-constant: 0, is-private: 0, owner: -1, is-agent: 0
    [63]: loc-x5-y8, type: 1, is-constant: 0, is-private: 0, owner: -1, is-agent: 0
    [64]: loc-x5-y9, type: 1, is-constant: 0, is-private: 0, owner: -1, is-agent: 0
    [65]: loc-x5-y10, type: 1, is-constant: 0, is-private: 0, owner: -1, is-agent: 0
    [66]: loc-x6-y0, type: 1, is-constant: 0, is-private: 0, owner: -1, is-agent: 0
    [67]: loc-x6-y1, type: 1, is-constant: 0, is-private: 0, owner: -1, is-agent: 0
    [68]: loc-x6-y2, type: 1, is-constant: 0, is-private: 0, owner: -1, is-agent: 0
    [69]: loc-x6-y3, type: 1, is-constant: 0, is-private: 0, owner: -1, is-agent: 0
    [70]: loc-x6-y4, type: 1, is-constant: 0, is-private: 0, owner: -1, is-agent: 0
    [71]: loc-x6-y5, type: 1, is-constant: 0, is-private: 0, owner: -1, is-agent: 0
    [72]: loc-x6-y6, type: 1, is-constant: 0, is-private: 0, owner: -1, is-agent: 0
    [73]: loc-x6-y7, type: 1, is-constant: 0, is-private: 0, owner: -1, is-agent: 0
    [74]: loc-x6-y8, type: 1, is-constant: 0, is-private: 0, owner: -1, is-agent: 0
    [75]: loc-x6-y9, type: 1, is-constant: 0, is-private: 0, owner: -1, is-agent: 0
    [76]: loc-x6-y10, type: 1, is-constant: 0, is-private: 0, owner: -1, is-agent: 0
    [77]: loc-x7-y0, type: 1, is-constant: 0, is-private: 0, owner: -1, is-agent: 0
    [78]: loc-x7-y1, type: 1, is-constant: 0, is-private: 0, owner: -1, is-agent: 0
    [79]: loc-x7-y2, type: 1, is-constant: 0, is-private: 0, owner: -1, is-agent: 0
    [80]: loc-x7-y3, type: 1, is-constant: 0, is-private: 0, owner: -1, is-agent: 0
    [81]: loc-x7-y4, type: 1, is-constant: 0, is-private: 0, owner: -1, is-agent: 0
    [82]: loc-x7-y5, type: 1, is-constant: 0, is-private: 0, owner: -1, is-agent: 0
    [83]: loc-x7-y6, type: 1, is-constant: 0, is-private: 0, owner: -1, is-agent: 0
    [84]: loc-x7-y7, type: 1, is-constant: 0, is-private: 0, owner: -1, is-agent: 0
    [85]: loc-x7-y8, type: 1, is-constant: 0, is-private: 0, owner: -1, is-agent: 0
    [86]: loc-x7-y9, type: 1, is-constant: 0, is-private: 0, owner: -1, is-agent: 0
    [87]: loc-x7-y10, type: 1, is-constant: 0, is-private: 0, owner: -1, is-agent: 0
    [88]: loc-x8-y0, type: 1, is-constant: 0, is-private: 0, owner: -1, is-agent: 0
    [89]: loc-x8-y1, type: 1, is-constant: 0, is-private: 0, owner: -1, is-agent: 0
    [90]: loc-x8-y2, type: 1, is-constant: 0, is-private: 0, owner: -1, is-agent: 0
    [91]: loc-x8-y3, type: 1, is-constant: 0, is-private: 0, owner: -1, is-agent: 0
    [92]: loc-x8-y4, type: 1, is-constant: 0, is-private: 0, owner: -1, is-agent: 0
    [93]: loc-x8-y5, type: 1, is-constant: 0, is-private: 0, owner: -1, is-agent: 0
    [94]: loc-x8-y6, type: 1, is-constant: 0, is-private: 0, owner: -1, is-agent: 0
    [95]: loc-x8-y7, type: 1, is-constant: 0, is-private: 0, owner: -1, is-agent: 0
    [96]: loc-x8-y8, type: 1, is-constant: 0, is-private: 0, owner: -1, is-agent: 0
    [97]: loc-x8-y9, type: 1, is-constant: 0, is-private: 0, owner: -1, is-agent: 0
    [98]: loc-x8-y10, type: 1, is-constant: 0, is-private: 0, owner: -1, is-agent: 0
    [99]: loc-x9-y0, type: 1, is-constant: 0, is-private: 0, owner: -1, is-agent: 0
    [100]: loc-x9-y1, type: 1, is-constant: 0, is-private: 0, owner: -1, is-agent: 0
    [101]: loc-x9-y2, type: 1, is-constant: 0, is-private: 0, owner: -1, is-agent: 0
    [102]: loc-x9-y3, type: 1, is-constant: 0, is-private: 0, owner: -1, is-agent: 0
    [103]: loc-x9-y4, type: 1, is-constant: 0, is-private: 0, owner: -1, is-agent: 0
    [104]: loc-x9-y5, type: 1, is-constant: 0, is-private: 0, owner: -1, is-agent: 0
    [105]: loc-x9-y6, type: 1, is-constant: 0, is-private: 0, owner: -1, is-agent: 0
    [106]: loc-x9-y7, type: 1, is-constant: 0, is-private: 0, owner: -1, is-agent: 0
    [107]: loc-x9-y8, type: 1, is-constant: 0, is-private: 0, owner: -1, is-agent: 0
    [108]: loc-x9-y9, type: 1, is-constant: 0, is-private: 0, owner: -1, is-agent: 0
    [109]: loc-x9-y10, type: 1, is-constant: 0, is-private: 0, owner: -1, is-agent: 0
    [110]: loc-x10-y0, type: 1, is-constant: 0, is-private: 0, owner: -1, is-agent: 0
    [111]: loc-x10-y1, type: 1, is-constant: 0, is-private: 0, owner: -1, is-agent: 0
    [112]: loc-x10-y2, type: 1, is-constant: 0, is-private: 0, owner: -1, is-agent: 0
    [113]: loc-x10-y3, type: 1, is-constant: 0, is-private: 0, owner: -1, is-agent: 0
    [114]: loc-x10-y4, type: 1, is-constant: 0, is-private: 0, owner: -1, is-agent: 0
    [115]: loc-x10-y5, type: 1, is-constant: 0, is-private: 0, owner: -1, is-agent: 0
    [116]: loc-x10-y6, type: 1, is-constant: 0, is-private: 0, owner: -1, is-agent: 0
    [117]: loc-x10-y7, type: 1, is-constant: 0, is-private: 0, owner: -1, is-agent: 0
    [118]: loc-x10-y8, type: 1, is-constant: 0, is-private: 0, owner: -1, is-agent: 0
    [119]: loc-x10-y9, type: 1, is-constant: 0, is-private: 0, owner: -1, is-agent: 0
    [120]: loc-x10-y10, type: 1, is-constant: 0, is-private: 0, owner: -1, is-agent: 0
Predicate[4]:
    =: 0 0 :: is-private: 0, owner-param: -1, read: 0, write: 0
    connected: 1 1 :: is-private: 0, owner-param: -1, read: 1, write: 0
    at-robot: 1 :: is-private: 0, owner-param: -1, read: 1, write: 1
    visited: 1 :: is-private: 0, owner-param: -1, read: 0, write: 1
Function[0]:
Action[1]:
    move: ?curpos:1 ?nextpos:1
        pre: (and (RW:at-robot ?curpos) (R:connected ?curpos ?nextpos))
        eff: (and (RW:at-robot ?nextpos) (N:RW:at-robot ?curpos) (W:visited ?nextpos))
Init[442]:
  (at-robot loc-x5-y5)
  (visited loc-x5-y5)
  S:(connected loc-x0-y0 loc-x1-y0)
  S:(connected loc-x0-y0 loc-x0-y1)
  S:(connected loc-x0-y1 loc-x1-y1)
  S:(connected loc-x0-y1 loc-x0-y0)
  S:(connected loc-x0-y1 loc-x0-y2)
  S:(connected loc-x0-y2 loc-x1-y2)
  S:(connected loc-x0-y2 loc-x0-y1)
  S:(connected loc-x0-y2 loc-x0-y3)
  S:(connected loc-x0-y3 loc-x1-y3)
  S:(connected loc-x0-y3 loc-x0-y2)
  S:(connected loc-x0-y3 loc-x0-y4)
  S:(connected loc-x0-y4 loc-x1-y4)
  S:(connected loc-x0-y4 loc-x0-y3)
  S:(connected loc-x0-y4 loc-x0-y5)
  S:(connected loc-x0-y5 loc-x1-y5)
  S:(connected loc-x0-y5 loc-x0-y4)
  S:(connected loc-x0-y5 loc-x0-y6)
  S:(connected loc-x0-y6 loc-x1-y6)
  S:(connected loc-x0-y6 loc-x0-y5)
  S:(connected loc-x0-y6 loc-x0-y7)
  S:(connected loc-x0-y7 loc-x1-y7)
  S:(connected loc-x0-y7 loc-x0-y6)
  S:(connected loc-x0-y7 loc-x0-y8)
  S:(connected loc-x0-y8 loc-x1-y8)
  S:(connected loc-x0-y8 loc-x0-y7)
  S:(connected loc-x0-y8 loc-x0-y9)
  S:(connected loc-x0-y9 loc-x1-y9)
  S:(connected loc-x0-y9 loc-x0-y8)
  S:(connected loc-x0-y9 loc-x0-y10)
  S:(connected loc-x0-y10 loc-x1-y10)
  S:(connected loc-x0-y10 loc-x0-y9)
  S:(connected loc-x1-y0 loc-x0-y0)
  S:(connected loc-x1-y0 loc-x2-y0)
  S:(connected loc-x1-y0 loc-x1-y1)
  S:(connected loc-x1-y1 loc-x0-y1)
  S:(connected loc-x1-y1 loc-x2-y1)
  S:(connected loc-x1-y1 loc-x1-y0)
  S:(connected loc-x1-y1 loc-x1-y2)
  S:(connected loc-x1-y2 loc-x0-y2)
  S:(connected loc-x1-y2 loc-x2-y2)
  S:(connected loc-x1-y2 loc-x1-y1)
  S:(connected loc-x1-y2 loc-x1-y3)
  S:(connected loc-x1-y3 loc-x0-y3)
  S:(connected loc-x1-y3 loc-x2-y3)
  S:(connected loc-x1-y3 loc-x1-y2)
  S:(connected loc-x1-y3 loc-x1-y4)
  S:(connected loc-x1-y4 loc-x0-y4)
  S:(connected loc-x1-y4 loc-x2-y4)
  S:(connected loc-x1-y4 loc-x1-y3)
  S:(connected loc-x1-y4 loc-x1-y5)
  S:(connected loc-x1-y5 loc-x0-y5)
  S:(connected loc-x1-y5 loc-x2-y5)
  S:(connected loc-x1-y5 loc-x1-y4)
  S:(connected loc-x1-y5 loc-x1-y6)
  S:(connected loc-x1-y6 loc-x0-y6)
  S:(connected loc-x1-y6 loc-x2-y6)
  S:(connected loc-x1-y6 loc-x1-y5)
  S:(connected loc-x1-y6 loc-x1-y7)
  S:(connected loc-x1-y7 loc-x0-y7)
  S:(connected loc-x1-y7 loc-x2-y7)
  S:(connected loc-x1-y7 loc-x1-y6)
  S:(connected loc-x1-y7 loc-x1-y8)
  S:(connected loc-x1-y8 loc-x0-y8)
  S:(connected loc-x1-y8 loc-x2-y8)
  S:(connected loc-x1-y8 loc-x1-y7)
  S:(connected loc-x1-y8 loc-x1-y9)
  S:(connected loc-x1-y9 loc-x0-y9)
  S:(connected loc-x1-y9 loc-x2-y9)
  S:(connected loc-x1-y9 loc-x1-y8)
  S:(connected loc-x1-y9 loc-x1-y10)
  S:(connected loc-x1-y10 loc-x0-y10)
  S:(connected loc-x1-y10 loc-x2-y10)
  S:(connected loc-x1-y10 loc-x1-y9)
  S:(connected loc-x2-y0 loc-x1-y0)
  S:(connected loc-x2-y0 loc-x3-y0)
  S:(connected loc-x2-y0 loc-x2-y1)
  S:(connected loc-x2-y1 loc-x1-y1)
  S:(connected loc-x2-y1 loc-x3-y1)
  S:(connected loc-x2-y1 loc-x2-y0)
  S:(connected loc-x2-y1 loc-x2-y2)
  S:(connected loc-x2-y2 loc-x1-y2)
  S:(connected loc-x2-y2 loc-x3-y2)
  S:(connected loc-x2-y2 loc-x2-y1)
  S:(connected loc-x2-y2 loc-x2-y3)
  S:(connected loc-x2-y3 loc-x1-y3)
  S:(connected loc-x2-y3 loc-x3-y3)
  S:(connected loc-x2-y3 loc-x2-y2)
  S:(connected loc-x2-y3 loc-x2-y4)
  S:(connected loc-x2-y4 loc-x1-y4)
  S:(connected loc-x2-y4 loc-x3-y4)
  S:(connected loc-x2-y4 loc-x2-y3)
  S:(connected loc-x2-y4 loc-x2-y5)
  S:(connected loc-x2-y5 loc-x1-y5)
  S:(connected loc-x2-y5 loc-x3-y5)
  S:(connected loc-x2-y5 loc-x2-y4)
  S:(connected loc-x2-y5 loc-x2-y6)
  S:(connected loc-x2-y6 loc-x1-y6)
  S:(connected loc-x2-y6 loc-x3-y6)
  S:(connected loc-x2-y6 loc-x2-y5)
  S:(connected loc-x2-y6 loc-x2-y7)
  S:(connected loc-x2-y7 loc-x1-y7)
  S:(connected loc-x2-y7 loc-x3-y7)
  S:(connected loc-x2-y7 loc-x2-y6)
  S:(connected loc-x2-y7 loc-x2-y8)
  S:(connected loc-x2-y8 loc-x1-y8)
  S:(connected loc-x2-y8 loc-x3-y8)
  S:(connected loc-x2-y8 loc-x2-y7)
  S:(connected loc-x2-y8 loc-x2-y9)
  S:(connected loc-x2-y9 loc-x1-y9)
  S:(connected loc-x2-y9 loc-x3-y9)
  S:(connected loc-x2-y9 loc-x2-y8)
  S:(connected loc-x2-y9 loc-x2-y10)
  S:(connected loc-x2-y10 loc-x1-y10)
  S:(connected loc-x2-y10 loc-x3-y10)
  S:(connected loc-x2-y10 loc-x2-y9)
  S:(connected loc-x3-y0 loc-x2-y0)
  S:(connected loc-x3-y0 loc-x4-y0)
  S:(connected loc-x3-y0 loc-x3-y1)
  S:(connected loc-x3-y1 loc-x2-y1)
  S:(connected loc-x3-y1 loc-x4-y1)
  S:(connected loc-x3-y1 loc-x3-y0)
  S:(connected loc-x3-y1 loc-x3-y2)
  S:(connected loc-x3-y2 loc-x2-y2)
  S:(connected loc-x3-y2 loc-x4-y2)
  S:(connected loc-x3-y2 loc-x3-y1)
  S:(connected loc-x3-y2 loc-x3-y3)
  S:(connected loc-x3-y3 loc-x2-y3)
  S:(connected loc-x3-y3 loc-x4-y3)
  S:(connected loc-x3-y3 loc-x3-y2)
  S:(connected loc-x3-y3 loc-x3-y4)
  S:(connected loc-x3-y4 loc-x2-y4)
  S:(connected loc-x3-y4 loc-x4-y4)
  S:(connected loc-x3-y4 loc-x3-y3)
  S:(connected loc-x3-y4 loc-x3-y5)
  S:(connected loc-x3-y5 loc-x2-y5)
  S:(connected loc-x3-y5 loc-x4-y5)
  S:(connected loc-x3-y5 loc-x3-y4)
  S:(connected loc-x3-y5 loc-x3-y6)
  S:(connected loc-x3-y6 loc-x2-y6)
  S:(connected loc-x3-y6 loc-x4-y6)
  S:(connected loc-x3-y6 loc-x3-y5)
  S:(connected loc-x3-y6 loc-x3-y7)
  S:(connected loc-x3-y7 loc-x2-y7)
  S:(connected loc-x3-y7 loc-x4-y7)
  S:(connected loc-x3-y7 loc-x3-y6)
  S:(connected loc-x3-y7 loc-x3-y8)
  S:(connected loc-x3-y8 loc-x2-y8)
  S:(connected loc-x3-y8 loc-x4-y8)
  S:(connected loc-x3-y8 loc-x3-y7)
  S:(connected loc-x3-y8 loc-x3-y9)
  S:(connected loc-x3-y9 loc-x2-y9)
  S:(connected loc-x3-y9 loc-x4-y9)
  S:(connected loc-x3-y9 loc-x3-y8)
  S:(connected loc-x3-y9 loc-x3-y10)
  S:(connected loc-x3-y10 loc-x2-y10)
  S:(connected loc-x3-y10 loc-x4-y10)
  S:(connected loc-x3-y10 loc-x3-y9)
  S:(connected loc-x4-y0 loc-x3-y0)
  S:(connected loc-x4-y0 loc-x5-y0)
  S:(connected loc-x4-y0 loc-x4-y1)
  S:(connected loc-x4-y1 loc-x3-y1)
  S:(connected loc-x4-y1 loc-x5-y1)
  S:(connected loc-x4-y1 loc-x4-y0)
  S:(connected loc-x4-y1 loc-x4-y2)
  S:(connected loc-x4-y2 loc-x3-y2)
  S:(connected loc-x4-y2 loc-x5-y2)
  S:(connected loc-x4-y2 loc-x4-y1)
  S:(connected loc-x4-y2 loc-x4-y3)
  S:(connected loc-x4-y3 loc-x3-y3)
  S:(connected loc-x4-y3 loc-x5-y3)
  S:(connected loc-x4-y3 loc-x4-y2)
  S:(connected loc-x4-y3 loc-x4-y4)
  S:(connected loc-x4-y4 loc-x3-y4)
  S:(connected loc-x4-y4 loc-x5-y4)
  S:(connected loc-x4-y4 loc-x4-y3)
  S:(connected loc-x4-y4 loc-x4-y5)
  S:(connected loc-x4-y5 loc-x3-y5)
  S:(connected loc-x4-y5 loc-x5-y5)
  S:(connected loc-x4-y5 loc-x4-y4)
  S:(connected loc-x4-y5 loc-x4-y6)
  S:(connected loc-x4-y6 loc-x3-y6)
  S:(connected loc-x4-y6 loc-x5-y6)
  S:(connected loc-x4-y6 loc-x4-y5)
  S:(connected loc-x4-y6 loc-x4-y7)
  S:(connected loc-x4-y7 loc-x3-y7)
  S:(connected loc-x4-y7 loc-x5-y7)
  S:(connected loc-x4-y7 loc-x4-y6)
  S:(connected loc-x4-y7 loc-x4-y8)
  S:(connected loc-x4-y8 loc-x3-y8)
  S:(connected loc-x4-y8 loc-x5-y8)
  S:(connected loc-x4-y8 loc-x4-y7)
  S:(connected loc-x4-y8 loc-x4-y9)
  S:(connected loc-x4-y9 loc-x3-y9)
  S:(connected loc-x4-y9 loc-x5-y9)
  S:(connected loc-x4-y9 loc-x4-y8)
  S:(connected loc-x4-y9 loc-x4-y10)
  S:(connected loc-x4-y10 loc-x3-y10)
  S:(connected loc-x4-y10 loc-x5-y10)
  S:(connected loc-x4-y10 loc-x4-y9)
  S:(connected loc-x5-y0 loc-x4-y0)
  S:(connected loc-x5-y0 loc-x6-y0)
  S:(connected loc-x5-y0 loc-x5-y1)
  S:(connected loc-x5-y1 loc-x4-y1)
  S:(connected loc-x5-y1 loc-x6-y1)
  S:(connected loc-x5-y1 loc-x5-y0)
  S:(connected loc-x5-y1 loc-x5-y2)
  S:(connected loc-x5-y2 loc-x4-y2)
  S:(connected loc-x5-y2 loc-x6-y2)
  S:(connected loc-x5-y2 loc-x5-y1)
  S:(connected loc-x5-y2 loc-x5-y3)
  S:(connected loc-x5-y3 loc-x4-y3)
  S:(connected loc-x5-y3 loc-x6-y3)
  S:(connected loc-x5-y3 loc-x5-y2)
  S:(connected loc-x5-y3 loc-x5-y4)
  S:(connected loc-x5-y4 loc-x4-y4)
  S:(connected loc-x5-y4 loc-x6-y4)
  S:(connected loc-x5-y4 loc-x5-y3)
  S:(connected loc-x5-y4 loc-x5-y5)
  S:(connected loc-x5-y5 loc-x4-y5)
  S:(connected loc-x5-y5 loc-x6-y5)
  S:(connected loc-x5-y5 loc-x5-y4)
  S:(connected loc-x5-y5 loc-x5-y6)
  S:(connected loc-x5-y6 loc-x4-y6)
  S:(connected loc-x5-y6 loc-x6-y6)
  S:(connected loc-x5-y6 loc-x5-y5)
  S:(connected loc-x5-y6 loc-x5-y7)
  S:(connected loc-x5-y7 loc-x4-y7)
  S:(connected loc-x5-y7 loc-x6-y7)
  S:(connected loc-x5-y7 loc-x5-y6)
  S:(connected loc-x5-y7 loc-x5-y8)
  S:(connected loc-x5-y8 loc-x4-y8)
  S:(connected loc-x5-y8 loc-x6-y8)
  S:(connected loc-x5-y8 loc-x5-y7)
  S:(connected loc-x5-y8 loc-x5-y9)
  S:(connected loc-x5-y9 loc-x4-y9)
  S:(connected loc-x5-y9 loc-x6-y9)
  S:(connected loc-x5-y9 loc-x5-y8)
  S:(connected loc-x5-y9 loc-x5-y10)
  S:(connected loc-x5-y10 loc-x4-y10)
  S:(connected loc-x5-y10 loc-x6-y10)
  S:(connected loc-x5-y10 loc-x5-y9)
  S:(connected loc-x6-y0 loc-x5-y0)
  S:(connected loc-x6-y0 loc-x7-y0)
  S:(connected loc-x6-y0 loc-x6-y1)
  S:(connected loc-x6-y1 loc-x5-y1)
  S:(connected loc-x6-y1 loc-x7-y1)
  S:(connected loc-x6-y1 loc-x6-y0)
  S:(connected loc-x6-y1 loc-x6-y2)
  S:(connected loc-x6-y2 loc-x5-y2)
  S:(connected loc-x6-y2 loc-x7-y2)
  S:(connected loc-x6-y2 loc-x6-y1)
  S:(connected loc-x6-y2 loc-x6-y3)
  S:(connected loc-x6-y3 loc-x5-y3)
  S:(connected loc-x6-y3 loc-x7-y3)
  S:(connected loc-x6-y3 loc-x6-y2)
  S:(connected loc-x6-y3 loc-x6-y4)
  S:(connected loc-x6-y4 loc-x5-y4)
  S:(connected loc-x6-y4 loc-x7-y4)
  S:(connected loc-x6-y4 loc-x6-y3)
  S:(connected loc-x6-y4 loc-x6-y5)
  S:(connected loc-x6-y5 loc-x5-y5)
  S:(connected loc-x6-y5 loc-x7-y5)
  S:(connected loc-x6-y5 loc-x6-y4)
  S:(connected loc-x6-y5 loc-x6-y6)
  S:(connected loc-x6-y6 loc-x5-y6)
  S:(connected loc-x6-y6 loc-x7-y6)
  S:(connected loc-x6-y6 loc-x6-y5)
  S:(connected loc-x6-y6 loc-x6-y7)
  S:(connected loc-x6-y7 loc-x5-y7)
  S:(connected loc-x6-y7 loc-x7-y7)
  S:(connected loc-x6-y7 loc-x6-y6)
  S:(connected loc-x6-y7 loc-x6-y8)
  S:(connected loc-x6-y8 loc-x5-y8)
  S:(connected loc-x6-y8 loc-x7-y8)
  S:(connected loc-x6-y8 loc-x6-y7)
  S:(connected loc-x6-y8 loc-x6-y9)
  S:(connected loc-x6-y9 loc-x5-y9)
  S:(connected loc-x6-y9 loc-x7-y9)
  S:(connected loc-x6-y9 loc-x6-y8)
  S:(connected loc-x6-y9 loc-x6-y10)
  S:(connected loc-x6-y10 loc-x5-y10)
  S:(connected loc-x6-y10 loc-x7-y10)
  S:(connected loc-x6-y10 loc-x6-y9)
  S:(connected loc-x7-y0 loc-x6-y0)
  S:(connected loc-x7-y0 loc-x8-y0)
  S:(connected loc-x7-y0 loc-x7-y1)
  S:(connected loc-x7-y1 loc-x6-y1)
  S:(connected loc-x7-y1 loc-x8-y1)
  S:(connected loc-x7-y1 loc-x7-y0)
  S:(connected loc-x7-y1 loc-x7-y2)
  S:(connected loc-x7-y2 loc-x6-y2)
  S:(connected loc-x7-y2 loc-x8-y2)
  S:(connected loc-x7-y2 loc-x7-y1)
  S:(connected loc-x7-y2 loc-x7-y3)
  S:(connected loc-x7-y3 loc-x6-y3)
  S:(connected loc-x7-y3 loc-x8-y3)
  S:(connected loc-x7-y3 loc-x7-y2)
  S:(connected loc-x7-y3 loc-x7-y4)
  S:(connected loc-x7-y4 loc-x6-y4)
  S:(connected loc-x7-y4 loc-x8-y4)
  S:(connected loc-x7-y4 loc-x7-y3)
  S:(connected loc-x7-y4 loc-x7-y5)
  S:(connected loc-x7-y5 loc-x6-y5)
  S:(connected loc-x7-y5 loc-x8-y5)
  S:(connected loc-x7-y5 loc-x7-y4)
  S:(connected loc-x7-y5 loc-x7-y6)
  S:(connected loc-x7-y6 loc-x6-y6)
  S:(connected loc-x7-y6 loc-x8-y6)
  S:(connected loc-x7-y6 loc-x7-y5)
  S:(connected loc-x7-y6 loc-x7-y7)
  S:(connected loc-x7-y7 loc-x6-y7)
  S:(connected loc-x7-y7 loc-x8-y7)
  S:(connected loc-x7-y7 loc-x7-y6)
  S:(connected loc-x7-y7 loc-x7-y8)
  S:(connected loc-x7-y8 loc-x6-y8)
  S:(connected loc-x7-y8 loc-x8-y8)
  S:(connected loc-x7-y8 loc-x7-y7)
  S:(connected loc-x7-y8 loc-x7-y9)
  S:(connected loc-x7-y9 loc-x6-y9)
  S:(connected loc-x7-y9 loc-x8-y9)
  S:(connected loc-x7-y9 loc-x7-y8)
  S:(connected loc-x7-y9 loc-x7-y10)
  S:(connected loc-x7-y10 loc-x6-y10)
  S:(connected loc-x7-y10 loc-x8-y10)
  S:(connected loc-x7-y10 loc-x7-y9)
  S:(connected loc-x8-y0 loc-x7-y0)
  S:(connected loc-x8-y0 loc-x9-y0)
  S:(connected loc-x8-y0 loc-x8-y1)
  S:(connected loc-x8-y1 loc-x7-y1)
  S:(connected loc-x8-y1 loc-x9-y1)
  S:(connected loc-x8-y1 loc-x8-y0)
  S:(connected loc-x8-y1 loc-x8-y2)
  S:(connected loc-x8-y2 loc-x7-y2)
  S:(connected loc-x8-y2 loc-x9-y2)
  S:(connected loc-x8-y2 loc-x8-y1)
  S:(connected loc-x8-y2 loc-x8-y3)
  S:(connected loc-x8-y3 loc-x7-y3)
  S:(connected loc-x8-y3 loc-x9-y3)
  S:(connected loc-x8-y3 loc-x8-y2)
  S:(connected loc-x8-y3 loc-x8-y4)
  S:(connected loc-x8-y4 loc-x7-y4)
  S:(connected loc-x8-y4 loc-x9-y4)
  S:(connected loc-x8-y4 loc-x8-y3)
  S:(connected loc-x8-y4 loc-x8-y5)
  S:(connected loc-x8-y5 loc-x7-y5)
  S:(connected loc-x8-y5 loc-x9-y5)
  S:(connected loc-x8-y5 loc-x8-y4)
  S:(connected loc-x8-y5 loc-x8-y6)
  S:(connected loc-x8-y6 loc-x7-y6)
  S:(connected loc-x8-y6 loc-x9-y6)
  S:(connected loc-x8-y6 loc-x8-y5)
  S:(connected loc-x8-y6 loc-x8-y7)
  S:(connected loc-x8-y7 loc-x7-y7)
  S:(connected loc-x8-y7 loc-x9-y7)
  S:(connected loc-x8-y7 loc-x8-y6)
  S:(connected loc-x8-y7 loc-x8-y8)
  S:(connected loc-x8-y8 loc-x7-y8)
  S:(connected loc-x8-y8 loc-x9-y8)
  S:(connected loc-x8-y8 loc-x8-y7)
  S:(connected loc-x8-y8 loc-x8-y9)
  S:(connected loc-x8-y9 loc-x7-y9)
  S:(connected loc-x8-y9 loc-x9-y9)
  S:(connected loc-x8-y9 loc-x8-y8)
  S:(connected loc-x8-y9 loc-x8-y10)
  S:(connected loc-x8-y10 loc-x7-y10)
  S:(connected loc-x8-y10 loc-x9-y10)
  S:(connected loc-x8-y10 loc-x8-y9)
  S:(connected loc-x9-y0 loc-x8-y0)
  S:(connected loc-x9-y0 loc-x10-y0)
  S:(connected loc-x9-y0 loc-x9-y1)
  S:(connected loc-x9-y1 loc-x8-y1)
  S:(connected loc-x9-y1 loc-x10-y1)
  S:(connected loc-x9-y1 loc-x9-y0)
  S:(connected loc-x9-y1 loc-x9-y2)
  S:(connected loc-x9-y2 loc-x8-y2)
  S:(connected loc-x9-y2 loc-x10-y2)
  S:(connected loc-x9-y2 loc-x9-y1)
  S:(connected loc-x9-y2 loc-x9-y3)
  S:(connected loc-x9-y3 loc-x8-y3)
  S:(connected loc-x9-y3 loc-x10-y3)
  S:(connected loc-x9-y3 loc-x9-y2)
  S:(connected loc-x9-y3 loc-x9-y4)
  S:(connected loc-x9-y4 loc-x8-y4)
  S:(connected loc-x9-y4 loc-x10-y4)
  S:(connected loc-x9-y4 loc-x9-y3)
  S:(connected loc-x9-y4 loc-x9-y5)
  S:(connected loc-x9-y5 loc-x8-y5)
  S:(connected loc-x9-y5 loc-x10-y5)
  S:(connected loc-x9-y5 loc-x9-y4)
  S:(connected loc-x9-y5 loc-x9-y6)
  S:(connected loc-x9-y6 loc-x8-y6)
  S:(connected loc-x9-y6 loc-x10-y6)
  S:(connected loc-x9-y6 loc-x9-y5)
  S:(connected loc-x9-y6 loc-x9-y7)
  S:(connected loc-x9-y7 loc-x8-y7)
  S:(connected loc-x9-y7 loc-x10-y7)
  S:(connected loc-x9-y7 loc-x9-y6)
  S:(connected loc-x9-y7 loc-x9-y8)
  S:(connected loc-x9-y8 loc-x8-y8)
  S:(connected loc-x9-y8 loc-x10-y8)
  S:(connected loc-x9-y8 loc-x9-y7)
  S:(connected loc-x9-y8 loc-x9-y9)
  S:(connected loc-x9-y9 loc-x8-y9)
  S:(connected loc-x9-y9 loc-x10-y9)
  S:(connected loc-x9-y9 loc-x9-y8)
  S:(connected loc-x9-y9 loc-x9-y10)
  S:(connected loc-x9-y10 loc-x8-y10)
  S:(connected loc-x9-y10 loc-x10-y10)
  S:(connected loc-x9-y10 loc-x9-y9)
  S:(connected loc-x10-y0 loc-x9-y0)
  S:(connected loc-x10-y0 loc-x10-y1)
  S:(connected loc-x10-y1 loc-x9-y1)
  S:(connected loc-x10-y1 loc-x10-y0)
  S:(connected loc-x10-y1 loc-x10-y2)
  S:(connected loc-x10-y2 loc-x9-y2)
  S:(connected loc-x10-y2 loc-x10-y1)
  S:(connected loc-x10-y2 loc-x10-y3)
  S:(connected loc-x10-y3 loc-x9-y3)
  S:(connected loc-x10-y3 loc-x10-y2)
  S:(connected loc-x10-y3 loc-x10-y4)
  S:(connected loc-x10-y4 loc-x9-y4)
  S:(connected loc-x10-y4 loc-x10-y3)
  S:(connected loc-x10-y4 loc-x10-y5)
  S:(connected loc-x10-y5 loc-x9-y5)
  S:(connected loc-x10-y5 loc-x10-y4)
  S:(connected loc-x10-y5 loc-x10-y6)
  S:(connected loc-x10-y6 loc-x9-y6)
  S:(connected loc-x10-y6 loc-x10-y5)
  S:(connected loc-x10-y6 loc-x10-y7)
  S:(connected loc-x10-y7 loc-x9-y7)
  S:(connected loc-x10-y7 loc-x10-y6)
  S:(connected loc-x10-y7 loc-x10-y8)
  S:(connected loc-x10-y8 loc-x9-y8)
  S:(connected loc-x10-y8 loc-x10-y7)
  S:(connected loc-x10-y8 loc-x10-y9)
  S:(connected loc-x10-y9 loc-x9-y9)
  S:(connected loc-x10-y9 loc-x10-y8)
  S:(connected loc-x10-y9 loc-x10-y10)
  S:(connected loc-x10-y10 loc-x9-y10)
  S:(connected loc-x10-y10 loc-x10-y9)
Init[0]:
Goal: (and (W:visited loc-x0-y0) (W:visited loc-x0-y1) (W:visited loc-x0-y2) (W:visited loc-x0-y3) (W:visited loc-x0-y4) (W:visited loc-x0-y5) (W:visited loc-x0-y6) (W:visited loc-x0-y7) (W:visited loc-x0-y8) (W:visited loc-x0-y9) (W:visited loc-x0-y10) (W:visited loc-x1-y0) (W:visited loc-x1-y1) (W:visited loc-x1-y2) (W:visited loc-x1-y3) (W:visited loc-x1-y4) (W:visited loc-x1-y5) (W:visited loc-x1-y6) (W:visited loc-x1-y7) (W:visited loc-x1-y8) (W:visited loc-x1-y9) (W:visited loc-x1-y10) (W:visited loc-x2-y0) (W:visited loc-x2-y1) (W:visited loc-x2-y2) (W:visited loc-x2-y3) (W:visited loc-x2-y4) (W:visited loc-x2-y5) (W:visited loc-x2-y6) (W:visited loc-x2-y7) (W:visited loc-x2-y8) (W:visited loc-x2-y9) (W:visited loc-x2-y10) (W:visited loc-x3-y0) (W:visited loc-x3-y1) (W:visited loc-x3-y2) (W:visited loc-x3-y3) (W:visited loc-x3-y4) (W:visited loc-x3-y5) (W:visited loc-x3-y6) (W:visited loc-x3-y7) (W:visited loc-x3-y8) (W:visited loc-x3-y9) (W:visited loc-x3-y10) (W:visited loc-x4-y0) (W:visited loc-x4-y1) (W:visited loc-x4-y2) (W:visited loc-x4-y3) (W:visited loc-x4-y4) (W:visited loc-x4-y5) (W:visited loc-x4-y6) (W:visited loc-x4-y7) (W:visited loc-x4-y8) (W:visited loc-x4-y9) (W:visited loc-x4-y10) (W:visited loc-x5-y0) (W:visited loc-x5-y1) (W:visited loc-x5-y2) (W:visited loc-x5-y3) (W:visited loc-x5-y4) (W:visited loc-x5-y5) (W:visited loc-x5-y6) (W:visited loc-x5-y7) (W:visited loc-x5-y8) (W:visited loc-x5-y9) (W:visited loc-x5-y10) (W:visited loc-x6-y0) (W:visited loc-x6-y1) (W:visited loc-x6-y2) (W:visited loc-x6-y3) (W:visited loc-x6-y4) (W:visited loc-x6-y5) (W:visited loc-x6-y6) (W:visited loc-x6-y7) (W:visited loc-x6-y8) (W:visited loc-x6-y9) (W:visited loc-x6-y10) (W:visited loc-x7-y0) (W:visited loc-x7-y1) (W:visited loc-x7-y2) (W:visited loc-x7-y3) (W:visited loc-x7-y4) (W:visited loc-x7-y5) (W:visited loc-x7-y6) (W:visited loc-x7-y7) (W:visited loc-x7-y8) (W:visited loc-x7-y9) (W:visited loc-x7-y10) (W:visited loc-x8-y0) (W:visited loc-x8-y1) (W:visited loc-x8-y2) (W:visited loc-x8-y3) (W:visited loc-x8-y4) (W:visited loc-x8-y5) (W:visited loc-x8-y6) (W:visited loc-x8-y7) (W:visited loc-x8-y8) (W:visited loc-x8-y9) (W:visited loc-x8-y10) (W:visited loc-x9-y0) (W:visited loc-x9-y1) (W:visited loc-x9-y2) (W:visited loc-x9-y3) (W:visited loc-x9-y4) (W:visited loc-x9-y5) (W:visited loc-x9-y6) (W:visited loc-x9-y7) (W:visited loc-x9-y8) (W:visited loc-x9-y9) (W:visited loc-x9-y10) (W:visited loc-x10-y0) (W:visited loc-x10-y1) (W:visited loc-x10-y2) (W:visited loc-x10-y3) (W:visited loc-x10-y4) (W:visited loc-x10-y5) (W:visited loc-x10-y6) (W:visited loc-x10-y7) (W:visited loc-x10-y8) (W:visited loc-x10-y9) (W:visited loc-x10-y10))
Metric: 0
