 (bond c016 o066):=1:fam:G
 (bond c032 o178):fam
 (bond cl073 s072):fam
 (bond h061 o066):fam
 (bond h180 o178):fam
 (bond o066 c016):=1:fam:G
 (bond o066 h061):fam
 (bond o178 h180):fam
 (bond c032 o066) (bond c032 o178):=1:fam:G
 (bond c032 o066) (bond h061 o066):=1:fam:G
 (bond c032 o178) (bond h061 o178):=1:fam
 (bond c032 o178) (bond o066 c032):=1:fam:G
 (bond c032 o178) (bond o178 h061):=1:fam
 (bond cl073 s072) (bond o178 s072):=1:fam
 (bond h061 o066) (bond h061 o178):=1:fam
 (bond h061 o066) (bond o066 c032):=1:fam:G
 (bond h061 o066) (bond o178 h061):=1:fam
 (bond o178 h180) (bond o178 s072):=1:fam

