 (first b0 s12) (first b0 s13) (on b0 a1) (on b0 a2) (on b0 a3):=1
 (first b0 s12) (last b0 s13) (on b0 a1) (on b0 a2) (on b0 a3):=1
 (first b0 s13) (last b0 s12) (on b0 a1) (on b0 a2) (on b0 a3):=1
 (first b1 s12) (first b1 s13) (on b1 a1) (on b1 a2) (on b1 a3):=1
 (first b1 s12) (last b1 s13) (on b1 a1) (on b1 a2) (on b1 a3):=1
 (first b1 s13) (last b1 s12) (on b1 a1) (on b1 a2) (on b1 a3):=1
 (first b2 s12) (first b2 s13) (on b2 a1) (on b2 a2) (on b2 a3):=1:G
 (first b2 s12) (last b2 s13) (on b2 a1) (on b2 a2) (on b2 a3):=1:G
 (first b2 s13) (last b2 s12) (on b2 a1) (on b2 a2) (on b2 a3):=1:G
 (first b3 s12) (first b3 s13) (on b3 a1) (on b3 a2) (on b3 a3):=1
 (first b3 s12) (last b3 s13) (on b3 a1) (on b3 a2) (on b3 a3):=1
 (first b3 s13) (last b3 s12) (on b3 a1) (on b3 a2) (on b3 a3):=1
 (first b4 s12) (first b4 s13) (on b4 a1) (on b4 a2) (on b4 a3):=1
 (first b4 s12) (last b4 s13) (on b4 a1) (on b4 a2) (on b4 a3):=1
 (first b4 s13) (last b4 s12) (on b4 a1) (on b4 a2) (on b4 a3):=1
 (first b5 s12) (first b5 s13) (on b5 a1) (on b5 a2) (on b5 a3):=1:G
 (first b5 s12) (last b5 s13) (on b5 a1) (on b5 a2) (on b5 a3):=1:G
 (first b5 s13) (last b5 s12) (on b5 a1) (on b5 a2) (on b5 a3):=1:G
 (last b0 s12) (last b0 s13) (on b0 a1) (on b0 a2) (on b0 a3):=1
 (last b1 s12) (last b1 s13) (on b1 a1) (on b1 a2) (on b1 a3):=1
 (last b2 s12) (last b2 s13) (on b2 a1) (on b2 a2) (on b2 a3):=1:G
 (last b3 s12) (last b3 s13) (on b3 a1) (on b3 a2) (on b3 a3):=1
 (last b4 s12) (last b4 s13) (on b4 a1) (on b4 a2) (on b4 a3):=1
 (last b5 s12) (last b5 s13) (on b5 a1) (on b5 a2) (on b5 a3):=1:G
 (first b0 s12) (first b1 s12) (first b2 s12) (first b3 s12) (first b4 s12) (first b5 s12):=1
 (first b0 s12) (first b1 s12) (first b2 s12) (first b3 s12) (first b4 s12) (last b5 s12):=1
 (first b0 s12) (first b1 s12) (first b2 s12) (first b3 s12) (first b5 s12) (last b4 s12):=1
 (first b0 s12) (first b1 s12) (first b2 s12) (first b3 s12) (last b4 s12) (last b5 s12):=1
 (first b0 s12) (first b1 s12) (first b2 s12) (first b4 s12) (first b5 s12) (last b3 s12):=1
 (first b0 s12) (first b1 s12) (first b2 s12) (first b4 s12) (last b3 s12) (last b5 s12):=1
 (first b0 s12) (first b1 s12) (first b2 s12) (first b5 s12) (last b3 s12) (last b4 s12):=1
 (first b0 s12) (first b1 s12) (first b2 s12) (last b3 s12) (last b4 s12) (last b5 s12):=1
 (first b0 s12) (first b1 s12) (first b3 s12) (first b4 s12) (first b5 s12) (last b2 s12):=1
 (first b0 s12) (first b1 s12) (first b3 s12) (first b4 s12) (last b2 s12) (last b5 s12):=1
 (first b0 s12) (first b1 s12) (first b3 s12) (first b5 s12) (last b2 s12) (last b4 s12):=1
 (first b0 s12) (first b1 s12) (first b3 s12) (last b2 s12) (last b4 s12) (last b5 s12):=1
 (first b0 s12) (first b1 s12) (first b4 s12) (first b5 s12) (last b2 s12) (last b3 s12):=1
 (first b0 s12) (first b1 s12) (first b4 s12) (last b2 s12) (last b3 s12) (last b5 s12):=1
 (first b0 s12) (first b1 s12) (first b5 s12) (last b2 s12) (last b3 s12) (last b4 s12):=1
 (first b0 s12) (first b1 s12) (last b2 s12) (last b3 s12) (last b4 s12) (last b5 s12):=1
 (first b0 s12) (first b2 s12) (first b3 s12) (first b4 s12) (first b5 s12) (last b1 s12):=1
 (first b0 s12) (first b2 s12) (first b3 s12) (first b4 s12) (last b1 s12) (last b5 s12):=1
 (first b0 s12) (first b2 s12) (first b3 s12) (first b5 s12) (last b1 s12) (last b4 s12):=1
 (first b0 s12) (first b2 s12) (first b3 s12) (last b1 s12) (last b4 s12) (last b5 s12):=1
 (first b0 s12) (first b2 s12) (first b4 s12) (first b5 s12) (last b1 s12) (last b3 s12):=1
 (first b0 s12) (first b2 s12) (first b4 s12) (last b1 s12) (last b3 s12) (last b5 s12):=1
 (first b0 s12) (first b2 s12) (first b5 s12) (last b1 s12) (last b3 s12) (last b4 s12):=1
 (first b0 s12) (first b2 s12) (last b1 s12) (last b3 s12) (last b4 s12) (last b5 s12):=1
 (first b0 s12) (first b3 s12) (first b4 s12) (first b5 s12) (last b1 s12) (last b2 s12):=1
 (first b0 s12) (first b3 s12) (first b4 s12) (last b1 s12) (last b2 s12) (last b5 s12):=1
 (first b0 s12) (first b3 s12) (first b5 s12) (last b1 s12) (last b2 s12) (last b4 s12):=1
 (first b0 s12) (first b3 s12) (last b1 s12) (last b2 s12) (last b4 s12) (last b5 s12):=1
 (first b0 s12) (first b4 s12) (first b5 s12) (last b1 s12) (last b2 s12) (last b3 s12):=1
 (first b0 s12) (first b4 s12) (last b1 s12) (last b2 s12) (last b3 s12) (last b5 s12):=1
 (first b0 s12) (first b5 s12) (last b1 s12) (last b2 s12) (last b3 s12) (last b4 s12):=1
 (first b0 s12) (last b1 s12) (last b2 s12) (last b3 s12) (last b4 s12) (last b5 s12):=1
 (first b0 s13) (first b1 s13) (first b2 s13) (first b3 s13) (first b4 s13) (first b5 s13):=1
 (first b0 s13) (first b1 s13) (first b2 s13) (first b3 s13) (first b4 s13) (last b5 s13):=1
 (first b0 s13) (first b1 s13) (first b2 s13) (first b3 s13) (first b5 s13) (last b4 s13):=1
 (first b0 s13) (first b1 s13) (first b2 s13) (first b3 s13) (last b4 s13) (last b5 s13):=1
 (first b0 s13) (first b1 s13) (first b2 s13) (first b4 s13) (first b5 s13) (last b3 s13):=1
 (first b0 s13) (first b1 s13) (first b2 s13) (first b4 s13) (last b3 s13) (last b5 s13):=1
 (first b0 s13) (first b1 s13) (first b2 s13) (first b5 s13) (last b3 s13) (last b4 s13):=1
 (first b0 s13) (first b1 s13) (first b2 s13) (last b3 s13) (last b4 s13) (last b5 s13):=1
 (first b0 s13) (first b1 s13) (first b3 s13) (first b4 s13) (first b5 s13) (last b2 s13):=1
 (first b0 s13) (first b1 s13) (first b3 s13) (first b4 s13) (last b2 s13) (last b5 s13):=1
 (first b0 s13) (first b1 s13) (first b3 s13) (first b5 s13) (last b2 s13) (last b4 s13):=1
 (first b0 s13) (first b1 s13) (first b3 s13) (last b2 s13) (last b4 s13) (last b5 s13):=1
 (first b0 s13) (first b1 s13) (first b4 s13) (first b5 s13) (last b2 s13) (last b3 s13):=1
 (first b0 s13) (first b1 s13) (first b4 s13) (last b2 s13) (last b3 s13) (last b5 s13):=1
 (first b0 s13) (first b1 s13) (first b5 s13) (last b2 s13) (last b3 s13) (last b4 s13):=1
 (first b0 s13) (first b1 s13) (last b2 s13) (last b3 s13) (last b4 s13) (last b5 s13):=1
 (first b0 s13) (first b2 s13) (first b3 s13) (first b4 s13) (first b5 s13) (last b1 s13):=1
 (first b0 s13) (first b2 s13) (first b3 s13) (first b4 s13) (last b1 s13) (last b5 s13):=1
 (first b0 s13) (first b2 s13) (first b3 s13) (first b5 s13) (last b1 s13) (last b4 s13):=1
 (first b0 s13) (first b2 s13) (first b3 s13) (last b1 s13) (last b4 s13) (last b5 s13):=1
 (first b0 s13) (first b2 s13) (first b4 s13) (first b5 s13) (last b1 s13) (last b3 s13):=1
 (first b0 s13) (first b2 s13) (first b4 s13) (last b1 s13) (last b3 s13) (last b5 s13):=1
 (first b0 s13) (first b2 s13) (first b5 s13) (last b1 s13) (last b3 s13) (last b4 s13):=1
 (first b0 s13) (first b2 s13) (last b1 s13) (last b3 s13) (last b4 s13) (last b5 s13):=1
 (first b0 s13) (first b3 s13) (first b4 s13) (first b5 s13) (last b1 s13) (last b2 s13):=1
 (first b0 s13) (first b3 s13) (first b4 s13) (last b1 s13) (last b2 s13) (last b5 s13):=1
 (first b0 s13) (first b3 s13) (first b5 s13) (last b1 s13) (last b2 s13) (last b4 s13):=1
 (first b0 s13) (first b3 s13) (last b1 s13) (last b2 s13) (last b4 s13) (last b5 s13):=1
 (first b0 s13) (first b4 s13) (first b5 s13) (last b1 s13) (last b2 s13) (last b3 s13):=1
 (first b0 s13) (first b4 s13) (last b1 s13) (last b2 s13) (last b3 s13) (last b5 s13):=1
 (first b0 s13) (first b5 s13) (last b1 s13) (last b2 s13) (last b3 s13) (last b4 s13):=1
 (first b0 s13) (last b1 s13) (last b2 s13) (last b3 s13) (last b4 s13) (last b5 s13):=1
 (first b1 s12) (first b2 s12) (first b3 s12) (first b4 s12) (first b5 s12) (last b0 s12):=1
 (first b1 s12) (first b2 s12) (first b3 s12) (first b4 s12) (last b0 s12) (last b5 s12):=1
 (first b1 s12) (first b2 s12) (first b3 s12) (first b5 s12) (last b0 s12) (last b4 s12):=1
 (first b1 s12) (first b2 s12) (first b3 s12) (last b0 s12) (last b4 s12) (last b5 s12):=1
 (first b1 s12) (first b2 s12) (first b4 s12) (first b5 s12) (last b0 s12) (last b3 s12):=1
 (first b1 s12) (first b2 s12) (first b4 s12) (last b0 s12) (last b3 s12) (last b5 s12):=1
 (first b1 s12) (first b2 s12) (first b5 s12) (last b0 s12) (last b3 s12) (last b4 s12):=1
 (first b1 s12) (first b2 s12) (last b0 s12) (last b3 s12) (last b4 s12) (last b5 s12):=1
 (first b1 s12) (first b3 s12) (first b4 s12) (first b5 s12) (last b0 s12) (last b2 s12):=1
 (first b1 s12) (first b3 s12) (first b4 s12) (last b0 s12) (last b2 s12) (last b5 s12):=1
 (first b1 s12) (first b3 s12) (first b5 s12) (last b0 s12) (last b2 s12) (last b4 s12):=1
 (first b1 s12) (first b3 s12) (last b0 s12) (last b2 s12) (last b4 s12) (last b5 s12):=1
 (first b1 s12) (first b4 s12) (first b5 s12) (last b0 s12) (last b2 s12) (last b3 s12):=1
 (first b1 s12) (first b4 s12) (last b0 s12) (last b2 s12) (last b3 s12) (last b5 s12):=1
 (first b1 s12) (first b5 s12) (last b0 s12) (last b2 s12) (last b3 s12) (last b4 s12):=1
 (first b1 s12) (last b0 s12) (last b2 s12) (last b3 s12) (last b4 s12) (last b5 s12):=1
 (first b1 s13) (first b2 s13) (first b3 s13) (first b4 s13) (first b5 s13) (last b0 s13):=1
 (first b1 s13) (first b2 s13) (first b3 s13) (first b4 s13) (last b0 s13) (last b5 s13):=1
 (first b1 s13) (first b2 s13) (first b3 s13) (first b5 s13) (last b0 s13) (last b4 s13):=1
 (first b1 s13) (first b2 s13) (first b3 s13) (last b0 s13) (last b4 s13) (last b5 s13):=1
 (first b1 s13) (first b2 s13) (first b4 s13) (first b5 s13) (last b0 s13) (last b3 s13):=1
 (first b1 s13) (first b2 s13) (first b4 s13) (last b0 s13) (last b3 s13) (last b5 s13):=1
 (first b1 s13) (first b2 s13) (first b5 s13) (last b0 s13) (last b3 s13) (last b4 s13):=1
 (first b1 s13) (first b2 s13) (last b0 s13) (last b3 s13) (last b4 s13) (last b5 s13):=1
 (first b1 s13) (first b3 s13) (first b4 s13) (first b5 s13) (last b0 s13) (last b2 s13):=1
 (first b1 s13) (first b3 s13) (first b4 s13) (last b0 s13) (last b2 s13) (last b5 s13):=1
 (first b1 s13) (first b3 s13) (first b5 s13) (last b0 s13) (last b2 s13) (last b4 s13):=1
 (first b1 s13) (first b3 s13) (last b0 s13) (last b2 s13) (last b4 s13) (last b5 s13):=1
 (first b1 s13) (first b4 s13) (first b5 s13) (last b0 s13) (last b2 s13) (last b3 s13):=1
 (first b1 s13) (first b4 s13) (last b0 s13) (last b2 s13) (last b3 s13) (last b5 s13):=1
 (first b1 s13) (first b5 s13) (last b0 s13) (last b2 s13) (last b3 s13) (last b4 s13):=1
 (first b1 s13) (last b0 s13) (last b2 s13) (last b3 s13) (last b4 s13) (last b5 s13):=1
 (first b2 s12) (first b3 s12) (first b4 s12) (first b5 s12) (last b0 s12) (last b1 s12):=1
 (first b2 s12) (first b3 s12) (first b4 s12) (last b0 s12) (last b1 s12) (last b5 s12):=1
 (first b2 s12) (first b3 s12) (first b5 s12) (last b0 s12) (last b1 s12) (last b4 s12):=1
 (first b2 s12) (first b3 s12) (last b0 s12) (last b1 s12) (last b4 s12) (last b5 s12):=1
 (first b2 s12) (first b4 s12) (first b5 s12) (last b0 s12) (last b1 s12) (last b3 s12):=1
 (first b2 s12) (first b4 s12) (last b0 s12) (last b1 s12) (last b3 s12) (last b5 s12):=1
 (first b2 s12) (first b5 s12) (last b0 s12) (last b1 s12) (last b3 s12) (last b4 s12):=1
 (first b2 s12) (last b0 s12) (last b1 s12) (last b3 s12) (last b4 s12) (last b5 s12):=1
 (first b2 s13) (first b3 s13) (first b4 s13) (first b5 s13) (last b0 s13) (last b1 s13):=1
 (first b2 s13) (first b3 s13) (first b4 s13) (last b0 s13) (last b1 s13) (last b5 s13):=1
 (first b2 s13) (first b3 s13) (first b5 s13) (last b0 s13) (last b1 s13) (last b4 s13):=1
 (first b2 s13) (first b3 s13) (last b0 s13) (last b1 s13) (last b4 s13) (last b5 s13):=1
 (first b2 s13) (first b4 s13) (first b5 s13) (last b0 s13) (last b1 s13) (last b3 s13):=1
 (first b2 s13) (first b4 s13) (last b0 s13) (last b1 s13) (last b3 s13) (last b5 s13):=1
 (first b2 s13) (first b5 s13) (last b0 s13) (last b1 s13) (last b3 s13) (last b4 s13):=1
 (first b2 s13) (last b0 s13) (last b1 s13) (last b3 s13) (last b4 s13) (last b5 s13):=1
 (first b3 s12) (first b4 s12) (first b5 s12) (last b0 s12) (last b1 s12) (last b2 s12):=1
 (first b3 s12) (first b4 s12) (last b0 s12) (last b1 s12) (last b2 s12) (last b5 s12):=1
 (first b3 s12) (first b5 s12) (last b0 s12) (last b1 s12) (last b2 s12) (last b4 s12):=1
 (first b3 s12) (last b0 s12) (last b1 s12) (last b2 s12) (last b4 s12) (last b5 s12):=1
 (first b3 s13) (first b4 s13) (first b5 s13) (last b0 s13) (last b1 s13) (last b2 s13):=1
 (first b3 s13) (first b4 s13) (last b0 s13) (last b1 s13) (last b2 s13) (last b5 s13):=1
 (first b3 s13) (first b5 s13) (last b0 s13) (last b1 s13) (last b2 s13) (last b4 s13):=1
 (first b3 s13) (last b0 s13) (last b1 s13) (last b2 s13) (last b4 s13) (last b5 s13):=1
 (first b4 s12) (first b5 s12) (last b0 s12) (last b1 s12) (last b2 s12) (last b3 s12):=1
 (first b4 s12) (last b0 s12) (last b1 s12) (last b2 s12) (last b3 s12) (last b5 s12):=1
 (first b4 s13) (first b5 s13) (last b0 s13) (last b1 s13) (last b2 s13) (last b3 s13):=1
 (first b4 s13) (last b0 s13) (last b1 s13) (last b2 s13) (last b3 s13) (last b5 s13):=1
 (first b5 s12) (last b0 s12) (last b1 s12) (last b2 s12) (last b3 s12) (last b4 s12):=1
 (first b5 s13) (last b0 s13) (last b1 s13) (last b2 s13) (last b3 s13) (last b4 s13):=1
 (last b0 s12) (last b1 s12) (last b2 s12) (last b3 s12) (last b4 s12) (last b5 s12):=1
 (last b0 s13) (last b1 s13) (last b2 s13) (last b3 s13) (last b4 s13) (last b5 s13):=1

