begin_version
3
end_version
begin_metric
1
end_metric
36
begin_variable
var0
-1
5
treatment p0 colourfragments
treatment p0 glazed
treatment p0 untreated
treatment p0 varnished
unused p0
end_variable
begin_variable
var1
-1
5
treatment p1 colourfragments
treatment p1 glazed
treatment p1 untreated
treatment p1 varnished
unused p1
end_variable
begin_variable
var2
-1
5
treatment p3 colourfragments
treatment p3 glazed
treatment p3 untreated
treatment p3 varnished
unused p3
end_variable
begin_variable
var3
-1
5
treatment p4 colourfragments
treatment p4 glazed
treatment p4 untreated
treatment p4 varnished
unused p4
end_variable
begin_variable
var4
-1
4
treatment p2 colourfragments
treatment p2 glazed
treatment p2 untreated
treatment p2 varnished
end_variable
begin_variable
var5
-1
3
empty highspeed-saw0
in-highspeed-saw b0 highspeed-saw0
in-highspeed-saw b1 highspeed-saw0
end_variable
begin_variable
var6
-1
4
surface-condition p0 rough
surface-condition p0 smooth
surface-condition p0 verysmooth
none-of-those
end_variable
begin_variable
var7
-1
4
surface-condition p1 rough
surface-condition p1 smooth
surface-condition p1 verysmooth
none-of-those
end_variable
begin_variable
var8
-1
3
surface-condition p2 rough
surface-condition p2 smooth
surface-condition p2 verysmooth
end_variable
begin_variable
var9
-1
4
surface-condition p3 rough
surface-condition p3 smooth
surface-condition p3 verysmooth
none-of-those
end_variable
begin_variable
var10
-1
4
surface-condition p4 rough
surface-condition p4 smooth
surface-condition p4 verysmooth
none-of-those
end_variable
begin_variable
var11
-1
2
available b0
none-of-those
end_variable
begin_variable
var12
-1
2
available b1
none-of-those
end_variable
begin_variable
var13
-1
2
available p0
none-of-those
end_variable
begin_variable
var14
-1
2
available p1
none-of-those
end_variable
begin_variable
var15
-1
2
available p3
none-of-those
end_variable
begin_variable
var16
-1
2
available p4
none-of-those
end_variable
begin_variable
var17
-1
2
wood p1 teak
none-of-those
end_variable
begin_variable
var18
-1
2
wood p3 mahogany
none-of-those
end_variable
begin_variable
var19
-1
2
wood p4 teak
none-of-those
end_variable
begin_variable
var20
-1
2
boardsize b0 s1
none-of-those
end_variable
begin_variable
var21
-1
2
boardsize b0 s2
none-of-those
end_variable
begin_variable
var22
-1
2
boardsize b1 s1
none-of-those
end_variable
begin_variable
var23
-1
2
boardsize b1 s2
none-of-those
end_variable
begin_variable
var24
-1
2
boardsize b1 s3
none-of-those
end_variable
begin_variable
var25
-1
2
colour p0 green
none-of-those
end_variable
begin_variable
var26
-1
2
colour p0 natural
none-of-those
end_variable
begin_variable
var27
-1
2
colour p1 green
none-of-those
end_variable
begin_variable
var28
-1
2
colour p1 natural
none-of-those
end_variable
begin_variable
var29
-1
2
colour p2 black
none-of-those
end_variable
begin_variable
var30
-1
2
colour p2 green
none-of-those
end_variable
begin_variable
var31
-1
2
colour p2 natural
none-of-those
end_variable
begin_variable
var32
-1
2
colour p3 green
none-of-those
end_variable
begin_variable
var33
-1
2
colour p3 natural
none-of-those
end_variable
begin_variable
var34
-1
2
colour p4 green
none-of-those
end_variable
begin_variable
var35
-1
2
colour p4 natural
none-of-those
end_variable
24
begin_mutex_group
1
0 4
end_mutex_group
begin_mutex_group
1
1 4
end_mutex_group
begin_mutex_group
1
2 4
end_mutex_group
begin_mutex_group
1
3 4
end_mutex_group
begin_mutex_group
2
11 0
5 1
end_mutex_group
begin_mutex_group
2
12 0
5 2
end_mutex_group
begin_mutex_group
2
13 0
0 4
end_mutex_group
begin_mutex_group
2
14 0
1 4
end_mutex_group
begin_mutex_group
2
15 0
2 4
end_mutex_group
begin_mutex_group
2
16 0
3 4
end_mutex_group
begin_mutex_group
2
1 4
17 0
end_mutex_group
begin_mutex_group
2
2 4
18 0
end_mutex_group
begin_mutex_group
2
3 4
19 0
end_mutex_group
begin_mutex_group
3
5 0
5 1
5 2
end_mutex_group
begin_mutex_group
3
8 0
8 1
8 2
end_mutex_group
begin_mutex_group
4
6 0
6 1
6 2
0 4
end_mutex_group
begin_mutex_group
4
7 0
7 1
7 2
1 4
end_mutex_group
begin_mutex_group
4
9 0
9 1
9 2
2 4
end_mutex_group
begin_mutex_group
4
10 0
10 1
10 2
3 4
end_mutex_group
begin_mutex_group
4
4 0
4 1
4 2
4 3
end_mutex_group
begin_mutex_group
5
0 0
0 1
0 2
0 3
0 4
end_mutex_group
begin_mutex_group
5
1 0
1 1
1 2
1 3
1 4
end_mutex_group
begin_mutex_group
5
2 0
2 1
2 2
2 3
2 4
end_mutex_group
begin_mutex_group
5
3 0
3 1
3 2
3 3
3 4
end_mutex_group
begin_state
4
4
4
4
0
0
3
3
0
3
3
0
0
1
1
1
1
1
1
1
1
1
1
1
1
1
1
1
1
0
1
1
1
1
1
1
end_state
begin_goal
15
0 3
1 3
3 1
6 1
7 1
8 1
9 1
13 0
14 0
15 0
16 0
17 0
18 0
19 0
30 0
end_goal
124
begin_operator
cut-board-large b0 p3 highspeed-saw0 teak rough s3 s1 s2 s0
1
5 1
4
0 2 4 2
0 9 -1 0
0 15 -1 0
0 33 -1 0
10
end_operator
begin_operator
cut-board-large b1 p3 highspeed-saw0 mahogany rough s3 s1 s2 s0
2
5 2
24 0
5
0 2 4 2
0 9 -1 0
0 15 -1 0
0 18 -1 0
0 33 -1 0
10
end_operator
begin_operator
cut-board-large b1 p3 highspeed-saw0 mahogany rough s5 s3 s4 s2
1
5 2
6
0 2 4 2
0 9 -1 0
0 15 -1 0
0 18 -1 0
0 23 -1 0
0 33 -1 0
10
end_operator
begin_operator
cut-board-medium b0 p0 highspeed-saw0 teak rough s2 s1 s0
2
5 1
21 0
4
0 0 4 2
0 6 -1 0
0 13 -1 0
0 26 -1 0
10
end_operator
begin_operator
cut-board-medium b0 p0 highspeed-saw0 teak rough s3 s2 s1
1
5 1
5
0 0 4 2
0 6 -1 0
0 13 -1 0
0 20 -1 0
0 26 -1 0
10
end_operator
begin_operator
cut-board-medium b0 p4 highspeed-saw0 teak rough s2 s1 s0
2
5 1
21 0
5
0 3 4 2
0 10 -1 0
0 16 -1 0
0 19 -1 0
0 35 -1 0
10
end_operator
begin_operator
cut-board-medium b0 p4 highspeed-saw0 teak rough s3 s2 s1
1
5 1
6
0 3 4 2
0 10 -1 0
0 16 -1 0
0 19 -1 0
0 20 -1 0
0 35 -1 0
10
end_operator
begin_operator
cut-board-medium b1 p0 highspeed-saw0 mahogany rough s2 s1 s0
2
5 2
23 0
4
0 0 4 2
0 6 -1 0
0 13 -1 0
0 26 -1 0
10
end_operator
begin_operator
cut-board-medium b1 p0 highspeed-saw0 mahogany rough s3 s2 s1
2
5 2
24 0
5
0 0 4 2
0 6 -1 0
0 13 -1 0
0 22 -1 0
0 26 -1 0
10
end_operator
begin_operator
cut-board-medium b1 p0 highspeed-saw0 mahogany rough s5 s4 s3
1
5 2
5
0 0 4 2
0 6 -1 0
0 13 -1 0
0 24 -1 0
0 26 -1 0
10
end_operator
begin_operator
cut-board-medium b1 p4 highspeed-saw0 mahogany rough s2 s1 s0
2
5 2
23 0
4
0 3 4 2
0 10 -1 0
0 16 -1 0
0 35 -1 0
10
end_operator
begin_operator
cut-board-medium b1 p4 highspeed-saw0 mahogany rough s3 s2 s1
2
5 2
24 0
5
0 3 4 2
0 10 -1 0
0 16 -1 0
0 22 -1 0
0 35 -1 0
10
end_operator
begin_operator
cut-board-medium b1 p4 highspeed-saw0 mahogany rough s5 s4 s3
1
5 2
5
0 3 4 2
0 10 -1 0
0 16 -1 0
0 24 -1 0
0 35 -1 0
10
end_operator
begin_operator
cut-board-small b0 p1 highspeed-saw0 teak rough s1 s0
2
5 1
20 0
5
0 1 4 2
0 7 -1 0
0 14 -1 0
0 17 -1 0
0 28 -1 0
10
end_operator
begin_operator
cut-board-small b0 p1 highspeed-saw0 teak rough s3 s2
1
5 1
6
0 1 4 2
0 7 -1 0
0 14 -1 0
0 17 -1 0
0 21 -1 0
0 28 -1 0
10
end_operator
begin_operator
cut-board-small b1 p1 highspeed-saw0 mahogany rough s1 s0
2
5 2
22 0
4
0 1 4 2
0 7 -1 0
0 14 -1 0
0 28 -1 0
10
end_operator
begin_operator
cut-board-small b1 p1 highspeed-saw0 mahogany rough s2 s1
2
5 2
23 0
5
0 1 4 2
0 7 -1 0
0 14 -1 0
0 22 -1 0
0 28 -1 0
10
end_operator
begin_operator
cut-board-small b1 p1 highspeed-saw0 mahogany rough s3 s2
2
5 2
24 0
5
0 1 4 2
0 7 -1 0
0 14 -1 0
0 23 -1 0
0 28 -1 0
10
end_operator
begin_operator
do-glaze p0 glazer0 green
1
13 0
3
0 0 2 1
0 25 -1 0
0 26 -1 1
15
end_operator
begin_operator
do-glaze p1 glazer0 green
1
14 0
3
0 1 2 1
0 27 -1 0
0 28 -1 1
10
end_operator
begin_operator
do-glaze p2 glazer0 green
0
3
0 4 2 1
0 30 -1 0
0 31 -1 1
10
end_operator
begin_operator
do-glaze p3 glazer0 green
1
15 0
3
0 2 2 1
0 32 -1 0
0 33 -1 1
20
end_operator
begin_operator
do-glaze p4 glazer0 green
1
16 0
3
0 3 2 1
0 34 -1 0
0 35 -1 1
15
end_operator
begin_operator
do-grind p0 grinder0 smooth green glazed untreated
1
13 0
4
0 0 1 2
0 6 1 2
0 25 0 1
0 26 -1 0
30
end_operator
begin_operator
do-grind p0 grinder0 smooth green varnished colourfragments
1
13 0
4
0 0 3 0
0 6 1 2
0 25 0 1
0 26 -1 0
30
end_operator
begin_operator
do-grind p0 grinder0 smooth natural untreated untreated
3
0 2
13 0
26 0
1
0 6 1 2
30
end_operator
begin_operator
do-grind p0 grinder0 verysmooth green glazed untreated
2
6 2
13 0
3
0 0 1 2
0 25 0 1
0 26 -1 0
30
end_operator
begin_operator
do-grind p0 grinder0 verysmooth green varnished colourfragments
2
6 2
13 0
3
0 0 3 0
0 25 0 1
0 26 -1 0
30
end_operator
begin_operator
do-grind p0 grinder0 verysmooth natural colourfragments untreated
3
6 2
13 0
26 0
1
0 0 0 2
30
end_operator
begin_operator
do-grind p1 grinder0 smooth green glazed untreated
1
14 0
4
0 1 1 2
0 7 1 2
0 27 0 1
0 28 -1 0
15
end_operator
begin_operator
do-grind p1 grinder0 smooth green varnished colourfragments
1
14 0
4
0 1 3 0
0 7 1 2
0 27 0 1
0 28 -1 0
15
end_operator
begin_operator
do-grind p1 grinder0 smooth natural untreated untreated
3
1 2
14 0
28 0
1
0 7 1 2
15
end_operator
begin_operator
do-grind p1 grinder0 verysmooth green glazed untreated
2
7 2
14 0
3
0 1 1 2
0 27 0 1
0 28 -1 0
15
end_operator
begin_operator
do-grind p1 grinder0 verysmooth green varnished colourfragments
2
7 2
14 0
3
0 1 3 0
0 27 0 1
0 28 -1 0
15
end_operator
begin_operator
do-grind p1 grinder0 verysmooth natural colourfragments untreated
3
7 2
14 0
28 0
1
0 1 0 2
15
end_operator
begin_operator
do-grind p2 grinder0 smooth green glazed untreated
0
4
0 4 1 2
0 8 1 2
0 30 0 1
0 31 -1 0
15
end_operator
begin_operator
do-grind p2 grinder0 smooth green varnished colourfragments
0
4
0 4 3 0
0 8 1 2
0 30 0 1
0 31 -1 0
15
end_operator
begin_operator
do-grind p2 grinder0 smooth natural untreated untreated
2
4 2
31 0
1
0 8 1 2
15
end_operator
begin_operator
do-grind p2 grinder0 verysmooth green glazed untreated
1
8 2
3
0 4 1 2
0 30 0 1
0 31 -1 0
15
end_operator
begin_operator
do-grind p2 grinder0 verysmooth green varnished colourfragments
1
8 2
3
0 4 3 0
0 30 0 1
0 31 -1 0
15
end_operator
begin_operator
do-grind p2 grinder0 verysmooth natural colourfragments untreated
2
8 2
31 0
1
0 4 0 2
15
end_operator
begin_operator
do-grind p3 grinder0 smooth green glazed untreated
1
15 0
4
0 2 1 2
0 9 1 2
0 32 0 1
0 33 -1 0
45
end_operator
begin_operator
do-grind p3 grinder0 smooth green varnished colourfragments
1
15 0
4
0 2 3 0
0 9 1 2
0 32 0 1
0 33 -1 0
45
end_operator
begin_operator
do-grind p3 grinder0 smooth natural untreated untreated
3
2 2
15 0
33 0
1
0 9 1 2
45
end_operator
begin_operator
do-grind p3 grinder0 verysmooth green glazed untreated
2
9 2
15 0
3
0 2 1 2
0 32 0 1
0 33 -1 0
45
end_operator
begin_operator
do-grind p3 grinder0 verysmooth green varnished colourfragments
2
9 2
15 0
3
0 2 3 0
0 32 0 1
0 33 -1 0
45
end_operator
begin_operator
do-grind p3 grinder0 verysmooth natural colourfragments untreated
3
9 2
15 0
33 0
1
0 2 0 2
45
end_operator
begin_operator
do-grind p4 grinder0 smooth green glazed untreated
1
16 0
4
0 3 1 2
0 10 1 2
0 34 0 1
0 35 -1 0
30
end_operator
begin_operator
do-grind p4 grinder0 smooth green varnished colourfragments
1
16 0
4
0 3 3 0
0 10 1 2
0 34 0 1
0 35 -1 0
30
end_operator
begin_operator
do-grind p4 grinder0 smooth natural untreated untreated
3
3 2
16 0
35 0
1
0 10 1 2
30
end_operator
begin_operator
do-grind p4 grinder0 verysmooth green glazed untreated
2
10 2
16 0
3
0 3 1 2
0 34 0 1
0 35 -1 0
30
end_operator
begin_operator
do-grind p4 grinder0 verysmooth green varnished colourfragments
2
10 2
16 0
3
0 3 3 0
0 34 0 1
0 35 -1 0
30
end_operator
begin_operator
do-grind p4 grinder0 verysmooth natural colourfragments untreated
3
10 2
16 0
35 0
1
0 3 0 2
30
end_operator
begin_operator
do-immersion-varnish p0 immersion-varnisher0 green smooth
2
6 1
13 0
3
0 0 2 3
0 25 -1 0
0 26 -1 1
10
end_operator
begin_operator
do-immersion-varnish p0 immersion-varnisher0 green verysmooth
2
6 2
13 0
3
0 0 2 3
0 25 -1 0
0 26 -1 1
10
end_operator
begin_operator
do-immersion-varnish p3 immersion-varnisher0 green smooth
2
9 1
15 0
3
0 2 2 3
0 32 -1 0
0 33 -1 1
10
end_operator
begin_operator
do-immersion-varnish p3 immersion-varnisher0 green verysmooth
2
9 2
15 0
3
0 2 2 3
0 32 -1 0
0 33 -1 1
10
end_operator
begin_operator
do-immersion-varnish p4 immersion-varnisher0 green smooth
2
10 1
16 0
3
0 3 2 3
0 34 -1 0
0 35 -1 1
10
end_operator
begin_operator
do-immersion-varnish p4 immersion-varnisher0 green verysmooth
2
10 2
16 0
3
0 3 2 3
0 34 -1 0
0 35 -1 1
10
end_operator
begin_operator
do-plane p0 planer0 rough green glazed
1
13 0
4
0 0 1 2
0 6 0 1
0 25 0 1
0 26 -1 0
20
end_operator
begin_operator
do-plane p0 planer0 rough natural untreated
3
0 2
13 0
26 0
1
0 6 0 1
20
end_operator
begin_operator
do-plane p0 planer0 smooth green glazed
2
6 1
13 0
3
0 0 1 2
0 25 0 1
0 26 -1 0
20
end_operator
begin_operator
do-plane p0 planer0 smooth green varnished
2
6 1
13 0
3
0 0 3 2
0 25 0 1
0 26 -1 0
20
end_operator
begin_operator
do-plane p0 planer0 verysmooth green glazed
1
13 0
4
0 0 1 2
0 6 2 1
0 25 0 1
0 26 -1 0
20
end_operator
begin_operator
do-plane p0 planer0 verysmooth green varnished
1
13 0
4
0 0 3 2
0 6 2 1
0 25 0 1
0 26 -1 0
20
end_operator
begin_operator
do-plane p0 planer0 verysmooth natural colourfragments
2
13 0
26 0
2
0 0 0 2
0 6 2 1
20
end_operator
begin_operator
do-plane p0 planer0 verysmooth natural untreated
3
0 2
13 0
26 0
1
0 6 2 1
20
end_operator
begin_operator
do-plane p1 planer0 rough green glazed
1
14 0
4
0 1 1 2
0 7 0 1
0 27 0 1
0 28 -1 0
10
end_operator
begin_operator
do-plane p1 planer0 rough natural untreated
3
1 2
14 0
28 0
1
0 7 0 1
10
end_operator
begin_operator
do-plane p1 planer0 smooth green glazed
2
7 1
14 0
3
0 1 1 2
0 27 0 1
0 28 -1 0
10
end_operator
begin_operator
do-plane p1 planer0 smooth green varnished
2
7 1
14 0
3
0 1 3 2
0 27 0 1
0 28 -1 0
10
end_operator
begin_operator
do-plane p1 planer0 verysmooth green glazed
1
14 0
4
0 1 1 2
0 7 2 1
0 27 0 1
0 28 -1 0
10
end_operator
begin_operator
do-plane p1 planer0 verysmooth green varnished
1
14 0
4
0 1 3 2
0 7 2 1
0 27 0 1
0 28 -1 0
10
end_operator
begin_operator
do-plane p1 planer0 verysmooth natural colourfragments
2
14 0
28 0
2
0 1 0 2
0 7 2 1
10
end_operator
begin_operator
do-plane p1 planer0 verysmooth natural untreated
3
1 2
14 0
28 0
1
0 7 2 1
10
end_operator
begin_operator
do-plane p2 planer0 rough black colourfragments
0
4
0 4 0 2
0 8 0 1
0 29 0 1
0 31 -1 0
10
end_operator
begin_operator
do-plane p2 planer0 smooth green glazed
1
8 1
3
0 4 1 2
0 30 0 1
0 31 -1 0
10
end_operator
begin_operator
do-plane p2 planer0 smooth green varnished
1
8 1
3
0 4 3 2
0 30 0 1
0 31 -1 0
10
end_operator
begin_operator
do-plane p2 planer0 verysmooth green glazed
0
4
0 4 1 2
0 8 2 1
0 30 0 1
0 31 -1 0
10
end_operator
begin_operator
do-plane p2 planer0 verysmooth green varnished
0
4
0 4 3 2
0 8 2 1
0 30 0 1
0 31 -1 0
10
end_operator
begin_operator
do-plane p2 planer0 verysmooth natural colourfragments
1
31 0
2
0 4 0 2
0 8 2 1
10
end_operator
begin_operator
do-plane p2 planer0 verysmooth natural untreated
2
4 2
31 0
1
0 8 2 1
10
end_operator
begin_operator
do-plane p3 planer0 rough green glazed
1
15 0
4
0 2 1 2
0 9 0 1
0 32 0 1
0 33 -1 0
30
end_operator
begin_operator
do-plane p3 planer0 rough natural untreated
3
2 2
15 0
33 0
1
0 9 0 1
30
end_operator
begin_operator
do-plane p3 planer0 smooth green glazed
2
9 1
15 0
3
0 2 1 2
0 32 0 1
0 33 -1 0
30
end_operator
begin_operator
do-plane p3 planer0 smooth green varnished
2
9 1
15 0
3
0 2 3 2
0 32 0 1
0 33 -1 0
30
end_operator
begin_operator
do-plane p3 planer0 verysmooth green glazed
1
15 0
4
0 2 1 2
0 9 2 1
0 32 0 1
0 33 -1 0
30
end_operator
begin_operator
do-plane p3 planer0 verysmooth green varnished
1
15 0
4
0 2 3 2
0 9 2 1
0 32 0 1
0 33 -1 0
30
end_operator
begin_operator
do-plane p3 planer0 verysmooth natural colourfragments
2
15 0
33 0
2
0 2 0 2
0 9 2 1
30
end_operator
begin_operator
do-plane p3 planer0 verysmooth natural untreated
3
2 2
15 0
33 0
1
0 9 2 1
30
end_operator
begin_operator
do-plane p4 planer0 rough green glazed
1
16 0
4
0 3 1 2
0 10 0 1
0 34 0 1
0 35 -1 0
20
end_operator
begin_operator
do-plane p4 planer0 rough natural untreated
3
3 2
16 0
35 0
1
0 10 0 1
20
end_operator
begin_operator
do-plane p4 planer0 smooth green glazed
2
10 1
16 0
3
0 3 1 2
0 34 0 1
0 35 -1 0
20
end_operator
begin_operator
do-plane p4 planer0 smooth green varnished
2
10 1
16 0
3
0 3 3 2
0 34 0 1
0 35 -1 0
20
end_operator
begin_operator
do-plane p4 planer0 verysmooth green glazed
1
16 0
4
0 3 1 2
0 10 2 1
0 34 0 1
0 35 -1 0
20
end_operator
begin_operator
do-plane p4 planer0 verysmooth green varnished
1
16 0
4
0 3 3 2
0 10 2 1
0 34 0 1
0 35 -1 0
20
end_operator
begin_operator
do-plane p4 planer0 verysmooth natural colourfragments
2
16 0
35 0
2
0 3 0 2
0 10 2 1
20
end_operator
begin_operator
do-plane p4 planer0 verysmooth natural untreated
3
3 2
16 0
35 0
1
0 10 2 1
20
end_operator
begin_operator
do-saw-large b0 p3 saw0 teak rough s3 s1 s2 s0
1
11 0
4
0 2 4 2
0 9 -1 0
0 15 -1 0
0 33 -1 0
30
end_operator
begin_operator
do-saw-large b1 p3 saw0 mahogany rough s3 s1 s2 s0
2
12 0
24 0
5
0 2 4 2
0 9 -1 0
0 15 -1 0
0 18 -1 0
0 33 -1 0
30
end_operator
begin_operator
do-saw-large b1 p3 saw0 mahogany rough s5 s3 s4 s2
1
12 0
6
0 2 4 2
0 9 -1 0
0 15 -1 0
0 18 -1 0
0 23 -1 0
0 33 -1 0
30
end_operator
begin_operator
do-saw-medium b0 p0 saw0 teak rough s2 s1 s0
2
11 0
21 0
4
0 0 4 2
0 6 -1 0
0 13 -1 0
0 26 -1 0
30
end_operator
begin_operator
do-saw-medium b0 p0 saw0 teak rough s3 s2 s1
1
11 0
5
0 0 4 2
0 6 -1 0
0 13 -1 0
0 20 -1 0
0 26 -1 0
30
end_operator
begin_operator
do-saw-medium b0 p4 saw0 teak rough s2 s1 s0
2
11 0
21 0
5
0 3 4 2
0 10 -1 0
0 16 -1 0
0 19 -1 0
0 35 -1 0
30
end_operator
begin_operator
do-saw-medium b0 p4 saw0 teak rough s3 s2 s1
1
11 0
6
0 3 4 2
0 10 -1 0
0 16 -1 0
0 19 -1 0
0 20 -1 0
0 35 -1 0
30
end_operator
begin_operator
do-saw-medium b1 p0 saw0 mahogany rough s2 s1 s0
2
12 0
23 0
4
0 0 4 2
0 6 -1 0
0 13 -1 0
0 26 -1 0
30
end_operator
begin_operator
do-saw-medium b1 p0 saw0 mahogany rough s3 s2 s1
2
12 0
24 0
5
0 0 4 2
0 6 -1 0
0 13 -1 0
0 22 -1 0
0 26 -1 0
30
end_operator
begin_operator
do-saw-medium b1 p0 saw0 mahogany rough s5 s4 s3
1
12 0
5
0 0 4 2
0 6 -1 0
0 13 -1 0
0 24 -1 0
0 26 -1 0
30
end_operator
begin_operator
do-saw-medium b1 p4 saw0 mahogany rough s2 s1 s0
2
12 0
23 0
4
0 3 4 2
0 10 -1 0
0 16 -1 0
0 35 -1 0
30
end_operator
begin_operator
do-saw-medium b1 p4 saw0 mahogany rough s3 s2 s1
2
12 0
24 0
5
0 3 4 2
0 10 -1 0
0 16 -1 0
0 22 -1 0
0 35 -1 0
30
end_operator
begin_operator
do-saw-medium b1 p4 saw0 mahogany rough s5 s4 s3
1
12 0
5
0 3 4 2
0 10 -1 0
0 16 -1 0
0 24 -1 0
0 35 -1 0
30
end_operator
begin_operator
do-saw-small b0 p1 saw0 teak rough s1 s0
2
11 0
20 0
5
0 1 4 2
0 7 -1 0
0 14 -1 0
0 17 -1 0
0 28 -1 0
30
end_operator
begin_operator
do-saw-small b0 p1 saw0 teak rough s3 s2
1
11 0
6
0 1 4 2
0 7 -1 0
0 14 -1 0
0 17 -1 0
0 21 -1 0
0 28 -1 0
30
end_operator
begin_operator
do-saw-small b1 p1 saw0 mahogany rough s1 s0
2
12 0
22 0
4
0 1 4 2
0 7 -1 0
0 14 -1 0
0 28 -1 0
30
end_operator
begin_operator
do-saw-small b1 p1 saw0 mahogany rough s2 s1
2
12 0
23 0
5
0 1 4 2
0 7 -1 0
0 14 -1 0
0 22 -1 0
0 28 -1 0
30
end_operator
begin_operator
do-saw-small b1 p1 saw0 mahogany rough s3 s2
2
12 0
24 0
5
0 1 4 2
0 7 -1 0
0 14 -1 0
0 23 -1 0
0 28 -1 0
30
end_operator
begin_operator
do-spray-varnish p1 spray-varnisher0 green smooth
2
7 1
14 0
3
0 1 2 3
0 27 -1 0
0 28 -1 1
5
end_operator
begin_operator
do-spray-varnish p1 spray-varnisher0 green verysmooth
2
7 2
14 0
3
0 1 2 3
0 27 -1 0
0 28 -1 1
5
end_operator
begin_operator
do-spray-varnish p2 spray-varnisher0 green smooth
1
8 1
3
0 4 2 3
0 30 -1 0
0 31 -1 1
5
end_operator
begin_operator
do-spray-varnish p2 spray-varnisher0 green verysmooth
1
8 2
3
0 4 2 3
0 30 -1 0
0 31 -1 1
5
end_operator
begin_operator
load-highspeed-saw b0 highspeed-saw0
0
2
0 5 0 1
0 11 0 1
30
end_operator
begin_operator
load-highspeed-saw b1 highspeed-saw0
0
2
0 5 0 2
0 12 0 1
30
end_operator
begin_operator
unload-highspeed-saw b0 highspeed-saw0
0
2
0 5 1 0
0 11 -1 0
10
end_operator
begin_operator
unload-highspeed-saw b1 highspeed-saw0
0
2
0 5 2 0
0 12 -1 0
10
end_operator
0
