Reduced 21 -> 11
Domain: freecell
Problem: freecell2-4
Require: ff
Type[1]:
    [0]: object, parent: -1
Obj-by-Type:
    [0]: 0 1 2 3 4 5 6 7 8 9 10
Obj[11]:
    [0]: diamond, type: 0, is-constant: 0, is-private: 0, owner: -1, is-agent: 0
    [1]: n2, type: 0, is-constant: 0, is-private: 0, owner: -1, is-agent: 0
    [2]: club2, type: 0, is-constant: 0, is-private: 0, owner: -1, is-agent: 0
    [3]: heart2, type: 0, is-constant: 0, is-private: 0, owner: -1, is-agent: 0
    [4]: spade2, type: 0, is-constant: 0, is-private: 0, owner: -1, is-agent: 0
    [5]: hearta, type: 0, is-constant: 0, is-private: 0, owner: -1, is-agent: 0
    [6]: diamond2, type: 0, is-constant: 0, is-private: 0, owner: -1, is-agent: 0
    [7]: cluba, type: 0, is-constant: 0, is-private: 0, owner: -1, is-agent: 0
    [8]: club0, type: 0, is-constant: 0, is-private: 0, owner: -1, is-agent: 0
    [9]: heart0, type: 0, is-constant: 0, is-private: 0, owner: -1, is-agent: 0
    [10]: spade0, type: 0, is-constant: 0, is-private: 0, owner: -1, is-agent: 0
Predicate[12]:
    =: 0 0 :: is-private: 0, owner-param: -1, read: 0, write: 0
    on: 0 0 :: is-private: 0, owner-param: -1, read: 1, write: 1
    incell: 0 :: is-private: 0, owner-param: -1, read: 1, write: 1
    clear: 0 :: is-private: 0, owner-param: -1, read: 1, write: 1
    cellspace: 0 :: is-private: 0, owner-param: -1, read: 1, write: 1
    colspace: 0 :: is-private: 0, owner-param: -1, read: 1, write: 1
    home: 0 :: is-private: 0, owner-param: -1, read: 1, write: 1
    bottomcol: 0 :: is-private: 0, owner-param: -1, read: 1, write: 1
    canstack: 0 0 :: is-private: 0, owner-param: -1, read: 1, write: 0
    suit: 0 0 :: is-private: 0, owner-param: -1, read: 1, write: 0
    value: 0 0 :: is-private: 0, owner-param: -1, read: 1, write: 0
    successor: 0 0 :: is-private: 0, owner-param: -1, read: 1, write: 0
Function[0]:
Action[10]:
    move: ?card:0 ?oldcard:0 ?newcard:0
        pre: (and (RW:clear ?card) (RW:clear ?newcard) (R:canstack ?card ?newcard) (RW:on ?card ?oldcard))
        eff: (and (RW:on ?card ?newcard) (RW:clear ?oldcard))
    move-b: ?card:0 ?newcard:0 ?cols:0 ?ncols:0
        pre: (and (RW:clear ?card) (RW:bottomcol ?card) (RW:clear ?newcard) (R:canstack ?card ?newcard) (RW:colspace ?cols) (R:successor ?ncols ?cols))
        eff: (and (RW:on ?card ?newcard) (RW:colspace ?ncols))
    sendtofree: ?card:0 ?oldcard:0 ?cells:0 ?ncells:0
        pre: (and (RW:clear ?card) (RW:on ?card ?oldcard) (RW:cellspace ?cells) (R:successor ?cells ?ncells))
        eff: (and (RW:incell ?card) (RW:clear ?oldcard) (RW:cellspace ?ncells))
    sendtofree-b: ?card:0 ?cells:0 ?ncells:0 ?cols:0 ?ncols:0
        pre: (and (RW:clear ?card) (RW:bottomcol ?card) (RW:cellspace ?cells) (R:successor ?cells ?ncells) (RW:colspace ?cols) (R:successor ?ncols ?cols))
        eff: (and (RW:incell ?card) (RW:colspace ?ncols) (RW:cellspace ?ncells))
    sendtonewcol: ?card:0 ?oldcard:0 ?cols:0 ?ncols:0
        pre: (and (RW:clear ?card) (RW:colspace ?cols) (R:successor ?cols ?ncols) (RW:on ?card ?oldcard))
        eff: (and (RW:bottomcol ?card) (RW:clear ?oldcard) (RW:colspace ?ncols))
    sendtohome: ?card:0 ?oldcard:0 ?suit:0 ?vcard:0 ?homecard:0 ?vhomecard:0
        pre: (and (RW:clear ?card) (RW:on ?card ?oldcard) (RW:home ?homecard) (R:suit ?card ?suit) (R:suit ?homecard ?suit) (R:value ?card ?vcard) (R:value ?homecard ?vhomecard) (R:successor ?vcard ?vhomecard))
        eff: (and (RW:home ?card) (RW:clear ?oldcard))
    sendtohome-b: ?card:0 ?suit:0 ?vcard:0 ?homecard:0 ?vhomecard:0 ?cols:0 ?ncols:0
        pre: (and (RW:clear ?card) (RW:bottomcol ?card) (RW:home ?homecard) (R:suit ?card ?suit) (R:suit ?homecard ?suit) (R:value ?card ?vcard) (R:value ?homecard ?vhomecard) (R:successor ?vcard ?vhomecard) (RW:colspace ?cols) (R:successor ?ncols ?cols))
        eff: (and (RW:home ?card) (RW:colspace ?ncols))
    homefromfreecell: ?card:0 ?suit:0 ?vcard:0 ?homecard:0 ?vhomecard:0 ?cells:0 ?ncells:0
        pre: (and (RW:incell ?card) (RW:home ?homecard) (R:suit ?card ?suit) (R:suit ?homecard ?suit) (R:value ?card ?vcard) (R:value ?homecard ?vhomecard) (R:successor ?vcard ?vhomecard) (RW:cellspace ?cells) (R:successor ?ncells ?cells))
        eff: (and (RW:home ?card) (RW:cellspace ?ncells))
    colfromfreecell: ?card:0 ?newcard:0 ?cells:0 ?ncells:0
        pre: (and (RW:incell ?card) (RW:clear ?newcard) (R:canstack ?card ?newcard) (RW:cellspace ?cells) (R:successor ?ncells ?cells))
        eff: (and (RW:cellspace ?ncells) (RW:clear ?card) (RW:on ?card ?newcard))
    newcolfromfreecell: ?card:0 ?cols:0 ?ncols:0 ?cells:0 ?ncells:0
        pre: (and (RW:incell ?card) (RW:colspace ?cols) (RW:cellspace ?cells) (R:successor ?cols ?ncols) (R:successor ?ncells ?cells))
        eff: (and (RW:bottomcol ?card) (RW:clear ?card) (RW:colspace ?ncols) (RW:cellspace ?ncells))
Init[54]:
  S:(successor diamond diamond)
  S:(successor n2 diamond)
  S:(successor diamond n2)
  S:(successor diamond diamond)
  (cellspace n2)
  (clear diamond)
  (on diamond spade2)
  (bottomcol spade2)
  (clear n2)
  (on n2 hearta)
  (bottomcol hearta)
  (clear club2)
  (on club2 diamond2)
  (bottomcol diamond2)
  (clear heart2)
  (on heart2 cluba)
  (bottomcol cluba)
  (colspace diamond)
  S:(value diamond diamond)
  S:(suit diamond diamond)
  S:(canstack diamond diamond2)
  S:(canstack diamond heart2)
  S:(value n2 diamond)
  S:(suit n2 diamond)
  S:(canstack n2 club2)
  S:(canstack n2 spade2)
  S:(value club2 n2)
  S:(suit club2 diamond)
  S:(value heart2 n2)
  S:(suit heart2 diamond)
  S:(value spade2 n2)
  S:(suit spade2 diamond)
  S:(value hearta diamond)
  S:(suit hearta diamond)
  S:(canstack hearta club2)
  S:(canstack hearta spade2)
  S:(value diamond2 n2)
  S:(suit diamond2 diamond)
  S:(value cluba diamond)
  S:(suit cluba diamond)
  S:(canstack cluba diamond2)
  S:(canstack cluba heart2)
  (home diamond)
  S:(value diamond diamond)
  S:(suit diamond diamond)
  (home club0)
  S:(value club0 diamond)
  S:(suit club0 diamond)
  (home heart0)
  S:(value heart0 diamond)
  S:(suit heart0 diamond)
  (home spade0)
  S:(value spade0 diamond)
  S:(suit spade0 diamond)
Init[0]:
Goal: (and (RW:home diamond2) (RW:home club2) (RW:home heart2) (RW:home spade2))
Metric: 0
