begin_version
3
end_version
begin_metric
1
end_metric
23
begin_variable
var0
-1
5
base-pos pr2 x0 y0
base-pos pr2 x1 y0
base-pos pr2 x2 y0
base-pos pr2 x3 y0
base-pos pr2 x4 y0
end_variable
begin_variable
var1
-1
5
gripper-rel pr2 xrel-1 yrel0
gripper-rel pr2 xrel-1 yrel1
gripper-rel pr2 xrel0 yrel0
gripper-rel pr2 xrel0 yrel1
gripper-rel pr2 xrel1 yrel0
end_variable
begin_variable
var2
-1
2
NOT-object-done object0
object-done object0
end_variable
begin_variable
var3
-1
2
NOT-object-done object1
object-done object1
end_variable
begin_variable
var4
-1
2
NOT-object-done object2
object-done object2
end_variable
begin_variable
var5
-1
2
NOT-object-done object3
object-done object3
end_variable
begin_variable
var6
-1
2
NOT-parked pr2
parked pr2
end_variable
begin_variable
var7
-1
2
not-pushed cart
pushing pr2 cart
end_variable
begin_variable
var8
-1
2
gripper-empty pr2
none-of-those
end_variable
begin_variable
var9
-1
2
not-pushing pr2
pushing pr2 cart
end_variable
begin_variable
var10
-1
2
object-pos object0 x2 y2
none-of-those
end_variable
begin_variable
var11
-1
2
object-pos object2 x3 y2
none-of-those
end_variable
begin_variable
var12
-1
2
NOT-base-obstacle x0 y0
none-of-those
end_variable
begin_variable
var13
-1
2
NOT-base-obstacle x1 y0
none-of-those
end_variable
begin_variable
var14
-1
2
NOT-base-obstacle x2 y0
none-of-those
end_variable
begin_variable
var15
-1
2
NOT-base-obstacle x3 y0
none-of-those
end_variable
begin_variable
var16
-1
2
NOT-base-obstacle x4 y0
none-of-those
end_variable
begin_variable
var17
-1
2
NOT-gripper-obstacle x0 y0
none-of-those
end_variable
begin_variable
var18
-1
2
NOT-gripper-obstacle x0 y1
none-of-those
end_variable
begin_variable
var19
-1
2
NOT-gripper-obstacle x1 y0
none-of-those
end_variable
begin_variable
var20
-1
2
NOT-gripper-obstacle x2 y0
none-of-those
end_variable
begin_variable
var21
-1
2
NOT-gripper-obstacle x3 y0
none-of-those
end_variable
begin_variable
var22
-1
2
NOT-gripper-obstacle x4 y0
none-of-those
end_variable
16
begin_mutex_group
1
2 0
end_mutex_group
begin_mutex_group
1
3 0
end_mutex_group
begin_mutex_group
1
4 0
end_mutex_group
begin_mutex_group
1
5 0
end_mutex_group
begin_mutex_group
1
8 0
end_mutex_group
begin_mutex_group
1
10 0
end_mutex_group
begin_mutex_group
1
11 0
end_mutex_group
begin_mutex_group
2
2 0
2 1
end_mutex_group
begin_mutex_group
2
3 0
3 1
end_mutex_group
begin_mutex_group
2
4 0
4 1
end_mutex_group
begin_mutex_group
2
5 0
5 1
end_mutex_group
begin_mutex_group
2
6 0
6 1
end_mutex_group
begin_mutex_group
2
7 0
7 1
end_mutex_group
begin_mutex_group
2
9 0
7 1
end_mutex_group
begin_mutex_group
5
0 0
0 1
0 2
0 3
0 4
end_mutex_group
begin_mutex_group
5
1 0
1 1
1 2
1 3
1 4
end_mutex_group
begin_state
0
2
0
0
0
0
1
0
0
0
0
0
1
0
0
0
0
0
0
0
0
0
0
end_state
begin_goal
4
2 1
3 1
4 1
5 1
end_goal
36
begin_operator
base-left pr2 x1 x0 y0
2
6 0
9 0
3
0 0 1 0
0 12 0 1
0 13 -1 0
1
end_operator
begin_operator
base-left pr2 x2 x1 y0
2
6 0
9 0
3
0 0 2 1
0 13 0 1
0 14 -1 0
1
end_operator
begin_operator
base-left pr2 x3 x2 y0
2
6 0
9 0
3
0 0 3 2
0 14 0 1
0 15 -1 0
1
end_operator
begin_operator
base-left pr2 x4 x3 y0
2
6 0
9 0
3
0 0 4 3
0 15 0 1
0 16 -1 0
1
end_operator
begin_operator
base-right pr2 x0 x1 y0
2
6 0
9 0
3
0 0 0 1
0 12 -1 0
0 13 0 1
1
end_operator
begin_operator
base-right pr2 x1 x2 y0
2
6 0
9 0
3
0 0 1 2
0 13 -1 0
0 14 0 1
1
end_operator
begin_operator
base-right pr2 x2 x3 y0
2
6 0
9 0
3
0 0 2 3
0 14 -1 0
0 15 0 1
1
end_operator
begin_operator
base-right pr2 x3 x4 y0
2
6 0
9 0
3
0 0 3 4
0 15 -1 0
0 16 0 1
1
end_operator
begin_operator
finish-object object0 x2 y2
1
10 0
1
0 2 0 1
1
end_operator
begin_operator
finish-object object1 x2 y3
0
1
0 3 0 1
1
end_operator
begin_operator
finish-object object2 x3 y2
1
11 0
1
0 4 0 1
1
end_operator
begin_operator
finish-object object3 x3 y3
0
1
0 5 0 1
1
end_operator
begin_operator
grasp-cart-below pr2 cart x0 y0 y1
2
0 0
6 0
2
0 7 0 1
0 9 0 1
1
end_operator
begin_operator
gripper-down pr2 x0 y0 xrel0 x0 yrel0 yrel1 y0 y1
2
0 0
6 1
3
0 1 2 3
0 17 -1 0
0 18 0 1
1
end_operator
begin_operator
gripper-down pr2 x1 y0 xrel-1 x0 yrel0 yrel1 y0 y1
2
0 1
6 1
3
0 1 0 1
0 17 -1 0
0 18 0 1
1
end_operator
begin_operator
gripper-left pr2 x0 y0 xrel1 xrel0 x1 x0 yrel0 y0
2
0 0
6 1
3
0 1 4 2
0 17 0 1
0 19 -1 0
1
end_operator
begin_operator
gripper-left pr2 x1 y0 xrel0 xrel-1 x1 x0 yrel0 y0
2
0 1
6 1
3
0 1 2 0
0 17 0 1
0 19 -1 0
1
end_operator
begin_operator
gripper-left pr2 x1 y0 xrel1 xrel0 x2 x1 yrel0 y0
2
0 1
6 1
3
0 1 4 2
0 19 0 1
0 20 -1 0
1
end_operator
begin_operator
gripper-left pr2 x2 y0 xrel0 xrel-1 x2 x1 yrel0 y0
2
0 2
6 1
3
0 1 2 0
0 19 0 1
0 20 -1 0
1
end_operator
begin_operator
gripper-left pr2 x2 y0 xrel1 xrel0 x3 x2 yrel0 y0
2
0 2
6 1
3
0 1 4 2
0 20 0 1
0 21 -1 0
1
end_operator
begin_operator
gripper-left pr2 x3 y0 xrel0 xrel-1 x3 x2 yrel0 y0
2
0 3
6 1
3
0 1 2 0
0 20 0 1
0 21 -1 0
1
end_operator
begin_operator
gripper-left pr2 x3 y0 xrel1 xrel0 x4 x3 yrel0 y0
2
0 3
6 1
3
0 1 4 2
0 21 0 1
0 22 -1 0
1
end_operator
begin_operator
gripper-left pr2 x4 y0 xrel0 xrel-1 x4 x3 yrel0 y0
2
0 4
6 1
3
0 1 2 0
0 21 0 1
0 22 -1 0
1
end_operator
begin_operator
gripper-right pr2 x0 y0 xrel0 xrel1 x0 x1 yrel0 y0
2
0 0
6 1
3
0 1 2 4
0 17 -1 0
0 19 0 1
1
end_operator
begin_operator
gripper-right pr2 x1 y0 xrel-1 xrel0 x0 x1 yrel0 y0
2
0 1
6 1
3
0 1 0 2
0 17 -1 0
0 19 0 1
1
end_operator
begin_operator
gripper-right pr2 x1 y0 xrel0 xrel1 x1 x2 yrel0 y0
2
0 1
6 1
3
0 1 2 4
0 19 -1 0
0 20 0 1
1
end_operator
begin_operator
gripper-right pr2 x2 y0 xrel-1 xrel0 x1 x2 yrel0 y0
2
0 2
6 1
3
0 1 0 2
0 19 -1 0
0 20 0 1
1
end_operator
begin_operator
gripper-right pr2 x2 y0 xrel0 xrel1 x2 x3 yrel0 y0
2
0 2
6 1
3
0 1 2 4
0 20 -1 0
0 21 0 1
1
end_operator
begin_operator
gripper-right pr2 x3 y0 xrel-1 xrel0 x2 x3 yrel0 y0
2
0 3
6 1
3
0 1 0 2
0 20 -1 0
0 21 0 1
1
end_operator
begin_operator
gripper-right pr2 x3 y0 xrel0 xrel1 x3 x4 yrel0 y0
2
0 3
6 1
3
0 1 2 4
0 21 -1 0
0 22 0 1
1
end_operator
begin_operator
gripper-right pr2 x4 y0 xrel-1 xrel0 x3 x4 yrel0 y0
2
0 4
6 1
3
0 1 0 2
0 21 -1 0
0 22 0 1
1
end_operator
begin_operator
gripper-up pr2 x0 y0 xrel0 x0 yrel1 yrel0 y1 y0
2
0 0
6 1
3
0 1 3 2
0 17 0 1
0 18 -1 0
1
end_operator
begin_operator
gripper-up pr2 x1 y0 xrel-1 x0 yrel1 yrel0 y1 y0
2
0 1
6 1
3
0 1 1 0
0 17 0 1
0 18 -1 0
1
end_operator
begin_operator
park pr2
1
9 0
1
0 6 0 1
1
end_operator
begin_operator
ungrasp-cart pr2 cart
0
2
0 7 1 0
0 9 1 0
1
end_operator
begin_operator
unpark pr2 xrel0 yrel0
1
1 2
1
0 6 1 0
1
end_operator
0
