begin_version
3
end_version
begin_metric
1
end_metric
14
begin_variable
var0
-1
8
at person1 city0
at person1 city1
at person1 city2
at person1 city3
at person1 city4
in person1 plane1
in person1 plane2
in person1 plane3
end_variable
begin_variable
var1
-1
8
at person2 city0
at person2 city1
at person2 city2
at person2 city3
at person2 city4
in person2 plane1
in person2 plane2
in person2 plane3
end_variable
begin_variable
var2
-1
8
at person3 city0
at person3 city1
at person3 city2
at person3 city3
at person3 city4
in person3 plane1
in person3 plane2
in person3 plane3
end_variable
begin_variable
var3
-1
8
at person4 city0
at person4 city1
at person4 city2
at person4 city3
at person4 city4
in person4 plane1
in person4 plane2
in person4 plane3
end_variable
begin_variable
var4
-1
8
at person5 city0
at person5 city1
at person5 city2
at person5 city3
at person5 city4
in person5 plane1
in person5 plane2
in person5 plane3
end_variable
begin_variable
var5
-1
8
at person6 city0
at person6 city1
at person6 city2
at person6 city3
at person6 city4
in person6 plane1
in person6 plane2
in person6 plane3
end_variable
begin_variable
var6
-1
8
at person7 city0
at person7 city1
at person7 city2
at person7 city3
at person7 city4
in person7 plane1
in person7 plane2
in person7 plane3
end_variable
begin_variable
var7
-1
8
at person8 city0
at person8 city1
at person8 city2
at person8 city3
at person8 city4
in person8 plane1
in person8 plane2
in person8 plane3
end_variable
begin_variable
var8
-1
8
fuel-level plane1 fl0
fuel-level plane1 fl1
fuel-level plane1 fl2
fuel-level plane1 fl3
fuel-level plane1 fl4
fuel-level plane1 fl5
fuel-level plane1 fl6
tnf-unknown
end_variable
begin_variable
var9
-1
8
fuel-level plane2 fl0
fuel-level plane2 fl1
fuel-level plane2 fl2
fuel-level plane2 fl3
fuel-level plane2 fl4
fuel-level plane2 fl5
fuel-level plane2 fl6
tnf-unknown
end_variable
begin_variable
var10
-1
8
fuel-level plane3 fl0
fuel-level plane3 fl1
fuel-level plane3 fl2
fuel-level plane3 fl3
fuel-level plane3 fl4
fuel-level plane3 fl5
fuel-level plane3 fl6
tnf-unknown
end_variable
begin_variable
var11
-1
5
at plane1 city0
at plane1 city1
at plane1 city2
at plane1 city3
at plane1 city4
end_variable
begin_variable
var12
-1
6
at plane2 city0
at plane2 city1
at plane2 city2
at plane2 city3
at plane2 city4
tnf-unknown
end_variable
begin_variable
var13
-1
6
at plane3 city0
at plane3 city1
at plane3 city2
at plane3 city3
at plane3 city4
tnf-unknown
end_variable
14
begin_mutex_group
5
11 0
11 1
11 2
11 3
11 4
end_mutex_group
begin_mutex_group
5
12 0
12 1
12 2
12 3
12 4
end_mutex_group
begin_mutex_group
5
13 0
13 1
13 2
13 3
13 4
end_mutex_group
begin_mutex_group
7
8 0
8 1
8 2
8 3
8 4
8 5
8 6
end_mutex_group
begin_mutex_group
7
9 0
9 1
9 2
9 3
9 4
9 5
9 6
end_mutex_group
begin_mutex_group
7
10 0
10 1
10 2
10 3
10 4
10 5
10 6
end_mutex_group
begin_mutex_group
8
0 0
0 1
0 2
0 3
0 4
0 5
0 6
0 7
end_mutex_group
begin_mutex_group
8
1 0
1 1
1 2
1 3
1 4
1 5
1 6
1 7
end_mutex_group
begin_mutex_group
8
2 0
2 1
2 2
2 3
2 4
2 5
2 6
2 7
end_mutex_group
begin_mutex_group
8
3 0
3 1
3 2
3 3
3 4
3 5
3 6
3 7
end_mutex_group
begin_mutex_group
8
4 0
4 1
4 2
4 3
4 4
4 5
4 6
4 7
end_mutex_group
begin_mutex_group
8
5 0
5 1
5 2
5 3
5 4
5 5
5 6
5 7
end_mutex_group
begin_mutex_group
8
6 0
6 1
6 2
6 3
6 4
6 5
6 6
6 7
end_mutex_group
begin_mutex_group
8
7 0
7 1
7 2
7 3
7 4
7 5
7 6
7 7
end_mutex_group
begin_state
3
3
4
4
1
0
1
0
2
5
2
0
4
2
end_state
begin_goal
14
0 1
1 2
2 3
3 1
4 0
5 3
6 4
7 3
8 7
9 7
10 7
11 2
12 5
13 5
end_goal
1186
begin_operator
board person1 plane1 city0
1
11 0
1
0 0 0 5
1
end_operator
begin_operator
board person1 plane1 city1
1
11 1
1
0 0 1 5
1
end_operator
begin_operator
board person1 plane1 city2
1
11 2
1
0 0 2 5
1
end_operator
begin_operator
board person1 plane1 city3
1
11 3
1
0 0 3 5
1
end_operator
begin_operator
board person1 plane1 city4
1
11 4
1
0 0 4 5
1
end_operator
begin_operator
board person1 plane2 city0
1
12 0
1
0 0 0 6
1
end_operator
begin_operator
board person1 plane2 city1
1
12 1
1
0 0 1 6
1
end_operator
begin_operator
board person1 plane2 city2
1
12 2
1
0 0 2 6
1
end_operator
begin_operator
board person1 plane2 city3
1
12 3
1
0 0 3 6
1
end_operator
begin_operator
board person1 plane2 city4
1
12 4
1
0 0 4 6
1
end_operator
begin_operator
board person1 plane3 city0
1
13 0
1
0 0 0 7
1
end_operator
begin_operator
board person1 plane3 city1
1
13 1
1
0 0 1 7
1
end_operator
begin_operator
board person1 plane3 city2
1
13 2
1
0 0 2 7
1
end_operator
begin_operator
board person1 plane3 city3
1
13 3
1
0 0 3 7
1
end_operator
begin_operator
board person1 plane3 city4
1
13 4
1
0 0 4 7
1
end_operator
begin_operator
board person2 plane1 city0
1
11 0
1
0 1 0 5
1
end_operator
begin_operator
board person2 plane1 city1
1
11 1
1
0 1 1 5
1
end_operator
begin_operator
board person2 plane1 city2
1
11 2
1
0 1 2 5
1
end_operator
begin_operator
board person2 plane1 city3
1
11 3
1
0 1 3 5
1
end_operator
begin_operator
board person2 plane1 city4
1
11 4
1
0 1 4 5
1
end_operator
begin_operator
board person2 plane2 city0
1
12 0
1
0 1 0 6
1
end_operator
begin_operator
board person2 plane2 city1
1
12 1
1
0 1 1 6
1
end_operator
begin_operator
board person2 plane2 city2
1
12 2
1
0 1 2 6
1
end_operator
begin_operator
board person2 plane2 city3
1
12 3
1
0 1 3 6
1
end_operator
begin_operator
board person2 plane2 city4
1
12 4
1
0 1 4 6
1
end_operator
begin_operator
board person2 plane3 city0
1
13 0
1
0 1 0 7
1
end_operator
begin_operator
board person2 plane3 city1
1
13 1
1
0 1 1 7
1
end_operator
begin_operator
board person2 plane3 city2
1
13 2
1
0 1 2 7
1
end_operator
begin_operator
board person2 plane3 city3
1
13 3
1
0 1 3 7
1
end_operator
begin_operator
board person2 plane3 city4
1
13 4
1
0 1 4 7
1
end_operator
begin_operator
board person3 plane1 city0
1
11 0
1
0 2 0 5
1
end_operator
begin_operator
board person3 plane1 city1
1
11 1
1
0 2 1 5
1
end_operator
begin_operator
board person3 plane1 city2
1
11 2
1
0 2 2 5
1
end_operator
begin_operator
board person3 plane1 city3
1
11 3
1
0 2 3 5
1
end_operator
begin_operator
board person3 plane1 city4
1
11 4
1
0 2 4 5
1
end_operator
begin_operator
board person3 plane2 city0
1
12 0
1
0 2 0 6
1
end_operator
begin_operator
board person3 plane2 city1
1
12 1
1
0 2 1 6
1
end_operator
begin_operator
board person3 plane2 city2
1
12 2
1
0 2 2 6
1
end_operator
begin_operator
board person3 plane2 city3
1
12 3
1
0 2 3 6
1
end_operator
begin_operator
board person3 plane2 city4
1
12 4
1
0 2 4 6
1
end_operator
begin_operator
board person3 plane3 city0
1
13 0
1
0 2 0 7
1
end_operator
begin_operator
board person3 plane3 city1
1
13 1
1
0 2 1 7
1
end_operator
begin_operator
board person3 plane3 city2
1
13 2
1
0 2 2 7
1
end_operator
begin_operator
board person3 plane3 city3
1
13 3
1
0 2 3 7
1
end_operator
begin_operator
board person3 plane3 city4
1
13 4
1
0 2 4 7
1
end_operator
begin_operator
board person4 plane1 city0
1
11 0
1
0 3 0 5
1
end_operator
begin_operator
board person4 plane1 city1
1
11 1
1
0 3 1 5
1
end_operator
begin_operator
board person4 plane1 city2
1
11 2
1
0 3 2 5
1
end_operator
begin_operator
board person4 plane1 city3
1
11 3
1
0 3 3 5
1
end_operator
begin_operator
board person4 plane1 city4
1
11 4
1
0 3 4 5
1
end_operator
begin_operator
board person4 plane2 city0
1
12 0
1
0 3 0 6
1
end_operator
begin_operator
board person4 plane2 city1
1
12 1
1
0 3 1 6
1
end_operator
begin_operator
board person4 plane2 city2
1
12 2
1
0 3 2 6
1
end_operator
begin_operator
board person4 plane2 city3
1
12 3
1
0 3 3 6
1
end_operator
begin_operator
board person4 plane2 city4
1
12 4
1
0 3 4 6
1
end_operator
begin_operator
board person4 plane3 city0
1
13 0
1
0 3 0 7
1
end_operator
begin_operator
board person4 plane3 city1
1
13 1
1
0 3 1 7
1
end_operator
begin_operator
board person4 plane3 city2
1
13 2
1
0 3 2 7
1
end_operator
begin_operator
board person4 plane3 city3
1
13 3
1
0 3 3 7
1
end_operator
begin_operator
board person4 plane3 city4
1
13 4
1
0 3 4 7
1
end_operator
begin_operator
board person5 plane1 city0
1
11 0
1
0 4 0 5
1
end_operator
begin_operator
board person5 plane1 city1
1
11 1
1
0 4 1 5
1
end_operator
begin_operator
board person5 plane1 city2
1
11 2
1
0 4 2 5
1
end_operator
begin_operator
board person5 plane1 city3
1
11 3
1
0 4 3 5
1
end_operator
begin_operator
board person5 plane1 city4
1
11 4
1
0 4 4 5
1
end_operator
begin_operator
board person5 plane2 city0
1
12 0
1
0 4 0 6
1
end_operator
begin_operator
board person5 plane2 city1
1
12 1
1
0 4 1 6
1
end_operator
begin_operator
board person5 plane2 city2
1
12 2
1
0 4 2 6
1
end_operator
begin_operator
board person5 plane2 city3
1
12 3
1
0 4 3 6
1
end_operator
begin_operator
board person5 plane2 city4
1
12 4
1
0 4 4 6
1
end_operator
begin_operator
board person5 plane3 city0
1
13 0
1
0 4 0 7
1
end_operator
begin_operator
board person5 plane3 city1
1
13 1
1
0 4 1 7
1
end_operator
begin_operator
board person5 plane3 city2
1
13 2
1
0 4 2 7
1
end_operator
begin_operator
board person5 plane3 city3
1
13 3
1
0 4 3 7
1
end_operator
begin_operator
board person5 plane3 city4
1
13 4
1
0 4 4 7
1
end_operator
begin_operator
board person6 plane1 city0
1
11 0
1
0 5 0 5
1
end_operator
begin_operator
board person6 plane1 city1
1
11 1
1
0 5 1 5
1
end_operator
begin_operator
board person6 plane1 city2
1
11 2
1
0 5 2 5
1
end_operator
begin_operator
board person6 plane1 city3
1
11 3
1
0 5 3 5
1
end_operator
begin_operator
board person6 plane1 city4
1
11 4
1
0 5 4 5
1
end_operator
begin_operator
board person6 plane2 city0
1
12 0
1
0 5 0 6
1
end_operator
begin_operator
board person6 plane2 city1
1
12 1
1
0 5 1 6
1
end_operator
begin_operator
board person6 plane2 city2
1
12 2
1
0 5 2 6
1
end_operator
begin_operator
board person6 plane2 city3
1
12 3
1
0 5 3 6
1
end_operator
begin_operator
board person6 plane2 city4
1
12 4
1
0 5 4 6
1
end_operator
begin_operator
board person6 plane3 city0
1
13 0
1
0 5 0 7
1
end_operator
begin_operator
board person6 plane3 city1
1
13 1
1
0 5 1 7
1
end_operator
begin_operator
board person6 plane3 city2
1
13 2
1
0 5 2 7
1
end_operator
begin_operator
board person6 plane3 city3
1
13 3
1
0 5 3 7
1
end_operator
begin_operator
board person6 plane3 city4
1
13 4
1
0 5 4 7
1
end_operator
begin_operator
board person7 plane1 city0
1
11 0
1
0 6 0 5
1
end_operator
begin_operator
board person7 plane1 city1
1
11 1
1
0 6 1 5
1
end_operator
begin_operator
board person7 plane1 city2
1
11 2
1
0 6 2 5
1
end_operator
begin_operator
board person7 plane1 city3
1
11 3
1
0 6 3 5
1
end_operator
begin_operator
board person7 plane1 city4
1
11 4
1
0 6 4 5
1
end_operator
begin_operator
board person7 plane2 city0
1
12 0
1
0 6 0 6
1
end_operator
begin_operator
board person7 plane2 city1
1
12 1
1
0 6 1 6
1
end_operator
begin_operator
board person7 plane2 city2
1
12 2
1
0 6 2 6
1
end_operator
begin_operator
board person7 plane2 city3
1
12 3
1
0 6 3 6
1
end_operator
begin_operator
board person7 plane2 city4
1
12 4
1
0 6 4 6
1
end_operator
begin_operator
board person7 plane3 city0
1
13 0
1
0 6 0 7
1
end_operator
begin_operator
board person7 plane3 city1
1
13 1
1
0 6 1 7
1
end_operator
begin_operator
board person7 plane3 city2
1
13 2
1
0 6 2 7
1
end_operator
begin_operator
board person7 plane3 city3
1
13 3
1
0 6 3 7
1
end_operator
begin_operator
board person7 plane3 city4
1
13 4
1
0 6 4 7
1
end_operator
begin_operator
board person8 plane1 city0
1
11 0
1
0 7 0 5
1
end_operator
begin_operator
board person8 plane1 city1
1
11 1
1
0 7 1 5
1
end_operator
begin_operator
board person8 plane1 city2
1
11 2
1
0 7 2 5
1
end_operator
begin_operator
board person8 plane1 city3
1
11 3
1
0 7 3 5
1
end_operator
begin_operator
board person8 plane1 city4
1
11 4
1
0 7 4 5
1
end_operator
begin_operator
board person8 plane2 city0
1
12 0
1
0 7 0 6
1
end_operator
begin_operator
board person8 plane2 city1
1
12 1
1
0 7 1 6
1
end_operator
begin_operator
board person8 plane2 city2
1
12 2
1
0 7 2 6
1
end_operator
begin_operator
board person8 plane2 city3
1
12 3
1
0 7 3 6
1
end_operator
begin_operator
board person8 plane2 city4
1
12 4
1
0 7 4 6
1
end_operator
begin_operator
board person8 plane3 city0
1
13 0
1
0 7 0 7
1
end_operator
begin_operator
board person8 plane3 city1
1
13 1
1
0 7 1 7
1
end_operator
begin_operator
board person8 plane3 city2
1
13 2
1
0 7 2 7
1
end_operator
begin_operator
board person8 plane3 city3
1
13 3
1
0 7 3 7
1
end_operator
begin_operator
board person8 plane3 city4
1
13 4
1
0 7 4 7
1
end_operator
begin_operator
debark person1 plane1 city0
1
11 0
1
0 0 5 0
1
end_operator
begin_operator
debark person1 plane1 city1
1
11 1
1
0 0 5 1
1
end_operator
begin_operator
debark person1 plane1 city2
1
11 2
1
0 0 5 2
1
end_operator
begin_operator
debark person1 plane1 city3
1
11 3
1
0 0 5 3
1
end_operator
begin_operator
debark person1 plane1 city4
1
11 4
1
0 0 5 4
1
end_operator
begin_operator
debark person1 plane2 city0
1
12 0
1
0 0 6 0
1
end_operator
begin_operator
debark person1 plane2 city1
1
12 1
1
0 0 6 1
1
end_operator
begin_operator
debark person1 plane2 city2
1
12 2
1
0 0 6 2
1
end_operator
begin_operator
debark person1 plane2 city3
1
12 3
1
0 0 6 3
1
end_operator
begin_operator
debark person1 plane2 city4
1
12 4
1
0 0 6 4
1
end_operator
begin_operator
debark person1 plane3 city0
1
13 0
1
0 0 7 0
1
end_operator
begin_operator
debark person1 plane3 city1
1
13 1
1
0 0 7 1
1
end_operator
begin_operator
debark person1 plane3 city2
1
13 2
1
0 0 7 2
1
end_operator
begin_operator
debark person1 plane3 city3
1
13 3
1
0 0 7 3
1
end_operator
begin_operator
debark person1 plane3 city4
1
13 4
1
0 0 7 4
1
end_operator
begin_operator
debark person2 plane1 city0
1
11 0
1
0 1 5 0
1
end_operator
begin_operator
debark person2 plane1 city1
1
11 1
1
0 1 5 1
1
end_operator
begin_operator
debark person2 plane1 city2
1
11 2
1
0 1 5 2
1
end_operator
begin_operator
debark person2 plane1 city3
1
11 3
1
0 1 5 3
1
end_operator
begin_operator
debark person2 plane1 city4
1
11 4
1
0 1 5 4
1
end_operator
begin_operator
debark person2 plane2 city0
1
12 0
1
0 1 6 0
1
end_operator
begin_operator
debark person2 plane2 city1
1
12 1
1
0 1 6 1
1
end_operator
begin_operator
debark person2 plane2 city2
1
12 2
1
0 1 6 2
1
end_operator
begin_operator
debark person2 plane2 city3
1
12 3
1
0 1 6 3
1
end_operator
begin_operator
debark person2 plane2 city4
1
12 4
1
0 1 6 4
1
end_operator
begin_operator
debark person2 plane3 city0
1
13 0
1
0 1 7 0
1
end_operator
begin_operator
debark person2 plane3 city1
1
13 1
1
0 1 7 1
1
end_operator
begin_operator
debark person2 plane3 city2
1
13 2
1
0 1 7 2
1
end_operator
begin_operator
debark person2 plane3 city3
1
13 3
1
0 1 7 3
1
end_operator
begin_operator
debark person2 plane3 city4
1
13 4
1
0 1 7 4
1
end_operator
begin_operator
debark person3 plane1 city0
1
11 0
1
0 2 5 0
1
end_operator
begin_operator
debark person3 plane1 city1
1
11 1
1
0 2 5 1
1
end_operator
begin_operator
debark person3 plane1 city2
1
11 2
1
0 2 5 2
1
end_operator
begin_operator
debark person3 plane1 city3
1
11 3
1
0 2 5 3
1
end_operator
begin_operator
debark person3 plane1 city4
1
11 4
1
0 2 5 4
1
end_operator
begin_operator
debark person3 plane2 city0
1
12 0
1
0 2 6 0
1
end_operator
begin_operator
debark person3 plane2 city1
1
12 1
1
0 2 6 1
1
end_operator
begin_operator
debark person3 plane2 city2
1
12 2
1
0 2 6 2
1
end_operator
begin_operator
debark person3 plane2 city3
1
12 3
1
0 2 6 3
1
end_operator
begin_operator
debark person3 plane2 city4
1
12 4
1
0 2 6 4
1
end_operator
begin_operator
debark person3 plane3 city0
1
13 0
1
0 2 7 0
1
end_operator
begin_operator
debark person3 plane3 city1
1
13 1
1
0 2 7 1
1
end_operator
begin_operator
debark person3 plane3 city2
1
13 2
1
0 2 7 2
1
end_operator
begin_operator
debark person3 plane3 city3
1
13 3
1
0 2 7 3
1
end_operator
begin_operator
debark person3 plane3 city4
1
13 4
1
0 2 7 4
1
end_operator
begin_operator
debark person4 plane1 city0
1
11 0
1
0 3 5 0
1
end_operator
begin_operator
debark person4 plane1 city1
1
11 1
1
0 3 5 1
1
end_operator
begin_operator
debark person4 plane1 city2
1
11 2
1
0 3 5 2
1
end_operator
begin_operator
debark person4 plane1 city3
1
11 3
1
0 3 5 3
1
end_operator
begin_operator
debark person4 plane1 city4
1
11 4
1
0 3 5 4
1
end_operator
begin_operator
debark person4 plane2 city0
1
12 0
1
0 3 6 0
1
end_operator
begin_operator
debark person4 plane2 city1
1
12 1
1
0 3 6 1
1
end_operator
begin_operator
debark person4 plane2 city2
1
12 2
1
0 3 6 2
1
end_operator
begin_operator
debark person4 plane2 city3
1
12 3
1
0 3 6 3
1
end_operator
begin_operator
debark person4 plane2 city4
1
12 4
1
0 3 6 4
1
end_operator
begin_operator
debark person4 plane3 city0
1
13 0
1
0 3 7 0
1
end_operator
begin_operator
debark person4 plane3 city1
1
13 1
1
0 3 7 1
1
end_operator
begin_operator
debark person4 plane3 city2
1
13 2
1
0 3 7 2
1
end_operator
begin_operator
debark person4 plane3 city3
1
13 3
1
0 3 7 3
1
end_operator
begin_operator
debark person4 plane3 city4
1
13 4
1
0 3 7 4
1
end_operator
begin_operator
debark person5 plane1 city0
1
11 0
1
0 4 5 0
1
end_operator
begin_operator
debark person5 plane1 city1
1
11 1
1
0 4 5 1
1
end_operator
begin_operator
debark person5 plane1 city2
1
11 2
1
0 4 5 2
1
end_operator
begin_operator
debark person5 plane1 city3
1
11 3
1
0 4 5 3
1
end_operator
begin_operator
debark person5 plane1 city4
1
11 4
1
0 4 5 4
1
end_operator
begin_operator
debark person5 plane2 city0
1
12 0
1
0 4 6 0
1
end_operator
begin_operator
debark person5 plane2 city1
1
12 1
1
0 4 6 1
1
end_operator
begin_operator
debark person5 plane2 city2
1
12 2
1
0 4 6 2
1
end_operator
begin_operator
debark person5 plane2 city3
1
12 3
1
0 4 6 3
1
end_operator
begin_operator
debark person5 plane2 city4
1
12 4
1
0 4 6 4
1
end_operator
begin_operator
debark person5 plane3 city0
1
13 0
1
0 4 7 0
1
end_operator
begin_operator
debark person5 plane3 city1
1
13 1
1
0 4 7 1
1
end_operator
begin_operator
debark person5 plane3 city2
1
13 2
1
0 4 7 2
1
end_operator
begin_operator
debark person5 plane3 city3
1
13 3
1
0 4 7 3
1
end_operator
begin_operator
debark person5 plane3 city4
1
13 4
1
0 4 7 4
1
end_operator
begin_operator
debark person6 plane1 city0
1
11 0
1
0 5 5 0
1
end_operator
begin_operator
debark person6 plane1 city1
1
11 1
1
0 5 5 1
1
end_operator
begin_operator
debark person6 plane1 city2
1
11 2
1
0 5 5 2
1
end_operator
begin_operator
debark person6 plane1 city3
1
11 3
1
0 5 5 3
1
end_operator
begin_operator
debark person6 plane1 city4
1
11 4
1
0 5 5 4
1
end_operator
begin_operator
debark person6 plane2 city0
1
12 0
1
0 5 6 0
1
end_operator
begin_operator
debark person6 plane2 city1
1
12 1
1
0 5 6 1
1
end_operator
begin_operator
debark person6 plane2 city2
1
12 2
1
0 5 6 2
1
end_operator
begin_operator
debark person6 plane2 city3
1
12 3
1
0 5 6 3
1
end_operator
begin_operator
debark person6 plane2 city4
1
12 4
1
0 5 6 4
1
end_operator
begin_operator
debark person6 plane3 city0
1
13 0
1
0 5 7 0
1
end_operator
begin_operator
debark person6 plane3 city1
1
13 1
1
0 5 7 1
1
end_operator
begin_operator
debark person6 plane3 city2
1
13 2
1
0 5 7 2
1
end_operator
begin_operator
debark person6 plane3 city3
1
13 3
1
0 5 7 3
1
end_operator
begin_operator
debark person6 plane3 city4
1
13 4
1
0 5 7 4
1
end_operator
begin_operator
debark person7 plane1 city0
1
11 0
1
0 6 5 0
1
end_operator
begin_operator
debark person7 plane1 city1
1
11 1
1
0 6 5 1
1
end_operator
begin_operator
debark person7 plane1 city2
1
11 2
1
0 6 5 2
1
end_operator
begin_operator
debark person7 plane1 city3
1
11 3
1
0 6 5 3
1
end_operator
begin_operator
debark person7 plane1 city4
1
11 4
1
0 6 5 4
1
end_operator
begin_operator
debark person7 plane2 city0
1
12 0
1
0 6 6 0
1
end_operator
begin_operator
debark person7 plane2 city1
1
12 1
1
0 6 6 1
1
end_operator
begin_operator
debark person7 plane2 city2
1
12 2
1
0 6 6 2
1
end_operator
begin_operator
debark person7 plane2 city3
1
12 3
1
0 6 6 3
1
end_operator
begin_operator
debark person7 plane2 city4
1
12 4
1
0 6 6 4
1
end_operator
begin_operator
debark person7 plane3 city0
1
13 0
1
0 6 7 0
1
end_operator
begin_operator
debark person7 plane3 city1
1
13 1
1
0 6 7 1
1
end_operator
begin_operator
debark person7 plane3 city2
1
13 2
1
0 6 7 2
1
end_operator
begin_operator
debark person7 plane3 city3
1
13 3
1
0 6 7 3
1
end_operator
begin_operator
debark person7 plane3 city4
1
13 4
1
0 6 7 4
1
end_operator
begin_operator
debark person8 plane1 city0
1
11 0
1
0 7 5 0
1
end_operator
begin_operator
debark person8 plane1 city1
1
11 1
1
0 7 5 1
1
end_operator
begin_operator
debark person8 plane1 city2
1
11 2
1
0 7 5 2
1
end_operator
begin_operator
debark person8 plane1 city3
1
11 3
1
0 7 5 3
1
end_operator
begin_operator
debark person8 plane1 city4
1
11 4
1
0 7 5 4
1
end_operator
begin_operator
debark person8 plane2 city0
1
12 0
1
0 7 6 0
1
end_operator
begin_operator
debark person8 plane2 city1
1
12 1
1
0 7 6 1
1
end_operator
begin_operator
debark person8 plane2 city2
1
12 2
1
0 7 6 2
1
end_operator
begin_operator
debark person8 plane2 city3
1
12 3
1
0 7 6 3
1
end_operator
begin_operator
debark person8 plane2 city4
1
12 4
1
0 7 6 4
1
end_operator
begin_operator
debark person8 plane3 city0
1
13 0
1
0 7 7 0
1
end_operator
begin_operator
debark person8 plane3 city1
1
13 1
1
0 7 7 1
1
end_operator
begin_operator
debark person8 plane3 city2
1
13 2
1
0 7 7 2
1
end_operator
begin_operator
debark person8 plane3 city3
1
13 3
1
0 7 7 3
1
end_operator
begin_operator
debark person8 plane3 city4
1
13 4
1
0 7 7 4
1
end_operator
begin_operator
fly plane1 city0 city0 fl1 fl0
1
11 0
1
0 8 1 0
1
end_operator
begin_operator
fly plane1 city0 city0 fl2 fl1
1
11 0
1
0 8 2 1
1
end_operator
begin_operator
fly plane1 city0 city0 fl3 fl2
1
11 0
1
0 8 3 2
1
end_operator
begin_operator
fly plane1 city0 city0 fl4 fl3
1
11 0
1
0 8 4 3
1
end_operator
begin_operator
fly plane1 city0 city0 fl5 fl4
1
11 0
1
0 8 5 4
1
end_operator
begin_operator
fly plane1 city0 city0 fl6 fl5
1
11 0
1
0 8 6 5
1
end_operator
begin_operator
fly plane1 city0 city1 fl1 fl0
0
2
0 8 1 0
0 11 0 1
1
end_operator
begin_operator
fly plane1 city0 city1 fl2 fl1
0
2
0 8 2 1
0 11 0 1
1
end_operator
begin_operator
fly plane1 city0 city1 fl3 fl2
0
2
0 8 3 2
0 11 0 1
1
end_operator
begin_operator
fly plane1 city0 city1 fl4 fl3
0
2
0 8 4 3
0 11 0 1
1
end_operator
begin_operator
fly plane1 city0 city1 fl5 fl4
0
2
0 8 5 4
0 11 0 1
1
end_operator
begin_operator
fly plane1 city0 city1 fl6 fl5
0
2
0 8 6 5
0 11 0 1
1
end_operator
begin_operator
fly plane1 city0 city2 fl1 fl0
0
2
0 8 1 0
0 11 0 2
1
end_operator
begin_operator
fly plane1 city0 city2 fl2 fl1
0
2
0 8 2 1
0 11 0 2
1
end_operator
begin_operator
fly plane1 city0 city2 fl3 fl2
0
2
0 8 3 2
0 11 0 2
1
end_operator
begin_operator
fly plane1 city0 city2 fl4 fl3
0
2
0 8 4 3
0 11 0 2
1
end_operator
begin_operator
fly plane1 city0 city2 fl5 fl4
0
2
0 8 5 4
0 11 0 2
1
end_operator
begin_operator
fly plane1 city0 city2 fl6 fl5
0
2
0 8 6 5
0 11 0 2
1
end_operator
begin_operator
fly plane1 city0 city3 fl1 fl0
0
2
0 8 1 0
0 11 0 3
1
end_operator
begin_operator
fly plane1 city0 city3 fl2 fl1
0
2
0 8 2 1
0 11 0 3
1
end_operator
begin_operator
fly plane1 city0 city3 fl3 fl2
0
2
0 8 3 2
0 11 0 3
1
end_operator
begin_operator
fly plane1 city0 city3 fl4 fl3
0
2
0 8 4 3
0 11 0 3
1
end_operator
begin_operator
fly plane1 city0 city3 fl5 fl4
0
2
0 8 5 4
0 11 0 3
1
end_operator
begin_operator
fly plane1 city0 city3 fl6 fl5
0
2
0 8 6 5
0 11 0 3
1
end_operator
begin_operator
fly plane1 city0 city4 fl1 fl0
0
2
0 8 1 0
0 11 0 4
1
end_operator
begin_operator
fly plane1 city0 city4 fl2 fl1
0
2
0 8 2 1
0 11 0 4
1
end_operator
begin_operator
fly plane1 city0 city4 fl3 fl2
0
2
0 8 3 2
0 11 0 4
1
end_operator
begin_operator
fly plane1 city0 city4 fl4 fl3
0
2
0 8 4 3
0 11 0 4
1
end_operator
begin_operator
fly plane1 city0 city4 fl5 fl4
0
2
0 8 5 4
0 11 0 4
1
end_operator
begin_operator
fly plane1 city0 city4 fl6 fl5
0
2
0 8 6 5
0 11 0 4
1
end_operator
begin_operator
fly plane1 city1 city0 fl1 fl0
0
2
0 8 1 0
0 11 1 0
1
end_operator
begin_operator
fly plane1 city1 city0 fl2 fl1
0
2
0 8 2 1
0 11 1 0
1
end_operator
begin_operator
fly plane1 city1 city0 fl3 fl2
0
2
0 8 3 2
0 11 1 0
1
end_operator
begin_operator
fly plane1 city1 city0 fl4 fl3
0
2
0 8 4 3
0 11 1 0
1
end_operator
begin_operator
fly plane1 city1 city0 fl5 fl4
0
2
0 8 5 4
0 11 1 0
1
end_operator
begin_operator
fly plane1 city1 city0 fl6 fl5
0
2
0 8 6 5
0 11 1 0
1
end_operator
begin_operator
fly plane1 city1 city1 fl1 fl0
1
11 1
1
0 8 1 0
1
end_operator
begin_operator
fly plane1 city1 city1 fl2 fl1
1
11 1
1
0 8 2 1
1
end_operator
begin_operator
fly plane1 city1 city1 fl3 fl2
1
11 1
1
0 8 3 2
1
end_operator
begin_operator
fly plane1 city1 city1 fl4 fl3
1
11 1
1
0 8 4 3
1
end_operator
begin_operator
fly plane1 city1 city1 fl5 fl4
1
11 1
1
0 8 5 4
1
end_operator
begin_operator
fly plane1 city1 city1 fl6 fl5
1
11 1
1
0 8 6 5
1
end_operator
begin_operator
fly plane1 city1 city2 fl1 fl0
0
2
0 8 1 0
0 11 1 2
1
end_operator
begin_operator
fly plane1 city1 city2 fl2 fl1
0
2
0 8 2 1
0 11 1 2
1
end_operator
begin_operator
fly plane1 city1 city2 fl3 fl2
0
2
0 8 3 2
0 11 1 2
1
end_operator
begin_operator
fly plane1 city1 city2 fl4 fl3
0
2
0 8 4 3
0 11 1 2
1
end_operator
begin_operator
fly plane1 city1 city2 fl5 fl4
0
2
0 8 5 4
0 11 1 2
1
end_operator
begin_operator
fly plane1 city1 city2 fl6 fl5
0
2
0 8 6 5
0 11 1 2
1
end_operator
begin_operator
fly plane1 city1 city3 fl1 fl0
0
2
0 8 1 0
0 11 1 3
1
end_operator
begin_operator
fly plane1 city1 city3 fl2 fl1
0
2
0 8 2 1
0 11 1 3
1
end_operator
begin_operator
fly plane1 city1 city3 fl3 fl2
0
2
0 8 3 2
0 11 1 3
1
end_operator
begin_operator
fly plane1 city1 city3 fl4 fl3
0
2
0 8 4 3
0 11 1 3
1
end_operator
begin_operator
fly plane1 city1 city3 fl5 fl4
0
2
0 8 5 4
0 11 1 3
1
end_operator
begin_operator
fly plane1 city1 city3 fl6 fl5
0
2
0 8 6 5
0 11 1 3
1
end_operator
begin_operator
fly plane1 city1 city4 fl1 fl0
0
2
0 8 1 0
0 11 1 4
1
end_operator
begin_operator
fly plane1 city1 city4 fl2 fl1
0
2
0 8 2 1
0 11 1 4
1
end_operator
begin_operator
fly plane1 city1 city4 fl3 fl2
0
2
0 8 3 2
0 11 1 4
1
end_operator
begin_operator
fly plane1 city1 city4 fl4 fl3
0
2
0 8 4 3
0 11 1 4
1
end_operator
begin_operator
fly plane1 city1 city4 fl5 fl4
0
2
0 8 5 4
0 11 1 4
1
end_operator
begin_operator
fly plane1 city1 city4 fl6 fl5
0
2
0 8 6 5
0 11 1 4
1
end_operator
begin_operator
fly plane1 city2 city0 fl1 fl0
0
2
0 8 1 0
0 11 2 0
1
end_operator
begin_operator
fly plane1 city2 city0 fl2 fl1
0
2
0 8 2 1
0 11 2 0
1
end_operator
begin_operator
fly plane1 city2 city0 fl3 fl2
0
2
0 8 3 2
0 11 2 0
1
end_operator
begin_operator
fly plane1 city2 city0 fl4 fl3
0
2
0 8 4 3
0 11 2 0
1
end_operator
begin_operator
fly plane1 city2 city0 fl5 fl4
0
2
0 8 5 4
0 11 2 0
1
end_operator
begin_operator
fly plane1 city2 city0 fl6 fl5
0
2
0 8 6 5
0 11 2 0
1
end_operator
begin_operator
fly plane1 city2 city1 fl1 fl0
0
2
0 8 1 0
0 11 2 1
1
end_operator
begin_operator
fly plane1 city2 city1 fl2 fl1
0
2
0 8 2 1
0 11 2 1
1
end_operator
begin_operator
fly plane1 city2 city1 fl3 fl2
0
2
0 8 3 2
0 11 2 1
1
end_operator
begin_operator
fly plane1 city2 city1 fl4 fl3
0
2
0 8 4 3
0 11 2 1
1
end_operator
begin_operator
fly plane1 city2 city1 fl5 fl4
0
2
0 8 5 4
0 11 2 1
1
end_operator
begin_operator
fly plane1 city2 city1 fl6 fl5
0
2
0 8 6 5
0 11 2 1
1
end_operator
begin_operator
fly plane1 city2 city2 fl1 fl0
1
11 2
1
0 8 1 0
1
end_operator
begin_operator
fly plane1 city2 city2 fl2 fl1
1
11 2
1
0 8 2 1
1
end_operator
begin_operator
fly plane1 city2 city2 fl3 fl2
1
11 2
1
0 8 3 2
1
end_operator
begin_operator
fly plane1 city2 city2 fl4 fl3
1
11 2
1
0 8 4 3
1
end_operator
begin_operator
fly plane1 city2 city2 fl5 fl4
1
11 2
1
0 8 5 4
1
end_operator
begin_operator
fly plane1 city2 city2 fl6 fl5
1
11 2
1
0 8 6 5
1
end_operator
begin_operator
fly plane1 city2 city3 fl1 fl0
0
2
0 8 1 0
0 11 2 3
1
end_operator
begin_operator
fly plane1 city2 city3 fl2 fl1
0
2
0 8 2 1
0 11 2 3
1
end_operator
begin_operator
fly plane1 city2 city3 fl3 fl2
0
2
0 8 3 2
0 11 2 3
1
end_operator
begin_operator
fly plane1 city2 city3 fl4 fl3
0
2
0 8 4 3
0 11 2 3
1
end_operator
begin_operator
fly plane1 city2 city3 fl5 fl4
0
2
0 8 5 4
0 11 2 3
1
end_operator
begin_operator
fly plane1 city2 city3 fl6 fl5
0
2
0 8 6 5
0 11 2 3
1
end_operator
begin_operator
fly plane1 city2 city4 fl1 fl0
0
2
0 8 1 0
0 11 2 4
1
end_operator
begin_operator
fly plane1 city2 city4 fl2 fl1
0
2
0 8 2 1
0 11 2 4
1
end_operator
begin_operator
fly plane1 city2 city4 fl3 fl2
0
2
0 8 3 2
0 11 2 4
1
end_operator
begin_operator
fly plane1 city2 city4 fl4 fl3
0
2
0 8 4 3
0 11 2 4
1
end_operator
begin_operator
fly plane1 city2 city4 fl5 fl4
0
2
0 8 5 4
0 11 2 4
1
end_operator
begin_operator
fly plane1 city2 city4 fl6 fl5
0
2
0 8 6 5
0 11 2 4
1
end_operator
begin_operator
fly plane1 city3 city0 fl1 fl0
0
2
0 8 1 0
0 11 3 0
1
end_operator
begin_operator
fly plane1 city3 city0 fl2 fl1
0
2
0 8 2 1
0 11 3 0
1
end_operator
begin_operator
fly plane1 city3 city0 fl3 fl2
0
2
0 8 3 2
0 11 3 0
1
end_operator
begin_operator
fly plane1 city3 city0 fl4 fl3
0
2
0 8 4 3
0 11 3 0
1
end_operator
begin_operator
fly plane1 city3 city0 fl5 fl4
0
2
0 8 5 4
0 11 3 0
1
end_operator
begin_operator
fly plane1 city3 city0 fl6 fl5
0
2
0 8 6 5
0 11 3 0
1
end_operator
begin_operator
fly plane1 city3 city1 fl1 fl0
0
2
0 8 1 0
0 11 3 1
1
end_operator
begin_operator
fly plane1 city3 city1 fl2 fl1
0
2
0 8 2 1
0 11 3 1
1
end_operator
begin_operator
fly plane1 city3 city1 fl3 fl2
0
2
0 8 3 2
0 11 3 1
1
end_operator
begin_operator
fly plane1 city3 city1 fl4 fl3
0
2
0 8 4 3
0 11 3 1
1
end_operator
begin_operator
fly plane1 city3 city1 fl5 fl4
0
2
0 8 5 4
0 11 3 1
1
end_operator
begin_operator
fly plane1 city3 city1 fl6 fl5
0
2
0 8 6 5
0 11 3 1
1
end_operator
begin_operator
fly plane1 city3 city2 fl1 fl0
0
2
0 8 1 0
0 11 3 2
1
end_operator
begin_operator
fly plane1 city3 city2 fl2 fl1
0
2
0 8 2 1
0 11 3 2
1
end_operator
begin_operator
fly plane1 city3 city2 fl3 fl2
0
2
0 8 3 2
0 11 3 2
1
end_operator
begin_operator
fly plane1 city3 city2 fl4 fl3
0
2
0 8 4 3
0 11 3 2
1
end_operator
begin_operator
fly plane1 city3 city2 fl5 fl4
0
2
0 8 5 4
0 11 3 2
1
end_operator
begin_operator
fly plane1 city3 city2 fl6 fl5
0
2
0 8 6 5
0 11 3 2
1
end_operator
begin_operator
fly plane1 city3 city3 fl1 fl0
1
11 3
1
0 8 1 0
1
end_operator
begin_operator
fly plane1 city3 city3 fl2 fl1
1
11 3
1
0 8 2 1
1
end_operator
begin_operator
fly plane1 city3 city3 fl3 fl2
1
11 3
1
0 8 3 2
1
end_operator
begin_operator
fly plane1 city3 city3 fl4 fl3
1
11 3
1
0 8 4 3
1
end_operator
begin_operator
fly plane1 city3 city3 fl5 fl4
1
11 3
1
0 8 5 4
1
end_operator
begin_operator
fly plane1 city3 city3 fl6 fl5
1
11 3
1
0 8 6 5
1
end_operator
begin_operator
fly plane1 city3 city4 fl1 fl0
0
2
0 8 1 0
0 11 3 4
1
end_operator
begin_operator
fly plane1 city3 city4 fl2 fl1
0
2
0 8 2 1
0 11 3 4
1
end_operator
begin_operator
fly plane1 city3 city4 fl3 fl2
0
2
0 8 3 2
0 11 3 4
1
end_operator
begin_operator
fly plane1 city3 city4 fl4 fl3
0
2
0 8 4 3
0 11 3 4
1
end_operator
begin_operator
fly plane1 city3 city4 fl5 fl4
0
2
0 8 5 4
0 11 3 4
1
end_operator
begin_operator
fly plane1 city3 city4 fl6 fl5
0
2
0 8 6 5
0 11 3 4
1
end_operator
begin_operator
fly plane1 city4 city0 fl1 fl0
0
2
0 8 1 0
0 11 4 0
1
end_operator
begin_operator
fly plane1 city4 city0 fl2 fl1
0
2
0 8 2 1
0 11 4 0
1
end_operator
begin_operator
fly plane1 city4 city0 fl3 fl2
0
2
0 8 3 2
0 11 4 0
1
end_operator
begin_operator
fly plane1 city4 city0 fl4 fl3
0
2
0 8 4 3
0 11 4 0
1
end_operator
begin_operator
fly plane1 city4 city0 fl5 fl4
0
2
0 8 5 4
0 11 4 0
1
end_operator
begin_operator
fly plane1 city4 city0 fl6 fl5
0
2
0 8 6 5
0 11 4 0
1
end_operator
begin_operator
fly plane1 city4 city1 fl1 fl0
0
2
0 8 1 0
0 11 4 1
1
end_operator
begin_operator
fly plane1 city4 city1 fl2 fl1
0
2
0 8 2 1
0 11 4 1
1
end_operator
begin_operator
fly plane1 city4 city1 fl3 fl2
0
2
0 8 3 2
0 11 4 1
1
end_operator
begin_operator
fly plane1 city4 city1 fl4 fl3
0
2
0 8 4 3
0 11 4 1
1
end_operator
begin_operator
fly plane1 city4 city1 fl5 fl4
0
2
0 8 5 4
0 11 4 1
1
end_operator
begin_operator
fly plane1 city4 city1 fl6 fl5
0
2
0 8 6 5
0 11 4 1
1
end_operator
begin_operator
fly plane1 city4 city2 fl1 fl0
0
2
0 8 1 0
0 11 4 2
1
end_operator
begin_operator
fly plane1 city4 city2 fl2 fl1
0
2
0 8 2 1
0 11 4 2
1
end_operator
begin_operator
fly plane1 city4 city2 fl3 fl2
0
2
0 8 3 2
0 11 4 2
1
end_operator
begin_operator
fly plane1 city4 city2 fl4 fl3
0
2
0 8 4 3
0 11 4 2
1
end_operator
begin_operator
fly plane1 city4 city2 fl5 fl4
0
2
0 8 5 4
0 11 4 2
1
end_operator
begin_operator
fly plane1 city4 city2 fl6 fl5
0
2
0 8 6 5
0 11 4 2
1
end_operator
begin_operator
fly plane1 city4 city3 fl1 fl0
0
2
0 8 1 0
0 11 4 3
1
end_operator
begin_operator
fly plane1 city4 city3 fl2 fl1
0
2
0 8 2 1
0 11 4 3
1
end_operator
begin_operator
fly plane1 city4 city3 fl3 fl2
0
2
0 8 3 2
0 11 4 3
1
end_operator
begin_operator
fly plane1 city4 city3 fl4 fl3
0
2
0 8 4 3
0 11 4 3
1
end_operator
begin_operator
fly plane1 city4 city3 fl5 fl4
0
2
0 8 5 4
0 11 4 3
1
end_operator
begin_operator
fly plane1 city4 city3 fl6 fl5
0
2
0 8 6 5
0 11 4 3
1
end_operator
begin_operator
fly plane1 city4 city4 fl1 fl0
1
11 4
1
0 8 1 0
1
end_operator
begin_operator
fly plane1 city4 city4 fl2 fl1
1
11 4
1
0 8 2 1
1
end_operator
begin_operator
fly plane1 city4 city4 fl3 fl2
1
11 4
1
0 8 3 2
1
end_operator
begin_operator
fly plane1 city4 city4 fl4 fl3
1
11 4
1
0 8 4 3
1
end_operator
begin_operator
fly plane1 city4 city4 fl5 fl4
1
11 4
1
0 8 5 4
1
end_operator
begin_operator
fly plane1 city4 city4 fl6 fl5
1
11 4
1
0 8 6 5
1
end_operator
begin_operator
fly plane2 city0 city0 fl1 fl0
1
12 0
1
0 9 1 0
1
end_operator
begin_operator
fly plane2 city0 city0 fl2 fl1
1
12 0
1
0 9 2 1
1
end_operator
begin_operator
fly plane2 city0 city0 fl3 fl2
1
12 0
1
0 9 3 2
1
end_operator
begin_operator
fly plane2 city0 city0 fl4 fl3
1
12 0
1
0 9 4 3
1
end_operator
begin_operator
fly plane2 city0 city0 fl5 fl4
1
12 0
1
0 9 5 4
1
end_operator
begin_operator
fly plane2 city0 city0 fl6 fl5
1
12 0
1
0 9 6 5
1
end_operator
begin_operator
fly plane2 city0 city1 fl1 fl0
0
2
0 9 1 0
0 12 0 1
1
end_operator
begin_operator
fly plane2 city0 city1 fl2 fl1
0
2
0 9 2 1
0 12 0 1
1
end_operator
begin_operator
fly plane2 city0 city1 fl3 fl2
0
2
0 9 3 2
0 12 0 1
1
end_operator
begin_operator
fly plane2 city0 city1 fl4 fl3
0
2
0 9 4 3
0 12 0 1
1
end_operator
begin_operator
fly plane2 city0 city1 fl5 fl4
0
2
0 9 5 4
0 12 0 1
1
end_operator
begin_operator
fly plane2 city0 city1 fl6 fl5
0
2
0 9 6 5
0 12 0 1
1
end_operator
begin_operator
fly plane2 city0 city2 fl1 fl0
0
2
0 9 1 0
0 12 0 2
1
end_operator
begin_operator
fly plane2 city0 city2 fl2 fl1
0
2
0 9 2 1
0 12 0 2
1
end_operator
begin_operator
fly plane2 city0 city2 fl3 fl2
0
2
0 9 3 2
0 12 0 2
1
end_operator
begin_operator
fly plane2 city0 city2 fl4 fl3
0
2
0 9 4 3
0 12 0 2
1
end_operator
begin_operator
fly plane2 city0 city2 fl5 fl4
0
2
0 9 5 4
0 12 0 2
1
end_operator
begin_operator
fly plane2 city0 city2 fl6 fl5
0
2
0 9 6 5
0 12 0 2
1
end_operator
begin_operator
fly plane2 city0 city3 fl1 fl0
0
2
0 9 1 0
0 12 0 3
1
end_operator
begin_operator
fly plane2 city0 city3 fl2 fl1
0
2
0 9 2 1
0 12 0 3
1
end_operator
begin_operator
fly plane2 city0 city3 fl3 fl2
0
2
0 9 3 2
0 12 0 3
1
end_operator
begin_operator
fly plane2 city0 city3 fl4 fl3
0
2
0 9 4 3
0 12 0 3
1
end_operator
begin_operator
fly plane2 city0 city3 fl5 fl4
0
2
0 9 5 4
0 12 0 3
1
end_operator
begin_operator
fly plane2 city0 city3 fl6 fl5
0
2
0 9 6 5
0 12 0 3
1
end_operator
begin_operator
fly plane2 city0 city4 fl1 fl0
0
2
0 9 1 0
0 12 0 4
1
end_operator
begin_operator
fly plane2 city0 city4 fl2 fl1
0
2
0 9 2 1
0 12 0 4
1
end_operator
begin_operator
fly plane2 city0 city4 fl3 fl2
0
2
0 9 3 2
0 12 0 4
1
end_operator
begin_operator
fly plane2 city0 city4 fl4 fl3
0
2
0 9 4 3
0 12 0 4
1
end_operator
begin_operator
fly plane2 city0 city4 fl5 fl4
0
2
0 9 5 4
0 12 0 4
1
end_operator
begin_operator
fly plane2 city0 city4 fl6 fl5
0
2
0 9 6 5
0 12 0 4
1
end_operator
begin_operator
fly plane2 city1 city0 fl1 fl0
0
2
0 9 1 0
0 12 1 0
1
end_operator
begin_operator
fly plane2 city1 city0 fl2 fl1
0
2
0 9 2 1
0 12 1 0
1
end_operator
begin_operator
fly plane2 city1 city0 fl3 fl2
0
2
0 9 3 2
0 12 1 0
1
end_operator
begin_operator
fly plane2 city1 city0 fl4 fl3
0
2
0 9 4 3
0 12 1 0
1
end_operator
begin_operator
fly plane2 city1 city0 fl5 fl4
0
2
0 9 5 4
0 12 1 0
1
end_operator
begin_operator
fly plane2 city1 city0 fl6 fl5
0
2
0 9 6 5
0 12 1 0
1
end_operator
begin_operator
fly plane2 city1 city1 fl1 fl0
1
12 1
1
0 9 1 0
1
end_operator
begin_operator
fly plane2 city1 city1 fl2 fl1
1
12 1
1
0 9 2 1
1
end_operator
begin_operator
fly plane2 city1 city1 fl3 fl2
1
12 1
1
0 9 3 2
1
end_operator
begin_operator
fly plane2 city1 city1 fl4 fl3
1
12 1
1
0 9 4 3
1
end_operator
begin_operator
fly plane2 city1 city1 fl5 fl4
1
12 1
1
0 9 5 4
1
end_operator
begin_operator
fly plane2 city1 city1 fl6 fl5
1
12 1
1
0 9 6 5
1
end_operator
begin_operator
fly plane2 city1 city2 fl1 fl0
0
2
0 9 1 0
0 12 1 2
1
end_operator
begin_operator
fly plane2 city1 city2 fl2 fl1
0
2
0 9 2 1
0 12 1 2
1
end_operator
begin_operator
fly plane2 city1 city2 fl3 fl2
0
2
0 9 3 2
0 12 1 2
1
end_operator
begin_operator
fly plane2 city1 city2 fl4 fl3
0
2
0 9 4 3
0 12 1 2
1
end_operator
begin_operator
fly plane2 city1 city2 fl5 fl4
0
2
0 9 5 4
0 12 1 2
1
end_operator
begin_operator
fly plane2 city1 city2 fl6 fl5
0
2
0 9 6 5
0 12 1 2
1
end_operator
begin_operator
fly plane2 city1 city3 fl1 fl0
0
2
0 9 1 0
0 12 1 3
1
end_operator
begin_operator
fly plane2 city1 city3 fl2 fl1
0
2
0 9 2 1
0 12 1 3
1
end_operator
begin_operator
fly plane2 city1 city3 fl3 fl2
0
2
0 9 3 2
0 12 1 3
1
end_operator
begin_operator
fly plane2 city1 city3 fl4 fl3
0
2
0 9 4 3
0 12 1 3
1
end_operator
begin_operator
fly plane2 city1 city3 fl5 fl4
0
2
0 9 5 4
0 12 1 3
1
end_operator
begin_operator
fly plane2 city1 city3 fl6 fl5
0
2
0 9 6 5
0 12 1 3
1
end_operator
begin_operator
fly plane2 city1 city4 fl1 fl0
0
2
0 9 1 0
0 12 1 4
1
end_operator
begin_operator
fly plane2 city1 city4 fl2 fl1
0
2
0 9 2 1
0 12 1 4
1
end_operator
begin_operator
fly plane2 city1 city4 fl3 fl2
0
2
0 9 3 2
0 12 1 4
1
end_operator
begin_operator
fly plane2 city1 city4 fl4 fl3
0
2
0 9 4 3
0 12 1 4
1
end_operator
begin_operator
fly plane2 city1 city4 fl5 fl4
0
2
0 9 5 4
0 12 1 4
1
end_operator
begin_operator
fly plane2 city1 city4 fl6 fl5
0
2
0 9 6 5
0 12 1 4
1
end_operator
begin_operator
fly plane2 city2 city0 fl1 fl0
0
2
0 9 1 0
0 12 2 0
1
end_operator
begin_operator
fly plane2 city2 city0 fl2 fl1
0
2
0 9 2 1
0 12 2 0
1
end_operator
begin_operator
fly plane2 city2 city0 fl3 fl2
0
2
0 9 3 2
0 12 2 0
1
end_operator
begin_operator
fly plane2 city2 city0 fl4 fl3
0
2
0 9 4 3
0 12 2 0
1
end_operator
begin_operator
fly plane2 city2 city0 fl5 fl4
0
2
0 9 5 4
0 12 2 0
1
end_operator
begin_operator
fly plane2 city2 city0 fl6 fl5
0
2
0 9 6 5
0 12 2 0
1
end_operator
begin_operator
fly plane2 city2 city1 fl1 fl0
0
2
0 9 1 0
0 12 2 1
1
end_operator
begin_operator
fly plane2 city2 city1 fl2 fl1
0
2
0 9 2 1
0 12 2 1
1
end_operator
begin_operator
fly plane2 city2 city1 fl3 fl2
0
2
0 9 3 2
0 12 2 1
1
end_operator
begin_operator
fly plane2 city2 city1 fl4 fl3
0
2
0 9 4 3
0 12 2 1
1
end_operator
begin_operator
fly plane2 city2 city1 fl5 fl4
0
2
0 9 5 4
0 12 2 1
1
end_operator
begin_operator
fly plane2 city2 city1 fl6 fl5
0
2
0 9 6 5
0 12 2 1
1
end_operator
begin_operator
fly plane2 city2 city2 fl1 fl0
1
12 2
1
0 9 1 0
1
end_operator
begin_operator
fly plane2 city2 city2 fl2 fl1
1
12 2
1
0 9 2 1
1
end_operator
begin_operator
fly plane2 city2 city2 fl3 fl2
1
12 2
1
0 9 3 2
1
end_operator
begin_operator
fly plane2 city2 city2 fl4 fl3
1
12 2
1
0 9 4 3
1
end_operator
begin_operator
fly plane2 city2 city2 fl5 fl4
1
12 2
1
0 9 5 4
1
end_operator
begin_operator
fly plane2 city2 city2 fl6 fl5
1
12 2
1
0 9 6 5
1
end_operator
begin_operator
fly plane2 city2 city3 fl1 fl0
0
2
0 9 1 0
0 12 2 3
1
end_operator
begin_operator
fly plane2 city2 city3 fl2 fl1
0
2
0 9 2 1
0 12 2 3
1
end_operator
begin_operator
fly plane2 city2 city3 fl3 fl2
0
2
0 9 3 2
0 12 2 3
1
end_operator
begin_operator
fly plane2 city2 city3 fl4 fl3
0
2
0 9 4 3
0 12 2 3
1
end_operator
begin_operator
fly plane2 city2 city3 fl5 fl4
0
2
0 9 5 4
0 12 2 3
1
end_operator
begin_operator
fly plane2 city2 city3 fl6 fl5
0
2
0 9 6 5
0 12 2 3
1
end_operator
begin_operator
fly plane2 city2 city4 fl1 fl0
0
2
0 9 1 0
0 12 2 4
1
end_operator
begin_operator
fly plane2 city2 city4 fl2 fl1
0
2
0 9 2 1
0 12 2 4
1
end_operator
begin_operator
fly plane2 city2 city4 fl3 fl2
0
2
0 9 3 2
0 12 2 4
1
end_operator
begin_operator
fly plane2 city2 city4 fl4 fl3
0
2
0 9 4 3
0 12 2 4
1
end_operator
begin_operator
fly plane2 city2 city4 fl5 fl4
0
2
0 9 5 4
0 12 2 4
1
end_operator
begin_operator
fly plane2 city2 city4 fl6 fl5
0
2
0 9 6 5
0 12 2 4
1
end_operator
begin_operator
fly plane2 city3 city0 fl1 fl0
0
2
0 9 1 0
0 12 3 0
1
end_operator
begin_operator
fly plane2 city3 city0 fl2 fl1
0
2
0 9 2 1
0 12 3 0
1
end_operator
begin_operator
fly plane2 city3 city0 fl3 fl2
0
2
0 9 3 2
0 12 3 0
1
end_operator
begin_operator
fly plane2 city3 city0 fl4 fl3
0
2
0 9 4 3
0 12 3 0
1
end_operator
begin_operator
fly plane2 city3 city0 fl5 fl4
0
2
0 9 5 4
0 12 3 0
1
end_operator
begin_operator
fly plane2 city3 city0 fl6 fl5
0
2
0 9 6 5
0 12 3 0
1
end_operator
begin_operator
fly plane2 city3 city1 fl1 fl0
0
2
0 9 1 0
0 12 3 1
1
end_operator
begin_operator
fly plane2 city3 city1 fl2 fl1
0
2
0 9 2 1
0 12 3 1
1
end_operator
begin_operator
fly plane2 city3 city1 fl3 fl2
0
2
0 9 3 2
0 12 3 1
1
end_operator
begin_operator
fly plane2 city3 city1 fl4 fl3
0
2
0 9 4 3
0 12 3 1
1
end_operator
begin_operator
fly plane2 city3 city1 fl5 fl4
0
2
0 9 5 4
0 12 3 1
1
end_operator
begin_operator
fly plane2 city3 city1 fl6 fl5
0
2
0 9 6 5
0 12 3 1
1
end_operator
begin_operator
fly plane2 city3 city2 fl1 fl0
0
2
0 9 1 0
0 12 3 2
1
end_operator
begin_operator
fly plane2 city3 city2 fl2 fl1
0
2
0 9 2 1
0 12 3 2
1
end_operator
begin_operator
fly plane2 city3 city2 fl3 fl2
0
2
0 9 3 2
0 12 3 2
1
end_operator
begin_operator
fly plane2 city3 city2 fl4 fl3
0
2
0 9 4 3
0 12 3 2
1
end_operator
begin_operator
fly plane2 city3 city2 fl5 fl4
0
2
0 9 5 4
0 12 3 2
1
end_operator
begin_operator
fly plane2 city3 city2 fl6 fl5
0
2
0 9 6 5
0 12 3 2
1
end_operator
begin_operator
fly plane2 city3 city3 fl1 fl0
1
12 3
1
0 9 1 0
1
end_operator
begin_operator
fly plane2 city3 city3 fl2 fl1
1
12 3
1
0 9 2 1
1
end_operator
begin_operator
fly plane2 city3 city3 fl3 fl2
1
12 3
1
0 9 3 2
1
end_operator
begin_operator
fly plane2 city3 city3 fl4 fl3
1
12 3
1
0 9 4 3
1
end_operator
begin_operator
fly plane2 city3 city3 fl5 fl4
1
12 3
1
0 9 5 4
1
end_operator
begin_operator
fly plane2 city3 city3 fl6 fl5
1
12 3
1
0 9 6 5
1
end_operator
begin_operator
fly plane2 city3 city4 fl1 fl0
0
2
0 9 1 0
0 12 3 4
1
end_operator
begin_operator
fly plane2 city3 city4 fl2 fl1
0
2
0 9 2 1
0 12 3 4
1
end_operator
begin_operator
fly plane2 city3 city4 fl3 fl2
0
2
0 9 3 2
0 12 3 4
1
end_operator
begin_operator
fly plane2 city3 city4 fl4 fl3
0
2
0 9 4 3
0 12 3 4
1
end_operator
begin_operator
fly plane2 city3 city4 fl5 fl4
0
2
0 9 5 4
0 12 3 4
1
end_operator
begin_operator
fly plane2 city3 city4 fl6 fl5
0
2
0 9 6 5
0 12 3 4
1
end_operator
begin_operator
fly plane2 city4 city0 fl1 fl0
0
2
0 9 1 0
0 12 4 0
1
end_operator
begin_operator
fly plane2 city4 city0 fl2 fl1
0
2
0 9 2 1
0 12 4 0
1
end_operator
begin_operator
fly plane2 city4 city0 fl3 fl2
0
2
0 9 3 2
0 12 4 0
1
end_operator
begin_operator
fly plane2 city4 city0 fl4 fl3
0
2
0 9 4 3
0 12 4 0
1
end_operator
begin_operator
fly plane2 city4 city0 fl5 fl4
0
2
0 9 5 4
0 12 4 0
1
end_operator
begin_operator
fly plane2 city4 city0 fl6 fl5
0
2
0 9 6 5
0 12 4 0
1
end_operator
begin_operator
fly plane2 city4 city1 fl1 fl0
0
2
0 9 1 0
0 12 4 1
1
end_operator
begin_operator
fly plane2 city4 city1 fl2 fl1
0
2
0 9 2 1
0 12 4 1
1
end_operator
begin_operator
fly plane2 city4 city1 fl3 fl2
0
2
0 9 3 2
0 12 4 1
1
end_operator
begin_operator
fly plane2 city4 city1 fl4 fl3
0
2
0 9 4 3
0 12 4 1
1
end_operator
begin_operator
fly plane2 city4 city1 fl5 fl4
0
2
0 9 5 4
0 12 4 1
1
end_operator
begin_operator
fly plane2 city4 city1 fl6 fl5
0
2
0 9 6 5
0 12 4 1
1
end_operator
begin_operator
fly plane2 city4 city2 fl1 fl0
0
2
0 9 1 0
0 12 4 2
1
end_operator
begin_operator
fly plane2 city4 city2 fl2 fl1
0
2
0 9 2 1
0 12 4 2
1
end_operator
begin_operator
fly plane2 city4 city2 fl3 fl2
0
2
0 9 3 2
0 12 4 2
1
end_operator
begin_operator
fly plane2 city4 city2 fl4 fl3
0
2
0 9 4 3
0 12 4 2
1
end_operator
begin_operator
fly plane2 city4 city2 fl5 fl4
0
2
0 9 5 4
0 12 4 2
1
end_operator
begin_operator
fly plane2 city4 city2 fl6 fl5
0
2
0 9 6 5
0 12 4 2
1
end_operator
begin_operator
fly plane2 city4 city3 fl1 fl0
0
2
0 9 1 0
0 12 4 3
1
end_operator
begin_operator
fly plane2 city4 city3 fl2 fl1
0
2
0 9 2 1
0 12 4 3
1
end_operator
begin_operator
fly plane2 city4 city3 fl3 fl2
0
2
0 9 3 2
0 12 4 3
1
end_operator
begin_operator
fly plane2 city4 city3 fl4 fl3
0
2
0 9 4 3
0 12 4 3
1
end_operator
begin_operator
fly plane2 city4 city3 fl5 fl4
0
2
0 9 5 4
0 12 4 3
1
end_operator
begin_operator
fly plane2 city4 city3 fl6 fl5
0
2
0 9 6 5
0 12 4 3
1
end_operator
begin_operator
fly plane2 city4 city4 fl1 fl0
1
12 4
1
0 9 1 0
1
end_operator
begin_operator
fly plane2 city4 city4 fl2 fl1
1
12 4
1
0 9 2 1
1
end_operator
begin_operator
fly plane2 city4 city4 fl3 fl2
1
12 4
1
0 9 3 2
1
end_operator
begin_operator
fly plane2 city4 city4 fl4 fl3
1
12 4
1
0 9 4 3
1
end_operator
begin_operator
fly plane2 city4 city4 fl5 fl4
1
12 4
1
0 9 5 4
1
end_operator
begin_operator
fly plane2 city4 city4 fl6 fl5
1
12 4
1
0 9 6 5
1
end_operator
begin_operator
fly plane3 city0 city0 fl1 fl0
1
13 0
1
0 10 1 0
1
end_operator
begin_operator
fly plane3 city0 city0 fl2 fl1
1
13 0
1
0 10 2 1
1
end_operator
begin_operator
fly plane3 city0 city0 fl3 fl2
1
13 0
1
0 10 3 2
1
end_operator
begin_operator
fly plane3 city0 city0 fl4 fl3
1
13 0
1
0 10 4 3
1
end_operator
begin_operator
fly plane3 city0 city0 fl5 fl4
1
13 0
1
0 10 5 4
1
end_operator
begin_operator
fly plane3 city0 city0 fl6 fl5
1
13 0
1
0 10 6 5
1
end_operator
begin_operator
fly plane3 city0 city1 fl1 fl0
0
2
0 10 1 0
0 13 0 1
1
end_operator
begin_operator
fly plane3 city0 city1 fl2 fl1
0
2
0 10 2 1
0 13 0 1
1
end_operator
begin_operator
fly plane3 city0 city1 fl3 fl2
0
2
0 10 3 2
0 13 0 1
1
end_operator
begin_operator
fly plane3 city0 city1 fl4 fl3
0
2
0 10 4 3
0 13 0 1
1
end_operator
begin_operator
fly plane3 city0 city1 fl5 fl4
0
2
0 10 5 4
0 13 0 1
1
end_operator
begin_operator
fly plane3 city0 city1 fl6 fl5
0
2
0 10 6 5
0 13 0 1
1
end_operator
begin_operator
fly plane3 city0 city2 fl1 fl0
0
2
0 10 1 0
0 13 0 2
1
end_operator
begin_operator
fly plane3 city0 city2 fl2 fl1
0
2
0 10 2 1
0 13 0 2
1
end_operator
begin_operator
fly plane3 city0 city2 fl3 fl2
0
2
0 10 3 2
0 13 0 2
1
end_operator
begin_operator
fly plane3 city0 city2 fl4 fl3
0
2
0 10 4 3
0 13 0 2
1
end_operator
begin_operator
fly plane3 city0 city2 fl5 fl4
0
2
0 10 5 4
0 13 0 2
1
end_operator
begin_operator
fly plane3 city0 city2 fl6 fl5
0
2
0 10 6 5
0 13 0 2
1
end_operator
begin_operator
fly plane3 city0 city3 fl1 fl0
0
2
0 10 1 0
0 13 0 3
1
end_operator
begin_operator
fly plane3 city0 city3 fl2 fl1
0
2
0 10 2 1
0 13 0 3
1
end_operator
begin_operator
fly plane3 city0 city3 fl3 fl2
0
2
0 10 3 2
0 13 0 3
1
end_operator
begin_operator
fly plane3 city0 city3 fl4 fl3
0
2
0 10 4 3
0 13 0 3
1
end_operator
begin_operator
fly plane3 city0 city3 fl5 fl4
0
2
0 10 5 4
0 13 0 3
1
end_operator
begin_operator
fly plane3 city0 city3 fl6 fl5
0
2
0 10 6 5
0 13 0 3
1
end_operator
begin_operator
fly plane3 city0 city4 fl1 fl0
0
2
0 10 1 0
0 13 0 4
1
end_operator
begin_operator
fly plane3 city0 city4 fl2 fl1
0
2
0 10 2 1
0 13 0 4
1
end_operator
begin_operator
fly plane3 city0 city4 fl3 fl2
0
2
0 10 3 2
0 13 0 4
1
end_operator
begin_operator
fly plane3 city0 city4 fl4 fl3
0
2
0 10 4 3
0 13 0 4
1
end_operator
begin_operator
fly plane3 city0 city4 fl5 fl4
0
2
0 10 5 4
0 13 0 4
1
end_operator
begin_operator
fly plane3 city0 city4 fl6 fl5
0
2
0 10 6 5
0 13 0 4
1
end_operator
begin_operator
fly plane3 city1 city0 fl1 fl0
0
2
0 10 1 0
0 13 1 0
1
end_operator
begin_operator
fly plane3 city1 city0 fl2 fl1
0
2
0 10 2 1
0 13 1 0
1
end_operator
begin_operator
fly plane3 city1 city0 fl3 fl2
0
2
0 10 3 2
0 13 1 0
1
end_operator
begin_operator
fly plane3 city1 city0 fl4 fl3
0
2
0 10 4 3
0 13 1 0
1
end_operator
begin_operator
fly plane3 city1 city0 fl5 fl4
0
2
0 10 5 4
0 13 1 0
1
end_operator
begin_operator
fly plane3 city1 city0 fl6 fl5
0
2
0 10 6 5
0 13 1 0
1
end_operator
begin_operator
fly plane3 city1 city1 fl1 fl0
1
13 1
1
0 10 1 0
1
end_operator
begin_operator
fly plane3 city1 city1 fl2 fl1
1
13 1
1
0 10 2 1
1
end_operator
begin_operator
fly plane3 city1 city1 fl3 fl2
1
13 1
1
0 10 3 2
1
end_operator
begin_operator
fly plane3 city1 city1 fl4 fl3
1
13 1
1
0 10 4 3
1
end_operator
begin_operator
fly plane3 city1 city1 fl5 fl4
1
13 1
1
0 10 5 4
1
end_operator
begin_operator
fly plane3 city1 city1 fl6 fl5
1
13 1
1
0 10 6 5
1
end_operator
begin_operator
fly plane3 city1 city2 fl1 fl0
0
2
0 10 1 0
0 13 1 2
1
end_operator
begin_operator
fly plane3 city1 city2 fl2 fl1
0
2
0 10 2 1
0 13 1 2
1
end_operator
begin_operator
fly plane3 city1 city2 fl3 fl2
0
2
0 10 3 2
0 13 1 2
1
end_operator
begin_operator
fly plane3 city1 city2 fl4 fl3
0
2
0 10 4 3
0 13 1 2
1
end_operator
begin_operator
fly plane3 city1 city2 fl5 fl4
0
2
0 10 5 4
0 13 1 2
1
end_operator
begin_operator
fly plane3 city1 city2 fl6 fl5
0
2
0 10 6 5
0 13 1 2
1
end_operator
begin_operator
fly plane3 city1 city3 fl1 fl0
0
2
0 10 1 0
0 13 1 3
1
end_operator
begin_operator
fly plane3 city1 city3 fl2 fl1
0
2
0 10 2 1
0 13 1 3
1
end_operator
begin_operator
fly plane3 city1 city3 fl3 fl2
0
2
0 10 3 2
0 13 1 3
1
end_operator
begin_operator
fly plane3 city1 city3 fl4 fl3
0
2
0 10 4 3
0 13 1 3
1
end_operator
begin_operator
fly plane3 city1 city3 fl5 fl4
0
2
0 10 5 4
0 13 1 3
1
end_operator
begin_operator
fly plane3 city1 city3 fl6 fl5
0
2
0 10 6 5
0 13 1 3
1
end_operator
begin_operator
fly plane3 city1 city4 fl1 fl0
0
2
0 10 1 0
0 13 1 4
1
end_operator
begin_operator
fly plane3 city1 city4 fl2 fl1
0
2
0 10 2 1
0 13 1 4
1
end_operator
begin_operator
fly plane3 city1 city4 fl3 fl2
0
2
0 10 3 2
0 13 1 4
1
end_operator
begin_operator
fly plane3 city1 city4 fl4 fl3
0
2
0 10 4 3
0 13 1 4
1
end_operator
begin_operator
fly plane3 city1 city4 fl5 fl4
0
2
0 10 5 4
0 13 1 4
1
end_operator
begin_operator
fly plane3 city1 city4 fl6 fl5
0
2
0 10 6 5
0 13 1 4
1
end_operator
begin_operator
fly plane3 city2 city0 fl1 fl0
0
2
0 10 1 0
0 13 2 0
1
end_operator
begin_operator
fly plane3 city2 city0 fl2 fl1
0
2
0 10 2 1
0 13 2 0
1
end_operator
begin_operator
fly plane3 city2 city0 fl3 fl2
0
2
0 10 3 2
0 13 2 0
1
end_operator
begin_operator
fly plane3 city2 city0 fl4 fl3
0
2
0 10 4 3
0 13 2 0
1
end_operator
begin_operator
fly plane3 city2 city0 fl5 fl4
0
2
0 10 5 4
0 13 2 0
1
end_operator
begin_operator
fly plane3 city2 city0 fl6 fl5
0
2
0 10 6 5
0 13 2 0
1
end_operator
begin_operator
fly plane3 city2 city1 fl1 fl0
0
2
0 10 1 0
0 13 2 1
1
end_operator
begin_operator
fly plane3 city2 city1 fl2 fl1
0
2
0 10 2 1
0 13 2 1
1
end_operator
begin_operator
fly plane3 city2 city1 fl3 fl2
0
2
0 10 3 2
0 13 2 1
1
end_operator
begin_operator
fly plane3 city2 city1 fl4 fl3
0
2
0 10 4 3
0 13 2 1
1
end_operator
begin_operator
fly plane3 city2 city1 fl5 fl4
0
2
0 10 5 4
0 13 2 1
1
end_operator
begin_operator
fly plane3 city2 city1 fl6 fl5
0
2
0 10 6 5
0 13 2 1
1
end_operator
begin_operator
fly plane3 city2 city2 fl1 fl0
1
13 2
1
0 10 1 0
1
end_operator
begin_operator
fly plane3 city2 city2 fl2 fl1
1
13 2
1
0 10 2 1
1
end_operator
begin_operator
fly plane3 city2 city2 fl3 fl2
1
13 2
1
0 10 3 2
1
end_operator
begin_operator
fly plane3 city2 city2 fl4 fl3
1
13 2
1
0 10 4 3
1
end_operator
begin_operator
fly plane3 city2 city2 fl5 fl4
1
13 2
1
0 10 5 4
1
end_operator
begin_operator
fly plane3 city2 city2 fl6 fl5
1
13 2
1
0 10 6 5
1
end_operator
begin_operator
fly plane3 city2 city3 fl1 fl0
0
2
0 10 1 0
0 13 2 3
1
end_operator
begin_operator
fly plane3 city2 city3 fl2 fl1
0
2
0 10 2 1
0 13 2 3
1
end_operator
begin_operator
fly plane3 city2 city3 fl3 fl2
0
2
0 10 3 2
0 13 2 3
1
end_operator
begin_operator
fly plane3 city2 city3 fl4 fl3
0
2
0 10 4 3
0 13 2 3
1
end_operator
begin_operator
fly plane3 city2 city3 fl5 fl4
0
2
0 10 5 4
0 13 2 3
1
end_operator
begin_operator
fly plane3 city2 city3 fl6 fl5
0
2
0 10 6 5
0 13 2 3
1
end_operator
begin_operator
fly plane3 city2 city4 fl1 fl0
0
2
0 10 1 0
0 13 2 4
1
end_operator
begin_operator
fly plane3 city2 city4 fl2 fl1
0
2
0 10 2 1
0 13 2 4
1
end_operator
begin_operator
fly plane3 city2 city4 fl3 fl2
0
2
0 10 3 2
0 13 2 4
1
end_operator
begin_operator
fly plane3 city2 city4 fl4 fl3
0
2
0 10 4 3
0 13 2 4
1
end_operator
begin_operator
fly plane3 city2 city4 fl5 fl4
0
2
0 10 5 4
0 13 2 4
1
end_operator
begin_operator
fly plane3 city2 city4 fl6 fl5
0
2
0 10 6 5
0 13 2 4
1
end_operator
begin_operator
fly plane3 city3 city0 fl1 fl0
0
2
0 10 1 0
0 13 3 0
1
end_operator
begin_operator
fly plane3 city3 city0 fl2 fl1
0
2
0 10 2 1
0 13 3 0
1
end_operator
begin_operator
fly plane3 city3 city0 fl3 fl2
0
2
0 10 3 2
0 13 3 0
1
end_operator
begin_operator
fly plane3 city3 city0 fl4 fl3
0
2
0 10 4 3
0 13 3 0
1
end_operator
begin_operator
fly plane3 city3 city0 fl5 fl4
0
2
0 10 5 4
0 13 3 0
1
end_operator
begin_operator
fly plane3 city3 city0 fl6 fl5
0
2
0 10 6 5
0 13 3 0
1
end_operator
begin_operator
fly plane3 city3 city1 fl1 fl0
0
2
0 10 1 0
0 13 3 1
1
end_operator
begin_operator
fly plane3 city3 city1 fl2 fl1
0
2
0 10 2 1
0 13 3 1
1
end_operator
begin_operator
fly plane3 city3 city1 fl3 fl2
0
2
0 10 3 2
0 13 3 1
1
end_operator
begin_operator
fly plane3 city3 city1 fl4 fl3
0
2
0 10 4 3
0 13 3 1
1
end_operator
begin_operator
fly plane3 city3 city1 fl5 fl4
0
2
0 10 5 4
0 13 3 1
1
end_operator
begin_operator
fly plane3 city3 city1 fl6 fl5
0
2
0 10 6 5
0 13 3 1
1
end_operator
begin_operator
fly plane3 city3 city2 fl1 fl0
0
2
0 10 1 0
0 13 3 2
1
end_operator
begin_operator
fly plane3 city3 city2 fl2 fl1
0
2
0 10 2 1
0 13 3 2
1
end_operator
begin_operator
fly plane3 city3 city2 fl3 fl2
0
2
0 10 3 2
0 13 3 2
1
end_operator
begin_operator
fly plane3 city3 city2 fl4 fl3
0
2
0 10 4 3
0 13 3 2
1
end_operator
begin_operator
fly plane3 city3 city2 fl5 fl4
0
2
0 10 5 4
0 13 3 2
1
end_operator
begin_operator
fly plane3 city3 city2 fl6 fl5
0
2
0 10 6 5
0 13 3 2
1
end_operator
begin_operator
fly plane3 city3 city3 fl1 fl0
1
13 3
1
0 10 1 0
1
end_operator
begin_operator
fly plane3 city3 city3 fl2 fl1
1
13 3
1
0 10 2 1
1
end_operator
begin_operator
fly plane3 city3 city3 fl3 fl2
1
13 3
1
0 10 3 2
1
end_operator
begin_operator
fly plane3 city3 city3 fl4 fl3
1
13 3
1
0 10 4 3
1
end_operator
begin_operator
fly plane3 city3 city3 fl5 fl4
1
13 3
1
0 10 5 4
1
end_operator
begin_operator
fly plane3 city3 city3 fl6 fl5
1
13 3
1
0 10 6 5
1
end_operator
begin_operator
fly plane3 city3 city4 fl1 fl0
0
2
0 10 1 0
0 13 3 4
1
end_operator
begin_operator
fly plane3 city3 city4 fl2 fl1
0
2
0 10 2 1
0 13 3 4
1
end_operator
begin_operator
fly plane3 city3 city4 fl3 fl2
0
2
0 10 3 2
0 13 3 4
1
end_operator
begin_operator
fly plane3 city3 city4 fl4 fl3
0
2
0 10 4 3
0 13 3 4
1
end_operator
begin_operator
fly plane3 city3 city4 fl5 fl4
0
2
0 10 5 4
0 13 3 4
1
end_operator
begin_operator
fly plane3 city3 city4 fl6 fl5
0
2
0 10 6 5
0 13 3 4
1
end_operator
begin_operator
fly plane3 city4 city0 fl1 fl0
0
2
0 10 1 0
0 13 4 0
1
end_operator
begin_operator
fly plane3 city4 city0 fl2 fl1
0
2
0 10 2 1
0 13 4 0
1
end_operator
begin_operator
fly plane3 city4 city0 fl3 fl2
0
2
0 10 3 2
0 13 4 0
1
end_operator
begin_operator
fly plane3 city4 city0 fl4 fl3
0
2
0 10 4 3
0 13 4 0
1
end_operator
begin_operator
fly plane3 city4 city0 fl5 fl4
0
2
0 10 5 4
0 13 4 0
1
end_operator
begin_operator
fly plane3 city4 city0 fl6 fl5
0
2
0 10 6 5
0 13 4 0
1
end_operator
begin_operator
fly plane3 city4 city1 fl1 fl0
0
2
0 10 1 0
0 13 4 1
1
end_operator
begin_operator
fly plane3 city4 city1 fl2 fl1
0
2
0 10 2 1
0 13 4 1
1
end_operator
begin_operator
fly plane3 city4 city1 fl3 fl2
0
2
0 10 3 2
0 13 4 1
1
end_operator
begin_operator
fly plane3 city4 city1 fl4 fl3
0
2
0 10 4 3
0 13 4 1
1
end_operator
begin_operator
fly plane3 city4 city1 fl5 fl4
0
2
0 10 5 4
0 13 4 1
1
end_operator
begin_operator
fly plane3 city4 city1 fl6 fl5
0
2
0 10 6 5
0 13 4 1
1
end_operator
begin_operator
fly plane3 city4 city2 fl1 fl0
0
2
0 10 1 0
0 13 4 2
1
end_operator
begin_operator
fly plane3 city4 city2 fl2 fl1
0
2
0 10 2 1
0 13 4 2
1
end_operator
begin_operator
fly plane3 city4 city2 fl3 fl2
0
2
0 10 3 2
0 13 4 2
1
end_operator
begin_operator
fly plane3 city4 city2 fl4 fl3
0
2
0 10 4 3
0 13 4 2
1
end_operator
begin_operator
fly plane3 city4 city2 fl5 fl4
0
2
0 10 5 4
0 13 4 2
1
end_operator
begin_operator
fly plane3 city4 city2 fl6 fl5
0
2
0 10 6 5
0 13 4 2
1
end_operator
begin_operator
fly plane3 city4 city3 fl1 fl0
0
2
0 10 1 0
0 13 4 3
1
end_operator
begin_operator
fly plane3 city4 city3 fl2 fl1
0
2
0 10 2 1
0 13 4 3
1
end_operator
begin_operator
fly plane3 city4 city3 fl3 fl2
0
2
0 10 3 2
0 13 4 3
1
end_operator
begin_operator
fly plane3 city4 city3 fl4 fl3
0
2
0 10 4 3
0 13 4 3
1
end_operator
begin_operator
fly plane3 city4 city3 fl5 fl4
0
2
0 10 5 4
0 13 4 3
1
end_operator
begin_operator
fly plane3 city4 city3 fl6 fl5
0
2
0 10 6 5
0 13 4 3
1
end_operator
begin_operator
fly plane3 city4 city4 fl1 fl0
1
13 4
1
0 10 1 0
1
end_operator
begin_operator
fly plane3 city4 city4 fl2 fl1
1
13 4
1
0 10 2 1
1
end_operator
begin_operator
fly plane3 city4 city4 fl3 fl2
1
13 4
1
0 10 3 2
1
end_operator
begin_operator
fly plane3 city4 city4 fl4 fl3
1
13 4
1
0 10 4 3
1
end_operator
begin_operator
fly plane3 city4 city4 fl5 fl4
1
13 4
1
0 10 5 4
1
end_operator
begin_operator
fly plane3 city4 city4 fl6 fl5
1
13 4
1
0 10 6 5
1
end_operator
begin_operator
refuel plane1 city0 fl0 fl1
1
11 0
1
0 8 0 1
1
end_operator
begin_operator
refuel plane1 city0 fl1 fl2
1
11 0
1
0 8 1 2
1
end_operator
begin_operator
refuel plane1 city0 fl2 fl3
1
11 0
1
0 8 2 3
1
end_operator
begin_operator
refuel plane1 city0 fl3 fl4
1
11 0
1
0 8 3 4
1
end_operator
begin_operator
refuel plane1 city0 fl4 fl5
1
11 0
1
0 8 4 5
1
end_operator
begin_operator
refuel plane1 city0 fl5 fl6
1
11 0
1
0 8 5 6
1
end_operator
begin_operator
refuel plane1 city1 fl0 fl1
1
11 1
1
0 8 0 1
1
end_operator
begin_operator
refuel plane1 city1 fl1 fl2
1
11 1
1
0 8 1 2
1
end_operator
begin_operator
refuel plane1 city1 fl2 fl3
1
11 1
1
0 8 2 3
1
end_operator
begin_operator
refuel plane1 city1 fl3 fl4
1
11 1
1
0 8 3 4
1
end_operator
begin_operator
refuel plane1 city1 fl4 fl5
1
11 1
1
0 8 4 5
1
end_operator
begin_operator
refuel plane1 city1 fl5 fl6
1
11 1
1
0 8 5 6
1
end_operator
begin_operator
refuel plane1 city2 fl0 fl1
1
11 2
1
0 8 0 1
1
end_operator
begin_operator
refuel plane1 city2 fl1 fl2
1
11 2
1
0 8 1 2
1
end_operator
begin_operator
refuel plane1 city2 fl2 fl3
1
11 2
1
0 8 2 3
1
end_operator
begin_operator
refuel plane1 city2 fl3 fl4
1
11 2
1
0 8 3 4
1
end_operator
begin_operator
refuel plane1 city2 fl4 fl5
1
11 2
1
0 8 4 5
1
end_operator
begin_operator
refuel plane1 city2 fl5 fl6
1
11 2
1
0 8 5 6
1
end_operator
begin_operator
refuel plane1 city3 fl0 fl1
1
11 3
1
0 8 0 1
1
end_operator
begin_operator
refuel plane1 city3 fl1 fl2
1
11 3
1
0 8 1 2
1
end_operator
begin_operator
refuel plane1 city3 fl2 fl3
1
11 3
1
0 8 2 3
1
end_operator
begin_operator
refuel plane1 city3 fl3 fl4
1
11 3
1
0 8 3 4
1
end_operator
begin_operator
refuel plane1 city3 fl4 fl5
1
11 3
1
0 8 4 5
1
end_operator
begin_operator
refuel plane1 city3 fl5 fl6
1
11 3
1
0 8 5 6
1
end_operator
begin_operator
refuel plane1 city4 fl0 fl1
1
11 4
1
0 8 0 1
1
end_operator
begin_operator
refuel plane1 city4 fl1 fl2
1
11 4
1
0 8 1 2
1
end_operator
begin_operator
refuel plane1 city4 fl2 fl3
1
11 4
1
0 8 2 3
1
end_operator
begin_operator
refuel plane1 city4 fl3 fl4
1
11 4
1
0 8 3 4
1
end_operator
begin_operator
refuel plane1 city4 fl4 fl5
1
11 4
1
0 8 4 5
1
end_operator
begin_operator
refuel plane1 city4 fl5 fl6
1
11 4
1
0 8 5 6
1
end_operator
begin_operator
refuel plane2 city0 fl0 fl1
1
12 0
1
0 9 0 1
1
end_operator
begin_operator
refuel plane2 city0 fl1 fl2
1
12 0
1
0 9 1 2
1
end_operator
begin_operator
refuel plane2 city0 fl2 fl3
1
12 0
1
0 9 2 3
1
end_operator
begin_operator
refuel plane2 city0 fl3 fl4
1
12 0
1
0 9 3 4
1
end_operator
begin_operator
refuel plane2 city0 fl4 fl5
1
12 0
1
0 9 4 5
1
end_operator
begin_operator
refuel plane2 city0 fl5 fl6
1
12 0
1
0 9 5 6
1
end_operator
begin_operator
refuel plane2 city1 fl0 fl1
1
12 1
1
0 9 0 1
1
end_operator
begin_operator
refuel plane2 city1 fl1 fl2
1
12 1
1
0 9 1 2
1
end_operator
begin_operator
refuel plane2 city1 fl2 fl3
1
12 1
1
0 9 2 3
1
end_operator
begin_operator
refuel plane2 city1 fl3 fl4
1
12 1
1
0 9 3 4
1
end_operator
begin_operator
refuel plane2 city1 fl4 fl5
1
12 1
1
0 9 4 5
1
end_operator
begin_operator
refuel plane2 city1 fl5 fl6
1
12 1
1
0 9 5 6
1
end_operator
begin_operator
refuel plane2 city2 fl0 fl1
1
12 2
1
0 9 0 1
1
end_operator
begin_operator
refuel plane2 city2 fl1 fl2
1
12 2
1
0 9 1 2
1
end_operator
begin_operator
refuel plane2 city2 fl2 fl3
1
12 2
1
0 9 2 3
1
end_operator
begin_operator
refuel plane2 city2 fl3 fl4
1
12 2
1
0 9 3 4
1
end_operator
begin_operator
refuel plane2 city2 fl4 fl5
1
12 2
1
0 9 4 5
1
end_operator
begin_operator
refuel plane2 city2 fl5 fl6
1
12 2
1
0 9 5 6
1
end_operator
begin_operator
refuel plane2 city3 fl0 fl1
1
12 3
1
0 9 0 1
1
end_operator
begin_operator
refuel plane2 city3 fl1 fl2
1
12 3
1
0 9 1 2
1
end_operator
begin_operator
refuel plane2 city3 fl2 fl3
1
12 3
1
0 9 2 3
1
end_operator
begin_operator
refuel plane2 city3 fl3 fl4
1
12 3
1
0 9 3 4
1
end_operator
begin_operator
refuel plane2 city3 fl4 fl5
1
12 3
1
0 9 4 5
1
end_operator
begin_operator
refuel plane2 city3 fl5 fl6
1
12 3
1
0 9 5 6
1
end_operator
begin_operator
refuel plane2 city4 fl0 fl1
1
12 4
1
0 9 0 1
1
end_operator
begin_operator
refuel plane2 city4 fl1 fl2
1
12 4
1
0 9 1 2
1
end_operator
begin_operator
refuel plane2 city4 fl2 fl3
1
12 4
1
0 9 2 3
1
end_operator
begin_operator
refuel plane2 city4 fl3 fl4
1
12 4
1
0 9 3 4
1
end_operator
begin_operator
refuel plane2 city4 fl4 fl5
1
12 4
1
0 9 4 5
1
end_operator
begin_operator
refuel plane2 city4 fl5 fl6
1
12 4
1
0 9 5 6
1
end_operator
begin_operator
refuel plane3 city0 fl0 fl1
1
13 0
1
0 10 0 1
1
end_operator
begin_operator
refuel plane3 city0 fl1 fl2
1
13 0
1
0 10 1 2
1
end_operator
begin_operator
refuel plane3 city0 fl2 fl3
1
13 0
1
0 10 2 3
1
end_operator
begin_operator
refuel plane3 city0 fl3 fl4
1
13 0
1
0 10 3 4
1
end_operator
begin_operator
refuel plane3 city0 fl4 fl5
1
13 0
1
0 10 4 5
1
end_operator
begin_operator
refuel plane3 city0 fl5 fl6
1
13 0
1
0 10 5 6
1
end_operator
begin_operator
refuel plane3 city1 fl0 fl1
1
13 1
1
0 10 0 1
1
end_operator
begin_operator
refuel plane3 city1 fl1 fl2
1
13 1
1
0 10 1 2
1
end_operator
begin_operator
refuel plane3 city1 fl2 fl3
1
13 1
1
0 10 2 3
1
end_operator
begin_operator
refuel plane3 city1 fl3 fl4
1
13 1
1
0 10 3 4
1
end_operator
begin_operator
refuel plane3 city1 fl4 fl5
1
13 1
1
0 10 4 5
1
end_operator
begin_operator
refuel plane3 city1 fl5 fl6
1
13 1
1
0 10 5 6
1
end_operator
begin_operator
refuel plane3 city2 fl0 fl1
1
13 2
1
0 10 0 1
1
end_operator
begin_operator
refuel plane3 city2 fl1 fl2
1
13 2
1
0 10 1 2
1
end_operator
begin_operator
refuel plane3 city2 fl2 fl3
1
13 2
1
0 10 2 3
1
end_operator
begin_operator
refuel plane3 city2 fl3 fl4
1
13 2
1
0 10 3 4
1
end_operator
begin_operator
refuel plane3 city2 fl4 fl5
1
13 2
1
0 10 4 5
1
end_operator
begin_operator
refuel plane3 city2 fl5 fl6
1
13 2
1
0 10 5 6
1
end_operator
begin_operator
refuel plane3 city3 fl0 fl1
1
13 3
1
0 10 0 1
1
end_operator
begin_operator
refuel plane3 city3 fl1 fl2
1
13 3
1
0 10 1 2
1
end_operator
begin_operator
refuel plane3 city3 fl2 fl3
1
13 3
1
0 10 2 3
1
end_operator
begin_operator
refuel plane3 city3 fl3 fl4
1
13 3
1
0 10 3 4
1
end_operator
begin_operator
refuel plane3 city3 fl4 fl5
1
13 3
1
0 10 4 5
1
end_operator
begin_operator
refuel plane3 city3 fl5 fl6
1
13 3
1
0 10 5 6
1
end_operator
begin_operator
refuel plane3 city4 fl0 fl1
1
13 4
1
0 10 0 1
1
end_operator
begin_operator
refuel plane3 city4 fl1 fl2
1
13 4
1
0 10 1 2
1
end_operator
begin_operator
refuel plane3 city4 fl2 fl3
1
13 4
1
0 10 2 3
1
end_operator
begin_operator
refuel plane3 city4 fl3 fl4
1
13 4
1
0 10 3 4
1
end_operator
begin_operator
refuel plane3 city4 fl4 fl5
1
13 4
1
0 10 4 5
1
end_operator
begin_operator
refuel plane3 city4 fl5 fl6
1
13 4
1
0 10 5 6
1
end_operator
begin_operator
zoom plane1 city0 city0 fl2 fl1 fl0
1
11 0
1
0 8 2 0
1
end_operator
begin_operator
zoom plane1 city0 city0 fl3 fl2 fl1
1
11 0
1
0 8 3 1
1
end_operator
begin_operator
zoom plane1 city0 city0 fl4 fl3 fl2
1
11 0
1
0 8 4 2
1
end_operator
begin_operator
zoom plane1 city0 city0 fl5 fl4 fl3
1
11 0
1
0 8 5 3
1
end_operator
begin_operator
zoom plane1 city0 city0 fl6 fl5 fl4
1
11 0
1
0 8 6 4
1
end_operator
begin_operator
zoom plane1 city0 city1 fl2 fl1 fl0
0
2
0 8 2 0
0 11 0 1
1
end_operator
begin_operator
zoom plane1 city0 city1 fl3 fl2 fl1
0
2
0 8 3 1
0 11 0 1
1
end_operator
begin_operator
zoom plane1 city0 city1 fl4 fl3 fl2
0
2
0 8 4 2
0 11 0 1
1
end_operator
begin_operator
zoom plane1 city0 city1 fl5 fl4 fl3
0
2
0 8 5 3
0 11 0 1
1
end_operator
begin_operator
zoom plane1 city0 city1 fl6 fl5 fl4
0
2
0 8 6 4
0 11 0 1
1
end_operator
begin_operator
zoom plane1 city0 city2 fl2 fl1 fl0
0
2
0 8 2 0
0 11 0 2
1
end_operator
begin_operator
zoom plane1 city0 city2 fl3 fl2 fl1
0
2
0 8 3 1
0 11 0 2
1
end_operator
begin_operator
zoom plane1 city0 city2 fl4 fl3 fl2
0
2
0 8 4 2
0 11 0 2
1
end_operator
begin_operator
zoom plane1 city0 city2 fl5 fl4 fl3
0
2
0 8 5 3
0 11 0 2
1
end_operator
begin_operator
zoom plane1 city0 city2 fl6 fl5 fl4
0
2
0 8 6 4
0 11 0 2
1
end_operator
begin_operator
zoom plane1 city0 city3 fl2 fl1 fl0
0
2
0 8 2 0
0 11 0 3
1
end_operator
begin_operator
zoom plane1 city0 city3 fl3 fl2 fl1
0
2
0 8 3 1
0 11 0 3
1
end_operator
begin_operator
zoom plane1 city0 city3 fl4 fl3 fl2
0
2
0 8 4 2
0 11 0 3
1
end_operator
begin_operator
zoom plane1 city0 city3 fl5 fl4 fl3
0
2
0 8 5 3
0 11 0 3
1
end_operator
begin_operator
zoom plane1 city0 city3 fl6 fl5 fl4
0
2
0 8 6 4
0 11 0 3
1
end_operator
begin_operator
zoom plane1 city0 city4 fl2 fl1 fl0
0
2
0 8 2 0
0 11 0 4
1
end_operator
begin_operator
zoom plane1 city0 city4 fl3 fl2 fl1
0
2
0 8 3 1
0 11 0 4
1
end_operator
begin_operator
zoom plane1 city0 city4 fl4 fl3 fl2
0
2
0 8 4 2
0 11 0 4
1
end_operator
begin_operator
zoom plane1 city0 city4 fl5 fl4 fl3
0
2
0 8 5 3
0 11 0 4
1
end_operator
begin_operator
zoom plane1 city0 city4 fl6 fl5 fl4
0
2
0 8 6 4
0 11 0 4
1
end_operator
begin_operator
zoom plane1 city1 city0 fl2 fl1 fl0
0
2
0 8 2 0
0 11 1 0
1
end_operator
begin_operator
zoom plane1 city1 city0 fl3 fl2 fl1
0
2
0 8 3 1
0 11 1 0
1
end_operator
begin_operator
zoom plane1 city1 city0 fl4 fl3 fl2
0
2
0 8 4 2
0 11 1 0
1
end_operator
begin_operator
zoom plane1 city1 city0 fl5 fl4 fl3
0
2
0 8 5 3
0 11 1 0
1
end_operator
begin_operator
zoom plane1 city1 city0 fl6 fl5 fl4
0
2
0 8 6 4
0 11 1 0
1
end_operator
begin_operator
zoom plane1 city1 city1 fl2 fl1 fl0
1
11 1
1
0 8 2 0
1
end_operator
begin_operator
zoom plane1 city1 city1 fl3 fl2 fl1
1
11 1
1
0 8 3 1
1
end_operator
begin_operator
zoom plane1 city1 city1 fl4 fl3 fl2
1
11 1
1
0 8 4 2
1
end_operator
begin_operator
zoom plane1 city1 city1 fl5 fl4 fl3
1
11 1
1
0 8 5 3
1
end_operator
begin_operator
zoom plane1 city1 city1 fl6 fl5 fl4
1
11 1
1
0 8 6 4
1
end_operator
begin_operator
zoom plane1 city1 city2 fl2 fl1 fl0
0
2
0 8 2 0
0 11 1 2
1
end_operator
begin_operator
zoom plane1 city1 city2 fl3 fl2 fl1
0
2
0 8 3 1
0 11 1 2
1
end_operator
begin_operator
zoom plane1 city1 city2 fl4 fl3 fl2
0
2
0 8 4 2
0 11 1 2
1
end_operator
begin_operator
zoom plane1 city1 city2 fl5 fl4 fl3
0
2
0 8 5 3
0 11 1 2
1
end_operator
begin_operator
zoom plane1 city1 city2 fl6 fl5 fl4
0
2
0 8 6 4
0 11 1 2
1
end_operator
begin_operator
zoom plane1 city1 city3 fl2 fl1 fl0
0
2
0 8 2 0
0 11 1 3
1
end_operator
begin_operator
zoom plane1 city1 city3 fl3 fl2 fl1
0
2
0 8 3 1
0 11 1 3
1
end_operator
begin_operator
zoom plane1 city1 city3 fl4 fl3 fl2
0
2
0 8 4 2
0 11 1 3
1
end_operator
begin_operator
zoom plane1 city1 city3 fl5 fl4 fl3
0
2
0 8 5 3
0 11 1 3
1
end_operator
begin_operator
zoom plane1 city1 city3 fl6 fl5 fl4
0
2
0 8 6 4
0 11 1 3
1
end_operator
begin_operator
zoom plane1 city1 city4 fl2 fl1 fl0
0
2
0 8 2 0
0 11 1 4
1
end_operator
begin_operator
zoom plane1 city1 city4 fl3 fl2 fl1
0
2
0 8 3 1
0 11 1 4
1
end_operator
begin_operator
zoom plane1 city1 city4 fl4 fl3 fl2
0
2
0 8 4 2
0 11 1 4
1
end_operator
begin_operator
zoom plane1 city1 city4 fl5 fl4 fl3
0
2
0 8 5 3
0 11 1 4
1
end_operator
begin_operator
zoom plane1 city1 city4 fl6 fl5 fl4
0
2
0 8 6 4
0 11 1 4
1
end_operator
begin_operator
zoom plane1 city2 city0 fl2 fl1 fl0
0
2
0 8 2 0
0 11 2 0
1
end_operator
begin_operator
zoom plane1 city2 city0 fl3 fl2 fl1
0
2
0 8 3 1
0 11 2 0
1
end_operator
begin_operator
zoom plane1 city2 city0 fl4 fl3 fl2
0
2
0 8 4 2
0 11 2 0
1
end_operator
begin_operator
zoom plane1 city2 city0 fl5 fl4 fl3
0
2
0 8 5 3
0 11 2 0
1
end_operator
begin_operator
zoom plane1 city2 city0 fl6 fl5 fl4
0
2
0 8 6 4
0 11 2 0
1
end_operator
begin_operator
zoom plane1 city2 city1 fl2 fl1 fl0
0
2
0 8 2 0
0 11 2 1
1
end_operator
begin_operator
zoom plane1 city2 city1 fl3 fl2 fl1
0
2
0 8 3 1
0 11 2 1
1
end_operator
begin_operator
zoom plane1 city2 city1 fl4 fl3 fl2
0
2
0 8 4 2
0 11 2 1
1
end_operator
begin_operator
zoom plane1 city2 city1 fl5 fl4 fl3
0
2
0 8 5 3
0 11 2 1
1
end_operator
begin_operator
zoom plane1 city2 city1 fl6 fl5 fl4
0
2
0 8 6 4
0 11 2 1
1
end_operator
begin_operator
zoom plane1 city2 city2 fl2 fl1 fl0
1
11 2
1
0 8 2 0
1
end_operator
begin_operator
zoom plane1 city2 city2 fl3 fl2 fl1
1
11 2
1
0 8 3 1
1
end_operator
begin_operator
zoom plane1 city2 city2 fl4 fl3 fl2
1
11 2
1
0 8 4 2
1
end_operator
begin_operator
zoom plane1 city2 city2 fl5 fl4 fl3
1
11 2
1
0 8 5 3
1
end_operator
begin_operator
zoom plane1 city2 city2 fl6 fl5 fl4
1
11 2
1
0 8 6 4
1
end_operator
begin_operator
zoom plane1 city2 city3 fl2 fl1 fl0
0
2
0 8 2 0
0 11 2 3
1
end_operator
begin_operator
zoom plane1 city2 city3 fl3 fl2 fl1
0
2
0 8 3 1
0 11 2 3
1
end_operator
begin_operator
zoom plane1 city2 city3 fl4 fl3 fl2
0
2
0 8 4 2
0 11 2 3
1
end_operator
begin_operator
zoom plane1 city2 city3 fl5 fl4 fl3
0
2
0 8 5 3
0 11 2 3
1
end_operator
begin_operator
zoom plane1 city2 city3 fl6 fl5 fl4
0
2
0 8 6 4
0 11 2 3
1
end_operator
begin_operator
zoom plane1 city2 city4 fl2 fl1 fl0
0
2
0 8 2 0
0 11 2 4
1
end_operator
begin_operator
zoom plane1 city2 city4 fl3 fl2 fl1
0
2
0 8 3 1
0 11 2 4
1
end_operator
begin_operator
zoom plane1 city2 city4 fl4 fl3 fl2
0
2
0 8 4 2
0 11 2 4
1
end_operator
begin_operator
zoom plane1 city2 city4 fl5 fl4 fl3
0
2
0 8 5 3
0 11 2 4
1
end_operator
begin_operator
zoom plane1 city2 city4 fl6 fl5 fl4
0
2
0 8 6 4
0 11 2 4
1
end_operator
begin_operator
zoom plane1 city3 city0 fl2 fl1 fl0
0
2
0 8 2 0
0 11 3 0
1
end_operator
begin_operator
zoom plane1 city3 city0 fl3 fl2 fl1
0
2
0 8 3 1
0 11 3 0
1
end_operator
begin_operator
zoom plane1 city3 city0 fl4 fl3 fl2
0
2
0 8 4 2
0 11 3 0
1
end_operator
begin_operator
zoom plane1 city3 city0 fl5 fl4 fl3
0
2
0 8 5 3
0 11 3 0
1
end_operator
begin_operator
zoom plane1 city3 city0 fl6 fl5 fl4
0
2
0 8 6 4
0 11 3 0
1
end_operator
begin_operator
zoom plane1 city3 city1 fl2 fl1 fl0
0
2
0 8 2 0
0 11 3 1
1
end_operator
begin_operator
zoom plane1 city3 city1 fl3 fl2 fl1
0
2
0 8 3 1
0 11 3 1
1
end_operator
begin_operator
zoom plane1 city3 city1 fl4 fl3 fl2
0
2
0 8 4 2
0 11 3 1
1
end_operator
begin_operator
zoom plane1 city3 city1 fl5 fl4 fl3
0
2
0 8 5 3
0 11 3 1
1
end_operator
begin_operator
zoom plane1 city3 city1 fl6 fl5 fl4
0
2
0 8 6 4
0 11 3 1
1
end_operator
begin_operator
zoom plane1 city3 city2 fl2 fl1 fl0
0
2
0 8 2 0
0 11 3 2
1
end_operator
begin_operator
zoom plane1 city3 city2 fl3 fl2 fl1
0
2
0 8 3 1
0 11 3 2
1
end_operator
begin_operator
zoom plane1 city3 city2 fl4 fl3 fl2
0
2
0 8 4 2
0 11 3 2
1
end_operator
begin_operator
zoom plane1 city3 city2 fl5 fl4 fl3
0
2
0 8 5 3
0 11 3 2
1
end_operator
begin_operator
zoom plane1 city3 city2 fl6 fl5 fl4
0
2
0 8 6 4
0 11 3 2
1
end_operator
begin_operator
zoom plane1 city3 city3 fl2 fl1 fl0
1
11 3
1
0 8 2 0
1
end_operator
begin_operator
zoom plane1 city3 city3 fl3 fl2 fl1
1
11 3
1
0 8 3 1
1
end_operator
begin_operator
zoom plane1 city3 city3 fl4 fl3 fl2
1
11 3
1
0 8 4 2
1
end_operator
begin_operator
zoom plane1 city3 city3 fl5 fl4 fl3
1
11 3
1
0 8 5 3
1
end_operator
begin_operator
zoom plane1 city3 city3 fl6 fl5 fl4
1
11 3
1
0 8 6 4
1
end_operator
begin_operator
zoom plane1 city3 city4 fl2 fl1 fl0
0
2
0 8 2 0
0 11 3 4
1
end_operator
begin_operator
zoom plane1 city3 city4 fl3 fl2 fl1
0
2
0 8 3 1
0 11 3 4
1
end_operator
begin_operator
zoom plane1 city3 city4 fl4 fl3 fl2
0
2
0 8 4 2
0 11 3 4
1
end_operator
begin_operator
zoom plane1 city3 city4 fl5 fl4 fl3
0
2
0 8 5 3
0 11 3 4
1
end_operator
begin_operator
zoom plane1 city3 city4 fl6 fl5 fl4
0
2
0 8 6 4
0 11 3 4
1
end_operator
begin_operator
zoom plane1 city4 city0 fl2 fl1 fl0
0
2
0 8 2 0
0 11 4 0
1
end_operator
begin_operator
zoom plane1 city4 city0 fl3 fl2 fl1
0
2
0 8 3 1
0 11 4 0
1
end_operator
begin_operator
zoom plane1 city4 city0 fl4 fl3 fl2
0
2
0 8 4 2
0 11 4 0
1
end_operator
begin_operator
zoom plane1 city4 city0 fl5 fl4 fl3
0
2
0 8 5 3
0 11 4 0
1
end_operator
begin_operator
zoom plane1 city4 city0 fl6 fl5 fl4
0
2
0 8 6 4
0 11 4 0
1
end_operator
begin_operator
zoom plane1 city4 city1 fl2 fl1 fl0
0
2
0 8 2 0
0 11 4 1
1
end_operator
begin_operator
zoom plane1 city4 city1 fl3 fl2 fl1
0
2
0 8 3 1
0 11 4 1
1
end_operator
begin_operator
zoom plane1 city4 city1 fl4 fl3 fl2
0
2
0 8 4 2
0 11 4 1
1
end_operator
begin_operator
zoom plane1 city4 city1 fl5 fl4 fl3
0
2
0 8 5 3
0 11 4 1
1
end_operator
begin_operator
zoom plane1 city4 city1 fl6 fl5 fl4
0
2
0 8 6 4
0 11 4 1
1
end_operator
begin_operator
zoom plane1 city4 city2 fl2 fl1 fl0
0
2
0 8 2 0
0 11 4 2
1
end_operator
begin_operator
zoom plane1 city4 city2 fl3 fl2 fl1
0
2
0 8 3 1
0 11 4 2
1
end_operator
begin_operator
zoom plane1 city4 city2 fl4 fl3 fl2
0
2
0 8 4 2
0 11 4 2
1
end_operator
begin_operator
zoom plane1 city4 city2 fl5 fl4 fl3
0
2
0 8 5 3
0 11 4 2
1
end_operator
begin_operator
zoom plane1 city4 city2 fl6 fl5 fl4
0
2
0 8 6 4
0 11 4 2
1
end_operator
begin_operator
zoom plane1 city4 city3 fl2 fl1 fl0
0
2
0 8 2 0
0 11 4 3
1
end_operator
begin_operator
zoom plane1 city4 city3 fl3 fl2 fl1
0
2
0 8 3 1
0 11 4 3
1
end_operator
begin_operator
zoom plane1 city4 city3 fl4 fl3 fl2
0
2
0 8 4 2
0 11 4 3
1
end_operator
begin_operator
zoom plane1 city4 city3 fl5 fl4 fl3
0
2
0 8 5 3
0 11 4 3
1
end_operator
begin_operator
zoom plane1 city4 city3 fl6 fl5 fl4
0
2
0 8 6 4
0 11 4 3
1
end_operator
begin_operator
zoom plane1 city4 city4 fl2 fl1 fl0
1
11 4
1
0 8 2 0
1
end_operator
begin_operator
zoom plane1 city4 city4 fl3 fl2 fl1
1
11 4
1
0 8 3 1
1
end_operator
begin_operator
zoom plane1 city4 city4 fl4 fl3 fl2
1
11 4
1
0 8 4 2
1
end_operator
begin_operator
zoom plane1 city4 city4 fl5 fl4 fl3
1
11 4
1
0 8 5 3
1
end_operator
begin_operator
zoom plane1 city4 city4 fl6 fl5 fl4
1
11 4
1
0 8 6 4
1
end_operator
begin_operator
zoom plane2 city0 city0 fl2 fl1 fl0
1
12 0
1
0 9 2 0
1
end_operator
begin_operator
zoom plane2 city0 city0 fl3 fl2 fl1
1
12 0
1
0 9 3 1
1
end_operator
begin_operator
zoom plane2 city0 city0 fl4 fl3 fl2
1
12 0
1
0 9 4 2
1
end_operator
begin_operator
zoom plane2 city0 city0 fl5 fl4 fl3
1
12 0
1
0 9 5 3
1
end_operator
begin_operator
zoom plane2 city0 city0 fl6 fl5 fl4
1
12 0
1
0 9 6 4
1
end_operator
begin_operator
zoom plane2 city0 city1 fl2 fl1 fl0
0
2
0 9 2 0
0 12 0 1
1
end_operator
begin_operator
zoom plane2 city0 city1 fl3 fl2 fl1
0
2
0 9 3 1
0 12 0 1
1
end_operator
begin_operator
zoom plane2 city0 city1 fl4 fl3 fl2
0
2
0 9 4 2
0 12 0 1
1
end_operator
begin_operator
zoom plane2 city0 city1 fl5 fl4 fl3
0
2
0 9 5 3
0 12 0 1
1
end_operator
begin_operator
zoom plane2 city0 city1 fl6 fl5 fl4
0
2
0 9 6 4
0 12 0 1
1
end_operator
begin_operator
zoom plane2 city0 city2 fl2 fl1 fl0
0
2
0 9 2 0
0 12 0 2
1
end_operator
begin_operator
zoom plane2 city0 city2 fl3 fl2 fl1
0
2
0 9 3 1
0 12 0 2
1
end_operator
begin_operator
zoom plane2 city0 city2 fl4 fl3 fl2
0
2
0 9 4 2
0 12 0 2
1
end_operator
begin_operator
zoom plane2 city0 city2 fl5 fl4 fl3
0
2
0 9 5 3
0 12 0 2
1
end_operator
begin_operator
zoom plane2 city0 city2 fl6 fl5 fl4
0
2
0 9 6 4
0 12 0 2
1
end_operator
begin_operator
zoom plane2 city0 city3 fl2 fl1 fl0
0
2
0 9 2 0
0 12 0 3
1
end_operator
begin_operator
zoom plane2 city0 city3 fl3 fl2 fl1
0
2
0 9 3 1
0 12 0 3
1
end_operator
begin_operator
zoom plane2 city0 city3 fl4 fl3 fl2
0
2
0 9 4 2
0 12 0 3
1
end_operator
begin_operator
zoom plane2 city0 city3 fl5 fl4 fl3
0
2
0 9 5 3
0 12 0 3
1
end_operator
begin_operator
zoom plane2 city0 city3 fl6 fl5 fl4
0
2
0 9 6 4
0 12 0 3
1
end_operator
begin_operator
zoom plane2 city0 city4 fl2 fl1 fl0
0
2
0 9 2 0
0 12 0 4
1
end_operator
begin_operator
zoom plane2 city0 city4 fl3 fl2 fl1
0
2
0 9 3 1
0 12 0 4
1
end_operator
begin_operator
zoom plane2 city0 city4 fl4 fl3 fl2
0
2
0 9 4 2
0 12 0 4
1
end_operator
begin_operator
zoom plane2 city0 city4 fl5 fl4 fl3
0
2
0 9 5 3
0 12 0 4
1
end_operator
begin_operator
zoom plane2 city0 city4 fl6 fl5 fl4
0
2
0 9 6 4
0 12 0 4
1
end_operator
begin_operator
zoom plane2 city1 city0 fl2 fl1 fl0
0
2
0 9 2 0
0 12 1 0
1
end_operator
begin_operator
zoom plane2 city1 city0 fl3 fl2 fl1
0
2
0 9 3 1
0 12 1 0
1
end_operator
begin_operator
zoom plane2 city1 city0 fl4 fl3 fl2
0
2
0 9 4 2
0 12 1 0
1
end_operator
begin_operator
zoom plane2 city1 city0 fl5 fl4 fl3
0
2
0 9 5 3
0 12 1 0
1
end_operator
begin_operator
zoom plane2 city1 city0 fl6 fl5 fl4
0
2
0 9 6 4
0 12 1 0
1
end_operator
begin_operator
zoom plane2 city1 city1 fl2 fl1 fl0
1
12 1
1
0 9 2 0
1
end_operator
begin_operator
zoom plane2 city1 city1 fl3 fl2 fl1
1
12 1
1
0 9 3 1
1
end_operator
begin_operator
zoom plane2 city1 city1 fl4 fl3 fl2
1
12 1
1
0 9 4 2
1
end_operator
begin_operator
zoom plane2 city1 city1 fl5 fl4 fl3
1
12 1
1
0 9 5 3
1
end_operator
begin_operator
zoom plane2 city1 city1 fl6 fl5 fl4
1
12 1
1
0 9 6 4
1
end_operator
begin_operator
zoom plane2 city1 city2 fl2 fl1 fl0
0
2
0 9 2 0
0 12 1 2
1
end_operator
begin_operator
zoom plane2 city1 city2 fl3 fl2 fl1
0
2
0 9 3 1
0 12 1 2
1
end_operator
begin_operator
zoom plane2 city1 city2 fl4 fl3 fl2
0
2
0 9 4 2
0 12 1 2
1
end_operator
begin_operator
zoom plane2 city1 city2 fl5 fl4 fl3
0
2
0 9 5 3
0 12 1 2
1
end_operator
begin_operator
zoom plane2 city1 city2 fl6 fl5 fl4
0
2
0 9 6 4
0 12 1 2
1
end_operator
begin_operator
zoom plane2 city1 city3 fl2 fl1 fl0
0
2
0 9 2 0
0 12 1 3
1
end_operator
begin_operator
zoom plane2 city1 city3 fl3 fl2 fl1
0
2
0 9 3 1
0 12 1 3
1
end_operator
begin_operator
zoom plane2 city1 city3 fl4 fl3 fl2
0
2
0 9 4 2
0 12 1 3
1
end_operator
begin_operator
zoom plane2 city1 city3 fl5 fl4 fl3
0
2
0 9 5 3
0 12 1 3
1
end_operator
begin_operator
zoom plane2 city1 city3 fl6 fl5 fl4
0
2
0 9 6 4
0 12 1 3
1
end_operator
begin_operator
zoom plane2 city1 city4 fl2 fl1 fl0
0
2
0 9 2 0
0 12 1 4
1
end_operator
begin_operator
zoom plane2 city1 city4 fl3 fl2 fl1
0
2
0 9 3 1
0 12 1 4
1
end_operator
begin_operator
zoom plane2 city1 city4 fl4 fl3 fl2
0
2
0 9 4 2
0 12 1 4
1
end_operator
begin_operator
zoom plane2 city1 city4 fl5 fl4 fl3
0
2
0 9 5 3
0 12 1 4
1
end_operator
begin_operator
zoom plane2 city1 city4 fl6 fl5 fl4
0
2
0 9 6 4
0 12 1 4
1
end_operator
begin_operator
zoom plane2 city2 city0 fl2 fl1 fl0
0
2
0 9 2 0
0 12 2 0
1
end_operator
begin_operator
zoom plane2 city2 city0 fl3 fl2 fl1
0
2
0 9 3 1
0 12 2 0
1
end_operator
begin_operator
zoom plane2 city2 city0 fl4 fl3 fl2
0
2
0 9 4 2
0 12 2 0
1
end_operator
begin_operator
zoom plane2 city2 city0 fl5 fl4 fl3
0
2
0 9 5 3
0 12 2 0
1
end_operator
begin_operator
zoom plane2 city2 city0 fl6 fl5 fl4
0
2
0 9 6 4
0 12 2 0
1
end_operator
begin_operator
zoom plane2 city2 city1 fl2 fl1 fl0
0
2
0 9 2 0
0 12 2 1
1
end_operator
begin_operator
zoom plane2 city2 city1 fl3 fl2 fl1
0
2
0 9 3 1
0 12 2 1
1
end_operator
begin_operator
zoom plane2 city2 city1 fl4 fl3 fl2
0
2
0 9 4 2
0 12 2 1
1
end_operator
begin_operator
zoom plane2 city2 city1 fl5 fl4 fl3
0
2
0 9 5 3
0 12 2 1
1
end_operator
begin_operator
zoom plane2 city2 city1 fl6 fl5 fl4
0
2
0 9 6 4
0 12 2 1
1
end_operator
begin_operator
zoom plane2 city2 city2 fl2 fl1 fl0
1
12 2
1
0 9 2 0
1
end_operator
begin_operator
zoom plane2 city2 city2 fl3 fl2 fl1
1
12 2
1
0 9 3 1
1
end_operator
begin_operator
zoom plane2 city2 city2 fl4 fl3 fl2
1
12 2
1
0 9 4 2
1
end_operator
begin_operator
zoom plane2 city2 city2 fl5 fl4 fl3
1
12 2
1
0 9 5 3
1
end_operator
begin_operator
zoom plane2 city2 city2 fl6 fl5 fl4
1
12 2
1
0 9 6 4
1
end_operator
begin_operator
zoom plane2 city2 city3 fl2 fl1 fl0
0
2
0 9 2 0
0 12 2 3
1
end_operator
begin_operator
zoom plane2 city2 city3 fl3 fl2 fl1
0
2
0 9 3 1
0 12 2 3
1
end_operator
begin_operator
zoom plane2 city2 city3 fl4 fl3 fl2
0
2
0 9 4 2
0 12 2 3
1
end_operator
begin_operator
zoom plane2 city2 city3 fl5 fl4 fl3
0
2
0 9 5 3
0 12 2 3
1
end_operator
begin_operator
zoom plane2 city2 city3 fl6 fl5 fl4
0
2
0 9 6 4
0 12 2 3
1
end_operator
begin_operator
zoom plane2 city2 city4 fl2 fl1 fl0
0
2
0 9 2 0
0 12 2 4
1
end_operator
begin_operator
zoom plane2 city2 city4 fl3 fl2 fl1
0
2
0 9 3 1
0 12 2 4
1
end_operator
begin_operator
zoom plane2 city2 city4 fl4 fl3 fl2
0
2
0 9 4 2
0 12 2 4
1
end_operator
begin_operator
zoom plane2 city2 city4 fl5 fl4 fl3
0
2
0 9 5 3
0 12 2 4
1
end_operator
begin_operator
zoom plane2 city2 city4 fl6 fl5 fl4
0
2
0 9 6 4
0 12 2 4
1
end_operator
begin_operator
zoom plane2 city3 city0 fl2 fl1 fl0
0
2
0 9 2 0
0 12 3 0
1
end_operator
begin_operator
zoom plane2 city3 city0 fl3 fl2 fl1
0
2
0 9 3 1
0 12 3 0
1
end_operator
begin_operator
zoom plane2 city3 city0 fl4 fl3 fl2
0
2
0 9 4 2
0 12 3 0
1
end_operator
begin_operator
zoom plane2 city3 city0 fl5 fl4 fl3
0
2
0 9 5 3
0 12 3 0
1
end_operator
begin_operator
zoom plane2 city3 city0 fl6 fl5 fl4
0
2
0 9 6 4
0 12 3 0
1
end_operator
begin_operator
zoom plane2 city3 city1 fl2 fl1 fl0
0
2
0 9 2 0
0 12 3 1
1
end_operator
begin_operator
zoom plane2 city3 city1 fl3 fl2 fl1
0
2
0 9 3 1
0 12 3 1
1
end_operator
begin_operator
zoom plane2 city3 city1 fl4 fl3 fl2
0
2
0 9 4 2
0 12 3 1
1
end_operator
begin_operator
zoom plane2 city3 city1 fl5 fl4 fl3
0
2
0 9 5 3
0 12 3 1
1
end_operator
begin_operator
zoom plane2 city3 city1 fl6 fl5 fl4
0
2
0 9 6 4
0 12 3 1
1
end_operator
begin_operator
zoom plane2 city3 city2 fl2 fl1 fl0
0
2
0 9 2 0
0 12 3 2
1
end_operator
begin_operator
zoom plane2 city3 city2 fl3 fl2 fl1
0
2
0 9 3 1
0 12 3 2
1
end_operator
begin_operator
zoom plane2 city3 city2 fl4 fl3 fl2
0
2
0 9 4 2
0 12 3 2
1
end_operator
begin_operator
zoom plane2 city3 city2 fl5 fl4 fl3
0
2
0 9 5 3
0 12 3 2
1
end_operator
begin_operator
zoom plane2 city3 city2 fl6 fl5 fl4
0
2
0 9 6 4
0 12 3 2
1
end_operator
begin_operator
zoom plane2 city3 city3 fl2 fl1 fl0
1
12 3
1
0 9 2 0
1
end_operator
begin_operator
zoom plane2 city3 city3 fl3 fl2 fl1
1
12 3
1
0 9 3 1
1
end_operator
begin_operator
zoom plane2 city3 city3 fl4 fl3 fl2
1
12 3
1
0 9 4 2
1
end_operator
begin_operator
zoom plane2 city3 city3 fl5 fl4 fl3
1
12 3
1
0 9 5 3
1
end_operator
begin_operator
zoom plane2 city3 city3 fl6 fl5 fl4
1
12 3
1
0 9 6 4
1
end_operator
begin_operator
zoom plane2 city3 city4 fl2 fl1 fl0
0
2
0 9 2 0
0 12 3 4
1
end_operator
begin_operator
zoom plane2 city3 city4 fl3 fl2 fl1
0
2
0 9 3 1
0 12 3 4
1
end_operator
begin_operator
zoom plane2 city3 city4 fl4 fl3 fl2
0
2
0 9 4 2
0 12 3 4
1
end_operator
begin_operator
zoom plane2 city3 city4 fl5 fl4 fl3
0
2
0 9 5 3
0 12 3 4
1
end_operator
begin_operator
zoom plane2 city3 city4 fl6 fl5 fl4
0
2
0 9 6 4
0 12 3 4
1
end_operator
begin_operator
zoom plane2 city4 city0 fl2 fl1 fl0
0
2
0 9 2 0
0 12 4 0
1
end_operator
begin_operator
zoom plane2 city4 city0 fl3 fl2 fl1
0
2
0 9 3 1
0 12 4 0
1
end_operator
begin_operator
zoom plane2 city4 city0 fl4 fl3 fl2
0
2
0 9 4 2
0 12 4 0
1
end_operator
begin_operator
zoom plane2 city4 city0 fl5 fl4 fl3
0
2
0 9 5 3
0 12 4 0
1
end_operator
begin_operator
zoom plane2 city4 city0 fl6 fl5 fl4
0
2
0 9 6 4
0 12 4 0
1
end_operator
begin_operator
zoom plane2 city4 city1 fl2 fl1 fl0
0
2
0 9 2 0
0 12 4 1
1
end_operator
begin_operator
zoom plane2 city4 city1 fl3 fl2 fl1
0
2
0 9 3 1
0 12 4 1
1
end_operator
begin_operator
zoom plane2 city4 city1 fl4 fl3 fl2
0
2
0 9 4 2
0 12 4 1
1
end_operator
begin_operator
zoom plane2 city4 city1 fl5 fl4 fl3
0
2
0 9 5 3
0 12 4 1
1
end_operator
begin_operator
zoom plane2 city4 city1 fl6 fl5 fl4
0
2
0 9 6 4
0 12 4 1
1
end_operator
begin_operator
zoom plane2 city4 city2 fl2 fl1 fl0
0
2
0 9 2 0
0 12 4 2
1
end_operator
begin_operator
zoom plane2 city4 city2 fl3 fl2 fl1
0
2
0 9 3 1
0 12 4 2
1
end_operator
begin_operator
zoom plane2 city4 city2 fl4 fl3 fl2
0
2
0 9 4 2
0 12 4 2
1
end_operator
begin_operator
zoom plane2 city4 city2 fl5 fl4 fl3
0
2
0 9 5 3
0 12 4 2
1
end_operator
begin_operator
zoom plane2 city4 city2 fl6 fl5 fl4
0
2
0 9 6 4
0 12 4 2
1
end_operator
begin_operator
zoom plane2 city4 city3 fl2 fl1 fl0
0
2
0 9 2 0
0 12 4 3
1
end_operator
begin_operator
zoom plane2 city4 city3 fl3 fl2 fl1
0
2
0 9 3 1
0 12 4 3
1
end_operator
begin_operator
zoom plane2 city4 city3 fl4 fl3 fl2
0
2
0 9 4 2
0 12 4 3
1
end_operator
begin_operator
zoom plane2 city4 city3 fl5 fl4 fl3
0
2
0 9 5 3
0 12 4 3
1
end_operator
begin_operator
zoom plane2 city4 city3 fl6 fl5 fl4
0
2
0 9 6 4
0 12 4 3
1
end_operator
begin_operator
zoom plane2 city4 city4 fl2 fl1 fl0
1
12 4
1
0 9 2 0
1
end_operator
begin_operator
zoom plane2 city4 city4 fl3 fl2 fl1
1
12 4
1
0 9 3 1
1
end_operator
begin_operator
zoom plane2 city4 city4 fl4 fl3 fl2
1
12 4
1
0 9 4 2
1
end_operator
begin_operator
zoom plane2 city4 city4 fl5 fl4 fl3
1
12 4
1
0 9 5 3
1
end_operator
begin_operator
zoom plane2 city4 city4 fl6 fl5 fl4
1
12 4
1
0 9 6 4
1
end_operator
begin_operator
zoom plane3 city0 city0 fl2 fl1 fl0
1
13 0
1
0 10 2 0
1
end_operator
begin_operator
zoom plane3 city0 city0 fl3 fl2 fl1
1
13 0
1
0 10 3 1
1
end_operator
begin_operator
zoom plane3 city0 city0 fl4 fl3 fl2
1
13 0
1
0 10 4 2
1
end_operator
begin_operator
zoom plane3 city0 city0 fl5 fl4 fl3
1
13 0
1
0 10 5 3
1
end_operator
begin_operator
zoom plane3 city0 city0 fl6 fl5 fl4
1
13 0
1
0 10 6 4
1
end_operator
begin_operator
zoom plane3 city0 city1 fl2 fl1 fl0
0
2
0 10 2 0
0 13 0 1
1
end_operator
begin_operator
zoom plane3 city0 city1 fl3 fl2 fl1
0
2
0 10 3 1
0 13 0 1
1
end_operator
begin_operator
zoom plane3 city0 city1 fl4 fl3 fl2
0
2
0 10 4 2
0 13 0 1
1
end_operator
begin_operator
zoom plane3 city0 city1 fl5 fl4 fl3
0
2
0 10 5 3
0 13 0 1
1
end_operator
begin_operator
zoom plane3 city0 city1 fl6 fl5 fl4
0
2
0 10 6 4
0 13 0 1
1
end_operator
begin_operator
zoom plane3 city0 city2 fl2 fl1 fl0
0
2
0 10 2 0
0 13 0 2
1
end_operator
begin_operator
zoom plane3 city0 city2 fl3 fl2 fl1
0
2
0 10 3 1
0 13 0 2
1
end_operator
begin_operator
zoom plane3 city0 city2 fl4 fl3 fl2
0
2
0 10 4 2
0 13 0 2
1
end_operator
begin_operator
zoom plane3 city0 city2 fl5 fl4 fl3
0
2
0 10 5 3
0 13 0 2
1
end_operator
begin_operator
zoom plane3 city0 city2 fl6 fl5 fl4
0
2
0 10 6 4
0 13 0 2
1
end_operator
begin_operator
zoom plane3 city0 city3 fl2 fl1 fl0
0
2
0 10 2 0
0 13 0 3
1
end_operator
begin_operator
zoom plane3 city0 city3 fl3 fl2 fl1
0
2
0 10 3 1
0 13 0 3
1
end_operator
begin_operator
zoom plane3 city0 city3 fl4 fl3 fl2
0
2
0 10 4 2
0 13 0 3
1
end_operator
begin_operator
zoom plane3 city0 city3 fl5 fl4 fl3
0
2
0 10 5 3
0 13 0 3
1
end_operator
begin_operator
zoom plane3 city0 city3 fl6 fl5 fl4
0
2
0 10 6 4
0 13 0 3
1
end_operator
begin_operator
zoom plane3 city0 city4 fl2 fl1 fl0
0
2
0 10 2 0
0 13 0 4
1
end_operator
begin_operator
zoom plane3 city0 city4 fl3 fl2 fl1
0
2
0 10 3 1
0 13 0 4
1
end_operator
begin_operator
zoom plane3 city0 city4 fl4 fl3 fl2
0
2
0 10 4 2
0 13 0 4
1
end_operator
begin_operator
zoom plane3 city0 city4 fl5 fl4 fl3
0
2
0 10 5 3
0 13 0 4
1
end_operator
begin_operator
zoom plane3 city0 city4 fl6 fl5 fl4
0
2
0 10 6 4
0 13 0 4
1
end_operator
begin_operator
zoom plane3 city1 city0 fl2 fl1 fl0
0
2
0 10 2 0
0 13 1 0
1
end_operator
begin_operator
zoom plane3 city1 city0 fl3 fl2 fl1
0
2
0 10 3 1
0 13 1 0
1
end_operator
begin_operator
zoom plane3 city1 city0 fl4 fl3 fl2
0
2
0 10 4 2
0 13 1 0
1
end_operator
begin_operator
zoom plane3 city1 city0 fl5 fl4 fl3
0
2
0 10 5 3
0 13 1 0
1
end_operator
begin_operator
zoom plane3 city1 city0 fl6 fl5 fl4
0
2
0 10 6 4
0 13 1 0
1
end_operator
begin_operator
zoom plane3 city1 city1 fl2 fl1 fl0
1
13 1
1
0 10 2 0
1
end_operator
begin_operator
zoom plane3 city1 city1 fl3 fl2 fl1
1
13 1
1
0 10 3 1
1
end_operator
begin_operator
zoom plane3 city1 city1 fl4 fl3 fl2
1
13 1
1
0 10 4 2
1
end_operator
begin_operator
zoom plane3 city1 city1 fl5 fl4 fl3
1
13 1
1
0 10 5 3
1
end_operator
begin_operator
zoom plane3 city1 city1 fl6 fl5 fl4
1
13 1
1
0 10 6 4
1
end_operator
begin_operator
zoom plane3 city1 city2 fl2 fl1 fl0
0
2
0 10 2 0
0 13 1 2
1
end_operator
begin_operator
zoom plane3 city1 city2 fl3 fl2 fl1
0
2
0 10 3 1
0 13 1 2
1
end_operator
begin_operator
zoom plane3 city1 city2 fl4 fl3 fl2
0
2
0 10 4 2
0 13 1 2
1
end_operator
begin_operator
zoom plane3 city1 city2 fl5 fl4 fl3
0
2
0 10 5 3
0 13 1 2
1
end_operator
begin_operator
zoom plane3 city1 city2 fl6 fl5 fl4
0
2
0 10 6 4
0 13 1 2
1
end_operator
begin_operator
zoom plane3 city1 city3 fl2 fl1 fl0
0
2
0 10 2 0
0 13 1 3
1
end_operator
begin_operator
zoom plane3 city1 city3 fl3 fl2 fl1
0
2
0 10 3 1
0 13 1 3
1
end_operator
begin_operator
zoom plane3 city1 city3 fl4 fl3 fl2
0
2
0 10 4 2
0 13 1 3
1
end_operator
begin_operator
zoom plane3 city1 city3 fl5 fl4 fl3
0
2
0 10 5 3
0 13 1 3
1
end_operator
begin_operator
zoom plane3 city1 city3 fl6 fl5 fl4
0
2
0 10 6 4
0 13 1 3
1
end_operator
begin_operator
zoom plane3 city1 city4 fl2 fl1 fl0
0
2
0 10 2 0
0 13 1 4
1
end_operator
begin_operator
zoom plane3 city1 city4 fl3 fl2 fl1
0
2
0 10 3 1
0 13 1 4
1
end_operator
begin_operator
zoom plane3 city1 city4 fl4 fl3 fl2
0
2
0 10 4 2
0 13 1 4
1
end_operator
begin_operator
zoom plane3 city1 city4 fl5 fl4 fl3
0
2
0 10 5 3
0 13 1 4
1
end_operator
begin_operator
zoom plane3 city1 city4 fl6 fl5 fl4
0
2
0 10 6 4
0 13 1 4
1
end_operator
begin_operator
zoom plane3 city2 city0 fl2 fl1 fl0
0
2
0 10 2 0
0 13 2 0
1
end_operator
begin_operator
zoom plane3 city2 city0 fl3 fl2 fl1
0
2
0 10 3 1
0 13 2 0
1
end_operator
begin_operator
zoom plane3 city2 city0 fl4 fl3 fl2
0
2
0 10 4 2
0 13 2 0
1
end_operator
begin_operator
zoom plane3 city2 city0 fl5 fl4 fl3
0
2
0 10 5 3
0 13 2 0
1
end_operator
begin_operator
zoom plane3 city2 city0 fl6 fl5 fl4
0
2
0 10 6 4
0 13 2 0
1
end_operator
begin_operator
zoom plane3 city2 city1 fl2 fl1 fl0
0
2
0 10 2 0
0 13 2 1
1
end_operator
begin_operator
zoom plane3 city2 city1 fl3 fl2 fl1
0
2
0 10 3 1
0 13 2 1
1
end_operator
begin_operator
zoom plane3 city2 city1 fl4 fl3 fl2
0
2
0 10 4 2
0 13 2 1
1
end_operator
begin_operator
zoom plane3 city2 city1 fl5 fl4 fl3
0
2
0 10 5 3
0 13 2 1
1
end_operator
begin_operator
zoom plane3 city2 city1 fl6 fl5 fl4
0
2
0 10 6 4
0 13 2 1
1
end_operator
begin_operator
zoom plane3 city2 city2 fl2 fl1 fl0
1
13 2
1
0 10 2 0
1
end_operator
begin_operator
zoom plane3 city2 city2 fl3 fl2 fl1
1
13 2
1
0 10 3 1
1
end_operator
begin_operator
zoom plane3 city2 city2 fl4 fl3 fl2
1
13 2
1
0 10 4 2
1
end_operator
begin_operator
zoom plane3 city2 city2 fl5 fl4 fl3
1
13 2
1
0 10 5 3
1
end_operator
begin_operator
zoom plane3 city2 city2 fl6 fl5 fl4
1
13 2
1
0 10 6 4
1
end_operator
begin_operator
zoom plane3 city2 city3 fl2 fl1 fl0
0
2
0 10 2 0
0 13 2 3
1
end_operator
begin_operator
zoom plane3 city2 city3 fl3 fl2 fl1
0
2
0 10 3 1
0 13 2 3
1
end_operator
begin_operator
zoom plane3 city2 city3 fl4 fl3 fl2
0
2
0 10 4 2
0 13 2 3
1
end_operator
begin_operator
zoom plane3 city2 city3 fl5 fl4 fl3
0
2
0 10 5 3
0 13 2 3
1
end_operator
begin_operator
zoom plane3 city2 city3 fl6 fl5 fl4
0
2
0 10 6 4
0 13 2 3
1
end_operator
begin_operator
zoom plane3 city2 city4 fl2 fl1 fl0
0
2
0 10 2 0
0 13 2 4
1
end_operator
begin_operator
zoom plane3 city2 city4 fl3 fl2 fl1
0
2
0 10 3 1
0 13 2 4
1
end_operator
begin_operator
zoom plane3 city2 city4 fl4 fl3 fl2
0
2
0 10 4 2
0 13 2 4
1
end_operator
begin_operator
zoom plane3 city2 city4 fl5 fl4 fl3
0
2
0 10 5 3
0 13 2 4
1
end_operator
begin_operator
zoom plane3 city2 city4 fl6 fl5 fl4
0
2
0 10 6 4
0 13 2 4
1
end_operator
begin_operator
zoom plane3 city3 city0 fl2 fl1 fl0
0
2
0 10 2 0
0 13 3 0
1
end_operator
begin_operator
zoom plane3 city3 city0 fl3 fl2 fl1
0
2
0 10 3 1
0 13 3 0
1
end_operator
begin_operator
zoom plane3 city3 city0 fl4 fl3 fl2
0
2
0 10 4 2
0 13 3 0
1
end_operator
begin_operator
zoom plane3 city3 city0 fl5 fl4 fl3
0
2
0 10 5 3
0 13 3 0
1
end_operator
begin_operator
zoom plane3 city3 city0 fl6 fl5 fl4
0
2
0 10 6 4
0 13 3 0
1
end_operator
begin_operator
zoom plane3 city3 city1 fl2 fl1 fl0
0
2
0 10 2 0
0 13 3 1
1
end_operator
begin_operator
zoom plane3 city3 city1 fl3 fl2 fl1
0
2
0 10 3 1
0 13 3 1
1
end_operator
begin_operator
zoom plane3 city3 city1 fl4 fl3 fl2
0
2
0 10 4 2
0 13 3 1
1
end_operator
begin_operator
zoom plane3 city3 city1 fl5 fl4 fl3
0
2
0 10 5 3
0 13 3 1
1
end_operator
begin_operator
zoom plane3 city3 city1 fl6 fl5 fl4
0
2
0 10 6 4
0 13 3 1
1
end_operator
begin_operator
zoom plane3 city3 city2 fl2 fl1 fl0
0
2
0 10 2 0
0 13 3 2
1
end_operator
begin_operator
zoom plane3 city3 city2 fl3 fl2 fl1
0
2
0 10 3 1
0 13 3 2
1
end_operator
begin_operator
zoom plane3 city3 city2 fl4 fl3 fl2
0
2
0 10 4 2
0 13 3 2
1
end_operator
begin_operator
zoom plane3 city3 city2 fl5 fl4 fl3
0
2
0 10 5 3
0 13 3 2
1
end_operator
begin_operator
zoom plane3 city3 city2 fl6 fl5 fl4
0
2
0 10 6 4
0 13 3 2
1
end_operator
begin_operator
zoom plane3 city3 city3 fl2 fl1 fl0
1
13 3
1
0 10 2 0
1
end_operator
begin_operator
zoom plane3 city3 city3 fl3 fl2 fl1
1
13 3
1
0 10 3 1
1
end_operator
begin_operator
zoom plane3 city3 city3 fl4 fl3 fl2
1
13 3
1
0 10 4 2
1
end_operator
begin_operator
zoom plane3 city3 city3 fl5 fl4 fl3
1
13 3
1
0 10 5 3
1
end_operator
begin_operator
zoom plane3 city3 city3 fl6 fl5 fl4
1
13 3
1
0 10 6 4
1
end_operator
begin_operator
zoom plane3 city3 city4 fl2 fl1 fl0
0
2
0 10 2 0
0 13 3 4
1
end_operator
begin_operator
zoom plane3 city3 city4 fl3 fl2 fl1
0
2
0 10 3 1
0 13 3 4
1
end_operator
begin_operator
zoom plane3 city3 city4 fl4 fl3 fl2
0
2
0 10 4 2
0 13 3 4
1
end_operator
begin_operator
zoom plane3 city3 city4 fl5 fl4 fl3
0
2
0 10 5 3
0 13 3 4
1
end_operator
begin_operator
zoom plane3 city3 city4 fl6 fl5 fl4
0
2
0 10 6 4
0 13 3 4
1
end_operator
begin_operator
zoom plane3 city4 city0 fl2 fl1 fl0
0
2
0 10 2 0
0 13 4 0
1
end_operator
begin_operator
zoom plane3 city4 city0 fl3 fl2 fl1
0
2
0 10 3 1
0 13 4 0
1
end_operator
begin_operator
zoom plane3 city4 city0 fl4 fl3 fl2
0
2
0 10 4 2
0 13 4 0
1
end_operator
begin_operator
zoom plane3 city4 city0 fl5 fl4 fl3
0
2
0 10 5 3
0 13 4 0
1
end_operator
begin_operator
zoom plane3 city4 city0 fl6 fl5 fl4
0
2
0 10 6 4
0 13 4 0
1
end_operator
begin_operator
zoom plane3 city4 city1 fl2 fl1 fl0
0
2
0 10 2 0
0 13 4 1
1
end_operator
begin_operator
zoom plane3 city4 city1 fl3 fl2 fl1
0
2
0 10 3 1
0 13 4 1
1
end_operator
begin_operator
zoom plane3 city4 city1 fl4 fl3 fl2
0
2
0 10 4 2
0 13 4 1
1
end_operator
begin_operator
zoom plane3 city4 city1 fl5 fl4 fl3
0
2
0 10 5 3
0 13 4 1
1
end_operator
begin_operator
zoom plane3 city4 city1 fl6 fl5 fl4
0
2
0 10 6 4
0 13 4 1
1
end_operator
begin_operator
zoom plane3 city4 city2 fl2 fl1 fl0
0
2
0 10 2 0
0 13 4 2
1
end_operator
begin_operator
zoom plane3 city4 city2 fl3 fl2 fl1
0
2
0 10 3 1
0 13 4 2
1
end_operator
begin_operator
zoom plane3 city4 city2 fl4 fl3 fl2
0
2
0 10 4 2
0 13 4 2
1
end_operator
begin_operator
zoom plane3 city4 city2 fl5 fl4 fl3
0
2
0 10 5 3
0 13 4 2
1
end_operator
begin_operator
zoom plane3 city4 city2 fl6 fl5 fl4
0
2
0 10 6 4
0 13 4 2
1
end_operator
begin_operator
zoom plane3 city4 city3 fl2 fl1 fl0
0
2
0 10 2 0
0 13 4 3
1
end_operator
begin_operator
zoom plane3 city4 city3 fl3 fl2 fl1
0
2
0 10 3 1
0 13 4 3
1
end_operator
begin_operator
zoom plane3 city4 city3 fl4 fl3 fl2
0
2
0 10 4 2
0 13 4 3
1
end_operator
begin_operator
zoom plane3 city4 city3 fl5 fl4 fl3
0
2
0 10 5 3
0 13 4 3
1
end_operator
begin_operator
zoom plane3 city4 city3 fl6 fl5 fl4
0
2
0 10 6 4
0 13 4 3
1
end_operator
begin_operator
zoom plane3 city4 city4 fl2 fl1 fl0
1
13 4
1
0 10 2 0
1
end_operator
begin_operator
zoom plane3 city4 city4 fl3 fl2 fl1
1
13 4
1
0 10 3 1
1
end_operator
begin_operator
zoom plane3 city4 city4 fl4 fl3 fl2
1
13 4
1
0 10 4 2
1
end_operator
begin_operator
zoom plane3 city4 city4 fl5 fl4 fl3
1
13 4
1
0 10 5 3
1
end_operator
begin_operator
zoom plane3 city4 city4 fl6 fl5 fl4
1
13 4
1
0 10 6 4
1
end_operator
begin_operator
tnf-forget-8-0
0
1
0 8 0 7
0
end_operator
begin_operator
tnf-forget-8-1
0
1
0 8 1 7
0
end_operator
begin_operator
tnf-forget-8-2
0
1
0 8 2 7
0
end_operator
begin_operator
tnf-forget-8-3
0
1
0 8 3 7
0
end_operator
begin_operator
tnf-forget-8-4
0
1
0 8 4 7
0
end_operator
begin_operator
tnf-forget-8-5
0
1
0 8 5 7
0
end_operator
begin_operator
tnf-forget-8-6
0
1
0 8 6 7
0
end_operator
begin_operator
tnf-forget-9-0
0
1
0 9 0 7
0
end_operator
begin_operator
tnf-forget-9-1
0
1
0 9 1 7
0
end_operator
begin_operator
tnf-forget-9-2
0
1
0 9 2 7
0
end_operator
begin_operator
tnf-forget-9-3
0
1
0 9 3 7
0
end_operator
begin_operator
tnf-forget-9-4
0
1
0 9 4 7
0
end_operator
begin_operator
tnf-forget-9-5
0
1
0 9 5 7
0
end_operator
begin_operator
tnf-forget-9-6
0
1
0 9 6 7
0
end_operator
begin_operator
tnf-forget-10-0
0
1
0 10 0 7
0
end_operator
begin_operator
tnf-forget-10-1
0
1
0 10 1 7
0
end_operator
begin_operator
tnf-forget-10-2
0
1
0 10 2 7
0
end_operator
begin_operator
tnf-forget-10-3
0
1
0 10 3 7
0
end_operator
begin_operator
tnf-forget-10-4
0
1
0 10 4 7
0
end_operator
begin_operator
tnf-forget-10-5
0
1
0 10 5 7
0
end_operator
begin_operator
tnf-forget-10-6
0
1
0 10 6 7
0
end_operator
begin_operator
tnf-forget-12-0
0
1
0 12 0 5
0
end_operator
begin_operator
tnf-forget-12-1
0
1
0 12 1 5
0
end_operator
begin_operator
tnf-forget-12-2
0
1
0 12 2 5
0
end_operator
begin_operator
tnf-forget-12-3
0
1
0 12 3 5
0
end_operator
begin_operator
tnf-forget-12-4
0
1
0 12 4 5
0
end_operator
begin_operator
tnf-forget-13-0
0
1
0 13 0 5
0
end_operator
begin_operator
tnf-forget-13-1
0
1
0 13 1 5
0
end_operator
begin_operator
tnf-forget-13-2
0
1
0 13 2 5
0
end_operator
begin_operator
tnf-forget-13-3
0
1
0 13 3 5
0
end_operator
begin_operator
tnf-forget-13-4
0
1
0 13 4 5
0
end_operator
0
