Fact[51]:
  (at-robot loc-x0-y0)
  (at-robot loc-x0-y1)
  (at-robot loc-x0-y2)
  (at-robot loc-x0-y3)
  (at-robot loc-x0-y4)
  (at-robot loc-x0-y5)
  (at-robot loc-x1-y0)
  (at-robot loc-x1-y1)
  (at-robot loc-x1-y2)
  (at-robot loc-x1-y3)
  (at-robot loc-x1-y4)
  (at-robot loc-x1-y5)
  (at-robot loc-x2-y0)
  (at-robot loc-x2-y1)
  (at-robot loc-x2-y2)
  (at-robot loc-x2-y3)
  (at-robot loc-x2-y4)
  (at-robot loc-x2-y5)
  (at-robot loc-x3-y0)
  (at-robot loc-x3-y1)
  (at-robot loc-x3-y2)
  (at-robot loc-x3-y3)
  (at-robot loc-x3-y4)
  (at-robot loc-x3-y5)
  (at-robot loc-x4-y0)
  (at-robot loc-x4-y1)
  (at-robot loc-x4-y2)
  (at-robot loc-x4-y3)
  (at-robot loc-x4-y4)
  (at-robot loc-x4-y5)
  (at-robot loc-x5-y0)
  (at-robot loc-x5-y1)
  (at-robot loc-x5-y2)
  (at-robot loc-x5-y3)
  (at-robot loc-x5-y4)
  (at-robot loc-x5-y5)
  (visited loc-x0-y2)
  (visited loc-x0-y3)
  (visited loc-x0-y4)
  (visited loc-x0-y5)
  (visited loc-x1-y0)
  (visited loc-x1-y1)
  (visited loc-x1-y3)
  (visited loc-x1-y4)
  (visited loc-x2-y0)
  (visited loc-x2-y1)
  (visited loc-x3-y0)
  (visited loc-x3-y4)
  (visited loc-x5-y0)
  (visited loc-x5-y4)
  (visited loc-x5-y5)
Op[120]:
  (move loc-x0-y0 loc-x0-y1), cost: 1
    pre: (at-robot loc-x0-y0)
    add: (at-robot loc-x0-y1)
    del: (at-robot loc-x0-y0)
  (move loc-x0-y0 loc-x1-y0), cost: 1
    pre: (at-robot loc-x0-y0)
    add: (at-robot loc-x1-y0) (visited loc-x1-y0)
    del: (at-robot loc-x0-y0)
  (move loc-x0-y1 loc-x0-y0), cost: 1
    pre: (at-robot loc-x0-y1)
    add: (at-robot loc-x0-y0)
    del: (at-robot loc-x0-y1)
  (move loc-x0-y1 loc-x0-y2), cost: 1
    pre: (at-robot loc-x0-y1)
    add: (at-robot loc-x0-y2) (visited loc-x0-y2)
    del: (at-robot loc-x0-y1)
  (move loc-x0-y1 loc-x1-y1), cost: 1
    pre: (at-robot loc-x0-y1)
    add: (at-robot loc-x1-y1) (visited loc-x1-y1)
    del: (at-robot loc-x0-y1)
  (move loc-x0-y2 loc-x0-y1), cost: 1
    pre: (at-robot loc-x0-y2)
    add: (at-robot loc-x0-y1)
    del: (at-robot loc-x0-y2)
  (move loc-x0-y2 loc-x0-y3), cost: 1
    pre: (at-robot loc-x0-y2)
    add: (at-robot loc-x0-y3) (visited loc-x0-y3)
    del: (at-robot loc-x0-y2)
  (move loc-x0-y2 loc-x1-y2), cost: 1
    pre: (at-robot loc-x0-y2)
    add: (at-robot loc-x1-y2)
    del: (at-robot loc-x0-y2)
  (move loc-x0-y3 loc-x0-y2), cost: 1
    pre: (at-robot loc-x0-y3)
    add: (at-robot loc-x0-y2) (visited loc-x0-y2)
    del: (at-robot loc-x0-y3)
  (move loc-x0-y3 loc-x0-y4), cost: 1
    pre: (at-robot loc-x0-y3)
    add: (at-robot loc-x0-y4) (visited loc-x0-y4)
    del: (at-robot loc-x0-y3)
  (move loc-x0-y3 loc-x1-y3), cost: 1
    pre: (at-robot loc-x0-y3)
    add: (at-robot loc-x1-y3) (visited loc-x1-y3)
    del: (at-robot loc-x0-y3)
  (move loc-x0-y4 loc-x0-y3), cost: 1
    pre: (at-robot loc-x0-y4)
    add: (at-robot loc-x0-y3) (visited loc-x0-y3)
    del: (at-robot loc-x0-y4)
  (move loc-x0-y4 loc-x0-y5), cost: 1
    pre: (at-robot loc-x0-y4)
    add: (at-robot loc-x0-y5) (visited loc-x0-y5)
    del: (at-robot loc-x0-y4)
  (move loc-x0-y4 loc-x1-y4), cost: 1
    pre: (at-robot loc-x0-y4)
    add: (at-robot loc-x1-y4) (visited loc-x1-y4)
    del: (at-robot loc-x0-y4)
  (move loc-x0-y5 loc-x0-y4), cost: 1
    pre: (at-robot loc-x0-y5)
    add: (at-robot loc-x0-y4) (visited loc-x0-y4)
    del: (at-robot loc-x0-y5)
  (move loc-x0-y5 loc-x1-y5), cost: 1
    pre: (at-robot loc-x0-y5)
    add: (at-robot loc-x1-y5)
    del: (at-robot loc-x0-y5)
  (move loc-x1-y0 loc-x0-y0), cost: 1
    pre: (at-robot loc-x1-y0)
    add: (at-robot loc-x0-y0)
    del: (at-robot loc-x1-y0)
  (move loc-x1-y0 loc-x1-y1), cost: 1
    pre: (at-robot loc-x1-y0)
    add: (at-robot loc-x1-y1) (visited loc-x1-y1)
    del: (at-robot loc-x1-y0)
  (move loc-x1-y0 loc-x2-y0), cost: 1
    pre: (at-robot loc-x1-y0)
    add: (at-robot loc-x2-y0) (visited loc-x2-y0)
    del: (at-robot loc-x1-y0)
  (move loc-x1-y1 loc-x0-y1), cost: 1
    pre: (at-robot loc-x1-y1)
    add: (at-robot loc-x0-y1)
    del: (at-robot loc-x1-y1)
  (move loc-x1-y1 loc-x1-y0), cost: 1
    pre: (at-robot loc-x1-y1)
    add: (at-robot loc-x1-y0) (visited loc-x1-y0)
    del: (at-robot loc-x1-y1)
  (move loc-x1-y1 loc-x1-y2), cost: 1
    pre: (at-robot loc-x1-y1)
    add: (at-robot loc-x1-y2)
    del: (at-robot loc-x1-y1)
  (move loc-x1-y1 loc-x2-y1), cost: 1
    pre: (at-robot loc-x1-y1)
    add: (at-robot loc-x2-y1) (visited loc-x2-y1)
    del: (at-robot loc-x1-y1)
  (move loc-x1-y2 loc-x0-y2), cost: 1
    pre: (at-robot loc-x1-y2)
    add: (at-robot loc-x0-y2) (visited loc-x0-y2)
    del: (at-robot loc-x1-y2)
  (move loc-x1-y2 loc-x1-y1), cost: 1
    pre: (at-robot loc-x1-y2)
    add: (at-robot loc-x1-y1) (visited loc-x1-y1)
    del: (at-robot loc-x1-y2)
  (move loc-x1-y2 loc-x1-y3), cost: 1
    pre: (at-robot loc-x1-y2)
    add: (at-robot loc-x1-y3) (visited loc-x1-y3)
    del: (at-robot loc-x1-y2)
  (move loc-x1-y2 loc-x2-y2), cost: 1
    pre: (at-robot loc-x1-y2)
    add: (at-robot loc-x2-y2)
    del: (at-robot loc-x1-y2)
  (move loc-x1-y3 loc-x0-y3), cost: 1
    pre: (at-robot loc-x1-y3)
    add: (at-robot loc-x0-y3) (visited loc-x0-y3)
    del: (at-robot loc-x1-y3)
  (move loc-x1-y3 loc-x1-y2), cost: 1
    pre: (at-robot loc-x1-y3)
    add: (at-robot loc-x1-y2)
    del: (at-robot loc-x1-y3)
  (move loc-x1-y3 loc-x1-y4), cost: 1
    pre: (at-robot loc-x1-y3)
    add: (at-robot loc-x1-y4) (visited loc-x1-y4)
    del: (at-robot loc-x1-y3)
  (move loc-x1-y3 loc-x2-y3), cost: 1
    pre: (at-robot loc-x1-y3)
    add: (at-robot loc-x2-y3)
    del: (at-robot loc-x1-y3)
  (move loc-x1-y4 loc-x0-y4), cost: 1
    pre: (at-robot loc-x1-y4)
    add: (at-robot loc-x0-y4) (visited loc-x0-y4)
    del: (at-robot loc-x1-y4)
  (move loc-x1-y4 loc-x1-y3), cost: 1
    pre: (at-robot loc-x1-y4)
    add: (at-robot loc-x1-y3) (visited loc-x1-y3)
    del: (at-robot loc-x1-y4)
  (move loc-x1-y4 loc-x1-y5), cost: 1
    pre: (at-robot loc-x1-y4)
    add: (at-robot loc-x1-y5)
    del: (at-robot loc-x1-y4)
  (move loc-x1-y4 loc-x2-y4), cost: 1
    pre: (at-robot loc-x1-y4)
    add: (at-robot loc-x2-y4)
    del: (at-robot loc-x1-y4)
  (move loc-x1-y5 loc-x0-y5), cost: 1
    pre: (at-robot loc-x1-y5)
    add: (at-robot loc-x0-y5) (visited loc-x0-y5)
    del: (at-robot loc-x1-y5)
  (move loc-x1-y5 loc-x1-y4), cost: 1
    pre: (at-robot loc-x1-y5)
    add: (at-robot loc-x1-y4) (visited loc-x1-y4)
    del: (at-robot loc-x1-y5)
  (move loc-x1-y5 loc-x2-y5), cost: 1
    pre: (at-robot loc-x1-y5)
    add: (at-robot loc-x2-y5)
    del: (at-robot loc-x1-y5)
  (move loc-x2-y0 loc-x1-y0), cost: 1
    pre: (at-robot loc-x2-y0)
    add: (at-robot loc-x1-y0) (visited loc-x1-y0)
    del: (at-robot loc-x2-y0)
  (move loc-x2-y0 loc-x2-y1), cost: 1
    pre: (at-robot loc-x2-y0)
    add: (at-robot loc-x2-y1) (visited loc-x2-y1)
    del: (at-robot loc-x2-y0)
  (move loc-x2-y0 loc-x3-y0), cost: 1
    pre: (at-robot loc-x2-y0)
    add: (at-robot loc-x3-y0) (visited loc-x3-y0)
    del: (at-robot loc-x2-y0)
  (move loc-x2-y1 loc-x1-y1), cost: 1
    pre: (at-robot loc-x2-y1)
    add: (at-robot loc-x1-y1) (visited loc-x1-y1)
    del: (at-robot loc-x2-y1)
  (move loc-x2-y1 loc-x2-y0), cost: 1
    pre: (at-robot loc-x2-y1)
    add: (at-robot loc-x2-y0) (visited loc-x2-y0)
    del: (at-robot loc-x2-y1)
  (move loc-x2-y1 loc-x2-y2), cost: 1
    pre: (at-robot loc-x2-y1)
    add: (at-robot loc-x2-y2)
    del: (at-robot loc-x2-y1)
  (move loc-x2-y1 loc-x3-y1), cost: 1
    pre: (at-robot loc-x2-y1)
    add: (at-robot loc-x3-y1)
    del: (at-robot loc-x2-y1)
  (move loc-x2-y2 loc-x1-y2), cost: 1
    pre: (at-robot loc-x2-y2)
    add: (at-robot loc-x1-y2)
    del: (at-robot loc-x2-y2)
  (move loc-x2-y2 loc-x2-y1), cost: 1
    pre: (at-robot loc-x2-y2)
    add: (at-robot loc-x2-y1) (visited loc-x2-y1)
    del: (at-robot loc-x2-y2)
  (move loc-x2-y2 loc-x2-y3), cost: 1
    pre: (at-robot loc-x2-y2)
    add: (at-robot loc-x2-y3)
    del: (at-robot loc-x2-y2)
  (move loc-x2-y2 loc-x3-y2), cost: 1
    pre: (at-robot loc-x2-y2)
    add: (at-robot loc-x3-y2)
    del: (at-robot loc-x2-y2)
  (move loc-x2-y3 loc-x1-y3), cost: 1
    pre: (at-robot loc-x2-y3)
    add: (at-robot loc-x1-y3) (visited loc-x1-y3)
    del: (at-robot loc-x2-y3)
  (move loc-x2-y3 loc-x2-y2), cost: 1
    pre: (at-robot loc-x2-y3)
    add: (at-robot loc-x2-y2)
    del: (at-robot loc-x2-y3)
  (move loc-x2-y3 loc-x2-y4), cost: 1
    pre: (at-robot loc-x2-y3)
    add: (at-robot loc-x2-y4)
    del: (at-robot loc-x2-y3)
  (move loc-x2-y3 loc-x3-y3), cost: 1
    pre: (at-robot loc-x2-y3)
    add: (at-robot loc-x3-y3)
    del: (at-robot loc-x2-y3)
  (move loc-x2-y4 loc-x1-y4), cost: 1
    pre: (at-robot loc-x2-y4)
    add: (at-robot loc-x1-y4) (visited loc-x1-y4)
    del: (at-robot loc-x2-y4)
  (move loc-x2-y4 loc-x2-y3), cost: 1
    pre: (at-robot loc-x2-y4)
    add: (at-robot loc-x2-y3)
    del: (at-robot loc-x2-y4)
  (move loc-x2-y4 loc-x2-y5), cost: 1
    pre: (at-robot loc-x2-y4)
    add: (at-robot loc-x2-y5)
    del: (at-robot loc-x2-y4)
  (move loc-x2-y4 loc-x3-y4), cost: 1
    pre: (at-robot loc-x2-y4)
    add: (at-robot loc-x3-y4) (visited loc-x3-y4)
    del: (at-robot loc-x2-y4)
  (move loc-x2-y5 loc-x1-y5), cost: 1
    pre: (at-robot loc-x2-y5)
    add: (at-robot loc-x1-y5)
    del: (at-robot loc-x2-y5)
  (move loc-x2-y5 loc-x2-y4), cost: 1
    pre: (at-robot loc-x2-y5)
    add: (at-robot loc-x2-y4)
    del: (at-robot loc-x2-y5)
  (move loc-x2-y5 loc-x3-y5), cost: 1
    pre: (at-robot loc-x2-y5)
    add: (at-robot loc-x3-y5)
    del: (at-robot loc-x2-y5)
  (move loc-x3-y0 loc-x2-y0), cost: 1
    pre: (at-robot loc-x3-y0)
    add: (at-robot loc-x2-y0) (visited loc-x2-y0)
    del: (at-robot loc-x3-y0)
  (move loc-x3-y0 loc-x3-y1), cost: 1
    pre: (at-robot loc-x3-y0)
    add: (at-robot loc-x3-y1)
    del: (at-robot loc-x3-y0)
  (move loc-x3-y0 loc-x4-y0), cost: 1
    pre: (at-robot loc-x3-y0)
    add: (at-robot loc-x4-y0)
    del: (at-robot loc-x3-y0)
  (move loc-x3-y1 loc-x2-y1), cost: 1
    pre: (at-robot loc-x3-y1)
    add: (at-robot loc-x2-y1) (visited loc-x2-y1)
    del: (at-robot loc-x3-y1)
  (move loc-x3-y1 loc-x3-y0), cost: 1
    pre: (at-robot loc-x3-y1)
    add: (at-robot loc-x3-y0) (visited loc-x3-y0)
    del: (at-robot loc-x3-y1)
  (move loc-x3-y1 loc-x3-y2), cost: 1
    pre: (at-robot loc-x3-y1)
    add: (at-robot loc-x3-y2)
    del: (at-robot loc-x3-y1)
  (move loc-x3-y1 loc-x4-y1), cost: 1
    pre: (at-robot loc-x3-y1)
    add: (at-robot loc-x4-y1)
    del: (at-robot loc-x3-y1)
  (move loc-x3-y2 loc-x2-y2), cost: 1
    pre: (at-robot loc-x3-y2)
    add: (at-robot loc-x2-y2)
    del: (at-robot loc-x3-y2)
  (move loc-x3-y2 loc-x3-y1), cost: 1
    pre: (at-robot loc-x3-y2)
    add: (at-robot loc-x3-y1)
    del: (at-robot loc-x3-y2)
  (move loc-x3-y2 loc-x3-y3), cost: 1
    pre: (at-robot loc-x3-y2)
    add: (at-robot loc-x3-y3)
    del: (at-robot loc-x3-y2)
  (move loc-x3-y2 loc-x4-y2), cost: 1
    pre: (at-robot loc-x3-y2)
    add: (at-robot loc-x4-y2)
    del: (at-robot loc-x3-y2)
  (move loc-x3-y3 loc-x2-y3), cost: 1
    pre: (at-robot loc-x3-y3)
    add: (at-robot loc-x2-y3)
    del: (at-robot loc-x3-y3)
  (move loc-x3-y3 loc-x3-y2), cost: 1
    pre: (at-robot loc-x3-y3)
    add: (at-robot loc-x3-y2)
    del: (at-robot loc-x3-y3)
  (move loc-x3-y3 loc-x3-y4), cost: 1
    pre: (at-robot loc-x3-y3)
    add: (at-robot loc-x3-y4) (visited loc-x3-y4)
    del: (at-robot loc-x3-y3)
  (move loc-x3-y3 loc-x4-y3), cost: 1
    pre: (at-robot loc-x3-y3)
    add: (at-robot loc-x4-y3)
    del: (at-robot loc-x3-y3)
  (move loc-x3-y4 loc-x2-y4), cost: 1
    pre: (at-robot loc-x3-y4)
    add: (at-robot loc-x2-y4)
    del: (at-robot loc-x3-y4)
  (move loc-x3-y4 loc-x3-y3), cost: 1
    pre: (at-robot loc-x3-y4)
    add: (at-robot loc-x3-y3)
    del: (at-robot loc-x3-y4)
  (move loc-x3-y4 loc-x3-y5), cost: 1
    pre: (at-robot loc-x3-y4)
    add: (at-robot loc-x3-y5)
    del: (at-robot loc-x3-y4)
  (move loc-x3-y4 loc-x4-y4), cost: 1
    pre: (at-robot loc-x3-y4)
    add: (at-robot loc-x4-y4)
    del: (at-robot loc-x3-y4)
  (move loc-x3-y5 loc-x2-y5), cost: 1
    pre: (at-robot loc-x3-y5)
    add: (at-robot loc-x2-y5)
    del: (at-robot loc-x3-y5)
  (move loc-x3-y5 loc-x3-y4), cost: 1
    pre: (at-robot loc-x3-y5)
    add: (at-robot loc-x3-y4) (visited loc-x3-y4)
    del: (at-robot loc-x3-y5)
  (move loc-x3-y5 loc-x4-y5), cost: 1
    pre: (at-robot loc-x3-y5)
    add: (at-robot loc-x4-y5)
    del: (at-robot loc-x3-y5)
  (move loc-x4-y0 loc-x3-y0), cost: 1
    pre: (at-robot loc-x4-y0)
    add: (at-robot loc-x3-y0) (visited loc-x3-y0)
    del: (at-robot loc-x4-y0)
  (move loc-x4-y0 loc-x4-y1), cost: 1
    pre: (at-robot loc-x4-y0)
    add: (at-robot loc-x4-y1)
    del: (at-robot loc-x4-y0)
  (move loc-x4-y0 loc-x5-y0), cost: 1
    pre: (at-robot loc-x4-y0)
    add: (at-robot loc-x5-y0) (visited loc-x5-y0)
    del: (at-robot loc-x4-y0)
  (move loc-x4-y1 loc-x3-y1), cost: 1
    pre: (at-robot loc-x4-y1)
    add: (at-robot loc-x3-y1)
    del: (at-robot loc-x4-y1)
  (move loc-x4-y1 loc-x4-y0), cost: 1
    pre: (at-robot loc-x4-y1)
    add: (at-robot loc-x4-y0)
    del: (at-robot loc-x4-y1)
  (move loc-x4-y1 loc-x4-y2), cost: 1
    pre: (at-robot loc-x4-y1)
    add: (at-robot loc-x4-y2)
    del: (at-robot loc-x4-y1)
  (move loc-x4-y1 loc-x5-y1), cost: 1
    pre: (at-robot loc-x4-y1)
    add: (at-robot loc-x5-y1)
    del: (at-robot loc-x4-y1)
  (move loc-x4-y2 loc-x3-y2), cost: 1
    pre: (at-robot loc-x4-y2)
    add: (at-robot loc-x3-y2)
    del: (at-robot loc-x4-y2)
  (move loc-x4-y2 loc-x4-y1), cost: 1
    pre: (at-robot loc-x4-y2)
    add: (at-robot loc-x4-y1)
    del: (at-robot loc-x4-y2)
  (move loc-x4-y2 loc-x4-y3), cost: 1
    pre: (at-robot loc-x4-y2)
    add: (at-robot loc-x4-y3)
    del: (at-robot loc-x4-y2)
  (move loc-x4-y2 loc-x5-y2), cost: 1
    pre: (at-robot loc-x4-y2)
    add: (at-robot loc-x5-y2)
    del: (at-robot loc-x4-y2)
  (move loc-x4-y3 loc-x3-y3), cost: 1
    pre: (at-robot loc-x4-y3)
    add: (at-robot loc-x3-y3)
    del: (at-robot loc-x4-y3)
  (move loc-x4-y3 loc-x4-y2), cost: 1
    pre: (at-robot loc-x4-y3)
    add: (at-robot loc-x4-y2)
    del: (at-robot loc-x4-y3)
  (move loc-x4-y3 loc-x4-y4), cost: 1
    pre: (at-robot loc-x4-y3)
    add: (at-robot loc-x4-y4)
    del: (at-robot loc-x4-y3)
  (move loc-x4-y3 loc-x5-y3), cost: 1
    pre: (at-robot loc-x4-y3)
    add: (at-robot loc-x5-y3)
    del: (at-robot loc-x4-y3)
  (move loc-x4-y4 loc-x3-y4), cost: 1
    pre: (at-robot loc-x4-y4)
    add: (at-robot loc-x3-y4) (visited loc-x3-y4)
    del: (at-robot loc-x4-y4)
  (move loc-x4-y4 loc-x4-y3), cost: 1
    pre: (at-robot loc-x4-y4)
    add: (at-robot loc-x4-y3)
    del: (at-robot loc-x4-y4)
  (move loc-x4-y4 loc-x4-y5), cost: 1
    pre: (at-robot loc-x4-y4)
    add: (at-robot loc-x4-y5)
    del: (at-robot loc-x4-y4)
  (move loc-x4-y4 loc-x5-y4), cost: 1
    pre: (at-robot loc-x4-y4)
    add: (at-robot loc-x5-y4) (visited loc-x5-y4)
    del: (at-robot loc-x4-y4)
  (move loc-x4-y5 loc-x3-y5), cost: 1
    pre: (at-robot loc-x4-y5)
    add: (at-robot loc-x3-y5)
    del: (at-robot loc-x4-y5)
  (move loc-x4-y5 loc-x4-y4), cost: 1
    pre: (at-robot loc-x4-y5)
    add: (at-robot loc-x4-y4)
    del: (at-robot loc-x4-y5)
  (move loc-x4-y5 loc-x5-y5), cost: 1
    pre: (at-robot loc-x4-y5)
    add: (at-robot loc-x5-y5) (visited loc-x5-y5)
    del: (at-robot loc-x4-y5)
  (move loc-x5-y0 loc-x4-y0), cost: 1
    pre: (at-robot loc-x5-y0)
    add: (at-robot loc-x4-y0)
    del: (at-robot loc-x5-y0)
  (move loc-x5-y0 loc-x5-y1), cost: 1
    pre: (at-robot loc-x5-y0)
    add: (at-robot loc-x5-y1)
    del: (at-robot loc-x5-y0)
  (move loc-x5-y1 loc-x4-y1), cost: 1
    pre: (at-robot loc-x5-y1)
    add: (at-robot loc-x4-y1)
    del: (at-robot loc-x5-y1)
  (move loc-x5-y1 loc-x5-y0), cost: 1
    pre: (at-robot loc-x5-y1)
    add: (at-robot loc-x5-y0) (visited loc-x5-y0)
    del: (at-robot loc-x5-y1)
  (move loc-x5-y1 loc-x5-y2), cost: 1
    pre: (at-robot loc-x5-y1)
    add: (at-robot loc-x5-y2)
    del: (at-robot loc-x5-y1)
  (move loc-x5-y2 loc-x4-y2), cost: 1
    pre: (at-robot loc-x5-y2)
    add: (at-robot loc-x4-y2)
    del: (at-robot loc-x5-y2)
  (move loc-x5-y2 loc-x5-y1), cost: 1
    pre: (at-robot loc-x5-y2)
    add: (at-robot loc-x5-y1)
    del: (at-robot loc-x5-y2)
  (move loc-x5-y2 loc-x5-y3), cost: 1
    pre: (at-robot loc-x5-y2)
    add: (at-robot loc-x5-y3)
    del: (at-robot loc-x5-y2)
  (move loc-x5-y3 loc-x4-y3), cost: 1
    pre: (at-robot loc-x5-y3)
    add: (at-robot loc-x4-y3)
    del: (at-robot loc-x5-y3)
  (move loc-x5-y3 loc-x5-y2), cost: 1
    pre: (at-robot loc-x5-y3)
    add: (at-robot loc-x5-y2)
    del: (at-robot loc-x5-y3)
  (move loc-x5-y3 loc-x5-y4), cost: 1
    pre: (at-robot loc-x5-y3)
    add: (at-robot loc-x5-y4) (visited loc-x5-y4)
    del: (at-robot loc-x5-y3)
  (move loc-x5-y4 loc-x4-y4), cost: 1
    pre: (at-robot loc-x5-y4)
    add: (at-robot loc-x4-y4)
    del: (at-robot loc-x5-y4)
  (move loc-x5-y4 loc-x5-y3), cost: 1
    pre: (at-robot loc-x5-y4)
    add: (at-robot loc-x5-y3)
    del: (at-robot loc-x5-y4)
  (move loc-x5-y4 loc-x5-y5), cost: 1
    pre: (at-robot loc-x5-y4)
    add: (at-robot loc-x5-y5) (visited loc-x5-y5)
    del: (at-robot loc-x5-y4)
  (move loc-x5-y5 loc-x4-y5), cost: 1
    pre: (at-robot loc-x5-y5)
    add: (at-robot loc-x4-y5)
    del: (at-robot loc-x5-y5)
  (move loc-x5-y5 loc-x5-y4), cost: 1
    pre: (at-robot loc-x5-y5)
    add: (at-robot loc-x5-y4) (visited loc-x5-y4)
    del: (at-robot loc-x5-y5)
Init State: (at-robot loc-x3-y3)
Goal: (visited loc-x0-y2) (visited loc-x0-y3) (visited loc-x0-y4) (visited loc-x0-y5) (visited loc-x1-y0) (visited loc-x1-y1) (visited loc-x1-y3) (visited loc-x1-y4) (visited loc-x2-y0) (visited loc-x2-y1) (visited loc-x3-y0) (visited loc-x3-y4) (visited loc-x5-y0) (visited loc-x5-y4) (visited loc-x5-y5)
