RSE-Invertible facts:
0:(first b0 s12) in-fam-group
1:(first b0 s13) in-fam-group
2:(first b1 s12) in-fam-group
3:(first b1 s13) in-fam-group
4:(first b2 s12) in-fam-group
5:(first b2 s13) in-fam-group
6:(first b3 s12) in-fam-group
7:(first b3 s13) in-fam-group
8:(first b4 s12) in-fam-group
9:(first b4 s13) in-fam-group
10:(first b5 s12) in-fam-group
11:(first b5 s13) in-fam-group
12:(not-occupied ta1-1-gasoleo) in-fam-group
13:(not-occupied ta1-1-lco) in-fam-group
14:(not-occupied ta1-1-oc1b) in-fam-group
15:(not-occupied ta1-1-oca1) in-fam-group
16:(not-occupied ta1-1-rat-a) in-fam-group
17:(not-occupied ta2-1-gasoleo) in-fam-group
18:(not-occupied ta2-1-lco) in-fam-group
19:(not-occupied ta2-1-oc1b) in-fam-group
20:(not-occupied ta2-1-oca1) in-fam-group
21:(not-occupied ta2-1-rat-a) in-fam-group
22:(not-occupied ta3-1-gasoleo) in-fam-group
23:(not-occupied ta3-1-lco) in-fam-group
24:(not-occupied ta3-1-oc1b) in-fam-group
25:(not-occupied ta3-1-oca1) in-fam-group
26:(not-occupied ta3-1-rat-a) in-fam-group
27:(occupied ta1-1-gasoleo) in-fam-group
28:(occupied ta1-1-lco) in-fam-group
29:(occupied ta1-1-oc1b) in-fam-group
30:(occupied ta1-1-oca1) in-fam-group
31:(occupied ta1-1-rat-a) in-fam-group
32:(occupied ta2-1-gasoleo) in-fam-group
33:(occupied ta2-1-lco) in-fam-group
34:(occupied ta2-1-oc1b) in-fam-group
35:(occupied ta2-1-oca1) in-fam-group
36:(occupied ta2-1-rat-a) in-fam-group
37:(occupied ta3-1-gasoleo) in-fam-group
38:(occupied ta3-1-lco) in-fam-group
39:(occupied ta3-1-oc1b) in-fam-group
40:(occupied ta3-1-oca1) in-fam-group
41:(occupied ta3-1-rat-a) in-fam-group
42:(on b0 a1) in-fam-group
43:(on b0 a2) in-fam-group
44:(on b0 a3) in-fam-group
45:(on b1 a1) in-fam-group
46:(on b1 a3) in-fam-group
47:(on b2 a1) in-fam-group
48:(on b2 a2) in-fam-group
49:(on b2 a3) in-fam-group
50:(on b3 a1) in-fam-group
51:(on b3 a2) in-fam-group
52:(on b3 a3) in-fam-group
53:(on b4 a1) in-fam-group
54:(on b4 a2) in-fam-group
55:(on b5 a1) in-fam-group
56:(on b5 a2) in-fam-group
57:(on b5 a3) in-fam-group
