 (not-occupied ta1-1-gasoleo) (occupied ta1-1-gasoleo):=1
 (not-occupied ta1-1-lco) (occupied ta1-1-lco):=1
 (not-occupied ta1-1-oca1) (occupied ta1-1-oca1):=1
 (not-occupied ta1-1-rat-a) (occupied ta1-1-rat-a):=1
 (not-occupied ta1-2-lco) (occupied ta1-2-lco):=1
 (not-occupied ta1-2-oca1) (occupied ta1-2-oca1):=1
 (not-occupied ta1-2-rat-a) (occupied ta1-2-rat-a):=1
 (not-occupied ta1-3-lco) (occupied ta1-3-lco):=1
 (not-occupied ta2-1-gasoleo) (occupied ta2-1-gasoleo):=1
 (not-occupied ta2-1-gasoleo) (on b11 a2):=1
 (not-occupied ta2-1-lco) (occupied ta2-1-lco):=1
 (not-occupied ta2-1-oca1) (occupied ta2-1-oca1):=1
 (not-occupied ta2-1-rat-a) (occupied ta2-1-rat-a):=1
 (not-occupied ta2-2-lco) (occupied ta2-2-lco):=1
 (not-occupied ta2-2-oca1) (occupied ta2-2-oca1):=1
 (not-occupied ta2-2-rat-a) (occupied ta2-2-rat-a):=1
 (not-occupied ta2-3-lco) (occupied ta2-3-lco):=1
 (not-occupied ta3-1-gasoleo) (occupied ta3-1-gasoleo):=1
 (not-occupied ta3-1-gasoleo) (on b2 a3):=1
 (not-occupied ta3-1-lco) (occupied ta3-1-lco):=1
 (not-occupied ta3-1-oca1) (occupied ta3-1-oca1):=1
 (not-occupied ta3-1-rat-a) (occupied ta3-1-rat-a):=1
 (not-occupied ta3-2-lco) (occupied ta3-2-lco):=1
 (not-occupied ta3-2-oca1) (occupied ta3-2-oca1):=1
 (not-occupied ta3-2-rat-a) (occupied ta3-2-rat-a):=1
 (not-occupied ta3-3-lco) (occupied ta3-3-lco):=1
 (first b11 s13) (first b2 s12) (occupied ta1-1-gasoleo)
 (not-occupied ta1-1-gasoleo) (on b11 a1) (on b2 a1):=1
 (first b11 s12) (first b11 s13) (first b2 s12) (on b11 a1)
 (first b11 s12) (first b11 s13) (occupied ta2-1-gasoleo) (on b11 a1):=1
 (first b11 s12) (first b11 s13) (on b11 a1) (on b11 a2):=1
 (first b11 s13) (first b2 s12) (first b2 s13) (on b2 a1)
 (first b11 s13) (first b2 s12) (on b11 a1) (on b2 a1)
 (first b2 s12) (first b2 s13) (occupied ta3-1-gasoleo) (on b2 a1):=1
 (first b2 s12) (first b2 s13) (on b2 a1) (on b2 a3):=1
 (first b0 s12) (first b0 s13) (on b0 a1) (on b0 a2) (on b0 a3):=1:G
 (first b1 s12) (first b1 s13) (on b1 a1) (on b1 a2) (on b1 a3):=1
 (first b10 s12) (first b10 s13) (on b10 a1) (on b10 a2) (on b10 a3):=1:G
 (first b12 s12) (first b12 s13) (on b12 a1) (on b12 a2) (on b12 a3):=1:G
 (first b13 s12) (first b13 s13) (on b13 a1) (on b13 a2) (on b13 a3):=1
 (first b3 s12) (first b3 s13) (on b3 a1) (on b3 a2) (on b3 a3):=1
 (first b4 s12) (first b4 s13) (on b4 a1) (on b4 a2) (on b4 a3):=1:G
 (first b5 s12) (first b5 s13) (on b5 a1) (on b5 a2) (on b5 a3):=1:G
 (first b6 s12) (first b6 s13) (on b6 a1) (on b6 a2) (on b6 a3):=1:G
 (first b7 s12) (first b7 s13) (on b7 a1) (on b7 a2) (on b7 a3):=1
 (first b8 s12) (first b8 s13) (on b8 a1) (on b8 a2) (on b8 a3):=1:G
 (first b9 s12) (first b9 s13) (on b9 a1) (on b9 a2) (on b9 a3):=1:G
 (first b0 s12) (first b1 s12) (first b10 s12) (first b11 s12) (first b12 s12) (first b13 s12) (first b2 s12) (first b3 s12) (first b4 s12) (first b5 s12) (first b6 s12) (first b7 s12) (first b8 s12) (first b9 s12):=1
 (first b0 s13) (first b1 s13) (first b10 s13) (first b11 s13) (first b12 s13) (first b13 s13) (first b2 s13) (first b3 s13) (first b4 s13) (first b5 s13) (first b6 s13) (first b7 s13) (first b8 s13) (first b9 s13):=1

