Monotonicity invariants:
< {colspace C0:colnum}
, {bottomtalon C0:card}
, {toptalon C0:card}
, {ontalon V0:card C1:card}
, {ontalon C1:card V0:card}
, {talonplayable C0:card}
, {home C0:card}
, {bottomtalon V0:card, ontalon V0:card C1:card}
, {toptalon V0:card, ontalon C1:card V0:card}
>
FD Mutex Groups:
< {colspace C0:colnum}:=1
, {bottomtalon C0:card}
, {toptalon C0:card}
, {ontalon V0:card C1:card}
, {ontalon C1:card V0:card}
, {talonplayable C0:card}
, {bottomtalon V0:card, ontalon V0:card C1:card}
, {toptalon V0:card, ontalon C1:card V0:card}
>
