Goal:
   (at-curb-num car_00 curb_0) (at-curb-num car_01 curb_1) (at-curb-num car_02 curb_2) (at-curb-num car_03 curb_3) (at-curb-num car_04 curb_4) (at-curb-num car_05 curb_5) (at-curb-num car_06 curb_6) (behind-car car_07 car_00) (behind-car car_08 car_01) (behind-car car_09 car_02) (behind-car car_10 car_03) (behind-car car_11 car_04)
   + (car-clear car_05) (car-clear car_06) (car-clear car_07) (car-clear car_08) (car-clear car_09) (car-clear car_10) (car-clear car_11)
