(end-move pos-1-2)
   (last-visited pos-1-2)
   + (free pos-1-3) (free pos-1-4) (free pos-2-4) (free pos-3-2) (free pos-3-3) (free pos-3-4) (occupied pos-1-2) (occupied pos-2-2) (occupied pos-3-1)
(end-move pos-1-4)
   (last-visited pos-1-4)
   + (free pos-1-2) (free pos-2-4) (free pos-3-2) (free pos-3-3) (free pos-3-4) (occupied pos-1-3) (occupied pos-1-4) (occupied pos-2-2) (occupied pos-3-1)
(end-move pos-3-2)
   (last-visited pos-3-2)
   + (free pos-1-2) (free pos-1-3) (free pos-1-4) (free pos-2-2) (free pos-2-4) (free pos-3-3) (free pos-3-4) (occupied pos-3-1) (occupied pos-3-2)
(end-move pos-3-3)
   (last-visited pos-3-3)
   + (free pos-1-2) (free pos-1-3) (free pos-1-4) (free pos-2-2) (free pos-2-4) (free pos-3-1) (free pos-3-2) (free pos-3-4) (occupied pos-3-3)
(jump-continue-move pos-1-2 pos-2-2 pos-3-2)
   (free pos-3-2) (last-visited pos-1-2) (occupied pos-1-2) (occupied pos-2-2)
   + (free pos-1-3) (free pos-1-4) (free pos-2-4) (free pos-3-3) (free pos-3-4) (occupied pos-3-1)
(jump-continue-move pos-1-4 pos-1-3 pos-1-2)
   (free pos-1-2) (last-visited pos-1-4) (occupied pos-1-3) (occupied pos-1-4)
   + (free pos-2-4) (free pos-3-2) (free pos-3-3) (free pos-3-4) (occupied pos-2-2) (occupied pos-3-1)
(jump-new-move pos-1-2 pos-2-2 pos-3-2)
   (free pos-3-2) (move-ended) (occupied pos-1-2) (occupied pos-2-2)
   + (free pos-1-3) (free pos-1-4) (free pos-2-4) (free pos-3-3) (free pos-3-4) (occupied pos-3-1)
(jump-new-move pos-1-4 pos-1-3 pos-1-2)
   (free pos-1-2) (move-ended) (occupied pos-1-3) (occupied pos-1-4)
   + (free pos-2-4) (free pos-3-2) (free pos-3-3) (free pos-3-4) (occupied pos-2-2) (occupied pos-3-1)
(jump-new-move pos-3-1 pos-3-2 pos-3-3)
   (free pos-3-3) (move-ended) (occupied pos-3-1) (occupied pos-3-2)
   + (free pos-1-2) (free pos-1-3) (free pos-1-4) (free pos-2-2) (free pos-2-4) (free pos-3-4)
(jump-new-move pos-3-4 pos-2-4 pos-1-4)
   (free pos-1-4) (move-ended) (occupied pos-2-4) (occupied pos-3-4)
   + (free pos-1-2) (free pos-3-2) (free pos-3-3) (occupied pos-1-3) (occupied pos-2-2) (occupied pos-3-1)
