Reduced 28 -> 14
Domain: tidybot
Problem: test
Require: ff
Type[7]:
    [0]: object, parent: -1
    [1]: robot, parent: 0
    [2]: cart, parent: 0
    [3]: xc, parent: 0
    [4]: yc, parent: 0
    [5]: xrel, parent: 0
    [6]: yrel, parent: 0
Obj-by-Type:
    [0]: 0 1 2 3 4 5 6 7 8 9 10 11 12 13
    [1]: 0
    [2]: 1
    [3]: 6 7
    [4]: 8 9 10 11
    [5]: 12
    [6]: 13
Obj[14]:
    [0]: pr2, type: 1, is-constant: 0, is-private: 0, owner: -1, is-agent: 0
    [1]: cart, type: 2, is-constant: 0, is-private: 0, owner: -1, is-agent: 0
    [2]: object0, type: 0, is-constant: 0, is-private: 0, owner: -1, is-agent: 0
    [3]: object1, type: 0, is-constant: 0, is-private: 0, owner: -1, is-agent: 0
    [4]: object2, type: 0, is-constant: 0, is-private: 0, owner: -1, is-agent: 0
    [5]: object3, type: 0, is-constant: 0, is-private: 0, owner: -1, is-agent: 0
    [6]: x0, type: 3, is-constant: 0, is-private: 0, owner: -1, is-agent: 0
    [7]: x3, type: 3, is-constant: 0, is-private: 0, owner: -1, is-agent: 0
    [8]: y0, type: 4, is-constant: 0, is-private: 0, owner: -1, is-agent: 0
    [9]: y1, type: 4, is-constant: 0, is-private: 0, owner: -1, is-agent: 0
    [10]: y3, type: 4, is-constant: 0, is-private: 0, owner: -1, is-agent: 0
    [11]: y5, type: 4, is-constant: 0, is-private: 0, owner: -1, is-agent: 0
    [12]: xrel-1, type: 5, is-constant: 0, is-private: 0, owner: -1, is-agent: 0
    [13]: yrel-1, type: 6, is-constant: 0, is-private: 0, owner: -1, is-agent: 0
Predicate[29]:
    =: 0 0 :: is-private: 0, owner-param: -1, read: 0, write: 0
    leftof: 3 3 :: is-private: 0, owner-param: -1, read: 1, write: 0
    above: 4 4 :: is-private: 0, owner-param: -1, read: 1, write: 0
    leftof-rel: 5 5 :: is-private: 0, owner-param: -1, read: 1, write: 0
    above-rel: 6 6 :: is-private: 0, owner-param: -1, read: 1, write: 0
    sum-x: 3 5 3 :: is-private: 0, owner-param: -1, read: 1, write: 0
    sum-y: 4 6 4 :: is-private: 0, owner-param: -1, read: 1, write: 0
    zerox-rel: 5 :: is-private: 0, owner-param: -1, read: 1, write: 0
    zeroy-rel: 6 :: is-private: 0, owner-param: -1, read: 1, write: 0
    object-goal: 0 3 4 :: is-private: 0, owner-param: -1, read: 1, write: 0
    parked: 1 :: is-private: 0, owner-param: -1, read: 1, write: 1, neg-of: 25
    base-pos: 1 3 4 :: is-private: 0, owner-param: -1, read: 1, write: 1
    base-obstacle: 3 4 :: is-private: 0, owner-param: -1, read: 0, write: 1, neg-of: 26
    object-pos: 0 3 4 :: is-private: 0, owner-param: -1, read: 1, write: 1
    object-done: 0 :: is-private: 0, owner-param: -1, read: 0, write: 1, neg-of: 27
    surface: 3 4 :: is-private: 0, owner-param: -1, read: 1, write: 0
    holding: 1 0 :: is-private: 0, owner-param: -1, read: 1, write: 1
    gripper-empty: 1 :: is-private: 0, owner-param: -1, read: 1, write: 1
    gripper-rel: 1 5 6 :: is-private: 0, owner-param: -1, read: 1, write: 1
    gripper-obstacle: 3 4 :: is-private: 0, owner-param: -1, read: 0, write: 1, neg-of: 28
    pushing: 1 2 :: is-private: 0, owner-param: -1, read: 1, write: 1
    not-pushing: 1 :: is-private: 0, owner-param: -1, read: 1, write: 1
    not-pushed: 2 :: is-private: 0, owner-param: -1, read: 1, write: 1
    cart-pos: 2 3 4 :: is-private: 0, owner-param: -1, read: 1, write: 1
    on-cart: 0 2 :: is-private: 0, owner-param: -1, read: 1, write: 1
    NOT-parked: 1 :: is-private: 0, owner-param: -1, read: 1, write: 1, neg-of: 10
    NOT-base-obstacle: 3 4 :: is-private: 0, owner-param: -1, read: 1, write: 1, neg-of: 12
    NOT-object-done: 0 :: is-private: 0, owner-param: -1, read: 1, write: 1, neg-of: 14
    NOT-gripper-obstacle: 3 4 :: is-private: 0, owner-param: -1, read: 1, write: 1, neg-of: 19
Function[0]:
Action[30]:
    unpark: ?r:1 ?x:5 ?y:6
        pre: (and (RW:parked ?r) (RW:gripper-rel ?r ?x ?y) (R:zerox-rel ?x) (R:zeroy-rel ?y))
        eff: (and (N:RW:parked ?r) (RW:NOT-parked ?r))
    park: ?r:1
        pre: (and (RW:NOT-parked ?r) (RW:not-pushing ?r))
        eff: (and (RW:parked ?r) (N:RW:NOT-parked ?r))
    base-left: ?r:1 ?cx:3 ?dx:3 ?y:4
        pre: (and (RW:NOT-parked ?r) (RW:not-pushing ?r) (R:leftof ?dx ?cx) (RW:base-pos ?r ?cx ?y) (RW:NOT-base-obstacle ?dx ?y))
        eff: (and (RW:base-pos ?r ?dx ?y) (RW:NOT-base-obstacle ?cx ?y) (W:base-obstacle ?dx ?y))
    base-right: ?r:1 ?cx:3 ?dx:3 ?y:4
        pre: (and (RW:NOT-parked ?r) (RW:not-pushing ?r) (R:leftof ?cx ?dx) (RW:base-pos ?r ?cx ?y) (RW:NOT-base-obstacle ?dx ?y))
        eff: (and (RW:base-pos ?r ?dx ?y) (RW:NOT-base-obstacle ?cx ?y) (W:base-obstacle ?dx ?y))
    base-up: ?r:1 ?x:3 ?cy:4 ?dy:4
        pre: (and (RW:NOT-parked ?r) (RW:not-pushing ?r) (R:above ?dy ?cy) (RW:base-pos ?r ?x ?cy) (RW:NOT-base-obstacle ?x ?dy))
        eff: (and (RW:base-pos ?r ?x ?dy) (RW:NOT-base-obstacle ?x ?cy) (W:base-obstacle ?x ?dy))
    base-down: ?r:1 ?x:3 ?cy:4 ?dy:4
        pre: (and (RW:NOT-parked ?r) (RW:not-pushing ?r) (R:above ?cy ?dy) (RW:base-pos ?r ?x ?cy) (RW:NOT-base-obstacle ?x ?dy))
        eff: (and (RW:base-pos ?r ?x ?dy) (RW:NOT-base-obstacle ?x ?cy) (W:base-obstacle ?x ?dy))
    base-cart-left: ?r:1 ?c:2 ?x1:3 ?x2:3 ?y:4 ?cx1:3 ?cx2:3 ?cy:4
        pre: (and (RW:pushing ?r ?c) (R:leftof ?x2 ?x1) (R:leftof ?cx2 ?cx1) (RW:base-pos ?r ?x1 ?y) (RW:cart-pos ?c ?cx1 ?cy) (RW:NOT-base-obstacle ?x2 ?y) (RW:NOT-base-obstacle ?cx2 ?cy))
        eff: (and (RW:base-pos ?r ?x2 ?y) (RW:cart-pos ?c ?cx2 ?cy) (RW:NOT-base-obstacle ?x1 ?y) (W:base-obstacle ?x2 ?y) (RW:NOT-base-obstacle ?cx1 ?cy) (W:base-obstacle ?cx2 ?cy))
    base-cart-right: ?r:1 ?c:2 ?x1:3 ?x2:3 ?y:4 ?cx1:3 ?cx2:3 ?cy:4
        pre: (and (RW:pushing ?r ?c) (R:leftof ?x1 ?x2) (R:leftof ?cx1 ?cx2) (RW:base-pos ?r ?x1 ?y) (RW:cart-pos ?c ?cx1 ?cy) (RW:NOT-base-obstacle ?x2 ?y) (RW:NOT-base-obstacle ?cx2 ?cy))
        eff: (and (RW:base-pos ?r ?x2 ?y) (RW:cart-pos ?c ?cx2 ?cy) (RW:NOT-base-obstacle ?x1 ?y) (W:base-obstacle ?x2 ?y) (RW:NOT-base-obstacle ?cx1 ?cy) (W:base-obstacle ?cx2 ?cy))
    base-cart-up: ?r:1 ?c:2 ?x:3 ?y1:4 ?y2:4 ?cx:3 ?cy1:4 ?cy2:4
        pre: (and (RW:pushing ?r ?c) (R:above ?y2 ?y1) (R:above ?cy2 ?cy1) (RW:base-pos ?r ?x ?y1) (RW:cart-pos ?c ?cx ?cy1) (RW:NOT-base-obstacle ?x ?y2) (RW:NOT-base-obstacle ?cx ?cy2))
        eff: (and (RW:base-pos ?r ?x ?y2) (RW:cart-pos ?c ?cx ?cy2) (RW:NOT-base-obstacle ?x ?y1) (W:base-obstacle ?x ?y2) (W:base-obstacle ?cx ?cy2))
    base-cart-down: ?r:1 ?c:2 ?x:3 ?y1:4 ?y2:4 ?cx:3 ?cy1:4 ?cy2:4
        pre: (and (RW:pushing ?r ?c) (R:above ?y1 ?y2) (R:above ?cy1 ?cy2) (RW:base-pos ?r ?x ?y1) (RW:cart-pos ?c ?cx ?cy1) (RW:NOT-base-obstacle ?x ?y2) (RW:NOT-base-obstacle ?cx ?cy2))
        eff: (and (RW:base-pos ?r ?x ?y2) (RW:cart-pos ?c ?cx ?cy2) (RW:NOT-base-obstacle ?x ?y1) (W:base-obstacle ?x ?y2) (W:base-obstacle ?cx ?cy2))
    gripper-left: ?r:1 ?basex:3 ?basey:4 ?cgxrel:5 ?dgxrel:5 ?cgxabs:3 ?dgxabs:3 ?gyrel:6 ?gyabs:4
        pre: (and (RW:parked ?r) (RW:base-pos ?r ?basex ?basey) (RW:gripper-rel ?r ?cgxrel ?gyrel) (R:leftof-rel ?dgxrel ?cgxrel) (R:sum-x ?basex ?cgxrel ?cgxabs) (R:sum-x ?basex ?dgxrel ?dgxabs) (R:sum-y ?basey ?gyrel ?gyabs) (RW:NOT-gripper-obstacle ?dgxabs ?gyabs))
        eff: (and (RW:gripper-rel ?r ?dgxrel ?gyrel) (RW:NOT-gripper-obstacle ?cgxabs ?gyabs) (W:gripper-obstacle ?dgxabs ?gyabs))
    gripper-right: ?r:1 ?basex:3 ?basey:4 ?cgxrel:5 ?dgxrel:5 ?cgxabs:3 ?dgxabs:3 ?gyrel:6 ?gyabs:4
        pre: (and (RW:parked ?r) (RW:base-pos ?r ?basex ?basey) (RW:gripper-rel ?r ?cgxrel ?gyrel) (R:leftof-rel ?cgxrel ?dgxrel) (R:sum-x ?basex ?cgxrel ?cgxabs) (R:sum-x ?basex ?dgxrel ?dgxabs) (R:sum-y ?basey ?gyrel ?gyabs) (RW:NOT-gripper-obstacle ?dgxabs ?gyabs))
        eff: (and (RW:gripper-rel ?r ?dgxrel ?gyrel) (RW:NOT-gripper-obstacle ?cgxabs ?gyabs) (W:gripper-obstacle ?dgxabs ?gyabs))
    gripper-up: ?r:1 ?basex:3 ?basey:4 ?gxrel:5 ?gxabs:3 ?cgyrel:6 ?dgyrel:6 ?cgyabs:4 ?dgyabs:4
        pre: (and (RW:parked ?r) (RW:base-pos ?r ?basex ?basey) (RW:gripper-rel ?r ?gxrel ?cgyrel) (R:above-rel ?dgyrel ?cgyrel) (R:sum-x ?basex ?gxrel ?gxabs) (R:sum-y ?basey ?cgyrel ?cgyabs) (R:sum-y ?basey ?dgyrel ?dgyabs) (RW:NOT-gripper-obstacle ?gxabs ?dgyabs))
        eff: (and (RW:gripper-rel ?r ?gxrel ?dgyrel) (RW:NOT-gripper-obstacle ?gxabs ?cgyabs) (W:gripper-obstacle ?gxabs ?dgyabs))
    gripper-down: ?r:1 ?basex:3 ?basey:4 ?gxrel:5 ?gxabs:3 ?cgyrel:6 ?dgyrel:6 ?cgyabs:4 ?dgyabs:4
        pre: (and (RW:parked ?r) (RW:base-pos ?r ?basex ?basey) (RW:gripper-rel ?r ?gxrel ?cgyrel) (R:above-rel ?cgyrel ?dgyrel) (R:sum-x ?basex ?gxrel ?gxabs) (R:sum-y ?basey ?cgyrel ?cgyabs) (R:sum-y ?basey ?dgyrel ?dgyabs) (RW:NOT-gripper-obstacle ?gxabs ?dgyabs))
        eff: (and (RW:gripper-rel ?r ?gxrel ?dgyrel) (RW:NOT-gripper-obstacle ?gxabs ?cgyabs) (W:gripper-obstacle ?gxabs ?dgyabs))
    grasp-cart-left: ?r:1 ?c:2 ?x:3 ?y:4 ?cx:3
        pre: (and (RW:NOT-parked ?r) (RW:not-pushed ?c) (RW:base-pos ?r ?x ?y) (RW:cart-pos ?c ?cx ?y) (R:leftof ?cx ?x) (RW:not-pushing ?r))
        eff: (and (RW:pushing ?r ?c) (N:RW:not-pushing ?r) (N:RW:not-pushed ?c))
    grasp-cart-right: ?r:1 ?c:2 ?x:3 ?y:4 ?cx:3
        pre: (and (RW:NOT-parked ?r) (RW:not-pushed ?c) (RW:base-pos ?r ?x ?y) (RW:cart-pos ?c ?cx ?y) (R:leftof ?x ?cx) (RW:not-pushing ?r))
        eff: (and (RW:pushing ?r ?c) (N:RW:not-pushing ?r) (N:RW:not-pushed ?c))
    grasp-cart-above: ?r:1 ?c:2 ?x:3 ?y:4 ?cy:4
        pre: (and (RW:NOT-parked ?r) (RW:not-pushed ?c) (RW:base-pos ?r ?x ?y) (RW:cart-pos ?c ?x ?cy) (R:above ?cy ?y) (RW:not-pushing ?r))
        eff: (and (RW:pushing ?r ?c) (N:RW:not-pushing ?r) (N:RW:not-pushed ?c))
    grasp-cart-below: ?r:1 ?c:2 ?x:3 ?y:4 ?cy:4
        pre: (and (RW:NOT-parked ?r) (RW:not-pushed ?c) (RW:base-pos ?r ?x ?y) (RW:cart-pos ?c ?x ?cy) (R:above ?y ?cy) (RW:not-pushing ?r))
        eff: (and (RW:pushing ?r ?c) (N:RW:not-pushing ?r) (N:RW:not-pushed ?c))
    ungrasp-cart: ?r:1 ?c:2
        pre: (and (RW:pushing ?r ?c))
        eff: (and (N:RW:pushing ?r ?c) (RW:not-pushing ?r) (RW:not-pushed ?c))
    get-left: ?r:1 ?basex:3 ?basey:4 ?gxrel:5 ?gxabs:3 ?gyrel:6 ?gyabs:4 ?o:0 ?ox:3
        pre: (and (RW:parked ?r) (RW:base-pos ?r ?basex ?basey) (RW:gripper-rel ?r ?gxrel ?gyrel) (R:sum-x ?basex ?gxrel ?gxabs) (R:sum-y ?basey ?gyrel ?gyabs) (RW:gripper-empty ?r) (R:leftof ?ox ?gxabs) (RW:NOT-object-done ?o) (RW:object-pos ?o ?ox ?gyabs))
        eff: (and (N:RW:gripper-empty ?r) (RW:holding ?r ?o) (RW:NOT-gripper-obstacle ?ox ?gyabs))
    get-right: ?r:1 ?basex:3 ?basey:4 ?gxrel:5 ?gxabs:3 ?gyrel:6 ?gyabs:4 ?o:0 ?ox:3
        pre: (and (RW:parked ?r) (RW:base-pos ?r ?basex ?basey) (RW:gripper-rel ?r ?gxrel ?gyrel) (R:sum-x ?basex ?gxrel ?gxabs) (R:sum-y ?basey ?gyrel ?gyabs) (RW:gripper-empty ?r) (R:leftof ?gxabs ?ox) (RW:NOT-object-done ?o) (RW:object-pos ?o ?ox ?gyabs))
        eff: (and (N:RW:gripper-empty ?r) (RW:holding ?r ?o) (RW:NOT-gripper-obstacle ?ox ?gyabs))
    get-up: ?r:1 ?basex:3 ?basey:4 ?gxrel:5 ?gxabs:3 ?gyrel:6 ?gyabs:4 ?o:0 ?oy:4
        pre: (and (RW:parked ?r) (RW:base-pos ?r ?basex ?basey) (RW:gripper-rel ?r ?gxrel ?gyrel) (R:sum-x ?basex ?gxrel ?gxabs) (R:sum-y ?basey ?gyrel ?gyabs) (RW:gripper-empty ?r) (R:above ?oy ?gyabs) (RW:NOT-object-done ?o) (RW:object-pos ?o ?gxabs ?oy))
        eff: (and (N:RW:gripper-empty ?r) (RW:holding ?r ?o) (RW:NOT-gripper-obstacle ?gxabs ?oy))
    get-down: ?r:1 ?basex:3 ?basey:4 ?gxrel:5 ?gxabs:3 ?gyrel:6 ?gyabs:4 ?o:0 ?oy:4
        pre: (and (RW:parked ?r) (RW:base-pos ?r ?basex ?basey) (RW:gripper-rel ?r ?gxrel ?gyrel) (R:sum-x ?basex ?gxrel ?gxabs) (R:sum-y ?basey ?gyrel ?gyabs) (RW:gripper-empty ?r) (R:above ?gyabs ?oy) (RW:NOT-object-done ?o) (RW:object-pos ?o ?gxabs ?oy))
        eff: (and (N:RW:gripper-empty ?r) (RW:holding ?r ?o) (RW:NOT-gripper-obstacle ?gxabs ?oy))
    get-from-cart: ?r:1 ?x:3 ?y:4 ?gxrel:5 ?gyrel:6 ?o:0 ?c:2 ?cx:3 ?cy:4
        pre: (and (RW:parked ?r) (RW:base-pos ?r ?x ?y) (RW:gripper-rel ?r ?gxrel ?gyrel) (R:sum-x ?x ?gxrel ?cx) (R:sum-y ?y ?gyrel ?cy) (RW:gripper-empty ?r) (RW:cart-pos ?c ?cx ?cy) (RW:on-cart ?o ?c))
        eff: (and (RW:holding ?r ?o) (N:RW:gripper-empty ?r))
    put-left: ?r:1 ?basex:3 ?basey:4 ?gxrel:5 ?gxabs:3 ?gyrel:6 ?gyabs:4 ?o:0 ?ox:3
        pre: (and (RW:parked ?r) (RW:base-pos ?r ?basex ?basey) (RW:gripper-rel ?r ?gxrel ?gyrel) (R:sum-x ?basex ?gxrel ?gxabs) (R:sum-y ?basey ?gyrel ?gyabs) (RW:holding ?r ?o) (R:leftof ?ox ?gxabs) (RW:NOT-gripper-obstacle ?ox ?gyabs) (R:surface ?ox ?gyabs))
        eff: (and (RW:object-pos ?o ?ox ?gyabs) (RW:gripper-empty ?r) (W:gripper-obstacle ?ox ?gyabs))
    put-right: ?r:1 ?basex:3 ?basey:4 ?gxrel:5 ?gxabs:3 ?gyrel:6 ?gyabs:4 ?o:0 ?ox:3
        pre: (and (RW:parked ?r) (RW:base-pos ?r ?basex ?basey) (RW:gripper-rel ?r ?gxrel ?gyrel) (R:sum-x ?basex ?gxrel ?gxabs) (R:sum-y ?basey ?gyrel ?gyabs) (RW:holding ?r ?o) (R:leftof ?gxabs ?ox) (RW:NOT-gripper-obstacle ?ox ?gyabs) (R:surface ?ox ?gyabs))
        eff: (and (RW:object-pos ?o ?ox ?gyabs) (RW:gripper-empty ?r) (W:gripper-obstacle ?ox ?gyabs))
    put-up: ?r:1 ?basex:3 ?basey:4 ?gxrel:5 ?gxabs:3 ?gyrel:6 ?gyabs:4 ?o:0 ?oy:4
        pre: (and (RW:parked ?r) (RW:base-pos ?r ?basex ?basey) (RW:gripper-rel ?r ?gxrel ?gyrel) (R:sum-x ?basex ?gxrel ?gxabs) (R:sum-y ?basey ?gyrel ?gyabs) (RW:holding ?r ?o) (R:above ?oy ?gyabs) (RW:NOT-gripper-obstacle ?gxabs ?oy) (R:surface ?gxabs ?oy))
        eff: (and (RW:object-pos ?o ?gxabs ?oy) (RW:gripper-empty ?r) (W:gripper-obstacle ?gxabs ?oy))
    put-down: ?r:1 ?basex:3 ?basey:4 ?gxrel:5 ?gxabs:3 ?gyrel:6 ?gyabs:4 ?o:0 ?oy:4
        pre: (and (RW:parked ?r) (RW:base-pos ?r ?basex ?basey) (RW:gripper-rel ?r ?gxrel ?gyrel) (R:sum-x ?basex ?gxrel ?gxabs) (R:sum-y ?basey ?gyrel ?gyabs) (RW:holding ?r ?o) (R:above ?gyabs ?oy) (RW:NOT-gripper-obstacle ?gxabs ?oy) (R:surface ?gxabs ?oy))
        eff: (and (RW:object-pos ?o ?gxabs ?oy) (RW:gripper-empty ?r) (W:gripper-obstacle ?gxabs ?oy))
    put-on-cart: ?r:1 ?x:3 ?y:4 ?gxrel:5 ?gyrel:6 ?o:0 ?c:2 ?cx:3 ?cy:4
        pre: (and (RW:parked ?r) (RW:base-pos ?r ?x ?y) (RW:gripper-rel ?r ?gxrel ?gyrel) (R:sum-x ?x ?gxrel ?cx) (R:sum-y ?y ?gyrel ?cy) (RW:cart-pos ?c ?cx ?cy) (RW:holding ?r ?o))
        eff: (and (RW:on-cart ?o ?c) (RW:gripper-empty ?r))
    finish-object: ?o:0 ?x:3 ?y:4
        pre: (and (RW:NOT-object-done ?o) (RW:object-pos ?o ?x ?y) (R:object-goal ?o ?x ?y))
        eff: (and (W:object-done ?o))
Init[239]:
  S:(leftof x0 x0)
  S:(leftof x0 x0)
  S:(leftof x0 x3)
  S:(leftof x3 x3)
  S:(leftof x3 x0)
  S:(leftof x0 x0)
  S:(leftof x0 x0)
  S:(above y0 y1)
  S:(above y1 y1)
  S:(above y1 y3)
  S:(above y3 y0)
  S:(above y0 y5)
  S:(above y5 y3)
  S:(above y3 y5)
  S:(leftof-rel xrel-1 xrel-1)
  S:(leftof-rel xrel-1 xrel-1)
  S:(above-rel yrel-1 yrel-1)
  S:(above-rel yrel-1 yrel-1)
  S:(sum-x x0 xrel-1 x0)
  S:(sum-x x0 xrel-1 x0)
  S:(sum-x x0 xrel-1 x0)
  S:(sum-x x0 xrel-1 x0)
  S:(sum-x x0 xrel-1 x0)
  S:(sum-x x0 xrel-1 x0)
  S:(sum-x x0 xrel-1 x0)
  S:(sum-x x0 xrel-1 x3)
  S:(sum-x x3 xrel-1 x0)
  S:(sum-x x3 xrel-1 x3)
  S:(sum-x x3 xrel-1 x3)
  S:(sum-x x3 xrel-1 x3)
  S:(sum-x x3 xrel-1 x3)
  S:(sum-x x3 xrel-1 x0)
  S:(sum-x x0 xrel-1 x3)
  S:(sum-x x0 xrel-1 x0)
  S:(sum-x x0 xrel-1 x0)
  S:(sum-x x0 xrel-1 x0)
  S:(sum-x x0 xrel-1 x0)
  S:(sum-x x0 xrel-1 x0)
  S:(sum-x x0 xrel-1 x0)
  S:(sum-x x0 xrel-1 x0)
  S:(sum-y y0 yrel-1 y0)
  S:(sum-y y0 yrel-1 y1)
  S:(sum-y y1 yrel-1 y0)
  S:(sum-y y1 yrel-1 y1)
  S:(sum-y y1 yrel-1 y1)
  S:(sum-y y1 yrel-1 y1)
  S:(sum-y y1 yrel-1 y1)
  S:(sum-y y1 yrel-1 y3)
  S:(sum-y y3 yrel-1 y1)
  S:(sum-y y3 yrel-1 y3)
  S:(sum-y y3 yrel-1 y0)
  S:(sum-y y0 yrel-1 y3)
  S:(sum-y y0 yrel-1 y0)
  S:(sum-y y0 yrel-1 y5)
  S:(sum-y y5 yrel-1 y0)
  S:(sum-y y5 yrel-1 y5)
  S:(sum-y y5 yrel-1 y3)
  S:(sum-y y3 yrel-1 y5)
  S:(sum-y y3 yrel-1 y3)
  S:(sum-y y3 yrel-1 y5)
  S:(sum-y y5 yrel-1 y3)
  S:(sum-y y5 yrel-1 y5)
  S:(zerox-rel xrel-1)
  S:(zeroy-rel yrel-1)
  S:(object-goal object0 x3 y3)
  S:(object-goal object1 x3 y0)
  S:(object-goal object2 x3 y3)
  S:(object-goal object3 x3 y0)
  (parked pr2)
  (not-pushing pr2)
  (base-pos pr2 x0 y0)
  (base-obstacle x0 y0)
  (base-obstacle x0 y1)
  (gripper-obstacle x0 y1)
  (base-obstacle x0 y3)
  (gripper-obstacle x0 y3)
  (base-obstacle x0 y0)
  (gripper-obstacle x0 y0)
  (base-obstacle x0 y5)
  (gripper-obstacle x0 y5)
  (base-obstacle x3 y1)
  (gripper-obstacle x3 y1)
  (base-obstacle x3 y1)
  (gripper-obstacle x3 y1)
  (base-obstacle x0 y1)
  (gripper-obstacle x0 y1)
  (base-obstacle x0 y3)
  (gripper-obstacle x0 y3)
  (base-obstacle x0 y0)
  (gripper-obstacle x0 y0)
  (base-obstacle x0 y5)
  (gripper-obstacle x0 y5)
  S:(surface x3 y3)
  S:(surface x3 y0)
  S:(surface x3 y3)
  S:(surface x3 y0)
  (cart-pos cart x0 y1)
  (not-pushed cart)
  (base-obstacle x0 y1)
  (object-pos object0 x3 y0)
  (object-pos object1 x3 y0)
  (object-pos object2 x3 y3)
  (object-pos object3 x3 y3)
  (gripper-empty pr2)
  (gripper-rel pr2 xrel-1 yrel-1)
  (gripper-obstacle x3 y0)
  (gripper-obstacle x3 y0)
  (gripper-obstacle x3 y3)
  (gripper-obstacle x3 y3)
  (NOT-base-obstacle x0 y1)
  (NOT-base-obstacle x0 y3)
  (NOT-base-obstacle x0 y0)
  (NOT-base-obstacle x0 y5)
  (NOT-base-obstacle x0 y3)
  (NOT-base-obstacle x0 y5)
  (NOT-base-obstacle x0 y0)
  (NOT-base-obstacle x0 y1)
  (NOT-base-obstacle x0 y1)
  (NOT-base-obstacle x0 y3)
  (NOT-base-obstacle x0 y0)
  (NOT-base-obstacle x0 y5)
  (NOT-base-obstacle x0 y3)
  (NOT-base-obstacle x0 y5)
  (NOT-base-obstacle x0 y0)
  (NOT-base-obstacle x0 y1)
  (NOT-base-obstacle x0 y3)
  (NOT-base-obstacle x0 y5)
  (NOT-base-obstacle x3 y0)
  (NOT-base-obstacle x3 y1)
  (NOT-base-obstacle x3 y3)
  (NOT-base-obstacle x3 y0)
  (NOT-base-obstacle x3 y5)
  (NOT-base-obstacle x3 y3)
  (NOT-base-obstacle x3 y5)
  (NOT-base-obstacle x3 y0)
  (NOT-base-obstacle x3 y1)
  (NOT-base-obstacle x3 y3)
  (NOT-base-obstacle x3 y0)
  (NOT-base-obstacle x3 y5)
  (NOT-base-obstacle x3 y3)
  (NOT-base-obstacle x3 y5)
  (NOT-base-obstacle x0 y0)
  (NOT-base-obstacle x0 y1)
  (NOT-base-obstacle x0 y3)
  (NOT-base-obstacle x0 y5)
  (NOT-base-obstacle x0 y0)
  (NOT-base-obstacle x0 y1)
  (NOT-base-obstacle x0 y1)
  (NOT-base-obstacle x0 y3)
  (NOT-base-obstacle x0 y0)
  (NOT-base-obstacle x0 y5)
  (NOT-base-obstacle x0 y3)
  (NOT-base-obstacle x0 y5)
  (NOT-base-obstacle x0 y0)
  (NOT-base-obstacle x0 y1)
  (NOT-base-obstacle x0 y1)
  (NOT-base-obstacle x0 y3)
  (NOT-base-obstacle x0 y0)
  (NOT-base-obstacle x0 y5)
  (NOT-base-obstacle x0 y3)
  (NOT-base-obstacle x0 y5)
  (NOT-object-done pr2)
  (NOT-object-done cart)
  (NOT-object-done object0)
  (NOT-object-done object1)
  (NOT-object-done object2)
  (NOT-object-done object3)
  (NOT-object-done x0)
  (NOT-object-done x0)
  (NOT-object-done x0)
  (NOT-object-done x3)
  (NOT-object-done x3)
  (NOT-object-done x0)
  (NOT-object-done x0)
  (NOT-object-done x0)
  (NOT-object-done y0)
  (NOT-object-done y1)
  (NOT-object-done y1)
  (NOT-object-done y3)
  (NOT-object-done y0)
  (NOT-object-done y5)
  (NOT-object-done y3)
  (NOT-object-done y5)
  (NOT-object-done xrel-1)
  (NOT-object-done xrel-1)
  (NOT-object-done xrel-1)
  (NOT-object-done yrel-1)
  (NOT-object-done yrel-1)
  (NOT-object-done yrel-1)
  (NOT-gripper-obstacle x0 y0)
  (NOT-gripper-obstacle x0 y1)
  (NOT-gripper-obstacle x0 y1)
  (NOT-gripper-obstacle x0 y3)
  (NOT-gripper-obstacle x0 y0)
  (NOT-gripper-obstacle x0 y5)
  (NOT-gripper-obstacle x0 y3)
  (NOT-gripper-obstacle x0 y5)
  (NOT-gripper-obstacle x0 y0)
  (NOT-gripper-obstacle x0 y1)
  (NOT-gripper-obstacle x0 y1)
  (NOT-gripper-obstacle x0 y3)
  (NOT-gripper-obstacle x0 y0)
  (NOT-gripper-obstacle x0 y5)
  (NOT-gripper-obstacle x0 y3)
  (NOT-gripper-obstacle x0 y5)
  (NOT-gripper-obstacle x0 y0)
  (NOT-gripper-obstacle x0 y1)
  (NOT-gripper-obstacle x0 y3)
  (NOT-gripper-obstacle x0 y5)
  (NOT-gripper-obstacle x3 y0)
  (NOT-gripper-obstacle x3 y1)
  (NOT-gripper-obstacle x3 y5)
  (NOT-gripper-obstacle x3 y3)
  (NOT-gripper-obstacle x3 y5)
  (NOT-gripper-obstacle x3 y0)
  (NOT-gripper-obstacle x3 y1)
  (NOT-gripper-obstacle x3 y5)
  (NOT-gripper-obstacle x3 y3)
  (NOT-gripper-obstacle x3 y5)
  (NOT-gripper-obstacle x0 y0)
  (NOT-gripper-obstacle x0 y1)
  (NOT-gripper-obstacle x0 y3)
  (NOT-gripper-obstacle x0 y5)
  (NOT-gripper-obstacle x0 y0)
  (NOT-gripper-obstacle x0 y1)
  (NOT-gripper-obstacle x0 y1)
  (NOT-gripper-obstacle x0 y3)
  (NOT-gripper-obstacle x0 y0)
  (NOT-gripper-obstacle x0 y5)
  (NOT-gripper-obstacle x0 y3)
  (NOT-gripper-obstacle x0 y5)
  (NOT-gripper-obstacle x0 y0)
  (NOT-gripper-obstacle x0 y1)
  (NOT-gripper-obstacle x0 y1)
  (NOT-gripper-obstacle x0 y3)
  (NOT-gripper-obstacle x0 y0)
  (NOT-gripper-obstacle x0 y5)
  (NOT-gripper-obstacle x0 y3)
  (NOT-gripper-obstacle x0 y5)
Init[0]:
Goal: (and (W:object-done object0) (W:object-done object1) (W:object-done object2) (W:object-done object3))
Metric: 0
