Reduced 20 -> 16
Domain: storage-propositional
Problem: storage-10
Require: ff
Type[11]:
    [0]: object, parent: -1
    [1]: hoist, parent: 0
    [2]: surface, parent: 0
    [3]: place, parent: 0
    [4]: area, parent: 0
    [5]: container, parent: 3
    [6]: depot, parent: 3
    [7]: storearea, parent: 4
    [8]: transitarea, parent: 4
    [9]: crate, parent: 2
    [10]: (either storearea crate), parent: -1
Obj-by-Type:
    [0]: 0 1 2 3 4 5 6 7 8 9 10 11 12 13 14 15
    [1]: 8
    [2]: 9 10 11 12
    [3]: 13 14
    [4]: 0 1 2 3 4 5 6 7 15
    [5]: 13
    [6]: 14
    [7]: 0 1 2 3 4 5 6 7
    [8]: 15
    [9]: 9 10 11 12
    [10]: 0 1 2 3 4 5 6 7 9 10 11 12
Obj[16]:
    [0]: depot0-1-1, type: 7, is-constant: 0, is-private: 0, owner: -1, is-agent: 0
    [1]: depot0-1-2, type: 7, is-constant: 0, is-private: 0, owner: -1, is-agent: 0
    [2]: depot0-1-3, type: 7, is-constant: 0, is-private: 0, owner: -1, is-agent: 0
    [3]: depot0-1-4, type: 7, is-constant: 0, is-private: 0, owner: -1, is-agent: 0
    [4]: depot0-2-1, type: 7, is-constant: 0, is-private: 0, owner: -1, is-agent: 0
    [5]: depot0-2-2, type: 7, is-constant: 0, is-private: 0, owner: -1, is-agent: 0
    [6]: depot0-2-3, type: 7, is-constant: 0, is-private: 0, owner: -1, is-agent: 0
    [7]: depot0-2-4, type: 7, is-constant: 0, is-private: 0, owner: -1, is-agent: 0
    [8]: hoist0, type: 1, is-constant: 0, is-private: 0, owner: -1, is-agent: 0
    [9]: crate0, type: 9, is-constant: 0, is-private: 0, owner: -1, is-agent: 0
    [10]: crate1, type: 9, is-constant: 0, is-private: 0, owner: -1, is-agent: 0
    [11]: crate2, type: 9, is-constant: 0, is-private: 0, owner: -1, is-agent: 0
    [12]: crate3, type: 9, is-constant: 0, is-private: 0, owner: -1, is-agent: 0
    [13]: container0, type: 5, is-constant: 0, is-private: 0, owner: -1, is-agent: 0
    [14]: depot0, type: 6, is-constant: 0, is-private: 0, owner: -1, is-agent: 0
    [15]: loadarea, type: 8, is-constant: 0, is-private: 0, owner: -1, is-agent: 0
Predicate[9]:
    =: 0 0 :: is-private: 0, owner-param: -1, read: 0, write: 0
    clear: 7 :: is-private: 0, owner-param: -1, read: 1, write: 1
    in: 10 3 :: is-private: 0, owner-param: -1, read: 1, write: 1
    available: 1 :: is-private: 0, owner-param: -1, read: 1, write: 1
    lifting: 1 9 :: is-private: 0, owner-param: -1, read: 1, write: 1
    at: 1 4 :: is-private: 0, owner-param: -1, read: 1, write: 1
    on: 9 7 :: is-private: 0, owner-param: -1, read: 1, write: 1
    connected: 4 4 :: is-private: 0, owner-param: -1, read: 1, write: 0
    compatible: 9 9 :: is-private: 0, owner-param: -1, read: 0, write: 0
Function[0]:
Action[5]:
    lift: ?h:1 ?c:9 ?a1:7 ?a2:4 ?p:3
        pre: (and (R:connected ?a1 ?a2) (RW:at ?h ?a2) (RW:available ?h) (RW:on ?c ?a1) (RW:in ?a1 ?p))
        eff: (and (RW:clear ?a1) (N:RW:available ?h) (RW:lifting ?h ?c) (N:RW:in ?c ?p))
    drop: ?h:1 ?c:9 ?a1:7 ?a2:4 ?p:3
        pre: (and (R:connected ?a1 ?a2) (RW:at ?h ?a2) (RW:lifting ?h ?c) (RW:clear ?a1) (RW:in ?a1 ?p))
        eff: (and (N:RW:lifting ?h ?c) (RW:available ?h) (RW:on ?c ?a1) (RW:in ?c ?p))
    move: ?h:1 ?from:7 ?to:7
        pre: (and (RW:at ?h ?from) (RW:clear ?to) (R:connected ?from ?to))
        eff: (and (RW:at ?h ?to) (RW:clear ?from))
    go-out: ?h:1 ?from:7 ?to:8
        pre: (and (RW:at ?h ?from) (R:connected ?from ?to))
        eff: (and (RW:at ?h ?to) (RW:clear ?from))
    go-in: ?h:1 ?from:8 ?to:7
        pre: (and (RW:at ?h ?from) (R:connected ?from ?to) (RW:clear ?to))
        eff: (and (N:RW:at ?h ?from) (RW:at ?h ?to))
Init[59]:
  S:(connected depot0-1-1 depot0-2-1)
  S:(connected depot0-1-1 depot0-1-2)
  S:(connected depot0-1-2 depot0-2-2)
  S:(connected depot0-1-2 depot0-1-3)
  S:(connected depot0-1-2 depot0-1-1)
  S:(connected depot0-1-3 depot0-2-3)
  S:(connected depot0-1-3 depot0-1-4)
  S:(connected depot0-1-3 depot0-1-2)
  S:(connected depot0-1-4 depot0-2-4)
  S:(connected depot0-1-4 depot0-1-3)
  S:(connected depot0-2-1 depot0-1-1)
  S:(connected depot0-2-1 depot0-2-2)
  S:(connected depot0-2-2 depot0-1-2)
  S:(connected depot0-2-2 depot0-2-3)
  S:(connected depot0-2-2 depot0-2-1)
  S:(connected depot0-2-3 depot0-1-3)
  S:(connected depot0-2-3 depot0-2-4)
  S:(connected depot0-2-3 depot0-2-2)
  S:(connected depot0-2-4 depot0-1-4)
  S:(connected depot0-2-4 depot0-2-3)
  (in depot0-1-1 depot0)
  (in depot0-1-2 depot0)
  (in depot0-1-3 depot0)
  (in depot0-1-4 depot0)
  (in depot0-2-1 depot0)
  (in depot0-2-2 depot0)
  (in depot0-2-3 depot0)
  (in depot0-2-4 depot0)
  (on crate0 depot0-1-1)
  (on crate1 depot0-1-2)
  (on crate2 depot0-1-3)
  (on crate3 depot0-1-4)
  (in crate0 container0)
  (in crate1 container0)
  (in crate2 container0)
  (in crate3 container0)
  (in depot0-1-1 container0)
  (in depot0-1-2 container0)
  (in depot0-1-3 container0)
  (in depot0-1-4 container0)
  S:(connected loadarea depot0-1-1)
  S:(connected depot0-1-1 loadarea)
  S:(connected loadarea depot0-1-2)
  S:(connected depot0-1-2 loadarea)
  S:(connected loadarea depot0-1-3)
  S:(connected depot0-1-3 loadarea)
  S:(connected loadarea depot0-1-4)
  S:(connected depot0-1-4 loadarea)
  S:(connected depot0-2-3 loadarea)
  S:(connected loadarea depot0-2-3)
  (clear depot0-2-4)
  (clear depot0-1-2)
  (clear depot0-1-3)
  (clear depot0-1-4)
  (clear depot0-2-1)
  (clear depot0-2-2)
  (clear depot0-2-3)
  (at hoist0 depot0-1-1)
  (available hoist0)
Init[0]:
Goal: (and (RW:in crate0 depot0) (RW:in crate1 depot0) (RW:in crate2 depot0) (RW:in crate3 depot0))
Metric: 0
