Fact[13]:
  (calibrated instrument0)
  (have_image phenomenon4 thermograph0)
  (have_image phenomenon6 thermograph0)
  (have_image star5 thermograph0)
  (pointing satellite0 groundstation1)
  (pointing satellite0 groundstation2)
  (pointing satellite0 phenomenon3)
  (pointing satellite0 phenomenon4)
  (pointing satellite0 phenomenon6)
  (pointing satellite0 star0)
  (pointing satellite0 star5)
  (power_avail satellite0)
  (power_on instrument0)
Op[48]:
  (calibrate satellite0 instrument0 groundstation2), cost: 1
    pre: (pointing satellite0 groundstation2) (power_on instrument0)
    add: (calibrated instrument0)
    del:
  (switch_off instrument0 satellite0), cost: 1
    pre: (power_on instrument0)
    add: (power_avail satellite0)
    del: (power_on instrument0)
  (switch_on instrument0 satellite0), cost: 1
    pre: (power_avail satellite0)
    add: (power_on instrument0)
    del: (calibrated instrument0) (power_avail satellite0)
  (take_image satellite0 phenomenon4 instrument0 thermograph0), cost: 1
    pre: (calibrated instrument0) (pointing satellite0 phenomenon4) (power_on instrument0)
    add: (have_image phenomenon4 thermograph0)
    del:
  (take_image satellite0 phenomenon6 instrument0 thermograph0), cost: 1
    pre: (calibrated instrument0) (pointing satellite0 phenomenon6) (power_on instrument0)
    add: (have_image phenomenon6 thermograph0)
    del:
  (take_image satellite0 star5 instrument0 thermograph0), cost: 1
    pre: (calibrated instrument0) (pointing satellite0 star5) (power_on instrument0)
    add: (have_image star5 thermograph0)
    del:
  (turn_to satellite0 groundstation1 groundstation2), cost: 1
    pre: (pointing satellite0 groundstation2)
    add: (pointing satellite0 groundstation1)
    del: (pointing satellite0 groundstation2)
  (turn_to satellite0 groundstation1 phenomenon3), cost: 1
    pre: (pointing satellite0 phenomenon3)
    add: (pointing satellite0 groundstation1)
    del: (pointing satellite0 phenomenon3)
  (turn_to satellite0 groundstation1 phenomenon4), cost: 1
    pre: (pointing satellite0 phenomenon4)
    add: (pointing satellite0 groundstation1)
    del: (pointing satellite0 phenomenon4)
  (turn_to satellite0 groundstation1 phenomenon6), cost: 1
    pre: (pointing satellite0 phenomenon6)
    add: (pointing satellite0 groundstation1)
    del: (pointing satellite0 phenomenon6)
  (turn_to satellite0 groundstation1 star0), cost: 1
    pre: (pointing satellite0 star0)
    add: (pointing satellite0 groundstation1)
    del: (pointing satellite0 star0)
  (turn_to satellite0 groundstation1 star5), cost: 1
    pre: (pointing satellite0 star5)
    add: (pointing satellite0 groundstation1)
    del: (pointing satellite0 star5)
  (turn_to satellite0 groundstation2 groundstation1), cost: 1
    pre: (pointing satellite0 groundstation1)
    add: (pointing satellite0 groundstation2)
    del: (pointing satellite0 groundstation1)
  (turn_to satellite0 groundstation2 phenomenon3), cost: 1
    pre: (pointing satellite0 phenomenon3)
    add: (pointing satellite0 groundstation2)
    del: (pointing satellite0 phenomenon3)
  (turn_to satellite0 groundstation2 phenomenon4), cost: 1
    pre: (pointing satellite0 phenomenon4)
    add: (pointing satellite0 groundstation2)
    del: (pointing satellite0 phenomenon4)
  (turn_to satellite0 groundstation2 phenomenon6), cost: 1
    pre: (pointing satellite0 phenomenon6)
    add: (pointing satellite0 groundstation2)
    del: (pointing satellite0 phenomenon6)
  (turn_to satellite0 groundstation2 star0), cost: 1
    pre: (pointing satellite0 star0)
    add: (pointing satellite0 groundstation2)
    del: (pointing satellite0 star0)
  (turn_to satellite0 groundstation2 star5), cost: 1
    pre: (pointing satellite0 star5)
    add: (pointing satellite0 groundstation2)
    del: (pointing satellite0 star5)
  (turn_to satellite0 phenomenon3 groundstation1), cost: 1
    pre: (pointing satellite0 groundstation1)
    add: (pointing satellite0 phenomenon3)
    del: (pointing satellite0 groundstation1)
  (turn_to satellite0 phenomenon3 groundstation2), cost: 1
    pre: (pointing satellite0 groundstation2)
    add: (pointing satellite0 phenomenon3)
    del: (pointing satellite0 groundstation2)
  (turn_to satellite0 phenomenon3 phenomenon4), cost: 1
    pre: (pointing satellite0 phenomenon4)
    add: (pointing satellite0 phenomenon3)
    del: (pointing satellite0 phenomenon4)
  (turn_to satellite0 phenomenon3 phenomenon6), cost: 1
    pre: (pointing satellite0 phenomenon6)
    add: (pointing satellite0 phenomenon3)
    del: (pointing satellite0 phenomenon6)
  (turn_to satellite0 phenomenon3 star0), cost: 1
    pre: (pointing satellite0 star0)
    add: (pointing satellite0 phenomenon3)
    del: (pointing satellite0 star0)
  (turn_to satellite0 phenomenon3 star5), cost: 1
    pre: (pointing satellite0 star5)
    add: (pointing satellite0 phenomenon3)
    del: (pointing satellite0 star5)
  (turn_to satellite0 phenomenon4 groundstation1), cost: 1
    pre: (pointing satellite0 groundstation1)
    add: (pointing satellite0 phenomenon4)
    del: (pointing satellite0 groundstation1)
  (turn_to satellite0 phenomenon4 groundstation2), cost: 1
    pre: (pointing satellite0 groundstation2)
    add: (pointing satellite0 phenomenon4)
    del: (pointing satellite0 groundstation2)
  (turn_to satellite0 phenomenon4 phenomenon3), cost: 1
    pre: (pointing satellite0 phenomenon3)
    add: (pointing satellite0 phenomenon4)
    del: (pointing satellite0 phenomenon3)
  (turn_to satellite0 phenomenon4 phenomenon6), cost: 1
    pre: (pointing satellite0 phenomenon6)
    add: (pointing satellite0 phenomenon4)
    del: (pointing satellite0 phenomenon6)
  (turn_to satellite0 phenomenon4 star0), cost: 1
    pre: (pointing satellite0 star0)
    add: (pointing satellite0 phenomenon4)
    del: (pointing satellite0 star0)
  (turn_to satellite0 phenomenon4 star5), cost: 1
    pre: (pointing satellite0 star5)
    add: (pointing satellite0 phenomenon4)
    del: (pointing satellite0 star5)
  (turn_to satellite0 phenomenon6 groundstation1), cost: 1
    pre: (pointing satellite0 groundstation1)
    add: (pointing satellite0 phenomenon6)
    del: (pointing satellite0 groundstation1)
  (turn_to satellite0 phenomenon6 groundstation2), cost: 1
    pre: (pointing satellite0 groundstation2)
    add: (pointing satellite0 phenomenon6)
    del: (pointing satellite0 groundstation2)
  (turn_to satellite0 phenomenon6 phenomenon3), cost: 1
    pre: (pointing satellite0 phenomenon3)
    add: (pointing satellite0 phenomenon6)
    del: (pointing satellite0 phenomenon3)
  (turn_to satellite0 phenomenon6 phenomenon4), cost: 1
    pre: (pointing satellite0 phenomenon4)
    add: (pointing satellite0 phenomenon6)
    del: (pointing satellite0 phenomenon4)
  (turn_to satellite0 phenomenon6 star0), cost: 1
    pre: (pointing satellite0 star0)
    add: (pointing satellite0 phenomenon6)
    del: (pointing satellite0 star0)
  (turn_to satellite0 phenomenon6 star5), cost: 1
    pre: (pointing satellite0 star5)
    add: (pointing satellite0 phenomenon6)
    del: (pointing satellite0 star5)
  (turn_to satellite0 star0 groundstation1), cost: 1
    pre: (pointing satellite0 groundstation1)
    add: (pointing satellite0 star0)
    del: (pointing satellite0 groundstation1)
  (turn_to satellite0 star0 groundstation2), cost: 1
    pre: (pointing satellite0 groundstation2)
    add: (pointing satellite0 star0)
    del: (pointing satellite0 groundstation2)
  (turn_to satellite0 star0 phenomenon3), cost: 1
    pre: (pointing satellite0 phenomenon3)
    add: (pointing satellite0 star0)
    del: (pointing satellite0 phenomenon3)
  (turn_to satellite0 star0 phenomenon4), cost: 1
    pre: (pointing satellite0 phenomenon4)
    add: (pointing satellite0 star0)
    del: (pointing satellite0 phenomenon4)
  (turn_to satellite0 star0 phenomenon6), cost: 1
    pre: (pointing satellite0 phenomenon6)
    add: (pointing satellite0 star0)
    del: (pointing satellite0 phenomenon6)
  (turn_to satellite0 star0 star5), cost: 1
    pre: (pointing satellite0 star5)
    add: (pointing satellite0 star0)
    del: (pointing satellite0 star5)
  (turn_to satellite0 star5 groundstation1), cost: 1
    pre: (pointing satellite0 groundstation1)
    add: (pointing satellite0 star5)
    del: (pointing satellite0 groundstation1)
  (turn_to satellite0 star5 groundstation2), cost: 1
    pre: (pointing satellite0 groundstation2)
    add: (pointing satellite0 star5)
    del: (pointing satellite0 groundstation2)
  (turn_to satellite0 star5 phenomenon3), cost: 1
    pre: (pointing satellite0 phenomenon3)
    add: (pointing satellite0 star5)
    del: (pointing satellite0 phenomenon3)
  (turn_to satellite0 star5 phenomenon4), cost: 1
    pre: (pointing satellite0 phenomenon4)
    add: (pointing satellite0 star5)
    del: (pointing satellite0 phenomenon4)
  (turn_to satellite0 star5 phenomenon6), cost: 1
    pre: (pointing satellite0 phenomenon6)
    add: (pointing satellite0 star5)
    del: (pointing satellite0 phenomenon6)
  (turn_to satellite0 star5 star0), cost: 1
    pre: (pointing satellite0 star0)
    add: (pointing satellite0 star5)
    del: (pointing satellite0 star0)
Init State: (pointing satellite0 phenomenon6) (power_avail satellite0)
Goal: (have_image phenomenon4 thermograph0) (have_image phenomenon6 thermograph0) (have_image star5 thermograph0)
