RSE-Invertible facts:
0:(at_car car0 place0) in-fam-group
1:(at_car car0 place1) in-fam-group
2:(at_car car0 place2) in-fam-group
3:(at_car car0 place3) in-fam-group
4:(at_car car0 place4) in-fam-group
5:(at_car car1 place0) in-fam-group
6:(at_car car1 place1) in-fam-group
7:(at_car car1 place2) in-fam-group
8:(at_car car1 place3) in-fam-group
9:(at_car car1 place4) in-fam-group
10:(at_car car2 place0) in-fam-group
11:(at_car car2 place1) in-fam-group
12:(at_car car2 place2) in-fam-group
13:(at_car car2 place3) in-fam-group
14:(at_car car2 place4) in-fam-group
35:(at_tent tent0 place0) in-fam-group
36:(at_tent tent0 place1) in-fam-group
37:(at_tent tent0 place2) in-fam-group
38:(at_tent tent0 place3) in-fam-group
39:(at_tent tent0 place4) in-fam-group
40:(at_tent tent1 place0) in-fam-group
41:(at_tent tent1 place1) in-fam-group
42:(at_tent tent1 place2) in-fam-group
43:(at_tent tent1 place3) in-fam-group
44:(at_tent tent1 place4) in-fam-group
45:(down tent0) in-fam-group
46:(down tent1) in-fam-group
47:(up tent0) in-fam-group
48:(up tent1) in-fam-group
