Monotonicity invariants:
< {at V0:hoist C1:area}
, {available V0:hoist, lifting V0:hoist C1:crate}
, {available C1:hoist, lifting V0:hoist C2:crate}
, {lifting V0:hoist V1:crate, on V1:crate C2:storearea}
, {lifting C1:hoist V0:crate, on V0:crate C2:storearea}
, {clear V0:storearea, at V1:hoist V0:storearea, on C2:crate V0:storearea}
, {clear V0:storearea, at C1:hoist V0:storearea, on C2:crate V0:storearea}
>
FD Mutex Groups:
< {at hoist0 C0:area}:=1
, {available hoist0, lifting hoist0 C0:crate}:=1
, {lifting hoist0 V0:crate, on V0:crate C1:storearea}:=1
, {clear V0:storearea, at hoist0 V0:storearea, on C1:crate V0:storearea}:=1
>
