 (NOT-has-block) (has-block):=1:fam:G
 (height pos-0-0 n0) (height pos-0-0 n1) (height pos-0-0 n2) (height pos-0-0 n3) (height pos-0-0 n4):=1:fam:G
 (height pos-0-1 n0) (height pos-0-1 n1) (height pos-0-1 n2) (height pos-0-1 n3) (height pos-0-1 n4):=1:fam:G
 (height pos-0-2 n0) (height pos-0-2 n1) (height pos-0-2 n2) (height pos-0-2 n3) (height pos-0-2 n4):=1:fam:G
 (height pos-1-0 n0) (height pos-1-0 n1) (height pos-1-0 n2) (height pos-1-0 n3) (height pos-1-0 n4):=1:fam:G
 (height pos-1-1 n0) (height pos-1-1 n1) (height pos-1-1 n2) (height pos-1-1 n3) (height pos-1-1 n4):=1:fam:G
 (height pos-1-2 n0) (height pos-1-2 n1) (height pos-1-2 n2) (height pos-1-2 n3) (height pos-1-2 n4):=1:fam:G
 (height pos-2-1 n0) (height pos-2-1 n1) (height pos-2-1 n2) (height pos-2-1 n3) (height pos-2-1 n4):=1:fam:G
 (height pos-2-2 n0) (height pos-2-2 n1) (height pos-2-2 n2) (height pos-2-2 n3) (height pos-2-2 n4):=1:fam:G
 (height pos-3-0 n0) (height pos-3-0 n1) (height pos-3-0 n2) (height pos-3-0 n3) (height pos-3-0 n4):=1:fam:G
 (height pos-3-1 n0) (height pos-3-1 n1) (height pos-3-1 n2) (height pos-3-1 n3) (height pos-3-1 n4):=1:fam:G
 (height pos-3-2 n0) (height pos-3-2 n1) (height pos-3-2 n2) (height pos-3-2 n3) (height pos-3-2 n4):=1:fam:G
 (at pos-0-0) (at pos-0-1) (at pos-0-2) (at pos-1-0) (at pos-1-1) (at pos-1-2) (at pos-2-0) (at pos-2-1) (at pos-2-2) (at pos-3-0) (at pos-3-1) (at pos-3-2):=1:fam

