Reduced 90 -> 80
Domain: miconic
Problem: mixed-f60-p30-u0-v0-g0-a0-n0-a0-b0-n0-f0-r4
Require: ff
Type[3]:
    [0]: object, parent: -1
    [1]: passenger, parent: 0
    [2]: floor, parent: 0
Obj-by-Type:
    [0]: 0 1 2 3 4 5 6 7 8 9 10 11 12 13 14 15 16 17 18 19 20 21 22 23 24 25 26 27 28 29 30 31 32 33 34 35 36 37 38 39 40 41 42 43 44 45 46 47 48 49 50 51 52 53 54 55 56 57 58 59 60 61 62 63 64 65 66 67 68 69 70 71 72 73 74 75 76 77 78 79
    [1]: 0 1 2 3 4 5 6 7 8 9 10 11 12 13 14 15 16 17 18 19 20 21 22 23 24 25 26 27 28 29
    [2]: 30 31 32 33 34 35 36 37 38 39 40 41 42 43 44 45 46 47 48 49 50 51 52 53 54 55 56 57 58 59 60 61 62 63 64 65 66 67 68 69 70 71 72 73 74 75 76 77 78 79
Obj[80]:
    [0]: p0, type: 1, is-constant: 0, is-private: 0, owner: -1, is-agent: 0
    [1]: p1, type: 1, is-constant: 0, is-private: 0, owner: -1, is-agent: 0
    [2]: p2, type: 1, is-constant: 0, is-private: 0, owner: -1, is-agent: 0
    [3]: p3, type: 1, is-constant: 0, is-private: 0, owner: -1, is-agent: 0
    [4]: p4, type: 1, is-constant: 0, is-private: 0, owner: -1, is-agent: 0
    [5]: p5, type: 1, is-constant: 0, is-private: 0, owner: -1, is-agent: 0
    [6]: p6, type: 1, is-constant: 0, is-private: 0, owner: -1, is-agent: 0
    [7]: p7, type: 1, is-constant: 0, is-private: 0, owner: -1, is-agent: 0
    [8]: p8, type: 1, is-constant: 0, is-private: 0, owner: -1, is-agent: 0
    [9]: p9, type: 1, is-constant: 0, is-private: 0, owner: -1, is-agent: 0
    [10]: p10, type: 1, is-constant: 0, is-private: 0, owner: -1, is-agent: 0
    [11]: p11, type: 1, is-constant: 0, is-private: 0, owner: -1, is-agent: 0
    [12]: p12, type: 1, is-constant: 0, is-private: 0, owner: -1, is-agent: 0
    [13]: p13, type: 1, is-constant: 0, is-private: 0, owner: -1, is-agent: 0
    [14]: p14, type: 1, is-constant: 0, is-private: 0, owner: -1, is-agent: 0
    [15]: p15, type: 1, is-constant: 0, is-private: 0, owner: -1, is-agent: 0
    [16]: p16, type: 1, is-constant: 0, is-private: 0, owner: -1, is-agent: 0
    [17]: p17, type: 1, is-constant: 0, is-private: 0, owner: -1, is-agent: 0
    [18]: p18, type: 1, is-constant: 0, is-private: 0, owner: -1, is-agent: 0
    [19]: p19, type: 1, is-constant: 0, is-private: 0, owner: -1, is-agent: 0
    [20]: p20, type: 1, is-constant: 0, is-private: 0, owner: -1, is-agent: 0
    [21]: p21, type: 1, is-constant: 0, is-private: 0, owner: -1, is-agent: 0
    [22]: p22, type: 1, is-constant: 0, is-private: 0, owner: -1, is-agent: 0
    [23]: p23, type: 1, is-constant: 0, is-private: 0, owner: -1, is-agent: 0
    [24]: p24, type: 1, is-constant: 0, is-private: 0, owner: -1, is-agent: 0
    [25]: p25, type: 1, is-constant: 0, is-private: 0, owner: -1, is-agent: 0
    [26]: p26, type: 1, is-constant: 0, is-private: 0, owner: -1, is-agent: 0
    [27]: p27, type: 1, is-constant: 0, is-private: 0, owner: -1, is-agent: 0
    [28]: p28, type: 1, is-constant: 0, is-private: 0, owner: -1, is-agent: 0
    [29]: p29, type: 1, is-constant: 0, is-private: 0, owner: -1, is-agent: 0
    [30]: f0, type: 2, is-constant: 0, is-private: 0, owner: -1, is-agent: 0
    [31]: f1, type: 2, is-constant: 0, is-private: 0, owner: -1, is-agent: 0
    [32]: f2, type: 2, is-constant: 0, is-private: 0, owner: -1, is-agent: 0
    [33]: f3, type: 2, is-constant: 0, is-private: 0, owner: -1, is-agent: 0
    [34]: f9, type: 2, is-constant: 0, is-private: 0, owner: -1, is-agent: 0
    [35]: f10, type: 2, is-constant: 0, is-private: 0, owner: -1, is-agent: 0
    [36]: f12, type: 2, is-constant: 0, is-private: 0, owner: -1, is-agent: 0
    [37]: f13, type: 2, is-constant: 0, is-private: 0, owner: -1, is-agent: 0
    [38]: f14, type: 2, is-constant: 0, is-private: 0, owner: -1, is-agent: 0
    [39]: f15, type: 2, is-constant: 0, is-private: 0, owner: -1, is-agent: 0
    [40]: f16, type: 2, is-constant: 0, is-private: 0, owner: -1, is-agent: 0
    [41]: f18, type: 2, is-constant: 0, is-private: 0, owner: -1, is-agent: 0
    [42]: f19, type: 2, is-constant: 0, is-private: 0, owner: -1, is-agent: 0
    [43]: f20, type: 2, is-constant: 0, is-private: 0, owner: -1, is-agent: 0
    [44]: f21, type: 2, is-constant: 0, is-private: 0, owner: -1, is-agent: 0
    [45]: f25, type: 2, is-constant: 0, is-private: 0, owner: -1, is-agent: 0
    [46]: f26, type: 2, is-constant: 0, is-private: 0, owner: -1, is-agent: 0
    [47]: f27, type: 2, is-constant: 0, is-private: 0, owner: -1, is-agent: 0
    [48]: f28, type: 2, is-constant: 0, is-private: 0, owner: -1, is-agent: 0
    [49]: f29, type: 2, is-constant: 0, is-private: 0, owner: -1, is-agent: 0
    [50]: f30, type: 2, is-constant: 0, is-private: 0, owner: -1, is-agent: 0
    [51]: f31, type: 2, is-constant: 0, is-private: 0, owner: -1, is-agent: 0
    [52]: f32, type: 2, is-constant: 0, is-private: 0, owner: -1, is-agent: 0
    [53]: f33, type: 2, is-constant: 0, is-private: 0, owner: -1, is-agent: 0
    [54]: f34, type: 2, is-constant: 0, is-private: 0, owner: -1, is-agent: 0
    [55]: f35, type: 2, is-constant: 0, is-private: 0, owner: -1, is-agent: 0
    [56]: f36, type: 2, is-constant: 0, is-private: 0, owner: -1, is-agent: 0
    [57]: f37, type: 2, is-constant: 0, is-private: 0, owner: -1, is-agent: 0
    [58]: f38, type: 2, is-constant: 0, is-private: 0, owner: -1, is-agent: 0
    [59]: f39, type: 2, is-constant: 0, is-private: 0, owner: -1, is-agent: 0
    [60]: f40, type: 2, is-constant: 0, is-private: 0, owner: -1, is-agent: 0
    [61]: f41, type: 2, is-constant: 0, is-private: 0, owner: -1, is-agent: 0
    [62]: f42, type: 2, is-constant: 0, is-private: 0, owner: -1, is-agent: 0
    [63]: f43, type: 2, is-constant: 0, is-private: 0, owner: -1, is-agent: 0
    [64]: f44, type: 2, is-constant: 0, is-private: 0, owner: -1, is-agent: 0
    [65]: f45, type: 2, is-constant: 0, is-private: 0, owner: -1, is-agent: 0
    [66]: f46, type: 2, is-constant: 0, is-private: 0, owner: -1, is-agent: 0
    [67]: f47, type: 2, is-constant: 0, is-private: 0, owner: -1, is-agent: 0
    [68]: f48, type: 2, is-constant: 0, is-private: 0, owner: -1, is-agent: 0
    [69]: f49, type: 2, is-constant: 0, is-private: 0, owner: -1, is-agent: 0
    [70]: f50, type: 2, is-constant: 0, is-private: 0, owner: -1, is-agent: 0
    [71]: f51, type: 2, is-constant: 0, is-private: 0, owner: -1, is-agent: 0
    [72]: f52, type: 2, is-constant: 0, is-private: 0, owner: -1, is-agent: 0
    [73]: f53, type: 2, is-constant: 0, is-private: 0, owner: -1, is-agent: 0
    [74]: f54, type: 2, is-constant: 0, is-private: 0, owner: -1, is-agent: 0
    [75]: f55, type: 2, is-constant: 0, is-private: 0, owner: -1, is-agent: 0
    [76]: f56, type: 2, is-constant: 0, is-private: 0, owner: -1, is-agent: 0
    [77]: f57, type: 2, is-constant: 0, is-private: 0, owner: -1, is-agent: 0
    [78]: f58, type: 2, is-constant: 0, is-private: 0, owner: -1, is-agent: 0
    [79]: f59, type: 2, is-constant: 0, is-private: 0, owner: -1, is-agent: 0
Predicate[9]:
    =: 0 0 :: is-private: 0, owner-param: -1, read: 0, write: 0
    origin: 1 2 :: is-private: 0, owner-param: -1, read: 1, write: 0
    destin: 1 2 :: is-private: 0, owner-param: -1, read: 1, write: 0
    above: 2 2 :: is-private: 0, owner-param: -1, read: 1, write: 0
    boarded: 1 :: is-private: 0, owner-param: -1, read: 1, write: 1
    not-boarded: 1 :: is-private: 0, owner-param: -1, read: 0, write: 0
    served: 1 :: is-private: 0, owner-param: -1, read: 0, write: 1
    not-served: 1 :: is-private: 0, owner-param: -1, read: 0, write: 0
    lift-at: 2 :: is-private: 0, owner-param: -1, read: 1, write: 1
Function[0]:
Action[4]:
    board: ?f:2 ?p:1
        pre: (and (RW:lift-at ?f) (R:origin ?p ?f))
        eff: (and (RW:boarded ?p))
    depart: ?f:2 ?p:1
        pre: (and (RW:lift-at ?f) (R:destin ?p ?f) (RW:boarded ?p))
        eff: (and (N:RW:boarded ?p) (W:served ?p))
    up: ?f1:2 ?f2:2
        pre: (and (RW:lift-at ?f1) (R:above ?f1 ?f2))
        eff: (and (RW:lift-at ?f2))
    down: ?f1:2 ?f2:2
        pre: (and (RW:lift-at ?f1) (R:above ?f2 ?f1))
        eff: (and (RW:lift-at ?f2))
Init[1831]:
  S:(above f0 f1)
  S:(above f0 f2)
  S:(above f0 f3)
  S:(above f0 f1)
  S:(above f0 f1)
  S:(above f0 f1)
  S:(above f0 f1)
  S:(above f0 f1)
  S:(above f0 f9)
  S:(above f0 f10)
  S:(above f0 f1)
  S:(above f0 f12)
  S:(above f0 f13)
  S:(above f0 f14)
  S:(above f0 f15)
  S:(above f0 f16)
  S:(above f0 f1)
  S:(above f0 f18)
  S:(above f0 f19)
  S:(above f0 f20)
  S:(above f0 f21)
  S:(above f0 f1)
  S:(above f0 f1)
  S:(above f0 f1)
  S:(above f0 f25)
  S:(above f0 f26)
  S:(above f0 f27)
  S:(above f0 f28)
  S:(above f0 f29)
  S:(above f0 f30)
  S:(above f0 f31)
  S:(above f0 f32)
  S:(above f0 f33)
  S:(above f0 f34)
  S:(above f0 f35)
  S:(above f0 f36)
  S:(above f0 f37)
  S:(above f0 f38)
  S:(above f0 f39)
  S:(above f0 f40)
  S:(above f0 f41)
  S:(above f0 f42)
  S:(above f0 f43)
  S:(above f0 f44)
  S:(above f0 f45)
  S:(above f0 f46)
  S:(above f0 f47)
  S:(above f0 f48)
  S:(above f0 f49)
  S:(above f0 f50)
  S:(above f0 f51)
  S:(above f0 f52)
  S:(above f0 f53)
  S:(above f0 f54)
  S:(above f0 f55)
  S:(above f0 f56)
  S:(above f0 f57)
  S:(above f0 f58)
  S:(above f0 f59)
  S:(above f1 f2)
  S:(above f1 f3)
  S:(above f1 f1)
  S:(above f1 f1)
  S:(above f1 f1)
  S:(above f1 f1)
  S:(above f1 f1)
  S:(above f1 f9)
  S:(above f1 f10)
  S:(above f1 f1)
  S:(above f1 f12)
  S:(above f1 f13)
  S:(above f1 f14)
  S:(above f1 f15)
  S:(above f1 f16)
  S:(above f1 f1)
  S:(above f1 f18)
  S:(above f1 f19)
  S:(above f1 f20)
  S:(above f1 f21)
  S:(above f1 f1)
  S:(above f1 f1)
  S:(above f1 f1)
  S:(above f1 f25)
  S:(above f1 f26)
  S:(above f1 f27)
  S:(above f1 f28)
  S:(above f1 f29)
  S:(above f1 f30)
  S:(above f1 f31)
  S:(above f1 f32)
  S:(above f1 f33)
  S:(above f1 f34)
  S:(above f1 f35)
  S:(above f1 f36)
  S:(above f1 f37)
  S:(above f1 f38)
  S:(above f1 f39)
  S:(above f1 f40)
  S:(above f1 f41)
  S:(above f1 f42)
  S:(above f1 f43)
  S:(above f1 f44)
  S:(above f1 f45)
  S:(above f1 f46)
  S:(above f1 f47)
  S:(above f1 f48)
  S:(above f1 f49)
  S:(above f1 f50)
  S:(above f1 f51)
  S:(above f1 f52)
  S:(above f1 f53)
  S:(above f1 f54)
  S:(above f1 f55)
  S:(above f1 f56)
  S:(above f1 f57)
  S:(above f1 f58)
  S:(above f1 f59)
  S:(above f2 f3)
  S:(above f2 f1)
  S:(above f2 f1)
  S:(above f2 f1)
  S:(above f2 f1)
  S:(above f2 f1)
  S:(above f2 f9)
  S:(above f2 f10)
  S:(above f2 f1)
  S:(above f2 f12)
  S:(above f2 f13)
  S:(above f2 f14)
  S:(above f2 f15)
  S:(above f2 f16)
  S:(above f2 f1)
  S:(above f2 f18)
  S:(above f2 f19)
  S:(above f2 f20)
  S:(above f2 f21)
  S:(above f2 f1)
  S:(above f2 f1)
  S:(above f2 f1)
  S:(above f2 f25)
  S:(above f2 f26)
  S:(above f2 f27)
  S:(above f2 f28)
  S:(above f2 f29)
  S:(above f2 f30)
  S:(above f2 f31)
  S:(above f2 f32)
  S:(above f2 f33)
  S:(above f2 f34)
  S:(above f2 f35)
  S:(above f2 f36)
  S:(above f2 f37)
  S:(above f2 f38)
  S:(above f2 f39)
  S:(above f2 f40)
  S:(above f2 f41)
  S:(above f2 f42)
  S:(above f2 f43)
  S:(above f2 f44)
  S:(above f2 f45)
  S:(above f2 f46)
  S:(above f2 f47)
  S:(above f2 f48)
  S:(above f2 f49)
  S:(above f2 f50)
  S:(above f2 f51)
  S:(above f2 f52)
  S:(above f2 f53)
  S:(above f2 f54)
  S:(above f2 f55)
  S:(above f2 f56)
  S:(above f2 f57)
  S:(above f2 f58)
  S:(above f2 f59)
  S:(above f3 f1)
  S:(above f3 f1)
  S:(above f3 f1)
  S:(above f3 f1)
  S:(above f3 f1)
  S:(above f3 f9)
  S:(above f3 f10)
  S:(above f3 f1)
  S:(above f3 f12)
  S:(above f3 f13)
  S:(above f3 f14)
  S:(above f3 f15)
  S:(above f3 f16)
  S:(above f3 f1)
  S:(above f3 f18)
  S:(above f3 f19)
  S:(above f3 f20)
  S:(above f3 f21)
  S:(above f3 f1)
  S:(above f3 f1)
  S:(above f3 f1)
  S:(above f3 f25)
  S:(above f3 f26)
  S:(above f3 f27)
  S:(above f3 f28)
  S:(above f3 f29)
  S:(above f3 f30)
  S:(above f3 f31)
  S:(above f3 f32)
  S:(above f3 f33)
  S:(above f3 f34)
  S:(above f3 f35)
  S:(above f3 f36)
  S:(above f3 f37)
  S:(above f3 f38)
  S:(above f3 f39)
  S:(above f3 f40)
  S:(above f3 f41)
  S:(above f3 f42)
  S:(above f3 f43)
  S:(above f3 f44)
  S:(above f3 f45)
  S:(above f3 f46)
  S:(above f3 f47)
  S:(above f3 f48)
  S:(above f3 f49)
  S:(above f3 f50)
  S:(above f3 f51)
  S:(above f3 f52)
  S:(above f3 f53)
  S:(above f3 f54)
  S:(above f3 f55)
  S:(above f3 f56)
  S:(above f3 f57)
  S:(above f3 f58)
  S:(above f3 f59)
  S:(above f1 f1)
  S:(above f1 f1)
  S:(above f1 f1)
  S:(above f1 f1)
  S:(above f1 f9)
  S:(above f1 f10)
  S:(above f1 f1)
  S:(above f1 f12)
  S:(above f1 f13)
  S:(above f1 f14)
  S:(above f1 f15)
  S:(above f1 f16)
  S:(above f1 f1)
  S:(above f1 f18)
  S:(above f1 f19)
  S:(above f1 f20)
  S:(above f1 f21)
  S:(above f1 f1)
  S:(above f1 f1)
  S:(above f1 f1)
  S:(above f1 f25)
  S:(above f1 f26)
  S:(above f1 f27)
  S:(above f1 f28)
  S:(above f1 f29)
  S:(above f1 f30)
  S:(above f1 f31)
  S:(above f1 f32)
  S:(above f1 f33)
  S:(above f1 f34)
  S:(above f1 f35)
  S:(above f1 f36)
  S:(above f1 f37)
  S:(above f1 f38)
  S:(above f1 f39)
  S:(above f1 f40)
  S:(above f1 f41)
  S:(above f1 f42)
  S:(above f1 f43)
  S:(above f1 f44)
  S:(above f1 f45)
  S:(above f1 f46)
  S:(above f1 f47)
  S:(above f1 f48)
  S:(above f1 f49)
  S:(above f1 f50)
  S:(above f1 f51)
  S:(above f1 f52)
  S:(above f1 f53)
  S:(above f1 f54)
  S:(above f1 f55)
  S:(above f1 f56)
  S:(above f1 f57)
  S:(above f1 f58)
  S:(above f1 f59)
  S:(above f1 f1)
  S:(above f1 f1)
  S:(above f1 f1)
  S:(above f1 f9)
  S:(above f1 f10)
  S:(above f1 f1)
  S:(above f1 f12)
  S:(above f1 f13)
  S:(above f1 f14)
  S:(above f1 f15)
  S:(above f1 f16)
  S:(above f1 f1)
  S:(above f1 f18)
  S:(above f1 f19)
  S:(above f1 f20)
  S:(above f1 f21)
  S:(above f1 f1)
  S:(above f1 f1)
  S:(above f1 f1)
  S:(above f1 f25)
  S:(above f1 f26)
  S:(above f1 f27)
  S:(above f1 f28)
  S:(above f1 f29)
  S:(above f1 f30)
  S:(above f1 f31)
  S:(above f1 f32)
  S:(above f1 f33)
  S:(above f1 f34)
  S:(above f1 f35)
  S:(above f1 f36)
  S:(above f1 f37)
  S:(above f1 f38)
  S:(above f1 f39)
  S:(above f1 f40)
  S:(above f1 f41)
  S:(above f1 f42)
  S:(above f1 f43)
  S:(above f1 f44)
  S:(above f1 f45)
  S:(above f1 f46)
  S:(above f1 f47)
  S:(above f1 f48)
  S:(above f1 f49)
  S:(above f1 f50)
  S:(above f1 f51)
  S:(above f1 f52)
  S:(above f1 f53)
  S:(above f1 f54)
  S:(above f1 f55)
  S:(above f1 f56)
  S:(above f1 f57)
  S:(above f1 f58)
  S:(above f1 f59)
  S:(above f1 f1)
  S:(above f1 f1)
  S:(above f1 f9)
  S:(above f1 f10)
  S:(above f1 f1)
  S:(above f1 f12)
  S:(above f1 f13)
  S:(above f1 f14)
  S:(above f1 f15)
  S:(above f1 f16)
  S:(above f1 f1)
  S:(above f1 f18)
  S:(above f1 f19)
  S:(above f1 f20)
  S:(above f1 f21)
  S:(above f1 f1)
  S:(above f1 f1)
  S:(above f1 f1)
  S:(above f1 f25)
  S:(above f1 f26)
  S:(above f1 f27)
  S:(above f1 f28)
  S:(above f1 f29)
  S:(above f1 f30)
  S:(above f1 f31)
  S:(above f1 f32)
  S:(above f1 f33)
  S:(above f1 f34)
  S:(above f1 f35)
  S:(above f1 f36)
  S:(above f1 f37)
  S:(above f1 f38)
  S:(above f1 f39)
  S:(above f1 f40)
  S:(above f1 f41)
  S:(above f1 f42)
  S:(above f1 f43)
  S:(above f1 f44)
  S:(above f1 f45)
  S:(above f1 f46)
  S:(above f1 f47)
  S:(above f1 f48)
  S:(above f1 f49)
  S:(above f1 f50)
  S:(above f1 f51)
  S:(above f1 f52)
  S:(above f1 f53)
  S:(above f1 f54)
  S:(above f1 f55)
  S:(above f1 f56)
  S:(above f1 f57)
  S:(above f1 f58)
  S:(above f1 f59)
  S:(above f1 f1)
  S:(above f1 f9)
  S:(above f1 f10)
  S:(above f1 f1)
  S:(above f1 f12)
  S:(above f1 f13)
  S:(above f1 f14)
  S:(above f1 f15)
  S:(above f1 f16)
  S:(above f1 f1)
  S:(above f1 f18)
  S:(above f1 f19)
  S:(above f1 f20)
  S:(above f1 f21)
  S:(above f1 f1)
  S:(above f1 f1)
  S:(above f1 f1)
  S:(above f1 f25)
  S:(above f1 f26)
  S:(above f1 f27)
  S:(above f1 f28)
  S:(above f1 f29)
  S:(above f1 f30)
  S:(above f1 f31)
  S:(above f1 f32)
  S:(above f1 f33)
  S:(above f1 f34)
  S:(above f1 f35)
  S:(above f1 f36)
  S:(above f1 f37)
  S:(above f1 f38)
  S:(above f1 f39)
  S:(above f1 f40)
  S:(above f1 f41)
  S:(above f1 f42)
  S:(above f1 f43)
  S:(above f1 f44)
  S:(above f1 f45)
  S:(above f1 f46)
  S:(above f1 f47)
  S:(above f1 f48)
  S:(above f1 f49)
  S:(above f1 f50)
  S:(above f1 f51)
  S:(above f1 f52)
  S:(above f1 f53)
  S:(above f1 f54)
  S:(above f1 f55)
  S:(above f1 f56)
  S:(above f1 f57)
  S:(above f1 f58)
  S:(above f1 f59)
  S:(above f1 f9)
  S:(above f1 f10)
  S:(above f1 f1)
  S:(above f1 f12)
  S:(above f1 f13)
  S:(above f1 f14)
  S:(above f1 f15)
  S:(above f1 f16)
  S:(above f1 f1)
  S:(above f1 f18)
  S:(above f1 f19)
  S:(above f1 f20)
  S:(above f1 f21)
  S:(above f1 f1)
  S:(above f1 f1)
  S:(above f1 f1)
  S:(above f1 f25)
  S:(above f1 f26)
  S:(above f1 f27)
  S:(above f1 f28)
  S:(above f1 f29)
  S:(above f1 f30)
  S:(above f1 f31)
  S:(above f1 f32)
  S:(above f1 f33)
  S:(above f1 f34)
  S:(above f1 f35)
  S:(above f1 f36)
  S:(above f1 f37)
  S:(above f1 f38)
  S:(above f1 f39)
  S:(above f1 f40)
  S:(above f1 f41)
  S:(above f1 f42)
  S:(above f1 f43)
  S:(above f1 f44)
  S:(above f1 f45)
  S:(above f1 f46)
  S:(above f1 f47)
  S:(above f1 f48)
  S:(above f1 f49)
  S:(above f1 f50)
  S:(above f1 f51)
  S:(above f1 f52)
  S:(above f1 f53)
  S:(above f1 f54)
  S:(above f1 f55)
  S:(above f1 f56)
  S:(above f1 f57)
  S:(above f1 f58)
  S:(above f1 f59)
  S:(above f9 f10)
  S:(above f9 f1)
  S:(above f9 f12)
  S:(above f9 f13)
  S:(above f9 f14)
  S:(above f9 f15)
  S:(above f9 f16)
  S:(above f9 f1)
  S:(above f9 f18)
  S:(above f9 f19)
  S:(above f9 f20)
  S:(above f9 f21)
  S:(above f9 f1)
  S:(above f9 f1)
  S:(above f9 f1)
  S:(above f9 f25)
  S:(above f9 f26)
  S:(above f9 f27)
  S:(above f9 f28)
  S:(above f9 f29)
  S:(above f9 f30)
  S:(above f9 f31)
  S:(above f9 f32)
  S:(above f9 f33)
  S:(above f9 f34)
  S:(above f9 f35)
  S:(above f9 f36)
  S:(above f9 f37)
  S:(above f9 f38)
  S:(above f9 f39)
  S:(above f9 f40)
  S:(above f9 f41)
  S:(above f9 f42)
  S:(above f9 f43)
  S:(above f9 f44)
  S:(above f9 f45)
  S:(above f9 f46)
  S:(above f9 f47)
  S:(above f9 f48)
  S:(above f9 f49)
  S:(above f9 f50)
  S:(above f9 f51)
  S:(above f9 f52)
  S:(above f9 f53)
  S:(above f9 f54)
  S:(above f9 f55)
  S:(above f9 f56)
  S:(above f9 f57)
  S:(above f9 f58)
  S:(above f9 f59)
  S:(above f10 f1)
  S:(above f10 f12)
  S:(above f10 f13)
  S:(above f10 f14)
  S:(above f10 f15)
  S:(above f10 f16)
  S:(above f10 f1)
  S:(above f10 f18)
  S:(above f10 f19)
  S:(above f10 f20)
  S:(above f10 f21)
  S:(above f10 f1)
  S:(above f10 f1)
  S:(above f10 f1)
  S:(above f10 f25)
  S:(above f10 f26)
  S:(above f10 f27)
  S:(above f10 f28)
  S:(above f10 f29)
  S:(above f10 f30)
  S:(above f10 f31)
  S:(above f10 f32)
  S:(above f10 f33)
  S:(above f10 f34)
  S:(above f10 f35)
  S:(above f10 f36)
  S:(above f10 f37)
  S:(above f10 f38)
  S:(above f10 f39)
  S:(above f10 f40)
  S:(above f10 f41)
  S:(above f10 f42)
  S:(above f10 f43)
  S:(above f10 f44)
  S:(above f10 f45)
  S:(above f10 f46)
  S:(above f10 f47)
  S:(above f10 f48)
  S:(above f10 f49)
  S:(above f10 f50)
  S:(above f10 f51)
  S:(above f10 f52)
  S:(above f10 f53)
  S:(above f10 f54)
  S:(above f10 f55)
  S:(above f10 f56)
  S:(above f10 f57)
  S:(above f10 f58)
  S:(above f10 f59)
  S:(above f1 f12)
  S:(above f1 f13)
  S:(above f1 f14)
  S:(above f1 f15)
  S:(above f1 f16)
  S:(above f1 f1)
  S:(above f1 f18)
  S:(above f1 f19)
  S:(above f1 f20)
  S:(above f1 f21)
  S:(above f1 f1)
  S:(above f1 f1)
  S:(above f1 f1)
  S:(above f1 f25)
  S:(above f1 f26)
  S:(above f1 f27)
  S:(above f1 f28)
  S:(above f1 f29)
  S:(above f1 f30)
  S:(above f1 f31)
  S:(above f1 f32)
  S:(above f1 f33)
  S:(above f1 f34)
  S:(above f1 f35)
  S:(above f1 f36)
  S:(above f1 f37)
  S:(above f1 f38)
  S:(above f1 f39)
  S:(above f1 f40)
  S:(above f1 f41)
  S:(above f1 f42)
  S:(above f1 f43)
  S:(above f1 f44)
  S:(above f1 f45)
  S:(above f1 f46)
  S:(above f1 f47)
  S:(above f1 f48)
  S:(above f1 f49)
  S:(above f1 f50)
  S:(above f1 f51)
  S:(above f1 f52)
  S:(above f1 f53)
  S:(above f1 f54)
  S:(above f1 f55)
  S:(above f1 f56)
  S:(above f1 f57)
  S:(above f1 f58)
  S:(above f1 f59)
  S:(above f12 f13)
  S:(above f12 f14)
  S:(above f12 f15)
  S:(above f12 f16)
  S:(above f12 f1)
  S:(above f12 f18)
  S:(above f12 f19)
  S:(above f12 f20)
  S:(above f12 f21)
  S:(above f12 f1)
  S:(above f12 f1)
  S:(above f12 f1)
  S:(above f12 f25)
  S:(above f12 f26)
  S:(above f12 f27)
  S:(above f12 f28)
  S:(above f12 f29)
  S:(above f12 f30)
  S:(above f12 f31)
  S:(above f12 f32)
  S:(above f12 f33)
  S:(above f12 f34)
  S:(above f12 f35)
  S:(above f12 f36)
  S:(above f12 f37)
  S:(above f12 f38)
  S:(above f12 f39)
  S:(above f12 f40)
  S:(above f12 f41)
  S:(above f12 f42)
  S:(above f12 f43)
  S:(above f12 f44)
  S:(above f12 f45)
  S:(above f12 f46)
  S:(above f12 f47)
  S:(above f12 f48)
  S:(above f12 f49)
  S:(above f12 f50)
  S:(above f12 f51)
  S:(above f12 f52)
  S:(above f12 f53)
  S:(above f12 f54)
  S:(above f12 f55)
  S:(above f12 f56)
  S:(above f12 f57)
  S:(above f12 f58)
  S:(above f12 f59)
  S:(above f13 f14)
  S:(above f13 f15)
  S:(above f13 f16)
  S:(above f13 f1)
  S:(above f13 f18)
  S:(above f13 f19)
  S:(above f13 f20)
  S:(above f13 f21)
  S:(above f13 f1)
  S:(above f13 f1)
  S:(above f13 f1)
  S:(above f13 f25)
  S:(above f13 f26)
  S:(above f13 f27)
  S:(above f13 f28)
  S:(above f13 f29)
  S:(above f13 f30)
  S:(above f13 f31)
  S:(above f13 f32)
  S:(above f13 f33)
  S:(above f13 f34)
  S:(above f13 f35)
  S:(above f13 f36)
  S:(above f13 f37)
  S:(above f13 f38)
  S:(above f13 f39)
  S:(above f13 f40)
  S:(above f13 f41)
  S:(above f13 f42)
  S:(above f13 f43)
  S:(above f13 f44)
  S:(above f13 f45)
  S:(above f13 f46)
  S:(above f13 f47)
  S:(above f13 f48)
  S:(above f13 f49)
  S:(above f13 f50)
  S:(above f13 f51)
  S:(above f13 f52)
  S:(above f13 f53)
  S:(above f13 f54)
  S:(above f13 f55)
  S:(above f13 f56)
  S:(above f13 f57)
  S:(above f13 f58)
  S:(above f13 f59)
  S:(above f14 f15)
  S:(above f14 f16)
  S:(above f14 f1)
  S:(above f14 f18)
  S:(above f14 f19)
  S:(above f14 f20)
  S:(above f14 f21)
  S:(above f14 f1)
  S:(above f14 f1)
  S:(above f14 f1)
  S:(above f14 f25)
  S:(above f14 f26)
  S:(above f14 f27)
  S:(above f14 f28)
  S:(above f14 f29)
  S:(above f14 f30)
  S:(above f14 f31)
  S:(above f14 f32)
  S:(above f14 f33)
  S:(above f14 f34)
  S:(above f14 f35)
  S:(above f14 f36)
  S:(above f14 f37)
  S:(above f14 f38)
  S:(above f14 f39)
  S:(above f14 f40)
  S:(above f14 f41)
  S:(above f14 f42)
  S:(above f14 f43)
  S:(above f14 f44)
  S:(above f14 f45)
  S:(above f14 f46)
  S:(above f14 f47)
  S:(above f14 f48)
  S:(above f14 f49)
  S:(above f14 f50)
  S:(above f14 f51)
  S:(above f14 f52)
  S:(above f14 f53)
  S:(above f14 f54)
  S:(above f14 f55)
  S:(above f14 f56)
  S:(above f14 f57)
  S:(above f14 f58)
  S:(above f14 f59)
  S:(above f15 f16)
  S:(above f15 f1)
  S:(above f15 f18)
  S:(above f15 f19)
  S:(above f15 f20)
  S:(above f15 f21)
  S:(above f15 f1)
  S:(above f15 f1)
  S:(above f15 f1)
  S:(above f15 f25)
  S:(above f15 f26)
  S:(above f15 f27)
  S:(above f15 f28)
  S:(above f15 f29)
  S:(above f15 f30)
  S:(above f15 f31)
  S:(above f15 f32)
  S:(above f15 f33)
  S:(above f15 f34)
  S:(above f15 f35)
  S:(above f15 f36)
  S:(above f15 f37)
  S:(above f15 f38)
  S:(above f15 f39)
  S:(above f15 f40)
  S:(above f15 f41)
  S:(above f15 f42)
  S:(above f15 f43)
  S:(above f15 f44)
  S:(above f15 f45)
  S:(above f15 f46)
  S:(above f15 f47)
  S:(above f15 f48)
  S:(above f15 f49)
  S:(above f15 f50)
  S:(above f15 f51)
  S:(above f15 f52)
  S:(above f15 f53)
  S:(above f15 f54)
  S:(above f15 f55)
  S:(above f15 f56)
  S:(above f15 f57)
  S:(above f15 f58)
  S:(above f15 f59)
  S:(above f16 f1)
  S:(above f16 f18)
  S:(above f16 f19)
  S:(above f16 f20)
  S:(above f16 f21)
  S:(above f16 f1)
  S:(above f16 f1)
  S:(above f16 f1)
  S:(above f16 f25)
  S:(above f16 f26)
  S:(above f16 f27)
  S:(above f16 f28)
  S:(above f16 f29)
  S:(above f16 f30)
  S:(above f16 f31)
  S:(above f16 f32)
  S:(above f16 f33)
  S:(above f16 f34)
  S:(above f16 f35)
  S:(above f16 f36)
  S:(above f16 f37)
  S:(above f16 f38)
  S:(above f16 f39)
  S:(above f16 f40)
  S:(above f16 f41)
  S:(above f16 f42)
  S:(above f16 f43)
  S:(above f16 f44)
  S:(above f16 f45)
  S:(above f16 f46)
  S:(above f16 f47)
  S:(above f16 f48)
  S:(above f16 f49)
  S:(above f16 f50)
  S:(above f16 f51)
  S:(above f16 f52)
  S:(above f16 f53)
  S:(above f16 f54)
  S:(above f16 f55)
  S:(above f16 f56)
  S:(above f16 f57)
  S:(above f16 f58)
  S:(above f16 f59)
  S:(above f1 f18)
  S:(above f1 f19)
  S:(above f1 f20)
  S:(above f1 f21)
  S:(above f1 f1)
  S:(above f1 f1)
  S:(above f1 f1)
  S:(above f1 f25)
  S:(above f1 f26)
  S:(above f1 f27)
  S:(above f1 f28)
  S:(above f1 f29)
  S:(above f1 f30)
  S:(above f1 f31)
  S:(above f1 f32)
  S:(above f1 f33)
  S:(above f1 f34)
  S:(above f1 f35)
  S:(above f1 f36)
  S:(above f1 f37)
  S:(above f1 f38)
  S:(above f1 f39)
  S:(above f1 f40)
  S:(above f1 f41)
  S:(above f1 f42)
  S:(above f1 f43)
  S:(above f1 f44)
  S:(above f1 f45)
  S:(above f1 f46)
  S:(above f1 f47)
  S:(above f1 f48)
  S:(above f1 f49)
  S:(above f1 f50)
  S:(above f1 f51)
  S:(above f1 f52)
  S:(above f1 f53)
  S:(above f1 f54)
  S:(above f1 f55)
  S:(above f1 f56)
  S:(above f1 f57)
  S:(above f1 f58)
  S:(above f1 f59)
  S:(above f18 f19)
  S:(above f18 f20)
  S:(above f18 f21)
  S:(above f18 f1)
  S:(above f18 f1)
  S:(above f18 f1)
  S:(above f18 f25)
  S:(above f18 f26)
  S:(above f18 f27)
  S:(above f18 f28)
  S:(above f18 f29)
  S:(above f18 f30)
  S:(above f18 f31)
  S:(above f18 f32)
  S:(above f18 f33)
  S:(above f18 f34)
  S:(above f18 f35)
  S:(above f18 f36)
  S:(above f18 f37)
  S:(above f18 f38)
  S:(above f18 f39)
  S:(above f18 f40)
  S:(above f18 f41)
  S:(above f18 f42)
  S:(above f18 f43)
  S:(above f18 f44)
  S:(above f18 f45)
  S:(above f18 f46)
  S:(above f18 f47)
  S:(above f18 f48)
  S:(above f18 f49)
  S:(above f18 f50)
  S:(above f18 f51)
  S:(above f18 f52)
  S:(above f18 f53)
  S:(above f18 f54)
  S:(above f18 f55)
  S:(above f18 f56)
  S:(above f18 f57)
  S:(above f18 f58)
  S:(above f18 f59)
  S:(above f19 f20)
  S:(above f19 f21)
  S:(above f19 f1)
  S:(above f19 f1)
  S:(above f19 f1)
  S:(above f19 f25)
  S:(above f19 f26)
  S:(above f19 f27)
  S:(above f19 f28)
  S:(above f19 f29)
  S:(above f19 f30)
  S:(above f19 f31)
  S:(above f19 f32)
  S:(above f19 f33)
  S:(above f19 f34)
  S:(above f19 f35)
  S:(above f19 f36)
  S:(above f19 f37)
  S:(above f19 f38)
  S:(above f19 f39)
  S:(above f19 f40)
  S:(above f19 f41)
  S:(above f19 f42)
  S:(above f19 f43)
  S:(above f19 f44)
  S:(above f19 f45)
  S:(above f19 f46)
  S:(above f19 f47)
  S:(above f19 f48)
  S:(above f19 f49)
  S:(above f19 f50)
  S:(above f19 f51)
  S:(above f19 f52)
  S:(above f19 f53)
  S:(above f19 f54)
  S:(above f19 f55)
  S:(above f19 f56)
  S:(above f19 f57)
  S:(above f19 f58)
  S:(above f19 f59)
  S:(above f20 f21)
  S:(above f20 f1)
  S:(above f20 f1)
  S:(above f20 f1)
  S:(above f20 f25)
  S:(above f20 f26)
  S:(above f20 f27)
  S:(above f20 f28)
  S:(above f20 f29)
  S:(above f20 f30)
  S:(above f20 f31)
  S:(above f20 f32)
  S:(above f20 f33)
  S:(above f20 f34)
  S:(above f20 f35)
  S:(above f20 f36)
  S:(above f20 f37)
  S:(above f20 f38)
  S:(above f20 f39)
  S:(above f20 f40)
  S:(above f20 f41)
  S:(above f20 f42)
  S:(above f20 f43)
  S:(above f20 f44)
  S:(above f20 f45)
  S:(above f20 f46)
  S:(above f20 f47)
  S:(above f20 f48)
  S:(above f20 f49)
  S:(above f20 f50)
  S:(above f20 f51)
  S:(above f20 f52)
  S:(above f20 f53)
  S:(above f20 f54)
  S:(above f20 f55)
  S:(above f20 f56)
  S:(above f20 f57)
  S:(above f20 f58)
  S:(above f20 f59)
  S:(above f21 f1)
  S:(above f21 f1)
  S:(above f21 f1)
  S:(above f21 f25)
  S:(above f21 f26)
  S:(above f21 f27)
  S:(above f21 f28)
  S:(above f21 f29)
  S:(above f21 f30)
  S:(above f21 f31)
  S:(above f21 f32)
  S:(above f21 f33)
  S:(above f21 f34)
  S:(above f21 f35)
  S:(above f21 f36)
  S:(above f21 f37)
  S:(above f21 f38)
  S:(above f21 f39)
  S:(above f21 f40)
  S:(above f21 f41)
  S:(above f21 f42)
  S:(above f21 f43)
  S:(above f21 f44)
  S:(above f21 f45)
  S:(above f21 f46)
  S:(above f21 f47)
  S:(above f21 f48)
  S:(above f21 f49)
  S:(above f21 f50)
  S:(above f21 f51)
  S:(above f21 f52)
  S:(above f21 f53)
  S:(above f21 f54)
  S:(above f21 f55)
  S:(above f21 f56)
  S:(above f21 f57)
  S:(above f21 f58)
  S:(above f21 f59)
  S:(above f1 f1)
  S:(above f1 f1)
  S:(above f1 f25)
  S:(above f1 f26)
  S:(above f1 f27)
  S:(above f1 f28)
  S:(above f1 f29)
  S:(above f1 f30)
  S:(above f1 f31)
  S:(above f1 f32)
  S:(above f1 f33)
  S:(above f1 f34)
  S:(above f1 f35)
  S:(above f1 f36)
  S:(above f1 f37)
  S:(above f1 f38)
  S:(above f1 f39)
  S:(above f1 f40)
  S:(above f1 f41)
  S:(above f1 f42)
  S:(above f1 f43)
  S:(above f1 f44)
  S:(above f1 f45)
  S:(above f1 f46)
  S:(above f1 f47)
  S:(above f1 f48)
  S:(above f1 f49)
  S:(above f1 f50)
  S:(above f1 f51)
  S:(above f1 f52)
  S:(above f1 f53)
  S:(above f1 f54)
  S:(above f1 f55)
  S:(above f1 f56)
  S:(above f1 f57)
  S:(above f1 f58)
  S:(above f1 f59)
  S:(above f1 f1)
  S:(above f1 f25)
  S:(above f1 f26)
  S:(above f1 f27)
  S:(above f1 f28)
  S:(above f1 f29)
  S:(above f1 f30)
  S:(above f1 f31)
  S:(above f1 f32)
  S:(above f1 f33)
  S:(above f1 f34)
  S:(above f1 f35)
  S:(above f1 f36)
  S:(above f1 f37)
  S:(above f1 f38)
  S:(above f1 f39)
  S:(above f1 f40)
  S:(above f1 f41)
  S:(above f1 f42)
  S:(above f1 f43)
  S:(above f1 f44)
  S:(above f1 f45)
  S:(above f1 f46)
  S:(above f1 f47)
  S:(above f1 f48)
  S:(above f1 f49)
  S:(above f1 f50)
  S:(above f1 f51)
  S:(above f1 f52)
  S:(above f1 f53)
  S:(above f1 f54)
  S:(above f1 f55)
  S:(above f1 f56)
  S:(above f1 f57)
  S:(above f1 f58)
  S:(above f1 f59)
  S:(above f1 f25)
  S:(above f1 f26)
  S:(above f1 f27)
  S:(above f1 f28)
  S:(above f1 f29)
  S:(above f1 f30)
  S:(above f1 f31)
  S:(above f1 f32)
  S:(above f1 f33)
  S:(above f1 f34)
  S:(above f1 f35)
  S:(above f1 f36)
  S:(above f1 f37)
  S:(above f1 f38)
  S:(above f1 f39)
  S:(above f1 f40)
  S:(above f1 f41)
  S:(above f1 f42)
  S:(above f1 f43)
  S:(above f1 f44)
  S:(above f1 f45)
  S:(above f1 f46)
  S:(above f1 f47)
  S:(above f1 f48)
  S:(above f1 f49)
  S:(above f1 f50)
  S:(above f1 f51)
  S:(above f1 f52)
  S:(above f1 f53)
  S:(above f1 f54)
  S:(above f1 f55)
  S:(above f1 f56)
  S:(above f1 f57)
  S:(above f1 f58)
  S:(above f1 f59)
  S:(above f25 f26)
  S:(above f25 f27)
  S:(above f25 f28)
  S:(above f25 f29)
  S:(above f25 f30)
  S:(above f25 f31)
  S:(above f25 f32)
  S:(above f25 f33)
  S:(above f25 f34)
  S:(above f25 f35)
  S:(above f25 f36)
  S:(above f25 f37)
  S:(above f25 f38)
  S:(above f25 f39)
  S:(above f25 f40)
  S:(above f25 f41)
  S:(above f25 f42)
  S:(above f25 f43)
  S:(above f25 f44)
  S:(above f25 f45)
  S:(above f25 f46)
  S:(above f25 f47)
  S:(above f25 f48)
  S:(above f25 f49)
  S:(above f25 f50)
  S:(above f25 f51)
  S:(above f25 f52)
  S:(above f25 f53)
  S:(above f25 f54)
  S:(above f25 f55)
  S:(above f25 f56)
  S:(above f25 f57)
  S:(above f25 f58)
  S:(above f25 f59)
  S:(above f26 f27)
  S:(above f26 f28)
  S:(above f26 f29)
  S:(above f26 f30)
  S:(above f26 f31)
  S:(above f26 f32)
  S:(above f26 f33)
  S:(above f26 f34)
  S:(above f26 f35)
  S:(above f26 f36)
  S:(above f26 f37)
  S:(above f26 f38)
  S:(above f26 f39)
  S:(above f26 f40)
  S:(above f26 f41)
  S:(above f26 f42)
  S:(above f26 f43)
  S:(above f26 f44)
  S:(above f26 f45)
  S:(above f26 f46)
  S:(above f26 f47)
  S:(above f26 f48)
  S:(above f26 f49)
  S:(above f26 f50)
  S:(above f26 f51)
  S:(above f26 f52)
  S:(above f26 f53)
  S:(above f26 f54)
  S:(above f26 f55)
  S:(above f26 f56)
  S:(above f26 f57)
  S:(above f26 f58)
  S:(above f26 f59)
  S:(above f27 f28)
  S:(above f27 f29)
  S:(above f27 f30)
  S:(above f27 f31)
  S:(above f27 f32)
  S:(above f27 f33)
  S:(above f27 f34)
  S:(above f27 f35)
  S:(above f27 f36)
  S:(above f27 f37)
  S:(above f27 f38)
  S:(above f27 f39)
  S:(above f27 f40)
  S:(above f27 f41)
  S:(above f27 f42)
  S:(above f27 f43)
  S:(above f27 f44)
  S:(above f27 f45)
  S:(above f27 f46)
  S:(above f27 f47)
  S:(above f27 f48)
  S:(above f27 f49)
  S:(above f27 f50)
  S:(above f27 f51)
  S:(above f27 f52)
  S:(above f27 f53)
  S:(above f27 f54)
  S:(above f27 f55)
  S:(above f27 f56)
  S:(above f27 f57)
  S:(above f27 f58)
  S:(above f27 f59)
  S:(above f28 f29)
  S:(above f28 f30)
  S:(above f28 f31)
  S:(above f28 f32)
  S:(above f28 f33)
  S:(above f28 f34)
  S:(above f28 f35)
  S:(above f28 f36)
  S:(above f28 f37)
  S:(above f28 f38)
  S:(above f28 f39)
  S:(above f28 f40)
  S:(above f28 f41)
  S:(above f28 f42)
  S:(above f28 f43)
  S:(above f28 f44)
  S:(above f28 f45)
  S:(above f28 f46)
  S:(above f28 f47)
  S:(above f28 f48)
  S:(above f28 f49)
  S:(above f28 f50)
  S:(above f28 f51)
  S:(above f28 f52)
  S:(above f28 f53)
  S:(above f28 f54)
  S:(above f28 f55)
  S:(above f28 f56)
  S:(above f28 f57)
  S:(above f28 f58)
  S:(above f28 f59)
  S:(above f29 f30)
  S:(above f29 f31)
  S:(above f29 f32)
  S:(above f29 f33)
  S:(above f29 f34)
  S:(above f29 f35)
  S:(above f29 f36)
  S:(above f29 f37)
  S:(above f29 f38)
  S:(above f29 f39)
  S:(above f29 f40)
  S:(above f29 f41)
  S:(above f29 f42)
  S:(above f29 f43)
  S:(above f29 f44)
  S:(above f29 f45)
  S:(above f29 f46)
  S:(above f29 f47)
  S:(above f29 f48)
  S:(above f29 f49)
  S:(above f29 f50)
  S:(above f29 f51)
  S:(above f29 f52)
  S:(above f29 f53)
  S:(above f29 f54)
  S:(above f29 f55)
  S:(above f29 f56)
  S:(above f29 f57)
  S:(above f29 f58)
  S:(above f29 f59)
  S:(above f30 f31)
  S:(above f30 f32)
  S:(above f30 f33)
  S:(above f30 f34)
  S:(above f30 f35)
  S:(above f30 f36)
  S:(above f30 f37)
  S:(above f30 f38)
  S:(above f30 f39)
  S:(above f30 f40)
  S:(above f30 f41)
  S:(above f30 f42)
  S:(above f30 f43)
  S:(above f30 f44)
  S:(above f30 f45)
  S:(above f30 f46)
  S:(above f30 f47)
  S:(above f30 f48)
  S:(above f30 f49)
  S:(above f30 f50)
  S:(above f30 f51)
  S:(above f30 f52)
  S:(above f30 f53)
  S:(above f30 f54)
  S:(above f30 f55)
  S:(above f30 f56)
  S:(above f30 f57)
  S:(above f30 f58)
  S:(above f30 f59)
  S:(above f31 f32)
  S:(above f31 f33)
  S:(above f31 f34)
  S:(above f31 f35)
  S:(above f31 f36)
  S:(above f31 f37)
  S:(above f31 f38)
  S:(above f31 f39)
  S:(above f31 f40)
  S:(above f31 f41)
  S:(above f31 f42)
  S:(above f31 f43)
  S:(above f31 f44)
  S:(above f31 f45)
  S:(above f31 f46)
  S:(above f31 f47)
  S:(above f31 f48)
  S:(above f31 f49)
  S:(above f31 f50)
  S:(above f31 f51)
  S:(above f31 f52)
  S:(above f31 f53)
  S:(above f31 f54)
  S:(above f31 f55)
  S:(above f31 f56)
  S:(above f31 f57)
  S:(above f31 f58)
  S:(above f31 f59)
  S:(above f32 f33)
  S:(above f32 f34)
  S:(above f32 f35)
  S:(above f32 f36)
  S:(above f32 f37)
  S:(above f32 f38)
  S:(above f32 f39)
  S:(above f32 f40)
  S:(above f32 f41)
  S:(above f32 f42)
  S:(above f32 f43)
  S:(above f32 f44)
  S:(above f32 f45)
  S:(above f32 f46)
  S:(above f32 f47)
  S:(above f32 f48)
  S:(above f32 f49)
  S:(above f32 f50)
  S:(above f32 f51)
  S:(above f32 f52)
  S:(above f32 f53)
  S:(above f32 f54)
  S:(above f32 f55)
  S:(above f32 f56)
  S:(above f32 f57)
  S:(above f32 f58)
  S:(above f32 f59)
  S:(above f33 f34)
  S:(above f33 f35)
  S:(above f33 f36)
  S:(above f33 f37)
  S:(above f33 f38)
  S:(above f33 f39)
  S:(above f33 f40)
  S:(above f33 f41)
  S:(above f33 f42)
  S:(above f33 f43)
  S:(above f33 f44)
  S:(above f33 f45)
  S:(above f33 f46)
  S:(above f33 f47)
  S:(above f33 f48)
  S:(above f33 f49)
  S:(above f33 f50)
  S:(above f33 f51)
  S:(above f33 f52)
  S:(above f33 f53)
  S:(above f33 f54)
  S:(above f33 f55)
  S:(above f33 f56)
  S:(above f33 f57)
  S:(above f33 f58)
  S:(above f33 f59)
  S:(above f34 f35)
  S:(above f34 f36)
  S:(above f34 f37)
  S:(above f34 f38)
  S:(above f34 f39)
  S:(above f34 f40)
  S:(above f34 f41)
  S:(above f34 f42)
  S:(above f34 f43)
  S:(above f34 f44)
  S:(above f34 f45)
  S:(above f34 f46)
  S:(above f34 f47)
  S:(above f34 f48)
  S:(above f34 f49)
  S:(above f34 f50)
  S:(above f34 f51)
  S:(above f34 f52)
  S:(above f34 f53)
  S:(above f34 f54)
  S:(above f34 f55)
  S:(above f34 f56)
  S:(above f34 f57)
  S:(above f34 f58)
  S:(above f34 f59)
  S:(above f35 f36)
  S:(above f35 f37)
  S:(above f35 f38)
  S:(above f35 f39)
  S:(above f35 f40)
  S:(above f35 f41)
  S:(above f35 f42)
  S:(above f35 f43)
  S:(above f35 f44)
  S:(above f35 f45)
  S:(above f35 f46)
  S:(above f35 f47)
  S:(above f35 f48)
  S:(above f35 f49)
  S:(above f35 f50)
  S:(above f35 f51)
  S:(above f35 f52)
  S:(above f35 f53)
  S:(above f35 f54)
  S:(above f35 f55)
  S:(above f35 f56)
  S:(above f35 f57)
  S:(above f35 f58)
  S:(above f35 f59)
  S:(above f36 f37)
  S:(above f36 f38)
  S:(above f36 f39)
  S:(above f36 f40)
  S:(above f36 f41)
  S:(above f36 f42)
  S:(above f36 f43)
  S:(above f36 f44)
  S:(above f36 f45)
  S:(above f36 f46)
  S:(above f36 f47)
  S:(above f36 f48)
  S:(above f36 f49)
  S:(above f36 f50)
  S:(above f36 f51)
  S:(above f36 f52)
  S:(above f36 f53)
  S:(above f36 f54)
  S:(above f36 f55)
  S:(above f36 f56)
  S:(above f36 f57)
  S:(above f36 f58)
  S:(above f36 f59)
  S:(above f37 f38)
  S:(above f37 f39)
  S:(above f37 f40)
  S:(above f37 f41)
  S:(above f37 f42)
  S:(above f37 f43)
  S:(above f37 f44)
  S:(above f37 f45)
  S:(above f37 f46)
  S:(above f37 f47)
  S:(above f37 f48)
  S:(above f37 f49)
  S:(above f37 f50)
  S:(above f37 f51)
  S:(above f37 f52)
  S:(above f37 f53)
  S:(above f37 f54)
  S:(above f37 f55)
  S:(above f37 f56)
  S:(above f37 f57)
  S:(above f37 f58)
  S:(above f37 f59)
  S:(above f38 f39)
  S:(above f38 f40)
  S:(above f38 f41)
  S:(above f38 f42)
  S:(above f38 f43)
  S:(above f38 f44)
  S:(above f38 f45)
  S:(above f38 f46)
  S:(above f38 f47)
  S:(above f38 f48)
  S:(above f38 f49)
  S:(above f38 f50)
  S:(above f38 f51)
  S:(above f38 f52)
  S:(above f38 f53)
  S:(above f38 f54)
  S:(above f38 f55)
  S:(above f38 f56)
  S:(above f38 f57)
  S:(above f38 f58)
  S:(above f38 f59)
  S:(above f39 f40)
  S:(above f39 f41)
  S:(above f39 f42)
  S:(above f39 f43)
  S:(above f39 f44)
  S:(above f39 f45)
  S:(above f39 f46)
  S:(above f39 f47)
  S:(above f39 f48)
  S:(above f39 f49)
  S:(above f39 f50)
  S:(above f39 f51)
  S:(above f39 f52)
  S:(above f39 f53)
  S:(above f39 f54)
  S:(above f39 f55)
  S:(above f39 f56)
  S:(above f39 f57)
  S:(above f39 f58)
  S:(above f39 f59)
  S:(above f40 f41)
  S:(above f40 f42)
  S:(above f40 f43)
  S:(above f40 f44)
  S:(above f40 f45)
  S:(above f40 f46)
  S:(above f40 f47)
  S:(above f40 f48)
  S:(above f40 f49)
  S:(above f40 f50)
  S:(above f40 f51)
  S:(above f40 f52)
  S:(above f40 f53)
  S:(above f40 f54)
  S:(above f40 f55)
  S:(above f40 f56)
  S:(above f40 f57)
  S:(above f40 f58)
  S:(above f40 f59)
  S:(above f41 f42)
  S:(above f41 f43)
  S:(above f41 f44)
  S:(above f41 f45)
  S:(above f41 f46)
  S:(above f41 f47)
  S:(above f41 f48)
  S:(above f41 f49)
  S:(above f41 f50)
  S:(above f41 f51)
  S:(above f41 f52)
  S:(above f41 f53)
  S:(above f41 f54)
  S:(above f41 f55)
  S:(above f41 f56)
  S:(above f41 f57)
  S:(above f41 f58)
  S:(above f41 f59)
  S:(above f42 f43)
  S:(above f42 f44)
  S:(above f42 f45)
  S:(above f42 f46)
  S:(above f42 f47)
  S:(above f42 f48)
  S:(above f42 f49)
  S:(above f42 f50)
  S:(above f42 f51)
  S:(above f42 f52)
  S:(above f42 f53)
  S:(above f42 f54)
  S:(above f42 f55)
  S:(above f42 f56)
  S:(above f42 f57)
  S:(above f42 f58)
  S:(above f42 f59)
  S:(above f43 f44)
  S:(above f43 f45)
  S:(above f43 f46)
  S:(above f43 f47)
  S:(above f43 f48)
  S:(above f43 f49)
  S:(above f43 f50)
  S:(above f43 f51)
  S:(above f43 f52)
  S:(above f43 f53)
  S:(above f43 f54)
  S:(above f43 f55)
  S:(above f43 f56)
  S:(above f43 f57)
  S:(above f43 f58)
  S:(above f43 f59)
  S:(above f44 f45)
  S:(above f44 f46)
  S:(above f44 f47)
  S:(above f44 f48)
  S:(above f44 f49)
  S:(above f44 f50)
  S:(above f44 f51)
  S:(above f44 f52)
  S:(above f44 f53)
  S:(above f44 f54)
  S:(above f44 f55)
  S:(above f44 f56)
  S:(above f44 f57)
  S:(above f44 f58)
  S:(above f44 f59)
  S:(above f45 f46)
  S:(above f45 f47)
  S:(above f45 f48)
  S:(above f45 f49)
  S:(above f45 f50)
  S:(above f45 f51)
  S:(above f45 f52)
  S:(above f45 f53)
  S:(above f45 f54)
  S:(above f45 f55)
  S:(above f45 f56)
  S:(above f45 f57)
  S:(above f45 f58)
  S:(above f45 f59)
  S:(above f46 f47)
  S:(above f46 f48)
  S:(above f46 f49)
  S:(above f46 f50)
  S:(above f46 f51)
  S:(above f46 f52)
  S:(above f46 f53)
  S:(above f46 f54)
  S:(above f46 f55)
  S:(above f46 f56)
  S:(above f46 f57)
  S:(above f46 f58)
  S:(above f46 f59)
  S:(above f47 f48)
  S:(above f47 f49)
  S:(above f47 f50)
  S:(above f47 f51)
  S:(above f47 f52)
  S:(above f47 f53)
  S:(above f47 f54)
  S:(above f47 f55)
  S:(above f47 f56)
  S:(above f47 f57)
  S:(above f47 f58)
  S:(above f47 f59)
  S:(above f48 f49)
  S:(above f48 f50)
  S:(above f48 f51)
  S:(above f48 f52)
  S:(above f48 f53)
  S:(above f48 f54)
  S:(above f48 f55)
  S:(above f48 f56)
  S:(above f48 f57)
  S:(above f48 f58)
  S:(above f48 f59)
  S:(above f49 f50)
  S:(above f49 f51)
  S:(above f49 f52)
  S:(above f49 f53)
  S:(above f49 f54)
  S:(above f49 f55)
  S:(above f49 f56)
  S:(above f49 f57)
  S:(above f49 f58)
  S:(above f49 f59)
  S:(above f50 f51)
  S:(above f50 f52)
  S:(above f50 f53)
  S:(above f50 f54)
  S:(above f50 f55)
  S:(above f50 f56)
  S:(above f50 f57)
  S:(above f50 f58)
  S:(above f50 f59)
  S:(above f51 f52)
  S:(above f51 f53)
  S:(above f51 f54)
  S:(above f51 f55)
  S:(above f51 f56)
  S:(above f51 f57)
  S:(above f51 f58)
  S:(above f51 f59)
  S:(above f52 f53)
  S:(above f52 f54)
  S:(above f52 f55)
  S:(above f52 f56)
  S:(above f52 f57)
  S:(above f52 f58)
  S:(above f52 f59)
  S:(above f53 f54)
  S:(above f53 f55)
  S:(above f53 f56)
  S:(above f53 f57)
  S:(above f53 f58)
  S:(above f53 f59)
  S:(above f54 f55)
  S:(above f54 f56)
  S:(above f54 f57)
  S:(above f54 f58)
  S:(above f54 f59)
  S:(above f55 f56)
  S:(above f55 f57)
  S:(above f55 f58)
  S:(above f55 f59)
  S:(above f56 f57)
  S:(above f56 f58)
  S:(above f56 f59)
  S:(above f57 f58)
  S:(above f57 f59)
  S:(above f58 f59)
  S:(origin p0 f15)
  S:(destin p0 f51)
  S:(origin p1 f42)
  S:(destin p1 f2)
  S:(origin p2 f0)
  S:(destin p2 f42)
  S:(origin p3 f58)
  S:(destin p3 f47)
  S:(origin p4 f45)
  S:(destin p4 f9)
  S:(origin p5 f44)
  S:(destin p5 f50)
  S:(origin p6 f49)
  S:(destin p6 f2)
  S:(origin p7 f39)
  S:(destin p7 f18)
  S:(origin p8 f33)
  S:(destin p8 f20)
  S:(origin p9 f13)
  S:(destin p9 f43)
  S:(origin p10 f49)
  S:(destin p10 f18)
  S:(origin p11 f13)
  S:(destin p11 f28)
  S:(origin p12 f42)
  S:(destin p12 f27)
  S:(origin p13 f40)
  S:(destin p13 f27)
  S:(origin p14 f19)
  S:(destin p14 f38)
  S:(origin p15 f30)
  S:(destin p15 f27)
  S:(origin p16 f29)
  S:(destin p16 f12)
  S:(origin p17 f29)
  S:(destin p17 f21)
  S:(origin p18 f47)
  S:(destin p18 f20)
  S:(origin p19 f0)
  S:(destin p19 f32)
  S:(origin p20 f21)
  S:(destin p20 f44)
  S:(origin p21 f14)
  S:(destin p21 f10)
  S:(origin p22 f38)
  S:(destin p22 f53)
  S:(origin p23 f20)
  S:(destin p23 f3)
  S:(origin p24 f14)
  S:(destin p24 f25)
  S:(origin p25 f46)
  S:(destin p25 f55)
  S:(origin p26 f35)
  S:(destin p26 f59)
  S:(origin p27 f16)
  S:(destin p27 f9)
  S:(origin p28 f27)
  S:(destin p28 f56)
  S:(origin p29 f36)
  S:(destin p29 f38)
  (lift-at f0)
Init[0]:
Goal: (and (W:served p0) (W:served p1) (W:served p2) (W:served p3) (W:served p4) (W:served p5) (W:served p6) (W:served p7) (W:served p8) (W:served p9) (W:served p10) (W:served p11) (W:served p12) (W:served p13) (W:served p14) (W:served p15) (W:served p16) (W:served p17) (W:served p18) (W:served p19) (W:served p20) (W:served p21) (W:served p22) (W:served p23) (W:served p24) (W:served p25) (W:served p26) (W:served p27) (W:served p28) (W:served p29))
Metric: 0
