 (at truck0 depot0) (at truck0 depot1) (at truck0 depot2) (at truck0 distributor0) (at truck0 distributor1) (at truck0 distributor2):=1:fam
 (at truck1 depot0) (at truck1 depot1) (at truck1 depot2) (at truck1 distributor0) (at truck1 distributor1) (at truck1 distributor2):=1:fam
 (available hoist0) (lifting hoist0 crate0) (lifting hoist0 crate1) (lifting hoist0 crate2) (lifting hoist0 crate3) (lifting hoist0 crate4) (lifting hoist0 crate5):=1:fam
 (available hoist1) (lifting hoist1 crate0) (lifting hoist1 crate1) (lifting hoist1 crate2) (lifting hoist1 crate3) (lifting hoist1 crate4) (lifting hoist1 crate5):=1:fam
 (available hoist2) (lifting hoist2 crate0) (lifting hoist2 crate1) (lifting hoist2 crate2) (lifting hoist2 crate3) (lifting hoist2 crate4) (lifting hoist2 crate5):=1:fam
 (available hoist3) (lifting hoist3 crate0) (lifting hoist3 crate1) (lifting hoist3 crate2) (lifting hoist3 crate3) (lifting hoist3 crate4) (lifting hoist3 crate5):=1:fam
 (available hoist4) (lifting hoist4 crate0) (lifting hoist4 crate1) (lifting hoist4 crate2) (lifting hoist4 crate3) (lifting hoist4 crate4) (lifting hoist4 crate5):=1:fam
 (available hoist5) (lifting hoist5 crate0) (lifting hoist5 crate1) (lifting hoist5 crate2) (lifting hoist5 crate3) (lifting hoist5 crate4) (lifting hoist5 crate5):=1:fam
 (clear pallet0) (on crate0 pallet0) (on crate1 pallet0) (on crate2 pallet0) (on crate3 pallet0) (on crate4 pallet0) (on crate5 pallet0):=1:fam:G
 (clear pallet1) (on crate0 pallet1) (on crate1 pallet1) (on crate2 pallet1) (on crate3 pallet1) (on crate4 pallet1) (on crate5 pallet1):=1:fam
 (clear pallet2) (on crate0 pallet2) (on crate1 pallet2) (on crate2 pallet2) (on crate3 pallet2) (on crate4 pallet2) (on crate5 pallet2):=1:fam
 (clear pallet3) (on crate0 pallet3) (on crate1 pallet3) (on crate2 pallet3) (on crate3 pallet3) (on crate4 pallet3) (on crate5 pallet3):=1:fam:G
 (clear pallet4) (on crate0 pallet4) (on crate1 pallet4) (on crate2 pallet4) (on crate3 pallet4) (on crate4 pallet4) (on crate5 pallet4):=1:fam
 (clear pallet5) (on crate0 pallet5) (on crate1 pallet5) (on crate2 pallet5) (on crate3 pallet5) (on crate4 pallet5) (on crate5 pallet5):=1:fam:G
 (at crate0 depot0) (at crate0 depot1) (at crate0 depot2) (at crate0 distributor0) (at crate0 distributor1) (at crate0 distributor2) (in crate0 truck0) (in crate0 truck1) (lifting hoist0 crate0) (lifting hoist1 crate0) (lifting hoist2 crate0) (lifting hoist3 crate0) (lifting hoist4 crate0) (lifting hoist5 crate0):=1:fam
 (at crate1 depot0) (at crate1 depot1) (at crate1 depot2) (at crate1 distributor0) (at crate1 distributor1) (at crate1 distributor2) (in crate1 truck0) (in crate1 truck1) (lifting hoist0 crate1) (lifting hoist1 crate1) (lifting hoist2 crate1) (lifting hoist3 crate1) (lifting hoist4 crate1) (lifting hoist5 crate1):=1:fam
 (at crate2 depot0) (at crate2 depot1) (at crate2 depot2) (at crate2 distributor0) (at crate2 distributor1) (at crate2 distributor2) (in crate2 truck0) (in crate2 truck1) (lifting hoist0 crate2) (lifting hoist1 crate2) (lifting hoist2 crate2) (lifting hoist3 crate2) (lifting hoist4 crate2) (lifting hoist5 crate2):=1:fam
 (at crate3 depot0) (at crate3 depot1) (at crate3 depot2) (at crate3 distributor0) (at crate3 distributor1) (at crate3 distributor2) (in crate3 truck0) (in crate3 truck1) (lifting hoist0 crate3) (lifting hoist1 crate3) (lifting hoist2 crate3) (lifting hoist3 crate3) (lifting hoist4 crate3) (lifting hoist5 crate3):=1:fam
 (at crate4 depot0) (at crate4 depot1) (at crate4 depot2) (at crate4 distributor0) (at crate4 distributor1) (at crate4 distributor2) (in crate4 truck0) (in crate4 truck1) (lifting hoist0 crate4) (lifting hoist1 crate4) (lifting hoist2 crate4) (lifting hoist3 crate4) (lifting hoist4 crate4) (lifting hoist5 crate4):=1:fam
 (at crate5 depot0) (at crate5 depot1) (at crate5 depot2) (at crate5 distributor0) (at crate5 distributor1) (at crate5 distributor2) (in crate5 truck0) (in crate5 truck1) (lifting hoist0 crate5) (lifting hoist1 crate5) (lifting hoist2 crate5) (lifting hoist3 crate5) (lifting hoist4 crate5) (lifting hoist5 crate5):=1:fam
 (clear crate0) (in crate0 truck0) (in crate0 truck1) (lifting hoist0 crate0) (lifting hoist1 crate0) (lifting hoist2 crate0) (lifting hoist3 crate0) (lifting hoist4 crate0) (lifting hoist5 crate0) (on crate1 crate0) (on crate2 crate0) (on crate3 crate0) (on crate4 crate0) (on crate5 crate0):=1:fam
 (clear crate1) (in crate1 truck0) (in crate1 truck1) (lifting hoist0 crate1) (lifting hoist1 crate1) (lifting hoist2 crate1) (lifting hoist3 crate1) (lifting hoist4 crate1) (lifting hoist5 crate1) (on crate0 crate1) (on crate2 crate1) (on crate3 crate1) (on crate4 crate1) (on crate5 crate1):=1:fam
 (clear crate2) (in crate2 truck0) (in crate2 truck1) (lifting hoist0 crate2) (lifting hoist1 crate2) (lifting hoist2 crate2) (lifting hoist3 crate2) (lifting hoist4 crate2) (lifting hoist5 crate2) (on crate0 crate2) (on crate1 crate2) (on crate3 crate2) (on crate4 crate2) (on crate5 crate2):=1:fam
 (clear crate3) (in crate3 truck0) (in crate3 truck1) (lifting hoist0 crate3) (lifting hoist1 crate3) (lifting hoist2 crate3) (lifting hoist3 crate3) (lifting hoist4 crate3) (lifting hoist5 crate3) (on crate0 crate3) (on crate1 crate3) (on crate2 crate3) (on crate4 crate3) (on crate5 crate3):=1:fam
 (clear crate4) (in crate4 truck0) (in crate4 truck1) (lifting hoist0 crate4) (lifting hoist1 crate4) (lifting hoist2 crate4) (lifting hoist3 crate4) (lifting hoist4 crate4) (lifting hoist5 crate4) (on crate0 crate4) (on crate1 crate4) (on crate2 crate4) (on crate3 crate4) (on crate5 crate4):=1:fam:G
 (clear crate5) (in crate5 truck0) (in crate5 truck1) (lifting hoist0 crate5) (lifting hoist1 crate5) (lifting hoist2 crate5) (lifting hoist3 crate5) (lifting hoist4 crate5) (lifting hoist5 crate5) (on crate0 crate5) (on crate1 crate5) (on crate2 crate5) (on crate3 crate5) (on crate4 crate5):=1:fam
 (in crate0 truck0) (in crate0 truck1) (lifting hoist0 crate0) (lifting hoist1 crate0) (lifting hoist2 crate0) (lifting hoist3 crate0) (lifting hoist4 crate0) (lifting hoist5 crate0) (on crate0 crate1) (on crate0 crate2) (on crate0 crate3) (on crate0 crate4) (on crate0 crate5) (on crate0 pallet0) (on crate0 pallet1) (on crate0 pallet2) (on crate0 pallet3) (on crate0 pallet4) (on crate0 pallet5):=1:fam:G
 (in crate1 truck0) (in crate1 truck1) (lifting hoist0 crate1) (lifting hoist1 crate1) (lifting hoist2 crate1) (lifting hoist3 crate1) (lifting hoist4 crate1) (lifting hoist5 crate1) (on crate1 crate0) (on crate1 crate2) (on crate1 crate3) (on crate1 crate4) (on crate1 crate5) (on crate1 pallet0) (on crate1 pallet1) (on crate1 pallet2) (on crate1 pallet3) (on crate1 pallet4) (on crate1 pallet5):=1:fam
 (in crate2 truck0) (in crate2 truck1) (lifting hoist0 crate2) (lifting hoist1 crate2) (lifting hoist2 crate2) (lifting hoist3 crate2) (lifting hoist4 crate2) (lifting hoist5 crate2) (on crate2 crate0) (on crate2 crate1) (on crate2 crate3) (on crate2 crate4) (on crate2 crate5) (on crate2 pallet0) (on crate2 pallet1) (on crate2 pallet2) (on crate2 pallet3) (on crate2 pallet4) (on crate2 pallet5):=1:fam:G
 (in crate3 truck0) (in crate3 truck1) (lifting hoist0 crate3) (lifting hoist1 crate3) (lifting hoist2 crate3) (lifting hoist3 crate3) (lifting hoist4 crate3) (lifting hoist5 crate3) (on crate3 crate0) (on crate3 crate1) (on crate3 crate2) (on crate3 crate4) (on crate3 crate5) (on crate3 pallet0) (on crate3 pallet1) (on crate3 pallet2) (on crate3 pallet3) (on crate3 pallet4) (on crate3 pallet5):=1:fam:G
 (in crate4 truck0) (in crate4 truck1) (lifting hoist0 crate4) (lifting hoist1 crate4) (lifting hoist2 crate4) (lifting hoist3 crate4) (lifting hoist4 crate4) (lifting hoist5 crate4) (on crate4 crate0) (on crate4 crate1) (on crate4 crate2) (on crate4 crate3) (on crate4 crate5) (on crate4 pallet0) (on crate4 pallet1) (on crate4 pallet2) (on crate4 pallet3) (on crate4 pallet4) (on crate4 pallet5):=1:fam:G
 (in crate5 truck0) (in crate5 truck1) (lifting hoist0 crate5) (lifting hoist1 crate5) (lifting hoist2 crate5) (lifting hoist3 crate5) (lifting hoist4 crate5) (lifting hoist5 crate5) (on crate5 crate0) (on crate5 crate1) (on crate5 crate2) (on crate5 crate3) (on crate5 crate4) (on crate5 pallet0) (on crate5 pallet1) (on crate5 pallet2) (on crate5 pallet3) (on crate5 pallet4) (on crate5 pallet5):=1:fam

