begin_version
3
end_version
begin_metric
1
end_metric
22
begin_variable
var0
-1
13
at hoist0 container-0-0
at hoist0 container-0-1
at hoist0 container-0-2
at hoist0 container-0-3
at hoist0 depot0-1-1
at hoist0 depot0-1-2
at hoist0 depot0-1-3
at hoist0 depot0-1-4
at hoist0 depot0-2-1
at hoist0 depot0-2-2
at hoist0 depot0-2-3
at hoist0 depot0-2-4
at hoist0 loadarea
end_variable
begin_variable
var1
-1
13
lifting hoist0 crate0
on crate0 container-0-0
on crate0 container-0-1
on crate0 container-0-2
on crate0 container-0-3
on crate0 depot0-1-1
on crate0 depot0-1-2
on crate0 depot0-1-3
on crate0 depot0-1-4
on crate0 depot0-2-1
on crate0 depot0-2-2
on crate0 depot0-2-3
on crate0 depot0-2-4
end_variable
begin_variable
var2
-1
13
lifting hoist0 crate1
on crate1 container-0-0
on crate1 container-0-1
on crate1 container-0-2
on crate1 container-0-3
on crate1 depot0-1-1
on crate1 depot0-1-2
on crate1 depot0-1-3
on crate1 depot0-1-4
on crate1 depot0-2-1
on crate1 depot0-2-2
on crate1 depot0-2-3
on crate1 depot0-2-4
end_variable
begin_variable
var3
-1
13
lifting hoist0 crate2
on crate2 container-0-0
on crate2 container-0-1
on crate2 container-0-2
on crate2 container-0-3
on crate2 depot0-1-1
on crate2 depot0-1-2
on crate2 depot0-1-3
on crate2 depot0-1-4
on crate2 depot0-2-1
on crate2 depot0-2-2
on crate2 depot0-2-3
on crate2 depot0-2-4
end_variable
begin_variable
var4
-1
13
lifting hoist0 crate3
on crate3 container-0-0
on crate3 container-0-1
on crate3 container-0-2
on crate3 container-0-3
on crate3 depot0-1-1
on crate3 depot0-1-2
on crate3 depot0-1-3
on crate3 depot0-1-4
on crate3 depot0-2-1
on crate3 depot0-2-2
on crate3 depot0-2-3
on crate3 depot0-2-4
end_variable
begin_variable
var5
-1
2
available hoist0
none-of-those
end_variable
begin_variable
var6
-1
2
clear container-0-0
none-of-those
end_variable
begin_variable
var7
-1
2
clear container-0-1
none-of-those
end_variable
begin_variable
var8
-1
2
clear container-0-2
none-of-those
end_variable
begin_variable
var9
-1
2
clear container-0-3
none-of-those
end_variable
begin_variable
var10
-1
2
clear depot0-1-1
none-of-those
end_variable
begin_variable
var11
-1
2
clear depot0-1-2
none-of-those
end_variable
begin_variable
var12
-1
2
clear depot0-1-3
none-of-those
end_variable
begin_variable
var13
-1
2
clear depot0-1-4
none-of-those
end_variable
begin_variable
var14
-1
2
clear depot0-2-1
none-of-those
end_variable
begin_variable
var15
-1
2
clear depot0-2-2
none-of-those
end_variable
begin_variable
var16
-1
2
clear depot0-2-3
none-of-those
end_variable
begin_variable
var17
-1
2
clear depot0-2-4
none-of-those
end_variable
begin_variable
var18
-1
2
in crate0 depot0
none-of-those
end_variable
begin_variable
var19
-1
2
in crate1 depot0
none-of-those
end_variable
begin_variable
var20
-1
2
in crate2 depot0
none-of-those
end_variable
begin_variable
var21
-1
2
in crate3 depot0
none-of-those
end_variable
18
begin_mutex_group
5
5 0
1 0
2 0
3 0
4 0
end_mutex_group
begin_mutex_group
6
0 0
6 0
1 1
2 1
3 1
4 1
end_mutex_group
begin_mutex_group
6
0 1
7 0
1 2
2 2
3 2
4 2
end_mutex_group
begin_mutex_group
6
0 2
8 0
1 3
2 3
3 3
4 3
end_mutex_group
begin_mutex_group
6
0 3
9 0
1 4
2 4
3 4
4 4
end_mutex_group
begin_mutex_group
6
0 4
10 0
1 5
2 5
3 5
4 5
end_mutex_group
begin_mutex_group
6
0 5
11 0
1 6
2 6
3 6
4 6
end_mutex_group
begin_mutex_group
6
0 6
12 0
1 7
2 7
3 7
4 7
end_mutex_group
begin_mutex_group
6
0 7
13 0
1 8
2 8
3 8
4 8
end_mutex_group
begin_mutex_group
6
0 8
14 0
1 9
2 9
3 9
4 9
end_mutex_group
begin_mutex_group
6
0 9
15 0
1 10
2 10
3 10
4 10
end_mutex_group
begin_mutex_group
6
0 10
16 0
1 11
2 11
3 11
4 11
end_mutex_group
begin_mutex_group
6
0 11
17 0
1 12
2 12
3 12
4 12
end_mutex_group
begin_mutex_group
13
0 0
0 1
0 2
0 3
0 4
0 5
0 6
0 7
0 8
0 9
0 10
0 11
0 12
end_mutex_group
begin_mutex_group
13
1 0
1 1
1 2
1 3
1 4
1 5
1 6
1 7
1 8
1 9
1 10
1 11
1 12
end_mutex_group
begin_mutex_group
13
2 0
2 1
2 2
2 3
2 4
2 5
2 6
2 7
2 8
2 9
2 10
2 11
2 12
end_mutex_group
begin_mutex_group
13
3 0
3 1
3 2
3 3
3 4
3 5
3 6
3 7
3 8
3 9
3 10
3 11
3 12
end_mutex_group
begin_mutex_group
13
4 0
4 1
4 2
4 3
4 4
4 5
4 6
4 7
4 8
4 9
4 10
4 11
4 12
end_mutex_group
begin_state
4
1
2
3
4
0
1
1
1
1
1
0
0
0
0
0
0
0
1
1
1
1
end_state
begin_goal
4
18 0
19 0
20 0
21 0
end_goal
230
begin_operator
drop hoist0 crate0 container-0-0 loadarea container0
1
0 12
3
0 1 0 1
0 5 -1 0
0 6 0 1
1
end_operator
begin_operator
drop hoist0 crate0 container-0-1 loadarea container0
1
0 12
3
0 1 0 2
0 5 -1 0
0 7 0 1
1
end_operator
begin_operator
drop hoist0 crate0 container-0-2 loadarea container0
1
0 12
3
0 1 0 3
0 5 -1 0
0 8 0 1
1
end_operator
begin_operator
drop hoist0 crate0 container-0-3 loadarea container0
1
0 12
3
0 1 0 4
0 5 -1 0
0 9 0 1
1
end_operator
begin_operator
drop hoist0 crate0 depot0-1-1 depot0-1-2 depot0
1
0 5
4
0 1 0 5
0 5 -1 0
0 10 0 1
0 18 -1 0
1
end_operator
begin_operator
drop hoist0 crate0 depot0-1-1 depot0-2-1 depot0
1
0 8
4
0 1 0 5
0 5 -1 0
0 10 0 1
0 18 -1 0
1
end_operator
begin_operator
drop hoist0 crate0 depot0-1-2 depot0-1-1 depot0
1
0 4
4
0 1 0 6
0 5 -1 0
0 11 0 1
0 18 -1 0
1
end_operator
begin_operator
drop hoist0 crate0 depot0-1-2 depot0-1-3 depot0
1
0 6
4
0 1 0 6
0 5 -1 0
0 11 0 1
0 18 -1 0
1
end_operator
begin_operator
drop hoist0 crate0 depot0-1-2 depot0-2-2 depot0
1
0 9
4
0 1 0 6
0 5 -1 0
0 11 0 1
0 18 -1 0
1
end_operator
begin_operator
drop hoist0 crate0 depot0-1-3 depot0-1-2 depot0
1
0 5
4
0 1 0 7
0 5 -1 0
0 12 0 1
0 18 -1 0
1
end_operator
begin_operator
drop hoist0 crate0 depot0-1-3 depot0-1-4 depot0
1
0 7
4
0 1 0 7
0 5 -1 0
0 12 0 1
0 18 -1 0
1
end_operator
begin_operator
drop hoist0 crate0 depot0-1-3 depot0-2-3 depot0
1
0 10
4
0 1 0 7
0 5 -1 0
0 12 0 1
0 18 -1 0
1
end_operator
begin_operator
drop hoist0 crate0 depot0-1-4 depot0-1-3 depot0
1
0 6
4
0 1 0 8
0 5 -1 0
0 13 0 1
0 18 -1 0
1
end_operator
begin_operator
drop hoist0 crate0 depot0-1-4 depot0-2-4 depot0
1
0 11
4
0 1 0 8
0 5 -1 0
0 13 0 1
0 18 -1 0
1
end_operator
begin_operator
drop hoist0 crate0 depot0-2-1 depot0-1-1 depot0
1
0 4
4
0 1 0 9
0 5 -1 0
0 14 0 1
0 18 -1 0
1
end_operator
begin_operator
drop hoist0 crate0 depot0-2-1 depot0-2-2 depot0
1
0 9
4
0 1 0 9
0 5 -1 0
0 14 0 1
0 18 -1 0
1
end_operator
begin_operator
drop hoist0 crate0 depot0-2-2 depot0-1-2 depot0
1
0 5
4
0 1 0 10
0 5 -1 0
0 15 0 1
0 18 -1 0
1
end_operator
begin_operator
drop hoist0 crate0 depot0-2-2 depot0-2-1 depot0
1
0 8
4
0 1 0 10
0 5 -1 0
0 15 0 1
0 18 -1 0
1
end_operator
begin_operator
drop hoist0 crate0 depot0-2-2 depot0-2-3 depot0
1
0 10
4
0 1 0 10
0 5 -1 0
0 15 0 1
0 18 -1 0
1
end_operator
begin_operator
drop hoist0 crate0 depot0-2-3 depot0-1-3 depot0
1
0 6
4
0 1 0 11
0 5 -1 0
0 16 0 1
0 18 -1 0
1
end_operator
begin_operator
drop hoist0 crate0 depot0-2-3 depot0-2-2 depot0
1
0 9
4
0 1 0 11
0 5 -1 0
0 16 0 1
0 18 -1 0
1
end_operator
begin_operator
drop hoist0 crate0 depot0-2-3 depot0-2-4 depot0
1
0 11
4
0 1 0 11
0 5 -1 0
0 16 0 1
0 18 -1 0
1
end_operator
begin_operator
drop hoist0 crate0 depot0-2-3 loadarea depot0
1
0 12
4
0 1 0 11
0 5 -1 0
0 16 0 1
0 18 -1 0
1
end_operator
begin_operator
drop hoist0 crate0 depot0-2-4 depot0-1-4 depot0
1
0 7
4
0 1 0 12
0 5 -1 0
0 17 0 1
0 18 -1 0
1
end_operator
begin_operator
drop hoist0 crate0 depot0-2-4 depot0-2-3 depot0
1
0 10
4
0 1 0 12
0 5 -1 0
0 17 0 1
0 18 -1 0
1
end_operator
begin_operator
drop hoist0 crate1 container-0-0 loadarea container0
1
0 12
3
0 2 0 1
0 5 -1 0
0 6 0 1
1
end_operator
begin_operator
drop hoist0 crate1 container-0-1 loadarea container0
1
0 12
3
0 2 0 2
0 5 -1 0
0 7 0 1
1
end_operator
begin_operator
drop hoist0 crate1 container-0-2 loadarea container0
1
0 12
3
0 2 0 3
0 5 -1 0
0 8 0 1
1
end_operator
begin_operator
drop hoist0 crate1 container-0-3 loadarea container0
1
0 12
3
0 2 0 4
0 5 -1 0
0 9 0 1
1
end_operator
begin_operator
drop hoist0 crate1 depot0-1-1 depot0-1-2 depot0
1
0 5
4
0 2 0 5
0 5 -1 0
0 10 0 1
0 19 -1 0
1
end_operator
begin_operator
drop hoist0 crate1 depot0-1-1 depot0-2-1 depot0
1
0 8
4
0 2 0 5
0 5 -1 0
0 10 0 1
0 19 -1 0
1
end_operator
begin_operator
drop hoist0 crate1 depot0-1-2 depot0-1-1 depot0
1
0 4
4
0 2 0 6
0 5 -1 0
0 11 0 1
0 19 -1 0
1
end_operator
begin_operator
drop hoist0 crate1 depot0-1-2 depot0-1-3 depot0
1
0 6
4
0 2 0 6
0 5 -1 0
0 11 0 1
0 19 -1 0
1
end_operator
begin_operator
drop hoist0 crate1 depot0-1-2 depot0-2-2 depot0
1
0 9
4
0 2 0 6
0 5 -1 0
0 11 0 1
0 19 -1 0
1
end_operator
begin_operator
drop hoist0 crate1 depot0-1-3 depot0-1-2 depot0
1
0 5
4
0 2 0 7
0 5 -1 0
0 12 0 1
0 19 -1 0
1
end_operator
begin_operator
drop hoist0 crate1 depot0-1-3 depot0-1-4 depot0
1
0 7
4
0 2 0 7
0 5 -1 0
0 12 0 1
0 19 -1 0
1
end_operator
begin_operator
drop hoist0 crate1 depot0-1-3 depot0-2-3 depot0
1
0 10
4
0 2 0 7
0 5 -1 0
0 12 0 1
0 19 -1 0
1
end_operator
begin_operator
drop hoist0 crate1 depot0-1-4 depot0-1-3 depot0
1
0 6
4
0 2 0 8
0 5 -1 0
0 13 0 1
0 19 -1 0
1
end_operator
begin_operator
drop hoist0 crate1 depot0-1-4 depot0-2-4 depot0
1
0 11
4
0 2 0 8
0 5 -1 0
0 13 0 1
0 19 -1 0
1
end_operator
begin_operator
drop hoist0 crate1 depot0-2-1 depot0-1-1 depot0
1
0 4
4
0 2 0 9
0 5 -1 0
0 14 0 1
0 19 -1 0
1
end_operator
begin_operator
drop hoist0 crate1 depot0-2-1 depot0-2-2 depot0
1
0 9
4
0 2 0 9
0 5 -1 0
0 14 0 1
0 19 -1 0
1
end_operator
begin_operator
drop hoist0 crate1 depot0-2-2 depot0-1-2 depot0
1
0 5
4
0 2 0 10
0 5 -1 0
0 15 0 1
0 19 -1 0
1
end_operator
begin_operator
drop hoist0 crate1 depot0-2-2 depot0-2-1 depot0
1
0 8
4
0 2 0 10
0 5 -1 0
0 15 0 1
0 19 -1 0
1
end_operator
begin_operator
drop hoist0 crate1 depot0-2-2 depot0-2-3 depot0
1
0 10
4
0 2 0 10
0 5 -1 0
0 15 0 1
0 19 -1 0
1
end_operator
begin_operator
drop hoist0 crate1 depot0-2-3 depot0-1-3 depot0
1
0 6
4
0 2 0 11
0 5 -1 0
0 16 0 1
0 19 -1 0
1
end_operator
begin_operator
drop hoist0 crate1 depot0-2-3 depot0-2-2 depot0
1
0 9
4
0 2 0 11
0 5 -1 0
0 16 0 1
0 19 -1 0
1
end_operator
begin_operator
drop hoist0 crate1 depot0-2-3 depot0-2-4 depot0
1
0 11
4
0 2 0 11
0 5 -1 0
0 16 0 1
0 19 -1 0
1
end_operator
begin_operator
drop hoist0 crate1 depot0-2-3 loadarea depot0
1
0 12
4
0 2 0 11
0 5 -1 0
0 16 0 1
0 19 -1 0
1
end_operator
begin_operator
drop hoist0 crate1 depot0-2-4 depot0-1-4 depot0
1
0 7
4
0 2 0 12
0 5 -1 0
0 17 0 1
0 19 -1 0
1
end_operator
begin_operator
drop hoist0 crate1 depot0-2-4 depot0-2-3 depot0
1
0 10
4
0 2 0 12
0 5 -1 0
0 17 0 1
0 19 -1 0
1
end_operator
begin_operator
drop hoist0 crate2 container-0-0 loadarea container0
1
0 12
3
0 3 0 1
0 5 -1 0
0 6 0 1
1
end_operator
begin_operator
drop hoist0 crate2 container-0-1 loadarea container0
1
0 12
3
0 3 0 2
0 5 -1 0
0 7 0 1
1
end_operator
begin_operator
drop hoist0 crate2 container-0-2 loadarea container0
1
0 12
3
0 3 0 3
0 5 -1 0
0 8 0 1
1
end_operator
begin_operator
drop hoist0 crate2 container-0-3 loadarea container0
1
0 12
3
0 3 0 4
0 5 -1 0
0 9 0 1
1
end_operator
begin_operator
drop hoist0 crate2 depot0-1-1 depot0-1-2 depot0
1
0 5
4
0 3 0 5
0 5 -1 0
0 10 0 1
0 20 -1 0
1
end_operator
begin_operator
drop hoist0 crate2 depot0-1-1 depot0-2-1 depot0
1
0 8
4
0 3 0 5
0 5 -1 0
0 10 0 1
0 20 -1 0
1
end_operator
begin_operator
drop hoist0 crate2 depot0-1-2 depot0-1-1 depot0
1
0 4
4
0 3 0 6
0 5 -1 0
0 11 0 1
0 20 -1 0
1
end_operator
begin_operator
drop hoist0 crate2 depot0-1-2 depot0-1-3 depot0
1
0 6
4
0 3 0 6
0 5 -1 0
0 11 0 1
0 20 -1 0
1
end_operator
begin_operator
drop hoist0 crate2 depot0-1-2 depot0-2-2 depot0
1
0 9
4
0 3 0 6
0 5 -1 0
0 11 0 1
0 20 -1 0
1
end_operator
begin_operator
drop hoist0 crate2 depot0-1-3 depot0-1-2 depot0
1
0 5
4
0 3 0 7
0 5 -1 0
0 12 0 1
0 20 -1 0
1
end_operator
begin_operator
drop hoist0 crate2 depot0-1-3 depot0-1-4 depot0
1
0 7
4
0 3 0 7
0 5 -1 0
0 12 0 1
0 20 -1 0
1
end_operator
begin_operator
drop hoist0 crate2 depot0-1-3 depot0-2-3 depot0
1
0 10
4
0 3 0 7
0 5 -1 0
0 12 0 1
0 20 -1 0
1
end_operator
begin_operator
drop hoist0 crate2 depot0-1-4 depot0-1-3 depot0
1
0 6
4
0 3 0 8
0 5 -1 0
0 13 0 1
0 20 -1 0
1
end_operator
begin_operator
drop hoist0 crate2 depot0-1-4 depot0-2-4 depot0
1
0 11
4
0 3 0 8
0 5 -1 0
0 13 0 1
0 20 -1 0
1
end_operator
begin_operator
drop hoist0 crate2 depot0-2-1 depot0-1-1 depot0
1
0 4
4
0 3 0 9
0 5 -1 0
0 14 0 1
0 20 -1 0
1
end_operator
begin_operator
drop hoist0 crate2 depot0-2-1 depot0-2-2 depot0
1
0 9
4
0 3 0 9
0 5 -1 0
0 14 0 1
0 20 -1 0
1
end_operator
begin_operator
drop hoist0 crate2 depot0-2-2 depot0-1-2 depot0
1
0 5
4
0 3 0 10
0 5 -1 0
0 15 0 1
0 20 -1 0
1
end_operator
begin_operator
drop hoist0 crate2 depot0-2-2 depot0-2-1 depot0
1
0 8
4
0 3 0 10
0 5 -1 0
0 15 0 1
0 20 -1 0
1
end_operator
begin_operator
drop hoist0 crate2 depot0-2-2 depot0-2-3 depot0
1
0 10
4
0 3 0 10
0 5 -1 0
0 15 0 1
0 20 -1 0
1
end_operator
begin_operator
drop hoist0 crate2 depot0-2-3 depot0-1-3 depot0
1
0 6
4
0 3 0 11
0 5 -1 0
0 16 0 1
0 20 -1 0
1
end_operator
begin_operator
drop hoist0 crate2 depot0-2-3 depot0-2-2 depot0
1
0 9
4
0 3 0 11
0 5 -1 0
0 16 0 1
0 20 -1 0
1
end_operator
begin_operator
drop hoist0 crate2 depot0-2-3 depot0-2-4 depot0
1
0 11
4
0 3 0 11
0 5 -1 0
0 16 0 1
0 20 -1 0
1
end_operator
begin_operator
drop hoist0 crate2 depot0-2-3 loadarea depot0
1
0 12
4
0 3 0 11
0 5 -1 0
0 16 0 1
0 20 -1 0
1
end_operator
begin_operator
drop hoist0 crate2 depot0-2-4 depot0-1-4 depot0
1
0 7
4
0 3 0 12
0 5 -1 0
0 17 0 1
0 20 -1 0
1
end_operator
begin_operator
drop hoist0 crate2 depot0-2-4 depot0-2-3 depot0
1
0 10
4
0 3 0 12
0 5 -1 0
0 17 0 1
0 20 -1 0
1
end_operator
begin_operator
drop hoist0 crate3 container-0-0 loadarea container0
1
0 12
3
0 4 0 1
0 5 -1 0
0 6 0 1
1
end_operator
begin_operator
drop hoist0 crate3 container-0-1 loadarea container0
1
0 12
3
0 4 0 2
0 5 -1 0
0 7 0 1
1
end_operator
begin_operator
drop hoist0 crate3 container-0-2 loadarea container0
1
0 12
3
0 4 0 3
0 5 -1 0
0 8 0 1
1
end_operator
begin_operator
drop hoist0 crate3 container-0-3 loadarea container0
1
0 12
3
0 4 0 4
0 5 -1 0
0 9 0 1
1
end_operator
begin_operator
drop hoist0 crate3 depot0-1-1 depot0-1-2 depot0
1
0 5
4
0 4 0 5
0 5 -1 0
0 10 0 1
0 21 -1 0
1
end_operator
begin_operator
drop hoist0 crate3 depot0-1-1 depot0-2-1 depot0
1
0 8
4
0 4 0 5
0 5 -1 0
0 10 0 1
0 21 -1 0
1
end_operator
begin_operator
drop hoist0 crate3 depot0-1-2 depot0-1-1 depot0
1
0 4
4
0 4 0 6
0 5 -1 0
0 11 0 1
0 21 -1 0
1
end_operator
begin_operator
drop hoist0 crate3 depot0-1-2 depot0-1-3 depot0
1
0 6
4
0 4 0 6
0 5 -1 0
0 11 0 1
0 21 -1 0
1
end_operator
begin_operator
drop hoist0 crate3 depot0-1-2 depot0-2-2 depot0
1
0 9
4
0 4 0 6
0 5 -1 0
0 11 0 1
0 21 -1 0
1
end_operator
begin_operator
drop hoist0 crate3 depot0-1-3 depot0-1-2 depot0
1
0 5
4
0 4 0 7
0 5 -1 0
0 12 0 1
0 21 -1 0
1
end_operator
begin_operator
drop hoist0 crate3 depot0-1-3 depot0-1-4 depot0
1
0 7
4
0 4 0 7
0 5 -1 0
0 12 0 1
0 21 -1 0
1
end_operator
begin_operator
drop hoist0 crate3 depot0-1-3 depot0-2-3 depot0
1
0 10
4
0 4 0 7
0 5 -1 0
0 12 0 1
0 21 -1 0
1
end_operator
begin_operator
drop hoist0 crate3 depot0-1-4 depot0-1-3 depot0
1
0 6
4
0 4 0 8
0 5 -1 0
0 13 0 1
0 21 -1 0
1
end_operator
begin_operator
drop hoist0 crate3 depot0-1-4 depot0-2-4 depot0
1
0 11
4
0 4 0 8
0 5 -1 0
0 13 0 1
0 21 -1 0
1
end_operator
begin_operator
drop hoist0 crate3 depot0-2-1 depot0-1-1 depot0
1
0 4
4
0 4 0 9
0 5 -1 0
0 14 0 1
0 21 -1 0
1
end_operator
begin_operator
drop hoist0 crate3 depot0-2-1 depot0-2-2 depot0
1
0 9
4
0 4 0 9
0 5 -1 0
0 14 0 1
0 21 -1 0
1
end_operator
begin_operator
drop hoist0 crate3 depot0-2-2 depot0-1-2 depot0
1
0 5
4
0 4 0 10
0 5 -1 0
0 15 0 1
0 21 -1 0
1
end_operator
begin_operator
drop hoist0 crate3 depot0-2-2 depot0-2-1 depot0
1
0 8
4
0 4 0 10
0 5 -1 0
0 15 0 1
0 21 -1 0
1
end_operator
begin_operator
drop hoist0 crate3 depot0-2-2 depot0-2-3 depot0
1
0 10
4
0 4 0 10
0 5 -1 0
0 15 0 1
0 21 -1 0
1
end_operator
begin_operator
drop hoist0 crate3 depot0-2-3 depot0-1-3 depot0
1
0 6
4
0 4 0 11
0 5 -1 0
0 16 0 1
0 21 -1 0
1
end_operator
begin_operator
drop hoist0 crate3 depot0-2-3 depot0-2-2 depot0
1
0 9
4
0 4 0 11
0 5 -1 0
0 16 0 1
0 21 -1 0
1
end_operator
begin_operator
drop hoist0 crate3 depot0-2-3 depot0-2-4 depot0
1
0 11
4
0 4 0 11
0 5 -1 0
0 16 0 1
0 21 -1 0
1
end_operator
begin_operator
drop hoist0 crate3 depot0-2-3 loadarea depot0
1
0 12
4
0 4 0 11
0 5 -1 0
0 16 0 1
0 21 -1 0
1
end_operator
begin_operator
drop hoist0 crate3 depot0-2-4 depot0-1-4 depot0
1
0 7
4
0 4 0 12
0 5 -1 0
0 17 0 1
0 21 -1 0
1
end_operator
begin_operator
drop hoist0 crate3 depot0-2-4 depot0-2-3 depot0
1
0 10
4
0 4 0 12
0 5 -1 0
0 17 0 1
0 21 -1 0
1
end_operator
begin_operator
go-in hoist0 loadarea container-0-0
0
2
0 0 12 0
0 6 0 1
1
end_operator
begin_operator
go-in hoist0 loadarea container-0-1
0
2
0 0 12 1
0 7 0 1
1
end_operator
begin_operator
go-in hoist0 loadarea container-0-2
0
2
0 0 12 2
0 8 0 1
1
end_operator
begin_operator
go-in hoist0 loadarea container-0-3
0
2
0 0 12 3
0 9 0 1
1
end_operator
begin_operator
go-in hoist0 loadarea depot0-2-3
0
2
0 0 12 10
0 16 0 1
1
end_operator
begin_operator
go-out hoist0 container-0-0 loadarea
0
2
0 0 0 12
0 6 -1 0
1
end_operator
begin_operator
go-out hoist0 container-0-1 loadarea
0
2
0 0 1 12
0 7 -1 0
1
end_operator
begin_operator
go-out hoist0 container-0-2 loadarea
0
2
0 0 2 12
0 8 -1 0
1
end_operator
begin_operator
go-out hoist0 container-0-3 loadarea
0
2
0 0 3 12
0 9 -1 0
1
end_operator
begin_operator
go-out hoist0 depot0-2-3 loadarea
0
2
0 0 10 12
0 16 -1 0
1
end_operator
begin_operator
lift hoist0 crate0 container-0-0 loadarea container0
1
0 12
3
0 1 1 0
0 5 0 1
0 6 -1 0
1
end_operator
begin_operator
lift hoist0 crate0 container-0-1 loadarea container0
1
0 12
3
0 1 2 0
0 5 0 1
0 7 -1 0
1
end_operator
begin_operator
lift hoist0 crate0 container-0-2 loadarea container0
1
0 12
3
0 1 3 0
0 5 0 1
0 8 -1 0
1
end_operator
begin_operator
lift hoist0 crate0 container-0-3 loadarea container0
1
0 12
3
0 1 4 0
0 5 0 1
0 9 -1 0
1
end_operator
begin_operator
lift hoist0 crate0 depot0-1-1 depot0-1-2 depot0
1
0 5
4
0 1 5 0
0 5 0 1
0 10 -1 0
0 18 -1 1
1
end_operator
begin_operator
lift hoist0 crate0 depot0-1-1 depot0-2-1 depot0
1
0 8
4
0 1 5 0
0 5 0 1
0 10 -1 0
0 18 -1 1
1
end_operator
begin_operator
lift hoist0 crate0 depot0-1-2 depot0-1-1 depot0
1
0 4
4
0 1 6 0
0 5 0 1
0 11 -1 0
0 18 -1 1
1
end_operator
begin_operator
lift hoist0 crate0 depot0-1-2 depot0-1-3 depot0
1
0 6
4
0 1 6 0
0 5 0 1
0 11 -1 0
0 18 -1 1
1
end_operator
begin_operator
lift hoist0 crate0 depot0-1-2 depot0-2-2 depot0
1
0 9
4
0 1 6 0
0 5 0 1
0 11 -1 0
0 18 -1 1
1
end_operator
begin_operator
lift hoist0 crate0 depot0-1-3 depot0-1-2 depot0
1
0 5
4
0 1 7 0
0 5 0 1
0 12 -1 0
0 18 -1 1
1
end_operator
begin_operator
lift hoist0 crate0 depot0-1-3 depot0-1-4 depot0
1
0 7
4
0 1 7 0
0 5 0 1
0 12 -1 0
0 18 -1 1
1
end_operator
begin_operator
lift hoist0 crate0 depot0-1-3 depot0-2-3 depot0
1
0 10
4
0 1 7 0
0 5 0 1
0 12 -1 0
0 18 -1 1
1
end_operator
begin_operator
lift hoist0 crate0 depot0-1-4 depot0-1-3 depot0
1
0 6
4
0 1 8 0
0 5 0 1
0 13 -1 0
0 18 -1 1
1
end_operator
begin_operator
lift hoist0 crate0 depot0-1-4 depot0-2-4 depot0
1
0 11
4
0 1 8 0
0 5 0 1
0 13 -1 0
0 18 -1 1
1
end_operator
begin_operator
lift hoist0 crate0 depot0-2-1 depot0-1-1 depot0
1
0 4
4
0 1 9 0
0 5 0 1
0 14 -1 0
0 18 -1 1
1
end_operator
begin_operator
lift hoist0 crate0 depot0-2-1 depot0-2-2 depot0
1
0 9
4
0 1 9 0
0 5 0 1
0 14 -1 0
0 18 -1 1
1
end_operator
begin_operator
lift hoist0 crate0 depot0-2-2 depot0-1-2 depot0
1
0 5
4
0 1 10 0
0 5 0 1
0 15 -1 0
0 18 -1 1
1
end_operator
begin_operator
lift hoist0 crate0 depot0-2-2 depot0-2-1 depot0
1
0 8
4
0 1 10 0
0 5 0 1
0 15 -1 0
0 18 -1 1
1
end_operator
begin_operator
lift hoist0 crate0 depot0-2-2 depot0-2-3 depot0
1
0 10
4
0 1 10 0
0 5 0 1
0 15 -1 0
0 18 -1 1
1
end_operator
begin_operator
lift hoist0 crate0 depot0-2-3 depot0-1-3 depot0
1
0 6
4
0 1 11 0
0 5 0 1
0 16 -1 0
0 18 -1 1
1
end_operator
begin_operator
lift hoist0 crate0 depot0-2-3 depot0-2-2 depot0
1
0 9
4
0 1 11 0
0 5 0 1
0 16 -1 0
0 18 -1 1
1
end_operator
begin_operator
lift hoist0 crate0 depot0-2-3 depot0-2-4 depot0
1
0 11
4
0 1 11 0
0 5 0 1
0 16 -1 0
0 18 -1 1
1
end_operator
begin_operator
lift hoist0 crate0 depot0-2-3 loadarea depot0
1
0 12
4
0 1 11 0
0 5 0 1
0 16 -1 0
0 18 -1 1
1
end_operator
begin_operator
lift hoist0 crate0 depot0-2-4 depot0-1-4 depot0
1
0 7
4
0 1 12 0
0 5 0 1
0 17 -1 0
0 18 -1 1
1
end_operator
begin_operator
lift hoist0 crate0 depot0-2-4 depot0-2-3 depot0
1
0 10
4
0 1 12 0
0 5 0 1
0 17 -1 0
0 18 -1 1
1
end_operator
begin_operator
lift hoist0 crate1 container-0-0 loadarea container0
1
0 12
3
0 2 1 0
0 5 0 1
0 6 -1 0
1
end_operator
begin_operator
lift hoist0 crate1 container-0-1 loadarea container0
1
0 12
3
0 2 2 0
0 5 0 1
0 7 -1 0
1
end_operator
begin_operator
lift hoist0 crate1 container-0-2 loadarea container0
1
0 12
3
0 2 3 0
0 5 0 1
0 8 -1 0
1
end_operator
begin_operator
lift hoist0 crate1 container-0-3 loadarea container0
1
0 12
3
0 2 4 0
0 5 0 1
0 9 -1 0
1
end_operator
begin_operator
lift hoist0 crate1 depot0-1-1 depot0-1-2 depot0
1
0 5
4
0 2 5 0
0 5 0 1
0 10 -1 0
0 19 -1 1
1
end_operator
begin_operator
lift hoist0 crate1 depot0-1-1 depot0-2-1 depot0
1
0 8
4
0 2 5 0
0 5 0 1
0 10 -1 0
0 19 -1 1
1
end_operator
begin_operator
lift hoist0 crate1 depot0-1-2 depot0-1-1 depot0
1
0 4
4
0 2 6 0
0 5 0 1
0 11 -1 0
0 19 -1 1
1
end_operator
begin_operator
lift hoist0 crate1 depot0-1-2 depot0-1-3 depot0
1
0 6
4
0 2 6 0
0 5 0 1
0 11 -1 0
0 19 -1 1
1
end_operator
begin_operator
lift hoist0 crate1 depot0-1-2 depot0-2-2 depot0
1
0 9
4
0 2 6 0
0 5 0 1
0 11 -1 0
0 19 -1 1
1
end_operator
begin_operator
lift hoist0 crate1 depot0-1-3 depot0-1-2 depot0
1
0 5
4
0 2 7 0
0 5 0 1
0 12 -1 0
0 19 -1 1
1
end_operator
begin_operator
lift hoist0 crate1 depot0-1-3 depot0-1-4 depot0
1
0 7
4
0 2 7 0
0 5 0 1
0 12 -1 0
0 19 -1 1
1
end_operator
begin_operator
lift hoist0 crate1 depot0-1-3 depot0-2-3 depot0
1
0 10
4
0 2 7 0
0 5 0 1
0 12 -1 0
0 19 -1 1
1
end_operator
begin_operator
lift hoist0 crate1 depot0-1-4 depot0-1-3 depot0
1
0 6
4
0 2 8 0
0 5 0 1
0 13 -1 0
0 19 -1 1
1
end_operator
begin_operator
lift hoist0 crate1 depot0-1-4 depot0-2-4 depot0
1
0 11
4
0 2 8 0
0 5 0 1
0 13 -1 0
0 19 -1 1
1
end_operator
begin_operator
lift hoist0 crate1 depot0-2-1 depot0-1-1 depot0
1
0 4
4
0 2 9 0
0 5 0 1
0 14 -1 0
0 19 -1 1
1
end_operator
begin_operator
lift hoist0 crate1 depot0-2-1 depot0-2-2 depot0
1
0 9
4
0 2 9 0
0 5 0 1
0 14 -1 0
0 19 -1 1
1
end_operator
begin_operator
lift hoist0 crate1 depot0-2-2 depot0-1-2 depot0
1
0 5
4
0 2 10 0
0 5 0 1
0 15 -1 0
0 19 -1 1
1
end_operator
begin_operator
lift hoist0 crate1 depot0-2-2 depot0-2-1 depot0
1
0 8
4
0 2 10 0
0 5 0 1
0 15 -1 0
0 19 -1 1
1
end_operator
begin_operator
lift hoist0 crate1 depot0-2-2 depot0-2-3 depot0
1
0 10
4
0 2 10 0
0 5 0 1
0 15 -1 0
0 19 -1 1
1
end_operator
begin_operator
lift hoist0 crate1 depot0-2-3 depot0-1-3 depot0
1
0 6
4
0 2 11 0
0 5 0 1
0 16 -1 0
0 19 -1 1
1
end_operator
begin_operator
lift hoist0 crate1 depot0-2-3 depot0-2-2 depot0
1
0 9
4
0 2 11 0
0 5 0 1
0 16 -1 0
0 19 -1 1
1
end_operator
begin_operator
lift hoist0 crate1 depot0-2-3 depot0-2-4 depot0
1
0 11
4
0 2 11 0
0 5 0 1
0 16 -1 0
0 19 -1 1
1
end_operator
begin_operator
lift hoist0 crate1 depot0-2-3 loadarea depot0
1
0 12
4
0 2 11 0
0 5 0 1
0 16 -1 0
0 19 -1 1
1
end_operator
begin_operator
lift hoist0 crate1 depot0-2-4 depot0-1-4 depot0
1
0 7
4
0 2 12 0
0 5 0 1
0 17 -1 0
0 19 -1 1
1
end_operator
begin_operator
lift hoist0 crate1 depot0-2-4 depot0-2-3 depot0
1
0 10
4
0 2 12 0
0 5 0 1
0 17 -1 0
0 19 -1 1
1
end_operator
begin_operator
lift hoist0 crate2 container-0-0 loadarea container0
1
0 12
3
0 3 1 0
0 5 0 1
0 6 -1 0
1
end_operator
begin_operator
lift hoist0 crate2 container-0-1 loadarea container0
1
0 12
3
0 3 2 0
0 5 0 1
0 7 -1 0
1
end_operator
begin_operator
lift hoist0 crate2 container-0-2 loadarea container0
1
0 12
3
0 3 3 0
0 5 0 1
0 8 -1 0
1
end_operator
begin_operator
lift hoist0 crate2 container-0-3 loadarea container0
1
0 12
3
0 3 4 0
0 5 0 1
0 9 -1 0
1
end_operator
begin_operator
lift hoist0 crate2 depot0-1-1 depot0-1-2 depot0
1
0 5
4
0 3 5 0
0 5 0 1
0 10 -1 0
0 20 -1 1
1
end_operator
begin_operator
lift hoist0 crate2 depot0-1-1 depot0-2-1 depot0
1
0 8
4
0 3 5 0
0 5 0 1
0 10 -1 0
0 20 -1 1
1
end_operator
begin_operator
lift hoist0 crate2 depot0-1-2 depot0-1-1 depot0
1
0 4
4
0 3 6 0
0 5 0 1
0 11 -1 0
0 20 -1 1
1
end_operator
begin_operator
lift hoist0 crate2 depot0-1-2 depot0-1-3 depot0
1
0 6
4
0 3 6 0
0 5 0 1
0 11 -1 0
0 20 -1 1
1
end_operator
begin_operator
lift hoist0 crate2 depot0-1-2 depot0-2-2 depot0
1
0 9
4
0 3 6 0
0 5 0 1
0 11 -1 0
0 20 -1 1
1
end_operator
begin_operator
lift hoist0 crate2 depot0-1-3 depot0-1-2 depot0
1
0 5
4
0 3 7 0
0 5 0 1
0 12 -1 0
0 20 -1 1
1
end_operator
begin_operator
lift hoist0 crate2 depot0-1-3 depot0-1-4 depot0
1
0 7
4
0 3 7 0
0 5 0 1
0 12 -1 0
0 20 -1 1
1
end_operator
begin_operator
lift hoist0 crate2 depot0-1-3 depot0-2-3 depot0
1
0 10
4
0 3 7 0
0 5 0 1
0 12 -1 0
0 20 -1 1
1
end_operator
begin_operator
lift hoist0 crate2 depot0-1-4 depot0-1-3 depot0
1
0 6
4
0 3 8 0
0 5 0 1
0 13 -1 0
0 20 -1 1
1
end_operator
begin_operator
lift hoist0 crate2 depot0-1-4 depot0-2-4 depot0
1
0 11
4
0 3 8 0
0 5 0 1
0 13 -1 0
0 20 -1 1
1
end_operator
begin_operator
lift hoist0 crate2 depot0-2-1 depot0-1-1 depot0
1
0 4
4
0 3 9 0
0 5 0 1
0 14 -1 0
0 20 -1 1
1
end_operator
begin_operator
lift hoist0 crate2 depot0-2-1 depot0-2-2 depot0
1
0 9
4
0 3 9 0
0 5 0 1
0 14 -1 0
0 20 -1 1
1
end_operator
begin_operator
lift hoist0 crate2 depot0-2-2 depot0-1-2 depot0
1
0 5
4
0 3 10 0
0 5 0 1
0 15 -1 0
0 20 -1 1
1
end_operator
begin_operator
lift hoist0 crate2 depot0-2-2 depot0-2-1 depot0
1
0 8
4
0 3 10 0
0 5 0 1
0 15 -1 0
0 20 -1 1
1
end_operator
begin_operator
lift hoist0 crate2 depot0-2-2 depot0-2-3 depot0
1
0 10
4
0 3 10 0
0 5 0 1
0 15 -1 0
0 20 -1 1
1
end_operator
begin_operator
lift hoist0 crate2 depot0-2-3 depot0-1-3 depot0
1
0 6
4
0 3 11 0
0 5 0 1
0 16 -1 0
0 20 -1 1
1
end_operator
begin_operator
lift hoist0 crate2 depot0-2-3 depot0-2-2 depot0
1
0 9
4
0 3 11 0
0 5 0 1
0 16 -1 0
0 20 -1 1
1
end_operator
begin_operator
lift hoist0 crate2 depot0-2-3 depot0-2-4 depot0
1
0 11
4
0 3 11 0
0 5 0 1
0 16 -1 0
0 20 -1 1
1
end_operator
begin_operator
lift hoist0 crate2 depot0-2-3 loadarea depot0
1
0 12
4
0 3 11 0
0 5 0 1
0 16 -1 0
0 20 -1 1
1
end_operator
begin_operator
lift hoist0 crate2 depot0-2-4 depot0-1-4 depot0
1
0 7
4
0 3 12 0
0 5 0 1
0 17 -1 0
0 20 -1 1
1
end_operator
begin_operator
lift hoist0 crate2 depot0-2-4 depot0-2-3 depot0
1
0 10
4
0 3 12 0
0 5 0 1
0 17 -1 0
0 20 -1 1
1
end_operator
begin_operator
lift hoist0 crate3 container-0-0 loadarea container0
1
0 12
3
0 4 1 0
0 5 0 1
0 6 -1 0
1
end_operator
begin_operator
lift hoist0 crate3 container-0-1 loadarea container0
1
0 12
3
0 4 2 0
0 5 0 1
0 7 -1 0
1
end_operator
begin_operator
lift hoist0 crate3 container-0-2 loadarea container0
1
0 12
3
0 4 3 0
0 5 0 1
0 8 -1 0
1
end_operator
begin_operator
lift hoist0 crate3 container-0-3 loadarea container0
1
0 12
3
0 4 4 0
0 5 0 1
0 9 -1 0
1
end_operator
begin_operator
lift hoist0 crate3 depot0-1-1 depot0-1-2 depot0
1
0 5
4
0 4 5 0
0 5 0 1
0 10 -1 0
0 21 -1 1
1
end_operator
begin_operator
lift hoist0 crate3 depot0-1-1 depot0-2-1 depot0
1
0 8
4
0 4 5 0
0 5 0 1
0 10 -1 0
0 21 -1 1
1
end_operator
begin_operator
lift hoist0 crate3 depot0-1-2 depot0-1-1 depot0
1
0 4
4
0 4 6 0
0 5 0 1
0 11 -1 0
0 21 -1 1
1
end_operator
begin_operator
lift hoist0 crate3 depot0-1-2 depot0-1-3 depot0
1
0 6
4
0 4 6 0
0 5 0 1
0 11 -1 0
0 21 -1 1
1
end_operator
begin_operator
lift hoist0 crate3 depot0-1-2 depot0-2-2 depot0
1
0 9
4
0 4 6 0
0 5 0 1
0 11 -1 0
0 21 -1 1
1
end_operator
begin_operator
lift hoist0 crate3 depot0-1-3 depot0-1-2 depot0
1
0 5
4
0 4 7 0
0 5 0 1
0 12 -1 0
0 21 -1 1
1
end_operator
begin_operator
lift hoist0 crate3 depot0-1-3 depot0-1-4 depot0
1
0 7
4
0 4 7 0
0 5 0 1
0 12 -1 0
0 21 -1 1
1
end_operator
begin_operator
lift hoist0 crate3 depot0-1-3 depot0-2-3 depot0
1
0 10
4
0 4 7 0
0 5 0 1
0 12 -1 0
0 21 -1 1
1
end_operator
begin_operator
lift hoist0 crate3 depot0-1-4 depot0-1-3 depot0
1
0 6
4
0 4 8 0
0 5 0 1
0 13 -1 0
0 21 -1 1
1
end_operator
begin_operator
lift hoist0 crate3 depot0-1-4 depot0-2-4 depot0
1
0 11
4
0 4 8 0
0 5 0 1
0 13 -1 0
0 21 -1 1
1
end_operator
begin_operator
lift hoist0 crate3 depot0-2-1 depot0-1-1 depot0
1
0 4
4
0 4 9 0
0 5 0 1
0 14 -1 0
0 21 -1 1
1
end_operator
begin_operator
lift hoist0 crate3 depot0-2-1 depot0-2-2 depot0
1
0 9
4
0 4 9 0
0 5 0 1
0 14 -1 0
0 21 -1 1
1
end_operator
begin_operator
lift hoist0 crate3 depot0-2-2 depot0-1-2 depot0
1
0 5
4
0 4 10 0
0 5 0 1
0 15 -1 0
0 21 -1 1
1
end_operator
begin_operator
lift hoist0 crate3 depot0-2-2 depot0-2-1 depot0
1
0 8
4
0 4 10 0
0 5 0 1
0 15 -1 0
0 21 -1 1
1
end_operator
begin_operator
lift hoist0 crate3 depot0-2-2 depot0-2-3 depot0
1
0 10
4
0 4 10 0
0 5 0 1
0 15 -1 0
0 21 -1 1
1
end_operator
begin_operator
lift hoist0 crate3 depot0-2-3 depot0-1-3 depot0
1
0 6
4
0 4 11 0
0 5 0 1
0 16 -1 0
0 21 -1 1
1
end_operator
begin_operator
lift hoist0 crate3 depot0-2-3 depot0-2-2 depot0
1
0 9
4
0 4 11 0
0 5 0 1
0 16 -1 0
0 21 -1 1
1
end_operator
begin_operator
lift hoist0 crate3 depot0-2-3 depot0-2-4 depot0
1
0 11
4
0 4 11 0
0 5 0 1
0 16 -1 0
0 21 -1 1
1
end_operator
begin_operator
lift hoist0 crate3 depot0-2-3 loadarea depot0
1
0 12
4
0 4 11 0
0 5 0 1
0 16 -1 0
0 21 -1 1
1
end_operator
begin_operator
lift hoist0 crate3 depot0-2-4 depot0-1-4 depot0
1
0 7
4
0 4 12 0
0 5 0 1
0 17 -1 0
0 21 -1 1
1
end_operator
begin_operator
lift hoist0 crate3 depot0-2-4 depot0-2-3 depot0
1
0 10
4
0 4 12 0
0 5 0 1
0 17 -1 0
0 21 -1 1
1
end_operator
begin_operator
move hoist0 depot0-1-1 depot0-1-2
0
3
0 0 4 5
0 10 -1 0
0 11 0 1
1
end_operator
begin_operator
move hoist0 depot0-1-1 depot0-2-1
0
3
0 0 4 8
0 10 -1 0
0 14 0 1
1
end_operator
begin_operator
move hoist0 depot0-1-2 depot0-1-1
0
3
0 0 5 4
0 10 0 1
0 11 -1 0
1
end_operator
begin_operator
move hoist0 depot0-1-2 depot0-1-3
0
3
0 0 5 6
0 11 -1 0
0 12 0 1
1
end_operator
begin_operator
move hoist0 depot0-1-2 depot0-2-2
0
3
0 0 5 9
0 11 -1 0
0 15 0 1
1
end_operator
begin_operator
move hoist0 depot0-1-3 depot0-1-2
0
3
0 0 6 5
0 11 0 1
0 12 -1 0
1
end_operator
begin_operator
move hoist0 depot0-1-3 depot0-1-4
0
3
0 0 6 7
0 12 -1 0
0 13 0 1
1
end_operator
begin_operator
move hoist0 depot0-1-3 depot0-2-3
0
3
0 0 6 10
0 12 -1 0
0 16 0 1
1
end_operator
begin_operator
move hoist0 depot0-1-4 depot0-1-3
0
3
0 0 7 6
0 12 0 1
0 13 -1 0
1
end_operator
begin_operator
move hoist0 depot0-1-4 depot0-2-4
0
3
0 0 7 11
0 13 -1 0
0 17 0 1
1
end_operator
begin_operator
move hoist0 depot0-2-1 depot0-1-1
0
3
0 0 8 4
0 10 0 1
0 14 -1 0
1
end_operator
begin_operator
move hoist0 depot0-2-1 depot0-2-2
0
3
0 0 8 9
0 14 -1 0
0 15 0 1
1
end_operator
begin_operator
move hoist0 depot0-2-2 depot0-1-2
0
3
0 0 9 5
0 11 0 1
0 15 -1 0
1
end_operator
begin_operator
move hoist0 depot0-2-2 depot0-2-1
0
3
0 0 9 8
0 14 0 1
0 15 -1 0
1
end_operator
begin_operator
move hoist0 depot0-2-2 depot0-2-3
0
3
0 0 9 10
0 15 -1 0
0 16 0 1
1
end_operator
begin_operator
move hoist0 depot0-2-3 depot0-1-3
0
3
0 0 10 6
0 12 0 1
0 16 -1 0
1
end_operator
begin_operator
move hoist0 depot0-2-3 depot0-2-2
0
3
0 0 10 9
0 15 0 1
0 16 -1 0
1
end_operator
begin_operator
move hoist0 depot0-2-3 depot0-2-4
0
3
0 0 10 11
0 16 -1 0
0 17 0 1
1
end_operator
begin_operator
move hoist0 depot0-2-4 depot0-1-4
0
3
0 0 11 7
0 13 0 1
0 17 -1 0
1
end_operator
begin_operator
move hoist0 depot0-2-4 depot0-2-3
0
3
0 0 11 10
0 16 0 1
0 17 -1 0
1
end_operator
0
