 (free pos-0-2):=1:fam:G
 (free pos-0-4):=1:fam:G
 (free pos-3-0):=1:fam:G
 (free pos-3-3):fam
 (free pos-3-5):=1:fam:G
 (free pos-3-6):=1:fam:G
 (free pos-4-2):=1:fam:G
 (free pos-4-4):=1:fam:G
 (free pos-5-2):=1:fam:G
 (free pos-5-4):=1:fam:G
 (free pos-6-2):=1:fam:G
 (free pos-6-4):=1:fam:G
 (occupied pos-1-3):fam
 (occupied pos-2-2):fam
 (occupied pos-2-4):fam
 (occupied pos-3-1):fam
 (occupied pos-3-4):fam
 (free pos-1-2) (occupied pos-1-2):=1:fam:G
 (free pos-1-3) (occupied pos-1-3):=1:fam:G
 (free pos-1-4) (occupied pos-1-4):=1:fam:G
 (free pos-2-2) (occupied pos-2-2):=1:fam:G
 (free pos-2-4) (occupied pos-2-4):=1:fam:G
 (free pos-2-4) (occupied pos-3-4):=1:fam:G
 (free pos-3-1) (free pos-3-3):=1:fam:G
 (free pos-3-1) (occupied pos-3-1):=1:fam:G
 (free pos-3-2) (occupied pos-3-2):=1:fam:G
 (free pos-3-3) (last-visited pos-3-3):fam
 (free pos-3-3) (occupied pos-3-3):=1:fam:G
 (free pos-3-4) (occupied pos-2-4):=1:fam:G
 (free pos-3-4) (occupied pos-3-4):=1:fam:G
 (last-visited pos-1-2) (occupied pos-1-3):fam
 (last-visited pos-1-4) (occupied pos-2-4):fam
 (last-visited pos-1-4) (occupied pos-3-4):fam
 (last-visited pos-3-2) (occupied pos-2-2):fam
 (last-visited pos-3-3) (occupied pos-3-1):fam
 (occupied pos-1-2) (occupied pos-1-3):fam
 (occupied pos-1-4) (occupied pos-2-4):fam
 (occupied pos-1-4) (occupied pos-3-4):fam
 (occupied pos-2-2) (occupied pos-3-2):fam
 (occupied pos-3-1) (occupied pos-3-3):=1:fam:G
 (free pos-1-3) (occupied pos-1-4) (occupied pos-2-4):=1:fam:G
 (free pos-1-3) (occupied pos-1-4) (occupied pos-3-4):=1:fam:G
 (free pos-2-2) (occupied pos-1-2) (occupied pos-1-3):=1:fam:G
 (free pos-3-1) (occupied pos-2-2) (occupied pos-3-2):=1:fam:G
 (last-visited pos-1-2) (occupied pos-1-4) (occupied pos-2-4):fam
 (last-visited pos-1-2) (occupied pos-1-4) (occupied pos-3-4):fam
 (last-visited pos-3-2) (occupied pos-1-2) (occupied pos-1-3):fam
 (last-visited pos-3-3) (occupied pos-2-2) (occupied pos-3-2):fam
 (occupied pos-1-2) (occupied pos-1-3) (occupied pos-3-2):fam
 (occupied pos-1-2) (occupied pos-1-4) (occupied pos-2-4):fam
 (occupied pos-1-2) (occupied pos-1-4) (occupied pos-3-4):fam
 (occupied pos-2-2) (occupied pos-3-2) (occupied pos-3-3):=1:fam:G
 (free pos-2-2) (occupied pos-1-2) (occupied pos-1-4) (occupied pos-2-4):=1:fam:G
 (free pos-2-2) (occupied pos-1-2) (occupied pos-1-4) (occupied pos-3-4):=1:fam:G
 (free pos-3-1) (occupied pos-1-2) (occupied pos-1-3) (occupied pos-3-2):=1:fam:G
 (last-visited pos-3-2) (occupied pos-1-2) (occupied pos-1-4) (occupied pos-2-4):fam
 (last-visited pos-3-2) (occupied pos-1-2) (occupied pos-1-4) (occupied pos-3-4):fam
 (last-visited pos-3-3) (occupied pos-1-2) (occupied pos-1-3) (occupied pos-3-2):fam
 (occupied pos-1-2) (occupied pos-1-3) (occupied pos-3-2) (occupied pos-3-3):=1:fam:G
 (occupied pos-1-2) (occupied pos-1-4) (occupied pos-2-4) (occupied pos-3-2):fam
 (occupied pos-1-2) (occupied pos-1-4) (occupied pos-3-2) (occupied pos-3-4):fam
 (free pos-3-1) (occupied pos-1-2) (occupied pos-1-4) (occupied pos-2-4) (occupied pos-3-2):=1:fam:G
 (free pos-3-1) (occupied pos-1-2) (occupied pos-1-4) (occupied pos-3-2) (occupied pos-3-4):=1:fam:G
 (last-visited pos-1-2) (last-visited pos-1-4) (last-visited pos-3-2) (last-visited pos-3-3) (move-ended):=1:fam
 (last-visited pos-3-3) (occupied pos-1-2) (occupied pos-1-4) (occupied pos-2-4) (occupied pos-3-2):fam
 (last-visited pos-3-3) (occupied pos-1-2) (occupied pos-1-4) (occupied pos-3-2) (occupied pos-3-4):fam
 (occupied pos-1-2) (occupied pos-1-4) (occupied pos-2-4) (occupied pos-3-2) (occupied pos-3-3):=1:fam:G
 (occupied pos-1-2) (occupied pos-1-4) (occupied pos-3-2) (occupied pos-3-3) (occupied pos-3-4):=1:fam:G

