Reduced 12 -> 12
Domain: scanalyzer3d
Problem: scanalyzer3d-14
Require: 200ff
Type[3]:
    [0]: object, parent: -1
    [1]: segment, parent: 0
    [2]: car, parent: 0
Obj-by-Type:
    [0]: 0 1 2 3 4 5 6 7 8 9 10 11
    [1]: 6 7 8 9 10 11
    [2]: 0 1 2 3 4 5
Obj[12]:
    [0]: car-in-1, type: 2, is-constant: 0, is-private: 0, owner: -1, is-agent: 0
    [1]: car-in-2, type: 2, is-constant: 0, is-private: 0, owner: -1, is-agent: 0
    [2]: car-in-3, type: 2, is-constant: 0, is-private: 0, owner: -1, is-agent: 0
    [3]: car-out-1, type: 2, is-constant: 0, is-private: 0, owner: -1, is-agent: 0
    [4]: car-out-2, type: 2, is-constant: 0, is-private: 0, owner: -1, is-agent: 0
    [5]: car-out-3, type: 2, is-constant: 0, is-private: 0, owner: -1, is-agent: 0
    [6]: seg-in-1, type: 1, is-constant: 0, is-private: 0, owner: -1, is-agent: 0
    [7]: seg-in-2, type: 1, is-constant: 0, is-private: 0, owner: -1, is-agent: 0
    [8]: seg-in-3, type: 1, is-constant: 0, is-private: 0, owner: -1, is-agent: 0
    [9]: seg-out-1, type: 1, is-constant: 0, is-private: 0, owner: -1, is-agent: 0
    [10]: seg-out-2, type: 1, is-constant: 0, is-private: 0, owner: -1, is-agent: 0
    [11]: seg-out-3, type: 1, is-constant: 0, is-private: 0, owner: -1, is-agent: 0
Predicate[7]:
    =: 0 0 :: is-private: 0, owner-param: -1, read: 0, write: 0
    on: 2 1 :: is-private: 0, owner-param: -1, read: 1, write: 1
    analyzed: 2 :: is-private: 0, owner-param: -1, read: 0, write: 1
    cycle-2: 1 1 :: is-private: 0, owner-param: -1, read: 1, write: 0
    cycle-4: 1 1 1 1 :: is-private: 0, owner-param: -1, read: 0, write: 0
    cycle-2-with-analysis: 1 1 :: is-private: 0, owner-param: -1, read: 1, write: 0
    cycle-4-with-analysis: 1 1 1 1 :: is-private: 0, owner-param: -1, read: 0, write: 0
Function[1]:
    total-cost: :: is-private: 0, owner-param: -1, read: 0, write: 0
Action[2]:
    analyze-2: ?s1:1 ?s2:1 ?c1:2 ?c2:2
        pre: (and (R:cycle-2-with-analysis ?s1 ?s2) (RW:on ?c1 ?s1) (RW:on ?c2 ?s2))
        eff: (and (N:RW:on ?c1 ?s1) (N:RW:on ?c2 ?s2) (RW:on ?c1 ?s2) (RW:on ?c2 ?s1) (W:analyzed ?c1) (increase (total-cost) 3))
    rotate-2: ?s1:1 ?s2:1 ?c1:2 ?c2:2
        pre: (and (R:cycle-2 ?s1 ?s2) (RW:on ?c1 ?s1) (RW:on ?c2 ?s2))
        eff: (and (N:RW:on ?c1 ?s1) (N:RW:on ?c2 ?s2) (RW:on ?c1 ?s2) (RW:on ?c2 ?s1) (increase (total-cost) 1))
Init[24]:
  S:(cycle-2 seg-in-1 seg-out-1)
  S:(cycle-2 seg-in-1 seg-out-2)
  S:(cycle-2 seg-in-1 seg-out-3)
  S:(cycle-2 seg-in-2 seg-out-1)
  S:(cycle-2 seg-in-2 seg-out-2)
  S:(cycle-2 seg-in-2 seg-out-3)
  S:(cycle-2 seg-in-3 seg-out-1)
  S:(cycle-2 seg-in-3 seg-out-2)
  S:(cycle-2 seg-in-3 seg-out-3)
  S:(cycle-2-with-analysis seg-in-1 seg-out-1)
  S:(cycle-2-with-analysis seg-in-1 seg-out-2)
  S:(cycle-2-with-analysis seg-in-1 seg-out-3)
  S:(cycle-2-with-analysis seg-in-2 seg-out-1)
  S:(cycle-2-with-analysis seg-in-2 seg-out-2)
  S:(cycle-2-with-analysis seg-in-2 seg-out-3)
  S:(cycle-2-with-analysis seg-in-3 seg-out-1)
  S:(cycle-2-with-analysis seg-in-3 seg-out-2)
  S:(cycle-2-with-analysis seg-in-3 seg-out-3)
  (on car-in-1 seg-in-1)
  (on car-in-2 seg-in-2)
  (on car-in-3 seg-in-3)
  (on car-out-1 seg-out-1)
  (on car-out-2 seg-out-2)
  (on car-out-3 seg-out-3)
Init[1]:
  (= (total-cost) 0)
Goal: (and (W:analyzed car-in-1) (W:analyzed car-in-2) (W:analyzed car-in-3) (W:analyzed car-out-1) (W:analyzed car-out-2) (W:analyzed car-out-3) (RW:on car-in-1 seg-in-1) (RW:on car-in-2 seg-in-2) (RW:on car-in-3 seg-in-3) (RW:on car-out-1 seg-out-1) (RW:on car-out-2 seg-out-2) (RW:on car-out-3 seg-out-3))
Metric: 1
