Maximal 8:
 (at_rock_sample waypoint1):fam
 (at_rock_sample waypoint2):fam
 (at_soil_sample waypoint0):fam
 (at_soil_sample waypoint3):fam
 (at_rock_sample waypoint3) (have_rock_analysis rover0 waypoint3):=1:fam
 (at_soil_sample waypoint2) (have_soil_analysis rover0 waypoint2):=1:fam
 (empty rover0store) (full rover0store):=1:fam
 (at rover0 waypoint0) (at rover0 waypoint1) (at rover0 waypoint2) (at rover0 waypoint3):=1:fam


Mutex Group Cover Number: 13
