< {at-curb-num V0:car C1:curb, behind-car V0:car C2:car}:=1
, {at-curb-num C1:car V0:curb, curb-clear V0:curb}:=1
, {behind-car C1:car V0:car, car-clear V0:car}:=1
>
Goal aware:
< {at-curb-num car_00 C0:curb, behind-car car_00 C1:car}:=1
, {at-curb-num car_01 C0:curb, behind-car car_01 C1:car}:=1
, {at-curb-num car_02 C0:curb, behind-car car_02 C1:car}:=1
, {at-curb-num car_03 C0:curb, behind-car car_03 C1:car}:=1
, {at-curb-num car_04 C0:curb, behind-car car_04 C1:car}:=1
, {at-curb-num car_05 C0:curb, behind-car car_05 C1:car}:=1
, {at-curb-num car_06 C0:curb, behind-car car_06 C1:car}:=1
, {at-curb-num car_07 C0:curb, behind-car car_07 C1:car}:=1
, {at-curb-num car_08 C0:curb, behind-car car_08 C1:car}:=1
, {at-curb-num car_09 C0:curb, behind-car car_09 C1:car}:=1
, {at-curb-num car_10 C0:curb, behind-car car_10 C1:car}:=1
, {at-curb-num car_11 C0:curb, behind-car car_11 C1:car}:=1
, {at-curb-num car_12 C0:curb, behind-car car_12 C1:car}:=1
, {at-curb-num car_13 C0:curb, behind-car car_13 C1:car}:=1
, {at-curb-num car_14 C0:curb, behind-car car_14 C1:car}:=1
, {at-curb-num car_15 C0:curb, behind-car car_15 C1:car}:=1
, {at-curb-num car_16 C0:curb, behind-car car_16 C1:car}:=1
, {at-curb-num car_17 C0:curb, behind-car car_17 C1:car}:=1
, {at-curb-num C0:car curb_0, curb-clear curb_0}:=1
, {at-curb-num C0:car curb_1, curb-clear curb_1}:=1
, {at-curb-num C0:car curb_2, curb-clear curb_2}:=1
, {at-curb-num C0:car curb_3, curb-clear curb_3}:=1
, {at-curb-num C0:car curb_4, curb-clear curb_4}:=1
, {at-curb-num C0:car curb_5, curb-clear curb_5}:=1
, {at-curb-num C0:car curb_6, curb-clear curb_6}:=1
, {at-curb-num C0:car curb_7, curb-clear curb_7}:=1
, {at-curb-num C0:car curb_8, curb-clear curb_8}:=1
, {at-curb-num C0:car curb_9, curb-clear curb_9}:=1
, {behind-car C0:car car_00, car-clear car_00}:=1
, {behind-car C0:car car_01, car-clear car_01}:=1
, {behind-car C0:car car_02, car-clear car_02}:=1
, {behind-car C0:car car_03, car-clear car_03}:=1
, {behind-car C0:car car_04, car-clear car_04}:=1
, {behind-car C0:car car_05, car-clear car_05}:=1
, {behind-car C0:car car_06, car-clear car_06}:=1
, {behind-car C0:car car_07, car-clear car_07}:=1
>
