begin_version
3
end_version
begin_metric
1
end_metric
5
begin_variable
var0
-1
2
at truck1 depot1
at truck1 market1
end_variable
begin_variable
var1
-1
2
loaded goods1 truck1 level0
loaded goods1 truck1 level1
end_variable
begin_variable
var2
-1
2
ready-to-load goods1 market1 level0
ready-to-load goods1 market1 level1
end_variable
begin_variable
var3
-1
2
stored goods1 level0
stored goods1 level1
end_variable
begin_variable
var4
-1
2
on-sale goods1 market1 level1
none-of-those
end_variable
5
begin_mutex_group
1
4 0
end_mutex_group
begin_mutex_group
2
0 0
0 1
end_mutex_group
begin_mutex_group
2
1 0
1 1
end_mutex_group
begin_mutex_group
2
2 0
2 1
end_mutex_group
begin_mutex_group
2
3 0
3 1
end_mutex_group
begin_state
0
0
0
0
0
end_state
begin_goal
1
3 1
end_goal
5
begin_operator
buy truck1 goods1 market1 level0 level1 level0 level1
1
0 1
2
0 2 0 1
0 4 0 1
1
end_operator
begin_operator
drive truck1 depot1 market1
0
1
0 0 0 1
1
end_operator
begin_operator
drive truck1 market1 depot1
0
1
0 0 1 0
1
end_operator
begin_operator
load goods1 truck1 market1 level0 level1 level0 level1
1
0 1
2
0 1 0 1
0 2 1 0
1
end_operator
begin_operator
unload goods1 truck1 depot1 level0 level1 level0 level1
1
0 0
2
0 1 1 0
0 3 0 1
1
end_operator
0
