Fact[17]:
  (pointing satellite0 groundstation1 0-0-0)
  (pointing satellite0 groundstation2 0-1-1)
  (pointing satellite0 phenomenon3 0-2-2)
  (pointing satellite0 phenomenon4 0-3-3)
  (pointing satellite0 phenomenon6 0-4-4)
  (pointing satellite0 star0 0-5-5)
  (pointing satellite0 star5 0-6-6)
  (power_avail satellite0 1-0-7)
  (power_on instrument0 1-1-8)
  (calibrated instrument0 2-0-9)
  (none-of-those 2-1-10)
  (have_image phenomenon4 thermograph0 3-0-11)
  (none-of-those 3-1-12)
  (have_image phenomenon6 thermograph0 4-0-13)
  (none-of-those 4-1-14)
  (have_image star5 thermograph0 5-0-15)
  (none-of-those 5-1-16)
Op[48]:
  (calibrate satellite0 instrument0 groundstation2), cost: 1
    pre: (pointing satellite0 groundstation2 0-1-1) (power_on instrument0 1-1-8)
    add: (calibrated instrument0 2-0-9)
    del: (none-of-those 2-1-10)
  (switch_off instrument0 satellite0), cost: 1
    pre: (power_on instrument0 1-1-8)
    add: (power_avail satellite0 1-0-7)
    del: (power_on instrument0 1-1-8)
  (switch_on instrument0 satellite0), cost: 1
    pre: (power_avail satellite0 1-0-7)
    add: (power_on instrument0 1-1-8) (none-of-those 2-1-10)
    del: (power_avail satellite0 1-0-7) (calibrated instrument0 2-0-9)
  (take_image satellite0 phenomenon4 instrument0 thermograph0), cost: 1
    pre: (pointing satellite0 phenomenon4 0-3-3) (power_on instrument0 1-1-8) (calibrated instrument0 2-0-9)
    add: (have_image phenomenon4 thermograph0 3-0-11)
    del: (none-of-those 3-1-12)
  (take_image satellite0 phenomenon6 instrument0 thermograph0), cost: 1
    pre: (pointing satellite0 phenomenon6 0-4-4) (power_on instrument0 1-1-8) (calibrated instrument0 2-0-9)
    add: (have_image phenomenon6 thermograph0 4-0-13)
    del: (none-of-those 4-1-14)
  (take_image satellite0 star5 instrument0 thermograph0), cost: 1
    pre: (pointing satellite0 star5 0-6-6) (power_on instrument0 1-1-8) (calibrated instrument0 2-0-9)
    add: (have_image star5 thermograph0 5-0-15)
    del: (none-of-those 5-1-16)
  (turn_to satellite0 groundstation1 groundstation2), cost: 1
    pre: (pointing satellite0 groundstation2 0-1-1)
    add: (pointing satellite0 groundstation1 0-0-0)
    del: (pointing satellite0 groundstation2 0-1-1)
  (turn_to satellite0 groundstation1 phenomenon3), cost: 1
    pre: (pointing satellite0 phenomenon3 0-2-2)
    add: (pointing satellite0 groundstation1 0-0-0)
    del: (pointing satellite0 phenomenon3 0-2-2)
  (turn_to satellite0 groundstation1 phenomenon4), cost: 1
    pre: (pointing satellite0 phenomenon4 0-3-3)
    add: (pointing satellite0 groundstation1 0-0-0)
    del: (pointing satellite0 phenomenon4 0-3-3)
  (turn_to satellite0 groundstation1 phenomenon6), cost: 1
    pre: (pointing satellite0 phenomenon6 0-4-4)
    add: (pointing satellite0 groundstation1 0-0-0)
    del: (pointing satellite0 phenomenon6 0-4-4)
  (turn_to satellite0 groundstation1 star0), cost: 1
    pre: (pointing satellite0 star0 0-5-5)
    add: (pointing satellite0 groundstation1 0-0-0)
    del: (pointing satellite0 star0 0-5-5)
  (turn_to satellite0 groundstation1 star5), cost: 1
    pre: (pointing satellite0 star5 0-6-6)
    add: (pointing satellite0 groundstation1 0-0-0)
    del: (pointing satellite0 star5 0-6-6)
  (turn_to satellite0 groundstation2 groundstation1), cost: 1
    pre: (pointing satellite0 groundstation1 0-0-0)
    add: (pointing satellite0 groundstation2 0-1-1)
    del: (pointing satellite0 groundstation1 0-0-0)
  (turn_to satellite0 groundstation2 phenomenon3), cost: 1
    pre: (pointing satellite0 phenomenon3 0-2-2)
    add: (pointing satellite0 groundstation2 0-1-1)
    del: (pointing satellite0 phenomenon3 0-2-2)
  (turn_to satellite0 groundstation2 phenomenon4), cost: 1
    pre: (pointing satellite0 phenomenon4 0-3-3)
    add: (pointing satellite0 groundstation2 0-1-1)
    del: (pointing satellite0 phenomenon4 0-3-3)
  (turn_to satellite0 groundstation2 phenomenon6), cost: 1
    pre: (pointing satellite0 phenomenon6 0-4-4)
    add: (pointing satellite0 groundstation2 0-1-1)
    del: (pointing satellite0 phenomenon6 0-4-4)
  (turn_to satellite0 groundstation2 star0), cost: 1
    pre: (pointing satellite0 star0 0-5-5)
    add: (pointing satellite0 groundstation2 0-1-1)
    del: (pointing satellite0 star0 0-5-5)
  (turn_to satellite0 groundstation2 star5), cost: 1
    pre: (pointing satellite0 star5 0-6-6)
    add: (pointing satellite0 groundstation2 0-1-1)
    del: (pointing satellite0 star5 0-6-6)
  (turn_to satellite0 phenomenon3 groundstation1), cost: 1
    pre: (pointing satellite0 groundstation1 0-0-0)
    add: (pointing satellite0 phenomenon3 0-2-2)
    del: (pointing satellite0 groundstation1 0-0-0)
  (turn_to satellite0 phenomenon3 groundstation2), cost: 1
    pre: (pointing satellite0 groundstation2 0-1-1)
    add: (pointing satellite0 phenomenon3 0-2-2)
    del: (pointing satellite0 groundstation2 0-1-1)
  (turn_to satellite0 phenomenon3 phenomenon4), cost: 1
    pre: (pointing satellite0 phenomenon4 0-3-3)
    add: (pointing satellite0 phenomenon3 0-2-2)
    del: (pointing satellite0 phenomenon4 0-3-3)
  (turn_to satellite0 phenomenon3 phenomenon6), cost: 1
    pre: (pointing satellite0 phenomenon6 0-4-4)
    add: (pointing satellite0 phenomenon3 0-2-2)
    del: (pointing satellite0 phenomenon6 0-4-4)
  (turn_to satellite0 phenomenon3 star0), cost: 1
    pre: (pointing satellite0 star0 0-5-5)
    add: (pointing satellite0 phenomenon3 0-2-2)
    del: (pointing satellite0 star0 0-5-5)
  (turn_to satellite0 phenomenon3 star5), cost: 1
    pre: (pointing satellite0 star5 0-6-6)
    add: (pointing satellite0 phenomenon3 0-2-2)
    del: (pointing satellite0 star5 0-6-6)
  (turn_to satellite0 phenomenon4 groundstation1), cost: 1
    pre: (pointing satellite0 groundstation1 0-0-0)
    add: (pointing satellite0 phenomenon4 0-3-3)
    del: (pointing satellite0 groundstation1 0-0-0)
  (turn_to satellite0 phenomenon4 groundstation2), cost: 1
    pre: (pointing satellite0 groundstation2 0-1-1)
    add: (pointing satellite0 phenomenon4 0-3-3)
    del: (pointing satellite0 groundstation2 0-1-1)
  (turn_to satellite0 phenomenon4 phenomenon3), cost: 1
    pre: (pointing satellite0 phenomenon3 0-2-2)
    add: (pointing satellite0 phenomenon4 0-3-3)
    del: (pointing satellite0 phenomenon3 0-2-2)
  (turn_to satellite0 phenomenon4 phenomenon6), cost: 1
    pre: (pointing satellite0 phenomenon6 0-4-4)
    add: (pointing satellite0 phenomenon4 0-3-3)
    del: (pointing satellite0 phenomenon6 0-4-4)
  (turn_to satellite0 phenomenon4 star0), cost: 1
    pre: (pointing satellite0 star0 0-5-5)
    add: (pointing satellite0 phenomenon4 0-3-3)
    del: (pointing satellite0 star0 0-5-5)
  (turn_to satellite0 phenomenon4 star5), cost: 1
    pre: (pointing satellite0 star5 0-6-6)
    add: (pointing satellite0 phenomenon4 0-3-3)
    del: (pointing satellite0 star5 0-6-6)
  (turn_to satellite0 phenomenon6 groundstation1), cost: 1
    pre: (pointing satellite0 groundstation1 0-0-0)
    add: (pointing satellite0 phenomenon6 0-4-4)
    del: (pointing satellite0 groundstation1 0-0-0)
  (turn_to satellite0 phenomenon6 groundstation2), cost: 1
    pre: (pointing satellite0 groundstation2 0-1-1)
    add: (pointing satellite0 phenomenon6 0-4-4)
    del: (pointing satellite0 groundstation2 0-1-1)
  (turn_to satellite0 phenomenon6 phenomenon3), cost: 1
    pre: (pointing satellite0 phenomenon3 0-2-2)
    add: (pointing satellite0 phenomenon6 0-4-4)
    del: (pointing satellite0 phenomenon3 0-2-2)
  (turn_to satellite0 phenomenon6 phenomenon4), cost: 1
    pre: (pointing satellite0 phenomenon4 0-3-3)
    add: (pointing satellite0 phenomenon6 0-4-4)
    del: (pointing satellite0 phenomenon4 0-3-3)
  (turn_to satellite0 phenomenon6 star0), cost: 1
    pre: (pointing satellite0 star0 0-5-5)
    add: (pointing satellite0 phenomenon6 0-4-4)
    del: (pointing satellite0 star0 0-5-5)
  (turn_to satellite0 phenomenon6 star5), cost: 1
    pre: (pointing satellite0 star5 0-6-6)
    add: (pointing satellite0 phenomenon6 0-4-4)
    del: (pointing satellite0 star5 0-6-6)
  (turn_to satellite0 star0 groundstation1), cost: 1
    pre: (pointing satellite0 groundstation1 0-0-0)
    add: (pointing satellite0 star0 0-5-5)
    del: (pointing satellite0 groundstation1 0-0-0)
  (turn_to satellite0 star0 groundstation2), cost: 1
    pre: (pointing satellite0 groundstation2 0-1-1)
    add: (pointing satellite0 star0 0-5-5)
    del: (pointing satellite0 groundstation2 0-1-1)
  (turn_to satellite0 star0 phenomenon3), cost: 1
    pre: (pointing satellite0 phenomenon3 0-2-2)
    add: (pointing satellite0 star0 0-5-5)
    del: (pointing satellite0 phenomenon3 0-2-2)
  (turn_to satellite0 star0 phenomenon4), cost: 1
    pre: (pointing satellite0 phenomenon4 0-3-3)
    add: (pointing satellite0 star0 0-5-5)
    del: (pointing satellite0 phenomenon4 0-3-3)
  (turn_to satellite0 star0 phenomenon6), cost: 1
    pre: (pointing satellite0 phenomenon6 0-4-4)
    add: (pointing satellite0 star0 0-5-5)
    del: (pointing satellite0 phenomenon6 0-4-4)
  (turn_to satellite0 star0 star5), cost: 1
    pre: (pointing satellite0 star5 0-6-6)
    add: (pointing satellite0 star0 0-5-5)
    del: (pointing satellite0 star5 0-6-6)
  (turn_to satellite0 star5 groundstation1), cost: 1
    pre: (pointing satellite0 groundstation1 0-0-0)
    add: (pointing satellite0 star5 0-6-6)
    del: (pointing satellite0 groundstation1 0-0-0)
  (turn_to satellite0 star5 groundstation2), cost: 1
    pre: (pointing satellite0 groundstation2 0-1-1)
    add: (pointing satellite0 star5 0-6-6)
    del: (pointing satellite0 groundstation2 0-1-1)
  (turn_to satellite0 star5 phenomenon3), cost: 1
    pre: (pointing satellite0 phenomenon3 0-2-2)
    add: (pointing satellite0 star5 0-6-6)
    del: (pointing satellite0 phenomenon3 0-2-2)
  (turn_to satellite0 star5 phenomenon4), cost: 1
    pre: (pointing satellite0 phenomenon4 0-3-3)
    add: (pointing satellite0 star5 0-6-6)
    del: (pointing satellite0 phenomenon4 0-3-3)
  (turn_to satellite0 star5 phenomenon6), cost: 1
    pre: (pointing satellite0 phenomenon6 0-4-4)
    add: (pointing satellite0 star5 0-6-6)
    del: (pointing satellite0 phenomenon6 0-4-4)
  (turn_to satellite0 star5 star0), cost: 1
    pre: (pointing satellite0 star0 0-5-5)
    add: (pointing satellite0 star5 0-6-6)
    del: (pointing satellite0 star0 0-5-5)
Init State: (pointing satellite0 phenomenon6 0-4-4) (power_avail satellite0 1-0-7) (none-of-those 2-1-10) (none-of-those 3-1-12) (none-of-those 4-1-14) (none-of-those 5-1-16)
Goal: (have_image phenomenon4 thermograph0 3-0-11) (have_image phenomenon6 thermograph0 4-0-13) (have_image star5 thermograph0 5-0-15)
Value: 3
