Init: (lift-at fast0 n2) (lift-at fast1 n4) (lift-at slow0-0 n4) (lift-at slow1-0 n7) (passenger-at p0 n0) (passenger-at p1 n0) (passenger-at p10 n3) (passenger-at p11 n7) (passenger-at p12 n5) (passenger-at p2 n7) (passenger-at p3 n5) (passenger-at p4 n0) (passenger-at p5 n5) (passenger-at p6 n3) (passenger-at p7 n3) (passenger-at p8 n0) (passenger-at p9 n1) (passengers fast0 n0) (passengers fast1 n0) (passengers slow0-0 n0)
Unreachable facts [87/203]:
  (boarded p0 slow1-0)
  (boarded p1 slow1-0)
  (boarded p10 slow1-0)
  (boarded p11 fast0)
  (boarded p11 fast1)
  (boarded p11 slow0-0)
  (boarded p11 slow1-0)
  (boarded p12 fast0)
  (boarded p12 fast1)
  (boarded p12 slow0-0)
  (boarded p12 slow1-0)
  (boarded p2 fast0)
  (boarded p2 fast1)
  (boarded p2 slow0-0)
  (boarded p2 slow1-0)
  (boarded p3 fast0)
  (boarded p3 fast1)
  (boarded p3 slow0-0)
  (boarded p3 slow1-0)
  (boarded p4 slow1-0)
  (boarded p5 fast0)
  (boarded p5 fast1)
  (boarded p5 slow0-0)
  (boarded p5 slow1-0)
  (boarded p6 slow1-0)
  (boarded p7 slow1-0)
  (boarded p8 slow1-0)
  (boarded p9 slow1-0)
  (passenger-at p0 n5)
  (passenger-at p0 n7)
  (passenger-at p1 n5)
  (passenger-at p1 n7)
  (passenger-at p10 n5)
  (passenger-at p10 n7)
  (passenger-at p11 n0)
  (passenger-at p11 n1)
  (passenger-at p11 n2)
  (passenger-at p11 n3)
  (passenger-at p11 n4)
  (passenger-at p11 n5)
  (passenger-at p11 n6)
  (passenger-at p11 n8)
  (passenger-at p12 n0)
  (passenger-at p12 n1)
  (passenger-at p12 n2)
  (passenger-at p12 n3)
  (passenger-at p12 n4)
  (passenger-at p12 n6)
  (passenger-at p12 n7)
  (passenger-at p12 n8)
  (passenger-at p2 n0)
  (passenger-at p2 n1)
  (passenger-at p2 n2)
  (passenger-at p2 n3)
  (passenger-at p2 n4)
  (passenger-at p2 n5)
  (passenger-at p2 n6)
  (passenger-at p2 n8)
  (passenger-at p3 n0)
  (passenger-at p3 n1)
  (passenger-at p3 n2)
  (passenger-at p3 n3)
  (passenger-at p3 n4)
  (passenger-at p3 n6)
  (passenger-at p3 n7)
  (passenger-at p3 n8)
  (passenger-at p4 n5)
  (passenger-at p4 n7)
  (passenger-at p5 n0)
  (passenger-at p5 n1)
  (passenger-at p5 n2)
  (passenger-at p5 n3)
  (passenger-at p5 n4)
  (passenger-at p5 n6)
  (passenger-at p5 n7)
  (passenger-at p5 n8)
  (passenger-at p6 n5)
  (passenger-at p6 n7)
  (passenger-at p7 n5)
  (passenger-at p7 n7)
  (passenger-at p8 n5)
  (passenger-at p8 n7)
  (passenger-at p9 n5)
  (passenger-at p9 n7)
  (passengers slow1-0 n0)
  (passengers slow1-0 n1)
  (passengers slow1-0 n2)
Unreachable ops [660/1380]:
  (board p0 slow1-0 n4 n0 n1)
  (board p0 slow1-0 n4 n1 n2)
  (board p0 slow1-0 n5 n0 n1)
  (board p0 slow1-0 n5 n1 n2)
  (board p0 slow1-0 n6 n0 n1)
  (board p0 slow1-0 n6 n1 n2)
  (board p0 slow1-0 n7 n0 n1)
  (board p0 slow1-0 n7 n1 n2)
  (board p0 slow1-0 n8 n0 n1)
  (board p0 slow1-0 n8 n1 n2)
  (board p1 slow1-0 n4 n0 n1)
  (board p1 slow1-0 n4 n1 n2)
  (board p1 slow1-0 n5 n0 n1)
  (board p1 slow1-0 n5 n1 n2)
  (board p1 slow1-0 n6 n0 n1)
  (board p1 slow1-0 n6 n1 n2)
  (board p1 slow1-0 n7 n0 n1)
  (board p1 slow1-0 n7 n1 n2)
  (board p1 slow1-0 n8 n0 n1)
  (board p1 slow1-0 n8 n1 n2)
  (board p10 slow1-0 n4 n0 n1)
  (board p10 slow1-0 n4 n1 n2)
  (board p10 slow1-0 n5 n0 n1)
  (board p10 slow1-0 n5 n1 n2)
  (board p10 slow1-0 n6 n0 n1)
  (board p10 slow1-0 n6 n1 n2)
  (board p10 slow1-0 n7 n0 n1)
  (board p10 slow1-0 n7 n1 n2)
  (board p10 slow1-0 n8 n0 n1)
  (board p10 slow1-0 n8 n1 n2)
  (board p11 fast0 n0 n0 n1)
  (board p11 fast0 n0 n1 n2)
  (board p11 fast0 n0 n2 n3)
  (board p11 fast0 n2 n0 n1)
  (board p11 fast0 n2 n1 n2)
  (board p11 fast0 n2 n2 n3)
  (board p11 fast0 n4 n0 n1)
  (board p11 fast0 n4 n1 n2)
  (board p11 fast0 n4 n2 n3)
  (board p11 fast0 n6 n0 n1)
  (board p11 fast0 n6 n1 n2)
  (board p11 fast0 n6 n2 n3)
  (board p11 fast0 n8 n0 n1)
  (board p11 fast0 n8 n1 n2)
  (board p11 fast0 n8 n2 n3)
  (board p11 fast1 n0 n0 n1)
  (board p11 fast1 n0 n1 n2)
  (board p11 fast1 n0 n2 n3)
  (board p11 fast1 n2 n0 n1)
  (board p11 fast1 n2 n1 n2)
  (board p11 fast1 n2 n2 n3)
  (board p11 fast1 n4 n0 n1)
  (board p11 fast1 n4 n1 n2)
  (board p11 fast1 n4 n2 n3)
  (board p11 fast1 n6 n0 n1)
  (board p11 fast1 n6 n1 n2)
  (board p11 fast1 n6 n2 n3)
  (board p11 fast1 n8 n0 n1)
  (board p11 fast1 n8 n1 n2)
  (board p11 fast1 n8 n2 n3)
  (board p11 slow0-0 n0 n0 n1)
  (board p11 slow0-0 n0 n1 n2)
  (board p11 slow0-0 n1 n0 n1)
  (board p11 slow0-0 n1 n1 n2)
  (board p11 slow0-0 n2 n0 n1)
  (board p11 slow0-0 n2 n1 n2)
  (board p11 slow0-0 n3 n0 n1)
  (board p11 slow0-0 n3 n1 n2)
  (board p11 slow0-0 n4 n0 n1)
  (board p11 slow0-0 n4 n1 n2)
  (board p11 slow1-0 n4 n0 n1)
  (board p11 slow1-0 n4 n1 n2)
  (board p11 slow1-0 n5 n0 n1)
  (board p11 slow1-0 n5 n1 n2)
  (board p11 slow1-0 n6 n0 n1)
  (board p11 slow1-0 n6 n1 n2)
  (board p11 slow1-0 n7 n0 n1)
  (board p11 slow1-0 n7 n1 n2)
  (board p11 slow1-0 n8 n0 n1)
  (board p11 slow1-0 n8 n1 n2)
  (board p12 fast0 n0 n0 n1)
  (board p12 fast0 n0 n1 n2)
  (board p12 fast0 n0 n2 n3)
  (board p12 fast0 n2 n0 n1)
  (board p12 fast0 n2 n1 n2)
  (board p12 fast0 n2 n2 n3)
  (board p12 fast0 n4 n0 n1)
  (board p12 fast0 n4 n1 n2)
  (board p12 fast0 n4 n2 n3)
  (board p12 fast0 n6 n0 n1)
  (board p12 fast0 n6 n1 n2)
  (board p12 fast0 n6 n2 n3)
  (board p12 fast0 n8 n0 n1)
  (board p12 fast0 n8 n1 n2)
  (board p12 fast0 n8 n2 n3)
  (board p12 fast1 n0 n0 n1)
  (board p12 fast1 n0 n1 n2)
  (board p12 fast1 n0 n2 n3)
  (board p12 fast1 n2 n0 n1)
  (board p12 fast1 n2 n1 n2)
  (board p12 fast1 n2 n2 n3)
  (board p12 fast1 n4 n0 n1)
  (board p12 fast1 n4 n1 n2)
  (board p12 fast1 n4 n2 n3)
  (board p12 fast1 n6 n0 n1)
  (board p12 fast1 n6 n1 n2)
  (board p12 fast1 n6 n2 n3)
  (board p12 fast1 n8 n0 n1)
  (board p12 fast1 n8 n1 n2)
  (board p12 fast1 n8 n2 n3)
  (board p12 slow0-0 n0 n0 n1)
  (board p12 slow0-0 n0 n1 n2)
  (board p12 slow0-0 n1 n0 n1)
  (board p12 slow0-0 n1 n1 n2)
  (board p12 slow0-0 n2 n0 n1)
  (board p12 slow0-0 n2 n1 n2)
  (board p12 slow0-0 n3 n0 n1)
  (board p12 slow0-0 n3 n1 n2)
  (board p12 slow0-0 n4 n0 n1)
  (board p12 slow0-0 n4 n1 n2)
  (board p12 slow1-0 n4 n0 n1)
  (board p12 slow1-0 n4 n1 n2)
  (board p12 slow1-0 n5 n0 n1)
  (board p12 slow1-0 n5 n1 n2)
  (board p12 slow1-0 n6 n0 n1)
  (board p12 slow1-0 n6 n1 n2)
  (board p12 slow1-0 n7 n0 n1)
  (board p12 slow1-0 n7 n1 n2)
  (board p12 slow1-0 n8 n0 n1)
  (board p12 slow1-0 n8 n1 n2)
  (board p2 fast0 n0 n0 n1)
  (board p2 fast0 n0 n1 n2)
  (board p2 fast0 n0 n2 n3)
  (board p2 fast0 n2 n0 n1)
  (board p2 fast0 n2 n1 n2)
  (board p2 fast0 n2 n2 n3)
  (board p2 fast0 n4 n0 n1)
  (board p2 fast0 n4 n1 n2)
  (board p2 fast0 n4 n2 n3)
  (board p2 fast0 n6 n0 n1)
  (board p2 fast0 n6 n1 n2)
  (board p2 fast0 n6 n2 n3)
  (board p2 fast0 n8 n0 n1)
  (board p2 fast0 n8 n1 n2)
  (board p2 fast0 n8 n2 n3)
  (board p2 fast1 n0 n0 n1)
  (board p2 fast1 n0 n1 n2)
  (board p2 fast1 n0 n2 n3)
  (board p2 fast1 n2 n0 n1)
  (board p2 fast1 n2 n1 n2)
  (board p2 fast1 n2 n2 n3)
  (board p2 fast1 n4 n0 n1)
  (board p2 fast1 n4 n1 n2)
  (board p2 fast1 n4 n2 n3)
  (board p2 fast1 n6 n0 n1)
  (board p2 fast1 n6 n1 n2)
  (board p2 fast1 n6 n2 n3)
  (board p2 fast1 n8 n0 n1)
  (board p2 fast1 n8 n1 n2)
  (board p2 fast1 n8 n2 n3)
  (board p2 slow0-0 n0 n0 n1)
  (board p2 slow0-0 n0 n1 n2)
  (board p2 slow0-0 n1 n0 n1)
  (board p2 slow0-0 n1 n1 n2)
  (board p2 slow0-0 n2 n0 n1)
  (board p2 slow0-0 n2 n1 n2)
  (board p2 slow0-0 n3 n0 n1)
  (board p2 slow0-0 n3 n1 n2)
  (board p2 slow0-0 n4 n0 n1)
  (board p2 slow0-0 n4 n1 n2)
  (board p2 slow1-0 n4 n0 n1)
  (board p2 slow1-0 n4 n1 n2)
  (board p2 slow1-0 n5 n0 n1)
  (board p2 slow1-0 n5 n1 n2)
  (board p2 slow1-0 n6 n0 n1)
  (board p2 slow1-0 n6 n1 n2)
  (board p2 slow1-0 n7 n0 n1)
  (board p2 slow1-0 n7 n1 n2)
  (board p2 slow1-0 n8 n0 n1)
  (board p2 slow1-0 n8 n1 n2)
  (board p3 fast0 n0 n0 n1)
  (board p3 fast0 n0 n1 n2)
  (board p3 fast0 n0 n2 n3)
  (board p3 fast0 n2 n0 n1)
  (board p3 fast0 n2 n1 n2)
  (board p3 fast0 n2 n2 n3)
  (board p3 fast0 n4 n0 n1)
  (board p3 fast0 n4 n1 n2)
  (board p3 fast0 n4 n2 n3)
  (board p3 fast0 n6 n0 n1)
  (board p3 fast0 n6 n1 n2)
  (board p3 fast0 n6 n2 n3)
  (board p3 fast0 n8 n0 n1)
  (board p3 fast0 n8 n1 n2)
  (board p3 fast0 n8 n2 n3)
  (board p3 fast1 n0 n0 n1)
  (board p3 fast1 n0 n1 n2)
  (board p3 fast1 n0 n2 n3)
  (board p3 fast1 n2 n0 n1)
  (board p3 fast1 n2 n1 n2)
  (board p3 fast1 n2 n2 n3)
  (board p3 fast1 n4 n0 n1)
  (board p3 fast1 n4 n1 n2)
  (board p3 fast1 n4 n2 n3)
  (board p3 fast1 n6 n0 n1)
  (board p3 fast1 n6 n1 n2)
  (board p3 fast1 n6 n2 n3)
  (board p3 fast1 n8 n0 n1)
  (board p3 fast1 n8 n1 n2)
  (board p3 fast1 n8 n2 n3)
  (board p3 slow0-0 n0 n0 n1)
  (board p3 slow0-0 n0 n1 n2)
  (board p3 slow0-0 n1 n0 n1)
  (board p3 slow0-0 n1 n1 n2)
  (board p3 slow0-0 n2 n0 n1)
  (board p3 slow0-0 n2 n1 n2)
  (board p3 slow0-0 n3 n0 n1)
  (board p3 slow0-0 n3 n1 n2)
  (board p3 slow0-0 n4 n0 n1)
  (board p3 slow0-0 n4 n1 n2)
  (board p3 slow1-0 n4 n0 n1)
  (board p3 slow1-0 n4 n1 n2)
  (board p3 slow1-0 n5 n0 n1)
  (board p3 slow1-0 n5 n1 n2)
  (board p3 slow1-0 n6 n0 n1)
  (board p3 slow1-0 n6 n1 n2)
  (board p3 slow1-0 n7 n0 n1)
  (board p3 slow1-0 n7 n1 n2)
  (board p3 slow1-0 n8 n0 n1)
  (board p3 slow1-0 n8 n1 n2)
  (board p4 slow1-0 n4 n0 n1)
  (board p4 slow1-0 n4 n1 n2)
  (board p4 slow1-0 n5 n0 n1)
  (board p4 slow1-0 n5 n1 n2)
  (board p4 slow1-0 n6 n0 n1)
  (board p4 slow1-0 n6 n1 n2)
  (board p4 slow1-0 n7 n0 n1)
  (board p4 slow1-0 n7 n1 n2)
  (board p4 slow1-0 n8 n0 n1)
  (board p4 slow1-0 n8 n1 n2)
  (board p5 fast0 n0 n0 n1)
  (board p5 fast0 n0 n1 n2)
  (board p5 fast0 n0 n2 n3)
  (board p5 fast0 n2 n0 n1)
  (board p5 fast0 n2 n1 n2)
  (board p5 fast0 n2 n2 n3)
  (board p5 fast0 n4 n0 n1)
  (board p5 fast0 n4 n1 n2)
  (board p5 fast0 n4 n2 n3)
  (board p5 fast0 n6 n0 n1)
  (board p5 fast0 n6 n1 n2)
  (board p5 fast0 n6 n2 n3)
  (board p5 fast0 n8 n0 n1)
  (board p5 fast0 n8 n1 n2)
  (board p5 fast0 n8 n2 n3)
  (board p5 fast1 n0 n0 n1)
  (board p5 fast1 n0 n1 n2)
  (board p5 fast1 n0 n2 n3)
  (board p5 fast1 n2 n0 n1)
  (board p5 fast1 n2 n1 n2)
  (board p5 fast1 n2 n2 n3)
  (board p5 fast1 n4 n0 n1)
  (board p5 fast1 n4 n1 n2)
  (board p5 fast1 n4 n2 n3)
  (board p5 fast1 n6 n0 n1)
  (board p5 fast1 n6 n1 n2)
  (board p5 fast1 n6 n2 n3)
  (board p5 fast1 n8 n0 n1)
  (board p5 fast1 n8 n1 n2)
  (board p5 fast1 n8 n2 n3)
  (board p5 slow0-0 n0 n0 n1)
  (board p5 slow0-0 n0 n1 n2)
  (board p5 slow0-0 n1 n0 n1)
  (board p5 slow0-0 n1 n1 n2)
  (board p5 slow0-0 n2 n0 n1)
  (board p5 slow0-0 n2 n1 n2)
  (board p5 slow0-0 n3 n0 n1)
  (board p5 slow0-0 n3 n1 n2)
  (board p5 slow0-0 n4 n0 n1)
  (board p5 slow0-0 n4 n1 n2)
  (board p5 slow1-0 n4 n0 n1)
  (board p5 slow1-0 n4 n1 n2)
  (board p5 slow1-0 n5 n0 n1)
  (board p5 slow1-0 n5 n1 n2)
  (board p5 slow1-0 n6 n0 n1)
  (board p5 slow1-0 n6 n1 n2)
  (board p5 slow1-0 n7 n0 n1)
  (board p5 slow1-0 n7 n1 n2)
  (board p5 slow1-0 n8 n0 n1)
  (board p5 slow1-0 n8 n1 n2)
  (board p6 slow1-0 n4 n0 n1)
  (board p6 slow1-0 n4 n1 n2)
  (board p6 slow1-0 n5 n0 n1)
  (board p6 slow1-0 n5 n1 n2)
  (board p6 slow1-0 n6 n0 n1)
  (board p6 slow1-0 n6 n1 n2)
  (board p6 slow1-0 n7 n0 n1)
  (board p6 slow1-0 n7 n1 n2)
  (board p6 slow1-0 n8 n0 n1)
  (board p6 slow1-0 n8 n1 n2)
  (board p7 slow1-0 n4 n0 n1)
  (board p7 slow1-0 n4 n1 n2)
  (board p7 slow1-0 n5 n0 n1)
  (board p7 slow1-0 n5 n1 n2)
  (board p7 slow1-0 n6 n0 n1)
  (board p7 slow1-0 n6 n1 n2)
  (board p7 slow1-0 n7 n0 n1)
  (board p7 slow1-0 n7 n1 n2)
  (board p7 slow1-0 n8 n0 n1)
  (board p7 slow1-0 n8 n1 n2)
  (board p8 slow1-0 n4 n0 n1)
  (board p8 slow1-0 n4 n1 n2)
  (board p8 slow1-0 n5 n0 n1)
  (board p8 slow1-0 n5 n1 n2)
  (board p8 slow1-0 n6 n0 n1)
  (board p8 slow1-0 n6 n1 n2)
  (board p8 slow1-0 n7 n0 n1)
  (board p8 slow1-0 n7 n1 n2)
  (board p8 slow1-0 n8 n0 n1)
  (board p8 slow1-0 n8 n1 n2)
  (board p9 slow1-0 n4 n0 n1)
  (board p9 slow1-0 n4 n1 n2)
  (board p9 slow1-0 n5 n0 n1)
  (board p9 slow1-0 n5 n1 n2)
  (board p9 slow1-0 n6 n0 n1)
  (board p9 slow1-0 n6 n1 n2)
  (board p9 slow1-0 n7 n0 n1)
  (board p9 slow1-0 n7 n1 n2)
  (board p9 slow1-0 n8 n0 n1)
  (board p9 slow1-0 n8 n1 n2)
  (leave p0 slow1-0 n4 n1 n0)
  (leave p0 slow1-0 n4 n2 n1)
  (leave p0 slow1-0 n5 n1 n0)
  (leave p0 slow1-0 n5 n2 n1)
  (leave p0 slow1-0 n6 n1 n0)
  (leave p0 slow1-0 n6 n2 n1)
  (leave p0 slow1-0 n7 n1 n0)
  (leave p0 slow1-0 n7 n2 n1)
  (leave p0 slow1-0 n8 n1 n0)
  (leave p0 slow1-0 n8 n2 n1)
  (leave p1 slow1-0 n4 n1 n0)
  (leave p1 slow1-0 n4 n2 n1)
  (leave p1 slow1-0 n5 n1 n0)
  (leave p1 slow1-0 n5 n2 n1)
  (leave p1 slow1-0 n6 n1 n0)
  (leave p1 slow1-0 n6 n2 n1)
  (leave p1 slow1-0 n7 n1 n0)
  (leave p1 slow1-0 n7 n2 n1)
  (leave p1 slow1-0 n8 n1 n0)
  (leave p1 slow1-0 n8 n2 n1)
  (leave p10 slow1-0 n4 n1 n0)
  (leave p10 slow1-0 n4 n2 n1)
  (leave p10 slow1-0 n5 n1 n0)
  (leave p10 slow1-0 n5 n2 n1)
  (leave p10 slow1-0 n6 n1 n0)
  (leave p10 slow1-0 n6 n2 n1)
  (leave p10 slow1-0 n7 n1 n0)
  (leave p10 slow1-0 n7 n2 n1)
  (leave p10 slow1-0 n8 n1 n0)
  (leave p10 slow1-0 n8 n2 n1)
  (leave p11 fast0 n0 n1 n0)
  (leave p11 fast0 n0 n2 n1)
  (leave p11 fast0 n0 n3 n2)
  (leave p11 fast0 n2 n1 n0)
  (leave p11 fast0 n2 n2 n1)
  (leave p11 fast0 n2 n3 n2)
  (leave p11 fast0 n4 n1 n0)
  (leave p11 fast0 n4 n2 n1)
  (leave p11 fast0 n4 n3 n2)
  (leave p11 fast0 n6 n1 n0)
  (leave p11 fast0 n6 n2 n1)
  (leave p11 fast0 n6 n3 n2)
  (leave p11 fast0 n8 n1 n0)
  (leave p11 fast0 n8 n2 n1)
  (leave p11 fast0 n8 n3 n2)
  (leave p11 fast1 n0 n1 n0)
  (leave p11 fast1 n0 n2 n1)
  (leave p11 fast1 n0 n3 n2)
  (leave p11 fast1 n2 n1 n0)
  (leave p11 fast1 n2 n2 n1)
  (leave p11 fast1 n2 n3 n2)
  (leave p11 fast1 n4 n1 n0)
  (leave p11 fast1 n4 n2 n1)
  (leave p11 fast1 n4 n3 n2)
  (leave p11 fast1 n6 n1 n0)
  (leave p11 fast1 n6 n2 n1)
  (leave p11 fast1 n6 n3 n2)
  (leave p11 fast1 n8 n1 n0)
  (leave p11 fast1 n8 n2 n1)
  (leave p11 fast1 n8 n3 n2)
  (leave p11 slow0-0 n0 n1 n0)
  (leave p11 slow0-0 n0 n2 n1)
  (leave p11 slow0-0 n1 n1 n0)
  (leave p11 slow0-0 n1 n2 n1)
  (leave p11 slow0-0 n2 n1 n0)
  (leave p11 slow0-0 n2 n2 n1)
  (leave p11 slow0-0 n3 n1 n0)
  (leave p11 slow0-0 n3 n2 n1)
  (leave p11 slow0-0 n4 n1 n0)
  (leave p11 slow0-0 n4 n2 n1)
  (leave p11 slow1-0 n4 n1 n0)
  (leave p11 slow1-0 n4 n2 n1)
  (leave p11 slow1-0 n5 n1 n0)
  (leave p11 slow1-0 n5 n2 n1)
  (leave p11 slow1-0 n6 n1 n0)
  (leave p11 slow1-0 n6 n2 n1)
  (leave p11 slow1-0 n7 n1 n0)
  (leave p11 slow1-0 n7 n2 n1)
  (leave p11 slow1-0 n8 n1 n0)
  (leave p11 slow1-0 n8 n2 n1)
  (leave p12 fast0 n0 n1 n0)
  (leave p12 fast0 n0 n2 n1)
  (leave p12 fast0 n0 n3 n2)
  (leave p12 fast0 n2 n1 n0)
  (leave p12 fast0 n2 n2 n1)
  (leave p12 fast0 n2 n3 n2)
  (leave p12 fast0 n4 n1 n0)
  (leave p12 fast0 n4 n2 n1)
  (leave p12 fast0 n4 n3 n2)
  (leave p12 fast0 n6 n1 n0)
  (leave p12 fast0 n6 n2 n1)
  (leave p12 fast0 n6 n3 n2)
  (leave p12 fast0 n8 n1 n0)
  (leave p12 fast0 n8 n2 n1)
  (leave p12 fast0 n8 n3 n2)
  (leave p12 fast1 n0 n1 n0)
  (leave p12 fast1 n0 n2 n1)
  (leave p12 fast1 n0 n3 n2)
  (leave p12 fast1 n2 n1 n0)
  (leave p12 fast1 n2 n2 n1)
  (leave p12 fast1 n2 n3 n2)
  (leave p12 fast1 n4 n1 n0)
  (leave p12 fast1 n4 n2 n1)
  (leave p12 fast1 n4 n3 n2)
  (leave p12 fast1 n6 n1 n0)
  (leave p12 fast1 n6 n2 n1)
  (leave p12 fast1 n6 n3 n2)
  (leave p12 fast1 n8 n1 n0)
  (leave p12 fast1 n8 n2 n1)
  (leave p12 fast1 n8 n3 n2)
  (leave p12 slow0-0 n0 n1 n0)
  (leave p12 slow0-0 n0 n2 n1)
  (leave p12 slow0-0 n1 n1 n0)
  (leave p12 slow0-0 n1 n2 n1)
  (leave p12 slow0-0 n2 n1 n0)
  (leave p12 slow0-0 n2 n2 n1)
  (leave p12 slow0-0 n3 n1 n0)
  (leave p12 slow0-0 n3 n2 n1)
  (leave p12 slow0-0 n4 n1 n0)
  (leave p12 slow0-0 n4 n2 n1)
  (leave p12 slow1-0 n4 n1 n0)
  (leave p12 slow1-0 n4 n2 n1)
  (leave p12 slow1-0 n5 n1 n0)
  (leave p12 slow1-0 n5 n2 n1)
  (leave p12 slow1-0 n6 n1 n0)
  (leave p12 slow1-0 n6 n2 n1)
  (leave p12 slow1-0 n7 n1 n0)
  (leave p12 slow1-0 n7 n2 n1)
  (leave p12 slow1-0 n8 n1 n0)
  (leave p12 slow1-0 n8 n2 n1)
  (leave p2 fast0 n0 n1 n0)
  (leave p2 fast0 n0 n2 n1)
  (leave p2 fast0 n0 n3 n2)
  (leave p2 fast0 n2 n1 n0)
  (leave p2 fast0 n2 n2 n1)
  (leave p2 fast0 n2 n3 n2)
  (leave p2 fast0 n4 n1 n0)
  (leave p2 fast0 n4 n2 n1)
  (leave p2 fast0 n4 n3 n2)
  (leave p2 fast0 n6 n1 n0)
  (leave p2 fast0 n6 n2 n1)
  (leave p2 fast0 n6 n3 n2)
  (leave p2 fast0 n8 n1 n0)
  (leave p2 fast0 n8 n2 n1)
  (leave p2 fast0 n8 n3 n2)
  (leave p2 fast1 n0 n1 n0)
  (leave p2 fast1 n0 n2 n1)
  (leave p2 fast1 n0 n3 n2)
  (leave p2 fast1 n2 n1 n0)
  (leave p2 fast1 n2 n2 n1)
  (leave p2 fast1 n2 n3 n2)
  (leave p2 fast1 n4 n1 n0)
  (leave p2 fast1 n4 n2 n1)
  (leave p2 fast1 n4 n3 n2)
  (leave p2 fast1 n6 n1 n0)
  (leave p2 fast1 n6 n2 n1)
  (leave p2 fast1 n6 n3 n2)
  (leave p2 fast1 n8 n1 n0)
  (leave p2 fast1 n8 n2 n1)
  (leave p2 fast1 n8 n3 n2)
  (leave p2 slow0-0 n0 n1 n0)
  (leave p2 slow0-0 n0 n2 n1)
  (leave p2 slow0-0 n1 n1 n0)
  (leave p2 slow0-0 n1 n2 n1)
  (leave p2 slow0-0 n2 n1 n0)
  (leave p2 slow0-0 n2 n2 n1)
  (leave p2 slow0-0 n3 n1 n0)
  (leave p2 slow0-0 n3 n2 n1)
  (leave p2 slow0-0 n4 n1 n0)
  (leave p2 slow0-0 n4 n2 n1)
  (leave p2 slow1-0 n4 n1 n0)
  (leave p2 slow1-0 n4 n2 n1)
  (leave p2 slow1-0 n5 n1 n0)
  (leave p2 slow1-0 n5 n2 n1)
  (leave p2 slow1-0 n6 n1 n0)
  (leave p2 slow1-0 n6 n2 n1)
  (leave p2 slow1-0 n7 n1 n0)
  (leave p2 slow1-0 n7 n2 n1)
  (leave p2 slow1-0 n8 n1 n0)
  (leave p2 slow1-0 n8 n2 n1)
  (leave p3 fast0 n0 n1 n0)
  (leave p3 fast0 n0 n2 n1)
  (leave p3 fast0 n0 n3 n2)
  (leave p3 fast0 n2 n1 n0)
  (leave p3 fast0 n2 n2 n1)
  (leave p3 fast0 n2 n3 n2)
  (leave p3 fast0 n4 n1 n0)
  (leave p3 fast0 n4 n2 n1)
  (leave p3 fast0 n4 n3 n2)
  (leave p3 fast0 n6 n1 n0)
  (leave p3 fast0 n6 n2 n1)
  (leave p3 fast0 n6 n3 n2)
  (leave p3 fast0 n8 n1 n0)
  (leave p3 fast0 n8 n2 n1)
  (leave p3 fast0 n8 n3 n2)
  (leave p3 fast1 n0 n1 n0)
  (leave p3 fast1 n0 n2 n1)
  (leave p3 fast1 n0 n3 n2)
  (leave p3 fast1 n2 n1 n0)
  (leave p3 fast1 n2 n2 n1)
  (leave p3 fast1 n2 n3 n2)
  (leave p3 fast1 n4 n1 n0)
  (leave p3 fast1 n4 n2 n1)
  (leave p3 fast1 n4 n3 n2)
  (leave p3 fast1 n6 n1 n0)
  (leave p3 fast1 n6 n2 n1)
  (leave p3 fast1 n6 n3 n2)
  (leave p3 fast1 n8 n1 n0)
  (leave p3 fast1 n8 n2 n1)
  (leave p3 fast1 n8 n3 n2)
  (leave p3 slow0-0 n0 n1 n0)
  (leave p3 slow0-0 n0 n2 n1)
  (leave p3 slow0-0 n1 n1 n0)
  (leave p3 slow0-0 n1 n2 n1)
  (leave p3 slow0-0 n2 n1 n0)
  (leave p3 slow0-0 n2 n2 n1)
  (leave p3 slow0-0 n3 n1 n0)
  (leave p3 slow0-0 n3 n2 n1)
  (leave p3 slow0-0 n4 n1 n0)
  (leave p3 slow0-0 n4 n2 n1)
  (leave p3 slow1-0 n4 n1 n0)
  (leave p3 slow1-0 n4 n2 n1)
  (leave p3 slow1-0 n5 n1 n0)
  (leave p3 slow1-0 n5 n2 n1)
  (leave p3 slow1-0 n6 n1 n0)
  (leave p3 slow1-0 n6 n2 n1)
  (leave p3 slow1-0 n7 n1 n0)
  (leave p3 slow1-0 n7 n2 n1)
  (leave p3 slow1-0 n8 n1 n0)
  (leave p3 slow1-0 n8 n2 n1)
  (leave p4 slow1-0 n4 n1 n0)
  (leave p4 slow1-0 n4 n2 n1)
  (leave p4 slow1-0 n5 n1 n0)
  (leave p4 slow1-0 n5 n2 n1)
  (leave p4 slow1-0 n6 n1 n0)
  (leave p4 slow1-0 n6 n2 n1)
  (leave p4 slow1-0 n7 n1 n0)
  (leave p4 slow1-0 n7 n2 n1)
  (leave p4 slow1-0 n8 n1 n0)
  (leave p4 slow1-0 n8 n2 n1)
  (leave p5 fast0 n0 n1 n0)
  (leave p5 fast0 n0 n2 n1)
  (leave p5 fast0 n0 n3 n2)
  (leave p5 fast0 n2 n1 n0)
  (leave p5 fast0 n2 n2 n1)
  (leave p5 fast0 n2 n3 n2)
  (leave p5 fast0 n4 n1 n0)
  (leave p5 fast0 n4 n2 n1)
  (leave p5 fast0 n4 n3 n2)
  (leave p5 fast0 n6 n1 n0)
  (leave p5 fast0 n6 n2 n1)
  (leave p5 fast0 n6 n3 n2)
  (leave p5 fast0 n8 n1 n0)
  (leave p5 fast0 n8 n2 n1)
  (leave p5 fast0 n8 n3 n2)
  (leave p5 fast1 n0 n1 n0)
  (leave p5 fast1 n0 n2 n1)
  (leave p5 fast1 n0 n3 n2)
  (leave p5 fast1 n2 n1 n0)
  (leave p5 fast1 n2 n2 n1)
  (leave p5 fast1 n2 n3 n2)
  (leave p5 fast1 n4 n1 n0)
  (leave p5 fast1 n4 n2 n1)
  (leave p5 fast1 n4 n3 n2)
  (leave p5 fast1 n6 n1 n0)
  (leave p5 fast1 n6 n2 n1)
  (leave p5 fast1 n6 n3 n2)
  (leave p5 fast1 n8 n1 n0)
  (leave p5 fast1 n8 n2 n1)
  (leave p5 fast1 n8 n3 n2)
  (leave p5 slow0-0 n0 n1 n0)
  (leave p5 slow0-0 n0 n2 n1)
  (leave p5 slow0-0 n1 n1 n0)
  (leave p5 slow0-0 n1 n2 n1)
  (leave p5 slow0-0 n2 n1 n0)
  (leave p5 slow0-0 n2 n2 n1)
  (leave p5 slow0-0 n3 n1 n0)
  (leave p5 slow0-0 n3 n2 n1)
  (leave p5 slow0-0 n4 n1 n0)
  (leave p5 slow0-0 n4 n2 n1)
  (leave p5 slow1-0 n4 n1 n0)
  (leave p5 slow1-0 n4 n2 n1)
  (leave p5 slow1-0 n5 n1 n0)
  (leave p5 slow1-0 n5 n2 n1)
  (leave p5 slow1-0 n6 n1 n0)
  (leave p5 slow1-0 n6 n2 n1)
  (leave p5 slow1-0 n7 n1 n0)
  (leave p5 slow1-0 n7 n2 n1)
  (leave p5 slow1-0 n8 n1 n0)
  (leave p5 slow1-0 n8 n2 n1)
  (leave p6 slow1-0 n4 n1 n0)
  (leave p6 slow1-0 n4 n2 n1)
  (leave p6 slow1-0 n5 n1 n0)
  (leave p6 slow1-0 n5 n2 n1)
  (leave p6 slow1-0 n6 n1 n0)
  (leave p6 slow1-0 n6 n2 n1)
  (leave p6 slow1-0 n7 n1 n0)
  (leave p6 slow1-0 n7 n2 n1)
  (leave p6 slow1-0 n8 n1 n0)
  (leave p6 slow1-0 n8 n2 n1)
  (leave p7 slow1-0 n4 n1 n0)
  (leave p7 slow1-0 n4 n2 n1)
  (leave p7 slow1-0 n5 n1 n0)
  (leave p7 slow1-0 n5 n2 n1)
  (leave p7 slow1-0 n6 n1 n0)
  (leave p7 slow1-0 n6 n2 n1)
  (leave p7 slow1-0 n7 n1 n0)
  (leave p7 slow1-0 n7 n2 n1)
  (leave p7 slow1-0 n8 n1 n0)
  (leave p7 slow1-0 n8 n2 n1)
  (leave p8 slow1-0 n4 n1 n0)
  (leave p8 slow1-0 n4 n2 n1)
  (leave p8 slow1-0 n5 n1 n0)
  (leave p8 slow1-0 n5 n2 n1)
  (leave p8 slow1-0 n6 n1 n0)
  (leave p8 slow1-0 n6 n2 n1)
  (leave p8 slow1-0 n7 n1 n0)
  (leave p8 slow1-0 n7 n2 n1)
  (leave p8 slow1-0 n8 n1 n0)
  (leave p8 slow1-0 n8 n2 n1)
  (leave p9 slow1-0 n4 n1 n0)
  (leave p9 slow1-0 n4 n2 n1)
  (leave p9 slow1-0 n5 n1 n0)
  (leave p9 slow1-0 n5 n2 n1)
  (leave p9 slow1-0 n6 n1 n0)
  (leave p9 slow1-0 n6 n2 n1)
  (leave p9 slow1-0 n7 n1 n0)
  (leave p9 slow1-0 n7 n2 n1)
  (leave p9 slow1-0 n8 n1 n0)
  (leave p9 slow1-0 n8 n2 n1)
