Symmetric facts:
 (made p13) (made p2)
 (made p14) (made p9)
 (made p21) (made p22) (made p23) (made p28)
 (made p4) (made p7)
 (not-made p13) (not-made p2)
 (not-made p14) (not-made p9)
 (not-made p21) (not-made p22) (not-made p23) (not-made p28)
 (not-made p4) (not-made p7)
 (shipped o1) (shipped o26)
 (shipped o10) (shipped o2)
 (shipped o15) (shipped o21) (shipped o6)
 (shipped o19) (shipped o23) (shipped o24) (shipped o7)
 (shipped o22) (shipped o9)
 (started o1) (started o26)
 (started o10) (started o2)
 (started o15) (started o21) (started o6)
 (started o19) (started o23) (started o24) (started o7)
 (started o22) (started o9)
 (waiting o1) (waiting o26)
 (waiting o10) (waiting o2)
 (waiting o15) (waiting o21) (waiting o6)
 (waiting o19) (waiting o23) (waiting o24) (waiting o7)
 (waiting o22) (waiting o9)
Symmetric ops:
 (make-product-p13) (make-product-p2)
 (make-product-p14) (make-product-p9)
 (make-product-p21) (make-product-p22) (make-product-p23) (make-product-p28)
 (make-product-p4) (make-product-p7)
 (ship-order-o1 n0 n1) (ship-order-o26 n0 n1)
 (ship-order-o1 n1 n2) (ship-order-o26 n1 n2)
 (ship-order-o1 n10 n11) (ship-order-o26 n10 n11)
 (ship-order-o1 n11 n12) (ship-order-o26 n11 n12)
 (ship-order-o1 n12 n13) (ship-order-o26 n12 n13)
 (ship-order-o1 n13 n14) (ship-order-o26 n13 n14)
 (ship-order-o1 n14 n15) (ship-order-o26 n14 n15)
 (ship-order-o1 n15 n16) (ship-order-o26 n15 n16)
 (ship-order-o1 n16 n17) (ship-order-o26 n16 n17)
 (ship-order-o1 n17 n18) (ship-order-o26 n17 n18)
 (ship-order-o1 n18 n19) (ship-order-o26 n18 n19)
 (ship-order-o1 n19 n20) (ship-order-o26 n19 n20)
 (ship-order-o1 n2 n3) (ship-order-o26 n2 n3)
 (ship-order-o1 n20 n21) (ship-order-o26 n20 n21)
 (ship-order-o1 n21 n22) (ship-order-o26 n21 n22)
 (ship-order-o1 n22 n23) (ship-order-o26 n22 n23)
 (ship-order-o1 n23 n24) (ship-order-o26 n23 n24)
 (ship-order-o1 n24 n25) (ship-order-o26 n24 n25)
 (ship-order-o1 n25 n26) (ship-order-o26 n25 n26)
 (ship-order-o1 n26 n27) (ship-order-o26 n26 n27)
 (ship-order-o1 n27 n28) (ship-order-o26 n27 n28)
 (ship-order-o1 n28 n29) (ship-order-o26 n28 n29)
 (ship-order-o1 n3 n4) (ship-order-o26 n3 n4)
 (ship-order-o1 n4 n5) (ship-order-o26 n4 n5)
 (ship-order-o1 n5 n6) (ship-order-o26 n5 n6)
 (ship-order-o1 n6 n7) (ship-order-o26 n6 n7)
 (ship-order-o1 n7 n8) (ship-order-o26 n7 n8)
 (ship-order-o1 n8 n9) (ship-order-o26 n8 n9)
 (ship-order-o1 n9 n10) (ship-order-o26 n9 n10)
 (ship-order-o10 n0 n1) (ship-order-o2 n0 n1)
 (ship-order-o10 n1 n2) (ship-order-o2 n1 n2)
 (ship-order-o10 n10 n11) (ship-order-o2 n10 n11)
 (ship-order-o10 n11 n12) (ship-order-o2 n11 n12)
 (ship-order-o10 n12 n13) (ship-order-o2 n12 n13)
 (ship-order-o10 n13 n14) (ship-order-o2 n13 n14)
 (ship-order-o10 n14 n15) (ship-order-o2 n14 n15)
 (ship-order-o10 n15 n16) (ship-order-o2 n15 n16)
 (ship-order-o10 n16 n17) (ship-order-o2 n16 n17)
 (ship-order-o10 n17 n18) (ship-order-o2 n17 n18)
 (ship-order-o10 n18 n19) (ship-order-o2 n18 n19)
 (ship-order-o10 n19 n20) (ship-order-o2 n19 n20)
 (ship-order-o10 n2 n3) (ship-order-o2 n2 n3)
 (ship-order-o10 n20 n21) (ship-order-o2 n20 n21)
 (ship-order-o10 n21 n22) (ship-order-o2 n21 n22)
 (ship-order-o10 n22 n23) (ship-order-o2 n22 n23)
 (ship-order-o10 n23 n24) (ship-order-o2 n23 n24)
 (ship-order-o10 n24 n25) (ship-order-o2 n24 n25)
 (ship-order-o10 n25 n26) (ship-order-o2 n25 n26)
 (ship-order-o10 n26 n27) (ship-order-o2 n26 n27)
 (ship-order-o10 n27 n28) (ship-order-o2 n27 n28)
 (ship-order-o10 n28 n29) (ship-order-o2 n28 n29)
 (ship-order-o10 n3 n4) (ship-order-o2 n3 n4)
 (ship-order-o10 n4 n5) (ship-order-o2 n4 n5)
 (ship-order-o10 n5 n6) (ship-order-o2 n5 n6)
 (ship-order-o10 n6 n7) (ship-order-o2 n6 n7)
 (ship-order-o10 n7 n8) (ship-order-o2 n7 n8)
 (ship-order-o10 n8 n9) (ship-order-o2 n8 n9)
 (ship-order-o10 n9 n10) (ship-order-o2 n9 n10)
 (ship-order-o15 n0 n1) (ship-order-o21 n0 n1) (ship-order-o6 n0 n1)
 (ship-order-o15 n1 n2) (ship-order-o21 n1 n2) (ship-order-o6 n1 n2)
 (ship-order-o15 n10 n11) (ship-order-o21 n10 n11) (ship-order-o6 n10 n11)
 (ship-order-o15 n11 n12) (ship-order-o21 n11 n12) (ship-order-o6 n11 n12)
 (ship-order-o15 n12 n13) (ship-order-o21 n12 n13) (ship-order-o6 n12 n13)
 (ship-order-o15 n13 n14) (ship-order-o21 n13 n14) (ship-order-o6 n13 n14)
 (ship-order-o15 n14 n15) (ship-order-o21 n14 n15) (ship-order-o6 n14 n15)
 (ship-order-o15 n15 n16) (ship-order-o21 n15 n16) (ship-order-o6 n15 n16)
 (ship-order-o15 n16 n17) (ship-order-o21 n16 n17) (ship-order-o6 n16 n17)
 (ship-order-o15 n17 n18) (ship-order-o21 n17 n18) (ship-order-o6 n17 n18)
 (ship-order-o15 n18 n19) (ship-order-o21 n18 n19) (ship-order-o6 n18 n19)
 (ship-order-o15 n19 n20) (ship-order-o21 n19 n20) (ship-order-o6 n19 n20)
 (ship-order-o15 n2 n3) (ship-order-o21 n2 n3) (ship-order-o6 n2 n3)
 (ship-order-o15 n20 n21) (ship-order-o21 n20 n21) (ship-order-o6 n20 n21)
 (ship-order-o15 n21 n22) (ship-order-o21 n21 n22) (ship-order-o6 n21 n22)
 (ship-order-o15 n22 n23) (ship-order-o21 n22 n23) (ship-order-o6 n22 n23)
 (ship-order-o15 n23 n24) (ship-order-o21 n23 n24) (ship-order-o6 n23 n24)
 (ship-order-o15 n24 n25) (ship-order-o21 n24 n25) (ship-order-o6 n24 n25)
 (ship-order-o15 n25 n26) (ship-order-o21 n25 n26) (ship-order-o6 n25 n26)
 (ship-order-o15 n26 n27) (ship-order-o21 n26 n27) (ship-order-o6 n26 n27)
 (ship-order-o15 n27 n28) (ship-order-o21 n27 n28) (ship-order-o6 n27 n28)
 (ship-order-o15 n28 n29) (ship-order-o21 n28 n29) (ship-order-o6 n28 n29)
 (ship-order-o15 n3 n4) (ship-order-o21 n3 n4) (ship-order-o6 n3 n4)
 (ship-order-o15 n4 n5) (ship-order-o21 n4 n5) (ship-order-o6 n4 n5)
 (ship-order-o15 n5 n6) (ship-order-o21 n5 n6) (ship-order-o6 n5 n6)
 (ship-order-o15 n6 n7) (ship-order-o21 n6 n7) (ship-order-o6 n6 n7)
 (ship-order-o15 n7 n8) (ship-order-o21 n7 n8) (ship-order-o6 n7 n8)
 (ship-order-o15 n8 n9) (ship-order-o21 n8 n9) (ship-order-o6 n8 n9)
 (ship-order-o15 n9 n10) (ship-order-o21 n9 n10) (ship-order-o6 n9 n10)
 (ship-order-o19 n0 n1) (ship-order-o23 n0 n1) (ship-order-o24 n0 n1) (ship-order-o7 n0 n1)
 (ship-order-o19 n1 n2) (ship-order-o23 n1 n2) (ship-order-o24 n1 n2) (ship-order-o7 n1 n2)
 (ship-order-o19 n10 n11) (ship-order-o23 n10 n11) (ship-order-o24 n10 n11) (ship-order-o7 n10 n11)
 (ship-order-o19 n11 n12) (ship-order-o23 n11 n12) (ship-order-o24 n11 n12) (ship-order-o7 n11 n12)
 (ship-order-o19 n12 n13) (ship-order-o23 n12 n13) (ship-order-o24 n12 n13) (ship-order-o7 n12 n13)
 (ship-order-o19 n13 n14) (ship-order-o23 n13 n14) (ship-order-o24 n13 n14) (ship-order-o7 n13 n14)
 (ship-order-o19 n14 n15) (ship-order-o23 n14 n15) (ship-order-o24 n14 n15) (ship-order-o7 n14 n15)
 (ship-order-o19 n15 n16) (ship-order-o23 n15 n16) (ship-order-o24 n15 n16) (ship-order-o7 n15 n16)
 (ship-order-o19 n16 n17) (ship-order-o23 n16 n17) (ship-order-o24 n16 n17) (ship-order-o7 n16 n17)
 (ship-order-o19 n17 n18) (ship-order-o23 n17 n18) (ship-order-o24 n17 n18) (ship-order-o7 n17 n18)
 (ship-order-o19 n18 n19) (ship-order-o23 n18 n19) (ship-order-o24 n18 n19) (ship-order-o7 n18 n19)
 (ship-order-o19 n19 n20) (ship-order-o23 n19 n20) (ship-order-o24 n19 n20) (ship-order-o7 n19 n20)
 (ship-order-o19 n2 n3) (ship-order-o23 n2 n3) (ship-order-o24 n2 n3) (ship-order-o7 n2 n3)
 (ship-order-o19 n20 n21) (ship-order-o23 n20 n21) (ship-order-o24 n20 n21) (ship-order-o7 n20 n21)
 (ship-order-o19 n21 n22) (ship-order-o23 n21 n22) (ship-order-o24 n21 n22) (ship-order-o7 n21 n22)
 (ship-order-o19 n22 n23) (ship-order-o23 n22 n23) (ship-order-o24 n22 n23) (ship-order-o7 n22 n23)
 (ship-order-o19 n23 n24) (ship-order-o23 n23 n24) (ship-order-o24 n23 n24) (ship-order-o7 n23 n24)
 (ship-order-o19 n24 n25) (ship-order-o23 n24 n25) (ship-order-o24 n24 n25) (ship-order-o7 n24 n25)
 (ship-order-o19 n25 n26) (ship-order-o23 n25 n26) (ship-order-o24 n25 n26) (ship-order-o7 n25 n26)
 (ship-order-o19 n26 n27) (ship-order-o23 n26 n27) (ship-order-o24 n26 n27) (ship-order-o7 n26 n27)
 (ship-order-o19 n27 n28) (ship-order-o23 n27 n28) (ship-order-o24 n27 n28) (ship-order-o7 n27 n28)
 (ship-order-o19 n28 n29) (ship-order-o23 n28 n29) (ship-order-o24 n28 n29) (ship-order-o7 n28 n29)
 (ship-order-o19 n3 n4) (ship-order-o23 n3 n4) (ship-order-o24 n3 n4) (ship-order-o7 n3 n4)
 (ship-order-o19 n4 n5) (ship-order-o23 n4 n5) (ship-order-o24 n4 n5) (ship-order-o7 n4 n5)
 (ship-order-o19 n5 n6) (ship-order-o23 n5 n6) (ship-order-o24 n5 n6) (ship-order-o7 n5 n6)
 (ship-order-o19 n6 n7) (ship-order-o23 n6 n7) (ship-order-o24 n6 n7) (ship-order-o7 n6 n7)
 (ship-order-o19 n7 n8) (ship-order-o23 n7 n8) (ship-order-o24 n7 n8) (ship-order-o7 n7 n8)
 (ship-order-o19 n8 n9) (ship-order-o23 n8 n9) (ship-order-o24 n8 n9) (ship-order-o7 n8 n9)
 (ship-order-o19 n9 n10) (ship-order-o23 n9 n10) (ship-order-o24 n9 n10) (ship-order-o7 n9 n10)
 (ship-order-o22 n0 n1) (ship-order-o9 n0 n1)
 (ship-order-o22 n1 n2) (ship-order-o9 n1 n2)
 (ship-order-o22 n10 n11) (ship-order-o9 n10 n11)
 (ship-order-o22 n11 n12) (ship-order-o9 n11 n12)
 (ship-order-o22 n12 n13) (ship-order-o9 n12 n13)
 (ship-order-o22 n13 n14) (ship-order-o9 n13 n14)
 (ship-order-o22 n14 n15) (ship-order-o9 n14 n15)
 (ship-order-o22 n15 n16) (ship-order-o9 n15 n16)
 (ship-order-o22 n16 n17) (ship-order-o9 n16 n17)
 (ship-order-o22 n17 n18) (ship-order-o9 n17 n18)
 (ship-order-o22 n18 n19) (ship-order-o9 n18 n19)
 (ship-order-o22 n19 n20) (ship-order-o9 n19 n20)
 (ship-order-o22 n2 n3) (ship-order-o9 n2 n3)
 (ship-order-o22 n20 n21) (ship-order-o9 n20 n21)
 (ship-order-o22 n21 n22) (ship-order-o9 n21 n22)
 (ship-order-o22 n22 n23) (ship-order-o9 n22 n23)
 (ship-order-o22 n23 n24) (ship-order-o9 n23 n24)
 (ship-order-o22 n24 n25) (ship-order-o9 n24 n25)
 (ship-order-o22 n25 n26) (ship-order-o9 n25 n26)
 (ship-order-o22 n26 n27) (ship-order-o9 n26 n27)
 (ship-order-o22 n27 n28) (ship-order-o9 n27 n28)
 (ship-order-o22 n28 n29) (ship-order-o9 n28 n29)
 (ship-order-o22 n3 n4) (ship-order-o9 n3 n4)
 (ship-order-o22 n4 n5) (ship-order-o9 n4 n5)
 (ship-order-o22 n5 n6) (ship-order-o9 n5 n6)
 (ship-order-o22 n6 n7) (ship-order-o9 n6 n7)
 (ship-order-o22 n7 n8) (ship-order-o9 n7 n8)
 (ship-order-o22 n8 n9) (ship-order-o9 n8 n9)
 (ship-order-o22 n9 n10) (ship-order-o9 n9 n10)
 (start-order o1 n1 n0) (start-order o26 n1 n0)
 (start-order o1 n10 n9) (start-order o26 n10 n9)
 (start-order o1 n11 n10) (start-order o26 n11 n10)
 (start-order o1 n12 n11) (start-order o26 n12 n11)
 (start-order o1 n13 n12) (start-order o26 n13 n12)
 (start-order o1 n14 n13) (start-order o26 n14 n13)
 (start-order o1 n15 n14) (start-order o26 n15 n14)
 (start-order o1 n16 n15) (start-order o26 n16 n15)
 (start-order o1 n17 n16) (start-order o26 n17 n16)
 (start-order o1 n18 n17) (start-order o26 n18 n17)
 (start-order o1 n19 n18) (start-order o26 n19 n18)
 (start-order o1 n2 n1) (start-order o26 n2 n1)
 (start-order o1 n20 n19) (start-order o26 n20 n19)
 (start-order o1 n21 n20) (start-order o26 n21 n20)
 (start-order o1 n22 n21) (start-order o26 n22 n21)
 (start-order o1 n23 n22) (start-order o26 n23 n22)
 (start-order o1 n24 n23) (start-order o26 n24 n23)
 (start-order o1 n25 n24) (start-order o26 n25 n24)
 (start-order o1 n26 n25) (start-order o26 n26 n25)
 (start-order o1 n27 n26) (start-order o26 n27 n26)
 (start-order o1 n28 n27) (start-order o26 n28 n27)
 (start-order o1 n29 n28) (start-order o26 n29 n28)
 (start-order o1 n3 n2) (start-order o26 n3 n2)
 (start-order o1 n4 n3) (start-order o26 n4 n3)
 (start-order o1 n5 n4) (start-order o26 n5 n4)
 (start-order o1 n6 n5) (start-order o26 n6 n5)
 (start-order o1 n7 n6) (start-order o26 n7 n6)
 (start-order o1 n8 n7) (start-order o26 n8 n7)
 (start-order o1 n9 n8) (start-order o26 n9 n8)
 (start-order o10 n1 n0) (start-order o2 n1 n0)
 (start-order o10 n10 n9) (start-order o2 n10 n9)
 (start-order o10 n11 n10) (start-order o2 n11 n10)
 (start-order o10 n12 n11) (start-order o2 n12 n11)
 (start-order o10 n13 n12) (start-order o2 n13 n12)
 (start-order o10 n14 n13) (start-order o2 n14 n13)
 (start-order o10 n15 n14) (start-order o2 n15 n14)
 (start-order o10 n16 n15) (start-order o2 n16 n15)
 (start-order o10 n17 n16) (start-order o2 n17 n16)
 (start-order o10 n18 n17) (start-order o2 n18 n17)
 (start-order o10 n19 n18) (start-order o2 n19 n18)
 (start-order o10 n2 n1) (start-order o2 n2 n1)
 (start-order o10 n20 n19) (start-order o2 n20 n19)
 (start-order o10 n21 n20) (start-order o2 n21 n20)
 (start-order o10 n22 n21) (start-order o2 n22 n21)
 (start-order o10 n23 n22) (start-order o2 n23 n22)
 (start-order o10 n24 n23) (start-order o2 n24 n23)
 (start-order o10 n25 n24) (start-order o2 n25 n24)
 (start-order o10 n26 n25) (start-order o2 n26 n25)
 (start-order o10 n27 n26) (start-order o2 n27 n26)
 (start-order o10 n28 n27) (start-order o2 n28 n27)
 (start-order o10 n29 n28) (start-order o2 n29 n28)
 (start-order o10 n3 n2) (start-order o2 n3 n2)
 (start-order o10 n4 n3) (start-order o2 n4 n3)
 (start-order o10 n5 n4) (start-order o2 n5 n4)
 (start-order o10 n6 n5) (start-order o2 n6 n5)
 (start-order o10 n7 n6) (start-order o2 n7 n6)
 (start-order o10 n8 n7) (start-order o2 n8 n7)
 (start-order o10 n9 n8) (start-order o2 n9 n8)
 (start-order o15 n1 n0) (start-order o21 n1 n0) (start-order o6 n1 n0)
 (start-order o15 n10 n9) (start-order o21 n10 n9) (start-order o6 n10 n9)
 (start-order o15 n11 n10) (start-order o21 n11 n10) (start-order o6 n11 n10)
 (start-order o15 n12 n11) (start-order o21 n12 n11) (start-order o6 n12 n11)
 (start-order o15 n13 n12) (start-order o21 n13 n12) (start-order o6 n13 n12)
 (start-order o15 n14 n13) (start-order o21 n14 n13) (start-order o6 n14 n13)
 (start-order o15 n15 n14) (start-order o21 n15 n14) (start-order o6 n15 n14)
 (start-order o15 n16 n15) (start-order o21 n16 n15) (start-order o6 n16 n15)
 (start-order o15 n17 n16) (start-order o21 n17 n16) (start-order o6 n17 n16)
 (start-order o15 n18 n17) (start-order o21 n18 n17) (start-order o6 n18 n17)
 (start-order o15 n19 n18) (start-order o21 n19 n18) (start-order o6 n19 n18)
 (start-order o15 n2 n1) (start-order o21 n2 n1) (start-order o6 n2 n1)
 (start-order o15 n20 n19) (start-order o21 n20 n19) (start-order o6 n20 n19)
 (start-order o15 n21 n20) (start-order o21 n21 n20) (start-order o6 n21 n20)
 (start-order o15 n22 n21) (start-order o21 n22 n21) (start-order o6 n22 n21)
 (start-order o15 n23 n22) (start-order o21 n23 n22) (start-order o6 n23 n22)
 (start-order o15 n24 n23) (start-order o21 n24 n23) (start-order o6 n24 n23)
 (start-order o15 n25 n24) (start-order o21 n25 n24) (start-order o6 n25 n24)
 (start-order o15 n26 n25) (start-order o21 n26 n25) (start-order o6 n26 n25)
 (start-order o15 n27 n26) (start-order o21 n27 n26) (start-order o6 n27 n26)
 (start-order o15 n28 n27) (start-order o21 n28 n27) (start-order o6 n28 n27)
 (start-order o15 n29 n28) (start-order o21 n29 n28) (start-order o6 n29 n28)
 (start-order o15 n3 n2) (start-order o21 n3 n2) (start-order o6 n3 n2)
 (start-order o15 n4 n3) (start-order o21 n4 n3) (start-order o6 n4 n3)
 (start-order o15 n5 n4) (start-order o21 n5 n4) (start-order o6 n5 n4)
 (start-order o15 n6 n5) (start-order o21 n6 n5) (start-order o6 n6 n5)
 (start-order o15 n7 n6) (start-order o21 n7 n6) (start-order o6 n7 n6)
 (start-order o15 n8 n7) (start-order o21 n8 n7) (start-order o6 n8 n7)
 (start-order o15 n9 n8) (start-order o21 n9 n8) (start-order o6 n9 n8)
 (start-order o19 n1 n0) (start-order o23 n1 n0) (start-order o24 n1 n0) (start-order o7 n1 n0)
 (start-order o19 n10 n9) (start-order o23 n10 n9) (start-order o24 n10 n9) (start-order o7 n10 n9)
 (start-order o19 n11 n10) (start-order o23 n11 n10) (start-order o24 n11 n10) (start-order o7 n11 n10)
 (start-order o19 n12 n11) (start-order o23 n12 n11) (start-order o24 n12 n11) (start-order o7 n12 n11)
 (start-order o19 n13 n12) (start-order o23 n13 n12) (start-order o24 n13 n12) (start-order o7 n13 n12)
 (start-order o19 n14 n13) (start-order o23 n14 n13) (start-order o24 n14 n13) (start-order o7 n14 n13)
 (start-order o19 n15 n14) (start-order o23 n15 n14) (start-order o24 n15 n14) (start-order o7 n15 n14)
 (start-order o19 n16 n15) (start-order o23 n16 n15) (start-order o24 n16 n15) (start-order o7 n16 n15)
 (start-order o19 n17 n16) (start-order o23 n17 n16) (start-order o24 n17 n16) (start-order o7 n17 n16)
 (start-order o19 n18 n17) (start-order o23 n18 n17) (start-order o24 n18 n17) (start-order o7 n18 n17)
 (start-order o19 n19 n18) (start-order o23 n19 n18) (start-order o24 n19 n18) (start-order o7 n19 n18)
 (start-order o19 n2 n1) (start-order o23 n2 n1) (start-order o24 n2 n1) (start-order o7 n2 n1)
 (start-order o19 n20 n19) (start-order o23 n20 n19) (start-order o24 n20 n19) (start-order o7 n20 n19)
 (start-order o19 n21 n20) (start-order o23 n21 n20) (start-order o24 n21 n20) (start-order o7 n21 n20)
 (start-order o19 n22 n21) (start-order o23 n22 n21) (start-order o24 n22 n21) (start-order o7 n22 n21)
 (start-order o19 n23 n22) (start-order o23 n23 n22) (start-order o24 n23 n22) (start-order o7 n23 n22)
 (start-order o19 n24 n23) (start-order o23 n24 n23) (start-order o24 n24 n23) (start-order o7 n24 n23)
 (start-order o19 n25 n24) (start-order o23 n25 n24) (start-order o24 n25 n24) (start-order o7 n25 n24)
 (start-order o19 n26 n25) (start-order o23 n26 n25) (start-order o24 n26 n25) (start-order o7 n26 n25)
 (start-order o19 n27 n26) (start-order o23 n27 n26) (start-order o24 n27 n26) (start-order o7 n27 n26)
 (start-order o19 n28 n27) (start-order o23 n28 n27) (start-order o24 n28 n27) (start-order o7 n28 n27)
 (start-order o19 n29 n28) (start-order o23 n29 n28) (start-order o24 n29 n28) (start-order o7 n29 n28)
 (start-order o19 n3 n2) (start-order o23 n3 n2) (start-order o24 n3 n2) (start-order o7 n3 n2)
 (start-order o19 n4 n3) (start-order o23 n4 n3) (start-order o24 n4 n3) (start-order o7 n4 n3)
 (start-order o19 n5 n4) (start-order o23 n5 n4) (start-order o24 n5 n4) (start-order o7 n5 n4)
 (start-order o19 n6 n5) (start-order o23 n6 n5) (start-order o24 n6 n5) (start-order o7 n6 n5)
 (start-order o19 n7 n6) (start-order o23 n7 n6) (start-order o24 n7 n6) (start-order o7 n7 n6)
 (start-order o19 n8 n7) (start-order o23 n8 n7) (start-order o24 n8 n7) (start-order o7 n8 n7)
 (start-order o19 n9 n8) (start-order o23 n9 n8) (start-order o24 n9 n8) (start-order o7 n9 n8)
 (start-order o22 n1 n0) (start-order o9 n1 n0)
 (start-order o22 n10 n9) (start-order o9 n10 n9)
 (start-order o22 n11 n10) (start-order o9 n11 n10)
 (start-order o22 n12 n11) (start-order o9 n12 n11)
 (start-order o22 n13 n12) (start-order o9 n13 n12)
 (start-order o22 n14 n13) (start-order o9 n14 n13)
 (start-order o22 n15 n14) (start-order o9 n15 n14)
 (start-order o22 n16 n15) (start-order o9 n16 n15)
 (start-order o22 n17 n16) (start-order o9 n17 n16)
 (start-order o22 n18 n17) (start-order o9 n18 n17)
 (start-order o22 n19 n18) (start-order o9 n19 n18)
 (start-order o22 n2 n1) (start-order o9 n2 n1)
 (start-order o22 n20 n19) (start-order o9 n20 n19)
 (start-order o22 n21 n20) (start-order o9 n21 n20)
 (start-order o22 n22 n21) (start-order o9 n22 n21)
 (start-order o22 n23 n22) (start-order o9 n23 n22)
 (start-order o22 n24 n23) (start-order o9 n24 n23)
 (start-order o22 n25 n24) (start-order o9 n25 n24)
 (start-order o22 n26 n25) (start-order o9 n26 n25)
 (start-order o22 n27 n26) (start-order o9 n27 n26)
 (start-order o22 n28 n27) (start-order o9 n28 n27)
 (start-order o22 n29 n28) (start-order o9 n29 n28)
 (start-order o22 n3 n2) (start-order o9 n3 n2)
 (start-order o22 n4 n3) (start-order o9 n4 n3)
 (start-order o22 n5 n4) (start-order o9 n5 n4)
 (start-order o22 n6 n5) (start-order o9 n6 n5)
 (start-order o22 n7 n6) (start-order o9 n7 n6)
 (start-order o22 n8 n7) (start-order o9 n8 n7)
 (start-order o22 n9 n8) (start-order o9 n9 n8)
