Non-Maximal 26:
 (walked couple0 place0):fam
 (walked couple1 place0):fam
 (down tent0) (up tent0):=1:fam
 (down tent1) (up tent1):=1:fam
 (walked couple0 place0) (walked couple0 place1):fam
 (walked couple1 place0) (walked couple1 place1):fam
 (walked couple0 place0) (walked couple0 place1) (walked couple0 place2):fam
 (walked couple1 place0) (walked couple1 place1) (walked couple1 place2):fam
 (walked couple0 place0) (walked couple0 place1) (walked couple0 place2) (walked couple0 place3):fam
 (walked couple1 place0) (walked couple1 place1) (walked couple1 place2) (walked couple1 place3):fam
 (walked couple0 place0) (walked couple0 place1) (walked couple0 place2) (walked couple0 place3) (walked couple0 place4):fam
 (walked couple1 place0) (walked couple1 place1) (walked couple1 place2) (walked couple1 place3) (walked couple1 place4):fam
 (walked couple0 place0) (walked couple0 place1) (walked couple0 place2) (walked couple0 place3) (walked couple0 place4) (walked couple0 place5):fam
 (walked couple1 place0) (walked couple1 place1) (walked couple1 place2) (walked couple1 place3) (walked couple1 place4) (walked couple1 place5):fam
 (at_car car0 place0) (at_car car0 place1) (at_car car0 place2) (at_car car0 place3) (at_car car0 place4) (at_car car0 place5) (at_car car0 place6):=1:fam
 (at_car car1 place0) (at_car car1 place1) (at_car car1 place2) (at_car car1 place3) (at_car car1 place4) (at_car car1 place5) (at_car car1 place6):=1:fam
 (at_car car2 place0) (at_car car2 place1) (at_car car2 place2) (at_car car2 place3) (at_car car2 place4) (at_car car2 place5) (at_car car2 place6):=1:fam
 (at_car car3 place0) (at_car car3 place1) (at_car car3 place2) (at_car car3 place3) (at_car car3 place4) (at_car car3 place5) (at_car car3 place6):=1:fam
 (at_person girl0 place0) (at_person girl0 place1) (at_person girl0 place2) (at_person girl0 place3) (at_person girl0 place4) (at_person girl0 place5) (at_person girl0 place6):=1:fam
 (at_person girl1 place0) (at_person girl1 place1) (at_person girl1 place2) (at_person girl1 place3) (at_person girl1 place4) (at_person girl1 place5) (at_person girl1 place6):=1:fam
 (at_person guy0 place0) (at_person guy0 place1) (at_person guy0 place2) (at_person guy0 place3) (at_person guy0 place4) (at_person guy0 place5) (at_person guy0 place6):=1:fam
 (at_person guy1 place0) (at_person guy1 place1) (at_person guy1 place2) (at_person guy1 place3) (at_person guy1 place4) (at_person guy1 place5) (at_person guy1 place6):=1:fam
 (at_tent tent0 place0) (at_tent tent0 place1) (at_tent tent0 place2) (at_tent tent0 place3) (at_tent tent0 place4) (at_tent tent0 place5) (at_tent tent0 place6):=1:fam
 (at_tent tent1 place0) (at_tent tent1 place1) (at_tent tent1 place2) (at_tent tent1 place3) (at_tent tent1 place4) (at_tent tent1 place5) (at_tent tent1 place6):=1:fam
 (walked couple0 place0) (walked couple0 place1) (walked couple0 place2) (walked couple0 place3) (walked couple0 place4) (walked couple0 place5) (walked couple0 place6):=1:fam:G
 (walked couple1 place0) (walked couple1 place1) (walked couple1 place2) (walked couple1 place3) (walked couple1 place4) (walked couple1 place5) (walked couple1 place6):=1:fam:G


Mutex Group Cover Number: 14
