Domain: airport_fixed_structure
Problem: problem_x
Require: ff
Type[5]:
    [0]: object, parent: -1
    [1]: airplane, parent: 0
    [2]: segment, parent: 0
    [3]: direction, parent: 0
    [4]: airplanetype, parent: 0
Obj-by-Type:
    [0]: 0 1 2 3 4 5 6 7 8 9 10 11 12 13 14 15 16 17 18 19 20 21 22
    [1]: 22
    [2]: 5 6 7 8 9 10 11 12 13 14 15 16 17 18 19 20 21
    [3]: 0 1
    [4]: 2 3 4
Obj[23]:
    [0]: north, type: 3, is-constant: 1, is-private: 0, owner: -1, is-agent: 0
    [1]: south, type: 3, is-constant: 1, is-private: 0, owner: -1, is-agent: 0
    [2]: light, type: 4, is-constant: 1, is-private: 0, owner: -1, is-agent: 0
    [3]: medium, type: 4, is-constant: 1, is-private: 0, owner: -1, is-agent: 0
    [4]: heavy, type: 4, is-constant: 1, is-private: 0, owner: -1, is-agent: 0
    [5]: seg_pp_0_60, type: 2, is-constant: 1, is-private: 0, owner: -1, is-agent: 0
    [6]: seg_ppdoor_0_40, type: 2, is-constant: 1, is-private: 0, owner: -1, is-agent: 0
    [7]: seg_tww1_0_200, type: 2, is-constant: 1, is-private: 0, owner: -1, is-agent: 0
    [8]: seg_twe1_0_200, type: 2, is-constant: 1, is-private: 0, owner: -1, is-agent: 0
    [9]: seg_tww2_0_50, type: 2, is-constant: 1, is-private: 0, owner: -1, is-agent: 0
    [10]: seg_tww3_0_50, type: 2, is-constant: 1, is-private: 0, owner: -1, is-agent: 0
    [11]: seg_tww4_0_50, type: 2, is-constant: 1, is-private: 0, owner: -1, is-agent: 0
    [12]: seg_rww_0_50, type: 2, is-constant: 1, is-private: 0, owner: -1, is-agent: 0
    [13]: seg_rwtw1_0_10, type: 2, is-constant: 1, is-private: 0, owner: -1, is-agent: 0
    [14]: seg_rw_0_400, type: 2, is-constant: 1, is-private: 0, owner: -1, is-agent: 0
    [15]: seg_rwe_0_50, type: 2, is-constant: 1, is-private: 0, owner: -1, is-agent: 0
    [16]: seg_twe4_0_50, type: 2, is-constant: 1, is-private: 0, owner: -1, is-agent: 0
    [17]: seg_rwte1_0_10, type: 2, is-constant: 1, is-private: 0, owner: -1, is-agent: 0
    [18]: seg_twe3_0_50, type: 2, is-constant: 1, is-private: 0, owner: -1, is-agent: 0
    [19]: seg_twe2_0_50, type: 2, is-constant: 1, is-private: 0, owner: -1, is-agent: 0
    [20]: seg_rwte2_0_10, type: 2, is-constant: 1, is-private: 0, owner: -1, is-agent: 0
    [21]: seg_rwtw2_0_10, type: 2, is-constant: 1, is-private: 0, owner: -1, is-agent: 0
    [22]: airplane_cfbeg, type: 1, is-constant: 1, is-private: 0, owner: -1, is-agent: 0
Predicate[13]:
    =: 0 0 :: is-private: 0, owner-param: -1, read: 0, write: 0
    has-type: 1 4 :: is-private: 0, owner-param: -1, read: 1, write: 0
    at-segment: 1 2 :: is-private: 0, owner-param: -1, read: 1, write: 1
    facing: 1 3 :: is-private: 0, owner-param: -1, read: 1, write: 1
    occupied: 2 :: is-private: 0, owner-param: -1, read: 0, write: 1
    not_occupied: 2 :: is-private: 0, owner-param: -1, read: 1, write: 1
    blocked: 2 1 :: is-private: 0, owner-param: -1, read: 0, write: 1
    not_blocked: 2 1 :: is-private: 0, owner-param: -1, read: 1, write: 1
    is-start-runway: 2 3 :: is-private: 0, owner-param: -1, read: 0, write: 0
    airborne: 1 2 :: is-private: 0, owner-param: -1, read: 0, write: 1
    is-moving: 1 :: is-private: 0, owner-param: -1, read: 1, write: 1
    is-pushing: 1 :: is-private: 0, owner-param: -1, read: 1, write: 1
    is-parked: 1 2 :: is-private: 0, owner-param: -1, read: 0, write: 1
Function[0]:
Action[39]:
    move_seg_pp_0_60_seg_ppdoor_0_40_north_north_medium: ?a:1
        pre: (and (R:has-type ?a medium) (RW:is-moving ?a) (RW:facing ?a north) (RW:at-segment ?a seg_pp_0_60) (RW:not_occupied seg_ppdoor_0_40) (RW:not_blocked seg_ppdoor_0_40 airplane_cfbeg))
        eff: (and (N:W:occupied seg_pp_0_60) (RW:not_occupied seg_pp_0_60) (N:RW:at-segment ?a seg_pp_0_60) (W:occupied seg_ppdoor_0_40) (N:RW:not_occupied seg_ppdoor_0_40) (W:blocked seg_ppdoor_0_40 ?a) (N:RW:not_blocked seg_ppdoor_0_40 ?a) (RW:at-segment ?a seg_ppdoor_0_40))
    move_seg_ppdoor_0_40_seg_tww1_0_200_north_south_medium: ?a:1
        pre: (and (R:has-type ?a medium) (RW:is-moving ?a) (RW:facing ?a north) (RW:at-segment ?a seg_ppdoor_0_40) (RW:not_occupied seg_tww1_0_200) (RW:not_blocked seg_tww1_0_200 airplane_cfbeg) (RW:not_occupied seg_twe1_0_200))
        eff: (and (N:W:occupied seg_ppdoor_0_40) (RW:not_occupied seg_ppdoor_0_40) (N:RW:at-segment ?a seg_ppdoor_0_40) (W:occupied seg_tww1_0_200) (N:RW:not_occupied seg_tww1_0_200) (W:blocked seg_tww1_0_200 ?a) (N:RW:not_blocked seg_tww1_0_200 ?a) (RW:at-segment ?a seg_tww1_0_200) (N:RW:facing ?a north) (RW:facing ?a south) (N:W:blocked seg_pp_0_60 ?a) (RW:not_blocked seg_pp_0_60 ?a) (W:blocked seg_twe1_0_200 ?a) (N:RW:not_blocked seg_twe1_0_200 ?a))
    move_seg_tww1_0_200_seg_twe1_0_200_north_south_medium: ?a:1
        pre: (and (R:has-type ?a medium) (RW:is-moving ?a) (RW:facing ?a north) (RW:at-segment ?a seg_tww1_0_200) (RW:not_occupied seg_twe1_0_200) (RW:not_blocked seg_twe1_0_200 airplane_cfbeg) (RW:not_occupied seg_ppdoor_0_40))
        eff: (and (N:W:occupied seg_tww1_0_200) (RW:not_occupied seg_tww1_0_200) (N:RW:at-segment ?a seg_tww1_0_200) (W:occupied seg_twe1_0_200) (N:RW:not_occupied seg_twe1_0_200) (W:blocked seg_twe1_0_200 ?a) (N:RW:not_blocked seg_twe1_0_200 ?a) (RW:at-segment ?a seg_twe1_0_200) (N:RW:facing ?a north) (RW:facing ?a south) (N:W:blocked seg_tww2_0_50 ?a) (RW:not_blocked seg_tww2_0_50 ?a) (W:blocked seg_ppdoor_0_40 ?a) (N:RW:not_blocked seg_ppdoor_0_40 ?a))
    move_seg_twe1_0_200_seg_twe2_0_50_south_south_medium: ?a:1
        pre: (and (R:has-type ?a medium) (RW:is-moving ?a) (RW:facing ?a south) (RW:at-segment ?a seg_twe1_0_200) (RW:not_occupied seg_twe2_0_50) (RW:not_blocked seg_twe2_0_50 airplane_cfbeg))
        eff: (and (N:W:occupied seg_twe1_0_200) (RW:not_occupied seg_twe1_0_200) (N:RW:at-segment ?a seg_twe1_0_200) (W:occupied seg_twe2_0_50) (N:RW:not_occupied seg_twe2_0_50) (W:blocked seg_twe2_0_50 ?a) (N:RW:not_blocked seg_twe2_0_50 ?a) (RW:at-segment ?a seg_twe2_0_50) (N:W:blocked seg_ppdoor_0_40 ?a) (RW:not_blocked seg_ppdoor_0_40 ?a) (N:W:blocked seg_tww1_0_200 ?a) (RW:not_blocked seg_tww1_0_200 ?a))
    move_seg_twe2_0_50_seg_twe3_0_50_south_south_medium: ?a:1
        pre: (and (R:has-type ?a medium) (RW:is-moving ?a) (RW:facing ?a south) (RW:at-segment ?a seg_twe2_0_50) (RW:not_occupied seg_twe3_0_50) (RW:not_blocked seg_twe3_0_50 airplane_cfbeg))
        eff: (and (N:W:occupied seg_twe2_0_50) (RW:not_occupied seg_twe2_0_50) (N:RW:at-segment ?a seg_twe2_0_50) (W:occupied seg_twe3_0_50) (N:RW:not_occupied seg_twe3_0_50) (W:blocked seg_twe3_0_50 ?a) (N:RW:not_blocked seg_twe3_0_50 ?a) (RW:at-segment ?a seg_twe3_0_50) (N:W:blocked seg_twe1_0_200 ?a) (RW:not_blocked seg_twe1_0_200 ?a))
    move_seg_twe3_0_50_seg_twe4_0_50_south_south_medium: ?a:1
        pre: (and (R:has-type ?a medium) (RW:is-moving ?a) (RW:facing ?a south) (RW:at-segment ?a seg_twe3_0_50) (RW:not_occupied seg_twe4_0_50) (RW:not_blocked seg_twe4_0_50 airplane_cfbeg))
        eff: (and (N:W:occupied seg_twe3_0_50) (RW:not_occupied seg_twe3_0_50) (N:RW:at-segment ?a seg_twe3_0_50) (W:occupied seg_twe4_0_50) (N:RW:not_occupied seg_twe4_0_50) (W:blocked seg_twe4_0_50 ?a) (N:RW:not_blocked seg_twe4_0_50 ?a) (RW:at-segment ?a seg_twe4_0_50) (N:W:blocked seg_twe2_0_50 ?a) (RW:not_blocked seg_twe2_0_50 ?a))
    move_seg_twe4_0_50_seg_rwe_0_50_south_south_medium: ?a:1
        pre: (and (R:has-type ?a medium) (RW:is-moving ?a) (RW:facing ?a south) (RW:at-segment ?a seg_twe4_0_50) (RW:not_occupied seg_rwe_0_50) (RW:not_blocked seg_rwe_0_50 airplane_cfbeg))
        eff: (and (N:W:occupied seg_twe4_0_50) (RW:not_occupied seg_twe4_0_50) (N:RW:at-segment ?a seg_twe4_0_50) (W:occupied seg_rwe_0_50) (N:RW:not_occupied seg_rwe_0_50) (W:blocked seg_rwe_0_50 ?a) (N:RW:not_blocked seg_rwe_0_50 ?a) (RW:at-segment ?a seg_rwe_0_50) (N:W:blocked seg_twe3_0_50 ?a) (RW:not_blocked seg_twe3_0_50 ?a))
    move_seg_rwe_0_50_seg_rw_0_400_south_south_medium: ?a:1
        pre: (and (R:has-type ?a medium) (RW:is-moving ?a) (RW:facing ?a south) (RW:at-segment ?a seg_rwe_0_50) (RW:not_occupied seg_rw_0_400) (RW:not_blocked seg_rw_0_400 airplane_cfbeg))
        eff: (and (N:W:occupied seg_rwe_0_50) (RW:not_occupied seg_rwe_0_50) (N:RW:at-segment ?a seg_rwe_0_50) (W:occupied seg_rw_0_400) (N:RW:not_occupied seg_rw_0_400) (W:blocked seg_rw_0_400 ?a) (N:RW:not_blocked seg_rw_0_400 ?a) (RW:at-segment ?a seg_rw_0_400) (N:W:blocked seg_twe4_0_50 ?a) (RW:not_blocked seg_twe4_0_50 ?a))
    move_seg_rw_0_400_seg_rww_0_50_south_south_medium: ?a:1
        pre: (and (R:has-type ?a medium) (RW:is-moving ?a) (RW:facing ?a south) (RW:at-segment ?a seg_rw_0_400) (RW:not_occupied seg_rww_0_50) (RW:not_blocked seg_rww_0_50 airplane_cfbeg) (RW:not_occupied seg_rwe_0_50))
        eff: (and (N:W:occupied seg_rw_0_400) (RW:not_occupied seg_rw_0_400) (N:RW:at-segment ?a seg_rw_0_400) (W:occupied seg_rww_0_50) (N:RW:not_occupied seg_rww_0_50) (W:blocked seg_rww_0_50 ?a) (N:RW:not_blocked seg_rww_0_50 ?a) (RW:at-segment ?a seg_rww_0_50))
    move_seg_rww_0_50_seg_tww4_0_50_south_north_medium: ?a:1
        pre: (and (R:has-type ?a medium) (RW:is-moving ?a) (RW:facing ?a south) (RW:at-segment ?a seg_rww_0_50) (RW:not_occupied seg_tww4_0_50) (RW:not_blocked seg_tww4_0_50 airplane_cfbeg) (RW:not_occupied seg_rwtw1_0_10))
        eff: (and (N:W:occupied seg_rww_0_50) (RW:not_occupied seg_rww_0_50) (N:RW:at-segment ?a seg_rww_0_50) (W:occupied seg_tww4_0_50) (N:RW:not_occupied seg_tww4_0_50) (W:blocked seg_tww4_0_50 ?a) (N:RW:not_blocked seg_tww4_0_50 ?a) (RW:at-segment ?a seg_tww4_0_50) (N:RW:facing ?a south) (RW:facing ?a north) (N:W:blocked seg_rwe_0_50 ?a) (RW:not_blocked seg_rwe_0_50 ?a) (N:W:blocked seg_rw_0_400 ?a) (RW:not_blocked seg_rw_0_400 ?a) (W:blocked seg_rwtw1_0_10 ?a) (N:RW:not_blocked seg_rwtw1_0_10 ?a))
    move_seg_tww4_0_50_seg_tww3_0_50_north_north_medium: ?a:1
        pre: (and (R:has-type ?a medium) (RW:is-moving ?a) (RW:facing ?a north) (RW:at-segment ?a seg_tww4_0_50) (RW:not_occupied seg_tww3_0_50) (RW:not_blocked seg_tww3_0_50 airplane_cfbeg))
        eff: (and (N:W:occupied seg_tww4_0_50) (RW:not_occupied seg_tww4_0_50) (N:RW:at-segment ?a seg_tww4_0_50) (W:occupied seg_tww3_0_50) (N:RW:not_occupied seg_tww3_0_50) (W:blocked seg_tww3_0_50 ?a) (N:RW:not_blocked seg_tww3_0_50 ?a) (RW:at-segment ?a seg_tww3_0_50) (N:W:blocked seg_rww_0_50 ?a) (RW:not_blocked seg_rww_0_50 ?a) (N:W:blocked seg_rwtw1_0_10 ?a) (RW:not_blocked seg_rwtw1_0_10 ?a))
    move_seg_tww3_0_50_seg_tww2_0_50_north_north_medium: ?a:1
        pre: (and (R:has-type ?a medium) (RW:is-moving ?a) (RW:facing ?a north) (RW:at-segment ?a seg_tww3_0_50) (RW:not_occupied seg_tww2_0_50) (RW:not_blocked seg_tww2_0_50 airplane_cfbeg))
        eff: (and (N:W:occupied seg_tww3_0_50) (RW:not_occupied seg_tww3_0_50) (N:RW:at-segment ?a seg_tww3_0_50) (W:occupied seg_tww2_0_50) (N:RW:not_occupied seg_tww2_0_50) (W:blocked seg_tww2_0_50 ?a) (N:RW:not_blocked seg_tww2_0_50 ?a) (RW:at-segment ?a seg_tww2_0_50) (N:W:blocked seg_tww4_0_50 ?a) (RW:not_blocked seg_tww4_0_50 ?a))
    move_seg_tww2_0_50_seg_tww1_0_200_north_north_medium: ?a:1
        pre: (and (R:has-type ?a medium) (RW:is-moving ?a) (RW:facing ?a north) (RW:at-segment ?a seg_tww2_0_50) (RW:not_occupied seg_tww1_0_200) (RW:not_blocked seg_tww1_0_200 airplane_cfbeg))
        eff: (and (N:W:occupied seg_tww2_0_50) (RW:not_occupied seg_tww2_0_50) (N:RW:at-segment ?a seg_tww2_0_50) (W:occupied seg_tww1_0_200) (N:RW:not_occupied seg_tww1_0_200) (W:blocked seg_tww1_0_200 ?a) (N:RW:not_blocked seg_tww1_0_200 ?a) (RW:at-segment ?a seg_tww1_0_200) (N:W:blocked seg_tww3_0_50 ?a) (RW:not_blocked seg_tww3_0_50 ?a))
    move_seg_tww1_0_200_seg_ppdoor_0_40_north_south_medium: ?a:1
        pre: (and (R:has-type ?a medium) (RW:is-moving ?a) (RW:facing ?a north) (RW:at-segment ?a seg_tww1_0_200) (RW:not_occupied seg_ppdoor_0_40) (RW:not_blocked seg_ppdoor_0_40 airplane_cfbeg) (RW:not_occupied seg_twe1_0_200))
        eff: (and (N:W:occupied seg_tww1_0_200) (RW:not_occupied seg_tww1_0_200) (N:RW:at-segment ?a seg_tww1_0_200) (W:occupied seg_ppdoor_0_40) (N:RW:not_occupied seg_ppdoor_0_40) (W:blocked seg_ppdoor_0_40 ?a) (N:RW:not_blocked seg_ppdoor_0_40 ?a) (RW:at-segment ?a seg_ppdoor_0_40) (N:RW:facing ?a north) (RW:facing ?a south) (N:W:blocked seg_tww2_0_50 ?a) (RW:not_blocked seg_tww2_0_50 ?a) (W:blocked seg_twe1_0_200 ?a) (N:RW:not_blocked seg_twe1_0_200 ?a))
    move_seg_ppdoor_0_40_seg_pp_0_60_south_south_medium: ?a:1
        pre: (and (R:has-type ?a medium) (RW:is-moving ?a) (RW:facing ?a south) (RW:at-segment ?a seg_ppdoor_0_40) (RW:not_occupied seg_pp_0_60) (RW:not_blocked seg_pp_0_60 airplane_cfbeg))
        eff: (and (N:W:occupied seg_ppdoor_0_40) (RW:not_occupied seg_ppdoor_0_40) (N:RW:at-segment ?a seg_ppdoor_0_40) (W:occupied seg_pp_0_60) (N:RW:not_occupied seg_pp_0_60) (W:blocked seg_pp_0_60 ?a) (N:RW:not_blocked seg_pp_0_60 ?a) (RW:at-segment ?a seg_pp_0_60) (N:W:blocked seg_tww1_0_200 ?a) (RW:not_blocked seg_tww1_0_200 ?a) (N:W:blocked seg_twe1_0_200 ?a) (RW:not_blocked seg_twe1_0_200 ?a))
    takeoff_seg_rww_0_50_north: ?a:1
        pre: (and (RW:at-segment ?a seg_rww_0_50) (RW:facing ?a north) (RW:is-moving ?a))
        eff: (and (N:W:occupied seg_rww_0_50) (RW:not_occupied seg_rww_0_50) (N:W:blocked seg_rww_0_50 ?a) (RW:not_blocked seg_rww_0_50 ?a) (N:RW:at-segment ?a seg_rww_0_50) (W:airborne ?a seg_rww_0_50) (N:RW:is-moving ?a) (N:W:blocked seg_tww4_0_50 ?a) (RW:not_blocked seg_tww4_0_50 ?a))
    takeoff_seg_rwe_0_50_south: ?a:1
        pre: (and (RW:at-segment ?a seg_rwe_0_50) (RW:facing ?a south) (RW:is-moving ?a))
        eff: (and (N:W:occupied seg_rwe_0_50) (RW:not_occupied seg_rwe_0_50) (N:W:blocked seg_rwe_0_50 ?a) (RW:not_blocked seg_rwe_0_50 ?a) (N:RW:at-segment ?a seg_rwe_0_50) (W:airborne ?a seg_rwe_0_50) (N:RW:is-moving ?a) (N:W:blocked seg_twe4_0_50 ?a) (RW:not_blocked seg_twe4_0_50 ?a))
    park_seg_pp_0_60_north: ?a:1
        pre: (and (RW:at-segment ?a seg_pp_0_60) (RW:facing ?a north) (RW:is-moving ?a))
        eff: (and (W:is-parked ?a seg_pp_0_60) (N:RW:is-moving ?a))
    park_seg_pp_0_60_south: ?a:1
        pre: (and (RW:at-segment ?a seg_pp_0_60) (RW:facing ?a south) (RW:is-moving ?a))
        eff: (and (W:is-parked ?a seg_pp_0_60) (N:RW:is-moving ?a) (N:W:blocked seg_ppdoor_0_40 ?a) (RW:not_blocked seg_ppdoor_0_40 ?a))
    startup_seg_pp_0_60_north_medium: ?a:1
        pre: (and (RW:is-pushing ?a) (RW:at-segment ?a seg_pp_0_60))
        eff: (and (N:RW:is-pushing ?a) (RW:is-moving ?a))
    startup_seg_pp_0_60_south_medium: ?a:1
        pre: (and (RW:is-pushing ?a) (RW:at-segment ?a seg_pp_0_60) (RW:not_occupied seg_ppdoor_0_40))
        eff: (and (N:RW:is-pushing ?a) (RW:is-moving ?a) (W:blocked seg_ppdoor_0_40 ?a) (N:RW:not_blocked seg_ppdoor_0_40 ?a))
    startup_seg_ppdoor_0_40_north_medium: ?a:1
        pre: (and (RW:is-pushing ?a) (RW:at-segment ?a seg_ppdoor_0_40) (RW:not_occupied seg_pp_0_60))
        eff: (and (N:RW:is-pushing ?a) (RW:is-moving ?a) (W:blocked seg_pp_0_60 ?a) (N:RW:not_blocked seg_pp_0_60 ?a))
    startup_seg_ppdoor_0_40_south_medium: ?a:1
        pre: (and (RW:is-pushing ?a) (RW:at-segment ?a seg_ppdoor_0_40) (RW:not_occupied seg_tww1_0_200) (RW:not_occupied seg_twe1_0_200))
        eff: (and (N:RW:is-pushing ?a) (RW:is-moving ?a) (W:blocked seg_tww1_0_200 ?a) (N:RW:not_blocked seg_tww1_0_200 ?a) (W:blocked seg_twe1_0_200 ?a) (N:RW:not_blocked seg_twe1_0_200 ?a))
    startup_seg_tww1_0_200_north_medium: ?a:1
        pre: (and (RW:is-pushing ?a) (RW:at-segment ?a seg_tww1_0_200) (RW:not_occupied seg_tww2_0_50))
        eff: (and (N:RW:is-pushing ?a) (RW:is-moving ?a) (W:blocked seg_tww2_0_50 ?a) (N:RW:not_blocked seg_tww2_0_50 ?a))
    startup_seg_tww1_0_200_south_medium: ?a:1
        pre: (and (RW:is-pushing ?a) (RW:at-segment ?a seg_tww1_0_200) (RW:not_occupied seg_ppdoor_0_40) (RW:not_occupied seg_twe1_0_200))
        eff: (and (N:RW:is-pushing ?a) (RW:is-moving ?a) (W:blocked seg_ppdoor_0_40 ?a) (N:RW:not_blocked seg_ppdoor_0_40 ?a) (W:blocked seg_twe1_0_200 ?a) (N:RW:not_blocked seg_twe1_0_200 ?a))
    startup_seg_twe1_0_200_north_medium: ?a:1
        pre: (and (RW:is-pushing ?a) (RW:at-segment ?a seg_twe1_0_200) (RW:not_occupied seg_twe2_0_50))
        eff: (and (N:RW:is-pushing ?a) (RW:is-moving ?a) (W:blocked seg_twe2_0_50 ?a) (N:RW:not_blocked seg_twe2_0_50 ?a))
    startup_seg_twe1_0_200_south_medium: ?a:1
        pre: (and (RW:is-pushing ?a) (RW:at-segment ?a seg_twe1_0_200) (RW:not_occupied seg_ppdoor_0_40) (RW:not_occupied seg_tww1_0_200))
        eff: (and (N:RW:is-pushing ?a) (RW:is-moving ?a) (W:blocked seg_ppdoor_0_40 ?a) (N:RW:not_blocked seg_ppdoor_0_40 ?a) (W:blocked seg_tww1_0_200 ?a) (N:RW:not_blocked seg_tww1_0_200 ?a))
    startup_seg_tww2_0_50_north_medium: ?a:1
        pre: (and (RW:is-pushing ?a) (RW:at-segment ?a seg_tww2_0_50) (RW:not_occupied seg_tww3_0_50))
        eff: (and (N:RW:is-pushing ?a) (RW:is-moving ?a) (W:blocked seg_tww3_0_50 ?a) (N:RW:not_blocked seg_tww3_0_50 ?a))
    startup_seg_tww2_0_50_south_medium: ?a:1
        pre: (and (RW:is-pushing ?a) (RW:at-segment ?a seg_tww2_0_50) (RW:not_occupied seg_tww1_0_200))
        eff: (and (N:RW:is-pushing ?a) (RW:is-moving ?a) (W:blocked seg_tww1_0_200 ?a) (N:RW:not_blocked seg_tww1_0_200 ?a))
    startup_seg_tww3_0_50_north_medium: ?a:1
        pre: (and (RW:is-pushing ?a) (RW:at-segment ?a seg_tww3_0_50) (RW:not_occupied seg_tww4_0_50))
        eff: (and (N:RW:is-pushing ?a) (RW:is-moving ?a) (W:blocked seg_tww4_0_50 ?a) (N:RW:not_blocked seg_tww4_0_50 ?a))
    startup_seg_tww3_0_50_south_medium: ?a:1
        pre: (and (RW:is-pushing ?a) (RW:at-segment ?a seg_tww3_0_50) (RW:not_occupied seg_tww2_0_50))
        eff: (and (N:RW:is-pushing ?a) (RW:is-moving ?a) (W:blocked seg_tww2_0_50 ?a) (N:RW:not_blocked seg_tww2_0_50 ?a))
    startup_seg_tww4_0_50_north_medium: ?a:1
        pre: (and (RW:is-pushing ?a) (RW:at-segment ?a seg_tww4_0_50) (RW:not_occupied seg_rww_0_50) (RW:not_occupied seg_rwtw1_0_10))
        eff: (and (N:RW:is-pushing ?a) (RW:is-moving ?a) (W:blocked seg_rww_0_50 ?a) (N:RW:not_blocked seg_rww_0_50 ?a) (W:blocked seg_rwtw1_0_10 ?a) (N:RW:not_blocked seg_rwtw1_0_10 ?a))
    startup_seg_tww4_0_50_south_medium: ?a:1
        pre: (and (RW:is-pushing ?a) (RW:at-segment ?a seg_tww4_0_50) (RW:not_occupied seg_tww3_0_50))
        eff: (and (N:RW:is-pushing ?a) (RW:is-moving ?a) (W:blocked seg_tww3_0_50 ?a) (N:RW:not_blocked seg_tww3_0_50 ?a))
    startup_seg_twe4_0_50_north_medium: ?a:1
        pre: (and (RW:is-pushing ?a) (RW:at-segment ?a seg_twe4_0_50) (RW:not_occupied seg_rwte1_0_10) (RW:not_occupied seg_rwe_0_50))
        eff: (and (N:RW:is-pushing ?a) (RW:is-moving ?a) (W:blocked seg_rwte1_0_10 ?a) (N:RW:not_blocked seg_rwte1_0_10 ?a) (W:blocked seg_rwe_0_50 ?a) (N:RW:not_blocked seg_rwe_0_50 ?a))
    startup_seg_twe4_0_50_south_medium: ?a:1
        pre: (and (RW:is-pushing ?a) (RW:at-segment ?a seg_twe4_0_50) (RW:not_occupied seg_twe3_0_50))
        eff: (and (N:RW:is-pushing ?a) (RW:is-moving ?a) (W:blocked seg_twe3_0_50 ?a) (N:RW:not_blocked seg_twe3_0_50 ?a))
    startup_seg_twe3_0_50_north_medium: ?a:1
        pre: (and (RW:is-pushing ?a) (RW:at-segment ?a seg_twe3_0_50) (RW:not_occupied seg_twe4_0_50))
        eff: (and (N:RW:is-pushing ?a) (RW:is-moving ?a) (W:blocked seg_twe4_0_50 ?a) (N:RW:not_blocked seg_twe4_0_50 ?a))
    startup_seg_twe3_0_50_south_medium: ?a:1
        pre: (and (RW:is-pushing ?a) (RW:at-segment ?a seg_twe3_0_50) (RW:not_occupied seg_twe2_0_50))
        eff: (and (N:RW:is-pushing ?a) (RW:is-moving ?a) (W:blocked seg_twe2_0_50 ?a) (N:RW:not_blocked seg_twe2_0_50 ?a))
    startup_seg_twe2_0_50_north_medium: ?a:1
        pre: (and (RW:is-pushing ?a) (RW:at-segment ?a seg_twe2_0_50) (RW:not_occupied seg_twe3_0_50))
        eff: (and (N:RW:is-pushing ?a) (RW:is-moving ?a) (W:blocked seg_twe3_0_50 ?a) (N:RW:not_blocked seg_twe3_0_50 ?a))
    startup_seg_twe2_0_50_south_medium: ?a:1
        pre: (and (RW:is-pushing ?a) (RW:at-segment ?a seg_twe2_0_50) (RW:not_occupied seg_twe1_0_200))
        eff: (and (N:RW:is-pushing ?a) (RW:is-moving ?a) (W:blocked seg_twe1_0_200 ?a) (N:RW:not_blocked seg_twe1_0_200 ?a))
Init[38]:
  (at-segment airplane_cfbeg seg_rw_0_400)
  (blocked seg_rw_0_400 airplane_cfbeg)
  (blocked seg_rwe_0_50 airplane_cfbeg)
  (facing airplane_cfbeg south)
  S:(has-type airplane_cfbeg medium)
  (is-moving airplane_cfbeg)
  (not_blocked seg_pp_0_60 airplane_cfbeg)
  (not_blocked seg_ppdoor_0_40 airplane_cfbeg)
  (not_blocked seg_tww1_0_200 airplane_cfbeg)
  (not_blocked seg_twe1_0_200 airplane_cfbeg)
  (not_blocked seg_tww2_0_50 airplane_cfbeg)
  (not_blocked seg_tww3_0_50 airplane_cfbeg)
  (not_blocked seg_tww4_0_50 airplane_cfbeg)
  (not_blocked seg_rww_0_50 airplane_cfbeg)
  (not_blocked seg_rwtw1_0_10 airplane_cfbeg)
  (not_blocked seg_twe4_0_50 airplane_cfbeg)
  (not_blocked seg_rwte1_0_10 airplane_cfbeg)
  (not_blocked seg_twe3_0_50 airplane_cfbeg)
  (not_blocked seg_twe2_0_50 airplane_cfbeg)
  (not_blocked seg_rwte2_0_10 airplane_cfbeg)
  (not_blocked seg_rwtw2_0_10 airplane_cfbeg)
  (not_occupied seg_pp_0_60)
  (not_occupied seg_ppdoor_0_40)
  (not_occupied seg_tww1_0_200)
  (not_occupied seg_twe1_0_200)
  (not_occupied seg_tww2_0_50)
  (not_occupied seg_tww3_0_50)
  (not_occupied seg_tww4_0_50)
  (not_occupied seg_rww_0_50)
  (not_occupied seg_rwtw1_0_10)
  (not_occupied seg_rwe_0_50)
  (not_occupied seg_twe4_0_50)
  (not_occupied seg_rwte1_0_10)
  (not_occupied seg_twe3_0_50)
  (not_occupied seg_twe2_0_50)
  (not_occupied seg_rwte2_0_10)
  (not_occupied seg_rwtw2_0_10)
  (occupied seg_rw_0_400)
Init[0]:
Goal: (W:is-parked airplane_cfbeg seg_pp_0_60)
Metric: 0
