begin_version
3
end_version
begin_metric
1
end_metric
36
begin_variable
var0
-1
5
at tray1 kitchen
at tray1 table1
at tray1 table2
at tray1 table3
tnf-unknown
end_variable
begin_variable
var1
-1
5
at tray2 kitchen
at tray2 table1
at tray2 table2
at tray2 table3
tnf-unknown
end_variable
begin_variable
var2
-1
6
at_kitchen_sandwich sandw1
notexist sandw1
ontray sandw1 tray1
ontray sandw1 tray2
none-of-those
tnf-unknown
end_variable
begin_variable
var3
-1
6
at_kitchen_sandwich sandw2
notexist sandw2
ontray sandw2 tray1
ontray sandw2 tray2
none-of-those
tnf-unknown
end_variable
begin_variable
var4
-1
6
at_kitchen_sandwich sandw3
notexist sandw3
ontray sandw3 tray1
ontray sandw3 tray2
none-of-those
tnf-unknown
end_variable
begin_variable
var5
-1
6
at_kitchen_sandwich sandw4
notexist sandw4
ontray sandw4 tray1
ontray sandw4 tray2
none-of-those
tnf-unknown
end_variable
begin_variable
var6
-1
6
at_kitchen_sandwich sandw5
notexist sandw5
ontray sandw5 tray1
ontray sandw5 tray2
none-of-those
tnf-unknown
end_variable
begin_variable
var7
-1
6
at_kitchen_sandwich sandw6
notexist sandw6
ontray sandw6 tray1
ontray sandw6 tray2
none-of-those
tnf-unknown
end_variable
begin_variable
var8
-1
6
at_kitchen_sandwich sandw7
notexist sandw7
ontray sandw7 tray1
ontray sandw7 tray2
none-of-those
tnf-unknown
end_variable
begin_variable
var9
-1
6
at_kitchen_sandwich sandw8
notexist sandw8
ontray sandw8 tray1
ontray sandw8 tray2
none-of-those
tnf-unknown
end_variable
begin_variable
var10
-1
3
at_kitchen_bread bread1
none-of-those
tnf-unknown
end_variable
begin_variable
var11
-1
3
at_kitchen_bread bread2
none-of-those
tnf-unknown
end_variable
begin_variable
var12
-1
3
at_kitchen_bread bread3
none-of-those
tnf-unknown
end_variable
begin_variable
var13
-1
3
at_kitchen_bread bread4
none-of-those
tnf-unknown
end_variable
begin_variable
var14
-1
3
at_kitchen_bread bread5
none-of-those
tnf-unknown
end_variable
begin_variable
var15
-1
3
at_kitchen_bread bread6
none-of-those
tnf-unknown
end_variable
begin_variable
var16
-1
3
at_kitchen_content content1
none-of-those
tnf-unknown
end_variable
begin_variable
var17
-1
3
at_kitchen_content content2
none-of-those
tnf-unknown
end_variable
begin_variable
var18
-1
3
at_kitchen_content content3
none-of-those
tnf-unknown
end_variable
begin_variable
var19
-1
3
at_kitchen_content content4
none-of-those
tnf-unknown
end_variable
begin_variable
var20
-1
3
at_kitchen_content content5
none-of-those
tnf-unknown
end_variable
begin_variable
var21
-1
3
at_kitchen_content content6
none-of-those
tnf-unknown
end_variable
begin_variable
var22
-1
3
no_gluten_sandwich sandw1
none-of-those
tnf-unkown
end_variable
begin_variable
var23
-1
3
no_gluten_sandwich sandw2
none-of-those
tnf-unkown
end_variable
begin_variable
var24
-1
3
no_gluten_sandwich sandw3
none-of-those
tnf-unkown
end_variable
begin_variable
var25
-1
3
no_gluten_sandwich sandw4
none-of-those
tnf-unkown
end_variable
begin_variable
var26
-1
3
no_gluten_sandwich sandw5
none-of-those
tnf-unkown
end_variable
begin_variable
var27
-1
3
no_gluten_sandwich sandw6
none-of-those
tnf-unkown
end_variable
begin_variable
var28
-1
3
no_gluten_sandwich sandw7
none-of-those
tnf-unkown
end_variable
begin_variable
var29
-1
3
no_gluten_sandwich sandw8
none-of-those
tnf-unkown
end_variable
begin_variable
var30
-1
3
served child1
none-of-those
tnf-unkown
end_variable
begin_variable
var31
-1
3
served child2
none-of-those
tnf-unkown
end_variable
begin_variable
var32
-1
3
served child3
none-of-those
tnf-unkown
end_variable
begin_variable
var33
-1
3
served child4
none-of-those
tnf-unkown
end_variable
begin_variable
var34
-1
3
served child5
none-of-those
tnf-unkown
end_variable
begin_variable
var35
-1
3
served child6
none-of-those
tnf-unkown
end_variable
46
begin_mutex_group
1
10 0
end_mutex_group
begin_mutex_group
1
11 0
end_mutex_group
begin_mutex_group
1
12 0
end_mutex_group
begin_mutex_group
1
13 0
end_mutex_group
begin_mutex_group
1
14 0
end_mutex_group
begin_mutex_group
1
15 0
end_mutex_group
begin_mutex_group
1
16 0
end_mutex_group
begin_mutex_group
1
17 0
end_mutex_group
begin_mutex_group
1
18 0
end_mutex_group
begin_mutex_group
1
19 0
end_mutex_group
begin_mutex_group
1
20 0
end_mutex_group
begin_mutex_group
1
21 0
end_mutex_group
begin_mutex_group
1
2 1
end_mutex_group
begin_mutex_group
1
3 1
end_mutex_group
begin_mutex_group
1
4 1
end_mutex_group
begin_mutex_group
1
5 1
end_mutex_group
begin_mutex_group
1
6 1
end_mutex_group
begin_mutex_group
1
7 1
end_mutex_group
begin_mutex_group
1
8 1
end_mutex_group
begin_mutex_group
1
9 1
end_mutex_group
begin_mutex_group
2
2 0
2 1
end_mutex_group
begin_mutex_group
2
3 0
3 1
end_mutex_group
begin_mutex_group
2
4 0
4 1
end_mutex_group
begin_mutex_group
2
5 0
5 1
end_mutex_group
begin_mutex_group
2
6 0
6 1
end_mutex_group
begin_mutex_group
2
7 0
7 1
end_mutex_group
begin_mutex_group
2
8 0
8 1
end_mutex_group
begin_mutex_group
2
9 0
9 1
end_mutex_group
begin_mutex_group
2
22 0
2 1
end_mutex_group
begin_mutex_group
2
23 0
3 1
end_mutex_group
begin_mutex_group
2
24 0
4 1
end_mutex_group
begin_mutex_group
2
25 0
5 1
end_mutex_group
begin_mutex_group
2
26 0
6 1
end_mutex_group
begin_mutex_group
2
27 0
7 1
end_mutex_group
begin_mutex_group
2
28 0
8 1
end_mutex_group
begin_mutex_group
2
29 0
9 1
end_mutex_group
begin_mutex_group
4
0 0
0 1
0 2
0 3
end_mutex_group
begin_mutex_group
4
1 0
1 1
1 2
1 3
end_mutex_group
begin_mutex_group
4
2 0
2 1
2 2
2 3
end_mutex_group
begin_mutex_group
4
3 0
3 1
3 2
3 3
end_mutex_group
begin_mutex_group
4
4 0
4 1
4 2
4 3
end_mutex_group
begin_mutex_group
4
5 0
5 1
5 2
5 3
end_mutex_group
begin_mutex_group
4
6 0
6 1
6 2
6 3
end_mutex_group
begin_mutex_group
4
7 0
7 1
7 2
7 3
end_mutex_group
begin_mutex_group
4
8 0
8 1
8 2
8 3
end_mutex_group
begin_mutex_group
4
9 0
9 1
9 2
9 3
end_mutex_group
begin_state
0
0
1
1
1
1
1
1
1
1
0
0
0
0
0
0
0
0
0
0
0
0
1
1
1
1
1
1
1
1
1
1
1
1
1
1
end_state
begin_goal
36
0 4
1 4
2 5
3 5
4 5
5 5
6 5
7 5
8 5
9 5
10 2
11 2
12 2
13 2
14 2
15 2
16 2
17 2
18 2
19 2
20 2
21 2
22 2
23 2
24 2
25 2
26 2
27 2
28 2
29 2
30 0
31 0
32 0
33 0
34 0
35 0
end_goal
556
begin_operator
make_sandwich sandw1 bread1 content1
0
3
0 2 1 0
0 10 0 1
0 16 0 1
1
end_operator
begin_operator
make_sandwich sandw1 bread1 content2
0
3
0 2 1 0
0 10 0 1
0 17 0 1
1
end_operator
begin_operator
make_sandwich sandw1 bread1 content3
0
3
0 2 1 0
0 10 0 1
0 18 0 1
1
end_operator
begin_operator
make_sandwich sandw1 bread1 content4
0
3
0 2 1 0
0 10 0 1
0 19 0 1
1
end_operator
begin_operator
make_sandwich sandw1 bread1 content5
0
3
0 2 1 0
0 10 0 1
0 20 0 1
1
end_operator
begin_operator
make_sandwich sandw1 bread1 content6
0
3
0 2 1 0
0 10 0 1
0 21 0 1
1
end_operator
begin_operator
make_sandwich sandw1 bread2 content1
0
3
0 2 1 0
0 11 0 1
0 16 0 1
1
end_operator
begin_operator
make_sandwich sandw1 bread2 content2
0
3
0 2 1 0
0 11 0 1
0 17 0 1
1
end_operator
begin_operator
make_sandwich sandw1 bread2 content3
0
3
0 2 1 0
0 11 0 1
0 18 0 1
1
end_operator
begin_operator
make_sandwich sandw1 bread2 content4
0
3
0 2 1 0
0 11 0 1
0 19 0 1
1
end_operator
begin_operator
make_sandwich sandw1 bread2 content5
0
3
0 2 1 0
0 11 0 1
0 20 0 1
1
end_operator
begin_operator
make_sandwich sandw1 bread2 content6
0
3
0 2 1 0
0 11 0 1
0 21 0 1
1
end_operator
begin_operator
make_sandwich sandw1 bread3 content1
0
3
0 2 1 0
0 12 0 1
0 16 0 1
1
end_operator
begin_operator
make_sandwich sandw1 bread3 content2
0
3
0 2 1 0
0 12 0 1
0 17 0 1
1
end_operator
begin_operator
make_sandwich sandw1 bread3 content3
0
3
0 2 1 0
0 12 0 1
0 18 0 1
1
end_operator
begin_operator
make_sandwich sandw1 bread3 content4
0
3
0 2 1 0
0 12 0 1
0 19 0 1
1
end_operator
begin_operator
make_sandwich sandw1 bread3 content5
0
3
0 2 1 0
0 12 0 1
0 20 0 1
1
end_operator
begin_operator
make_sandwich sandw1 bread3 content6
0
3
0 2 1 0
0 12 0 1
0 21 0 1
1
end_operator
begin_operator
make_sandwich sandw1 bread4 content1
0
3
0 2 1 0
0 13 0 1
0 16 0 1
1
end_operator
begin_operator
make_sandwich sandw1 bread4 content2
0
3
0 2 1 0
0 13 0 1
0 17 0 1
1
end_operator
begin_operator
make_sandwich sandw1 bread4 content3
0
3
0 2 1 0
0 13 0 1
0 18 0 1
1
end_operator
begin_operator
make_sandwich sandw1 bread4 content4
0
3
0 2 1 0
0 13 0 1
0 19 0 1
1
end_operator
begin_operator
make_sandwich sandw1 bread4 content5
0
3
0 2 1 0
0 13 0 1
0 20 0 1
1
end_operator
begin_operator
make_sandwich sandw1 bread4 content6
0
3
0 2 1 0
0 13 0 1
0 21 0 1
1
end_operator
begin_operator
make_sandwich sandw1 bread5 content1
0
3
0 2 1 0
0 14 0 1
0 16 0 1
1
end_operator
begin_operator
make_sandwich sandw1 bread5 content2
0
3
0 2 1 0
0 14 0 1
0 17 0 1
1
end_operator
begin_operator
make_sandwich sandw1 bread5 content3
0
3
0 2 1 0
0 14 0 1
0 18 0 1
1
end_operator
begin_operator
make_sandwich sandw1 bread5 content4
0
3
0 2 1 0
0 14 0 1
0 19 0 1
1
end_operator
begin_operator
make_sandwich sandw1 bread5 content5
0
3
0 2 1 0
0 14 0 1
0 20 0 1
1
end_operator
begin_operator
make_sandwich sandw1 bread5 content6
0
3
0 2 1 0
0 14 0 1
0 21 0 1
1
end_operator
begin_operator
make_sandwich sandw1 bread6 content1
0
3
0 2 1 0
0 15 0 1
0 16 0 1
1
end_operator
begin_operator
make_sandwich sandw1 bread6 content2
0
3
0 2 1 0
0 15 0 1
0 17 0 1
1
end_operator
begin_operator
make_sandwich sandw1 bread6 content3
0
3
0 2 1 0
0 15 0 1
0 18 0 1
1
end_operator
begin_operator
make_sandwich sandw1 bread6 content4
0
3
0 2 1 0
0 15 0 1
0 19 0 1
1
end_operator
begin_operator
make_sandwich sandw1 bread6 content5
0
3
0 2 1 0
0 15 0 1
0 20 0 1
1
end_operator
begin_operator
make_sandwich sandw1 bread6 content6
0
3
0 2 1 0
0 15 0 1
0 21 0 1
1
end_operator
begin_operator
make_sandwich sandw2 bread1 content1
0
3
0 3 1 0
0 10 0 1
0 16 0 1
1
end_operator
begin_operator
make_sandwich sandw2 bread1 content2
0
3
0 3 1 0
0 10 0 1
0 17 0 1
1
end_operator
begin_operator
make_sandwich sandw2 bread1 content3
0
3
0 3 1 0
0 10 0 1
0 18 0 1
1
end_operator
begin_operator
make_sandwich sandw2 bread1 content4
0
3
0 3 1 0
0 10 0 1
0 19 0 1
1
end_operator
begin_operator
make_sandwich sandw2 bread1 content5
0
3
0 3 1 0
0 10 0 1
0 20 0 1
1
end_operator
begin_operator
make_sandwich sandw2 bread1 content6
0
3
0 3 1 0
0 10 0 1
0 21 0 1
1
end_operator
begin_operator
make_sandwich sandw2 bread2 content1
0
3
0 3 1 0
0 11 0 1
0 16 0 1
1
end_operator
begin_operator
make_sandwich sandw2 bread2 content2
0
3
0 3 1 0
0 11 0 1
0 17 0 1
1
end_operator
begin_operator
make_sandwich sandw2 bread2 content3
0
3
0 3 1 0
0 11 0 1
0 18 0 1
1
end_operator
begin_operator
make_sandwich sandw2 bread2 content4
0
3
0 3 1 0
0 11 0 1
0 19 0 1
1
end_operator
begin_operator
make_sandwich sandw2 bread2 content5
0
3
0 3 1 0
0 11 0 1
0 20 0 1
1
end_operator
begin_operator
make_sandwich sandw2 bread2 content6
0
3
0 3 1 0
0 11 0 1
0 21 0 1
1
end_operator
begin_operator
make_sandwich sandw2 bread3 content1
0
3
0 3 1 0
0 12 0 1
0 16 0 1
1
end_operator
begin_operator
make_sandwich sandw2 bread3 content2
0
3
0 3 1 0
0 12 0 1
0 17 0 1
1
end_operator
begin_operator
make_sandwich sandw2 bread3 content3
0
3
0 3 1 0
0 12 0 1
0 18 0 1
1
end_operator
begin_operator
make_sandwich sandw2 bread3 content4
0
3
0 3 1 0
0 12 0 1
0 19 0 1
1
end_operator
begin_operator
make_sandwich sandw2 bread3 content5
0
3
0 3 1 0
0 12 0 1
0 20 0 1
1
end_operator
begin_operator
make_sandwich sandw2 bread3 content6
0
3
0 3 1 0
0 12 0 1
0 21 0 1
1
end_operator
begin_operator
make_sandwich sandw2 bread4 content1
0
3
0 3 1 0
0 13 0 1
0 16 0 1
1
end_operator
begin_operator
make_sandwich sandw2 bread4 content2
0
3
0 3 1 0
0 13 0 1
0 17 0 1
1
end_operator
begin_operator
make_sandwich sandw2 bread4 content3
0
3
0 3 1 0
0 13 0 1
0 18 0 1
1
end_operator
begin_operator
make_sandwich sandw2 bread4 content4
0
3
0 3 1 0
0 13 0 1
0 19 0 1
1
end_operator
begin_operator
make_sandwich sandw2 bread4 content5
0
3
0 3 1 0
0 13 0 1
0 20 0 1
1
end_operator
begin_operator
make_sandwich sandw2 bread4 content6
0
3
0 3 1 0
0 13 0 1
0 21 0 1
1
end_operator
begin_operator
make_sandwich sandw2 bread5 content1
0
3
0 3 1 0
0 14 0 1
0 16 0 1
1
end_operator
begin_operator
make_sandwich sandw2 bread5 content2
0
3
0 3 1 0
0 14 0 1
0 17 0 1
1
end_operator
begin_operator
make_sandwich sandw2 bread5 content3
0
3
0 3 1 0
0 14 0 1
0 18 0 1
1
end_operator
begin_operator
make_sandwich sandw2 bread5 content4
0
3
0 3 1 0
0 14 0 1
0 19 0 1
1
end_operator
begin_operator
make_sandwich sandw2 bread5 content5
0
3
0 3 1 0
0 14 0 1
0 20 0 1
1
end_operator
begin_operator
make_sandwich sandw2 bread5 content6
0
3
0 3 1 0
0 14 0 1
0 21 0 1
1
end_operator
begin_operator
make_sandwich sandw2 bread6 content1
0
3
0 3 1 0
0 15 0 1
0 16 0 1
1
end_operator
begin_operator
make_sandwich sandw2 bread6 content2
0
3
0 3 1 0
0 15 0 1
0 17 0 1
1
end_operator
begin_operator
make_sandwich sandw2 bread6 content3
0
3
0 3 1 0
0 15 0 1
0 18 0 1
1
end_operator
begin_operator
make_sandwich sandw2 bread6 content4
0
3
0 3 1 0
0 15 0 1
0 19 0 1
1
end_operator
begin_operator
make_sandwich sandw2 bread6 content5
0
3
0 3 1 0
0 15 0 1
0 20 0 1
1
end_operator
begin_operator
make_sandwich sandw2 bread6 content6
0
3
0 3 1 0
0 15 0 1
0 21 0 1
1
end_operator
begin_operator
make_sandwich sandw3 bread1 content1
0
3
0 4 1 0
0 10 0 1
0 16 0 1
1
end_operator
begin_operator
make_sandwich sandw3 bread1 content2
0
3
0 4 1 0
0 10 0 1
0 17 0 1
1
end_operator
begin_operator
make_sandwich sandw3 bread1 content3
0
3
0 4 1 0
0 10 0 1
0 18 0 1
1
end_operator
begin_operator
make_sandwich sandw3 bread1 content4
0
3
0 4 1 0
0 10 0 1
0 19 0 1
1
end_operator
begin_operator
make_sandwich sandw3 bread1 content5
0
3
0 4 1 0
0 10 0 1
0 20 0 1
1
end_operator
begin_operator
make_sandwich sandw3 bread1 content6
0
3
0 4 1 0
0 10 0 1
0 21 0 1
1
end_operator
begin_operator
make_sandwich sandw3 bread2 content1
0
3
0 4 1 0
0 11 0 1
0 16 0 1
1
end_operator
begin_operator
make_sandwich sandw3 bread2 content2
0
3
0 4 1 0
0 11 0 1
0 17 0 1
1
end_operator
begin_operator
make_sandwich sandw3 bread2 content3
0
3
0 4 1 0
0 11 0 1
0 18 0 1
1
end_operator
begin_operator
make_sandwich sandw3 bread2 content4
0
3
0 4 1 0
0 11 0 1
0 19 0 1
1
end_operator
begin_operator
make_sandwich sandw3 bread2 content5
0
3
0 4 1 0
0 11 0 1
0 20 0 1
1
end_operator
begin_operator
make_sandwich sandw3 bread2 content6
0
3
0 4 1 0
0 11 0 1
0 21 0 1
1
end_operator
begin_operator
make_sandwich sandw3 bread3 content1
0
3
0 4 1 0
0 12 0 1
0 16 0 1
1
end_operator
begin_operator
make_sandwich sandw3 bread3 content2
0
3
0 4 1 0
0 12 0 1
0 17 0 1
1
end_operator
begin_operator
make_sandwich sandw3 bread3 content3
0
3
0 4 1 0
0 12 0 1
0 18 0 1
1
end_operator
begin_operator
make_sandwich sandw3 bread3 content4
0
3
0 4 1 0
0 12 0 1
0 19 0 1
1
end_operator
begin_operator
make_sandwich sandw3 bread3 content5
0
3
0 4 1 0
0 12 0 1
0 20 0 1
1
end_operator
begin_operator
make_sandwich sandw3 bread3 content6
0
3
0 4 1 0
0 12 0 1
0 21 0 1
1
end_operator
begin_operator
make_sandwich sandw3 bread4 content1
0
3
0 4 1 0
0 13 0 1
0 16 0 1
1
end_operator
begin_operator
make_sandwich sandw3 bread4 content2
0
3
0 4 1 0
0 13 0 1
0 17 0 1
1
end_operator
begin_operator
make_sandwich sandw3 bread4 content3
0
3
0 4 1 0
0 13 0 1
0 18 0 1
1
end_operator
begin_operator
make_sandwich sandw3 bread4 content4
0
3
0 4 1 0
0 13 0 1
0 19 0 1
1
end_operator
begin_operator
make_sandwich sandw3 bread4 content5
0
3
0 4 1 0
0 13 0 1
0 20 0 1
1
end_operator
begin_operator
make_sandwich sandw3 bread4 content6
0
3
0 4 1 0
0 13 0 1
0 21 0 1
1
end_operator
begin_operator
make_sandwich sandw3 bread5 content1
0
3
0 4 1 0
0 14 0 1
0 16 0 1
1
end_operator
begin_operator
make_sandwich sandw3 bread5 content2
0
3
0 4 1 0
0 14 0 1
0 17 0 1
1
end_operator
begin_operator
make_sandwich sandw3 bread5 content3
0
3
0 4 1 0
0 14 0 1
0 18 0 1
1
end_operator
begin_operator
make_sandwich sandw3 bread5 content4
0
3
0 4 1 0
0 14 0 1
0 19 0 1
1
end_operator
begin_operator
make_sandwich sandw3 bread5 content5
0
3
0 4 1 0
0 14 0 1
0 20 0 1
1
end_operator
begin_operator
make_sandwich sandw3 bread5 content6
0
3
0 4 1 0
0 14 0 1
0 21 0 1
1
end_operator
begin_operator
make_sandwich sandw3 bread6 content1
0
3
0 4 1 0
0 15 0 1
0 16 0 1
1
end_operator
begin_operator
make_sandwich sandw3 bread6 content2
0
3
0 4 1 0
0 15 0 1
0 17 0 1
1
end_operator
begin_operator
make_sandwich sandw3 bread6 content3
0
3
0 4 1 0
0 15 0 1
0 18 0 1
1
end_operator
begin_operator
make_sandwich sandw3 bread6 content4
0
3
0 4 1 0
0 15 0 1
0 19 0 1
1
end_operator
begin_operator
make_sandwich sandw3 bread6 content5
0
3
0 4 1 0
0 15 0 1
0 20 0 1
1
end_operator
begin_operator
make_sandwich sandw3 bread6 content6
0
3
0 4 1 0
0 15 0 1
0 21 0 1
1
end_operator
begin_operator
make_sandwich sandw4 bread1 content1
0
3
0 5 1 0
0 10 0 1
0 16 0 1
1
end_operator
begin_operator
make_sandwich sandw4 bread1 content2
0
3
0 5 1 0
0 10 0 1
0 17 0 1
1
end_operator
begin_operator
make_sandwich sandw4 bread1 content3
0
3
0 5 1 0
0 10 0 1
0 18 0 1
1
end_operator
begin_operator
make_sandwich sandw4 bread1 content4
0
3
0 5 1 0
0 10 0 1
0 19 0 1
1
end_operator
begin_operator
make_sandwich sandw4 bread1 content5
0
3
0 5 1 0
0 10 0 1
0 20 0 1
1
end_operator
begin_operator
make_sandwich sandw4 bread1 content6
0
3
0 5 1 0
0 10 0 1
0 21 0 1
1
end_operator
begin_operator
make_sandwich sandw4 bread2 content1
0
3
0 5 1 0
0 11 0 1
0 16 0 1
1
end_operator
begin_operator
make_sandwich sandw4 bread2 content2
0
3
0 5 1 0
0 11 0 1
0 17 0 1
1
end_operator
begin_operator
make_sandwich sandw4 bread2 content3
0
3
0 5 1 0
0 11 0 1
0 18 0 1
1
end_operator
begin_operator
make_sandwich sandw4 bread2 content4
0
3
0 5 1 0
0 11 0 1
0 19 0 1
1
end_operator
begin_operator
make_sandwich sandw4 bread2 content5
0
3
0 5 1 0
0 11 0 1
0 20 0 1
1
end_operator
begin_operator
make_sandwich sandw4 bread2 content6
0
3
0 5 1 0
0 11 0 1
0 21 0 1
1
end_operator
begin_operator
make_sandwich sandw4 bread3 content1
0
3
0 5 1 0
0 12 0 1
0 16 0 1
1
end_operator
begin_operator
make_sandwich sandw4 bread3 content2
0
3
0 5 1 0
0 12 0 1
0 17 0 1
1
end_operator
begin_operator
make_sandwich sandw4 bread3 content3
0
3
0 5 1 0
0 12 0 1
0 18 0 1
1
end_operator
begin_operator
make_sandwich sandw4 bread3 content4
0
3
0 5 1 0
0 12 0 1
0 19 0 1
1
end_operator
begin_operator
make_sandwich sandw4 bread3 content5
0
3
0 5 1 0
0 12 0 1
0 20 0 1
1
end_operator
begin_operator
make_sandwich sandw4 bread3 content6
0
3
0 5 1 0
0 12 0 1
0 21 0 1
1
end_operator
begin_operator
make_sandwich sandw4 bread4 content1
0
3
0 5 1 0
0 13 0 1
0 16 0 1
1
end_operator
begin_operator
make_sandwich sandw4 bread4 content2
0
3
0 5 1 0
0 13 0 1
0 17 0 1
1
end_operator
begin_operator
make_sandwich sandw4 bread4 content3
0
3
0 5 1 0
0 13 0 1
0 18 0 1
1
end_operator
begin_operator
make_sandwich sandw4 bread4 content4
0
3
0 5 1 0
0 13 0 1
0 19 0 1
1
end_operator
begin_operator
make_sandwich sandw4 bread4 content5
0
3
0 5 1 0
0 13 0 1
0 20 0 1
1
end_operator
begin_operator
make_sandwich sandw4 bread4 content6
0
3
0 5 1 0
0 13 0 1
0 21 0 1
1
end_operator
begin_operator
make_sandwich sandw4 bread5 content1
0
3
0 5 1 0
0 14 0 1
0 16 0 1
1
end_operator
begin_operator
make_sandwich sandw4 bread5 content2
0
3
0 5 1 0
0 14 0 1
0 17 0 1
1
end_operator
begin_operator
make_sandwich sandw4 bread5 content3
0
3
0 5 1 0
0 14 0 1
0 18 0 1
1
end_operator
begin_operator
make_sandwich sandw4 bread5 content4
0
3
0 5 1 0
0 14 0 1
0 19 0 1
1
end_operator
begin_operator
make_sandwich sandw4 bread5 content5
0
3
0 5 1 0
0 14 0 1
0 20 0 1
1
end_operator
begin_operator
make_sandwich sandw4 bread5 content6
0
3
0 5 1 0
0 14 0 1
0 21 0 1
1
end_operator
begin_operator
make_sandwich sandw4 bread6 content1
0
3
0 5 1 0
0 15 0 1
0 16 0 1
1
end_operator
begin_operator
make_sandwich sandw4 bread6 content2
0
3
0 5 1 0
0 15 0 1
0 17 0 1
1
end_operator
begin_operator
make_sandwich sandw4 bread6 content3
0
3
0 5 1 0
0 15 0 1
0 18 0 1
1
end_operator
begin_operator
make_sandwich sandw4 bread6 content4
0
3
0 5 1 0
0 15 0 1
0 19 0 1
1
end_operator
begin_operator
make_sandwich sandw4 bread6 content5
0
3
0 5 1 0
0 15 0 1
0 20 0 1
1
end_operator
begin_operator
make_sandwich sandw4 bread6 content6
0
3
0 5 1 0
0 15 0 1
0 21 0 1
1
end_operator
begin_operator
make_sandwich sandw5 bread1 content1
0
3
0 6 1 0
0 10 0 1
0 16 0 1
1
end_operator
begin_operator
make_sandwich sandw5 bread1 content2
0
3
0 6 1 0
0 10 0 1
0 17 0 1
1
end_operator
begin_operator
make_sandwich sandw5 bread1 content3
0
3
0 6 1 0
0 10 0 1
0 18 0 1
1
end_operator
begin_operator
make_sandwich sandw5 bread1 content4
0
3
0 6 1 0
0 10 0 1
0 19 0 1
1
end_operator
begin_operator
make_sandwich sandw5 bread1 content5
0
3
0 6 1 0
0 10 0 1
0 20 0 1
1
end_operator
begin_operator
make_sandwich sandw5 bread1 content6
0
3
0 6 1 0
0 10 0 1
0 21 0 1
1
end_operator
begin_operator
make_sandwich sandw5 bread2 content1
0
3
0 6 1 0
0 11 0 1
0 16 0 1
1
end_operator
begin_operator
make_sandwich sandw5 bread2 content2
0
3
0 6 1 0
0 11 0 1
0 17 0 1
1
end_operator
begin_operator
make_sandwich sandw5 bread2 content3
0
3
0 6 1 0
0 11 0 1
0 18 0 1
1
end_operator
begin_operator
make_sandwich sandw5 bread2 content4
0
3
0 6 1 0
0 11 0 1
0 19 0 1
1
end_operator
begin_operator
make_sandwich sandw5 bread2 content5
0
3
0 6 1 0
0 11 0 1
0 20 0 1
1
end_operator
begin_operator
make_sandwich sandw5 bread2 content6
0
3
0 6 1 0
0 11 0 1
0 21 0 1
1
end_operator
begin_operator
make_sandwich sandw5 bread3 content1
0
3
0 6 1 0
0 12 0 1
0 16 0 1
1
end_operator
begin_operator
make_sandwich sandw5 bread3 content2
0
3
0 6 1 0
0 12 0 1
0 17 0 1
1
end_operator
begin_operator
make_sandwich sandw5 bread3 content3
0
3
0 6 1 0
0 12 0 1
0 18 0 1
1
end_operator
begin_operator
make_sandwich sandw5 bread3 content4
0
3
0 6 1 0
0 12 0 1
0 19 0 1
1
end_operator
begin_operator
make_sandwich sandw5 bread3 content5
0
3
0 6 1 0
0 12 0 1
0 20 0 1
1
end_operator
begin_operator
make_sandwich sandw5 bread3 content6
0
3
0 6 1 0
0 12 0 1
0 21 0 1
1
end_operator
begin_operator
make_sandwich sandw5 bread4 content1
0
3
0 6 1 0
0 13 0 1
0 16 0 1
1
end_operator
begin_operator
make_sandwich sandw5 bread4 content2
0
3
0 6 1 0
0 13 0 1
0 17 0 1
1
end_operator
begin_operator
make_sandwich sandw5 bread4 content3
0
3
0 6 1 0
0 13 0 1
0 18 0 1
1
end_operator
begin_operator
make_sandwich sandw5 bread4 content4
0
3
0 6 1 0
0 13 0 1
0 19 0 1
1
end_operator
begin_operator
make_sandwich sandw5 bread4 content5
0
3
0 6 1 0
0 13 0 1
0 20 0 1
1
end_operator
begin_operator
make_sandwich sandw5 bread4 content6
0
3
0 6 1 0
0 13 0 1
0 21 0 1
1
end_operator
begin_operator
make_sandwich sandw5 bread5 content1
0
3
0 6 1 0
0 14 0 1
0 16 0 1
1
end_operator
begin_operator
make_sandwich sandw5 bread5 content2
0
3
0 6 1 0
0 14 0 1
0 17 0 1
1
end_operator
begin_operator
make_sandwich sandw5 bread5 content3
0
3
0 6 1 0
0 14 0 1
0 18 0 1
1
end_operator
begin_operator
make_sandwich sandw5 bread5 content4
0
3
0 6 1 0
0 14 0 1
0 19 0 1
1
end_operator
begin_operator
make_sandwich sandw5 bread5 content5
0
3
0 6 1 0
0 14 0 1
0 20 0 1
1
end_operator
begin_operator
make_sandwich sandw5 bread5 content6
0
3
0 6 1 0
0 14 0 1
0 21 0 1
1
end_operator
begin_operator
make_sandwich sandw5 bread6 content1
0
3
0 6 1 0
0 15 0 1
0 16 0 1
1
end_operator
begin_operator
make_sandwich sandw5 bread6 content2
0
3
0 6 1 0
0 15 0 1
0 17 0 1
1
end_operator
begin_operator
make_sandwich sandw5 bread6 content3
0
3
0 6 1 0
0 15 0 1
0 18 0 1
1
end_operator
begin_operator
make_sandwich sandw5 bread6 content4
0
3
0 6 1 0
0 15 0 1
0 19 0 1
1
end_operator
begin_operator
make_sandwich sandw5 bread6 content5
0
3
0 6 1 0
0 15 0 1
0 20 0 1
1
end_operator
begin_operator
make_sandwich sandw5 bread6 content6
0
3
0 6 1 0
0 15 0 1
0 21 0 1
1
end_operator
begin_operator
make_sandwich sandw6 bread1 content1
0
3
0 7 1 0
0 10 0 1
0 16 0 1
1
end_operator
begin_operator
make_sandwich sandw6 bread1 content2
0
3
0 7 1 0
0 10 0 1
0 17 0 1
1
end_operator
begin_operator
make_sandwich sandw6 bread1 content3
0
3
0 7 1 0
0 10 0 1
0 18 0 1
1
end_operator
begin_operator
make_sandwich sandw6 bread1 content4
0
3
0 7 1 0
0 10 0 1
0 19 0 1
1
end_operator
begin_operator
make_sandwich sandw6 bread1 content5
0
3
0 7 1 0
0 10 0 1
0 20 0 1
1
end_operator
begin_operator
make_sandwich sandw6 bread1 content6
0
3
0 7 1 0
0 10 0 1
0 21 0 1
1
end_operator
begin_operator
make_sandwich sandw6 bread2 content1
0
3
0 7 1 0
0 11 0 1
0 16 0 1
1
end_operator
begin_operator
make_sandwich sandw6 bread2 content2
0
3
0 7 1 0
0 11 0 1
0 17 0 1
1
end_operator
begin_operator
make_sandwich sandw6 bread2 content3
0
3
0 7 1 0
0 11 0 1
0 18 0 1
1
end_operator
begin_operator
make_sandwich sandw6 bread2 content4
0
3
0 7 1 0
0 11 0 1
0 19 0 1
1
end_operator
begin_operator
make_sandwich sandw6 bread2 content5
0
3
0 7 1 0
0 11 0 1
0 20 0 1
1
end_operator
begin_operator
make_sandwich sandw6 bread2 content6
0
3
0 7 1 0
0 11 0 1
0 21 0 1
1
end_operator
begin_operator
make_sandwich sandw6 bread3 content1
0
3
0 7 1 0
0 12 0 1
0 16 0 1
1
end_operator
begin_operator
make_sandwich sandw6 bread3 content2
0
3
0 7 1 0
0 12 0 1
0 17 0 1
1
end_operator
begin_operator
make_sandwich sandw6 bread3 content3
0
3
0 7 1 0
0 12 0 1
0 18 0 1
1
end_operator
begin_operator
make_sandwich sandw6 bread3 content4
0
3
0 7 1 0
0 12 0 1
0 19 0 1
1
end_operator
begin_operator
make_sandwich sandw6 bread3 content5
0
3
0 7 1 0
0 12 0 1
0 20 0 1
1
end_operator
begin_operator
make_sandwich sandw6 bread3 content6
0
3
0 7 1 0
0 12 0 1
0 21 0 1
1
end_operator
begin_operator
make_sandwich sandw6 bread4 content1
0
3
0 7 1 0
0 13 0 1
0 16 0 1
1
end_operator
begin_operator
make_sandwich sandw6 bread4 content2
0
3
0 7 1 0
0 13 0 1
0 17 0 1
1
end_operator
begin_operator
make_sandwich sandw6 bread4 content3
0
3
0 7 1 0
0 13 0 1
0 18 0 1
1
end_operator
begin_operator
make_sandwich sandw6 bread4 content4
0
3
0 7 1 0
0 13 0 1
0 19 0 1
1
end_operator
begin_operator
make_sandwich sandw6 bread4 content5
0
3
0 7 1 0
0 13 0 1
0 20 0 1
1
end_operator
begin_operator
make_sandwich sandw6 bread4 content6
0
3
0 7 1 0
0 13 0 1
0 21 0 1
1
end_operator
begin_operator
make_sandwich sandw6 bread5 content1
0
3
0 7 1 0
0 14 0 1
0 16 0 1
1
end_operator
begin_operator
make_sandwich sandw6 bread5 content2
0
3
0 7 1 0
0 14 0 1
0 17 0 1
1
end_operator
begin_operator
make_sandwich sandw6 bread5 content3
0
3
0 7 1 0
0 14 0 1
0 18 0 1
1
end_operator
begin_operator
make_sandwich sandw6 bread5 content4
0
3
0 7 1 0
0 14 0 1
0 19 0 1
1
end_operator
begin_operator
make_sandwich sandw6 bread5 content5
0
3
0 7 1 0
0 14 0 1
0 20 0 1
1
end_operator
begin_operator
make_sandwich sandw6 bread5 content6
0
3
0 7 1 0
0 14 0 1
0 21 0 1
1
end_operator
begin_operator
make_sandwich sandw6 bread6 content1
0
3
0 7 1 0
0 15 0 1
0 16 0 1
1
end_operator
begin_operator
make_sandwich sandw6 bread6 content2
0
3
0 7 1 0
0 15 0 1
0 17 0 1
1
end_operator
begin_operator
make_sandwich sandw6 bread6 content3
0
3
0 7 1 0
0 15 0 1
0 18 0 1
1
end_operator
begin_operator
make_sandwich sandw6 bread6 content4
0
3
0 7 1 0
0 15 0 1
0 19 0 1
1
end_operator
begin_operator
make_sandwich sandw6 bread6 content5
0
3
0 7 1 0
0 15 0 1
0 20 0 1
1
end_operator
begin_operator
make_sandwich sandw6 bread6 content6
0
3
0 7 1 0
0 15 0 1
0 21 0 1
1
end_operator
begin_operator
make_sandwich sandw7 bread1 content1
0
3
0 8 1 0
0 10 0 1
0 16 0 1
1
end_operator
begin_operator
make_sandwich sandw7 bread1 content2
0
3
0 8 1 0
0 10 0 1
0 17 0 1
1
end_operator
begin_operator
make_sandwich sandw7 bread1 content3
0
3
0 8 1 0
0 10 0 1
0 18 0 1
1
end_operator
begin_operator
make_sandwich sandw7 bread1 content4
0
3
0 8 1 0
0 10 0 1
0 19 0 1
1
end_operator
begin_operator
make_sandwich sandw7 bread1 content5
0
3
0 8 1 0
0 10 0 1
0 20 0 1
1
end_operator
begin_operator
make_sandwich sandw7 bread1 content6
0
3
0 8 1 0
0 10 0 1
0 21 0 1
1
end_operator
begin_operator
make_sandwich sandw7 bread2 content1
0
3
0 8 1 0
0 11 0 1
0 16 0 1
1
end_operator
begin_operator
make_sandwich sandw7 bread2 content2
0
3
0 8 1 0
0 11 0 1
0 17 0 1
1
end_operator
begin_operator
make_sandwich sandw7 bread2 content3
0
3
0 8 1 0
0 11 0 1
0 18 0 1
1
end_operator
begin_operator
make_sandwich sandw7 bread2 content4
0
3
0 8 1 0
0 11 0 1
0 19 0 1
1
end_operator
begin_operator
make_sandwich sandw7 bread2 content5
0
3
0 8 1 0
0 11 0 1
0 20 0 1
1
end_operator
begin_operator
make_sandwich sandw7 bread2 content6
0
3
0 8 1 0
0 11 0 1
0 21 0 1
1
end_operator
begin_operator
make_sandwich sandw7 bread3 content1
0
3
0 8 1 0
0 12 0 1
0 16 0 1
1
end_operator
begin_operator
make_sandwich sandw7 bread3 content2
0
3
0 8 1 0
0 12 0 1
0 17 0 1
1
end_operator
begin_operator
make_sandwich sandw7 bread3 content3
0
3
0 8 1 0
0 12 0 1
0 18 0 1
1
end_operator
begin_operator
make_sandwich sandw7 bread3 content4
0
3
0 8 1 0
0 12 0 1
0 19 0 1
1
end_operator
begin_operator
make_sandwich sandw7 bread3 content5
0
3
0 8 1 0
0 12 0 1
0 20 0 1
1
end_operator
begin_operator
make_sandwich sandw7 bread3 content6
0
3
0 8 1 0
0 12 0 1
0 21 0 1
1
end_operator
begin_operator
make_sandwich sandw7 bread4 content1
0
3
0 8 1 0
0 13 0 1
0 16 0 1
1
end_operator
begin_operator
make_sandwich sandw7 bread4 content2
0
3
0 8 1 0
0 13 0 1
0 17 0 1
1
end_operator
begin_operator
make_sandwich sandw7 bread4 content3
0
3
0 8 1 0
0 13 0 1
0 18 0 1
1
end_operator
begin_operator
make_sandwich sandw7 bread4 content4
0
3
0 8 1 0
0 13 0 1
0 19 0 1
1
end_operator
begin_operator
make_sandwich sandw7 bread4 content5
0
3
0 8 1 0
0 13 0 1
0 20 0 1
1
end_operator
begin_operator
make_sandwich sandw7 bread4 content6
0
3
0 8 1 0
0 13 0 1
0 21 0 1
1
end_operator
begin_operator
make_sandwich sandw7 bread5 content1
0
3
0 8 1 0
0 14 0 1
0 16 0 1
1
end_operator
begin_operator
make_sandwich sandw7 bread5 content2
0
3
0 8 1 0
0 14 0 1
0 17 0 1
1
end_operator
begin_operator
make_sandwich sandw7 bread5 content3
0
3
0 8 1 0
0 14 0 1
0 18 0 1
1
end_operator
begin_operator
make_sandwich sandw7 bread5 content4
0
3
0 8 1 0
0 14 0 1
0 19 0 1
1
end_operator
begin_operator
make_sandwich sandw7 bread5 content5
0
3
0 8 1 0
0 14 0 1
0 20 0 1
1
end_operator
begin_operator
make_sandwich sandw7 bread5 content6
0
3
0 8 1 0
0 14 0 1
0 21 0 1
1
end_operator
begin_operator
make_sandwich sandw7 bread6 content1
0
3
0 8 1 0
0 15 0 1
0 16 0 1
1
end_operator
begin_operator
make_sandwich sandw7 bread6 content2
0
3
0 8 1 0
0 15 0 1
0 17 0 1
1
end_operator
begin_operator
make_sandwich sandw7 bread6 content3
0
3
0 8 1 0
0 15 0 1
0 18 0 1
1
end_operator
begin_operator
make_sandwich sandw7 bread6 content4
0
3
0 8 1 0
0 15 0 1
0 19 0 1
1
end_operator
begin_operator
make_sandwich sandw7 bread6 content5
0
3
0 8 1 0
0 15 0 1
0 20 0 1
1
end_operator
begin_operator
make_sandwich sandw7 bread6 content6
0
3
0 8 1 0
0 15 0 1
0 21 0 1
1
end_operator
begin_operator
make_sandwich sandw8 bread1 content1
0
3
0 9 1 0
0 10 0 1
0 16 0 1
1
end_operator
begin_operator
make_sandwich sandw8 bread1 content2
0
3
0 9 1 0
0 10 0 1
0 17 0 1
1
end_operator
begin_operator
make_sandwich sandw8 bread1 content3
0
3
0 9 1 0
0 10 0 1
0 18 0 1
1
end_operator
begin_operator
make_sandwich sandw8 bread1 content4
0
3
0 9 1 0
0 10 0 1
0 19 0 1
1
end_operator
begin_operator
make_sandwich sandw8 bread1 content5
0
3
0 9 1 0
0 10 0 1
0 20 0 1
1
end_operator
begin_operator
make_sandwich sandw8 bread1 content6
0
3
0 9 1 0
0 10 0 1
0 21 0 1
1
end_operator
begin_operator
make_sandwich sandw8 bread2 content1
0
3
0 9 1 0
0 11 0 1
0 16 0 1
1
end_operator
begin_operator
make_sandwich sandw8 bread2 content2
0
3
0 9 1 0
0 11 0 1
0 17 0 1
1
end_operator
begin_operator
make_sandwich sandw8 bread2 content3
0
3
0 9 1 0
0 11 0 1
0 18 0 1
1
end_operator
begin_operator
make_sandwich sandw8 bread2 content4
0
3
0 9 1 0
0 11 0 1
0 19 0 1
1
end_operator
begin_operator
make_sandwich sandw8 bread2 content5
0
3
0 9 1 0
0 11 0 1
0 20 0 1
1
end_operator
begin_operator
make_sandwich sandw8 bread2 content6
0
3
0 9 1 0
0 11 0 1
0 21 0 1
1
end_operator
begin_operator
make_sandwich sandw8 bread3 content1
0
3
0 9 1 0
0 12 0 1
0 16 0 1
1
end_operator
begin_operator
make_sandwich sandw8 bread3 content2
0
3
0 9 1 0
0 12 0 1
0 17 0 1
1
end_operator
begin_operator
make_sandwich sandw8 bread3 content3
0
3
0 9 1 0
0 12 0 1
0 18 0 1
1
end_operator
begin_operator
make_sandwich sandw8 bread3 content4
0
3
0 9 1 0
0 12 0 1
0 19 0 1
1
end_operator
begin_operator
make_sandwich sandw8 bread3 content5
0
3
0 9 1 0
0 12 0 1
0 20 0 1
1
end_operator
begin_operator
make_sandwich sandw8 bread3 content6
0
3
0 9 1 0
0 12 0 1
0 21 0 1
1
end_operator
begin_operator
make_sandwich sandw8 bread4 content1
0
3
0 9 1 0
0 13 0 1
0 16 0 1
1
end_operator
begin_operator
make_sandwich sandw8 bread4 content2
0
3
0 9 1 0
0 13 0 1
0 17 0 1
1
end_operator
begin_operator
make_sandwich sandw8 bread4 content3
0
3
0 9 1 0
0 13 0 1
0 18 0 1
1
end_operator
begin_operator
make_sandwich sandw8 bread4 content4
0
3
0 9 1 0
0 13 0 1
0 19 0 1
1
end_operator
begin_operator
make_sandwich sandw8 bread4 content5
0
3
0 9 1 0
0 13 0 1
0 20 0 1
1
end_operator
begin_operator
make_sandwich sandw8 bread4 content6
0
3
0 9 1 0
0 13 0 1
0 21 0 1
1
end_operator
begin_operator
make_sandwich sandw8 bread5 content1
0
3
0 9 1 0
0 14 0 1
0 16 0 1
1
end_operator
begin_operator
make_sandwich sandw8 bread5 content2
0
3
0 9 1 0
0 14 0 1
0 17 0 1
1
end_operator
begin_operator
make_sandwich sandw8 bread5 content3
0
3
0 9 1 0
0 14 0 1
0 18 0 1
1
end_operator
begin_operator
make_sandwich sandw8 bread5 content4
0
3
0 9 1 0
0 14 0 1
0 19 0 1
1
end_operator
begin_operator
make_sandwich sandw8 bread5 content5
0
3
0 9 1 0
0 14 0 1
0 20 0 1
1
end_operator
begin_operator
make_sandwich sandw8 bread5 content6
0
3
0 9 1 0
0 14 0 1
0 21 0 1
1
end_operator
begin_operator
make_sandwich sandw8 bread6 content1
0
3
0 9 1 0
0 15 0 1
0 16 0 1
1
end_operator
begin_operator
make_sandwich sandw8 bread6 content2
0
3
0 9 1 0
0 15 0 1
0 17 0 1
1
end_operator
begin_operator
make_sandwich sandw8 bread6 content3
0
3
0 9 1 0
0 15 0 1
0 18 0 1
1
end_operator
begin_operator
make_sandwich sandw8 bread6 content4
0
3
0 9 1 0
0 15 0 1
0 19 0 1
1
end_operator
begin_operator
make_sandwich sandw8 bread6 content5
0
3
0 9 1 0
0 15 0 1
0 20 0 1
1
end_operator
begin_operator
make_sandwich sandw8 bread6 content6
0
3
0 9 1 0
0 15 0 1
0 21 0 1
1
end_operator
begin_operator
make_sandwich_no_gluten sandw1 bread1 content5
0
4
0 2 1 0
0 10 0 1
0 20 0 1
0 22 2 0
1
end_operator
begin_operator
make_sandwich_no_gluten sandw1 bread1 content6
0
4
0 2 1 0
0 10 0 1
0 21 0 1
0 22 2 0
1
end_operator
begin_operator
make_sandwich_no_gluten sandw1 bread4 content5
0
4
0 2 1 0
0 13 0 1
0 20 0 1
0 22 2 0
1
end_operator
begin_operator
make_sandwich_no_gluten sandw1 bread4 content6
0
4
0 2 1 0
0 13 0 1
0 21 0 1
0 22 2 0
1
end_operator
begin_operator
make_sandwich_no_gluten sandw2 bread1 content5
0
4
0 3 1 0
0 10 0 1
0 20 0 1
0 23 2 0
1
end_operator
begin_operator
make_sandwich_no_gluten sandw2 bread1 content6
0
4
0 3 1 0
0 10 0 1
0 21 0 1
0 23 2 0
1
end_operator
begin_operator
make_sandwich_no_gluten sandw2 bread4 content5
0
4
0 3 1 0
0 13 0 1
0 20 0 1
0 23 2 0
1
end_operator
begin_operator
make_sandwich_no_gluten sandw2 bread4 content6
0
4
0 3 1 0
0 13 0 1
0 21 0 1
0 23 2 0
1
end_operator
begin_operator
make_sandwich_no_gluten sandw3 bread1 content5
0
4
0 4 1 0
0 10 0 1
0 20 0 1
0 24 2 0
1
end_operator
begin_operator
make_sandwich_no_gluten sandw3 bread1 content6
0
4
0 4 1 0
0 10 0 1
0 21 0 1
0 24 2 0
1
end_operator
begin_operator
make_sandwich_no_gluten sandw3 bread4 content5
0
4
0 4 1 0
0 13 0 1
0 20 0 1
0 24 2 0
1
end_operator
begin_operator
make_sandwich_no_gluten sandw3 bread4 content6
0
4
0 4 1 0
0 13 0 1
0 21 0 1
0 24 2 0
1
end_operator
begin_operator
make_sandwich_no_gluten sandw4 bread1 content5
0
4
0 5 1 0
0 10 0 1
0 20 0 1
0 25 2 0
1
end_operator
begin_operator
make_sandwich_no_gluten sandw4 bread1 content6
0
4
0 5 1 0
0 10 0 1
0 21 0 1
0 25 2 0
1
end_operator
begin_operator
make_sandwich_no_gluten sandw4 bread4 content5
0
4
0 5 1 0
0 13 0 1
0 20 0 1
0 25 2 0
1
end_operator
begin_operator
make_sandwich_no_gluten sandw4 bread4 content6
0
4
0 5 1 0
0 13 0 1
0 21 0 1
0 25 2 0
1
end_operator
begin_operator
make_sandwich_no_gluten sandw5 bread1 content5
0
4
0 6 1 0
0 10 0 1
0 20 0 1
0 26 2 0
1
end_operator
begin_operator
make_sandwich_no_gluten sandw5 bread1 content6
0
4
0 6 1 0
0 10 0 1
0 21 0 1
0 26 2 0
1
end_operator
begin_operator
make_sandwich_no_gluten sandw5 bread4 content5
0
4
0 6 1 0
0 13 0 1
0 20 0 1
0 26 2 0
1
end_operator
begin_operator
make_sandwich_no_gluten sandw5 bread4 content6
0
4
0 6 1 0
0 13 0 1
0 21 0 1
0 26 2 0
1
end_operator
begin_operator
make_sandwich_no_gluten sandw6 bread1 content5
0
4
0 7 1 0
0 10 0 1
0 20 0 1
0 27 2 0
1
end_operator
begin_operator
make_sandwich_no_gluten sandw6 bread1 content6
0
4
0 7 1 0
0 10 0 1
0 21 0 1
0 27 2 0
1
end_operator
begin_operator
make_sandwich_no_gluten sandw6 bread4 content5
0
4
0 7 1 0
0 13 0 1
0 20 0 1
0 27 2 0
1
end_operator
begin_operator
make_sandwich_no_gluten sandw6 bread4 content6
0
4
0 7 1 0
0 13 0 1
0 21 0 1
0 27 2 0
1
end_operator
begin_operator
make_sandwich_no_gluten sandw7 bread1 content5
0
4
0 8 1 0
0 10 0 1
0 20 0 1
0 28 2 0
1
end_operator
begin_operator
make_sandwich_no_gluten sandw7 bread1 content6
0
4
0 8 1 0
0 10 0 1
0 21 0 1
0 28 2 0
1
end_operator
begin_operator
make_sandwich_no_gluten sandw7 bread4 content5
0
4
0 8 1 0
0 13 0 1
0 20 0 1
0 28 2 0
1
end_operator
begin_operator
make_sandwich_no_gluten sandw7 bread4 content6
0
4
0 8 1 0
0 13 0 1
0 21 0 1
0 28 2 0
1
end_operator
begin_operator
make_sandwich_no_gluten sandw8 bread1 content5
0
4
0 9 1 0
0 10 0 1
0 20 0 1
0 29 2 0
1
end_operator
begin_operator
make_sandwich_no_gluten sandw8 bread1 content6
0
4
0 9 1 0
0 10 0 1
0 21 0 1
0 29 2 0
1
end_operator
begin_operator
make_sandwich_no_gluten sandw8 bread4 content5
0
4
0 9 1 0
0 13 0 1
0 20 0 1
0 29 2 0
1
end_operator
begin_operator
make_sandwich_no_gluten sandw8 bread4 content6
0
4
0 9 1 0
0 13 0 1
0 21 0 1
0 29 2 0
1
end_operator
begin_operator
move_tray tray1 kitchen table1
0
1
0 0 0 1
1
end_operator
begin_operator
move_tray tray1 kitchen table2
0
1
0 0 0 2
1
end_operator
begin_operator
move_tray tray1 kitchen table3
0
1
0 0 0 3
1
end_operator
begin_operator
move_tray tray1 table1 kitchen
0
1
0 0 1 0
1
end_operator
begin_operator
move_tray tray1 table1 table2
0
1
0 0 1 2
1
end_operator
begin_operator
move_tray tray1 table1 table3
0
1
0 0 1 3
1
end_operator
begin_operator
move_tray tray1 table2 kitchen
0
1
0 0 2 0
1
end_operator
begin_operator
move_tray tray1 table2 table1
0
1
0 0 2 1
1
end_operator
begin_operator
move_tray tray1 table2 table3
0
1
0 0 2 3
1
end_operator
begin_operator
move_tray tray1 table3 kitchen
0
1
0 0 3 0
1
end_operator
begin_operator
move_tray tray1 table3 table1
0
1
0 0 3 1
1
end_operator
begin_operator
move_tray tray1 table3 table2
0
1
0 0 3 2
1
end_operator
begin_operator
move_tray tray2 kitchen table1
0
1
0 1 0 1
1
end_operator
begin_operator
move_tray tray2 kitchen table2
0
1
0 1 0 2
1
end_operator
begin_operator
move_tray tray2 kitchen table3
0
1
0 1 0 3
1
end_operator
begin_operator
move_tray tray2 table1 kitchen
0
1
0 1 1 0
1
end_operator
begin_operator
move_tray tray2 table1 table2
0
1
0 1 1 2
1
end_operator
begin_operator
move_tray tray2 table1 table3
0
1
0 1 1 3
1
end_operator
begin_operator
move_tray tray2 table2 kitchen
0
1
0 1 2 0
1
end_operator
begin_operator
move_tray tray2 table2 table1
0
1
0 1 2 1
1
end_operator
begin_operator
move_tray tray2 table2 table3
0
1
0 1 2 3
1
end_operator
begin_operator
move_tray tray2 table3 kitchen
0
1
0 1 3 0
1
end_operator
begin_operator
move_tray tray2 table3 table1
0
1
0 1 3 1
1
end_operator
begin_operator
move_tray tray2 table3 table2
0
1
0 1 3 2
1
end_operator
begin_operator
put_on_tray sandw1 tray1
1
0 0
1
0 2 0 2
1
end_operator
begin_operator
put_on_tray sandw1 tray2
1
1 0
1
0 2 0 3
1
end_operator
begin_operator
put_on_tray sandw2 tray1
1
0 0
1
0 3 0 2
1
end_operator
begin_operator
put_on_tray sandw2 tray2
1
1 0
1
0 3 0 3
1
end_operator
begin_operator
put_on_tray sandw3 tray1
1
0 0
1
0 4 0 2
1
end_operator
begin_operator
put_on_tray sandw3 tray2
1
1 0
1
0 4 0 3
1
end_operator
begin_operator
put_on_tray sandw4 tray1
1
0 0
1
0 5 0 2
1
end_operator
begin_operator
put_on_tray sandw4 tray2
1
1 0
1
0 5 0 3
1
end_operator
begin_operator
put_on_tray sandw5 tray1
1
0 0
1
0 6 0 2
1
end_operator
begin_operator
put_on_tray sandw5 tray2
1
1 0
1
0 6 0 3
1
end_operator
begin_operator
put_on_tray sandw6 tray1
1
0 0
1
0 7 0 2
1
end_operator
begin_operator
put_on_tray sandw6 tray2
1
1 0
1
0 7 0 3
1
end_operator
begin_operator
put_on_tray sandw7 tray1
1
0 0
1
0 8 0 2
1
end_operator
begin_operator
put_on_tray sandw7 tray2
1
1 0
1
0 8 0 3
1
end_operator
begin_operator
put_on_tray sandw8 tray1
1
0 0
1
0 9 0 2
1
end_operator
begin_operator
put_on_tray sandw8 tray2
1
1 0
1
0 9 0 3
1
end_operator
begin_operator
serve_sandwich sandw1 child1 tray1 table1
1
0 1
2
0 2 2 4
0 30 2 0
1
end_operator
begin_operator
serve_sandwich sandw1 child1 tray2 table1
1
1 1
2
0 2 3 4
0 30 2 0
1
end_operator
begin_operator
serve_sandwich sandw1 child2 tray1 table1
1
0 1
2
0 2 2 4
0 31 2 0
1
end_operator
begin_operator
serve_sandwich sandw1 child2 tray2 table1
1
1 1
2
0 2 3 4
0 31 2 0
1
end_operator
begin_operator
serve_sandwich sandw1 child5 tray1 table1
1
0 1
2
0 2 2 4
0 34 2 0
1
end_operator
begin_operator
serve_sandwich sandw1 child5 tray2 table1
1
1 1
2
0 2 3 4
0 34 2 0
1
end_operator
begin_operator
serve_sandwich sandw1 child6 tray1 table3
1
0 3
2
0 2 2 4
0 35 2 0
1
end_operator
begin_operator
serve_sandwich sandw1 child6 tray2 table3
1
1 3
2
0 2 3 4
0 35 2 0
1
end_operator
begin_operator
serve_sandwich sandw2 child1 tray1 table1
1
0 1
2
0 3 2 4
0 30 2 0
1
end_operator
begin_operator
serve_sandwich sandw2 child1 tray2 table1
1
1 1
2
0 3 3 4
0 30 2 0
1
end_operator
begin_operator
serve_sandwich sandw2 child2 tray1 table1
1
0 1
2
0 3 2 4
0 31 2 0
1
end_operator
begin_operator
serve_sandwich sandw2 child2 tray2 table1
1
1 1
2
0 3 3 4
0 31 2 0
1
end_operator
begin_operator
serve_sandwich sandw2 child5 tray1 table1
1
0 1
2
0 3 2 4
0 34 2 0
1
end_operator
begin_operator
serve_sandwich sandw2 child5 tray2 table1
1
1 1
2
0 3 3 4
0 34 2 0
1
end_operator
begin_operator
serve_sandwich sandw2 child6 tray1 table3
1
0 3
2
0 3 2 4
0 35 2 0
1
end_operator
begin_operator
serve_sandwich sandw2 child6 tray2 table3
1
1 3
2
0 3 3 4
0 35 2 0
1
end_operator
begin_operator
serve_sandwich sandw3 child1 tray1 table1
1
0 1
2
0 4 2 4
0 30 2 0
1
end_operator
begin_operator
serve_sandwich sandw3 child1 tray2 table1
1
1 1
2
0 4 3 4
0 30 2 0
1
end_operator
begin_operator
serve_sandwich sandw3 child2 tray1 table1
1
0 1
2
0 4 2 4
0 31 2 0
1
end_operator
begin_operator
serve_sandwich sandw3 child2 tray2 table1
1
1 1
2
0 4 3 4
0 31 2 0
1
end_operator
begin_operator
serve_sandwich sandw3 child5 tray1 table1
1
0 1
2
0 4 2 4
0 34 2 0
1
end_operator
begin_operator
serve_sandwich sandw3 child5 tray2 table1
1
1 1
2
0 4 3 4
0 34 2 0
1
end_operator
begin_operator
serve_sandwich sandw3 child6 tray1 table3
1
0 3
2
0 4 2 4
0 35 2 0
1
end_operator
begin_operator
serve_sandwich sandw3 child6 tray2 table3
1
1 3
2
0 4 3 4
0 35 2 0
1
end_operator
begin_operator
serve_sandwich sandw4 child1 tray1 table1
1
0 1
2
0 5 2 4
0 30 2 0
1
end_operator
begin_operator
serve_sandwich sandw4 child1 tray2 table1
1
1 1
2
0 5 3 4
0 30 2 0
1
end_operator
begin_operator
serve_sandwich sandw4 child2 tray1 table1
1
0 1
2
0 5 2 4
0 31 2 0
1
end_operator
begin_operator
serve_sandwich sandw4 child2 tray2 table1
1
1 1
2
0 5 3 4
0 31 2 0
1
end_operator
begin_operator
serve_sandwich sandw4 child5 tray1 table1
1
0 1
2
0 5 2 4
0 34 2 0
1
end_operator
begin_operator
serve_sandwich sandw4 child5 tray2 table1
1
1 1
2
0 5 3 4
0 34 2 0
1
end_operator
begin_operator
serve_sandwich sandw4 child6 tray1 table3
1
0 3
2
0 5 2 4
0 35 2 0
1
end_operator
begin_operator
serve_sandwich sandw4 child6 tray2 table3
1
1 3
2
0 5 3 4
0 35 2 0
1
end_operator
begin_operator
serve_sandwich sandw5 child1 tray1 table1
1
0 1
2
0 6 2 4
0 30 2 0
1
end_operator
begin_operator
serve_sandwich sandw5 child1 tray2 table1
1
1 1
2
0 6 3 4
0 30 2 0
1
end_operator
begin_operator
serve_sandwich sandw5 child2 tray1 table1
1
0 1
2
0 6 2 4
0 31 2 0
1
end_operator
begin_operator
serve_sandwich sandw5 child2 tray2 table1
1
1 1
2
0 6 3 4
0 31 2 0
1
end_operator
begin_operator
serve_sandwich sandw5 child5 tray1 table1
1
0 1
2
0 6 2 4
0 34 2 0
1
end_operator
begin_operator
serve_sandwich sandw5 child5 tray2 table1
1
1 1
2
0 6 3 4
0 34 2 0
1
end_operator
begin_operator
serve_sandwich sandw5 child6 tray1 table3
1
0 3
2
0 6 2 4
0 35 2 0
1
end_operator
begin_operator
serve_sandwich sandw5 child6 tray2 table3
1
1 3
2
0 6 3 4
0 35 2 0
1
end_operator
begin_operator
serve_sandwich sandw6 child1 tray1 table1
1
0 1
2
0 7 2 4
0 30 2 0
1
end_operator
begin_operator
serve_sandwich sandw6 child1 tray2 table1
1
1 1
2
0 7 3 4
0 30 2 0
1
end_operator
begin_operator
serve_sandwich sandw6 child2 tray1 table1
1
0 1
2
0 7 2 4
0 31 2 0
1
end_operator
begin_operator
serve_sandwich sandw6 child2 tray2 table1
1
1 1
2
0 7 3 4
0 31 2 0
1
end_operator
begin_operator
serve_sandwich sandw6 child5 tray1 table1
1
0 1
2
0 7 2 4
0 34 2 0
1
end_operator
begin_operator
serve_sandwich sandw6 child5 tray2 table1
1
1 1
2
0 7 3 4
0 34 2 0
1
end_operator
begin_operator
serve_sandwich sandw6 child6 tray1 table3
1
0 3
2
0 7 2 4
0 35 2 0
1
end_operator
begin_operator
serve_sandwich sandw6 child6 tray2 table3
1
1 3
2
0 7 3 4
0 35 2 0
1
end_operator
begin_operator
serve_sandwich sandw7 child1 tray1 table1
1
0 1
2
0 8 2 4
0 30 2 0
1
end_operator
begin_operator
serve_sandwich sandw7 child1 tray2 table1
1
1 1
2
0 8 3 4
0 30 2 0
1
end_operator
begin_operator
serve_sandwich sandw7 child2 tray1 table1
1
0 1
2
0 8 2 4
0 31 2 0
1
end_operator
begin_operator
serve_sandwich sandw7 child2 tray2 table1
1
1 1
2
0 8 3 4
0 31 2 0
1
end_operator
begin_operator
serve_sandwich sandw7 child5 tray1 table1
1
0 1
2
0 8 2 4
0 34 2 0
1
end_operator
begin_operator
serve_sandwich sandw7 child5 tray2 table1
1
1 1
2
0 8 3 4
0 34 2 0
1
end_operator
begin_operator
serve_sandwich sandw7 child6 tray1 table3
1
0 3
2
0 8 2 4
0 35 2 0
1
end_operator
begin_operator
serve_sandwich sandw7 child6 tray2 table3
1
1 3
2
0 8 3 4
0 35 2 0
1
end_operator
begin_operator
serve_sandwich sandw8 child1 tray1 table1
1
0 1
2
0 9 2 4
0 30 2 0
1
end_operator
begin_operator
serve_sandwich sandw8 child1 tray2 table1
1
1 1
2
0 9 3 4
0 30 2 0
1
end_operator
begin_operator
serve_sandwich sandw8 child2 tray1 table1
1
0 1
2
0 9 2 4
0 31 2 0
1
end_operator
begin_operator
serve_sandwich sandw8 child2 tray2 table1
1
1 1
2
0 9 3 4
0 31 2 0
1
end_operator
begin_operator
serve_sandwich sandw8 child5 tray1 table1
1
0 1
2
0 9 2 4
0 34 2 0
1
end_operator
begin_operator
serve_sandwich sandw8 child5 tray2 table1
1
1 1
2
0 9 3 4
0 34 2 0
1
end_operator
begin_operator
serve_sandwich sandw8 child6 tray1 table3
1
0 3
2
0 9 2 4
0 35 2 0
1
end_operator
begin_operator
serve_sandwich sandw8 child6 tray2 table3
1
1 3
2
0 9 3 4
0 35 2 0
1
end_operator
begin_operator
serve_sandwich_no_gluten sandw1 child3 tray1 table1
2
0 1
22 0
2
0 2 2 4
0 32 2 0
1
end_operator
begin_operator
serve_sandwich_no_gluten sandw1 child3 tray2 table1
2
1 1
22 0
2
0 2 3 4
0 32 2 0
1
end_operator
begin_operator
serve_sandwich_no_gluten sandw1 child4 tray1 table3
2
0 3
22 0
2
0 2 2 4
0 33 2 0
1
end_operator
begin_operator
serve_sandwich_no_gluten sandw1 child4 tray2 table3
2
1 3
22 0
2
0 2 3 4
0 33 2 0
1
end_operator
begin_operator
serve_sandwich_no_gluten sandw2 child3 tray1 table1
2
0 1
23 0
2
0 3 2 4
0 32 2 0
1
end_operator
begin_operator
serve_sandwich_no_gluten sandw2 child3 tray2 table1
2
1 1
23 0
2
0 3 3 4
0 32 2 0
1
end_operator
begin_operator
serve_sandwich_no_gluten sandw2 child4 tray1 table3
2
0 3
23 0
2
0 3 2 4
0 33 2 0
1
end_operator
begin_operator
serve_sandwich_no_gluten sandw2 child4 tray2 table3
2
1 3
23 0
2
0 3 3 4
0 33 2 0
1
end_operator
begin_operator
serve_sandwich_no_gluten sandw3 child3 tray1 table1
2
0 1
24 0
2
0 4 2 4
0 32 2 0
1
end_operator
begin_operator
serve_sandwich_no_gluten sandw3 child3 tray2 table1
2
1 1
24 0
2
0 4 3 4
0 32 2 0
1
end_operator
begin_operator
serve_sandwich_no_gluten sandw3 child4 tray1 table3
2
0 3
24 0
2
0 4 2 4
0 33 2 0
1
end_operator
begin_operator
serve_sandwich_no_gluten sandw3 child4 tray2 table3
2
1 3
24 0
2
0 4 3 4
0 33 2 0
1
end_operator
begin_operator
serve_sandwich_no_gluten sandw4 child3 tray1 table1
2
0 1
25 0
2
0 5 2 4
0 32 2 0
1
end_operator
begin_operator
serve_sandwich_no_gluten sandw4 child3 tray2 table1
2
1 1
25 0
2
0 5 3 4
0 32 2 0
1
end_operator
begin_operator
serve_sandwich_no_gluten sandw4 child4 tray1 table3
2
0 3
25 0
2
0 5 2 4
0 33 2 0
1
end_operator
begin_operator
serve_sandwich_no_gluten sandw4 child4 tray2 table3
2
1 3
25 0
2
0 5 3 4
0 33 2 0
1
end_operator
begin_operator
serve_sandwich_no_gluten sandw5 child3 tray1 table1
2
0 1
26 0
2
0 6 2 4
0 32 2 0
1
end_operator
begin_operator
serve_sandwich_no_gluten sandw5 child3 tray2 table1
2
1 1
26 0
2
0 6 3 4
0 32 2 0
1
end_operator
begin_operator
serve_sandwich_no_gluten sandw5 child4 tray1 table3
2
0 3
26 0
2
0 6 2 4
0 33 2 0
1
end_operator
begin_operator
serve_sandwich_no_gluten sandw5 child4 tray2 table3
2
1 3
26 0
2
0 6 3 4
0 33 2 0
1
end_operator
begin_operator
serve_sandwich_no_gluten sandw6 child3 tray1 table1
2
0 1
27 0
2
0 7 2 4
0 32 2 0
1
end_operator
begin_operator
serve_sandwich_no_gluten sandw6 child3 tray2 table1
2
1 1
27 0
2
0 7 3 4
0 32 2 0
1
end_operator
begin_operator
serve_sandwich_no_gluten sandw6 child4 tray1 table3
2
0 3
27 0
2
0 7 2 4
0 33 2 0
1
end_operator
begin_operator
serve_sandwich_no_gluten sandw6 child4 tray2 table3
2
1 3
27 0
2
0 7 3 4
0 33 2 0
1
end_operator
begin_operator
serve_sandwich_no_gluten sandw7 child3 tray1 table1
2
0 1
28 0
2
0 8 2 4
0 32 2 0
1
end_operator
begin_operator
serve_sandwich_no_gluten sandw7 child3 tray2 table1
2
1 1
28 0
2
0 8 3 4
0 32 2 0
1
end_operator
begin_operator
serve_sandwich_no_gluten sandw7 child4 tray1 table3
2
0 3
28 0
2
0 8 2 4
0 33 2 0
1
end_operator
begin_operator
serve_sandwich_no_gluten sandw7 child4 tray2 table3
2
1 3
28 0
2
0 8 3 4
0 33 2 0
1
end_operator
begin_operator
serve_sandwich_no_gluten sandw8 child3 tray1 table1
2
0 1
29 0
2
0 9 2 4
0 32 2 0
1
end_operator
begin_operator
serve_sandwich_no_gluten sandw8 child3 tray2 table1
2
1 1
29 0
2
0 9 3 4
0 32 2 0
1
end_operator
begin_operator
serve_sandwich_no_gluten sandw8 child4 tray1 table3
2
0 3
29 0
2
0 9 2 4
0 33 2 0
1
end_operator
begin_operator
serve_sandwich_no_gluten sandw8 child4 tray2 table3
2
1 3
29 0
2
0 9 3 4
0 33 2 0
1
end_operator
begin_operator
tnf-forget-0-0
0
1
0 0 0 4
0
end_operator
begin_operator
tnf-forget-0-1
0
1
0 0 1 4
0
end_operator
begin_operator
tnf-forget-0-2
0
1
0 0 2 4
0
end_operator
begin_operator
tnf-forget-0-3
0
1
0 0 3 4
0
end_operator
begin_operator
tnf-forget-1-0
0
1
0 1 0 4
0
end_operator
begin_operator
tnf-forget-1-1
0
1
0 1 1 4
0
end_operator
begin_operator
tnf-forget-1-2
0
1
0 1 2 4
0
end_operator
begin_operator
tnf-forget-1-3
0
1
0 1 3 4
0
end_operator
begin_operator
tnf-forget-2-0
0
1
0 2 0 5
0
end_operator
begin_operator
tnf-forget-2-1
0
1
0 2 1 5
0
end_operator
begin_operator
tnf-forget-2-2
0
1
0 2 2 5
0
end_operator
begin_operator
tnf-forget-2-3
0
1
0 2 3 5
0
end_operator
begin_operator
tnf-forget-2-4
0
1
0 2 4 5
0
end_operator
begin_operator
tnf-forget-3-0
0
1
0 3 0 5
0
end_operator
begin_operator
tnf-forget-3-1
0
1
0 3 1 5
0
end_operator
begin_operator
tnf-forget-3-2
0
1
0 3 2 5
0
end_operator
begin_operator
tnf-forget-3-3
0
1
0 3 3 5
0
end_operator
begin_operator
tnf-forget-3-4
0
1
0 3 4 5
0
end_operator
begin_operator
tnf-forget-4-0
0
1
0 4 0 5
0
end_operator
begin_operator
tnf-forget-4-1
0
1
0 4 1 5
0
end_operator
begin_operator
tnf-forget-4-2
0
1
0 4 2 5
0
end_operator
begin_operator
tnf-forget-4-3
0
1
0 4 3 5
0
end_operator
begin_operator
tnf-forget-4-4
0
1
0 4 4 5
0
end_operator
begin_operator
tnf-forget-5-0
0
1
0 5 0 5
0
end_operator
begin_operator
tnf-forget-5-1
0
1
0 5 1 5
0
end_operator
begin_operator
tnf-forget-5-2
0
1
0 5 2 5
0
end_operator
begin_operator
tnf-forget-5-3
0
1
0 5 3 5
0
end_operator
begin_operator
tnf-forget-5-4
0
1
0 5 4 5
0
end_operator
begin_operator
tnf-forget-6-0
0
1
0 6 0 5
0
end_operator
begin_operator
tnf-forget-6-1
0
1
0 6 1 5
0
end_operator
begin_operator
tnf-forget-6-2
0
1
0 6 2 5
0
end_operator
begin_operator
tnf-forget-6-3
0
1
0 6 3 5
0
end_operator
begin_operator
tnf-forget-6-4
0
1
0 6 4 5
0
end_operator
begin_operator
tnf-forget-7-0
0
1
0 7 0 5
0
end_operator
begin_operator
tnf-forget-7-1
0
1
0 7 1 5
0
end_operator
begin_operator
tnf-forget-7-2
0
1
0 7 2 5
0
end_operator
begin_operator
tnf-forget-7-3
0
1
0 7 3 5
0
end_operator
begin_operator
tnf-forget-7-4
0
1
0 7 4 5
0
end_operator
begin_operator
tnf-forget-8-0
0
1
0 8 0 5
0
end_operator
begin_operator
tnf-forget-8-1
0
1
0 8 1 5
0
end_operator
begin_operator
tnf-forget-8-2
0
1
0 8 2 5
0
end_operator
begin_operator
tnf-forget-8-3
0
1
0 8 3 5
0
end_operator
begin_operator
tnf-forget-8-4
0
1
0 8 4 5
0
end_operator
begin_operator
tnf-forget-9-0
0
1
0 9 0 5
0
end_operator
begin_operator
tnf-forget-9-1
0
1
0 9 1 5
0
end_operator
begin_operator
tnf-forget-9-2
0
1
0 9 2 5
0
end_operator
begin_operator
tnf-forget-9-3
0
1
0 9 3 5
0
end_operator
begin_operator
tnf-forget-9-4
0
1
0 9 4 5
0
end_operator
begin_operator
tnf-forget-10-0
0
1
0 10 0 2
0
end_operator
begin_operator
tnf-forget-10-1
0
1
0 10 1 2
0
end_operator
begin_operator
tnf-forget-11-0
0
1
0 11 0 2
0
end_operator
begin_operator
tnf-forget-11-1
0
1
0 11 1 2
0
end_operator
begin_operator
tnf-forget-12-0
0
1
0 12 0 2
0
end_operator
begin_operator
tnf-forget-12-1
0
1
0 12 1 2
0
end_operator
begin_operator
tnf-forget-13-0
0
1
0 13 0 2
0
end_operator
begin_operator
tnf-forget-13-1
0
1
0 13 1 2
0
end_operator
begin_operator
tnf-forget-14-0
0
1
0 14 0 2
0
end_operator
begin_operator
tnf-forget-14-1
0
1
0 14 1 2
0
end_operator
begin_operator
tnf-forget-15-0
0
1
0 15 0 2
0
end_operator
begin_operator
tnf-forget-15-1
0
1
0 15 1 2
0
end_operator
begin_operator
tnf-forget-16-0
0
1
0 16 0 2
0
end_operator
begin_operator
tnf-forget-16-1
0
1
0 16 1 2
0
end_operator
begin_operator
tnf-forget-17-0
0
1
0 17 0 2
0
end_operator
begin_operator
tnf-forget-17-1
0
1
0 17 1 2
0
end_operator
begin_operator
tnf-forget-18-0
0
1
0 18 0 2
0
end_operator
begin_operator
tnf-forget-18-1
0
1
0 18 1 2
0
end_operator
begin_operator
tnf-forget-19-0
0
1
0 19 0 2
0
end_operator
begin_operator
tnf-forget-19-1
0
1
0 19 1 2
0
end_operator
begin_operator
tnf-forget-20-0
0
1
0 20 0 2
0
end_operator
begin_operator
tnf-forget-20-1
0
1
0 20 1 2
0
end_operator
begin_operator
tnf-forget-21-0
0
1
0 21 0 2
0
end_operator
begin_operator
tnf-forget-21-1
0
1
0 21 1 2
0
end_operator
begin_operator
tnf-forget-22-0
0
1
0 22 0 2
0
end_operator
begin_operator
tnf-forget-22-1
0
1
0 22 1 2
0
end_operator
begin_operator
tnf-forget-23-0
0
1
0 23 0 2
0
end_operator
begin_operator
tnf-forget-23-1
0
1
0 23 1 2
0
end_operator
begin_operator
tnf-forget-24-0
0
1
0 24 0 2
0
end_operator
begin_operator
tnf-forget-24-1
0
1
0 24 1 2
0
end_operator
begin_operator
tnf-forget-25-0
0
1
0 25 0 2
0
end_operator
begin_operator
tnf-forget-25-1
0
1
0 25 1 2
0
end_operator
begin_operator
tnf-forget-26-0
0
1
0 26 0 2
0
end_operator
begin_operator
tnf-forget-26-1
0
1
0 26 1 2
0
end_operator
begin_operator
tnf-forget-27-0
0
1
0 27 0 2
0
end_operator
begin_operator
tnf-forget-27-1
0
1
0 27 1 2
0
end_operator
begin_operator
tnf-forget-28-0
0
1
0 28 0 2
0
end_operator
begin_operator
tnf-forget-28-1
0
1
0 28 1 2
0
end_operator
begin_operator
tnf-forget-29-0
0
1
0 29 0 2
0
end_operator
begin_operator
tnf-forget-29-1
0
1
0 29 1 2
0
end_operator
begin_operator
tnf-forget-30-0
0
1
0 30 0 2
0
end_operator
begin_operator
tnf-forget-30-1
0
1
0 30 1 2
0
end_operator
begin_operator
tnf-forget-31-0
0
1
0 31 0 2
0
end_operator
begin_operator
tnf-forget-31-1
0
1
0 31 1 2
0
end_operator
begin_operator
tnf-forget-32-0
0
1
0 32 0 2
0
end_operator
begin_operator
tnf-forget-32-1
0
1
0 32 1 2
0
end_operator
begin_operator
tnf-forget-33-0
0
1
0 33 0 2
0
end_operator
begin_operator
tnf-forget-33-1
0
1
0 33 1 2
0
end_operator
begin_operator
tnf-forget-34-0
0
1
0 34 0 2
0
end_operator
begin_operator
tnf-forget-34-1
0
1
0 34 1 2
0
end_operator
begin_operator
tnf-forget-35-0
0
1
0 35 0 2
0
end_operator
begin_operator
tnf-forget-35-1
0
1
0 35 1 2
0
end_operator
0
