begin_version
3
end_version
begin_metric
1
end_metric
21
begin_variable
var0
-1
5
last-visited pos-1-2
last-visited pos-1-4
last-visited pos-3-2
last-visited pos-3-3
move-ended
end_variable
begin_variable
var1
-1
2
free pos-1-2
occupied pos-1-2
end_variable
begin_variable
var2
-1
2
free pos-1-3
occupied pos-1-3
end_variable
begin_variable
var3
-1
2
free pos-1-4
occupied pos-1-4
end_variable
begin_variable
var4
-1
2
free pos-2-2
occupied pos-2-2
end_variable
begin_variable
var5
-1
2
free pos-2-4
occupied pos-2-4
end_variable
begin_variable
var6
-1
2
free pos-3-1
occupied pos-3-1
end_variable
begin_variable
var7
-1
2
free pos-3-2
occupied pos-3-2
end_variable
begin_variable
var8
-1
2
free pos-3-3
occupied pos-3-3
end_variable
begin_variable
var9
-1
2
free pos-3-4
occupied pos-3-4
end_variable
begin_variable
var10
-1
2
free pos-0-2
none-of-those
end_variable
begin_variable
var11
-1
2
free pos-0-4
none-of-those
end_variable
begin_variable
var12
-1
2
free pos-3-0
none-of-those
end_variable
begin_variable
var13
-1
2
free pos-3-5
none-of-those
end_variable
begin_variable
var14
-1
2
free pos-3-6
none-of-those
end_variable
begin_variable
var15
-1
2
free pos-4-2
none-of-those
end_variable
begin_variable
var16
-1
2
free pos-4-4
none-of-those
end_variable
begin_variable
var17
-1
2
free pos-5-2
none-of-those
end_variable
begin_variable
var18
-1
2
free pos-5-4
none-of-those
end_variable
begin_variable
var19
-1
2
free pos-6-2
none-of-those
end_variable
begin_variable
var20
-1
2
free pos-6-4
none-of-those
end_variable
21
begin_mutex_group
1
10 0
end_mutex_group
begin_mutex_group
1
11 0
end_mutex_group
begin_mutex_group
1
12 0
end_mutex_group
begin_mutex_group
1
13 0
end_mutex_group
begin_mutex_group
1
14 0
end_mutex_group
begin_mutex_group
1
15 0
end_mutex_group
begin_mutex_group
1
16 0
end_mutex_group
begin_mutex_group
1
17 0
end_mutex_group
begin_mutex_group
1
18 0
end_mutex_group
begin_mutex_group
1
19 0
end_mutex_group
begin_mutex_group
1
20 0
end_mutex_group
begin_mutex_group
2
1 0
1 1
end_mutex_group
begin_mutex_group
2
2 0
2 1
end_mutex_group
begin_mutex_group
2
3 0
3 1
end_mutex_group
begin_mutex_group
2
4 0
4 1
end_mutex_group
begin_mutex_group
2
5 0
5 1
end_mutex_group
begin_mutex_group
2
6 0
6 1
end_mutex_group
begin_mutex_group
2
7 0
7 1
end_mutex_group
begin_mutex_group
2
8 0
8 1
end_mutex_group
begin_mutex_group
2
9 0
9 1
end_mutex_group
begin_mutex_group
5
0 0
0 1
0 2
0 3
0 4
end_mutex_group
begin_state
4
0
1
0
1
1
1
0
0
1
0
0
0
0
0
0
0
0
0
0
0
end_state
begin_goal
20
1 0
2 0
3 0
4 0
5 0
6 0
7 0
8 1
9 0
10 0
11 0
12 0
13 0
14 0
15 0
16 0
17 0
18 0
19 0
20 0
end_goal
10
begin_operator
end-move pos-1-2
0
1
0 0 0 4
0
end_operator
begin_operator
end-move pos-1-4
0
1
0 0 1 4
0
end_operator
begin_operator
end-move pos-3-2
0
1
0 0 2 4
0
end_operator
begin_operator
end-move pos-3-3
0
1
0 0 3 4
0
end_operator
begin_operator
jump-continue-move pos-1-2 pos-2-2 pos-3-2
0
4
0 0 0 2
0 1 1 0
0 4 1 0
0 7 0 1
0
end_operator
begin_operator
jump-continue-move pos-1-4 pos-1-3 pos-1-2
0
4
0 0 1 0
0 1 0 1
0 2 1 0
0 3 1 0
0
end_operator
begin_operator
jump-new-move pos-1-2 pos-2-2 pos-3-2
0
4
0 0 4 2
0 1 1 0
0 4 1 0
0 7 0 1
1
end_operator
begin_operator
jump-new-move pos-1-4 pos-1-3 pos-1-2
0
4
0 0 4 0
0 1 0 1
0 2 1 0
0 3 1 0
1
end_operator
begin_operator
jump-new-move pos-3-1 pos-3-2 pos-3-3
0
4
0 0 4 3
0 6 1 0
0 7 1 0
0 8 0 1
1
end_operator
begin_operator
jump-new-move pos-3-4 pos-2-4 pos-1-4
0
4
0 0 4 1
0 3 0 1
0 5 1 0
0 9 1 0
1
end_operator
0
