begin_version
3
end_version
begin_metric
1
end_metric
25
begin_variable
var0
-1
9
clean shot5
contains shot5 cocktail1
contains shot5 cocktail2
contains shot5 cocktail3
contains shot5 cocktail4
used shot5 ingredient1
used shot5 ingredient2
used shot5 ingredient3
none-of-those
end_variable
begin_variable
var1
-1
7
handempty left
holding left shaker1
holding left shot1
holding left shot2
holding left shot3
holding left shot4
holding left shot5
end_variable
begin_variable
var2
-1
7
handempty right
holding right shaker1
holding right shot1
holding right shot2
holding right shot3
holding right shot4
holding right shot5
end_variable
begin_variable
var3
-1
6
contains shaker1 cocktail1
contains shaker1 cocktail2
contains shaker1 cocktail3
contains shaker1 cocktail4
empty shaker1
unshaked shaker1
end_variable
begin_variable
var4
-1
6
clean shot1
contains shot1 cocktail4
used shot1 ingredient1
used shot1 ingredient2
used shot1 ingredient3
none-of-those
end_variable
begin_variable
var5
-1
6
clean shot2
contains shot2 cocktail2
used shot2 ingredient1
used shot2 ingredient2
used shot2 ingredient3
none-of-those
end_variable
begin_variable
var6
-1
6
clean shot3
contains shot3 cocktail3
used shot3 ingredient1
used shot3 ingredient2
used shot3 ingredient3
none-of-those
end_variable
begin_variable
var7
-1
6
clean shot4
contains shot4 cocktail1
used shot4 ingredient1
used shot4 ingredient2
used shot4 ingredient3
none-of-those
end_variable
begin_variable
var8
-1
5
contains shot1 ingredient1
contains shot1 ingredient2
contains shot1 ingredient3
empty shot1
none-of-those
end_variable
begin_variable
var9
-1
5
contains shot2 ingredient1
contains shot2 ingredient2
contains shot2 ingredient3
empty shot2
none-of-those
end_variable
begin_variable
var10
-1
5
contains shot3 ingredient1
contains shot3 ingredient2
contains shot3 ingredient3
empty shot3
none-of-those
end_variable
begin_variable
var11
-1
5
contains shot4 ingredient1
contains shot4 ingredient2
contains shot4 ingredient3
empty shot4
none-of-those
end_variable
begin_variable
var12
-1
5
contains shot5 ingredient1
contains shot5 ingredient2
contains shot5 ingredient3
empty shot5
none-of-those
end_variable
begin_variable
var13
-1
3
shaker-level shaker1 l0
shaker-level shaker1 l1
shaker-level shaker1 l2
end_variable
begin_variable
var14
-1
2
ontable shaker1
none-of-those
end_variable
begin_variable
var15
-1
2
ontable shot1
none-of-those
end_variable
begin_variable
var16
-1
2
ontable shot2
none-of-those
end_variable
begin_variable
var17
-1
2
ontable shot3
none-of-those
end_variable
begin_variable
var18
-1
2
ontable shot4
none-of-those
end_variable
begin_variable
var19
-1
2
ontable shot5
none-of-those
end_variable
begin_variable
var20
-1
2
shaked shaker1
none-of-those
end_variable
begin_variable
var21
-1
2
clean shaker1
none-of-those
end_variable
begin_variable
var22
-1
2
contains shaker1 ingredient1
none-of-those
end_variable
begin_variable
var23
-1
2
contains shaker1 ingredient2
none-of-those
end_variable
begin_variable
var24
-1
2
contains shaker1 ingredient3
none-of-those
end_variable
30
begin_mutex_group
3
3 4
20 0
3 5
end_mutex_group
begin_mutex_group
3
1 1
2 1
14 0
end_mutex_group
begin_mutex_group
3
1 2
2 2
15 0
end_mutex_group
begin_mutex_group
3
1 3
2 3
16 0
end_mutex_group
begin_mutex_group
3
1 4
2 4
17 0
end_mutex_group
begin_mutex_group
3
1 5
2 5
18 0
end_mutex_group
begin_mutex_group
3
1 6
2 6
19 0
end_mutex_group
begin_mutex_group
3
13 0
13 1
13 2
end_mutex_group
begin_mutex_group
4
4 0
4 2
4 3
4 4
end_mutex_group
begin_mutex_group
4
5 0
5 2
5 3
5 4
end_mutex_group
begin_mutex_group
4
6 0
6 2
6 3
6 4
end_mutex_group
begin_mutex_group
4
7 0
7 2
7 3
7 4
end_mutex_group
begin_mutex_group
4
0 0
0 5
0 6
0 7
end_mutex_group
begin_mutex_group
5
4 0
4 1
4 2
4 3
4 4
end_mutex_group
begin_mutex_group
5
5 0
5 1
5 2
5 3
5 4
end_mutex_group
begin_mutex_group
5
6 0
6 1
6 2
6 3
6 4
end_mutex_group
begin_mutex_group
5
7 0
7 1
7 2
7 3
7 4
end_mutex_group
begin_mutex_group
5
0 0
0 1
0 5
0 6
0 7
end_mutex_group
begin_mutex_group
5
0 0
0 2
0 5
0 6
0 7
end_mutex_group
begin_mutex_group
5
0 0
0 3
0 5
0 6
0 7
end_mutex_group
begin_mutex_group
5
0 0
0 4
0 5
0 6
0 7
end_mutex_group
begin_mutex_group
5
4 1
8 0
8 1
8 2
8 3
end_mutex_group
begin_mutex_group
5
5 1
9 0
9 1
9 2
9 3
end_mutex_group
begin_mutex_group
5
6 1
10 0
10 1
10 2
10 3
end_mutex_group
begin_mutex_group
5
7 1
11 0
11 1
11 2
11 3
end_mutex_group
begin_mutex_group
6
3 0
3 1
3 2
3 3
3 4
3 5
end_mutex_group
begin_mutex_group
7
1 0
1 1
1 2
1 3
1 4
1 5
1 6
end_mutex_group
begin_mutex_group
7
2 0
2 1
2 2
2 3
2 4
2 5
2 6
end_mutex_group
begin_mutex_group
8
0 0
0 1
0 2
0 3
0 4
0 5
0 6
0 7
end_mutex_group
begin_mutex_group
8
0 1
0 2
0 3
0 4
12 0
12 1
12 2
12 3
end_mutex_group
begin_state
0
0
0
4
0
0
0
0
3
3
3
3
3
0
0
0
0
0
0
0
1
0
1
1
1
end_state
begin_goal
4
4 1
5 1
6 1
7 1
end_goal
326
begin_operator
clean-shaker left right shaker1
3
1 1
2 0
3 4
1
0 21 -1 0
1
end_operator
begin_operator
clean-shaker right left shaker1
3
1 0
2 1
3 4
1
0 21 -1 0
1
end_operator
begin_operator
clean-shot shot1 ingredient1 left right
3
1 2
2 0
8 3
1
0 4 2 0
1
end_operator
begin_operator
clean-shot shot1 ingredient1 right left
3
1 0
2 2
8 3
1
0 4 2 0
1
end_operator
begin_operator
clean-shot shot1 ingredient2 left right
3
1 2
2 0
8 3
1
0 4 3 0
1
end_operator
begin_operator
clean-shot shot1 ingredient2 right left
3
1 0
2 2
8 3
1
0 4 3 0
1
end_operator
begin_operator
clean-shot shot1 ingredient3 left right
3
1 2
2 0
8 3
1
0 4 4 0
1
end_operator
begin_operator
clean-shot shot1 ingredient3 right left
3
1 0
2 2
8 3
1
0 4 4 0
1
end_operator
begin_operator
clean-shot shot2 ingredient1 left right
3
1 3
2 0
9 3
1
0 5 2 0
1
end_operator
begin_operator
clean-shot shot2 ingredient1 right left
3
1 0
2 3
9 3
1
0 5 2 0
1
end_operator
begin_operator
clean-shot shot2 ingredient2 left right
3
1 3
2 0
9 3
1
0 5 3 0
1
end_operator
begin_operator
clean-shot shot2 ingredient2 right left
3
1 0
2 3
9 3
1
0 5 3 0
1
end_operator
begin_operator
clean-shot shot2 ingredient3 left right
3
1 3
2 0
9 3
1
0 5 4 0
1
end_operator
begin_operator
clean-shot shot2 ingredient3 right left
3
1 0
2 3
9 3
1
0 5 4 0
1
end_operator
begin_operator
clean-shot shot3 ingredient1 left right
3
1 4
2 0
10 3
1
0 6 2 0
1
end_operator
begin_operator
clean-shot shot3 ingredient1 right left
3
1 0
2 4
10 3
1
0 6 2 0
1
end_operator
begin_operator
clean-shot shot3 ingredient2 left right
3
1 4
2 0
10 3
1
0 6 3 0
1
end_operator
begin_operator
clean-shot shot3 ingredient2 right left
3
1 0
2 4
10 3
1
0 6 3 0
1
end_operator
begin_operator
clean-shot shot3 ingredient3 left right
3
1 4
2 0
10 3
1
0 6 4 0
1
end_operator
begin_operator
clean-shot shot3 ingredient3 right left
3
1 0
2 4
10 3
1
0 6 4 0
1
end_operator
begin_operator
clean-shot shot4 ingredient1 left right
3
1 5
2 0
11 3
1
0 7 2 0
1
end_operator
begin_operator
clean-shot shot4 ingredient1 right left
3
1 0
2 5
11 3
1
0 7 2 0
1
end_operator
begin_operator
clean-shot shot4 ingredient2 left right
3
1 5
2 0
11 3
1
0 7 3 0
1
end_operator
begin_operator
clean-shot shot4 ingredient2 right left
3
1 0
2 5
11 3
1
0 7 3 0
1
end_operator
begin_operator
clean-shot shot4 ingredient3 left right
3
1 5
2 0
11 3
1
0 7 4 0
1
end_operator
begin_operator
clean-shot shot4 ingredient3 right left
3
1 0
2 5
11 3
1
0 7 4 0
1
end_operator
begin_operator
clean-shot shot5 ingredient1 left right
3
1 6
2 0
12 3
1
0 0 5 0
1
end_operator
begin_operator
clean-shot shot5 ingredient1 right left
3
1 0
2 6
12 3
1
0 0 5 0
1
end_operator
begin_operator
clean-shot shot5 ingredient2 left right
3
1 6
2 0
12 3
1
0 0 6 0
1
end_operator
begin_operator
clean-shot shot5 ingredient2 right left
3
1 0
2 6
12 3
1
0 0 6 0
1
end_operator
begin_operator
clean-shot shot5 ingredient3 left right
3
1 6
2 0
12 3
1
0 0 7 0
1
end_operator
begin_operator
clean-shot shot5 ingredient3 right left
3
1 0
2 6
12 3
1
0 0 7 0
1
end_operator
begin_operator
empty-shaker left shaker1 cocktail1 l0 l0
2
1 1
13 0
2
0 3 0 4
0 20 0 1
1
end_operator
begin_operator
empty-shaker left shaker1 cocktail1 l1 l0
1
1 1
3
0 3 0 4
0 13 1 0
0 20 0 1
1
end_operator
begin_operator
empty-shaker left shaker1 cocktail1 l2 l0
1
1 1
3
0 3 0 4
0 13 2 0
0 20 0 1
1
end_operator
begin_operator
empty-shaker left shaker1 cocktail2 l0 l0
2
1 1
13 0
2
0 3 1 4
0 20 0 1
1
end_operator
begin_operator
empty-shaker left shaker1 cocktail2 l1 l0
1
1 1
3
0 3 1 4
0 13 1 0
0 20 0 1
1
end_operator
begin_operator
empty-shaker left shaker1 cocktail2 l2 l0
1
1 1
3
0 3 1 4
0 13 2 0
0 20 0 1
1
end_operator
begin_operator
empty-shaker left shaker1 cocktail3 l0 l0
2
1 1
13 0
2
0 3 2 4
0 20 0 1
1
end_operator
begin_operator
empty-shaker left shaker1 cocktail3 l1 l0
1
1 1
3
0 3 2 4
0 13 1 0
0 20 0 1
1
end_operator
begin_operator
empty-shaker left shaker1 cocktail3 l2 l0
1
1 1
3
0 3 2 4
0 13 2 0
0 20 0 1
1
end_operator
begin_operator
empty-shaker left shaker1 cocktail4 l0 l0
2
1 1
13 0
2
0 3 3 4
0 20 0 1
1
end_operator
begin_operator
empty-shaker left shaker1 cocktail4 l1 l0
1
1 1
3
0 3 3 4
0 13 1 0
0 20 0 1
1
end_operator
begin_operator
empty-shaker left shaker1 cocktail4 l2 l0
1
1 1
3
0 3 3 4
0 13 2 0
0 20 0 1
1
end_operator
begin_operator
empty-shaker right shaker1 cocktail1 l0 l0
2
2 1
13 0
2
0 3 0 4
0 20 0 1
1
end_operator
begin_operator
empty-shaker right shaker1 cocktail1 l1 l0
1
2 1
3
0 3 0 4
0 13 1 0
0 20 0 1
1
end_operator
begin_operator
empty-shaker right shaker1 cocktail1 l2 l0
1
2 1
3
0 3 0 4
0 13 2 0
0 20 0 1
1
end_operator
begin_operator
empty-shaker right shaker1 cocktail2 l0 l0
2
2 1
13 0
2
0 3 1 4
0 20 0 1
1
end_operator
begin_operator
empty-shaker right shaker1 cocktail2 l1 l0
1
2 1
3
0 3 1 4
0 13 1 0
0 20 0 1
1
end_operator
begin_operator
empty-shaker right shaker1 cocktail2 l2 l0
1
2 1
3
0 3 1 4
0 13 2 0
0 20 0 1
1
end_operator
begin_operator
empty-shaker right shaker1 cocktail3 l0 l0
2
2 1
13 0
2
0 3 2 4
0 20 0 1
1
end_operator
begin_operator
empty-shaker right shaker1 cocktail3 l1 l0
1
2 1
3
0 3 2 4
0 13 1 0
0 20 0 1
1
end_operator
begin_operator
empty-shaker right shaker1 cocktail3 l2 l0
1
2 1
3
0 3 2 4
0 13 2 0
0 20 0 1
1
end_operator
begin_operator
empty-shaker right shaker1 cocktail4 l0 l0
2
2 1
13 0
2
0 3 3 4
0 20 0 1
1
end_operator
begin_operator
empty-shaker right shaker1 cocktail4 l1 l0
1
2 1
3
0 3 3 4
0 13 1 0
0 20 0 1
1
end_operator
begin_operator
empty-shaker right shaker1 cocktail4 l2 l0
1
2 1
3
0 3 3 4
0 13 2 0
0 20 0 1
1
end_operator
begin_operator
empty-shot left shot1 cocktail4
1
1 2
2
0 4 1 5
0 8 -1 3
1
end_operator
begin_operator
empty-shot left shot1 ingredient1
1
1 2
1
0 8 0 3
1
end_operator
begin_operator
empty-shot left shot1 ingredient2
1
1 2
1
0 8 1 3
1
end_operator
begin_operator
empty-shot left shot1 ingredient3
1
1 2
1
0 8 2 3
1
end_operator
begin_operator
empty-shot left shot2 cocktail2
1
1 3
2
0 5 1 5
0 9 -1 3
1
end_operator
begin_operator
empty-shot left shot2 ingredient1
1
1 3
1
0 9 0 3
1
end_operator
begin_operator
empty-shot left shot2 ingredient2
1
1 3
1
0 9 1 3
1
end_operator
begin_operator
empty-shot left shot2 ingredient3
1
1 3
1
0 9 2 3
1
end_operator
begin_operator
empty-shot left shot3 cocktail3
1
1 4
2
0 6 1 5
0 10 -1 3
1
end_operator
begin_operator
empty-shot left shot3 ingredient1
1
1 4
1
0 10 0 3
1
end_operator
begin_operator
empty-shot left shot3 ingredient2
1
1 4
1
0 10 1 3
1
end_operator
begin_operator
empty-shot left shot3 ingredient3
1
1 4
1
0 10 2 3
1
end_operator
begin_operator
empty-shot left shot4 cocktail1
1
1 5
2
0 7 1 5
0 11 -1 3
1
end_operator
begin_operator
empty-shot left shot4 ingredient1
1
1 5
1
0 11 0 3
1
end_operator
begin_operator
empty-shot left shot4 ingredient2
1
1 5
1
0 11 1 3
1
end_operator
begin_operator
empty-shot left shot4 ingredient3
1
1 5
1
0 11 2 3
1
end_operator
begin_operator
empty-shot left shot5 cocktail1
1
1 6
2
0 0 1 8
0 12 -1 3
1
end_operator
begin_operator
empty-shot left shot5 cocktail2
1
1 6
2
0 0 2 8
0 12 -1 3
1
end_operator
begin_operator
empty-shot left shot5 cocktail3
1
1 6
2
0 0 3 8
0 12 -1 3
1
end_operator
begin_operator
empty-shot left shot5 cocktail4
1
1 6
2
0 0 4 8
0 12 -1 3
1
end_operator
begin_operator
empty-shot left shot5 ingredient1
1
1 6
1
0 12 0 3
1
end_operator
begin_operator
empty-shot left shot5 ingredient2
1
1 6
1
0 12 1 3
1
end_operator
begin_operator
empty-shot left shot5 ingredient3
1
1 6
1
0 12 2 3
1
end_operator
begin_operator
empty-shot right shot1 cocktail4
1
2 2
2
0 4 1 5
0 8 -1 3
1
end_operator
begin_operator
empty-shot right shot1 ingredient1
1
2 2
1
0 8 0 3
1
end_operator
begin_operator
empty-shot right shot1 ingredient2
1
2 2
1
0 8 1 3
1
end_operator
begin_operator
empty-shot right shot1 ingredient3
1
2 2
1
0 8 2 3
1
end_operator
begin_operator
empty-shot right shot2 cocktail2
1
2 3
2
0 5 1 5
0 9 -1 3
1
end_operator
begin_operator
empty-shot right shot2 ingredient1
1
2 3
1
0 9 0 3
1
end_operator
begin_operator
empty-shot right shot2 ingredient2
1
2 3
1
0 9 1 3
1
end_operator
begin_operator
empty-shot right shot2 ingredient3
1
2 3
1
0 9 2 3
1
end_operator
begin_operator
empty-shot right shot3 cocktail3
1
2 4
2
0 6 1 5
0 10 -1 3
1
end_operator
begin_operator
empty-shot right shot3 ingredient1
1
2 4
1
0 10 0 3
1
end_operator
begin_operator
empty-shot right shot3 ingredient2
1
2 4
1
0 10 1 3
1
end_operator
begin_operator
empty-shot right shot3 ingredient3
1
2 4
1
0 10 2 3
1
end_operator
begin_operator
empty-shot right shot4 cocktail1
1
2 5
2
0 7 1 5
0 11 -1 3
1
end_operator
begin_operator
empty-shot right shot4 ingredient1
1
2 5
1
0 11 0 3
1
end_operator
begin_operator
empty-shot right shot4 ingredient2
1
2 5
1
0 11 1 3
1
end_operator
begin_operator
empty-shot right shot4 ingredient3
1
2 5
1
0 11 2 3
1
end_operator
begin_operator
empty-shot right shot5 cocktail1
1
2 6
2
0 0 1 8
0 12 -1 3
1
end_operator
begin_operator
empty-shot right shot5 cocktail2
1
2 6
2
0 0 2 8
0 12 -1 3
1
end_operator
begin_operator
empty-shot right shot5 cocktail3
1
2 6
2
0 0 3 8
0 12 -1 3
1
end_operator
begin_operator
empty-shot right shot5 cocktail4
1
2 6
2
0 0 4 8
0 12 -1 3
1
end_operator
begin_operator
empty-shot right shot5 ingredient1
1
2 6
1
0 12 0 3
1
end_operator
begin_operator
empty-shot right shot5 ingredient2
1
2 6
1
0 12 1 3
1
end_operator
begin_operator
empty-shot right shot5 ingredient3
1
2 6
1
0 12 2 3
1
end_operator
begin_operator
fill-shot shot1 ingredient1 left right dispenser1
2
1 2
2 0
2
0 4 0 2
0 8 3 0
1
end_operator
begin_operator
fill-shot shot1 ingredient1 right left dispenser1
2
1 0
2 2
2
0 4 0 2
0 8 3 0
1
end_operator
begin_operator
fill-shot shot1 ingredient2 left right dispenser2
2
1 2
2 0
2
0 4 0 3
0 8 3 1
1
end_operator
begin_operator
fill-shot shot1 ingredient2 right left dispenser2
2
1 0
2 2
2
0 4 0 3
0 8 3 1
1
end_operator
begin_operator
fill-shot shot1 ingredient3 left right dispenser3
2
1 2
2 0
2
0 4 0 4
0 8 3 2
1
end_operator
begin_operator
fill-shot shot1 ingredient3 right left dispenser3
2
1 0
2 2
2
0 4 0 4
0 8 3 2
1
end_operator
begin_operator
fill-shot shot2 ingredient1 left right dispenser1
2
1 3
2 0
2
0 5 0 2
0 9 3 0
1
end_operator
begin_operator
fill-shot shot2 ingredient1 right left dispenser1
2
1 0
2 3
2
0 5 0 2
0 9 3 0
1
end_operator
begin_operator
fill-shot shot2 ingredient2 left right dispenser2
2
1 3
2 0
2
0 5 0 3
0 9 3 1
1
end_operator
begin_operator
fill-shot shot2 ingredient2 right left dispenser2
2
1 0
2 3
2
0 5 0 3
0 9 3 1
1
end_operator
begin_operator
fill-shot shot2 ingredient3 left right dispenser3
2
1 3
2 0
2
0 5 0 4
0 9 3 2
1
end_operator
begin_operator
fill-shot shot2 ingredient3 right left dispenser3
2
1 0
2 3
2
0 5 0 4
0 9 3 2
1
end_operator
begin_operator
fill-shot shot3 ingredient1 left right dispenser1
2
1 4
2 0
2
0 6 0 2
0 10 3 0
1
end_operator
begin_operator
fill-shot shot3 ingredient1 right left dispenser1
2
1 0
2 4
2
0 6 0 2
0 10 3 0
1
end_operator
begin_operator
fill-shot shot3 ingredient2 left right dispenser2
2
1 4
2 0
2
0 6 0 3
0 10 3 1
1
end_operator
begin_operator
fill-shot shot3 ingredient2 right left dispenser2
2
1 0
2 4
2
0 6 0 3
0 10 3 1
1
end_operator
begin_operator
fill-shot shot3 ingredient3 left right dispenser3
2
1 4
2 0
2
0 6 0 4
0 10 3 2
1
end_operator
begin_operator
fill-shot shot3 ingredient3 right left dispenser3
2
1 0
2 4
2
0 6 0 4
0 10 3 2
1
end_operator
begin_operator
fill-shot shot4 ingredient1 left right dispenser1
2
1 5
2 0
2
0 7 0 2
0 11 3 0
1
end_operator
begin_operator
fill-shot shot4 ingredient1 right left dispenser1
2
1 0
2 5
2
0 7 0 2
0 11 3 0
1
end_operator
begin_operator
fill-shot shot4 ingredient2 left right dispenser2
2
1 5
2 0
2
0 7 0 3
0 11 3 1
1
end_operator
begin_operator
fill-shot shot4 ingredient2 right left dispenser2
2
1 0
2 5
2
0 7 0 3
0 11 3 1
1
end_operator
begin_operator
fill-shot shot4 ingredient3 left right dispenser3
2
1 5
2 0
2
0 7 0 4
0 11 3 2
1
end_operator
begin_operator
fill-shot shot4 ingredient3 right left dispenser3
2
1 0
2 5
2
0 7 0 4
0 11 3 2
1
end_operator
begin_operator
fill-shot shot5 ingredient1 left right dispenser1
2
1 6
2 0
2
0 0 0 5
0 12 3 0
1
end_operator
begin_operator
fill-shot shot5 ingredient1 right left dispenser1
2
1 0
2 6
2
0 0 0 5
0 12 3 0
1
end_operator
begin_operator
fill-shot shot5 ingredient2 left right dispenser2
2
1 6
2 0
2
0 0 0 6
0 12 3 1
1
end_operator
begin_operator
fill-shot shot5 ingredient2 right left dispenser2
2
1 0
2 6
2
0 0 0 6
0 12 3 1
1
end_operator
begin_operator
fill-shot shot5 ingredient3 left right dispenser3
2
1 6
2 0
2
0 0 0 7
0 12 3 2
1
end_operator
begin_operator
fill-shot shot5 ingredient3 right left dispenser3
2
1 0
2 6
2
0 0 0 7
0 12 3 2
1
end_operator
begin_operator
grasp left shaker1
0
2
0 1 0 1
0 14 0 1
1
end_operator
begin_operator
grasp left shot1
0
2
0 1 0 2
0 15 0 1
1
end_operator
begin_operator
grasp left shot2
0
2
0 1 0 3
0 16 0 1
1
end_operator
begin_operator
grasp left shot3
0
2
0 1 0 4
0 17 0 1
1
end_operator
begin_operator
grasp left shot4
0
2
0 1 0 5
0 18 0 1
1
end_operator
begin_operator
grasp left shot5
0
2
0 1 0 6
0 19 0 1
1
end_operator
begin_operator
grasp right shaker1
0
2
0 2 0 1
0 14 0 1
1
end_operator
begin_operator
grasp right shot1
0
2
0 2 0 2
0 15 0 1
1
end_operator
begin_operator
grasp right shot2
0
2
0 2 0 3
0 16 0 1
1
end_operator
begin_operator
grasp right shot3
0
2
0 2 0 4
0 17 0 1
1
end_operator
begin_operator
grasp right shot4
0
2
0 2 0 5
0 18 0 1
1
end_operator
begin_operator
grasp right shot5
0
2
0 2 0 6
0 19 0 1
1
end_operator
begin_operator
leave left shaker1
0
2
0 1 1 0
0 14 -1 0
1
end_operator
begin_operator
leave left shot1
0
2
0 1 2 0
0 15 -1 0
1
end_operator
begin_operator
leave left shot2
0
2
0 1 3 0
0 16 -1 0
1
end_operator
begin_operator
leave left shot3
0
2
0 1 4 0
0 17 -1 0
1
end_operator
begin_operator
leave left shot4
0
2
0 1 5 0
0 18 -1 0
1
end_operator
begin_operator
leave left shot5
0
2
0 1 6 0
0 19 -1 0
1
end_operator
begin_operator
leave right shaker1
0
2
0 2 1 0
0 14 -1 0
1
end_operator
begin_operator
leave right shot1
0
2
0 2 2 0
0 15 -1 0
1
end_operator
begin_operator
leave right shot2
0
2
0 2 3 0
0 16 -1 0
1
end_operator
begin_operator
leave right shot3
0
2
0 2 4 0
0 17 -1 0
1
end_operator
begin_operator
leave right shot4
0
2
0 2 5 0
0 18 -1 0
1
end_operator
begin_operator
leave right shot5
0
2
0 2 6 0
0 19 -1 0
1
end_operator
begin_operator
pour-shaker-to-shot cocktail1 shot4 left shaker1 l1 l0
3
1 1
3 0
20 0
3
0 7 0 1
0 11 3 4
0 13 1 0
1
end_operator
begin_operator
pour-shaker-to-shot cocktail1 shot4 left shaker1 l2 l1
3
1 1
3 0
20 0
3
0 7 0 1
0 11 3 4
0 13 2 1
1
end_operator
begin_operator
pour-shaker-to-shot cocktail1 shot4 right shaker1 l1 l0
3
2 1
3 0
20 0
3
0 7 0 1
0 11 3 4
0 13 1 0
1
end_operator
begin_operator
pour-shaker-to-shot cocktail1 shot4 right shaker1 l2 l1
3
2 1
3 0
20 0
3
0 7 0 1
0 11 3 4
0 13 2 1
1
end_operator
begin_operator
pour-shaker-to-shot cocktail1 shot5 left shaker1 l1 l0
3
1 1
3 0
20 0
3
0 0 0 1
0 12 3 4
0 13 1 0
1
end_operator
begin_operator
pour-shaker-to-shot cocktail1 shot5 left shaker1 l2 l1
3
1 1
3 0
20 0
3
0 0 0 1
0 12 3 4
0 13 2 1
1
end_operator
begin_operator
pour-shaker-to-shot cocktail1 shot5 right shaker1 l1 l0
3
2 1
3 0
20 0
3
0 0 0 1
0 12 3 4
0 13 1 0
1
end_operator
begin_operator
pour-shaker-to-shot cocktail1 shot5 right shaker1 l2 l1
3
2 1
3 0
20 0
3
0 0 0 1
0 12 3 4
0 13 2 1
1
end_operator
begin_operator
pour-shaker-to-shot cocktail2 shot2 left shaker1 l1 l0
3
1 1
3 1
20 0
3
0 5 0 1
0 9 3 4
0 13 1 0
1
end_operator
begin_operator
pour-shaker-to-shot cocktail2 shot2 left shaker1 l2 l1
3
1 1
3 1
20 0
3
0 5 0 1
0 9 3 4
0 13 2 1
1
end_operator
begin_operator
pour-shaker-to-shot cocktail2 shot2 right shaker1 l1 l0
3
2 1
3 1
20 0
3
0 5 0 1
0 9 3 4
0 13 1 0
1
end_operator
begin_operator
pour-shaker-to-shot cocktail2 shot2 right shaker1 l2 l1
3
2 1
3 1
20 0
3
0 5 0 1
0 9 3 4
0 13 2 1
1
end_operator
begin_operator
pour-shaker-to-shot cocktail2 shot5 left shaker1 l1 l0
3
1 1
3 1
20 0
3
0 0 0 2
0 12 3 4
0 13 1 0
1
end_operator
begin_operator
pour-shaker-to-shot cocktail2 shot5 left shaker1 l2 l1
3
1 1
3 1
20 0
3
0 0 0 2
0 12 3 4
0 13 2 1
1
end_operator
begin_operator
pour-shaker-to-shot cocktail2 shot5 right shaker1 l1 l0
3
2 1
3 1
20 0
3
0 0 0 2
0 12 3 4
0 13 1 0
1
end_operator
begin_operator
pour-shaker-to-shot cocktail2 shot5 right shaker1 l2 l1
3
2 1
3 1
20 0
3
0 0 0 2
0 12 3 4
0 13 2 1
1
end_operator
begin_operator
pour-shaker-to-shot cocktail3 shot3 left shaker1 l1 l0
3
1 1
3 2
20 0
3
0 6 0 1
0 10 3 4
0 13 1 0
1
end_operator
begin_operator
pour-shaker-to-shot cocktail3 shot3 left shaker1 l2 l1
3
1 1
3 2
20 0
3
0 6 0 1
0 10 3 4
0 13 2 1
1
end_operator
begin_operator
pour-shaker-to-shot cocktail3 shot3 right shaker1 l1 l0
3
2 1
3 2
20 0
3
0 6 0 1
0 10 3 4
0 13 1 0
1
end_operator
begin_operator
pour-shaker-to-shot cocktail3 shot3 right shaker1 l2 l1
3
2 1
3 2
20 0
3
0 6 0 1
0 10 3 4
0 13 2 1
1
end_operator
begin_operator
pour-shaker-to-shot cocktail3 shot5 left shaker1 l1 l0
3
1 1
3 2
20 0
3
0 0 0 3
0 12 3 4
0 13 1 0
1
end_operator
begin_operator
pour-shaker-to-shot cocktail3 shot5 left shaker1 l2 l1
3
1 1
3 2
20 0
3
0 0 0 3
0 12 3 4
0 13 2 1
1
end_operator
begin_operator
pour-shaker-to-shot cocktail3 shot5 right shaker1 l1 l0
3
2 1
3 2
20 0
3
0 0 0 3
0 12 3 4
0 13 1 0
1
end_operator
begin_operator
pour-shaker-to-shot cocktail3 shot5 right shaker1 l2 l1
3
2 1
3 2
20 0
3
0 0 0 3
0 12 3 4
0 13 2 1
1
end_operator
begin_operator
pour-shaker-to-shot cocktail4 shot1 left shaker1 l1 l0
3
1 1
3 3
20 0
3
0 4 0 1
0 8 3 4
0 13 1 0
1
end_operator
begin_operator
pour-shaker-to-shot cocktail4 shot1 left shaker1 l2 l1
3
1 1
3 3
20 0
3
0 4 0 1
0 8 3 4
0 13 2 1
1
end_operator
begin_operator
pour-shaker-to-shot cocktail4 shot1 right shaker1 l1 l0
3
2 1
3 3
20 0
3
0 4 0 1
0 8 3 4
0 13 1 0
1
end_operator
begin_operator
pour-shaker-to-shot cocktail4 shot1 right shaker1 l2 l1
3
2 1
3 3
20 0
3
0 4 0 1
0 8 3 4
0 13 2 1
1
end_operator
begin_operator
pour-shaker-to-shot cocktail4 shot5 left shaker1 l1 l0
3
1 1
3 3
20 0
3
0 0 0 4
0 12 3 4
0 13 1 0
1
end_operator
begin_operator
pour-shaker-to-shot cocktail4 shot5 left shaker1 l2 l1
3
1 1
3 3
20 0
3
0 0 0 4
0 12 3 4
0 13 2 1
1
end_operator
begin_operator
pour-shaker-to-shot cocktail4 shot5 right shaker1 l1 l0
3
2 1
3 3
20 0
3
0 0 0 4
0 12 3 4
0 13 1 0
1
end_operator
begin_operator
pour-shaker-to-shot cocktail4 shot5 right shaker1 l2 l1
3
2 1
3 3
20 0
3
0 0 0 4
0 12 3 4
0 13 2 1
1
end_operator
begin_operator
pour-shaker-to-shot ingredient1 shot1 left shaker1 l1 l0
3
1 1
20 0
22 0
3
0 4 0 5
0 8 3 0
0 13 1 0
1
end_operator
begin_operator
pour-shaker-to-shot ingredient1 shot1 left shaker1 l2 l1
3
1 1
20 0
22 0
3
0 4 0 5
0 8 3 0
0 13 2 1
1
end_operator
begin_operator
pour-shaker-to-shot ingredient1 shot1 right shaker1 l1 l0
3
2 1
20 0
22 0
3
0 4 0 5
0 8 3 0
0 13 1 0
1
end_operator
begin_operator
pour-shaker-to-shot ingredient1 shot1 right shaker1 l2 l1
3
2 1
20 0
22 0
3
0 4 0 5
0 8 3 0
0 13 2 1
1
end_operator
begin_operator
pour-shaker-to-shot ingredient1 shot2 left shaker1 l1 l0
3
1 1
20 0
22 0
3
0 5 0 5
0 9 3 0
0 13 1 0
1
end_operator
begin_operator
pour-shaker-to-shot ingredient1 shot2 left shaker1 l2 l1
3
1 1
20 0
22 0
3
0 5 0 5
0 9 3 0
0 13 2 1
1
end_operator
begin_operator
pour-shaker-to-shot ingredient1 shot2 right shaker1 l1 l0
3
2 1
20 0
22 0
3
0 5 0 5
0 9 3 0
0 13 1 0
1
end_operator
begin_operator
pour-shaker-to-shot ingredient1 shot2 right shaker1 l2 l1
3
2 1
20 0
22 0
3
0 5 0 5
0 9 3 0
0 13 2 1
1
end_operator
begin_operator
pour-shaker-to-shot ingredient1 shot3 left shaker1 l1 l0
3
1 1
20 0
22 0
3
0 6 0 5
0 10 3 0
0 13 1 0
1
end_operator
begin_operator
pour-shaker-to-shot ingredient1 shot3 left shaker1 l2 l1
3
1 1
20 0
22 0
3
0 6 0 5
0 10 3 0
0 13 2 1
1
end_operator
begin_operator
pour-shaker-to-shot ingredient1 shot3 right shaker1 l1 l0
3
2 1
20 0
22 0
3
0 6 0 5
0 10 3 0
0 13 1 0
1
end_operator
begin_operator
pour-shaker-to-shot ingredient1 shot3 right shaker1 l2 l1
3
2 1
20 0
22 0
3
0 6 0 5
0 10 3 0
0 13 2 1
1
end_operator
begin_operator
pour-shaker-to-shot ingredient1 shot4 left shaker1 l1 l0
3
1 1
20 0
22 0
3
0 7 0 5
0 11 3 0
0 13 1 0
1
end_operator
begin_operator
pour-shaker-to-shot ingredient1 shot4 left shaker1 l2 l1
3
1 1
20 0
22 0
3
0 7 0 5
0 11 3 0
0 13 2 1
1
end_operator
begin_operator
pour-shaker-to-shot ingredient1 shot4 right shaker1 l1 l0
3
2 1
20 0
22 0
3
0 7 0 5
0 11 3 0
0 13 1 0
1
end_operator
begin_operator
pour-shaker-to-shot ingredient1 shot4 right shaker1 l2 l1
3
2 1
20 0
22 0
3
0 7 0 5
0 11 3 0
0 13 2 1
1
end_operator
begin_operator
pour-shaker-to-shot ingredient1 shot5 left shaker1 l1 l0
3
1 1
20 0
22 0
3
0 0 0 8
0 12 3 0
0 13 1 0
1
end_operator
begin_operator
pour-shaker-to-shot ingredient1 shot5 left shaker1 l2 l1
3
1 1
20 0
22 0
3
0 0 0 8
0 12 3 0
0 13 2 1
1
end_operator
begin_operator
pour-shaker-to-shot ingredient1 shot5 right shaker1 l1 l0
3
2 1
20 0
22 0
3
0 0 0 8
0 12 3 0
0 13 1 0
1
end_operator
begin_operator
pour-shaker-to-shot ingredient1 shot5 right shaker1 l2 l1
3
2 1
20 0
22 0
3
0 0 0 8
0 12 3 0
0 13 2 1
1
end_operator
begin_operator
pour-shaker-to-shot ingredient2 shot1 left shaker1 l1 l0
3
1 1
20 0
23 0
3
0 4 0 5
0 8 3 1
0 13 1 0
1
end_operator
begin_operator
pour-shaker-to-shot ingredient2 shot1 left shaker1 l2 l1
3
1 1
20 0
23 0
3
0 4 0 5
0 8 3 1
0 13 2 1
1
end_operator
begin_operator
pour-shaker-to-shot ingredient2 shot1 right shaker1 l1 l0
3
2 1
20 0
23 0
3
0 4 0 5
0 8 3 1
0 13 1 0
1
end_operator
begin_operator
pour-shaker-to-shot ingredient2 shot1 right shaker1 l2 l1
3
2 1
20 0
23 0
3
0 4 0 5
0 8 3 1
0 13 2 1
1
end_operator
begin_operator
pour-shaker-to-shot ingredient2 shot2 left shaker1 l1 l0
3
1 1
20 0
23 0
3
0 5 0 5
0 9 3 1
0 13 1 0
1
end_operator
begin_operator
pour-shaker-to-shot ingredient2 shot2 left shaker1 l2 l1
3
1 1
20 0
23 0
3
0 5 0 5
0 9 3 1
0 13 2 1
1
end_operator
begin_operator
pour-shaker-to-shot ingredient2 shot2 right shaker1 l1 l0
3
2 1
20 0
23 0
3
0 5 0 5
0 9 3 1
0 13 1 0
1
end_operator
begin_operator
pour-shaker-to-shot ingredient2 shot2 right shaker1 l2 l1
3
2 1
20 0
23 0
3
0 5 0 5
0 9 3 1
0 13 2 1
1
end_operator
begin_operator
pour-shaker-to-shot ingredient2 shot3 left shaker1 l1 l0
3
1 1
20 0
23 0
3
0 6 0 5
0 10 3 1
0 13 1 0
1
end_operator
begin_operator
pour-shaker-to-shot ingredient2 shot3 left shaker1 l2 l1
3
1 1
20 0
23 0
3
0 6 0 5
0 10 3 1
0 13 2 1
1
end_operator
begin_operator
pour-shaker-to-shot ingredient2 shot3 right shaker1 l1 l0
3
2 1
20 0
23 0
3
0 6 0 5
0 10 3 1
0 13 1 0
1
end_operator
begin_operator
pour-shaker-to-shot ingredient2 shot3 right shaker1 l2 l1
3
2 1
20 0
23 0
3
0 6 0 5
0 10 3 1
0 13 2 1
1
end_operator
begin_operator
pour-shaker-to-shot ingredient2 shot4 left shaker1 l1 l0
3
1 1
20 0
23 0
3
0 7 0 5
0 11 3 1
0 13 1 0
1
end_operator
begin_operator
pour-shaker-to-shot ingredient2 shot4 left shaker1 l2 l1
3
1 1
20 0
23 0
3
0 7 0 5
0 11 3 1
0 13 2 1
1
end_operator
begin_operator
pour-shaker-to-shot ingredient2 shot4 right shaker1 l1 l0
3
2 1
20 0
23 0
3
0 7 0 5
0 11 3 1
0 13 1 0
1
end_operator
begin_operator
pour-shaker-to-shot ingredient2 shot4 right shaker1 l2 l1
3
2 1
20 0
23 0
3
0 7 0 5
0 11 3 1
0 13 2 1
1
end_operator
begin_operator
pour-shaker-to-shot ingredient2 shot5 left shaker1 l1 l0
3
1 1
20 0
23 0
3
0 0 0 8
0 12 3 1
0 13 1 0
1
end_operator
begin_operator
pour-shaker-to-shot ingredient2 shot5 left shaker1 l2 l1
3
1 1
20 0
23 0
3
0 0 0 8
0 12 3 1
0 13 2 1
1
end_operator
begin_operator
pour-shaker-to-shot ingredient2 shot5 right shaker1 l1 l0
3
2 1
20 0
23 0
3
0 0 0 8
0 12 3 1
0 13 1 0
1
end_operator
begin_operator
pour-shaker-to-shot ingredient2 shot5 right shaker1 l2 l1
3
2 1
20 0
23 0
3
0 0 0 8
0 12 3 1
0 13 2 1
1
end_operator
begin_operator
pour-shot-to-clean-shaker shot1 ingredient1 shaker1 left l0 l1
1
1 2
5
0 3 4 5
0 8 0 3
0 13 0 1
0 21 0 1
0 22 -1 0
1
end_operator
begin_operator
pour-shot-to-clean-shaker shot1 ingredient1 shaker1 right l0 l1
1
2 2
5
0 3 4 5
0 8 0 3
0 13 0 1
0 21 0 1
0 22 -1 0
1
end_operator
begin_operator
pour-shot-to-clean-shaker shot1 ingredient2 shaker1 left l0 l1
1
1 2
5
0 3 4 5
0 8 1 3
0 13 0 1
0 21 0 1
0 23 -1 0
1
end_operator
begin_operator
pour-shot-to-clean-shaker shot1 ingredient2 shaker1 right l0 l1
1
2 2
5
0 3 4 5
0 8 1 3
0 13 0 1
0 21 0 1
0 23 -1 0
1
end_operator
begin_operator
pour-shot-to-clean-shaker shot1 ingredient3 shaker1 left l0 l1
1
1 2
5
0 3 4 5
0 8 2 3
0 13 0 1
0 21 0 1
0 24 -1 0
1
end_operator
begin_operator
pour-shot-to-clean-shaker shot1 ingredient3 shaker1 right l0 l1
1
2 2
5
0 3 4 5
0 8 2 3
0 13 0 1
0 21 0 1
0 24 -1 0
1
end_operator
begin_operator
pour-shot-to-clean-shaker shot2 ingredient1 shaker1 left l0 l1
1
1 3
5
0 3 4 5
0 9 0 3
0 13 0 1
0 21 0 1
0 22 -1 0
1
end_operator
begin_operator
pour-shot-to-clean-shaker shot2 ingredient1 shaker1 right l0 l1
1
2 3
5
0 3 4 5
0 9 0 3
0 13 0 1
0 21 0 1
0 22 -1 0
1
end_operator
begin_operator
pour-shot-to-clean-shaker shot2 ingredient2 shaker1 left l0 l1
1
1 3
5
0 3 4 5
0 9 1 3
0 13 0 1
0 21 0 1
0 23 -1 0
1
end_operator
begin_operator
pour-shot-to-clean-shaker shot2 ingredient2 shaker1 right l0 l1
1
2 3
5
0 3 4 5
0 9 1 3
0 13 0 1
0 21 0 1
0 23 -1 0
1
end_operator
begin_operator
pour-shot-to-clean-shaker shot2 ingredient3 shaker1 left l0 l1
1
1 3
5
0 3 4 5
0 9 2 3
0 13 0 1
0 21 0 1
0 24 -1 0
1
end_operator
begin_operator
pour-shot-to-clean-shaker shot2 ingredient3 shaker1 right l0 l1
1
2 3
5
0 3 4 5
0 9 2 3
0 13 0 1
0 21 0 1
0 24 -1 0
1
end_operator
begin_operator
pour-shot-to-clean-shaker shot3 ingredient1 shaker1 left l0 l1
1
1 4
5
0 3 4 5
0 10 0 3
0 13 0 1
0 21 0 1
0 22 -1 0
1
end_operator
begin_operator
pour-shot-to-clean-shaker shot3 ingredient1 shaker1 right l0 l1
1
2 4
5
0 3 4 5
0 10 0 3
0 13 0 1
0 21 0 1
0 22 -1 0
1
end_operator
begin_operator
pour-shot-to-clean-shaker shot3 ingredient2 shaker1 left l0 l1
1
1 4
5
0 3 4 5
0 10 1 3
0 13 0 1
0 21 0 1
0 23 -1 0
1
end_operator
begin_operator
pour-shot-to-clean-shaker shot3 ingredient2 shaker1 right l0 l1
1
2 4
5
0 3 4 5
0 10 1 3
0 13 0 1
0 21 0 1
0 23 -1 0
1
end_operator
begin_operator
pour-shot-to-clean-shaker shot3 ingredient3 shaker1 left l0 l1
1
1 4
5
0 3 4 5
0 10 2 3
0 13 0 1
0 21 0 1
0 24 -1 0
1
end_operator
begin_operator
pour-shot-to-clean-shaker shot3 ingredient3 shaker1 right l0 l1
1
2 4
5
0 3 4 5
0 10 2 3
0 13 0 1
0 21 0 1
0 24 -1 0
1
end_operator
begin_operator
pour-shot-to-clean-shaker shot4 ingredient1 shaker1 left l0 l1
1
1 5
5
0 3 4 5
0 11 0 3
0 13 0 1
0 21 0 1
0 22 -1 0
1
end_operator
begin_operator
pour-shot-to-clean-shaker shot4 ingredient1 shaker1 right l0 l1
1
2 5
5
0 3 4 5
0 11 0 3
0 13 0 1
0 21 0 1
0 22 -1 0
1
end_operator
begin_operator
pour-shot-to-clean-shaker shot4 ingredient2 shaker1 left l0 l1
1
1 5
5
0 3 4 5
0 11 1 3
0 13 0 1
0 21 0 1
0 23 -1 0
1
end_operator
begin_operator
pour-shot-to-clean-shaker shot4 ingredient2 shaker1 right l0 l1
1
2 5
5
0 3 4 5
0 11 1 3
0 13 0 1
0 21 0 1
0 23 -1 0
1
end_operator
begin_operator
pour-shot-to-clean-shaker shot4 ingredient3 shaker1 left l0 l1
1
1 5
5
0 3 4 5
0 11 2 3
0 13 0 1
0 21 0 1
0 24 -1 0
1
end_operator
begin_operator
pour-shot-to-clean-shaker shot4 ingredient3 shaker1 right l0 l1
1
2 5
5
0 3 4 5
0 11 2 3
0 13 0 1
0 21 0 1
0 24 -1 0
1
end_operator
begin_operator
pour-shot-to-clean-shaker shot5 ingredient1 shaker1 left l0 l1
1
1 6
5
0 3 4 5
0 12 0 3
0 13 0 1
0 21 0 1
0 22 -1 0
1
end_operator
begin_operator
pour-shot-to-clean-shaker shot5 ingredient1 shaker1 right l0 l1
1
2 6
5
0 3 4 5
0 12 0 3
0 13 0 1
0 21 0 1
0 22 -1 0
1
end_operator
begin_operator
pour-shot-to-clean-shaker shot5 ingredient2 shaker1 left l0 l1
1
1 6
5
0 3 4 5
0 12 1 3
0 13 0 1
0 21 0 1
0 23 -1 0
1
end_operator
begin_operator
pour-shot-to-clean-shaker shot5 ingredient2 shaker1 right l0 l1
1
2 6
5
0 3 4 5
0 12 1 3
0 13 0 1
0 21 0 1
0 23 -1 0
1
end_operator
begin_operator
pour-shot-to-clean-shaker shot5 ingredient3 shaker1 left l0 l1
1
1 6
5
0 3 4 5
0 12 2 3
0 13 0 1
0 21 0 1
0 24 -1 0
1
end_operator
begin_operator
pour-shot-to-clean-shaker shot5 ingredient3 shaker1 right l0 l1
1
2 6
5
0 3 4 5
0 12 2 3
0 13 0 1
0 21 0 1
0 24 -1 0
1
end_operator
begin_operator
pour-shot-to-used-shaker shot1 ingredient1 shaker1 left l1 l2
2
1 2
3 5
3
0 8 0 3
0 13 1 2
0 22 -1 0
1
end_operator
begin_operator
pour-shot-to-used-shaker shot1 ingredient1 shaker1 right l1 l2
2
2 2
3 5
3
0 8 0 3
0 13 1 2
0 22 -1 0
1
end_operator
begin_operator
pour-shot-to-used-shaker shot1 ingredient2 shaker1 left l1 l2
2
1 2
3 5
3
0 8 1 3
0 13 1 2
0 23 -1 0
1
end_operator
begin_operator
pour-shot-to-used-shaker shot1 ingredient2 shaker1 right l1 l2
2
2 2
3 5
3
0 8 1 3
0 13 1 2
0 23 -1 0
1
end_operator
begin_operator
pour-shot-to-used-shaker shot1 ingredient3 shaker1 left l1 l2
2
1 2
3 5
3
0 8 2 3
0 13 1 2
0 24 -1 0
1
end_operator
begin_operator
pour-shot-to-used-shaker shot1 ingredient3 shaker1 right l1 l2
2
2 2
3 5
3
0 8 2 3
0 13 1 2
0 24 -1 0
1
end_operator
begin_operator
pour-shot-to-used-shaker shot2 ingredient1 shaker1 left l1 l2
2
1 3
3 5
3
0 9 0 3
0 13 1 2
0 22 -1 0
1
end_operator
begin_operator
pour-shot-to-used-shaker shot2 ingredient1 shaker1 right l1 l2
2
2 3
3 5
3
0 9 0 3
0 13 1 2
0 22 -1 0
1
end_operator
begin_operator
pour-shot-to-used-shaker shot2 ingredient2 shaker1 left l1 l2
2
1 3
3 5
3
0 9 1 3
0 13 1 2
0 23 -1 0
1
end_operator
begin_operator
pour-shot-to-used-shaker shot2 ingredient2 shaker1 right l1 l2
2
2 3
3 5
3
0 9 1 3
0 13 1 2
0 23 -1 0
1
end_operator
begin_operator
pour-shot-to-used-shaker shot2 ingredient3 shaker1 left l1 l2
2
1 3
3 5
3
0 9 2 3
0 13 1 2
0 24 -1 0
1
end_operator
begin_operator
pour-shot-to-used-shaker shot2 ingredient3 shaker1 right l1 l2
2
2 3
3 5
3
0 9 2 3
0 13 1 2
0 24 -1 0
1
end_operator
begin_operator
pour-shot-to-used-shaker shot3 ingredient1 shaker1 left l1 l2
2
1 4
3 5
3
0 10 0 3
0 13 1 2
0 22 -1 0
1
end_operator
begin_operator
pour-shot-to-used-shaker shot3 ingredient1 shaker1 right l1 l2
2
2 4
3 5
3
0 10 0 3
0 13 1 2
0 22 -1 0
1
end_operator
begin_operator
pour-shot-to-used-shaker shot3 ingredient2 shaker1 left l1 l2
2
1 4
3 5
3
0 10 1 3
0 13 1 2
0 23 -1 0
1
end_operator
begin_operator
pour-shot-to-used-shaker shot3 ingredient2 shaker1 right l1 l2
2
2 4
3 5
3
0 10 1 3
0 13 1 2
0 23 -1 0
1
end_operator
begin_operator
pour-shot-to-used-shaker shot3 ingredient3 shaker1 left l1 l2
2
1 4
3 5
3
0 10 2 3
0 13 1 2
0 24 -1 0
1
end_operator
begin_operator
pour-shot-to-used-shaker shot3 ingredient3 shaker1 right l1 l2
2
2 4
3 5
3
0 10 2 3
0 13 1 2
0 24 -1 0
1
end_operator
begin_operator
pour-shot-to-used-shaker shot4 ingredient1 shaker1 left l1 l2
2
1 5
3 5
3
0 11 0 3
0 13 1 2
0 22 -1 0
1
end_operator
begin_operator
pour-shot-to-used-shaker shot4 ingredient1 shaker1 right l1 l2
2
2 5
3 5
3
0 11 0 3
0 13 1 2
0 22 -1 0
1
end_operator
begin_operator
pour-shot-to-used-shaker shot4 ingredient2 shaker1 left l1 l2
2
1 5
3 5
3
0 11 1 3
0 13 1 2
0 23 -1 0
1
end_operator
begin_operator
pour-shot-to-used-shaker shot4 ingredient2 shaker1 right l1 l2
2
2 5
3 5
3
0 11 1 3
0 13 1 2
0 23 -1 0
1
end_operator
begin_operator
pour-shot-to-used-shaker shot4 ingredient3 shaker1 left l1 l2
2
1 5
3 5
3
0 11 2 3
0 13 1 2
0 24 -1 0
1
end_operator
begin_operator
pour-shot-to-used-shaker shot4 ingredient3 shaker1 right l1 l2
2
2 5
3 5
3
0 11 2 3
0 13 1 2
0 24 -1 0
1
end_operator
begin_operator
pour-shot-to-used-shaker shot5 ingredient1 shaker1 left l1 l2
2
1 6
3 5
3
0 12 0 3
0 13 1 2
0 22 -1 0
1
end_operator
begin_operator
pour-shot-to-used-shaker shot5 ingredient1 shaker1 right l1 l2
2
2 6
3 5
3
0 12 0 3
0 13 1 2
0 22 -1 0
1
end_operator
begin_operator
pour-shot-to-used-shaker shot5 ingredient2 shaker1 left l1 l2
2
1 6
3 5
3
0 12 1 3
0 13 1 2
0 23 -1 0
1
end_operator
begin_operator
pour-shot-to-used-shaker shot5 ingredient2 shaker1 right l1 l2
2
2 6
3 5
3
0 12 1 3
0 13 1 2
0 23 -1 0
1
end_operator
begin_operator
pour-shot-to-used-shaker shot5 ingredient3 shaker1 left l1 l2
2
1 6
3 5
3
0 12 2 3
0 13 1 2
0 24 -1 0
1
end_operator
begin_operator
pour-shot-to-used-shaker shot5 ingredient3 shaker1 right l1 l2
2
2 6
3 5
3
0 12 2 3
0 13 1 2
0 24 -1 0
1
end_operator
begin_operator
refill-shot shot1 ingredient1 left right dispenser1
3
1 2
2 0
4 2
1
0 8 3 0
1
end_operator
begin_operator
refill-shot shot1 ingredient1 right left dispenser1
3
1 0
2 2
4 2
1
0 8 3 0
1
end_operator
begin_operator
refill-shot shot1 ingredient2 left right dispenser2
3
1 2
2 0
4 3
1
0 8 3 1
1
end_operator
begin_operator
refill-shot shot1 ingredient2 right left dispenser2
3
1 0
2 2
4 3
1
0 8 3 1
1
end_operator
begin_operator
refill-shot shot1 ingredient3 left right dispenser3
3
1 2
2 0
4 4
1
0 8 3 2
1
end_operator
begin_operator
refill-shot shot1 ingredient3 right left dispenser3
3
1 0
2 2
4 4
1
0 8 3 2
1
end_operator
begin_operator
refill-shot shot2 ingredient1 left right dispenser1
3
1 3
2 0
5 2
1
0 9 3 0
1
end_operator
begin_operator
refill-shot shot2 ingredient1 right left dispenser1
3
1 0
2 3
5 2
1
0 9 3 0
1
end_operator
begin_operator
refill-shot shot2 ingredient2 left right dispenser2
3
1 3
2 0
5 3
1
0 9 3 1
1
end_operator
begin_operator
refill-shot shot2 ingredient2 right left dispenser2
3
1 0
2 3
5 3
1
0 9 3 1
1
end_operator
begin_operator
refill-shot shot2 ingredient3 left right dispenser3
3
1 3
2 0
5 4
1
0 9 3 2
1
end_operator
begin_operator
refill-shot shot2 ingredient3 right left dispenser3
3
1 0
2 3
5 4
1
0 9 3 2
1
end_operator
begin_operator
refill-shot shot3 ingredient1 left right dispenser1
3
1 4
2 0
6 2
1
0 10 3 0
1
end_operator
begin_operator
refill-shot shot3 ingredient1 right left dispenser1
3
1 0
2 4
6 2
1
0 10 3 0
1
end_operator
begin_operator
refill-shot shot3 ingredient2 left right dispenser2
3
1 4
2 0
6 3
1
0 10 3 1
1
end_operator
begin_operator
refill-shot shot3 ingredient2 right left dispenser2
3
1 0
2 4
6 3
1
0 10 3 1
1
end_operator
begin_operator
refill-shot shot3 ingredient3 left right dispenser3
3
1 4
2 0
6 4
1
0 10 3 2
1
end_operator
begin_operator
refill-shot shot3 ingredient3 right left dispenser3
3
1 0
2 4
6 4
1
0 10 3 2
1
end_operator
begin_operator
refill-shot shot4 ingredient1 left right dispenser1
3
1 5
2 0
7 2
1
0 11 3 0
1
end_operator
begin_operator
refill-shot shot4 ingredient1 right left dispenser1
3
1 0
2 5
7 2
1
0 11 3 0
1
end_operator
begin_operator
refill-shot shot4 ingredient2 left right dispenser2
3
1 5
2 0
7 3
1
0 11 3 1
1
end_operator
begin_operator
refill-shot shot4 ingredient2 right left dispenser2
3
1 0
2 5
7 3
1
0 11 3 1
1
end_operator
begin_operator
refill-shot shot4 ingredient3 left right dispenser3
3
1 5
2 0
7 4
1
0 11 3 2
1
end_operator
begin_operator
refill-shot shot4 ingredient3 right left dispenser3
3
1 0
2 5
7 4
1
0 11 3 2
1
end_operator
begin_operator
refill-shot shot5 ingredient1 left right dispenser1
3
0 5
1 6
2 0
1
0 12 3 0
1
end_operator
begin_operator
refill-shot shot5 ingredient1 right left dispenser1
3
0 5
1 0
2 6
1
0 12 3 0
1
end_operator
begin_operator
refill-shot shot5 ingredient2 left right dispenser2
3
0 6
1 6
2 0
1
0 12 3 1
1
end_operator
begin_operator
refill-shot shot5 ingredient2 right left dispenser2
3
0 6
1 0
2 6
1
0 12 3 1
1
end_operator
begin_operator
refill-shot shot5 ingredient3 left right dispenser3
3
0 7
1 6
2 0
1
0 12 3 2
1
end_operator
begin_operator
refill-shot shot5 ingredient3 right left dispenser3
3
0 7
1 0
2 6
1
0 12 3 2
1
end_operator
begin_operator
shake cocktail1 ingredient3 ingredient1 shaker1 left right
2
1 1
2 0
4
0 3 5 0
0 20 -1 0
0 22 0 1
0 24 0 1
1
end_operator
begin_operator
shake cocktail1 ingredient3 ingredient1 shaker1 right left
2
1 0
2 1
4
0 3 5 0
0 20 -1 0
0 22 0 1
0 24 0 1
1
end_operator
begin_operator
shake cocktail2 ingredient2 ingredient3 shaker1 left right
2
1 1
2 0
4
0 3 5 1
0 20 -1 0
0 23 0 1
0 24 0 1
1
end_operator
begin_operator
shake cocktail2 ingredient2 ingredient3 shaker1 right left
2
1 0
2 1
4
0 3 5 1
0 20 -1 0
0 23 0 1
0 24 0 1
1
end_operator
begin_operator
shake cocktail3 ingredient3 ingredient2 shaker1 left right
2
1 1
2 0
4
0 3 5 2
0 20 -1 0
0 23 0 1
0 24 0 1
1
end_operator
begin_operator
shake cocktail3 ingredient3 ingredient2 shaker1 right left
2
1 0
2 1
4
0 3 5 2
0 20 -1 0
0 23 0 1
0 24 0 1
1
end_operator
begin_operator
shake cocktail4 ingredient3 ingredient1 shaker1 left right
2
1 1
2 0
4
0 3 5 3
0 20 -1 0
0 22 0 1
0 24 0 1
1
end_operator
begin_operator
shake cocktail4 ingredient3 ingredient1 shaker1 right left
2
1 0
2 1
4
0 3 5 3
0 20 -1 0
0 22 0 1
0 24 0 1
1
end_operator
0
