Domain: movie-strips
Problem: strips-movie-x-10
Require: ff
Type[1]:
    [0]: object, parent: -1
Obj-by-Type:
    [0]: 0 1 2 3 4 5 6 7 8 9 10 11 12 13 14 15 16 17 18 19 20 21 22 23 24 25 26 27 28 29 30 31 32 33 34 35 36 37 38 39 40 41 42 43 44 45 46 47 48 49 50 51 52 53 54 55 56 57 58 59 60 61 62 63 64 65 66 67 68 69
Obj[70]:
    [0]: c14, type: 0, is-constant: 0, is-private: 0, owner: -1, is-agent: 0
    [1]: c13, type: 0, is-constant: 0, is-private: 0, owner: -1, is-agent: 0
    [2]: c12, type: 0, is-constant: 0, is-private: 0, owner: -1, is-agent: 0
    [3]: c11, type: 0, is-constant: 0, is-private: 0, owner: -1, is-agent: 0
    [4]: c10, type: 0, is-constant: 0, is-private: 0, owner: -1, is-agent: 0
    [5]: c9, type: 0, is-constant: 0, is-private: 0, owner: -1, is-agent: 0
    [6]: c8, type: 0, is-constant: 0, is-private: 0, owner: -1, is-agent: 0
    [7]: c7, type: 0, is-constant: 0, is-private: 0, owner: -1, is-agent: 0
    [8]: c6, type: 0, is-constant: 0, is-private: 0, owner: -1, is-agent: 0
    [9]: c5, type: 0, is-constant: 0, is-private: 0, owner: -1, is-agent: 0
    [10]: c4, type: 0, is-constant: 0, is-private: 0, owner: -1, is-agent: 0
    [11]: c3, type: 0, is-constant: 0, is-private: 0, owner: -1, is-agent: 0
    [12]: c2, type: 0, is-constant: 0, is-private: 0, owner: -1, is-agent: 0
    [13]: c1, type: 0, is-constant: 0, is-private: 0, owner: -1, is-agent: 0
    [14]: d14, type: 0, is-constant: 0, is-private: 0, owner: -1, is-agent: 0
    [15]: d13, type: 0, is-constant: 0, is-private: 0, owner: -1, is-agent: 0
    [16]: d12, type: 0, is-constant: 0, is-private: 0, owner: -1, is-agent: 0
    [17]: d11, type: 0, is-constant: 0, is-private: 0, owner: -1, is-agent: 0
    [18]: d10, type: 0, is-constant: 0, is-private: 0, owner: -1, is-agent: 0
    [19]: d9, type: 0, is-constant: 0, is-private: 0, owner: -1, is-agent: 0
    [20]: d8, type: 0, is-constant: 0, is-private: 0, owner: -1, is-agent: 0
    [21]: d7, type: 0, is-constant: 0, is-private: 0, owner: -1, is-agent: 0
    [22]: d6, type: 0, is-constant: 0, is-private: 0, owner: -1, is-agent: 0
    [23]: d5, type: 0, is-constant: 0, is-private: 0, owner: -1, is-agent: 0
    [24]: d4, type: 0, is-constant: 0, is-private: 0, owner: -1, is-agent: 0
    [25]: d3, type: 0, is-constant: 0, is-private: 0, owner: -1, is-agent: 0
    [26]: d2, type: 0, is-constant: 0, is-private: 0, owner: -1, is-agent: 0
    [27]: d1, type: 0, is-constant: 0, is-private: 0, owner: -1, is-agent: 0
    [28]: p14, type: 0, is-constant: 0, is-private: 0, owner: -1, is-agent: 0
    [29]: p13, type: 0, is-constant: 0, is-private: 0, owner: -1, is-agent: 0
    [30]: p12, type: 0, is-constant: 0, is-private: 0, owner: -1, is-agent: 0
    [31]: p11, type: 0, is-constant: 0, is-private: 0, owner: -1, is-agent: 0
    [32]: p10, type: 0, is-constant: 0, is-private: 0, owner: -1, is-agent: 0
    [33]: p9, type: 0, is-constant: 0, is-private: 0, owner: -1, is-agent: 0
    [34]: p8, type: 0, is-constant: 0, is-private: 0, owner: -1, is-agent: 0
    [35]: p7, type: 0, is-constant: 0, is-private: 0, owner: -1, is-agent: 0
    [36]: p6, type: 0, is-constant: 0, is-private: 0, owner: -1, is-agent: 0
    [37]: p5, type: 0, is-constant: 0, is-private: 0, owner: -1, is-agent: 0
    [38]: p4, type: 0, is-constant: 0, is-private: 0, owner: -1, is-agent: 0
    [39]: p3, type: 0, is-constant: 0, is-private: 0, owner: -1, is-agent: 0
    [40]: p2, type: 0, is-constant: 0, is-private: 0, owner: -1, is-agent: 0
    [41]: p1, type: 0, is-constant: 0, is-private: 0, owner: -1, is-agent: 0
    [42]: z14, type: 0, is-constant: 0, is-private: 0, owner: -1, is-agent: 0
    [43]: z13, type: 0, is-constant: 0, is-private: 0, owner: -1, is-agent: 0
    [44]: z12, type: 0, is-constant: 0, is-private: 0, owner: -1, is-agent: 0
    [45]: z11, type: 0, is-constant: 0, is-private: 0, owner: -1, is-agent: 0
    [46]: z10, type: 0, is-constant: 0, is-private: 0, owner: -1, is-agent: 0
    [47]: z9, type: 0, is-constant: 0, is-private: 0, owner: -1, is-agent: 0
    [48]: z8, type: 0, is-constant: 0, is-private: 0, owner: -1, is-agent: 0
    [49]: z7, type: 0, is-constant: 0, is-private: 0, owner: -1, is-agent: 0
    [50]: z6, type: 0, is-constant: 0, is-private: 0, owner: -1, is-agent: 0
    [51]: z5, type: 0, is-constant: 0, is-private: 0, owner: -1, is-agent: 0
    [52]: z4, type: 0, is-constant: 0, is-private: 0, owner: -1, is-agent: 0
    [53]: z3, type: 0, is-constant: 0, is-private: 0, owner: -1, is-agent: 0
    [54]: z2, type: 0, is-constant: 0, is-private: 0, owner: -1, is-agent: 0
    [55]: z1, type: 0, is-constant: 0, is-private: 0, owner: -1, is-agent: 0
    [56]: k14, type: 0, is-constant: 0, is-private: 0, owner: -1, is-agent: 0
    [57]: k13, type: 0, is-constant: 0, is-private: 0, owner: -1, is-agent: 0
    [58]: k12, type: 0, is-constant: 0, is-private: 0, owner: -1, is-agent: 0
    [59]: k11, type: 0, is-constant: 0, is-private: 0, owner: -1, is-agent: 0
    [60]: k10, type: 0, is-constant: 0, is-private: 0, owner: -1, is-agent: 0
    [61]: k9, type: 0, is-constant: 0, is-private: 0, owner: -1, is-agent: 0
    [62]: k8, type: 0, is-constant: 0, is-private: 0, owner: -1, is-agent: 0
    [63]: k7, type: 0, is-constant: 0, is-private: 0, owner: -1, is-agent: 0
    [64]: k6, type: 0, is-constant: 0, is-private: 0, owner: -1, is-agent: 0
    [65]: k5, type: 0, is-constant: 0, is-private: 0, owner: -1, is-agent: 0
    [66]: k4, type: 0, is-constant: 0, is-private: 0, owner: -1, is-agent: 0
    [67]: k3, type: 0, is-constant: 0, is-private: 0, owner: -1, is-agent: 0
    [68]: k2, type: 0, is-constant: 0, is-private: 0, owner: -1, is-agent: 0
    [69]: k1, type: 0, is-constant: 0, is-private: 0, owner: -1, is-agent: 0
Predicate[15]:
    =: 0 0 :: is-private: 0, owner-param: -1, read: 0, write: 0
    movie-rewound: :: is-private: 0, owner-param: -1, read: 0, write: 1
    counter-at-two-hours: :: is-private: 0, owner-param: -1, read: 0, write: 0
    counter-at-other-than-two-hours: :: is-private: 0, owner-param: -1, read: 0, write: 0
    counter-at-zero: :: is-private: 0, owner-param: -1, read: 0, write: 1
    have-chips: :: is-private: 0, owner-param: -1, read: 0, write: 1
    have-dip: :: is-private: 0, owner-param: -1, read: 0, write: 1
    have-pop: :: is-private: 0, owner-param: -1, read: 0, write: 1
    have-cheese: :: is-private: 0, owner-param: -1, read: 0, write: 1
    have-crackers: :: is-private: 0, owner-param: -1, read: 0, write: 1
    chips: 0 :: is-private: 0, owner-param: -1, read: 1, write: 0
    dip: 0 :: is-private: 0, owner-param: -1, read: 1, write: 0
    pop: 0 :: is-private: 0, owner-param: -1, read: 1, write: 0
    cheese: 0 :: is-private: 0, owner-param: -1, read: 1, write: 0
    crackers: 0 :: is-private: 0, owner-param: -1, read: 1, write: 0
Function[0]:
Action[7]:
    get-crackers: ?x:0
        pre: (and (R:crackers ?x))
        eff: (and (W:have-crackers))
    rewind-movie: 
        pre: (and)
        eff: (and (W:movie-rewound) (N:W:counter-at-zero))
    reset-counter: 
        pre: (and)
        eff: (and (W:counter-at-zero))
    get-chips: ?x:0
        pre: (and (R:chips ?x))
        eff: (and (W:have-chips))
    get-dip: ?x:0
        pre: (and (R:dip ?x))
        eff: (and (W:have-dip))
    get-pop: ?x:0
        pre: (and (R:pop ?x))
        eff: (and (W:have-pop))
    get-cheese: ?x:0
        pre: (and (R:cheese ?x))
        eff: (and (W:have-cheese))
Init[71]:
  S:(chips c14)
  S:(chips c13)
  S:(chips c12)
  S:(chips c11)
  S:(chips c10)
  S:(chips c9)
  S:(chips c8)
  S:(chips c7)
  S:(chips c6)
  S:(chips c5)
  S:(chips c4)
  S:(chips c3)
  S:(chips c2)
  S:(chips c1)
  S:(dip d14)
  S:(dip d13)
  S:(dip d12)
  S:(dip d11)
  S:(dip d10)
  S:(dip d9)
  S:(dip d8)
  S:(dip d7)
  S:(dip d6)
  S:(dip d5)
  S:(dip d4)
  S:(dip d3)
  S:(dip d2)
  S:(dip d1)
  S:(pop p14)
  S:(pop p13)
  S:(pop p12)
  S:(pop p11)
  S:(pop p10)
  S:(pop p9)
  S:(pop p8)
  S:(pop p7)
  S:(pop p6)
  S:(pop p5)
  S:(pop p4)
  S:(pop p3)
  S:(pop p2)
  S:(pop p1)
  S:(cheese z14)
  S:(cheese z13)
  S:(cheese z12)
  S:(cheese z11)
  S:(cheese z10)
  S:(cheese z9)
  S:(cheese z8)
  S:(cheese z7)
  S:(cheese z6)
  S:(cheese z5)
  S:(cheese z4)
  S:(cheese z3)
  S:(cheese z2)
  S:(cheese z1)
  S:(crackers k14)
  S:(crackers k13)
  S:(crackers k12)
  S:(crackers k11)
  S:(crackers k10)
  S:(crackers k9)
  S:(crackers k8)
  S:(crackers k7)
  S:(crackers k6)
  S:(crackers k5)
  S:(crackers k4)
  S:(crackers k3)
  S:(crackers k2)
  S:(crackers k1)
  S:(counter-at-other-than-two-hours)
Init[0]:
Goal: (and (W:movie-rewound) (W:counter-at-zero) (W:have-chips) (W:have-dip) (W:have-pop) (W:have-cheese) (W:have-crackers))
Metric: 0
