Maximal 63:
 (available b0) (in-highspeed-saw b0 highspeed-saw0):=1:fam
 (available b1) (in-highspeed-saw b1 highspeed-saw0):=1:fam
 (available b2) (in-highspeed-saw b2 highspeed-saw0):=1:fam
 (available b3) (in-highspeed-saw b3 highspeed-saw0):=1:fam
 (available b4) (in-highspeed-saw b4 highspeed-saw0):=1:fam
 (available p0) (unused p0):=1:fam:G
 (available p1) (unused p1):=1:fam:G
 (available p10) (unused p10):=1:fam:G
 (available p11) (unused p11):=1:fam:G
 (available p2) (unused p2):=1:fam:G
 (available p4) (unused p4):=1:fam:G
 (available p5) (unused p5):=1:fam:G
 (available p6) (unused p6):=1:fam:G
 (available p7) (unused p7):=1:fam:G
 (available p8) (unused p8):=1:fam:G
 (available p9) (unused p9):=1:fam:G
 (surface-condition p3 smooth) (surface-condition p3 verysmooth):=1:fam:G
 (unused p0) (wood p0 walnut):fam:G
 (unused p1) (wood p1 mahogany):fam:G
 (unused p10) (wood p10 walnut):fam:G
 (unused p2) (wood p2 mahogany):fam:G
 (unused p4) (wood p4 walnut):fam:G
 (unused p6) (wood p6 mahogany):fam:G
 (unused p7) (wood p7 walnut):fam:G
 (unused p9) (wood p9 mahogany):fam:G
 (boardsize b3 s10) (boardsize b4 s2) (unused p0):fam
 (boardsize b4 s2) (surface-condition p0 rough) (unused p0):fam
 (surface-condition p0 rough) (surface-condition p0 smooth) (surface-condition p0 verysmooth) (unused p0):=1:fam:G
 (surface-condition p1 rough) (surface-condition p1 smooth) (surface-condition p1 verysmooth) (unused p1):=1:fam
 (surface-condition p10 rough) (surface-condition p10 smooth) (surface-condition p10 verysmooth) (unused p10):=1:fam:G
 (surface-condition p11 rough) (surface-condition p11 smooth) (surface-condition p11 verysmooth) (unused p11):=1:fam:G
 (surface-condition p2 rough) (surface-condition p2 smooth) (surface-condition p2 verysmooth) (unused p2):=1:fam
 (surface-condition p4 rough) (surface-condition p4 smooth) (surface-condition p4 verysmooth) (unused p4):=1:fam:G
 (surface-condition p5 rough) (surface-condition p5 smooth) (surface-condition p5 verysmooth) (unused p5):=1:fam:G
 (surface-condition p6 rough) (surface-condition p6 smooth) (surface-condition p6 verysmooth) (unused p6):=1:fam
 (surface-condition p7 rough) (surface-condition p7 smooth) (surface-condition p7 verysmooth) (unused p7):=1:fam
 (surface-condition p8 rough) (surface-condition p8 smooth) (surface-condition p8 verysmooth) (unused p8):=1:fam
 (surface-condition p9 rough) (surface-condition p9 smooth) (surface-condition p9 verysmooth) (unused p9):=1:fam:G
 (treatment p3 colourfragments) (treatment p3 glazed) (treatment p3 untreated) (treatment p3 varnished):=1:fam:G
 (treatment p0 colourfragments) (treatment p0 glazed) (treatment p0 untreated) (treatment p0 varnished) (unused p0):=1:fam
 (treatment p1 colourfragments) (treatment p1 glazed) (treatment p1 untreated) (treatment p1 varnished) (unused p1):=1:fam:G
 (treatment p10 colourfragments) (treatment p10 glazed) (treatment p10 untreated) (treatment p10 varnished) (unused p10):=1:fam:G
 (treatment p11 colourfragments) (treatment p11 glazed) (treatment p11 untreated) (treatment p11 varnished) (unused p11):=1:fam:G
 (treatment p2 colourfragments) (treatment p2 glazed) (treatment p2 untreated) (treatment p2 varnished) (unused p2):=1:fam
 (treatment p4 colourfragments) (treatment p4 glazed) (treatment p4 untreated) (treatment p4 varnished) (unused p4):=1:fam:G
 (treatment p5 colourfragments) (treatment p5 glazed) (treatment p5 untreated) (treatment p5 varnished) (unused p5):=1:fam:G
 (treatment p6 colourfragments) (treatment p6 glazed) (treatment p6 untreated) (treatment p6 varnished) (unused p6):=1:fam:G
 (treatment p7 colourfragments) (treatment p7 glazed) (treatment p7 untreated) (treatment p7 varnished) (unused p7):=1:fam
 (treatment p8 colourfragments) (treatment p8 glazed) (treatment p8 untreated) (treatment p8 varnished) (unused p8):=1:fam:G
 (treatment p9 colourfragments) (treatment p9 glazed) (treatment p9 untreated) (treatment p9 varnished) (unused p9):=1:fam:G
 (empty highspeed-saw0) (in-highspeed-saw b0 highspeed-saw0) (in-highspeed-saw b1 highspeed-saw0) (in-highspeed-saw b2 highspeed-saw0) (in-highspeed-saw b3 highspeed-saw0) (in-highspeed-saw b4 highspeed-saw0):=1:fam
 (colour p0 black) (colour p0 green) (colour p0 red) (colour p0 white) (treatment p0 colourfragments) (treatment p0 untreated) (unused p0):=1:fam
 (colour p1 black) (colour p1 green) (colour p1 red) (colour p1 white) (treatment p1 colourfragments) (treatment p1 untreated) (unused p1):=1:fam
 (colour p10 black) (colour p10 green) (colour p10 red) (colour p10 white) (treatment p10 colourfragments) (treatment p10 untreated) (unused p10):=1:fam:G
 (colour p11 black) (colour p11 green) (colour p11 red) (colour p11 white) (treatment p11 colourfragments) (treatment p11 untreated) (unused p11):=1:fam
 (colour p2 black) (colour p2 green) (colour p2 red) (colour p2 white) (treatment p2 colourfragments) (treatment p2 untreated) (unused p2):=1:fam:G
 (colour p3 black) (colour p3 blue) (colour p3 green) (colour p3 red) (colour p3 white) (treatment p3 colourfragments) (treatment p3 untreated):=1:fam:G
 (colour p4 black) (colour p4 green) (colour p4 red) (colour p4 white) (treatment p4 colourfragments) (treatment p4 untreated) (unused p4):=1:fam:G
 (colour p5 black) (colour p5 green) (colour p5 red) (colour p5 white) (treatment p5 colourfragments) (treatment p5 untreated) (unused p5):=1:fam
 (colour p6 black) (colour p6 green) (colour p6 red) (colour p6 white) (treatment p6 colourfragments) (treatment p6 untreated) (unused p6):=1:fam
 (colour p7 black) (colour p7 green) (colour p7 red) (colour p7 white) (treatment p7 colourfragments) (treatment p7 untreated) (unused p7):=1:fam:G
 (colour p8 black) (colour p8 green) (colour p8 red) (colour p8 white) (treatment p8 colourfragments) (treatment p8 untreated) (unused p8):=1:fam:G
 (colour p9 black) (colour p9 green) (colour p9 red) (colour p9 white) (treatment p9 colourfragments) (treatment p9 untreated) (unused p9):=1:fam:G


Mutex Group Cover Number: 98
