Reduced 75 -> 37
Domain: transport
Problem: transport-three-cities-sequential-20nodes-1000size-4degree-100mindistance-3trucks-7packages-2014seed
Require: 200ff
Type[6]:
    [0]: object, parent: -1
    [1]: location, parent: 0
    [2]: locatable, parent: 0
    [3]: vehicle, parent: 2
    [4]: package, parent: 2
    [5]: capacity-number, parent: 0
Obj-by-Type:
    [0]: 0 1 2 3 4 5 6 7 8 9 10 11 12 13 14 15 16 17 18 19 20 21 22 23 24 25 26 27 28 29 30 31 32 33 34 35 36
    [1]: 0 1 2 3 4 5 6 7 8 9 10 11 12 13 14 15 16 17 18 19 20 21 22 23 24 25 26
    [2]: 27 28 29 30 31 32 33 34 35
    [3]: 27 28
    [4]: 29 30 31 32 33 34 35
    [5]: 36
Obj[37]:
    [0]: city-1-loc-1, type: 1, is-constant: 0, is-private: 0, owner: -1, is-agent: 0
    [1]: city-2-loc-1, type: 1, is-constant: 0, is-private: 0, owner: -1, is-agent: 0
    [2]: city-3-loc-1, type: 1, is-constant: 0, is-private: 0, owner: -1, is-agent: 0
    [3]: city-1-loc-2, type: 1, is-constant: 0, is-private: 0, owner: -1, is-agent: 0
    [4]: city-2-loc-2, type: 1, is-constant: 0, is-private: 0, owner: -1, is-agent: 0
    [5]: city-3-loc-2, type: 1, is-constant: 0, is-private: 0, owner: -1, is-agent: 0
    [6]: city-2-loc-3, type: 1, is-constant: 0, is-private: 0, owner: -1, is-agent: 0
    [7]: city-3-loc-3, type: 1, is-constant: 0, is-private: 0, owner: -1, is-agent: 0
    [8]: city-2-loc-4, type: 1, is-constant: 0, is-private: 0, owner: -1, is-agent: 0
    [9]: city-3-loc-4, type: 1, is-constant: 0, is-private: 0, owner: -1, is-agent: 0
    [10]: city-1-loc-5, type: 1, is-constant: 0, is-private: 0, owner: -1, is-agent: 0
    [11]: city-2-loc-5, type: 1, is-constant: 0, is-private: 0, owner: -1, is-agent: 0
    [12]: city-2-loc-7, type: 1, is-constant: 0, is-private: 0, owner: -1, is-agent: 0
    [13]: city-3-loc-7, type: 1, is-constant: 0, is-private: 0, owner: -1, is-agent: 0
    [14]: city-2-loc-8, type: 1, is-constant: 0, is-private: 0, owner: -1, is-agent: 0
    [15]: city-2-loc-10, type: 1, is-constant: 0, is-private: 0, owner: -1, is-agent: 0
    [16]: city-3-loc-11, type: 1, is-constant: 0, is-private: 0, owner: -1, is-agent: 0
    [17]: city-1-loc-12, type: 1, is-constant: 0, is-private: 0, owner: -1, is-agent: 0
    [18]: city-2-loc-12, type: 1, is-constant: 0, is-private: 0, owner: -1, is-agent: 0
    [19]: city-2-loc-13, type: 1, is-constant: 0, is-private: 0, owner: -1, is-agent: 0
    [20]: city-3-loc-14, type: 1, is-constant: 0, is-private: 0, owner: -1, is-agent: 0
    [21]: city-1-loc-15, type: 1, is-constant: 0, is-private: 0, owner: -1, is-agent: 0
    [22]: city-2-loc-16, type: 1, is-constant: 0, is-private: 0, owner: -1, is-agent: 0
    [23]: city-3-loc-16, type: 1, is-constant: 0, is-private: 0, owner: -1, is-agent: 0
    [24]: city-2-loc-17, type: 1, is-constant: 0, is-private: 0, owner: -1, is-agent: 0
    [25]: city-2-loc-19, type: 1, is-constant: 0, is-private: 0, owner: -1, is-agent: 0
    [26]: city-3-loc-20, type: 1, is-constant: 0, is-private: 0, owner: -1, is-agent: 0
    [27]: truck-1, type: 3, is-constant: 0, is-private: 0, owner: -1, is-agent: 0
    [28]: truck-3, type: 3, is-constant: 0, is-private: 0, owner: -1, is-agent: 0
    [29]: package-1, type: 4, is-constant: 0, is-private: 0, owner: -1, is-agent: 0
    [30]: package-2, type: 4, is-constant: 0, is-private: 0, owner: -1, is-agent: 0
    [31]: package-3, type: 4, is-constant: 0, is-private: 0, owner: -1, is-agent: 0
    [32]: package-4, type: 4, is-constant: 0, is-private: 0, owner: -1, is-agent: 0
    [33]: package-5, type: 4, is-constant: 0, is-private: 0, owner: -1, is-agent: 0
    [34]: package-6, type: 4, is-constant: 0, is-private: 0, owner: -1, is-agent: 0
    [35]: package-7, type: 4, is-constant: 0, is-private: 0, owner: -1, is-agent: 0
    [36]: capacity-0, type: 5, is-constant: 0, is-private: 0, owner: -1, is-agent: 0
Predicate[6]:
    =: 0 0 :: is-private: 0, owner-param: -1, read: 0, write: 0
    road: 1 1 :: is-private: 0, owner-param: -1, read: 1, write: 0
    at: 2 1 :: is-private: 0, owner-param: -1, read: 1, write: 1
    in: 4 3 :: is-private: 0, owner-param: -1, read: 1, write: 1
    capacity: 3 5 :: is-private: 0, owner-param: -1, read: 1, write: 1
    capacity-predecessor: 5 5 :: is-private: 0, owner-param: -1, read: 1, write: 0
Function[2]:
    road-length: 1 1 :: is-private: 0, owner-param: -1, read: 0, write: 0
    total-cost: :: is-private: 0, owner-param: -1, read: 0, write: 0
Action[3]:
    drive: ?v:3 ?l1:1 ?l2:1
        pre: (and (RW:at ?v ?l1) (R:road ?l1 ?l2))
        eff: (and (RW:at ?v ?l2) (increase (total-cost) (road-length ?l1 ?l2)))
    pick-up: ?v:3 ?l:1 ?p:4 ?s1:5 ?s2:5
        pre: (and (RW:at ?v ?l) (RW:at ?p ?l) (R:capacity-predecessor ?s1 ?s2) (RW:capacity ?v ?s2))
        eff: (and (RW:in ?p ?v) (RW:capacity ?v ?s1) (increase (total-cost) 1))
    drop: ?v:3 ?l:1 ?p:4 ?s1:5 ?s2:5
        pre: (and (RW:at ?v ?l) (RW:in ?p ?v) (R:capacity-predecessor ?s1 ?s2) (RW:capacity ?v ?s1))
        eff: (and (RW:at ?p ?l) (RW:capacity ?v ?s2) (increase (total-cost) 1))
Init[233]:
  S:(capacity-predecessor capacity-0 capacity-0)
  S:(road city-1-loc-1 city-1-loc-1)
  S:(road city-1-loc-1 city-1-loc-1)
  S:(road city-1-loc-5 city-1-loc-1)
  S:(road city-1-loc-1 city-1-loc-5)
  S:(road city-1-loc-1 city-1-loc-1)
  S:(road city-1-loc-1 city-1-loc-1)
  S:(road city-1-loc-1 city-1-loc-1)
  S:(road city-1-loc-1 city-1-loc-1)
  S:(road city-1-loc-1 city-1-loc-1)
  S:(road city-1-loc-1 city-1-loc-1)
  S:(road city-1-loc-1 city-1-loc-1)
  S:(road city-1-loc-1 city-1-loc-1)
  S:(road city-1-loc-1 city-1-loc-1)
  S:(road city-1-loc-1 city-1-loc-1)
  S:(road city-1-loc-1 city-1-loc-1)
  S:(road city-1-loc-1 city-1-loc-1)
  S:(road city-1-loc-1 city-1-loc-1)
  S:(road city-1-loc-1 city-1-loc-1)
  S:(road city-1-loc-1 city-1-loc-1)
  S:(road city-1-loc-1 city-1-loc-1)
  S:(road city-1-loc-2 city-2-loc-4)
  S:(road city-2-loc-4 city-1-loc-2)
  S:(road city-1-loc-12 city-2-loc-4)
  S:(road city-2-loc-4 city-1-loc-12)
  S:(road city-1-loc-12 city-1-loc-2)
  S:(road city-1-loc-2 city-1-loc-12)
  S:(road city-1-loc-1 city-1-loc-1)
  S:(road city-1-loc-1 city-1-loc-1)
  S:(road city-1-loc-1 city-1-loc-1)
  S:(road city-1-loc-1 city-1-loc-1)
  S:(road city-1-loc-1 city-1-loc-1)
  S:(road city-1-loc-1 city-1-loc-1)
  S:(road city-1-loc-1 city-1-loc-1)
  S:(road city-1-loc-1 city-1-loc-1)
  S:(road city-1-loc-1 city-1-loc-12)
  S:(road city-1-loc-12 city-1-loc-1)
  S:(road city-1-loc-15 city-1-loc-5)
  S:(road city-1-loc-5 city-1-loc-15)
  S:(road city-1-loc-1 city-1-loc-1)
  S:(road city-1-loc-1 city-1-loc-1)
  S:(road city-1-loc-1 city-1-loc-1)
  S:(road city-1-loc-1 city-1-loc-1)
  S:(road city-1-loc-1 city-1-loc-1)
  S:(road city-1-loc-1 city-1-loc-1)
  S:(road city-1-loc-1 city-1-loc-1)
  S:(road city-1-loc-1 city-1-loc-1)
  S:(road city-2-loc-16 city-1-loc-5)
  S:(road city-1-loc-5 city-2-loc-16)
  S:(road city-2-loc-16 city-1-loc-15)
  S:(road city-1-loc-15 city-2-loc-16)
  S:(road city-1-loc-2 city-1-loc-2)
  S:(road city-1-loc-2 city-1-loc-2)
  S:(road city-1-loc-2 city-1-loc-2)
  S:(road city-3-loc-2 city-1-loc-5)
  S:(road city-1-loc-5 city-3-loc-2)
  S:(road city-3-loc-2 city-1-loc-15)
  S:(road city-1-loc-15 city-3-loc-2)
  S:(road city-3-loc-2 city-2-loc-16)
  S:(road city-2-loc-16 city-3-loc-2)
  S:(road city-2-loc-5 city-2-loc-2)
  S:(road city-2-loc-2 city-2-loc-5)
  S:(road city-3-loc-3 city-2-loc-4)
  S:(road city-2-loc-4 city-3-loc-3)
  S:(road city-2-loc-8 city-2-loc-3)
  S:(road city-2-loc-3 city-2-loc-8)
  S:(road city-3-loc-7 city-2-loc-3)
  S:(road city-2-loc-3 city-3-loc-7)
  S:(road city-3-loc-7 city-2-loc-8)
  S:(road city-2-loc-8 city-3-loc-7)
  S:(road city-2-loc-10 city-2-loc-7)
  S:(road city-2-loc-7 city-2-loc-10)
  S:(road city-2-loc-1 city-2-loc-1)
  S:(road city-2-loc-1 city-2-loc-1)
  S:(road city-2-loc-12 city-2-loc-4)
  S:(road city-2-loc-4 city-2-loc-12)
  S:(road city-2-loc-12 city-3-loc-3)
  S:(road city-3-loc-3 city-2-loc-12)
  S:(road city-2-loc-12 city-2-loc-7)
  S:(road city-2-loc-7 city-2-loc-12)
  S:(road city-2-loc-13 city-2-loc-3)
  S:(road city-2-loc-3 city-2-loc-13)
  S:(road city-2-loc-13 city-3-loc-7)
  S:(road city-3-loc-7 city-2-loc-13)
  S:(road city-2-loc-13 city-2-loc-10)
  S:(road city-2-loc-10 city-2-loc-13)
  S:(road city-2-loc-13 city-2-loc-12)
  S:(road city-2-loc-12 city-2-loc-13)
  S:(road city-2-loc-5 city-2-loc-8)
  S:(road city-2-loc-8 city-2-loc-5)
  S:(road city-1-loc-1 city-2-loc-7)
  S:(road city-2-loc-7 city-1-loc-1)
  S:(road city-1-loc-1 city-2-loc-10)
  S:(road city-2-loc-10 city-1-loc-1)
  S:(road city-2-loc-16 city-2-loc-1)
  S:(road city-2-loc-1 city-2-loc-16)
  S:(road city-2-loc-16 city-2-loc-2)
  S:(road city-2-loc-2 city-2-loc-16)
  S:(road city-2-loc-16 city-2-loc-3)
  S:(road city-2-loc-3 city-2-loc-16)
  S:(road city-2-loc-16 city-3-loc-7)
  S:(road city-3-loc-7 city-2-loc-16)
  S:(road city-2-loc-16 city-2-loc-1)
  S:(road city-2-loc-1 city-2-loc-16)
  S:(road city-2-loc-17 city-2-loc-3)
  S:(road city-2-loc-3 city-2-loc-17)
  S:(road city-2-loc-17 city-2-loc-8)
  S:(road city-2-loc-8 city-2-loc-17)
  S:(road city-2-loc-17 city-3-loc-7)
  S:(road city-3-loc-7 city-2-loc-17)
  S:(road city-2-loc-17 city-2-loc-5)
  S:(road city-2-loc-5 city-2-loc-17)
  S:(road city-2-loc-5 city-2-loc-8)
  S:(road city-2-loc-8 city-2-loc-5)
  S:(road city-2-loc-5 city-2-loc-5)
  S:(road city-2-loc-5 city-2-loc-5)
  S:(road city-2-loc-19 city-2-loc-4)
  S:(road city-2-loc-4 city-2-loc-19)
  S:(road city-2-loc-19 city-3-loc-3)
  S:(road city-3-loc-3 city-2-loc-19)
  S:(road city-2-loc-19 city-2-loc-8)
  S:(road city-2-loc-8 city-2-loc-19)
  S:(road city-2-loc-19 city-2-loc-17)
  S:(road city-2-loc-17 city-2-loc-19)
  S:(road city-2-loc-7 city-2-loc-7)
  S:(road city-2-loc-7 city-2-loc-7)
  S:(road city-2-loc-7 city-3-loc-7)
  S:(road city-3-loc-7 city-2-loc-7)
  S:(road city-2-loc-7 city-2-loc-10)
  S:(road city-2-loc-10 city-2-loc-7)
  S:(road city-2-loc-7 city-2-loc-12)
  S:(road city-2-loc-12 city-2-loc-7)
  S:(road city-2-loc-7 city-2-loc-13)
  S:(road city-2-loc-13 city-2-loc-7)
  S:(road city-3-loc-2 city-3-loc-1)
  S:(road city-3-loc-1 city-3-loc-2)
  S:(road city-3-loc-3 city-3-loc-2)
  S:(road city-3-loc-2 city-3-loc-3)
  S:(road city-3-loc-4 city-3-loc-1)
  S:(road city-3-loc-1 city-3-loc-4)
  S:(road city-3-loc-4 city-3-loc-2)
  S:(road city-3-loc-2 city-3-loc-4)
  S:(road city-3-loc-4 city-3-loc-3)
  S:(road city-3-loc-3 city-3-loc-4)
  S:(road city-3-loc-1 city-3-loc-1)
  S:(road city-3-loc-1 city-3-loc-1)
  S:(road city-1-loc-2 city-3-loc-2)
  S:(road city-3-loc-2 city-1-loc-2)
  S:(road city-1-loc-2 city-3-loc-3)
  S:(road city-3-loc-3 city-1-loc-2)
  S:(road city-3-loc-7 city-3-loc-2)
  S:(road city-3-loc-2 city-3-loc-7)
  S:(road city-3-loc-7 city-1-loc-2)
  S:(road city-1-loc-2 city-3-loc-7)
  S:(road city-3-loc-4 city-3-loc-7)
  S:(road city-3-loc-7 city-3-loc-4)
  S:(road city-3-loc-11 city-1-loc-2)
  S:(road city-1-loc-2 city-3-loc-11)
  S:(road city-3-loc-11 city-3-loc-7)
  S:(road city-3-loc-7 city-3-loc-11)
  S:(road city-3-loc-11 city-2-loc-1)
  S:(road city-2-loc-1 city-3-loc-11)
  S:(road city-3-loc-1 city-3-loc-1)
  S:(road city-3-loc-1 city-3-loc-1)
  S:(road city-3-loc-1 city-3-loc-7)
  S:(road city-3-loc-7 city-3-loc-1)
  S:(road city-3-loc-1 city-3-loc-4)
  S:(road city-3-loc-4 city-3-loc-1)
  S:(road city-3-loc-1 city-3-loc-1)
  S:(road city-3-loc-1 city-3-loc-1)
  S:(road city-3-loc-14 city-1-loc-2)
  S:(road city-1-loc-2 city-3-loc-14)
  S:(road city-3-loc-14 city-3-loc-7)
  S:(road city-3-loc-7 city-3-loc-14)
  S:(road city-3-loc-14 city-3-loc-11)
  S:(road city-3-loc-11 city-3-loc-14)
  S:(road city-1-loc-15 city-1-loc-2)
  S:(road city-1-loc-2 city-1-loc-15)
  S:(road city-1-loc-15 city-3-loc-7)
  S:(road city-3-loc-7 city-1-loc-15)
  S:(road city-1-loc-15 city-2-loc-1)
  S:(road city-2-loc-1 city-1-loc-15)
  S:(road city-1-loc-15 city-3-loc-11)
  S:(road city-3-loc-11 city-1-loc-15)
  S:(road city-1-loc-15 city-3-loc-14)
  S:(road city-3-loc-14 city-1-loc-15)
  S:(road city-3-loc-16 city-3-loc-7)
  S:(road city-3-loc-7 city-3-loc-16)
  S:(road city-3-loc-16 city-3-loc-4)
  S:(road city-3-loc-4 city-3-loc-16)
  S:(road city-3-loc-16 city-3-loc-7)
  S:(road city-3-loc-7 city-3-loc-16)
  S:(road city-3-loc-16 city-2-loc-1)
  S:(road city-2-loc-1 city-3-loc-16)
  S:(road city-3-loc-16 city-3-loc-11)
  S:(road city-3-loc-11 city-3-loc-16)
  S:(road city-3-loc-16 city-1-loc-15)
  S:(road city-1-loc-15 city-3-loc-16)
  S:(road city-1-loc-1 city-3-loc-3)
  S:(road city-3-loc-3 city-1-loc-1)
  S:(road city-1-loc-1 city-3-loc-4)
  S:(road city-3-loc-4 city-1-loc-1)
  S:(road city-3-loc-1 city-3-loc-1)
  S:(road city-3-loc-1 city-3-loc-1)
  S:(road city-3-loc-1 city-3-loc-1)
  S:(road city-3-loc-1 city-3-loc-1)
  S:(road city-3-loc-1 city-3-loc-1)
  S:(road city-3-loc-1 city-3-loc-1)
  S:(road city-3-loc-20 city-3-loc-7)
  S:(road city-3-loc-7 city-3-loc-20)
  S:(road city-3-loc-20 city-3-loc-4)
  S:(road city-3-loc-4 city-3-loc-20)
  S:(road city-3-loc-20 city-3-loc-16)
  S:(road city-3-loc-16 city-3-loc-20)
  S:(road city-2-loc-4 city-2-loc-1)
  S:(road city-2-loc-1 city-2-loc-4)
  S:(road city-2-loc-4 city-3-loc-1)
  S:(road city-3-loc-1 city-2-loc-4)
  S:(road city-2-loc-17 city-1-loc-15)
  S:(road city-1-loc-15 city-2-loc-17)
  (at package-1 city-3-loc-7)
  (at package-2 city-2-loc-2)
  (at package-3 city-1-loc-1)
  (at package-4 city-1-loc-1)
  (at package-5 city-2-loc-2)
  (at package-6 city-2-loc-10)
  (at package-7 city-1-loc-12)
  (at truck-1 city-1-loc-1)
  (capacity truck-1 capacity-0)
  (at truck-1 city-1-loc-1)
  (capacity truck-1 capacity-0)
  (at truck-3 city-1-loc-5)
  (capacity truck-3 capacity-0)
Init[223]:
  (= (total-cost) 0)
  (= (road-length city-1-loc-1 city-1-loc-1) 30)
  (= (road-length city-1-loc-1 city-1-loc-1) 30)
  (= (road-length city-1-loc-5 city-1-loc-1) 31)
  (= (road-length city-1-loc-1 city-1-loc-5) 31)
  (= (road-length city-1-loc-5 city-1-loc-1) 30)
  (= (road-length city-1-loc-1 city-1-loc-5) 30)
  (= (road-length city-1-loc-1 city-1-loc-1) 21)
  (= (road-length city-1-loc-1 city-1-loc-1) 21)
  (= (road-length city-1-loc-1 city-1-loc-1) 28)
  (= (road-length city-1-loc-1 city-1-loc-1) 28)
  (= (road-length city-1-loc-1 city-1-loc-1) 18)
  (= (road-length city-1-loc-1 city-1-loc-1) 18)
  (= (road-length city-1-loc-1 city-1-loc-1) 17)
  (= (road-length city-1-loc-1 city-1-loc-1) 17)
  (= (road-length city-1-loc-1 city-1-loc-1) 25)
  (= (road-length city-1-loc-1 city-1-loc-1) 25)
  (= (road-length city-1-loc-1 city-1-loc-1) 25)
  (= (road-length city-1-loc-1 city-1-loc-1) 25)
  (= (road-length city-1-loc-1 city-1-loc-1) 14)
  (= (road-length city-1-loc-1 city-1-loc-1) 14)
  (= (road-length city-1-loc-1 city-1-loc-1) 28)
  (= (road-length city-1-loc-1 city-1-loc-1) 28)
  (= (road-length city-1-loc-2 city-2-loc-4) 30)
  (= (road-length city-2-loc-4 city-1-loc-2) 30)
  (= (road-length city-1-loc-12 city-2-loc-4) 29)
  (= (road-length city-2-loc-4 city-1-loc-12) 29)
  (= (road-length city-1-loc-12 city-1-loc-2) 18)
  (= (road-length city-1-loc-2 city-1-loc-12) 18)
  (= (road-length city-1-loc-1 city-1-loc-1) 18)
  (= (road-length city-1-loc-1 city-1-loc-1) 18)
  (= (road-length city-1-loc-1 city-1-loc-1) 16)
  (= (road-length city-1-loc-1 city-1-loc-1) 16)
  (= (road-length city-1-loc-1 city-1-loc-1) 18)
  (= (road-length city-1-loc-1 city-1-loc-1) 18)
  (= (road-length city-1-loc-1 city-1-loc-1) 27)
  (= (road-length city-1-loc-1 city-1-loc-1) 27)
  (= (road-length city-1-loc-1 city-1-loc-12) 16)
  (= (road-length city-1-loc-12 city-1-loc-1) 16)
  (= (road-length city-1-loc-15 city-1-loc-5) 16)
  (= (road-length city-1-loc-5 city-1-loc-15) 16)
  (= (road-length city-1-loc-1 city-1-loc-1) 20)
  (= (road-length city-1-loc-1 city-1-loc-1) 20)
  (= (road-length city-1-loc-1 city-1-loc-1) 17)
  (= (road-length city-1-loc-1 city-1-loc-1) 17)
  (= (road-length city-1-loc-1 city-1-loc-1) 22)
  (= (road-length city-1-loc-1 city-1-loc-1) 22)
  (= (road-length city-1-loc-1 city-1-loc-1) 15)
  (= (road-length city-1-loc-1 city-1-loc-1) 15)
  (= (road-length city-2-loc-16 city-1-loc-5) 20)
  (= (road-length city-1-loc-5 city-2-loc-16) 20)
  (= (road-length city-2-loc-16 city-1-loc-15) 12)
  (= (road-length city-1-loc-15 city-2-loc-16) 12)
  (= (road-length city-1-loc-2 city-1-loc-2) 14)
  (= (road-length city-1-loc-2 city-1-loc-2) 14)
  (= (road-length city-1-loc-2 city-1-loc-2) 20)
  (= (road-length city-1-loc-2 city-1-loc-2) 20)
  (= (road-length city-3-loc-2 city-1-loc-5) 26)
  (= (road-length city-1-loc-5 city-3-loc-2) 26)
  (= (road-length city-3-loc-2 city-1-loc-15) 11)
  (= (road-length city-1-loc-15 city-3-loc-2) 11)
  (= (road-length city-3-loc-2 city-2-loc-16) 14)
  (= (road-length city-2-loc-16 city-3-loc-2) 14)
  (= (road-length city-2-loc-5 city-2-loc-2) 20)
  (= (road-length city-2-loc-2 city-2-loc-5) 20)
  (= (road-length city-3-loc-3 city-2-loc-4) 12)
  (= (road-length city-2-loc-4 city-3-loc-3) 12)
  (= (road-length city-2-loc-8 city-2-loc-3) 17)
  (= (road-length city-2-loc-3 city-2-loc-8) 17)
  (= (road-length city-3-loc-7 city-2-loc-3) 14)
  (= (road-length city-2-loc-3 city-3-loc-7) 14)
  (= (road-length city-3-loc-7 city-2-loc-8) 30)
  (= (road-length city-2-loc-8 city-3-loc-7) 30)
  (= (road-length city-2-loc-10 city-2-loc-7) 13)
  (= (road-length city-2-loc-7 city-2-loc-10) 13)
  (= (road-length city-2-loc-1 city-2-loc-1) 13)
  (= (road-length city-2-loc-1 city-2-loc-1) 13)
  (= (road-length city-2-loc-12 city-2-loc-4) 29)
  (= (road-length city-2-loc-4 city-2-loc-12) 29)
  (= (road-length city-2-loc-12 city-3-loc-3) 18)
  (= (road-length city-3-loc-3 city-2-loc-12) 18)
  (= (road-length city-2-loc-12 city-2-loc-7) 28)
  (= (road-length city-2-loc-7 city-2-loc-12) 28)
  (= (road-length city-2-loc-13 city-2-loc-3) 28)
  (= (road-length city-2-loc-3 city-2-loc-13) 28)
  (= (road-length city-2-loc-13 city-3-loc-7) 15)
  (= (road-length city-3-loc-7 city-2-loc-13) 15)
  (= (road-length city-2-loc-13 city-2-loc-10) 25)
  (= (road-length city-2-loc-10 city-2-loc-13) 25)
  (= (road-length city-2-loc-13 city-2-loc-12) 26)
  (= (road-length city-2-loc-12 city-2-loc-13) 26)
  (= (road-length city-2-loc-5 city-2-loc-8) 15)
  (= (road-length city-2-loc-8 city-2-loc-5) 15)
  (= (road-length city-1-loc-1 city-2-loc-7) 22)
  (= (road-length city-2-loc-7 city-1-loc-1) 22)
  (= (road-length city-1-loc-1 city-2-loc-10) 22)
  (= (road-length city-2-loc-10 city-1-loc-1) 22)
  (= (road-length city-2-loc-16 city-2-loc-1) 30)
  (= (road-length city-2-loc-1 city-2-loc-16) 30)
  (= (road-length city-2-loc-16 city-2-loc-2) 28)
  (= (road-length city-2-loc-2 city-2-loc-16) 28)
  (= (road-length city-2-loc-16 city-2-loc-3) 30)
  (= (road-length city-2-loc-3 city-2-loc-16) 30)
  (= (road-length city-2-loc-16 city-3-loc-7) 28)
  (= (road-length city-3-loc-7 city-2-loc-16) 28)
  (= (road-length city-2-loc-16 city-2-loc-1) 28)
  (= (road-length city-2-loc-1 city-2-loc-16) 28)
  (= (road-length city-2-loc-17 city-2-loc-3) 25)
  (= (road-length city-2-loc-3 city-2-loc-17) 25)
  (= (road-length city-2-loc-17 city-2-loc-8) 19)
  (= (road-length city-2-loc-8 city-2-loc-17) 19)
  (= (road-length city-2-loc-17 city-3-loc-7) 31)
  (= (road-length city-3-loc-7 city-2-loc-17) 31)
  (= (road-length city-2-loc-17 city-2-loc-5) 24)
  (= (road-length city-2-loc-5 city-2-loc-17) 24)
  (= (road-length city-2-loc-5 city-2-loc-8) 28)
  (= (road-length city-2-loc-8 city-2-loc-5) 28)
  (= (road-length city-2-loc-5 city-2-loc-5) 23)
  (= (road-length city-2-loc-5 city-2-loc-5) 23)
  (= (road-length city-2-loc-19 city-2-loc-4) 22)
  (= (road-length city-2-loc-4 city-2-loc-19) 22)
  (= (road-length city-2-loc-19 city-3-loc-3) 26)
  (= (road-length city-3-loc-3 city-2-loc-19) 26)
  (= (road-length city-2-loc-19 city-2-loc-8) 30)
  (= (road-length city-2-loc-8 city-2-loc-19) 30)
  (= (road-length city-2-loc-19 city-2-loc-17) 12)
  (= (road-length city-2-loc-17 city-2-loc-19) 12)
  (= (road-length city-2-loc-7 city-2-loc-7) 24)
  (= (road-length city-2-loc-7 city-2-loc-7) 24)
  (= (road-length city-2-loc-7 city-3-loc-7) 23)
  (= (road-length city-3-loc-7 city-2-loc-7) 23)
  (= (road-length city-2-loc-7 city-2-loc-10) 23)
  (= (road-length city-2-loc-10 city-2-loc-7) 23)
  (= (road-length city-2-loc-7 city-2-loc-12) 15)
  (= (road-length city-2-loc-12 city-2-loc-7) 15)
  (= (road-length city-2-loc-7 city-2-loc-13) 12)
  (= (road-length city-2-loc-13 city-2-loc-7) 12)
  (= (road-length city-3-loc-2 city-3-loc-1) 28)
  (= (road-length city-3-loc-1 city-3-loc-2) 28)
  (= (road-length city-3-loc-3 city-3-loc-2) 17)
  (= (road-length city-3-loc-2 city-3-loc-3) 17)
  (= (road-length city-3-loc-4 city-3-loc-1) 20)
  (= (road-length city-3-loc-1 city-3-loc-4) 20)
  (= (road-length city-3-loc-4 city-3-loc-2) 24)
  (= (road-length city-3-loc-2 city-3-loc-4) 24)
  (= (road-length city-3-loc-4 city-3-loc-3) 26)
  (= (road-length city-3-loc-3 city-3-loc-4) 26)
  (= (road-length city-3-loc-1 city-3-loc-1) 21)
  (= (road-length city-3-loc-1 city-3-loc-1) 21)
  (= (road-length city-1-loc-2 city-3-loc-2) 22)
  (= (road-length city-3-loc-2 city-1-loc-2) 22)
  (= (road-length city-1-loc-2 city-3-loc-3) 29)
  (= (road-length city-3-loc-3 city-1-loc-2) 29)
  (= (road-length city-3-loc-7 city-3-loc-2) 28)
  (= (road-length city-3-loc-2 city-3-loc-7) 28)
  (= (road-length city-3-loc-7 city-1-loc-2) 17)
  (= (road-length city-1-loc-2 city-3-loc-7) 17)
  (= (road-length city-3-loc-4 city-3-loc-7) 19)
  (= (road-length city-3-loc-7 city-3-loc-4) 19)
  (= (road-length city-3-loc-11 city-1-loc-2) 23)
  (= (road-length city-1-loc-2 city-3-loc-11) 23)
  (= (road-length city-3-loc-11 city-3-loc-7) 13)
  (= (road-length city-3-loc-7 city-3-loc-11) 13)
  (= (road-length city-3-loc-11 city-2-loc-1) 24)
  (= (road-length city-2-loc-1 city-3-loc-11) 24)
  (= (road-length city-3-loc-1 city-3-loc-1) 25)
  (= (road-length city-3-loc-1 city-3-loc-1) 25)
  (= (road-length city-3-loc-1 city-3-loc-7) 19)
  (= (road-length city-3-loc-7 city-3-loc-1) 19)
  (= (road-length city-3-loc-1 city-3-loc-4) 26)
  (= (road-length city-3-loc-4 city-3-loc-1) 26)
  (= (road-length city-3-loc-1 city-3-loc-1) 25)
  (= (road-length city-3-loc-1 city-3-loc-1) 25)
  (= (road-length city-3-loc-14 city-1-loc-2) 17)
  (= (road-length city-1-loc-2 city-3-loc-14) 17)
  (= (road-length city-3-loc-14 city-3-loc-7) 30)
  (= (road-length city-3-loc-7 city-3-loc-14) 30)
  (= (road-length city-3-loc-14 city-3-loc-11) 30)
  (= (road-length city-3-loc-11 city-3-loc-14) 30)
  (= (road-length city-1-loc-15 city-1-loc-2) 25)
  (= (road-length city-1-loc-2 city-1-loc-15) 25)
  (= (road-length city-1-loc-15 city-3-loc-7) 24)
  (= (road-length city-3-loc-7 city-1-loc-15) 24)
  (= (road-length city-1-loc-15 city-2-loc-1) 19)
  (= (road-length city-2-loc-1 city-1-loc-15) 19)
  (= (road-length city-1-loc-15 city-3-loc-11) 15)
  (= (road-length city-3-loc-11 city-1-loc-15) 15)
  (= (road-length city-1-loc-15 city-3-loc-14) 23)
  (= (road-length city-3-loc-14 city-1-loc-15) 23)
  (= (road-length city-3-loc-16 city-3-loc-7) 27)
  (= (road-length city-3-loc-7 city-3-loc-16) 27)
  (= (road-length city-3-loc-16 city-3-loc-4) 12)
  (= (road-length city-3-loc-4 city-3-loc-16) 12)
  (= (road-length city-3-loc-16 city-3-loc-7) 23)
  (= (road-length city-3-loc-7 city-3-loc-16) 23)
  (= (road-length city-3-loc-16 city-2-loc-1) 19)
  (= (road-length city-2-loc-1 city-3-loc-16) 19)
  (= (road-length city-3-loc-16 city-3-loc-11) 13)
  (= (road-length city-3-loc-11 city-3-loc-16) 13)
  (= (road-length city-3-loc-16 city-1-loc-15) 23)
  (= (road-length city-1-loc-15 city-3-loc-16) 23)
  (= (road-length city-1-loc-1 city-3-loc-3) 25)
  (= (road-length city-3-loc-3 city-1-loc-1) 25)
  (= (road-length city-1-loc-1 city-3-loc-4) 13)
  (= (road-length city-3-loc-4 city-1-loc-1) 13)
  (= (road-length city-3-loc-1 city-3-loc-1) 15)
  (= (road-length city-3-loc-1 city-3-loc-1) 15)
  (= (road-length city-3-loc-1 city-3-loc-1) 25)
  (= (road-length city-3-loc-1 city-3-loc-1) 25)
  (= (road-length city-3-loc-1 city-3-loc-1) 17)
  (= (road-length city-3-loc-1 city-3-loc-1) 17)
  (= (road-length city-3-loc-20 city-3-loc-7) 21)
  (= (road-length city-3-loc-7 city-3-loc-20) 21)
  (= (road-length city-3-loc-20 city-3-loc-4) 25)
  (= (road-length city-3-loc-4 city-3-loc-20) 25)
  (= (road-length city-3-loc-20 city-3-loc-16) 24)
  (= (road-length city-3-loc-16 city-3-loc-20) 24)
  (= (road-length city-2-loc-4 city-2-loc-1) 115)
  (= (road-length city-2-loc-1 city-2-loc-4) 115)
  (= (road-length city-2-loc-4 city-3-loc-1) 115)
  (= (road-length city-3-loc-1 city-2-loc-4) 115)
  (= (road-length city-2-loc-17 city-1-loc-15) 162)
  (= (road-length city-1-loc-15 city-2-loc-17) 162)
Goal: (and (RW:at package-1 city-2-loc-5) (RW:at package-2 city-2-loc-17) (RW:at package-3 city-1-loc-12) (RW:at package-4 city-1-loc-5) (RW:at package-5 city-3-loc-14) (RW:at package-6 city-1-loc-15) (RW:at package-7 city-2-loc-10))
Metric: 1
