begin_version
3
end_version
begin_metric
1
end_metric
13
begin_variable
var0
-1
4
at rover0 waypoint0
at rover0 waypoint1
at rover0 waypoint2
at rover0 waypoint3
end_variable
begin_variable
var1
-1
2
at_rock_sample waypoint3
have_rock_analysis rover0 waypoint3
end_variable
begin_variable
var2
-1
2
at_soil_sample waypoint2
have_soil_analysis rover0 waypoint2
end_variable
begin_variable
var3
-1
2
empty rover0store
full rover0store
end_variable
begin_variable
var4
-1
2
at_rock_sample waypoint1
none-of-those
end_variable
begin_variable
var5
-1
2
at_rock_sample waypoint2
none-of-those
end_variable
begin_variable
var6
-1
2
at_soil_sample waypoint0
none-of-those
end_variable
begin_variable
var7
-1
2
at_soil_sample waypoint3
none-of-those
end_variable
begin_variable
var8
-1
2
calibrated camera0 rover0
none-of-those
end_variable
begin_variable
var9
-1
2
communicated_image_data objective1 high_res
none-of-those
end_variable
begin_variable
var10
-1
2
communicated_rock_data waypoint3
none-of-those
end_variable
begin_variable
var11
-1
2
communicated_soil_data waypoint2
none-of-those
end_variable
begin_variable
var12
-1
2
have_image rover0 objective1 high_res
none-of-those
end_variable
10
begin_mutex_group
1
4 0
end_mutex_group
begin_mutex_group
1
5 0
end_mutex_group
begin_mutex_group
1
1 0
end_mutex_group
begin_mutex_group
1
6 0
end_mutex_group
begin_mutex_group
1
2 0
end_mutex_group
begin_mutex_group
1
7 0
end_mutex_group
begin_mutex_group
2
1 0
1 1
end_mutex_group
begin_mutex_group
2
2 0
2 1
end_mutex_group
begin_mutex_group
2
3 0
3 1
end_mutex_group
begin_mutex_group
4
0 0
0 1
0 2
0 3
end_mutex_group
begin_state
3
0
0
0
0
0
0
0
1
1
1
1
1
end_state
begin_goal
3
9 0
10 0
11 0
end_goal
42
begin_operator
calibrate rover0 camera0 objective1 waypoint0
1
0 0
1
0 8 -1 0
1
end_operator
begin_operator
calibrate rover0 camera0 objective1 waypoint1
1
0 1
1
0 8 -1 0
1
end_operator
begin_operator
calibrate rover0 camera0 objective1 waypoint2
1
0 2
1
0 8 -1 0
1
end_operator
begin_operator
calibrate rover0 camera0 objective1 waypoint3
1
0 3
1
0 8 -1 0
1
end_operator
begin_operator
communicate_image_data rover0 general objective1 high_res waypoint1 waypoint0
2
0 1
12 0
1
0 9 -1 0
1
end_operator
begin_operator
communicate_image_data rover0 general objective1 high_res waypoint2 waypoint0
2
0 2
12 0
1
0 9 -1 0
1
end_operator
begin_operator
communicate_image_data rover0 general objective1 high_res waypoint3 waypoint0
2
0 3
12 0
1
0 9 -1 0
1
end_operator
begin_operator
communicate_rock_data rover0 general waypoint3 waypoint1 waypoint0
2
0 1
1 1
1
0 10 -1 0
1
end_operator
begin_operator
communicate_rock_data rover0 general waypoint3 waypoint2 waypoint0
2
0 2
1 1
1
0 10 -1 0
1
end_operator
begin_operator
communicate_rock_data rover0 general waypoint3 waypoint3 waypoint0
2
0 3
1 1
1
0 10 -1 0
1
end_operator
begin_operator
communicate_soil_data rover0 general waypoint2 waypoint1 waypoint0
2
0 1
2 1
1
0 11 -1 0
1
end_operator
begin_operator
communicate_soil_data rover0 general waypoint2 waypoint2 waypoint0
2
0 2
2 1
1
0 11 -1 0
1
end_operator
begin_operator
communicate_soil_data rover0 general waypoint2 waypoint3 waypoint0
2
0 3
2 1
1
0 11 -1 0
1
end_operator
begin_operator
drop rover0 rover0store
0
1
0 3 1 0
1
end_operator
begin_operator
navigate rover0 waypoint0 waypoint3
0
1
0 0 0 3
1
end_operator
begin_operator
navigate rover0 waypoint1 waypoint2
0
1
0 0 1 2
1
end_operator
begin_operator
navigate rover0 waypoint1 waypoint3
0
1
0 0 1 3
1
end_operator
begin_operator
navigate rover0 waypoint2 waypoint1
0
1
0 0 2 1
1
end_operator
begin_operator
navigate rover0 waypoint3 waypoint0
0
1
0 0 3 0
1
end_operator
begin_operator
navigate rover0 waypoint3 waypoint1
0
1
0 0 3 1
1
end_operator
begin_operator
sample_rock rover0 rover0store waypoint1
1
0 1
2
0 3 0 1
0 4 0 1
1
end_operator
begin_operator
sample_rock rover0 rover0store waypoint2
1
0 2
2
0 3 0 1
0 5 0 1
1
end_operator
begin_operator
sample_rock rover0 rover0store waypoint3
1
0 3
2
0 1 0 1
0 3 0 1
1
end_operator
begin_operator
sample_soil rover0 rover0store waypoint0
1
0 0
2
0 3 0 1
0 6 0 1
1
end_operator
begin_operator
sample_soil rover0 rover0store waypoint2
1
0 2
2
0 2 0 1
0 3 0 1
1
end_operator
begin_operator
sample_soil rover0 rover0store waypoint3
1
0 3
2
0 3 0 1
0 7 0 1
1
end_operator
begin_operator
take_image rover0 waypoint0 objective0 camera0 colour
1
0 0
1
0 8 0 1
1
end_operator
begin_operator
take_image rover0 waypoint0 objective0 camera0 high_res
1
0 0
1
0 8 0 1
1
end_operator
begin_operator
take_image rover0 waypoint0 objective1 camera0 colour
1
0 0
1
0 8 0 1
1
end_operator
begin_operator
take_image rover0 waypoint0 objective1 camera0 high_res
1
0 0
2
0 8 0 1
0 12 -1 0
1
end_operator
begin_operator
take_image rover0 waypoint1 objective0 camera0 colour
1
0 1
1
0 8 0 1
1
end_operator
begin_operator
take_image rover0 waypoint1 objective0 camera0 high_res
1
0 1
1
0 8 0 1
1
end_operator
begin_operator
take_image rover0 waypoint1 objective1 camera0 colour
1
0 1
1
0 8 0 1
1
end_operator
begin_operator
take_image rover0 waypoint1 objective1 camera0 high_res
1
0 1
2
0 8 0 1
0 12 -1 0
1
end_operator
begin_operator
take_image rover0 waypoint2 objective0 camera0 colour
1
0 2
1
0 8 0 1
1
end_operator
begin_operator
take_image rover0 waypoint2 objective0 camera0 high_res
1
0 2
1
0 8 0 1
1
end_operator
begin_operator
take_image rover0 waypoint2 objective1 camera0 colour
1
0 2
1
0 8 0 1
1
end_operator
begin_operator
take_image rover0 waypoint2 objective1 camera0 high_res
1
0 2
2
0 8 0 1
0 12 -1 0
1
end_operator
begin_operator
take_image rover0 waypoint3 objective0 camera0 colour
1
0 3
1
0 8 0 1
1
end_operator
begin_operator
take_image rover0 waypoint3 objective0 camera0 high_res
1
0 3
1
0 8 0 1
1
end_operator
begin_operator
take_image rover0 waypoint3 objective1 camera0 colour
1
0 3
1
0 8 0 1
1
end_operator
begin_operator
take_image rover0 waypoint3 objective1 camera0 high_res
1
0 3
2
0 8 0 1
0 12 -1 0
1
end_operator
0
