begin_version
3
end_version
begin_metric
1
end_metric
17
begin_variable
var0
-1
3
today d1
none-of-those
tnf-unknown
end_variable
begin_variable
var1
-1
3
today d10
none-of-those
tnf-unknown
end_variable
begin_variable
var2
-1
3
today d2
none-of-those
tnf-unknown
end_variable
begin_variable
var3
-1
3
today d3
none-of-those
tnf-unknown
end_variable
begin_variable
var4
-1
3
today d4
none-of-those
tnf-unknown
end_variable
begin_variable
var5
-1
3
today d7
none-of-those
tnf-unknown
end_variable
begin_variable
var6
-1
3
today d8
none-of-those
tnf-unknown
end_variable
begin_variable
var7
-1
3
done ap1
none-of-those
tnf-unkown
end_variable
begin_variable
var8
-1
3
done ap10
none-of-those
tnf-unkown
end_variable
begin_variable
var9
-1
3
done ap2
none-of-those
tnf-unkown
end_variable
begin_variable
var10
-1
3
done ap3
none-of-those
tnf-unkown
end_variable
begin_variable
var11
-1
3
done ap4
none-of-those
tnf-unkown
end_variable
begin_variable
var12
-1
3
done ap5
none-of-those
tnf-unkown
end_variable
begin_variable
var13
-1
3
done ap6
none-of-those
tnf-unkown
end_variable
begin_variable
var14
-1
3
done ap7
none-of-those
tnf-unkown
end_variable
begin_variable
var15
-1
3
done ap8
none-of-those
tnf-unkown
end_variable
begin_variable
var16
-1
3
done ap9
none-of-those
tnf-unkown
end_variable
7
begin_mutex_group
1
0 0
end_mutex_group
begin_mutex_group
1
1 0
end_mutex_group
begin_mutex_group
1
2 0
end_mutex_group
begin_mutex_group
1
3 0
end_mutex_group
begin_mutex_group
1
4 0
end_mutex_group
begin_mutex_group
1
5 0
end_mutex_group
begin_mutex_group
1
6 0
end_mutex_group
begin_state
0
0
0
0
0
0
0
1
1
1
1
1
1
1
1
1
1
end_state
begin_goal
17
0 2
1 2
2 2
3 2
4 2
5 2
6 2
7 0
8 0
9 0
10 0
11 0
12 0
13 0
14 0
15 0
16 0
end_goal
53
begin_operator
workat d1 ber
0
2
0 0 0 1
0 11 2 0
1
end_operator
begin_operator
workat d1 fra
0
2
0 0 0 1
0 12 2 0
1
end_operator
begin_operator
workat d1 ham
0
1
0 0 0 1
1
end_operator
begin_operator
workat d10 ber
0
2
0 1 0 1
0 10 2 0
1
end_operator
begin_operator
workat d10 fra
0
3
0 1 0 1
0 15 2 0
0 16 2 0
1
end_operator
begin_operator
workat d10 ham
0
1
0 1 0 1
1
end_operator
begin_operator
workat d2 ber
0
2
0 2 0 1
0 8 2 0
1
end_operator
begin_operator
workat d2 fra
0
1
0 2 0 1
1
end_operator
begin_operator
workat d2 ham
0
2
0 2 0 1
0 13 2 0
1
end_operator
begin_operator
workat d3 ber
0
4
0 3 0 1
0 10 2 0
0 12 2 0
0 14 2 0
1
end_operator
begin_operator
workat d3 fra
0
2
0 3 0 1
0 16 2 0
1
end_operator
begin_operator
workat d3 ham
0
2
0 3 0 1
0 14 2 0
1
end_operator
begin_operator
workat d4 ber
0
5
0 4 0 1
0 7 2 0
0 8 2 0
0 9 2 0
0 11 2 0
1
end_operator
begin_operator
workat d4 fra
0
1
0 4 0 1
1
end_operator
begin_operator
workat d7 ber
0
1
0 5 0 1
1
end_operator
begin_operator
workat d7 fra
0
2
0 5 0 1
0 9 2 0
1
end_operator
begin_operator
workat d8 ber
0
3
0 6 0 1
0 7 2 0
0 15 2 0
1
end_operator
begin_operator
workat d8 fra
0
2
0 6 0 1
0 13 2 0
1
end_operator
begin_operator
workat d8 ham
0
1
0 6 0 1
1
end_operator
begin_operator
tnf-forget-0-0
0
1
0 0 0 2
0
end_operator
begin_operator
tnf-forget-0-1
0
1
0 0 1 2
0
end_operator
begin_operator
tnf-forget-1-0
0
1
0 1 0 2
0
end_operator
begin_operator
tnf-forget-1-1
0
1
0 1 1 2
0
end_operator
begin_operator
tnf-forget-2-0
0
1
0 2 0 2
0
end_operator
begin_operator
tnf-forget-2-1
0
1
0 2 1 2
0
end_operator
begin_operator
tnf-forget-3-0
0
1
0 3 0 2
0
end_operator
begin_operator
tnf-forget-3-1
0
1
0 3 1 2
0
end_operator
begin_operator
tnf-forget-4-0
0
1
0 4 0 2
0
end_operator
begin_operator
tnf-forget-4-1
0
1
0 4 1 2
0
end_operator
begin_operator
tnf-forget-5-0
0
1
0 5 0 2
0
end_operator
begin_operator
tnf-forget-5-1
0
1
0 5 1 2
0
end_operator
begin_operator
tnf-forget-6-0
0
1
0 6 0 2
0
end_operator
begin_operator
tnf-forget-6-1
0
1
0 6 1 2
0
end_operator
begin_operator
tnf-forget-7-0
0
1
0 7 0 2
0
end_operator
begin_operator
tnf-forget-7-1
0
1
0 7 1 2
0
end_operator
begin_operator
tnf-forget-8-0
0
1
0 8 0 2
0
end_operator
begin_operator
tnf-forget-8-1
0
1
0 8 1 2
0
end_operator
begin_operator
tnf-forget-9-0
0
1
0 9 0 2
0
end_operator
begin_operator
tnf-forget-9-1
0
1
0 9 1 2
0
end_operator
begin_operator
tnf-forget-10-0
0
1
0 10 0 2
0
end_operator
begin_operator
tnf-forget-10-1
0
1
0 10 1 2
0
end_operator
begin_operator
tnf-forget-11-0
0
1
0 11 0 2
0
end_operator
begin_operator
tnf-forget-11-1
0
1
0 11 1 2
0
end_operator
begin_operator
tnf-forget-12-0
0
1
0 12 0 2
0
end_operator
begin_operator
tnf-forget-12-1
0
1
0 12 1 2
0
end_operator
begin_operator
tnf-forget-13-0
0
1
0 13 0 2
0
end_operator
begin_operator
tnf-forget-13-1
0
1
0 13 1 2
0
end_operator
begin_operator
tnf-forget-14-0
0
1
0 14 0 2
0
end_operator
begin_operator
tnf-forget-14-1
0
1
0 14 1 2
0
end_operator
begin_operator
tnf-forget-15-0
0
1
0 15 0 2
0
end_operator
begin_operator
tnf-forget-15-1
0
1
0 15 1 2
0
end_operator
begin_operator
tnf-forget-16-0
0
1
0 16 0 2
0
end_operator
begin_operator
tnf-forget-16-1
0
1
0 16 1 2
0
end_operator
0
