Fact[48]:
  (at package-1 city-loc-1)
  (at package-1 city-loc-2)
  (at package-1 city-loc-3)
  (at package-1 city-loc-4)
  (at package-1 city-loc-5)
  (at package-2 city-loc-1)
  (at package-2 city-loc-2)
  (at package-2 city-loc-3)
  (at package-2 city-loc-4)
  (at package-2 city-loc-5)
  (at package-3 city-loc-1)
  (at package-3 city-loc-2)
  (at package-3 city-loc-3)
  (at package-3 city-loc-4)
  (at package-3 city-loc-5)
  (at package-4 city-loc-1)
  (at package-4 city-loc-2)
  (at package-4 city-loc-3)
  (at package-4 city-loc-4)
  (at package-4 city-loc-5)
  (at truck-1 city-loc-1)
  (at truck-1 city-loc-2)
  (at truck-1 city-loc-3)
  (at truck-1 city-loc-4)
  (at truck-1 city-loc-5)
  (at truck-2 city-loc-1)
  (at truck-2 city-loc-2)
  (at truck-2 city-loc-3)
  (at truck-2 city-loc-4)
  (at truck-2 city-loc-5)
  (capacity truck-1 capacity-0)
  (capacity truck-1 capacity-1)
  (capacity truck-1 capacity-2)
  (capacity truck-1 capacity-3)
  (capacity truck-1 capacity-4)
  (capacity truck-2 capacity-0)
  (capacity truck-2 capacity-1)
  (capacity truck-2 capacity-2)
  (capacity truck-2 capacity-3)
  (capacity truck-2 capacity-4)
  (in package-1 truck-1)
  (in package-1 truck-2)
  (in package-2 truck-1)
  (in package-2 truck-2)
  (in package-3 truck-1)
  (in package-3 truck-2)
  (in package-4 truck-1)
  (in package-4 truck-2)
Op[344]:
  (drive truck-1 city-loc-1 city-loc-3), cost: 1
    pre: (at truck-1 city-loc-1)
    add: (at truck-1 city-loc-3)
    del: (at truck-1 city-loc-1)
  (drive truck-1 city-loc-1 city-loc-4), cost: 1
    pre: (at truck-1 city-loc-1)
    add: (at truck-1 city-loc-4)
    del: (at truck-1 city-loc-1)
  (drive truck-1 city-loc-2 city-loc-3), cost: 1
    pre: (at truck-1 city-loc-2)
    add: (at truck-1 city-loc-3)
    del: (at truck-1 city-loc-2)
  (drive truck-1 city-loc-2 city-loc-5), cost: 1
    pre: (at truck-1 city-loc-2)
    add: (at truck-1 city-loc-5)
    del: (at truck-1 city-loc-2)
  (drive truck-1 city-loc-3 city-loc-1), cost: 1
    pre: (at truck-1 city-loc-3)
    add: (at truck-1 city-loc-1)
    del: (at truck-1 city-loc-3)
  (drive truck-1 city-loc-3 city-loc-2), cost: 1
    pre: (at truck-1 city-loc-3)
    add: (at truck-1 city-loc-2)
    del: (at truck-1 city-loc-3)
  (drive truck-1 city-loc-3 city-loc-4), cost: 1
    pre: (at truck-1 city-loc-3)
    add: (at truck-1 city-loc-4)
    del: (at truck-1 city-loc-3)
  (drive truck-1 city-loc-3 city-loc-5), cost: 1
    pre: (at truck-1 city-loc-3)
    add: (at truck-1 city-loc-5)
    del: (at truck-1 city-loc-3)
  (drive truck-1 city-loc-4 city-loc-1), cost: 1
    pre: (at truck-1 city-loc-4)
    add: (at truck-1 city-loc-1)
    del: (at truck-1 city-loc-4)
  (drive truck-1 city-loc-4 city-loc-3), cost: 1
    pre: (at truck-1 city-loc-4)
    add: (at truck-1 city-loc-3)
    del: (at truck-1 city-loc-4)
  (drive truck-1 city-loc-5 city-loc-2), cost: 1
    pre: (at truck-1 city-loc-5)
    add: (at truck-1 city-loc-2)
    del: (at truck-1 city-loc-5)
  (drive truck-1 city-loc-5 city-loc-3), cost: 1
    pre: (at truck-1 city-loc-5)
    add: (at truck-1 city-loc-3)
    del: (at truck-1 city-loc-5)
  (drive truck-2 city-loc-1 city-loc-3), cost: 1
    pre: (at truck-2 city-loc-1)
    add: (at truck-2 city-loc-3)
    del: (at truck-2 city-loc-1)
  (drive truck-2 city-loc-1 city-loc-4), cost: 1
    pre: (at truck-2 city-loc-1)
    add: (at truck-2 city-loc-4)
    del: (at truck-2 city-loc-1)
  (drive truck-2 city-loc-2 city-loc-3), cost: 1
    pre: (at truck-2 city-loc-2)
    add: (at truck-2 city-loc-3)
    del: (at truck-2 city-loc-2)
  (drive truck-2 city-loc-2 city-loc-5), cost: 1
    pre: (at truck-2 city-loc-2)
    add: (at truck-2 city-loc-5)
    del: (at truck-2 city-loc-2)
  (drive truck-2 city-loc-3 city-loc-1), cost: 1
    pre: (at truck-2 city-loc-3)
    add: (at truck-2 city-loc-1)
    del: (at truck-2 city-loc-3)
  (drive truck-2 city-loc-3 city-loc-2), cost: 1
    pre: (at truck-2 city-loc-3)
    add: (at truck-2 city-loc-2)
    del: (at truck-2 city-loc-3)
  (drive truck-2 city-loc-3 city-loc-4), cost: 1
    pre: (at truck-2 city-loc-3)
    add: (at truck-2 city-loc-4)
    del: (at truck-2 city-loc-3)
  (drive truck-2 city-loc-3 city-loc-5), cost: 1
    pre: (at truck-2 city-loc-3)
    add: (at truck-2 city-loc-5)
    del: (at truck-2 city-loc-3)
  (drive truck-2 city-loc-4 city-loc-1), cost: 1
    pre: (at truck-2 city-loc-4)
    add: (at truck-2 city-loc-1)
    del: (at truck-2 city-loc-4)
  (drive truck-2 city-loc-4 city-loc-3), cost: 1
    pre: (at truck-2 city-loc-4)
    add: (at truck-2 city-loc-3)
    del: (at truck-2 city-loc-4)
  (drive truck-2 city-loc-5 city-loc-2), cost: 1
    pre: (at truck-2 city-loc-5)
    add: (at truck-2 city-loc-2)
    del: (at truck-2 city-loc-5)
  (drive truck-2 city-loc-5 city-loc-3), cost: 1
    pre: (at truck-2 city-loc-5)
    add: (at truck-2 city-loc-3)
    del: (at truck-2 city-loc-5)
  (drop truck-1 city-loc-1 package-1 capacity-0 capacity-1), cost: 1
    pre: (at truck-1 city-loc-1) (capacity truck-1 capacity-0) (in package-1 truck-1)
    add: (at package-1 city-loc-1) (capacity truck-1 capacity-1)
    del: (capacity truck-1 capacity-0) (in package-1 truck-1)
  (drop truck-1 city-loc-1 package-1 capacity-1 capacity-2), cost: 1
    pre: (at truck-1 city-loc-1) (capacity truck-1 capacity-1) (in package-1 truck-1)
    add: (at package-1 city-loc-1) (capacity truck-1 capacity-2)
    del: (capacity truck-1 capacity-1) (in package-1 truck-1)
  (drop truck-1 city-loc-1 package-1 capacity-2 capacity-3), cost: 1
    pre: (at truck-1 city-loc-1) (capacity truck-1 capacity-2) (in package-1 truck-1)
    add: (at package-1 city-loc-1) (capacity truck-1 capacity-3)
    del: (capacity truck-1 capacity-2) (in package-1 truck-1)
  (drop truck-1 city-loc-1 package-1 capacity-3 capacity-4), cost: 1
    pre: (at truck-1 city-loc-1) (capacity truck-1 capacity-3) (in package-1 truck-1)
    add: (at package-1 city-loc-1) (capacity truck-1 capacity-4)
    del: (capacity truck-1 capacity-3) (in package-1 truck-1)
  (drop truck-1 city-loc-1 package-2 capacity-0 capacity-1), cost: 1
    pre: (at truck-1 city-loc-1) (capacity truck-1 capacity-0) (in package-2 truck-1)
    add: (at package-2 city-loc-1) (capacity truck-1 capacity-1)
    del: (capacity truck-1 capacity-0) (in package-2 truck-1)
  (drop truck-1 city-loc-1 package-2 capacity-1 capacity-2), cost: 1
    pre: (at truck-1 city-loc-1) (capacity truck-1 capacity-1) (in package-2 truck-1)
    add: (at package-2 city-loc-1) (capacity truck-1 capacity-2)
    del: (capacity truck-1 capacity-1) (in package-2 truck-1)
  (drop truck-1 city-loc-1 package-2 capacity-2 capacity-3), cost: 1
    pre: (at truck-1 city-loc-1) (capacity truck-1 capacity-2) (in package-2 truck-1)
    add: (at package-2 city-loc-1) (capacity truck-1 capacity-3)
    del: (capacity truck-1 capacity-2) (in package-2 truck-1)
  (drop truck-1 city-loc-1 package-2 capacity-3 capacity-4), cost: 1
    pre: (at truck-1 city-loc-1) (capacity truck-1 capacity-3) (in package-2 truck-1)
    add: (at package-2 city-loc-1) (capacity truck-1 capacity-4)
    del: (capacity truck-1 capacity-3) (in package-2 truck-1)
  (drop truck-1 city-loc-1 package-3 capacity-0 capacity-1), cost: 1
    pre: (at truck-1 city-loc-1) (capacity truck-1 capacity-0) (in package-3 truck-1)
    add: (at package-3 city-loc-1) (capacity truck-1 capacity-1)
    del: (capacity truck-1 capacity-0) (in package-3 truck-1)
  (drop truck-1 city-loc-1 package-3 capacity-1 capacity-2), cost: 1
    pre: (at truck-1 city-loc-1) (capacity truck-1 capacity-1) (in package-3 truck-1)
    add: (at package-3 city-loc-1) (capacity truck-1 capacity-2)
    del: (capacity truck-1 capacity-1) (in package-3 truck-1)
  (drop truck-1 city-loc-1 package-3 capacity-2 capacity-3), cost: 1
    pre: (at truck-1 city-loc-1) (capacity truck-1 capacity-2) (in package-3 truck-1)
    add: (at package-3 city-loc-1) (capacity truck-1 capacity-3)
    del: (capacity truck-1 capacity-2) (in package-3 truck-1)
  (drop truck-1 city-loc-1 package-3 capacity-3 capacity-4), cost: 1
    pre: (at truck-1 city-loc-1) (capacity truck-1 capacity-3) (in package-3 truck-1)
    add: (at package-3 city-loc-1) (capacity truck-1 capacity-4)
    del: (capacity truck-1 capacity-3) (in package-3 truck-1)
  (drop truck-1 city-loc-1 package-4 capacity-0 capacity-1), cost: 1
    pre: (at truck-1 city-loc-1) (capacity truck-1 capacity-0) (in package-4 truck-1)
    add: (at package-4 city-loc-1) (capacity truck-1 capacity-1)
    del: (capacity truck-1 capacity-0) (in package-4 truck-1)
  (drop truck-1 city-loc-1 package-4 capacity-1 capacity-2), cost: 1
    pre: (at truck-1 city-loc-1) (capacity truck-1 capacity-1) (in package-4 truck-1)
    add: (at package-4 city-loc-1) (capacity truck-1 capacity-2)
    del: (capacity truck-1 capacity-1) (in package-4 truck-1)
  (drop truck-1 city-loc-1 package-4 capacity-2 capacity-3), cost: 1
    pre: (at truck-1 city-loc-1) (capacity truck-1 capacity-2) (in package-4 truck-1)
    add: (at package-4 city-loc-1) (capacity truck-1 capacity-3)
    del: (capacity truck-1 capacity-2) (in package-4 truck-1)
  (drop truck-1 city-loc-1 package-4 capacity-3 capacity-4), cost: 1
    pre: (at truck-1 city-loc-1) (capacity truck-1 capacity-3) (in package-4 truck-1)
    add: (at package-4 city-loc-1) (capacity truck-1 capacity-4)
    del: (capacity truck-1 capacity-3) (in package-4 truck-1)
  (drop truck-1 city-loc-2 package-1 capacity-0 capacity-1), cost: 1
    pre: (at truck-1 city-loc-2) (capacity truck-1 capacity-0) (in package-1 truck-1)
    add: (at package-1 city-loc-2) (capacity truck-1 capacity-1)
    del: (capacity truck-1 capacity-0) (in package-1 truck-1)
  (drop truck-1 city-loc-2 package-1 capacity-1 capacity-2), cost: 1
    pre: (at truck-1 city-loc-2) (capacity truck-1 capacity-1) (in package-1 truck-1)
    add: (at package-1 city-loc-2) (capacity truck-1 capacity-2)
    del: (capacity truck-1 capacity-1) (in package-1 truck-1)
  (drop truck-1 city-loc-2 package-1 capacity-2 capacity-3), cost: 1
    pre: (at truck-1 city-loc-2) (capacity truck-1 capacity-2) (in package-1 truck-1)
    add: (at package-1 city-loc-2) (capacity truck-1 capacity-3)
    del: (capacity truck-1 capacity-2) (in package-1 truck-1)
  (drop truck-1 city-loc-2 package-1 capacity-3 capacity-4), cost: 1
    pre: (at truck-1 city-loc-2) (capacity truck-1 capacity-3) (in package-1 truck-1)
    add: (at package-1 city-loc-2) (capacity truck-1 capacity-4)
    del: (capacity truck-1 capacity-3) (in package-1 truck-1)
  (drop truck-1 city-loc-2 package-2 capacity-0 capacity-1), cost: 1
    pre: (at truck-1 city-loc-2) (capacity truck-1 capacity-0) (in package-2 truck-1)
    add: (at package-2 city-loc-2) (capacity truck-1 capacity-1)
    del: (capacity truck-1 capacity-0) (in package-2 truck-1)
  (drop truck-1 city-loc-2 package-2 capacity-1 capacity-2), cost: 1
    pre: (at truck-1 city-loc-2) (capacity truck-1 capacity-1) (in package-2 truck-1)
    add: (at package-2 city-loc-2) (capacity truck-1 capacity-2)
    del: (capacity truck-1 capacity-1) (in package-2 truck-1)
  (drop truck-1 city-loc-2 package-2 capacity-2 capacity-3), cost: 1
    pre: (at truck-1 city-loc-2) (capacity truck-1 capacity-2) (in package-2 truck-1)
    add: (at package-2 city-loc-2) (capacity truck-1 capacity-3)
    del: (capacity truck-1 capacity-2) (in package-2 truck-1)
  (drop truck-1 city-loc-2 package-2 capacity-3 capacity-4), cost: 1
    pre: (at truck-1 city-loc-2) (capacity truck-1 capacity-3) (in package-2 truck-1)
    add: (at package-2 city-loc-2) (capacity truck-1 capacity-4)
    del: (capacity truck-1 capacity-3) (in package-2 truck-1)
  (drop truck-1 city-loc-2 package-3 capacity-0 capacity-1), cost: 1
    pre: (at truck-1 city-loc-2) (capacity truck-1 capacity-0) (in package-3 truck-1)
    add: (at package-3 city-loc-2) (capacity truck-1 capacity-1)
    del: (capacity truck-1 capacity-0) (in package-3 truck-1)
  (drop truck-1 city-loc-2 package-3 capacity-1 capacity-2), cost: 1
    pre: (at truck-1 city-loc-2) (capacity truck-1 capacity-1) (in package-3 truck-1)
    add: (at package-3 city-loc-2) (capacity truck-1 capacity-2)
    del: (capacity truck-1 capacity-1) (in package-3 truck-1)
  (drop truck-1 city-loc-2 package-3 capacity-2 capacity-3), cost: 1
    pre: (at truck-1 city-loc-2) (capacity truck-1 capacity-2) (in package-3 truck-1)
    add: (at package-3 city-loc-2) (capacity truck-1 capacity-3)
    del: (capacity truck-1 capacity-2) (in package-3 truck-1)
  (drop truck-1 city-loc-2 package-3 capacity-3 capacity-4), cost: 1
    pre: (at truck-1 city-loc-2) (capacity truck-1 capacity-3) (in package-3 truck-1)
    add: (at package-3 city-loc-2) (capacity truck-1 capacity-4)
    del: (capacity truck-1 capacity-3) (in package-3 truck-1)
  (drop truck-1 city-loc-2 package-4 capacity-0 capacity-1), cost: 1
    pre: (at truck-1 city-loc-2) (capacity truck-1 capacity-0) (in package-4 truck-1)
    add: (at package-4 city-loc-2) (capacity truck-1 capacity-1)
    del: (capacity truck-1 capacity-0) (in package-4 truck-1)
  (drop truck-1 city-loc-2 package-4 capacity-1 capacity-2), cost: 1
    pre: (at truck-1 city-loc-2) (capacity truck-1 capacity-1) (in package-4 truck-1)
    add: (at package-4 city-loc-2) (capacity truck-1 capacity-2)
    del: (capacity truck-1 capacity-1) (in package-4 truck-1)
  (drop truck-1 city-loc-2 package-4 capacity-2 capacity-3), cost: 1
    pre: (at truck-1 city-loc-2) (capacity truck-1 capacity-2) (in package-4 truck-1)
    add: (at package-4 city-loc-2) (capacity truck-1 capacity-3)
    del: (capacity truck-1 capacity-2) (in package-4 truck-1)
  (drop truck-1 city-loc-2 package-4 capacity-3 capacity-4), cost: 1
    pre: (at truck-1 city-loc-2) (capacity truck-1 capacity-3) (in package-4 truck-1)
    add: (at package-4 city-loc-2) (capacity truck-1 capacity-4)
    del: (capacity truck-1 capacity-3) (in package-4 truck-1)
  (drop truck-1 city-loc-3 package-1 capacity-0 capacity-1), cost: 1
    pre: (at truck-1 city-loc-3) (capacity truck-1 capacity-0) (in package-1 truck-1)
    add: (at package-1 city-loc-3) (capacity truck-1 capacity-1)
    del: (capacity truck-1 capacity-0) (in package-1 truck-1)
  (drop truck-1 city-loc-3 package-1 capacity-1 capacity-2), cost: 1
    pre: (at truck-1 city-loc-3) (capacity truck-1 capacity-1) (in package-1 truck-1)
    add: (at package-1 city-loc-3) (capacity truck-1 capacity-2)
    del: (capacity truck-1 capacity-1) (in package-1 truck-1)
  (drop truck-1 city-loc-3 package-1 capacity-2 capacity-3), cost: 1
    pre: (at truck-1 city-loc-3) (capacity truck-1 capacity-2) (in package-1 truck-1)
    add: (at package-1 city-loc-3) (capacity truck-1 capacity-3)
    del: (capacity truck-1 capacity-2) (in package-1 truck-1)
  (drop truck-1 city-loc-3 package-1 capacity-3 capacity-4), cost: 1
    pre: (at truck-1 city-loc-3) (capacity truck-1 capacity-3) (in package-1 truck-1)
    add: (at package-1 city-loc-3) (capacity truck-1 capacity-4)
    del: (capacity truck-1 capacity-3) (in package-1 truck-1)
  (drop truck-1 city-loc-3 package-2 capacity-0 capacity-1), cost: 1
    pre: (at truck-1 city-loc-3) (capacity truck-1 capacity-0) (in package-2 truck-1)
    add: (at package-2 city-loc-3) (capacity truck-1 capacity-1)
    del: (capacity truck-1 capacity-0) (in package-2 truck-1)
  (drop truck-1 city-loc-3 package-2 capacity-1 capacity-2), cost: 1
    pre: (at truck-1 city-loc-3) (capacity truck-1 capacity-1) (in package-2 truck-1)
    add: (at package-2 city-loc-3) (capacity truck-1 capacity-2)
    del: (capacity truck-1 capacity-1) (in package-2 truck-1)
  (drop truck-1 city-loc-3 package-2 capacity-2 capacity-3), cost: 1
    pre: (at truck-1 city-loc-3) (capacity truck-1 capacity-2) (in package-2 truck-1)
    add: (at package-2 city-loc-3) (capacity truck-1 capacity-3)
    del: (capacity truck-1 capacity-2) (in package-2 truck-1)
  (drop truck-1 city-loc-3 package-2 capacity-3 capacity-4), cost: 1
    pre: (at truck-1 city-loc-3) (capacity truck-1 capacity-3) (in package-2 truck-1)
    add: (at package-2 city-loc-3) (capacity truck-1 capacity-4)
    del: (capacity truck-1 capacity-3) (in package-2 truck-1)
  (drop truck-1 city-loc-3 package-3 capacity-0 capacity-1), cost: 1
    pre: (at truck-1 city-loc-3) (capacity truck-1 capacity-0) (in package-3 truck-1)
    add: (at package-3 city-loc-3) (capacity truck-1 capacity-1)
    del: (capacity truck-1 capacity-0) (in package-3 truck-1)
  (drop truck-1 city-loc-3 package-3 capacity-1 capacity-2), cost: 1
    pre: (at truck-1 city-loc-3) (capacity truck-1 capacity-1) (in package-3 truck-1)
    add: (at package-3 city-loc-3) (capacity truck-1 capacity-2)
    del: (capacity truck-1 capacity-1) (in package-3 truck-1)
  (drop truck-1 city-loc-3 package-3 capacity-2 capacity-3), cost: 1
    pre: (at truck-1 city-loc-3) (capacity truck-1 capacity-2) (in package-3 truck-1)
    add: (at package-3 city-loc-3) (capacity truck-1 capacity-3)
    del: (capacity truck-1 capacity-2) (in package-3 truck-1)
  (drop truck-1 city-loc-3 package-3 capacity-3 capacity-4), cost: 1
    pre: (at truck-1 city-loc-3) (capacity truck-1 capacity-3) (in package-3 truck-1)
    add: (at package-3 city-loc-3) (capacity truck-1 capacity-4)
    del: (capacity truck-1 capacity-3) (in package-3 truck-1)
  (drop truck-1 city-loc-3 package-4 capacity-0 capacity-1), cost: 1
    pre: (at truck-1 city-loc-3) (capacity truck-1 capacity-0) (in package-4 truck-1)
    add: (at package-4 city-loc-3) (capacity truck-1 capacity-1)
    del: (capacity truck-1 capacity-0) (in package-4 truck-1)
  (drop truck-1 city-loc-3 package-4 capacity-1 capacity-2), cost: 1
    pre: (at truck-1 city-loc-3) (capacity truck-1 capacity-1) (in package-4 truck-1)
    add: (at package-4 city-loc-3) (capacity truck-1 capacity-2)
    del: (capacity truck-1 capacity-1) (in package-4 truck-1)
  (drop truck-1 city-loc-3 package-4 capacity-2 capacity-3), cost: 1
    pre: (at truck-1 city-loc-3) (capacity truck-1 capacity-2) (in package-4 truck-1)
    add: (at package-4 city-loc-3) (capacity truck-1 capacity-3)
    del: (capacity truck-1 capacity-2) (in package-4 truck-1)
  (drop truck-1 city-loc-3 package-4 capacity-3 capacity-4), cost: 1
    pre: (at truck-1 city-loc-3) (capacity truck-1 capacity-3) (in package-4 truck-1)
    add: (at package-4 city-loc-3) (capacity truck-1 capacity-4)
    del: (capacity truck-1 capacity-3) (in package-4 truck-1)
  (drop truck-1 city-loc-4 package-1 capacity-0 capacity-1), cost: 1
    pre: (at truck-1 city-loc-4) (capacity truck-1 capacity-0) (in package-1 truck-1)
    add: (at package-1 city-loc-4) (capacity truck-1 capacity-1)
    del: (capacity truck-1 capacity-0) (in package-1 truck-1)
  (drop truck-1 city-loc-4 package-1 capacity-1 capacity-2), cost: 1
    pre: (at truck-1 city-loc-4) (capacity truck-1 capacity-1) (in package-1 truck-1)
    add: (at package-1 city-loc-4) (capacity truck-1 capacity-2)
    del: (capacity truck-1 capacity-1) (in package-1 truck-1)
  (drop truck-1 city-loc-4 package-1 capacity-2 capacity-3), cost: 1
    pre: (at truck-1 city-loc-4) (capacity truck-1 capacity-2) (in package-1 truck-1)
    add: (at package-1 city-loc-4) (capacity truck-1 capacity-3)
    del: (capacity truck-1 capacity-2) (in package-1 truck-1)
  (drop truck-1 city-loc-4 package-1 capacity-3 capacity-4), cost: 1
    pre: (at truck-1 city-loc-4) (capacity truck-1 capacity-3) (in package-1 truck-1)
    add: (at package-1 city-loc-4) (capacity truck-1 capacity-4)
    del: (capacity truck-1 capacity-3) (in package-1 truck-1)
  (drop truck-1 city-loc-4 package-2 capacity-0 capacity-1), cost: 1
    pre: (at truck-1 city-loc-4) (capacity truck-1 capacity-0) (in package-2 truck-1)
    add: (at package-2 city-loc-4) (capacity truck-1 capacity-1)
    del: (capacity truck-1 capacity-0) (in package-2 truck-1)
  (drop truck-1 city-loc-4 package-2 capacity-1 capacity-2), cost: 1
    pre: (at truck-1 city-loc-4) (capacity truck-1 capacity-1) (in package-2 truck-1)
    add: (at package-2 city-loc-4) (capacity truck-1 capacity-2)
    del: (capacity truck-1 capacity-1) (in package-2 truck-1)
  (drop truck-1 city-loc-4 package-2 capacity-2 capacity-3), cost: 1
    pre: (at truck-1 city-loc-4) (capacity truck-1 capacity-2) (in package-2 truck-1)
    add: (at package-2 city-loc-4) (capacity truck-1 capacity-3)
    del: (capacity truck-1 capacity-2) (in package-2 truck-1)
  (drop truck-1 city-loc-4 package-2 capacity-3 capacity-4), cost: 1
    pre: (at truck-1 city-loc-4) (capacity truck-1 capacity-3) (in package-2 truck-1)
    add: (at package-2 city-loc-4) (capacity truck-1 capacity-4)
    del: (capacity truck-1 capacity-3) (in package-2 truck-1)
  (drop truck-1 city-loc-4 package-3 capacity-0 capacity-1), cost: 1
    pre: (at truck-1 city-loc-4) (capacity truck-1 capacity-0) (in package-3 truck-1)
    add: (at package-3 city-loc-4) (capacity truck-1 capacity-1)
    del: (capacity truck-1 capacity-0) (in package-3 truck-1)
  (drop truck-1 city-loc-4 package-3 capacity-1 capacity-2), cost: 1
    pre: (at truck-1 city-loc-4) (capacity truck-1 capacity-1) (in package-3 truck-1)
    add: (at package-3 city-loc-4) (capacity truck-1 capacity-2)
    del: (capacity truck-1 capacity-1) (in package-3 truck-1)
  (drop truck-1 city-loc-4 package-3 capacity-2 capacity-3), cost: 1
    pre: (at truck-1 city-loc-4) (capacity truck-1 capacity-2) (in package-3 truck-1)
    add: (at package-3 city-loc-4) (capacity truck-1 capacity-3)
    del: (capacity truck-1 capacity-2) (in package-3 truck-1)
  (drop truck-1 city-loc-4 package-3 capacity-3 capacity-4), cost: 1
    pre: (at truck-1 city-loc-4) (capacity truck-1 capacity-3) (in package-3 truck-1)
    add: (at package-3 city-loc-4) (capacity truck-1 capacity-4)
    del: (capacity truck-1 capacity-3) (in package-3 truck-1)
  (drop truck-1 city-loc-4 package-4 capacity-0 capacity-1), cost: 1
    pre: (at truck-1 city-loc-4) (capacity truck-1 capacity-0) (in package-4 truck-1)
    add: (at package-4 city-loc-4) (capacity truck-1 capacity-1)
    del: (capacity truck-1 capacity-0) (in package-4 truck-1)
  (drop truck-1 city-loc-4 package-4 capacity-1 capacity-2), cost: 1
    pre: (at truck-1 city-loc-4) (capacity truck-1 capacity-1) (in package-4 truck-1)
    add: (at package-4 city-loc-4) (capacity truck-1 capacity-2)
    del: (capacity truck-1 capacity-1) (in package-4 truck-1)
  (drop truck-1 city-loc-4 package-4 capacity-2 capacity-3), cost: 1
    pre: (at truck-1 city-loc-4) (capacity truck-1 capacity-2) (in package-4 truck-1)
    add: (at package-4 city-loc-4) (capacity truck-1 capacity-3)
    del: (capacity truck-1 capacity-2) (in package-4 truck-1)
  (drop truck-1 city-loc-4 package-4 capacity-3 capacity-4), cost: 1
    pre: (at truck-1 city-loc-4) (capacity truck-1 capacity-3) (in package-4 truck-1)
    add: (at package-4 city-loc-4) (capacity truck-1 capacity-4)
    del: (capacity truck-1 capacity-3) (in package-4 truck-1)
  (drop truck-1 city-loc-5 package-1 capacity-0 capacity-1), cost: 1
    pre: (at truck-1 city-loc-5) (capacity truck-1 capacity-0) (in package-1 truck-1)
    add: (at package-1 city-loc-5) (capacity truck-1 capacity-1)
    del: (capacity truck-1 capacity-0) (in package-1 truck-1)
  (drop truck-1 city-loc-5 package-1 capacity-1 capacity-2), cost: 1
    pre: (at truck-1 city-loc-5) (capacity truck-1 capacity-1) (in package-1 truck-1)
    add: (at package-1 city-loc-5) (capacity truck-1 capacity-2)
    del: (capacity truck-1 capacity-1) (in package-1 truck-1)
  (drop truck-1 city-loc-5 package-1 capacity-2 capacity-3), cost: 1
    pre: (at truck-1 city-loc-5) (capacity truck-1 capacity-2) (in package-1 truck-1)
    add: (at package-1 city-loc-5) (capacity truck-1 capacity-3)
    del: (capacity truck-1 capacity-2) (in package-1 truck-1)
  (drop truck-1 city-loc-5 package-1 capacity-3 capacity-4), cost: 1
    pre: (at truck-1 city-loc-5) (capacity truck-1 capacity-3) (in package-1 truck-1)
    add: (at package-1 city-loc-5) (capacity truck-1 capacity-4)
    del: (capacity truck-1 capacity-3) (in package-1 truck-1)
  (drop truck-1 city-loc-5 package-2 capacity-0 capacity-1), cost: 1
    pre: (at truck-1 city-loc-5) (capacity truck-1 capacity-0) (in package-2 truck-1)
    add: (at package-2 city-loc-5) (capacity truck-1 capacity-1)
    del: (capacity truck-1 capacity-0) (in package-2 truck-1)
  (drop truck-1 city-loc-5 package-2 capacity-1 capacity-2), cost: 1
    pre: (at truck-1 city-loc-5) (capacity truck-1 capacity-1) (in package-2 truck-1)
    add: (at package-2 city-loc-5) (capacity truck-1 capacity-2)
    del: (capacity truck-1 capacity-1) (in package-2 truck-1)
  (drop truck-1 city-loc-5 package-2 capacity-2 capacity-3), cost: 1
    pre: (at truck-1 city-loc-5) (capacity truck-1 capacity-2) (in package-2 truck-1)
    add: (at package-2 city-loc-5) (capacity truck-1 capacity-3)
    del: (capacity truck-1 capacity-2) (in package-2 truck-1)
  (drop truck-1 city-loc-5 package-2 capacity-3 capacity-4), cost: 1
    pre: (at truck-1 city-loc-5) (capacity truck-1 capacity-3) (in package-2 truck-1)
    add: (at package-2 city-loc-5) (capacity truck-1 capacity-4)
    del: (capacity truck-1 capacity-3) (in package-2 truck-1)
  (drop truck-1 city-loc-5 package-3 capacity-0 capacity-1), cost: 1
    pre: (at truck-1 city-loc-5) (capacity truck-1 capacity-0) (in package-3 truck-1)
    add: (at package-3 city-loc-5) (capacity truck-1 capacity-1)
    del: (capacity truck-1 capacity-0) (in package-3 truck-1)
  (drop truck-1 city-loc-5 package-3 capacity-1 capacity-2), cost: 1
    pre: (at truck-1 city-loc-5) (capacity truck-1 capacity-1) (in package-3 truck-1)
    add: (at package-3 city-loc-5) (capacity truck-1 capacity-2)
    del: (capacity truck-1 capacity-1) (in package-3 truck-1)
  (drop truck-1 city-loc-5 package-3 capacity-2 capacity-3), cost: 1
    pre: (at truck-1 city-loc-5) (capacity truck-1 capacity-2) (in package-3 truck-1)
    add: (at package-3 city-loc-5) (capacity truck-1 capacity-3)
    del: (capacity truck-1 capacity-2) (in package-3 truck-1)
  (drop truck-1 city-loc-5 package-3 capacity-3 capacity-4), cost: 1
    pre: (at truck-1 city-loc-5) (capacity truck-1 capacity-3) (in package-3 truck-1)
    add: (at package-3 city-loc-5) (capacity truck-1 capacity-4)
    del: (capacity truck-1 capacity-3) (in package-3 truck-1)
  (drop truck-1 city-loc-5 package-4 capacity-0 capacity-1), cost: 1
    pre: (at truck-1 city-loc-5) (capacity truck-1 capacity-0) (in package-4 truck-1)
    add: (at package-4 city-loc-5) (capacity truck-1 capacity-1)
    del: (capacity truck-1 capacity-0) (in package-4 truck-1)
  (drop truck-1 city-loc-5 package-4 capacity-1 capacity-2), cost: 1
    pre: (at truck-1 city-loc-5) (capacity truck-1 capacity-1) (in package-4 truck-1)
    add: (at package-4 city-loc-5) (capacity truck-1 capacity-2)
    del: (capacity truck-1 capacity-1) (in package-4 truck-1)
  (drop truck-1 city-loc-5 package-4 capacity-2 capacity-3), cost: 1
    pre: (at truck-1 city-loc-5) (capacity truck-1 capacity-2) (in package-4 truck-1)
    add: (at package-4 city-loc-5) (capacity truck-1 capacity-3)
    del: (capacity truck-1 capacity-2) (in package-4 truck-1)
  (drop truck-1 city-loc-5 package-4 capacity-3 capacity-4), cost: 1
    pre: (at truck-1 city-loc-5) (capacity truck-1 capacity-3) (in package-4 truck-1)
    add: (at package-4 city-loc-5) (capacity truck-1 capacity-4)
    del: (capacity truck-1 capacity-3) (in package-4 truck-1)
  (drop truck-2 city-loc-1 package-1 capacity-0 capacity-1), cost: 1
    pre: (at truck-2 city-loc-1) (capacity truck-2 capacity-0) (in package-1 truck-2)
    add: (at package-1 city-loc-1) (capacity truck-2 capacity-1)
    del: (capacity truck-2 capacity-0) (in package-1 truck-2)
  (drop truck-2 city-loc-1 package-1 capacity-1 capacity-2), cost: 1
    pre: (at truck-2 city-loc-1) (capacity truck-2 capacity-1) (in package-1 truck-2)
    add: (at package-1 city-loc-1) (capacity truck-2 capacity-2)
    del: (capacity truck-2 capacity-1) (in package-1 truck-2)
  (drop truck-2 city-loc-1 package-1 capacity-2 capacity-3), cost: 1
    pre: (at truck-2 city-loc-1) (capacity truck-2 capacity-2) (in package-1 truck-2)
    add: (at package-1 city-loc-1) (capacity truck-2 capacity-3)
    del: (capacity truck-2 capacity-2) (in package-1 truck-2)
  (drop truck-2 city-loc-1 package-1 capacity-3 capacity-4), cost: 1
    pre: (at truck-2 city-loc-1) (capacity truck-2 capacity-3) (in package-1 truck-2)
    add: (at package-1 city-loc-1) (capacity truck-2 capacity-4)
    del: (capacity truck-2 capacity-3) (in package-1 truck-2)
  (drop truck-2 city-loc-1 package-2 capacity-0 capacity-1), cost: 1
    pre: (at truck-2 city-loc-1) (capacity truck-2 capacity-0) (in package-2 truck-2)
    add: (at package-2 city-loc-1) (capacity truck-2 capacity-1)
    del: (capacity truck-2 capacity-0) (in package-2 truck-2)
  (drop truck-2 city-loc-1 package-2 capacity-1 capacity-2), cost: 1
    pre: (at truck-2 city-loc-1) (capacity truck-2 capacity-1) (in package-2 truck-2)
    add: (at package-2 city-loc-1) (capacity truck-2 capacity-2)
    del: (capacity truck-2 capacity-1) (in package-2 truck-2)
  (drop truck-2 city-loc-1 package-2 capacity-2 capacity-3), cost: 1
    pre: (at truck-2 city-loc-1) (capacity truck-2 capacity-2) (in package-2 truck-2)
    add: (at package-2 city-loc-1) (capacity truck-2 capacity-3)
    del: (capacity truck-2 capacity-2) (in package-2 truck-2)
  (drop truck-2 city-loc-1 package-2 capacity-3 capacity-4), cost: 1
    pre: (at truck-2 city-loc-1) (capacity truck-2 capacity-3) (in package-2 truck-2)
    add: (at package-2 city-loc-1) (capacity truck-2 capacity-4)
    del: (capacity truck-2 capacity-3) (in package-2 truck-2)
  (drop truck-2 city-loc-1 package-3 capacity-0 capacity-1), cost: 1
    pre: (at truck-2 city-loc-1) (capacity truck-2 capacity-0) (in package-3 truck-2)
    add: (at package-3 city-loc-1) (capacity truck-2 capacity-1)
    del: (capacity truck-2 capacity-0) (in package-3 truck-2)
  (drop truck-2 city-loc-1 package-3 capacity-1 capacity-2), cost: 1
    pre: (at truck-2 city-loc-1) (capacity truck-2 capacity-1) (in package-3 truck-2)
    add: (at package-3 city-loc-1) (capacity truck-2 capacity-2)
    del: (capacity truck-2 capacity-1) (in package-3 truck-2)
  (drop truck-2 city-loc-1 package-3 capacity-2 capacity-3), cost: 1
    pre: (at truck-2 city-loc-1) (capacity truck-2 capacity-2) (in package-3 truck-2)
    add: (at package-3 city-loc-1) (capacity truck-2 capacity-3)
    del: (capacity truck-2 capacity-2) (in package-3 truck-2)
  (drop truck-2 city-loc-1 package-3 capacity-3 capacity-4), cost: 1
    pre: (at truck-2 city-loc-1) (capacity truck-2 capacity-3) (in package-3 truck-2)
    add: (at package-3 city-loc-1) (capacity truck-2 capacity-4)
    del: (capacity truck-2 capacity-3) (in package-3 truck-2)
  (drop truck-2 city-loc-1 package-4 capacity-0 capacity-1), cost: 1
    pre: (at truck-2 city-loc-1) (capacity truck-2 capacity-0) (in package-4 truck-2)
    add: (at package-4 city-loc-1) (capacity truck-2 capacity-1)
    del: (capacity truck-2 capacity-0) (in package-4 truck-2)
  (drop truck-2 city-loc-1 package-4 capacity-1 capacity-2), cost: 1
    pre: (at truck-2 city-loc-1) (capacity truck-2 capacity-1) (in package-4 truck-2)
    add: (at package-4 city-loc-1) (capacity truck-2 capacity-2)
    del: (capacity truck-2 capacity-1) (in package-4 truck-2)
  (drop truck-2 city-loc-1 package-4 capacity-2 capacity-3), cost: 1
    pre: (at truck-2 city-loc-1) (capacity truck-2 capacity-2) (in package-4 truck-2)
    add: (at package-4 city-loc-1) (capacity truck-2 capacity-3)
    del: (capacity truck-2 capacity-2) (in package-4 truck-2)
  (drop truck-2 city-loc-1 package-4 capacity-3 capacity-4), cost: 1
    pre: (at truck-2 city-loc-1) (capacity truck-2 capacity-3) (in package-4 truck-2)
    add: (at package-4 city-loc-1) (capacity truck-2 capacity-4)
    del: (capacity truck-2 capacity-3) (in package-4 truck-2)
  (drop truck-2 city-loc-2 package-1 capacity-0 capacity-1), cost: 1
    pre: (at truck-2 city-loc-2) (capacity truck-2 capacity-0) (in package-1 truck-2)
    add: (at package-1 city-loc-2) (capacity truck-2 capacity-1)
    del: (capacity truck-2 capacity-0) (in package-1 truck-2)
  (drop truck-2 city-loc-2 package-1 capacity-1 capacity-2), cost: 1
    pre: (at truck-2 city-loc-2) (capacity truck-2 capacity-1) (in package-1 truck-2)
    add: (at package-1 city-loc-2) (capacity truck-2 capacity-2)
    del: (capacity truck-2 capacity-1) (in package-1 truck-2)
  (drop truck-2 city-loc-2 package-1 capacity-2 capacity-3), cost: 1
    pre: (at truck-2 city-loc-2) (capacity truck-2 capacity-2) (in package-1 truck-2)
    add: (at package-1 city-loc-2) (capacity truck-2 capacity-3)
    del: (capacity truck-2 capacity-2) (in package-1 truck-2)
  (drop truck-2 city-loc-2 package-1 capacity-3 capacity-4), cost: 1
    pre: (at truck-2 city-loc-2) (capacity truck-2 capacity-3) (in package-1 truck-2)
    add: (at package-1 city-loc-2) (capacity truck-2 capacity-4)
    del: (capacity truck-2 capacity-3) (in package-1 truck-2)
  (drop truck-2 city-loc-2 package-2 capacity-0 capacity-1), cost: 1
    pre: (at truck-2 city-loc-2) (capacity truck-2 capacity-0) (in package-2 truck-2)
    add: (at package-2 city-loc-2) (capacity truck-2 capacity-1)
    del: (capacity truck-2 capacity-0) (in package-2 truck-2)
  (drop truck-2 city-loc-2 package-2 capacity-1 capacity-2), cost: 1
    pre: (at truck-2 city-loc-2) (capacity truck-2 capacity-1) (in package-2 truck-2)
    add: (at package-2 city-loc-2) (capacity truck-2 capacity-2)
    del: (capacity truck-2 capacity-1) (in package-2 truck-2)
  (drop truck-2 city-loc-2 package-2 capacity-2 capacity-3), cost: 1
    pre: (at truck-2 city-loc-2) (capacity truck-2 capacity-2) (in package-2 truck-2)
    add: (at package-2 city-loc-2) (capacity truck-2 capacity-3)
    del: (capacity truck-2 capacity-2) (in package-2 truck-2)
  (drop truck-2 city-loc-2 package-2 capacity-3 capacity-4), cost: 1
    pre: (at truck-2 city-loc-2) (capacity truck-2 capacity-3) (in package-2 truck-2)
    add: (at package-2 city-loc-2) (capacity truck-2 capacity-4)
    del: (capacity truck-2 capacity-3) (in package-2 truck-2)
  (drop truck-2 city-loc-2 package-3 capacity-0 capacity-1), cost: 1
    pre: (at truck-2 city-loc-2) (capacity truck-2 capacity-0) (in package-3 truck-2)
    add: (at package-3 city-loc-2) (capacity truck-2 capacity-1)
    del: (capacity truck-2 capacity-0) (in package-3 truck-2)
  (drop truck-2 city-loc-2 package-3 capacity-1 capacity-2), cost: 1
    pre: (at truck-2 city-loc-2) (capacity truck-2 capacity-1) (in package-3 truck-2)
    add: (at package-3 city-loc-2) (capacity truck-2 capacity-2)
    del: (capacity truck-2 capacity-1) (in package-3 truck-2)
  (drop truck-2 city-loc-2 package-3 capacity-2 capacity-3), cost: 1
    pre: (at truck-2 city-loc-2) (capacity truck-2 capacity-2) (in package-3 truck-2)
    add: (at package-3 city-loc-2) (capacity truck-2 capacity-3)
    del: (capacity truck-2 capacity-2) (in package-3 truck-2)
  (drop truck-2 city-loc-2 package-3 capacity-3 capacity-4), cost: 1
    pre: (at truck-2 city-loc-2) (capacity truck-2 capacity-3) (in package-3 truck-2)
    add: (at package-3 city-loc-2) (capacity truck-2 capacity-4)
    del: (capacity truck-2 capacity-3) (in package-3 truck-2)
  (drop truck-2 city-loc-2 package-4 capacity-0 capacity-1), cost: 1
    pre: (at truck-2 city-loc-2) (capacity truck-2 capacity-0) (in package-4 truck-2)
    add: (at package-4 city-loc-2) (capacity truck-2 capacity-1)
    del: (capacity truck-2 capacity-0) (in package-4 truck-2)
  (drop truck-2 city-loc-2 package-4 capacity-1 capacity-2), cost: 1
    pre: (at truck-2 city-loc-2) (capacity truck-2 capacity-1) (in package-4 truck-2)
    add: (at package-4 city-loc-2) (capacity truck-2 capacity-2)
    del: (capacity truck-2 capacity-1) (in package-4 truck-2)
  (drop truck-2 city-loc-2 package-4 capacity-2 capacity-3), cost: 1
    pre: (at truck-2 city-loc-2) (capacity truck-2 capacity-2) (in package-4 truck-2)
    add: (at package-4 city-loc-2) (capacity truck-2 capacity-3)
    del: (capacity truck-2 capacity-2) (in package-4 truck-2)
  (drop truck-2 city-loc-2 package-4 capacity-3 capacity-4), cost: 1
    pre: (at truck-2 city-loc-2) (capacity truck-2 capacity-3) (in package-4 truck-2)
    add: (at package-4 city-loc-2) (capacity truck-2 capacity-4)
    del: (capacity truck-2 capacity-3) (in package-4 truck-2)
  (drop truck-2 city-loc-3 package-1 capacity-0 capacity-1), cost: 1
    pre: (at truck-2 city-loc-3) (capacity truck-2 capacity-0) (in package-1 truck-2)
    add: (at package-1 city-loc-3) (capacity truck-2 capacity-1)
    del: (capacity truck-2 capacity-0) (in package-1 truck-2)
  (drop truck-2 city-loc-3 package-1 capacity-1 capacity-2), cost: 1
    pre: (at truck-2 city-loc-3) (capacity truck-2 capacity-1) (in package-1 truck-2)
    add: (at package-1 city-loc-3) (capacity truck-2 capacity-2)
    del: (capacity truck-2 capacity-1) (in package-1 truck-2)
  (drop truck-2 city-loc-3 package-1 capacity-2 capacity-3), cost: 1
    pre: (at truck-2 city-loc-3) (capacity truck-2 capacity-2) (in package-1 truck-2)
    add: (at package-1 city-loc-3) (capacity truck-2 capacity-3)
    del: (capacity truck-2 capacity-2) (in package-1 truck-2)
  (drop truck-2 city-loc-3 package-1 capacity-3 capacity-4), cost: 1
    pre: (at truck-2 city-loc-3) (capacity truck-2 capacity-3) (in package-1 truck-2)
    add: (at package-1 city-loc-3) (capacity truck-2 capacity-4)
    del: (capacity truck-2 capacity-3) (in package-1 truck-2)
  (drop truck-2 city-loc-3 package-2 capacity-0 capacity-1), cost: 1
    pre: (at truck-2 city-loc-3) (capacity truck-2 capacity-0) (in package-2 truck-2)
    add: (at package-2 city-loc-3) (capacity truck-2 capacity-1)
    del: (capacity truck-2 capacity-0) (in package-2 truck-2)
  (drop truck-2 city-loc-3 package-2 capacity-1 capacity-2), cost: 1
    pre: (at truck-2 city-loc-3) (capacity truck-2 capacity-1) (in package-2 truck-2)
    add: (at package-2 city-loc-3) (capacity truck-2 capacity-2)
    del: (capacity truck-2 capacity-1) (in package-2 truck-2)
  (drop truck-2 city-loc-3 package-2 capacity-2 capacity-3), cost: 1
    pre: (at truck-2 city-loc-3) (capacity truck-2 capacity-2) (in package-2 truck-2)
    add: (at package-2 city-loc-3) (capacity truck-2 capacity-3)
    del: (capacity truck-2 capacity-2) (in package-2 truck-2)
  (drop truck-2 city-loc-3 package-2 capacity-3 capacity-4), cost: 1
    pre: (at truck-2 city-loc-3) (capacity truck-2 capacity-3) (in package-2 truck-2)
    add: (at package-2 city-loc-3) (capacity truck-2 capacity-4)
    del: (capacity truck-2 capacity-3) (in package-2 truck-2)
  (drop truck-2 city-loc-3 package-3 capacity-0 capacity-1), cost: 1
    pre: (at truck-2 city-loc-3) (capacity truck-2 capacity-0) (in package-3 truck-2)
    add: (at package-3 city-loc-3) (capacity truck-2 capacity-1)
    del: (capacity truck-2 capacity-0) (in package-3 truck-2)
  (drop truck-2 city-loc-3 package-3 capacity-1 capacity-2), cost: 1
    pre: (at truck-2 city-loc-3) (capacity truck-2 capacity-1) (in package-3 truck-2)
    add: (at package-3 city-loc-3) (capacity truck-2 capacity-2)
    del: (capacity truck-2 capacity-1) (in package-3 truck-2)
  (drop truck-2 city-loc-3 package-3 capacity-2 capacity-3), cost: 1
    pre: (at truck-2 city-loc-3) (capacity truck-2 capacity-2) (in package-3 truck-2)
    add: (at package-3 city-loc-3) (capacity truck-2 capacity-3)
    del: (capacity truck-2 capacity-2) (in package-3 truck-2)
  (drop truck-2 city-loc-3 package-3 capacity-3 capacity-4), cost: 1
    pre: (at truck-2 city-loc-3) (capacity truck-2 capacity-3) (in package-3 truck-2)
    add: (at package-3 city-loc-3) (capacity truck-2 capacity-4)
    del: (capacity truck-2 capacity-3) (in package-3 truck-2)
  (drop truck-2 city-loc-3 package-4 capacity-0 capacity-1), cost: 1
    pre: (at truck-2 city-loc-3) (capacity truck-2 capacity-0) (in package-4 truck-2)
    add: (at package-4 city-loc-3) (capacity truck-2 capacity-1)
    del: (capacity truck-2 capacity-0) (in package-4 truck-2)
  (drop truck-2 city-loc-3 package-4 capacity-1 capacity-2), cost: 1
    pre: (at truck-2 city-loc-3) (capacity truck-2 capacity-1) (in package-4 truck-2)
    add: (at package-4 city-loc-3) (capacity truck-2 capacity-2)
    del: (capacity truck-2 capacity-1) (in package-4 truck-2)
  (drop truck-2 city-loc-3 package-4 capacity-2 capacity-3), cost: 1
    pre: (at truck-2 city-loc-3) (capacity truck-2 capacity-2) (in package-4 truck-2)
    add: (at package-4 city-loc-3) (capacity truck-2 capacity-3)
    del: (capacity truck-2 capacity-2) (in package-4 truck-2)
  (drop truck-2 city-loc-3 package-4 capacity-3 capacity-4), cost: 1
    pre: (at truck-2 city-loc-3) (capacity truck-2 capacity-3) (in package-4 truck-2)
    add: (at package-4 city-loc-3) (capacity truck-2 capacity-4)
    del: (capacity truck-2 capacity-3) (in package-4 truck-2)
  (drop truck-2 city-loc-4 package-1 capacity-0 capacity-1), cost: 1
    pre: (at truck-2 city-loc-4) (capacity truck-2 capacity-0) (in package-1 truck-2)
    add: (at package-1 city-loc-4) (capacity truck-2 capacity-1)
    del: (capacity truck-2 capacity-0) (in package-1 truck-2)
  (drop truck-2 city-loc-4 package-1 capacity-1 capacity-2), cost: 1
    pre: (at truck-2 city-loc-4) (capacity truck-2 capacity-1) (in package-1 truck-2)
    add: (at package-1 city-loc-4) (capacity truck-2 capacity-2)
    del: (capacity truck-2 capacity-1) (in package-1 truck-2)
  (drop truck-2 city-loc-4 package-1 capacity-2 capacity-3), cost: 1
    pre: (at truck-2 city-loc-4) (capacity truck-2 capacity-2) (in package-1 truck-2)
    add: (at package-1 city-loc-4) (capacity truck-2 capacity-3)
    del: (capacity truck-2 capacity-2) (in package-1 truck-2)
  (drop truck-2 city-loc-4 package-1 capacity-3 capacity-4), cost: 1
    pre: (at truck-2 city-loc-4) (capacity truck-2 capacity-3) (in package-1 truck-2)
    add: (at package-1 city-loc-4) (capacity truck-2 capacity-4)
    del: (capacity truck-2 capacity-3) (in package-1 truck-2)
  (drop truck-2 city-loc-4 package-2 capacity-0 capacity-1), cost: 1
    pre: (at truck-2 city-loc-4) (capacity truck-2 capacity-0) (in package-2 truck-2)
    add: (at package-2 city-loc-4) (capacity truck-2 capacity-1)
    del: (capacity truck-2 capacity-0) (in package-2 truck-2)
  (drop truck-2 city-loc-4 package-2 capacity-1 capacity-2), cost: 1
    pre: (at truck-2 city-loc-4) (capacity truck-2 capacity-1) (in package-2 truck-2)
    add: (at package-2 city-loc-4) (capacity truck-2 capacity-2)
    del: (capacity truck-2 capacity-1) (in package-2 truck-2)
  (drop truck-2 city-loc-4 package-2 capacity-2 capacity-3), cost: 1
    pre: (at truck-2 city-loc-4) (capacity truck-2 capacity-2) (in package-2 truck-2)
    add: (at package-2 city-loc-4) (capacity truck-2 capacity-3)
    del: (capacity truck-2 capacity-2) (in package-2 truck-2)
  (drop truck-2 city-loc-4 package-2 capacity-3 capacity-4), cost: 1
    pre: (at truck-2 city-loc-4) (capacity truck-2 capacity-3) (in package-2 truck-2)
    add: (at package-2 city-loc-4) (capacity truck-2 capacity-4)
    del: (capacity truck-2 capacity-3) (in package-2 truck-2)
  (drop truck-2 city-loc-4 package-3 capacity-0 capacity-1), cost: 1
    pre: (at truck-2 city-loc-4) (capacity truck-2 capacity-0) (in package-3 truck-2)
    add: (at package-3 city-loc-4) (capacity truck-2 capacity-1)
    del: (capacity truck-2 capacity-0) (in package-3 truck-2)
  (drop truck-2 city-loc-4 package-3 capacity-1 capacity-2), cost: 1
    pre: (at truck-2 city-loc-4) (capacity truck-2 capacity-1) (in package-3 truck-2)
    add: (at package-3 city-loc-4) (capacity truck-2 capacity-2)
    del: (capacity truck-2 capacity-1) (in package-3 truck-2)
  (drop truck-2 city-loc-4 package-3 capacity-2 capacity-3), cost: 1
    pre: (at truck-2 city-loc-4) (capacity truck-2 capacity-2) (in package-3 truck-2)
    add: (at package-3 city-loc-4) (capacity truck-2 capacity-3)
    del: (capacity truck-2 capacity-2) (in package-3 truck-2)
  (drop truck-2 city-loc-4 package-3 capacity-3 capacity-4), cost: 1
    pre: (at truck-2 city-loc-4) (capacity truck-2 capacity-3) (in package-3 truck-2)
    add: (at package-3 city-loc-4) (capacity truck-2 capacity-4)
    del: (capacity truck-2 capacity-3) (in package-3 truck-2)
  (drop truck-2 city-loc-4 package-4 capacity-0 capacity-1), cost: 1
    pre: (at truck-2 city-loc-4) (capacity truck-2 capacity-0) (in package-4 truck-2)
    add: (at package-4 city-loc-4) (capacity truck-2 capacity-1)
    del: (capacity truck-2 capacity-0) (in package-4 truck-2)
  (drop truck-2 city-loc-4 package-4 capacity-1 capacity-2), cost: 1
    pre: (at truck-2 city-loc-4) (capacity truck-2 capacity-1) (in package-4 truck-2)
    add: (at package-4 city-loc-4) (capacity truck-2 capacity-2)
    del: (capacity truck-2 capacity-1) (in package-4 truck-2)
  (drop truck-2 city-loc-4 package-4 capacity-2 capacity-3), cost: 1
    pre: (at truck-2 city-loc-4) (capacity truck-2 capacity-2) (in package-4 truck-2)
    add: (at package-4 city-loc-4) (capacity truck-2 capacity-3)
    del: (capacity truck-2 capacity-2) (in package-4 truck-2)
  (drop truck-2 city-loc-4 package-4 capacity-3 capacity-4), cost: 1
    pre: (at truck-2 city-loc-4) (capacity truck-2 capacity-3) (in package-4 truck-2)
    add: (at package-4 city-loc-4) (capacity truck-2 capacity-4)
    del: (capacity truck-2 capacity-3) (in package-4 truck-2)
  (drop truck-2 city-loc-5 package-1 capacity-0 capacity-1), cost: 1
    pre: (at truck-2 city-loc-5) (capacity truck-2 capacity-0) (in package-1 truck-2)
    add: (at package-1 city-loc-5) (capacity truck-2 capacity-1)
    del: (capacity truck-2 capacity-0) (in package-1 truck-2)
  (drop truck-2 city-loc-5 package-1 capacity-1 capacity-2), cost: 1
    pre: (at truck-2 city-loc-5) (capacity truck-2 capacity-1) (in package-1 truck-2)
    add: (at package-1 city-loc-5) (capacity truck-2 capacity-2)
    del: (capacity truck-2 capacity-1) (in package-1 truck-2)
  (drop truck-2 city-loc-5 package-1 capacity-2 capacity-3), cost: 1
    pre: (at truck-2 city-loc-5) (capacity truck-2 capacity-2) (in package-1 truck-2)
    add: (at package-1 city-loc-5) (capacity truck-2 capacity-3)
    del: (capacity truck-2 capacity-2) (in package-1 truck-2)
  (drop truck-2 city-loc-5 package-1 capacity-3 capacity-4), cost: 1
    pre: (at truck-2 city-loc-5) (capacity truck-2 capacity-3) (in package-1 truck-2)
    add: (at package-1 city-loc-5) (capacity truck-2 capacity-4)
    del: (capacity truck-2 capacity-3) (in package-1 truck-2)
  (drop truck-2 city-loc-5 package-2 capacity-0 capacity-1), cost: 1
    pre: (at truck-2 city-loc-5) (capacity truck-2 capacity-0) (in package-2 truck-2)
    add: (at package-2 city-loc-5) (capacity truck-2 capacity-1)
    del: (capacity truck-2 capacity-0) (in package-2 truck-2)
  (drop truck-2 city-loc-5 package-2 capacity-1 capacity-2), cost: 1
    pre: (at truck-2 city-loc-5) (capacity truck-2 capacity-1) (in package-2 truck-2)
    add: (at package-2 city-loc-5) (capacity truck-2 capacity-2)
    del: (capacity truck-2 capacity-1) (in package-2 truck-2)
  (drop truck-2 city-loc-5 package-2 capacity-2 capacity-3), cost: 1
    pre: (at truck-2 city-loc-5) (capacity truck-2 capacity-2) (in package-2 truck-2)
    add: (at package-2 city-loc-5) (capacity truck-2 capacity-3)
    del: (capacity truck-2 capacity-2) (in package-2 truck-2)
  (drop truck-2 city-loc-5 package-2 capacity-3 capacity-4), cost: 1
    pre: (at truck-2 city-loc-5) (capacity truck-2 capacity-3) (in package-2 truck-2)
    add: (at package-2 city-loc-5) (capacity truck-2 capacity-4)
    del: (capacity truck-2 capacity-3) (in package-2 truck-2)
  (drop truck-2 city-loc-5 package-3 capacity-0 capacity-1), cost: 1
    pre: (at truck-2 city-loc-5) (capacity truck-2 capacity-0) (in package-3 truck-2)
    add: (at package-3 city-loc-5) (capacity truck-2 capacity-1)
    del: (capacity truck-2 capacity-0) (in package-3 truck-2)
  (drop truck-2 city-loc-5 package-3 capacity-1 capacity-2), cost: 1
    pre: (at truck-2 city-loc-5) (capacity truck-2 capacity-1) (in package-3 truck-2)
    add: (at package-3 city-loc-5) (capacity truck-2 capacity-2)
    del: (capacity truck-2 capacity-1) (in package-3 truck-2)
  (drop truck-2 city-loc-5 package-3 capacity-2 capacity-3), cost: 1
    pre: (at truck-2 city-loc-5) (capacity truck-2 capacity-2) (in package-3 truck-2)
    add: (at package-3 city-loc-5) (capacity truck-2 capacity-3)
    del: (capacity truck-2 capacity-2) (in package-3 truck-2)
  (drop truck-2 city-loc-5 package-3 capacity-3 capacity-4), cost: 1
    pre: (at truck-2 city-loc-5) (capacity truck-2 capacity-3) (in package-3 truck-2)
    add: (at package-3 city-loc-5) (capacity truck-2 capacity-4)
    del: (capacity truck-2 capacity-3) (in package-3 truck-2)
  (drop truck-2 city-loc-5 package-4 capacity-0 capacity-1), cost: 1
    pre: (at truck-2 city-loc-5) (capacity truck-2 capacity-0) (in package-4 truck-2)
    add: (at package-4 city-loc-5) (capacity truck-2 capacity-1)
    del: (capacity truck-2 capacity-0) (in package-4 truck-2)
  (drop truck-2 city-loc-5 package-4 capacity-1 capacity-2), cost: 1
    pre: (at truck-2 city-loc-5) (capacity truck-2 capacity-1) (in package-4 truck-2)
    add: (at package-4 city-loc-5) (capacity truck-2 capacity-2)
    del: (capacity truck-2 capacity-1) (in package-4 truck-2)
  (drop truck-2 city-loc-5 package-4 capacity-2 capacity-3), cost: 1
    pre: (at truck-2 city-loc-5) (capacity truck-2 capacity-2) (in package-4 truck-2)
    add: (at package-4 city-loc-5) (capacity truck-2 capacity-3)
    del: (capacity truck-2 capacity-2) (in package-4 truck-2)
  (drop truck-2 city-loc-5 package-4 capacity-3 capacity-4), cost: 1
    pre: (at truck-2 city-loc-5) (capacity truck-2 capacity-3) (in package-4 truck-2)
    add: (at package-4 city-loc-5) (capacity truck-2 capacity-4)
    del: (capacity truck-2 capacity-3) (in package-4 truck-2)
  (pick-up truck-1 city-loc-1 package-1 capacity-0 capacity-1), cost: 1
    pre: (at package-1 city-loc-1) (at truck-1 city-loc-1) (capacity truck-1 capacity-1)
    add: (capacity truck-1 capacity-0) (in package-1 truck-1)
    del: (at package-1 city-loc-1) (capacity truck-1 capacity-1)
  (pick-up truck-1 city-loc-1 package-1 capacity-1 capacity-2), cost: 1
    pre: (at package-1 city-loc-1) (at truck-1 city-loc-1) (capacity truck-1 capacity-2)
    add: (capacity truck-1 capacity-1) (in package-1 truck-1)
    del: (at package-1 city-loc-1) (capacity truck-1 capacity-2)
  (pick-up truck-1 city-loc-1 package-1 capacity-2 capacity-3), cost: 1
    pre: (at package-1 city-loc-1) (at truck-1 city-loc-1) (capacity truck-1 capacity-3)
    add: (capacity truck-1 capacity-2) (in package-1 truck-1)
    del: (at package-1 city-loc-1) (capacity truck-1 capacity-3)
  (pick-up truck-1 city-loc-1 package-1 capacity-3 capacity-4), cost: 1
    pre: (at package-1 city-loc-1) (at truck-1 city-loc-1) (capacity truck-1 capacity-4)
    add: (capacity truck-1 capacity-3) (in package-1 truck-1)
    del: (at package-1 city-loc-1) (capacity truck-1 capacity-4)
  (pick-up truck-1 city-loc-1 package-2 capacity-0 capacity-1), cost: 1
    pre: (at package-2 city-loc-1) (at truck-1 city-loc-1) (capacity truck-1 capacity-1)
    add: (capacity truck-1 capacity-0) (in package-2 truck-1)
    del: (at package-2 city-loc-1) (capacity truck-1 capacity-1)
  (pick-up truck-1 city-loc-1 package-2 capacity-1 capacity-2), cost: 1
    pre: (at package-2 city-loc-1) (at truck-1 city-loc-1) (capacity truck-1 capacity-2)
    add: (capacity truck-1 capacity-1) (in package-2 truck-1)
    del: (at package-2 city-loc-1) (capacity truck-1 capacity-2)
  (pick-up truck-1 city-loc-1 package-2 capacity-2 capacity-3), cost: 1
    pre: (at package-2 city-loc-1) (at truck-1 city-loc-1) (capacity truck-1 capacity-3)
    add: (capacity truck-1 capacity-2) (in package-2 truck-1)
    del: (at package-2 city-loc-1) (capacity truck-1 capacity-3)
  (pick-up truck-1 city-loc-1 package-2 capacity-3 capacity-4), cost: 1
    pre: (at package-2 city-loc-1) (at truck-1 city-loc-1) (capacity truck-1 capacity-4)
    add: (capacity truck-1 capacity-3) (in package-2 truck-1)
    del: (at package-2 city-loc-1) (capacity truck-1 capacity-4)
  (pick-up truck-1 city-loc-1 package-3 capacity-0 capacity-1), cost: 1
    pre: (at package-3 city-loc-1) (at truck-1 city-loc-1) (capacity truck-1 capacity-1)
    add: (capacity truck-1 capacity-0) (in package-3 truck-1)
    del: (at package-3 city-loc-1) (capacity truck-1 capacity-1)
  (pick-up truck-1 city-loc-1 package-3 capacity-1 capacity-2), cost: 1
    pre: (at package-3 city-loc-1) (at truck-1 city-loc-1) (capacity truck-1 capacity-2)
    add: (capacity truck-1 capacity-1) (in package-3 truck-1)
    del: (at package-3 city-loc-1) (capacity truck-1 capacity-2)
  (pick-up truck-1 city-loc-1 package-3 capacity-2 capacity-3), cost: 1
    pre: (at package-3 city-loc-1) (at truck-1 city-loc-1) (capacity truck-1 capacity-3)
    add: (capacity truck-1 capacity-2) (in package-3 truck-1)
    del: (at package-3 city-loc-1) (capacity truck-1 capacity-3)
  (pick-up truck-1 city-loc-1 package-3 capacity-3 capacity-4), cost: 1
    pre: (at package-3 city-loc-1) (at truck-1 city-loc-1) (capacity truck-1 capacity-4)
    add: (capacity truck-1 capacity-3) (in package-3 truck-1)
    del: (at package-3 city-loc-1) (capacity truck-1 capacity-4)
  (pick-up truck-1 city-loc-1 package-4 capacity-0 capacity-1), cost: 1
    pre: (at package-4 city-loc-1) (at truck-1 city-loc-1) (capacity truck-1 capacity-1)
    add: (capacity truck-1 capacity-0) (in package-4 truck-1)
    del: (at package-4 city-loc-1) (capacity truck-1 capacity-1)
  (pick-up truck-1 city-loc-1 package-4 capacity-1 capacity-2), cost: 1
    pre: (at package-4 city-loc-1) (at truck-1 city-loc-1) (capacity truck-1 capacity-2)
    add: (capacity truck-1 capacity-1) (in package-4 truck-1)
    del: (at package-4 city-loc-1) (capacity truck-1 capacity-2)
  (pick-up truck-1 city-loc-1 package-4 capacity-2 capacity-3), cost: 1
    pre: (at package-4 city-loc-1) (at truck-1 city-loc-1) (capacity truck-1 capacity-3)
    add: (capacity truck-1 capacity-2) (in package-4 truck-1)
    del: (at package-4 city-loc-1) (capacity truck-1 capacity-3)
  (pick-up truck-1 city-loc-1 package-4 capacity-3 capacity-4), cost: 1
    pre: (at package-4 city-loc-1) (at truck-1 city-loc-1) (capacity truck-1 capacity-4)
    add: (capacity truck-1 capacity-3) (in package-4 truck-1)
    del: (at package-4 city-loc-1) (capacity truck-1 capacity-4)
  (pick-up truck-1 city-loc-2 package-1 capacity-0 capacity-1), cost: 1
    pre: (at package-1 city-loc-2) (at truck-1 city-loc-2) (capacity truck-1 capacity-1)
    add: (capacity truck-1 capacity-0) (in package-1 truck-1)
    del: (at package-1 city-loc-2) (capacity truck-1 capacity-1)
  (pick-up truck-1 city-loc-2 package-1 capacity-1 capacity-2), cost: 1
    pre: (at package-1 city-loc-2) (at truck-1 city-loc-2) (capacity truck-1 capacity-2)
    add: (capacity truck-1 capacity-1) (in package-1 truck-1)
    del: (at package-1 city-loc-2) (capacity truck-1 capacity-2)
  (pick-up truck-1 city-loc-2 package-1 capacity-2 capacity-3), cost: 1
    pre: (at package-1 city-loc-2) (at truck-1 city-loc-2) (capacity truck-1 capacity-3)
    add: (capacity truck-1 capacity-2) (in package-1 truck-1)
    del: (at package-1 city-loc-2) (capacity truck-1 capacity-3)
  (pick-up truck-1 city-loc-2 package-1 capacity-3 capacity-4), cost: 1
    pre: (at package-1 city-loc-2) (at truck-1 city-loc-2) (capacity truck-1 capacity-4)
    add: (capacity truck-1 capacity-3) (in package-1 truck-1)
    del: (at package-1 city-loc-2) (capacity truck-1 capacity-4)
  (pick-up truck-1 city-loc-2 package-2 capacity-0 capacity-1), cost: 1
    pre: (at package-2 city-loc-2) (at truck-1 city-loc-2) (capacity truck-1 capacity-1)
    add: (capacity truck-1 capacity-0) (in package-2 truck-1)
    del: (at package-2 city-loc-2) (capacity truck-1 capacity-1)
  (pick-up truck-1 city-loc-2 package-2 capacity-1 capacity-2), cost: 1
    pre: (at package-2 city-loc-2) (at truck-1 city-loc-2) (capacity truck-1 capacity-2)
    add: (capacity truck-1 capacity-1) (in package-2 truck-1)
    del: (at package-2 city-loc-2) (capacity truck-1 capacity-2)
  (pick-up truck-1 city-loc-2 package-2 capacity-2 capacity-3), cost: 1
    pre: (at package-2 city-loc-2) (at truck-1 city-loc-2) (capacity truck-1 capacity-3)
    add: (capacity truck-1 capacity-2) (in package-2 truck-1)
    del: (at package-2 city-loc-2) (capacity truck-1 capacity-3)
  (pick-up truck-1 city-loc-2 package-2 capacity-3 capacity-4), cost: 1
    pre: (at package-2 city-loc-2) (at truck-1 city-loc-2) (capacity truck-1 capacity-4)
    add: (capacity truck-1 capacity-3) (in package-2 truck-1)
    del: (at package-2 city-loc-2) (capacity truck-1 capacity-4)
  (pick-up truck-1 city-loc-2 package-3 capacity-0 capacity-1), cost: 1
    pre: (at package-3 city-loc-2) (at truck-1 city-loc-2) (capacity truck-1 capacity-1)
    add: (capacity truck-1 capacity-0) (in package-3 truck-1)
    del: (at package-3 city-loc-2) (capacity truck-1 capacity-1)
  (pick-up truck-1 city-loc-2 package-3 capacity-1 capacity-2), cost: 1
    pre: (at package-3 city-loc-2) (at truck-1 city-loc-2) (capacity truck-1 capacity-2)
    add: (capacity truck-1 capacity-1) (in package-3 truck-1)
    del: (at package-3 city-loc-2) (capacity truck-1 capacity-2)
  (pick-up truck-1 city-loc-2 package-3 capacity-2 capacity-3), cost: 1
    pre: (at package-3 city-loc-2) (at truck-1 city-loc-2) (capacity truck-1 capacity-3)
    add: (capacity truck-1 capacity-2) (in package-3 truck-1)
    del: (at package-3 city-loc-2) (capacity truck-1 capacity-3)
  (pick-up truck-1 city-loc-2 package-3 capacity-3 capacity-4), cost: 1
    pre: (at package-3 city-loc-2) (at truck-1 city-loc-2) (capacity truck-1 capacity-4)
    add: (capacity truck-1 capacity-3) (in package-3 truck-1)
    del: (at package-3 city-loc-2) (capacity truck-1 capacity-4)
  (pick-up truck-1 city-loc-2 package-4 capacity-0 capacity-1), cost: 1
    pre: (at package-4 city-loc-2) (at truck-1 city-loc-2) (capacity truck-1 capacity-1)
    add: (capacity truck-1 capacity-0) (in package-4 truck-1)
    del: (at package-4 city-loc-2) (capacity truck-1 capacity-1)
  (pick-up truck-1 city-loc-2 package-4 capacity-1 capacity-2), cost: 1
    pre: (at package-4 city-loc-2) (at truck-1 city-loc-2) (capacity truck-1 capacity-2)
    add: (capacity truck-1 capacity-1) (in package-4 truck-1)
    del: (at package-4 city-loc-2) (capacity truck-1 capacity-2)
  (pick-up truck-1 city-loc-2 package-4 capacity-2 capacity-3), cost: 1
    pre: (at package-4 city-loc-2) (at truck-1 city-loc-2) (capacity truck-1 capacity-3)
    add: (capacity truck-1 capacity-2) (in package-4 truck-1)
    del: (at package-4 city-loc-2) (capacity truck-1 capacity-3)
  (pick-up truck-1 city-loc-2 package-4 capacity-3 capacity-4), cost: 1
    pre: (at package-4 city-loc-2) (at truck-1 city-loc-2) (capacity truck-1 capacity-4)
    add: (capacity truck-1 capacity-3) (in package-4 truck-1)
    del: (at package-4 city-loc-2) (capacity truck-1 capacity-4)
  (pick-up truck-1 city-loc-3 package-1 capacity-0 capacity-1), cost: 1
    pre: (at package-1 city-loc-3) (at truck-1 city-loc-3) (capacity truck-1 capacity-1)
    add: (capacity truck-1 capacity-0) (in package-1 truck-1)
    del: (at package-1 city-loc-3) (capacity truck-1 capacity-1)
  (pick-up truck-1 city-loc-3 package-1 capacity-1 capacity-2), cost: 1
    pre: (at package-1 city-loc-3) (at truck-1 city-loc-3) (capacity truck-1 capacity-2)
    add: (capacity truck-1 capacity-1) (in package-1 truck-1)
    del: (at package-1 city-loc-3) (capacity truck-1 capacity-2)
  (pick-up truck-1 city-loc-3 package-1 capacity-2 capacity-3), cost: 1
    pre: (at package-1 city-loc-3) (at truck-1 city-loc-3) (capacity truck-1 capacity-3)
    add: (capacity truck-1 capacity-2) (in package-1 truck-1)
    del: (at package-1 city-loc-3) (capacity truck-1 capacity-3)
  (pick-up truck-1 city-loc-3 package-1 capacity-3 capacity-4), cost: 1
    pre: (at package-1 city-loc-3) (at truck-1 city-loc-3) (capacity truck-1 capacity-4)
    add: (capacity truck-1 capacity-3) (in package-1 truck-1)
    del: (at package-1 city-loc-3) (capacity truck-1 capacity-4)
  (pick-up truck-1 city-loc-3 package-2 capacity-0 capacity-1), cost: 1
    pre: (at package-2 city-loc-3) (at truck-1 city-loc-3) (capacity truck-1 capacity-1)
    add: (capacity truck-1 capacity-0) (in package-2 truck-1)
    del: (at package-2 city-loc-3) (capacity truck-1 capacity-1)
  (pick-up truck-1 city-loc-3 package-2 capacity-1 capacity-2), cost: 1
    pre: (at package-2 city-loc-3) (at truck-1 city-loc-3) (capacity truck-1 capacity-2)
    add: (capacity truck-1 capacity-1) (in package-2 truck-1)
    del: (at package-2 city-loc-3) (capacity truck-1 capacity-2)
  (pick-up truck-1 city-loc-3 package-2 capacity-2 capacity-3), cost: 1
    pre: (at package-2 city-loc-3) (at truck-1 city-loc-3) (capacity truck-1 capacity-3)
    add: (capacity truck-1 capacity-2) (in package-2 truck-1)
    del: (at package-2 city-loc-3) (capacity truck-1 capacity-3)
  (pick-up truck-1 city-loc-3 package-2 capacity-3 capacity-4), cost: 1
    pre: (at package-2 city-loc-3) (at truck-1 city-loc-3) (capacity truck-1 capacity-4)
    add: (capacity truck-1 capacity-3) (in package-2 truck-1)
    del: (at package-2 city-loc-3) (capacity truck-1 capacity-4)
  (pick-up truck-1 city-loc-3 package-3 capacity-0 capacity-1), cost: 1
    pre: (at package-3 city-loc-3) (at truck-1 city-loc-3) (capacity truck-1 capacity-1)
    add: (capacity truck-1 capacity-0) (in package-3 truck-1)
    del: (at package-3 city-loc-3) (capacity truck-1 capacity-1)
  (pick-up truck-1 city-loc-3 package-3 capacity-1 capacity-2), cost: 1
    pre: (at package-3 city-loc-3) (at truck-1 city-loc-3) (capacity truck-1 capacity-2)
    add: (capacity truck-1 capacity-1) (in package-3 truck-1)
    del: (at package-3 city-loc-3) (capacity truck-1 capacity-2)
  (pick-up truck-1 city-loc-3 package-3 capacity-2 capacity-3), cost: 1
    pre: (at package-3 city-loc-3) (at truck-1 city-loc-3) (capacity truck-1 capacity-3)
    add: (capacity truck-1 capacity-2) (in package-3 truck-1)
    del: (at package-3 city-loc-3) (capacity truck-1 capacity-3)
  (pick-up truck-1 city-loc-3 package-3 capacity-3 capacity-4), cost: 1
    pre: (at package-3 city-loc-3) (at truck-1 city-loc-3) (capacity truck-1 capacity-4)
    add: (capacity truck-1 capacity-3) (in package-3 truck-1)
    del: (at package-3 city-loc-3) (capacity truck-1 capacity-4)
  (pick-up truck-1 city-loc-3 package-4 capacity-0 capacity-1), cost: 1
    pre: (at package-4 city-loc-3) (at truck-1 city-loc-3) (capacity truck-1 capacity-1)
    add: (capacity truck-1 capacity-0) (in package-4 truck-1)
    del: (at package-4 city-loc-3) (capacity truck-1 capacity-1)
  (pick-up truck-1 city-loc-3 package-4 capacity-1 capacity-2), cost: 1
    pre: (at package-4 city-loc-3) (at truck-1 city-loc-3) (capacity truck-1 capacity-2)
    add: (capacity truck-1 capacity-1) (in package-4 truck-1)
    del: (at package-4 city-loc-3) (capacity truck-1 capacity-2)
  (pick-up truck-1 city-loc-3 package-4 capacity-2 capacity-3), cost: 1
    pre: (at package-4 city-loc-3) (at truck-1 city-loc-3) (capacity truck-1 capacity-3)
    add: (capacity truck-1 capacity-2) (in package-4 truck-1)
    del: (at package-4 city-loc-3) (capacity truck-1 capacity-3)
  (pick-up truck-1 city-loc-3 package-4 capacity-3 capacity-4), cost: 1
    pre: (at package-4 city-loc-3) (at truck-1 city-loc-3) (capacity truck-1 capacity-4)
    add: (capacity truck-1 capacity-3) (in package-4 truck-1)
    del: (at package-4 city-loc-3) (capacity truck-1 capacity-4)
  (pick-up truck-1 city-loc-4 package-1 capacity-0 capacity-1), cost: 1
    pre: (at package-1 city-loc-4) (at truck-1 city-loc-4) (capacity truck-1 capacity-1)
    add: (capacity truck-1 capacity-0) (in package-1 truck-1)
    del: (at package-1 city-loc-4) (capacity truck-1 capacity-1)
  (pick-up truck-1 city-loc-4 package-1 capacity-1 capacity-2), cost: 1
    pre: (at package-1 city-loc-4) (at truck-1 city-loc-4) (capacity truck-1 capacity-2)
    add: (capacity truck-1 capacity-1) (in package-1 truck-1)
    del: (at package-1 city-loc-4) (capacity truck-1 capacity-2)
  (pick-up truck-1 city-loc-4 package-1 capacity-2 capacity-3), cost: 1
    pre: (at package-1 city-loc-4) (at truck-1 city-loc-4) (capacity truck-1 capacity-3)
    add: (capacity truck-1 capacity-2) (in package-1 truck-1)
    del: (at package-1 city-loc-4) (capacity truck-1 capacity-3)
  (pick-up truck-1 city-loc-4 package-1 capacity-3 capacity-4), cost: 1
    pre: (at package-1 city-loc-4) (at truck-1 city-loc-4) (capacity truck-1 capacity-4)
    add: (capacity truck-1 capacity-3) (in package-1 truck-1)
    del: (at package-1 city-loc-4) (capacity truck-1 capacity-4)
  (pick-up truck-1 city-loc-4 package-2 capacity-0 capacity-1), cost: 1
    pre: (at package-2 city-loc-4) (at truck-1 city-loc-4) (capacity truck-1 capacity-1)
    add: (capacity truck-1 capacity-0) (in package-2 truck-1)
    del: (at package-2 city-loc-4) (capacity truck-1 capacity-1)
  (pick-up truck-1 city-loc-4 package-2 capacity-1 capacity-2), cost: 1
    pre: (at package-2 city-loc-4) (at truck-1 city-loc-4) (capacity truck-1 capacity-2)
    add: (capacity truck-1 capacity-1) (in package-2 truck-1)
    del: (at package-2 city-loc-4) (capacity truck-1 capacity-2)
  (pick-up truck-1 city-loc-4 package-2 capacity-2 capacity-3), cost: 1
    pre: (at package-2 city-loc-4) (at truck-1 city-loc-4) (capacity truck-1 capacity-3)
    add: (capacity truck-1 capacity-2) (in package-2 truck-1)
    del: (at package-2 city-loc-4) (capacity truck-1 capacity-3)
  (pick-up truck-1 city-loc-4 package-2 capacity-3 capacity-4), cost: 1
    pre: (at package-2 city-loc-4) (at truck-1 city-loc-4) (capacity truck-1 capacity-4)
    add: (capacity truck-1 capacity-3) (in package-2 truck-1)
    del: (at package-2 city-loc-4) (capacity truck-1 capacity-4)
  (pick-up truck-1 city-loc-4 package-3 capacity-0 capacity-1), cost: 1
    pre: (at package-3 city-loc-4) (at truck-1 city-loc-4) (capacity truck-1 capacity-1)
    add: (capacity truck-1 capacity-0) (in package-3 truck-1)
    del: (at package-3 city-loc-4) (capacity truck-1 capacity-1)
  (pick-up truck-1 city-loc-4 package-3 capacity-1 capacity-2), cost: 1
    pre: (at package-3 city-loc-4) (at truck-1 city-loc-4) (capacity truck-1 capacity-2)
    add: (capacity truck-1 capacity-1) (in package-3 truck-1)
    del: (at package-3 city-loc-4) (capacity truck-1 capacity-2)
  (pick-up truck-1 city-loc-4 package-3 capacity-2 capacity-3), cost: 1
    pre: (at package-3 city-loc-4) (at truck-1 city-loc-4) (capacity truck-1 capacity-3)
    add: (capacity truck-1 capacity-2) (in package-3 truck-1)
    del: (at package-3 city-loc-4) (capacity truck-1 capacity-3)
  (pick-up truck-1 city-loc-4 package-3 capacity-3 capacity-4), cost: 1
    pre: (at package-3 city-loc-4) (at truck-1 city-loc-4) (capacity truck-1 capacity-4)
    add: (capacity truck-1 capacity-3) (in package-3 truck-1)
    del: (at package-3 city-loc-4) (capacity truck-1 capacity-4)
  (pick-up truck-1 city-loc-4 package-4 capacity-0 capacity-1), cost: 1
    pre: (at package-4 city-loc-4) (at truck-1 city-loc-4) (capacity truck-1 capacity-1)
    add: (capacity truck-1 capacity-0) (in package-4 truck-1)
    del: (at package-4 city-loc-4) (capacity truck-1 capacity-1)
  (pick-up truck-1 city-loc-4 package-4 capacity-1 capacity-2), cost: 1
    pre: (at package-4 city-loc-4) (at truck-1 city-loc-4) (capacity truck-1 capacity-2)
    add: (capacity truck-1 capacity-1) (in package-4 truck-1)
    del: (at package-4 city-loc-4) (capacity truck-1 capacity-2)
  (pick-up truck-1 city-loc-4 package-4 capacity-2 capacity-3), cost: 1
    pre: (at package-4 city-loc-4) (at truck-1 city-loc-4) (capacity truck-1 capacity-3)
    add: (capacity truck-1 capacity-2) (in package-4 truck-1)
    del: (at package-4 city-loc-4) (capacity truck-1 capacity-3)
  (pick-up truck-1 city-loc-4 package-4 capacity-3 capacity-4), cost: 1
    pre: (at package-4 city-loc-4) (at truck-1 city-loc-4) (capacity truck-1 capacity-4)
    add: (capacity truck-1 capacity-3) (in package-4 truck-1)
    del: (at package-4 city-loc-4) (capacity truck-1 capacity-4)
  (pick-up truck-1 city-loc-5 package-1 capacity-0 capacity-1), cost: 1
    pre: (at package-1 city-loc-5) (at truck-1 city-loc-5) (capacity truck-1 capacity-1)
    add: (capacity truck-1 capacity-0) (in package-1 truck-1)
    del: (at package-1 city-loc-5) (capacity truck-1 capacity-1)
  (pick-up truck-1 city-loc-5 package-1 capacity-1 capacity-2), cost: 1
    pre: (at package-1 city-loc-5) (at truck-1 city-loc-5) (capacity truck-1 capacity-2)
    add: (capacity truck-1 capacity-1) (in package-1 truck-1)
    del: (at package-1 city-loc-5) (capacity truck-1 capacity-2)
  (pick-up truck-1 city-loc-5 package-1 capacity-2 capacity-3), cost: 1
    pre: (at package-1 city-loc-5) (at truck-1 city-loc-5) (capacity truck-1 capacity-3)
    add: (capacity truck-1 capacity-2) (in package-1 truck-1)
    del: (at package-1 city-loc-5) (capacity truck-1 capacity-3)
  (pick-up truck-1 city-loc-5 package-1 capacity-3 capacity-4), cost: 1
    pre: (at package-1 city-loc-5) (at truck-1 city-loc-5) (capacity truck-1 capacity-4)
    add: (capacity truck-1 capacity-3) (in package-1 truck-1)
    del: (at package-1 city-loc-5) (capacity truck-1 capacity-4)
  (pick-up truck-1 city-loc-5 package-2 capacity-0 capacity-1), cost: 1
    pre: (at package-2 city-loc-5) (at truck-1 city-loc-5) (capacity truck-1 capacity-1)
    add: (capacity truck-1 capacity-0) (in package-2 truck-1)
    del: (at package-2 city-loc-5) (capacity truck-1 capacity-1)
  (pick-up truck-1 city-loc-5 package-2 capacity-1 capacity-2), cost: 1
    pre: (at package-2 city-loc-5) (at truck-1 city-loc-5) (capacity truck-1 capacity-2)
    add: (capacity truck-1 capacity-1) (in package-2 truck-1)
    del: (at package-2 city-loc-5) (capacity truck-1 capacity-2)
  (pick-up truck-1 city-loc-5 package-2 capacity-2 capacity-3), cost: 1
    pre: (at package-2 city-loc-5) (at truck-1 city-loc-5) (capacity truck-1 capacity-3)
    add: (capacity truck-1 capacity-2) (in package-2 truck-1)
    del: (at package-2 city-loc-5) (capacity truck-1 capacity-3)
  (pick-up truck-1 city-loc-5 package-2 capacity-3 capacity-4), cost: 1
    pre: (at package-2 city-loc-5) (at truck-1 city-loc-5) (capacity truck-1 capacity-4)
    add: (capacity truck-1 capacity-3) (in package-2 truck-1)
    del: (at package-2 city-loc-5) (capacity truck-1 capacity-4)
  (pick-up truck-1 city-loc-5 package-3 capacity-0 capacity-1), cost: 1
    pre: (at package-3 city-loc-5) (at truck-1 city-loc-5) (capacity truck-1 capacity-1)
    add: (capacity truck-1 capacity-0) (in package-3 truck-1)
    del: (at package-3 city-loc-5) (capacity truck-1 capacity-1)
  (pick-up truck-1 city-loc-5 package-3 capacity-1 capacity-2), cost: 1
    pre: (at package-3 city-loc-5) (at truck-1 city-loc-5) (capacity truck-1 capacity-2)
    add: (capacity truck-1 capacity-1) (in package-3 truck-1)
    del: (at package-3 city-loc-5) (capacity truck-1 capacity-2)
  (pick-up truck-1 city-loc-5 package-3 capacity-2 capacity-3), cost: 1
    pre: (at package-3 city-loc-5) (at truck-1 city-loc-5) (capacity truck-1 capacity-3)
    add: (capacity truck-1 capacity-2) (in package-3 truck-1)
    del: (at package-3 city-loc-5) (capacity truck-1 capacity-3)
  (pick-up truck-1 city-loc-5 package-3 capacity-3 capacity-4), cost: 1
    pre: (at package-3 city-loc-5) (at truck-1 city-loc-5) (capacity truck-1 capacity-4)
    add: (capacity truck-1 capacity-3) (in package-3 truck-1)
    del: (at package-3 city-loc-5) (capacity truck-1 capacity-4)
  (pick-up truck-1 city-loc-5 package-4 capacity-0 capacity-1), cost: 1
    pre: (at package-4 city-loc-5) (at truck-1 city-loc-5) (capacity truck-1 capacity-1)
    add: (capacity truck-1 capacity-0) (in package-4 truck-1)
    del: (at package-4 city-loc-5) (capacity truck-1 capacity-1)
  (pick-up truck-1 city-loc-5 package-4 capacity-1 capacity-2), cost: 1
    pre: (at package-4 city-loc-5) (at truck-1 city-loc-5) (capacity truck-1 capacity-2)
    add: (capacity truck-1 capacity-1) (in package-4 truck-1)
    del: (at package-4 city-loc-5) (capacity truck-1 capacity-2)
  (pick-up truck-1 city-loc-5 package-4 capacity-2 capacity-3), cost: 1
    pre: (at package-4 city-loc-5) (at truck-1 city-loc-5) (capacity truck-1 capacity-3)
    add: (capacity truck-1 capacity-2) (in package-4 truck-1)
    del: (at package-4 city-loc-5) (capacity truck-1 capacity-3)
  (pick-up truck-1 city-loc-5 package-4 capacity-3 capacity-4), cost: 1
    pre: (at package-4 city-loc-5) (at truck-1 city-loc-5) (capacity truck-1 capacity-4)
    add: (capacity truck-1 capacity-3) (in package-4 truck-1)
    del: (at package-4 city-loc-5) (capacity truck-1 capacity-4)
  (pick-up truck-2 city-loc-1 package-1 capacity-0 capacity-1), cost: 1
    pre: (at package-1 city-loc-1) (at truck-2 city-loc-1) (capacity truck-2 capacity-1)
    add: (capacity truck-2 capacity-0) (in package-1 truck-2)
    del: (at package-1 city-loc-1) (capacity truck-2 capacity-1)
  (pick-up truck-2 city-loc-1 package-1 capacity-1 capacity-2), cost: 1
    pre: (at package-1 city-loc-1) (at truck-2 city-loc-1) (capacity truck-2 capacity-2)
    add: (capacity truck-2 capacity-1) (in package-1 truck-2)
    del: (at package-1 city-loc-1) (capacity truck-2 capacity-2)
  (pick-up truck-2 city-loc-1 package-1 capacity-2 capacity-3), cost: 1
    pre: (at package-1 city-loc-1) (at truck-2 city-loc-1) (capacity truck-2 capacity-3)
    add: (capacity truck-2 capacity-2) (in package-1 truck-2)
    del: (at package-1 city-loc-1) (capacity truck-2 capacity-3)
  (pick-up truck-2 city-loc-1 package-1 capacity-3 capacity-4), cost: 1
    pre: (at package-1 city-loc-1) (at truck-2 city-loc-1) (capacity truck-2 capacity-4)
    add: (capacity truck-2 capacity-3) (in package-1 truck-2)
    del: (at package-1 city-loc-1) (capacity truck-2 capacity-4)
  (pick-up truck-2 city-loc-1 package-2 capacity-0 capacity-1), cost: 1
    pre: (at package-2 city-loc-1) (at truck-2 city-loc-1) (capacity truck-2 capacity-1)
    add: (capacity truck-2 capacity-0) (in package-2 truck-2)
    del: (at package-2 city-loc-1) (capacity truck-2 capacity-1)
  (pick-up truck-2 city-loc-1 package-2 capacity-1 capacity-2), cost: 1
    pre: (at package-2 city-loc-1) (at truck-2 city-loc-1) (capacity truck-2 capacity-2)
    add: (capacity truck-2 capacity-1) (in package-2 truck-2)
    del: (at package-2 city-loc-1) (capacity truck-2 capacity-2)
  (pick-up truck-2 city-loc-1 package-2 capacity-2 capacity-3), cost: 1
    pre: (at package-2 city-loc-1) (at truck-2 city-loc-1) (capacity truck-2 capacity-3)
    add: (capacity truck-2 capacity-2) (in package-2 truck-2)
    del: (at package-2 city-loc-1) (capacity truck-2 capacity-3)
  (pick-up truck-2 city-loc-1 package-2 capacity-3 capacity-4), cost: 1
    pre: (at package-2 city-loc-1) (at truck-2 city-loc-1) (capacity truck-2 capacity-4)
    add: (capacity truck-2 capacity-3) (in package-2 truck-2)
    del: (at package-2 city-loc-1) (capacity truck-2 capacity-4)
  (pick-up truck-2 city-loc-1 package-3 capacity-0 capacity-1), cost: 1
    pre: (at package-3 city-loc-1) (at truck-2 city-loc-1) (capacity truck-2 capacity-1)
    add: (capacity truck-2 capacity-0) (in package-3 truck-2)
    del: (at package-3 city-loc-1) (capacity truck-2 capacity-1)
  (pick-up truck-2 city-loc-1 package-3 capacity-1 capacity-2), cost: 1
    pre: (at package-3 city-loc-1) (at truck-2 city-loc-1) (capacity truck-2 capacity-2)
    add: (capacity truck-2 capacity-1) (in package-3 truck-2)
    del: (at package-3 city-loc-1) (capacity truck-2 capacity-2)
  (pick-up truck-2 city-loc-1 package-3 capacity-2 capacity-3), cost: 1
    pre: (at package-3 city-loc-1) (at truck-2 city-loc-1) (capacity truck-2 capacity-3)
    add: (capacity truck-2 capacity-2) (in package-3 truck-2)
    del: (at package-3 city-loc-1) (capacity truck-2 capacity-3)
  (pick-up truck-2 city-loc-1 package-3 capacity-3 capacity-4), cost: 1
    pre: (at package-3 city-loc-1) (at truck-2 city-loc-1) (capacity truck-2 capacity-4)
    add: (capacity truck-2 capacity-3) (in package-3 truck-2)
    del: (at package-3 city-loc-1) (capacity truck-2 capacity-4)
  (pick-up truck-2 city-loc-1 package-4 capacity-0 capacity-1), cost: 1
    pre: (at package-4 city-loc-1) (at truck-2 city-loc-1) (capacity truck-2 capacity-1)
    add: (capacity truck-2 capacity-0) (in package-4 truck-2)
    del: (at package-4 city-loc-1) (capacity truck-2 capacity-1)
  (pick-up truck-2 city-loc-1 package-4 capacity-1 capacity-2), cost: 1
    pre: (at package-4 city-loc-1) (at truck-2 city-loc-1) (capacity truck-2 capacity-2)
    add: (capacity truck-2 capacity-1) (in package-4 truck-2)
    del: (at package-4 city-loc-1) (capacity truck-2 capacity-2)
  (pick-up truck-2 city-loc-1 package-4 capacity-2 capacity-3), cost: 1
    pre: (at package-4 city-loc-1) (at truck-2 city-loc-1) (capacity truck-2 capacity-3)
    add: (capacity truck-2 capacity-2) (in package-4 truck-2)
    del: (at package-4 city-loc-1) (capacity truck-2 capacity-3)
  (pick-up truck-2 city-loc-1 package-4 capacity-3 capacity-4), cost: 1
    pre: (at package-4 city-loc-1) (at truck-2 city-loc-1) (capacity truck-2 capacity-4)
    add: (capacity truck-2 capacity-3) (in package-4 truck-2)
    del: (at package-4 city-loc-1) (capacity truck-2 capacity-4)
  (pick-up truck-2 city-loc-2 package-1 capacity-0 capacity-1), cost: 1
    pre: (at package-1 city-loc-2) (at truck-2 city-loc-2) (capacity truck-2 capacity-1)
    add: (capacity truck-2 capacity-0) (in package-1 truck-2)
    del: (at package-1 city-loc-2) (capacity truck-2 capacity-1)
  (pick-up truck-2 city-loc-2 package-1 capacity-1 capacity-2), cost: 1
    pre: (at package-1 city-loc-2) (at truck-2 city-loc-2) (capacity truck-2 capacity-2)
    add: (capacity truck-2 capacity-1) (in package-1 truck-2)
    del: (at package-1 city-loc-2) (capacity truck-2 capacity-2)
  (pick-up truck-2 city-loc-2 package-1 capacity-2 capacity-3), cost: 1
    pre: (at package-1 city-loc-2) (at truck-2 city-loc-2) (capacity truck-2 capacity-3)
    add: (capacity truck-2 capacity-2) (in package-1 truck-2)
    del: (at package-1 city-loc-2) (capacity truck-2 capacity-3)
  (pick-up truck-2 city-loc-2 package-1 capacity-3 capacity-4), cost: 1
    pre: (at package-1 city-loc-2) (at truck-2 city-loc-2) (capacity truck-2 capacity-4)
    add: (capacity truck-2 capacity-3) (in package-1 truck-2)
    del: (at package-1 city-loc-2) (capacity truck-2 capacity-4)
  (pick-up truck-2 city-loc-2 package-2 capacity-0 capacity-1), cost: 1
    pre: (at package-2 city-loc-2) (at truck-2 city-loc-2) (capacity truck-2 capacity-1)
    add: (capacity truck-2 capacity-0) (in package-2 truck-2)
    del: (at package-2 city-loc-2) (capacity truck-2 capacity-1)
  (pick-up truck-2 city-loc-2 package-2 capacity-1 capacity-2), cost: 1
    pre: (at package-2 city-loc-2) (at truck-2 city-loc-2) (capacity truck-2 capacity-2)
    add: (capacity truck-2 capacity-1) (in package-2 truck-2)
    del: (at package-2 city-loc-2) (capacity truck-2 capacity-2)
  (pick-up truck-2 city-loc-2 package-2 capacity-2 capacity-3), cost: 1
    pre: (at package-2 city-loc-2) (at truck-2 city-loc-2) (capacity truck-2 capacity-3)
    add: (capacity truck-2 capacity-2) (in package-2 truck-2)
    del: (at package-2 city-loc-2) (capacity truck-2 capacity-3)
  (pick-up truck-2 city-loc-2 package-2 capacity-3 capacity-4), cost: 1
    pre: (at package-2 city-loc-2) (at truck-2 city-loc-2) (capacity truck-2 capacity-4)
    add: (capacity truck-2 capacity-3) (in package-2 truck-2)
    del: (at package-2 city-loc-2) (capacity truck-2 capacity-4)
  (pick-up truck-2 city-loc-2 package-3 capacity-0 capacity-1), cost: 1
    pre: (at package-3 city-loc-2) (at truck-2 city-loc-2) (capacity truck-2 capacity-1)
    add: (capacity truck-2 capacity-0) (in package-3 truck-2)
    del: (at package-3 city-loc-2) (capacity truck-2 capacity-1)
  (pick-up truck-2 city-loc-2 package-3 capacity-1 capacity-2), cost: 1
    pre: (at package-3 city-loc-2) (at truck-2 city-loc-2) (capacity truck-2 capacity-2)
    add: (capacity truck-2 capacity-1) (in package-3 truck-2)
    del: (at package-3 city-loc-2) (capacity truck-2 capacity-2)
  (pick-up truck-2 city-loc-2 package-3 capacity-2 capacity-3), cost: 1
    pre: (at package-3 city-loc-2) (at truck-2 city-loc-2) (capacity truck-2 capacity-3)
    add: (capacity truck-2 capacity-2) (in package-3 truck-2)
    del: (at package-3 city-loc-2) (capacity truck-2 capacity-3)
  (pick-up truck-2 city-loc-2 package-3 capacity-3 capacity-4), cost: 1
    pre: (at package-3 city-loc-2) (at truck-2 city-loc-2) (capacity truck-2 capacity-4)
    add: (capacity truck-2 capacity-3) (in package-3 truck-2)
    del: (at package-3 city-loc-2) (capacity truck-2 capacity-4)
  (pick-up truck-2 city-loc-2 package-4 capacity-0 capacity-1), cost: 1
    pre: (at package-4 city-loc-2) (at truck-2 city-loc-2) (capacity truck-2 capacity-1)
    add: (capacity truck-2 capacity-0) (in package-4 truck-2)
    del: (at package-4 city-loc-2) (capacity truck-2 capacity-1)
  (pick-up truck-2 city-loc-2 package-4 capacity-1 capacity-2), cost: 1
    pre: (at package-4 city-loc-2) (at truck-2 city-loc-2) (capacity truck-2 capacity-2)
    add: (capacity truck-2 capacity-1) (in package-4 truck-2)
    del: (at package-4 city-loc-2) (capacity truck-2 capacity-2)
  (pick-up truck-2 city-loc-2 package-4 capacity-2 capacity-3), cost: 1
    pre: (at package-4 city-loc-2) (at truck-2 city-loc-2) (capacity truck-2 capacity-3)
    add: (capacity truck-2 capacity-2) (in package-4 truck-2)
    del: (at package-4 city-loc-2) (capacity truck-2 capacity-3)
  (pick-up truck-2 city-loc-2 package-4 capacity-3 capacity-4), cost: 1
    pre: (at package-4 city-loc-2) (at truck-2 city-loc-2) (capacity truck-2 capacity-4)
    add: (capacity truck-2 capacity-3) (in package-4 truck-2)
    del: (at package-4 city-loc-2) (capacity truck-2 capacity-4)
  (pick-up truck-2 city-loc-3 package-1 capacity-0 capacity-1), cost: 1
    pre: (at package-1 city-loc-3) (at truck-2 city-loc-3) (capacity truck-2 capacity-1)
    add: (capacity truck-2 capacity-0) (in package-1 truck-2)
    del: (at package-1 city-loc-3) (capacity truck-2 capacity-1)
  (pick-up truck-2 city-loc-3 package-1 capacity-1 capacity-2), cost: 1
    pre: (at package-1 city-loc-3) (at truck-2 city-loc-3) (capacity truck-2 capacity-2)
    add: (capacity truck-2 capacity-1) (in package-1 truck-2)
    del: (at package-1 city-loc-3) (capacity truck-2 capacity-2)
  (pick-up truck-2 city-loc-3 package-1 capacity-2 capacity-3), cost: 1
    pre: (at package-1 city-loc-3) (at truck-2 city-loc-3) (capacity truck-2 capacity-3)
    add: (capacity truck-2 capacity-2) (in package-1 truck-2)
    del: (at package-1 city-loc-3) (capacity truck-2 capacity-3)
  (pick-up truck-2 city-loc-3 package-1 capacity-3 capacity-4), cost: 1
    pre: (at package-1 city-loc-3) (at truck-2 city-loc-3) (capacity truck-2 capacity-4)
    add: (capacity truck-2 capacity-3) (in package-1 truck-2)
    del: (at package-1 city-loc-3) (capacity truck-2 capacity-4)
  (pick-up truck-2 city-loc-3 package-2 capacity-0 capacity-1), cost: 1
    pre: (at package-2 city-loc-3) (at truck-2 city-loc-3) (capacity truck-2 capacity-1)
    add: (capacity truck-2 capacity-0) (in package-2 truck-2)
    del: (at package-2 city-loc-3) (capacity truck-2 capacity-1)
  (pick-up truck-2 city-loc-3 package-2 capacity-1 capacity-2), cost: 1
    pre: (at package-2 city-loc-3) (at truck-2 city-loc-3) (capacity truck-2 capacity-2)
    add: (capacity truck-2 capacity-1) (in package-2 truck-2)
    del: (at package-2 city-loc-3) (capacity truck-2 capacity-2)
  (pick-up truck-2 city-loc-3 package-2 capacity-2 capacity-3), cost: 1
    pre: (at package-2 city-loc-3) (at truck-2 city-loc-3) (capacity truck-2 capacity-3)
    add: (capacity truck-2 capacity-2) (in package-2 truck-2)
    del: (at package-2 city-loc-3) (capacity truck-2 capacity-3)
  (pick-up truck-2 city-loc-3 package-2 capacity-3 capacity-4), cost: 1
    pre: (at package-2 city-loc-3) (at truck-2 city-loc-3) (capacity truck-2 capacity-4)
    add: (capacity truck-2 capacity-3) (in package-2 truck-2)
    del: (at package-2 city-loc-3) (capacity truck-2 capacity-4)
  (pick-up truck-2 city-loc-3 package-3 capacity-0 capacity-1), cost: 1
    pre: (at package-3 city-loc-3) (at truck-2 city-loc-3) (capacity truck-2 capacity-1)
    add: (capacity truck-2 capacity-0) (in package-3 truck-2)
    del: (at package-3 city-loc-3) (capacity truck-2 capacity-1)
  (pick-up truck-2 city-loc-3 package-3 capacity-1 capacity-2), cost: 1
    pre: (at package-3 city-loc-3) (at truck-2 city-loc-3) (capacity truck-2 capacity-2)
    add: (capacity truck-2 capacity-1) (in package-3 truck-2)
    del: (at package-3 city-loc-3) (capacity truck-2 capacity-2)
  (pick-up truck-2 city-loc-3 package-3 capacity-2 capacity-3), cost: 1
    pre: (at package-3 city-loc-3) (at truck-2 city-loc-3) (capacity truck-2 capacity-3)
    add: (capacity truck-2 capacity-2) (in package-3 truck-2)
    del: (at package-3 city-loc-3) (capacity truck-2 capacity-3)
  (pick-up truck-2 city-loc-3 package-3 capacity-3 capacity-4), cost: 1
    pre: (at package-3 city-loc-3) (at truck-2 city-loc-3) (capacity truck-2 capacity-4)
    add: (capacity truck-2 capacity-3) (in package-3 truck-2)
    del: (at package-3 city-loc-3) (capacity truck-2 capacity-4)
  (pick-up truck-2 city-loc-3 package-4 capacity-0 capacity-1), cost: 1
    pre: (at package-4 city-loc-3) (at truck-2 city-loc-3) (capacity truck-2 capacity-1)
    add: (capacity truck-2 capacity-0) (in package-4 truck-2)
    del: (at package-4 city-loc-3) (capacity truck-2 capacity-1)
  (pick-up truck-2 city-loc-3 package-4 capacity-1 capacity-2), cost: 1
    pre: (at package-4 city-loc-3) (at truck-2 city-loc-3) (capacity truck-2 capacity-2)
    add: (capacity truck-2 capacity-1) (in package-4 truck-2)
    del: (at package-4 city-loc-3) (capacity truck-2 capacity-2)
  (pick-up truck-2 city-loc-3 package-4 capacity-2 capacity-3), cost: 1
    pre: (at package-4 city-loc-3) (at truck-2 city-loc-3) (capacity truck-2 capacity-3)
    add: (capacity truck-2 capacity-2) (in package-4 truck-2)
    del: (at package-4 city-loc-3) (capacity truck-2 capacity-3)
  (pick-up truck-2 city-loc-3 package-4 capacity-3 capacity-4), cost: 1
    pre: (at package-4 city-loc-3) (at truck-2 city-loc-3) (capacity truck-2 capacity-4)
    add: (capacity truck-2 capacity-3) (in package-4 truck-2)
    del: (at package-4 city-loc-3) (capacity truck-2 capacity-4)
  (pick-up truck-2 city-loc-4 package-1 capacity-0 capacity-1), cost: 1
    pre: (at package-1 city-loc-4) (at truck-2 city-loc-4) (capacity truck-2 capacity-1)
    add: (capacity truck-2 capacity-0) (in package-1 truck-2)
    del: (at package-1 city-loc-4) (capacity truck-2 capacity-1)
  (pick-up truck-2 city-loc-4 package-1 capacity-1 capacity-2), cost: 1
    pre: (at package-1 city-loc-4) (at truck-2 city-loc-4) (capacity truck-2 capacity-2)
    add: (capacity truck-2 capacity-1) (in package-1 truck-2)
    del: (at package-1 city-loc-4) (capacity truck-2 capacity-2)
  (pick-up truck-2 city-loc-4 package-1 capacity-2 capacity-3), cost: 1
    pre: (at package-1 city-loc-4) (at truck-2 city-loc-4) (capacity truck-2 capacity-3)
    add: (capacity truck-2 capacity-2) (in package-1 truck-2)
    del: (at package-1 city-loc-4) (capacity truck-2 capacity-3)
  (pick-up truck-2 city-loc-4 package-1 capacity-3 capacity-4), cost: 1
    pre: (at package-1 city-loc-4) (at truck-2 city-loc-4) (capacity truck-2 capacity-4)
    add: (capacity truck-2 capacity-3) (in package-1 truck-2)
    del: (at package-1 city-loc-4) (capacity truck-2 capacity-4)
  (pick-up truck-2 city-loc-4 package-2 capacity-0 capacity-1), cost: 1
    pre: (at package-2 city-loc-4) (at truck-2 city-loc-4) (capacity truck-2 capacity-1)
    add: (capacity truck-2 capacity-0) (in package-2 truck-2)
    del: (at package-2 city-loc-4) (capacity truck-2 capacity-1)
  (pick-up truck-2 city-loc-4 package-2 capacity-1 capacity-2), cost: 1
    pre: (at package-2 city-loc-4) (at truck-2 city-loc-4) (capacity truck-2 capacity-2)
    add: (capacity truck-2 capacity-1) (in package-2 truck-2)
    del: (at package-2 city-loc-4) (capacity truck-2 capacity-2)
  (pick-up truck-2 city-loc-4 package-2 capacity-2 capacity-3), cost: 1
    pre: (at package-2 city-loc-4) (at truck-2 city-loc-4) (capacity truck-2 capacity-3)
    add: (capacity truck-2 capacity-2) (in package-2 truck-2)
    del: (at package-2 city-loc-4) (capacity truck-2 capacity-3)
  (pick-up truck-2 city-loc-4 package-2 capacity-3 capacity-4), cost: 1
    pre: (at package-2 city-loc-4) (at truck-2 city-loc-4) (capacity truck-2 capacity-4)
    add: (capacity truck-2 capacity-3) (in package-2 truck-2)
    del: (at package-2 city-loc-4) (capacity truck-2 capacity-4)
  (pick-up truck-2 city-loc-4 package-3 capacity-0 capacity-1), cost: 1
    pre: (at package-3 city-loc-4) (at truck-2 city-loc-4) (capacity truck-2 capacity-1)
    add: (capacity truck-2 capacity-0) (in package-3 truck-2)
    del: (at package-3 city-loc-4) (capacity truck-2 capacity-1)
  (pick-up truck-2 city-loc-4 package-3 capacity-1 capacity-2), cost: 1
    pre: (at package-3 city-loc-4) (at truck-2 city-loc-4) (capacity truck-2 capacity-2)
    add: (capacity truck-2 capacity-1) (in package-3 truck-2)
    del: (at package-3 city-loc-4) (capacity truck-2 capacity-2)
  (pick-up truck-2 city-loc-4 package-3 capacity-2 capacity-3), cost: 1
    pre: (at package-3 city-loc-4) (at truck-2 city-loc-4) (capacity truck-2 capacity-3)
    add: (capacity truck-2 capacity-2) (in package-3 truck-2)
    del: (at package-3 city-loc-4) (capacity truck-2 capacity-3)
  (pick-up truck-2 city-loc-4 package-3 capacity-3 capacity-4), cost: 1
    pre: (at package-3 city-loc-4) (at truck-2 city-loc-4) (capacity truck-2 capacity-4)
    add: (capacity truck-2 capacity-3) (in package-3 truck-2)
    del: (at package-3 city-loc-4) (capacity truck-2 capacity-4)
  (pick-up truck-2 city-loc-4 package-4 capacity-0 capacity-1), cost: 1
    pre: (at package-4 city-loc-4) (at truck-2 city-loc-4) (capacity truck-2 capacity-1)
    add: (capacity truck-2 capacity-0) (in package-4 truck-2)
    del: (at package-4 city-loc-4) (capacity truck-2 capacity-1)
  (pick-up truck-2 city-loc-4 package-4 capacity-1 capacity-2), cost: 1
    pre: (at package-4 city-loc-4) (at truck-2 city-loc-4) (capacity truck-2 capacity-2)
    add: (capacity truck-2 capacity-1) (in package-4 truck-2)
    del: (at package-4 city-loc-4) (capacity truck-2 capacity-2)
  (pick-up truck-2 city-loc-4 package-4 capacity-2 capacity-3), cost: 1
    pre: (at package-4 city-loc-4) (at truck-2 city-loc-4) (capacity truck-2 capacity-3)
    add: (capacity truck-2 capacity-2) (in package-4 truck-2)
    del: (at package-4 city-loc-4) (capacity truck-2 capacity-3)
  (pick-up truck-2 city-loc-4 package-4 capacity-3 capacity-4), cost: 1
    pre: (at package-4 city-loc-4) (at truck-2 city-loc-4) (capacity truck-2 capacity-4)
    add: (capacity truck-2 capacity-3) (in package-4 truck-2)
    del: (at package-4 city-loc-4) (capacity truck-2 capacity-4)
  (pick-up truck-2 city-loc-5 package-1 capacity-0 capacity-1), cost: 1
    pre: (at package-1 city-loc-5) (at truck-2 city-loc-5) (capacity truck-2 capacity-1)
    add: (capacity truck-2 capacity-0) (in package-1 truck-2)
    del: (at package-1 city-loc-5) (capacity truck-2 capacity-1)
  (pick-up truck-2 city-loc-5 package-1 capacity-1 capacity-2), cost: 1
    pre: (at package-1 city-loc-5) (at truck-2 city-loc-5) (capacity truck-2 capacity-2)
    add: (capacity truck-2 capacity-1) (in package-1 truck-2)
    del: (at package-1 city-loc-5) (capacity truck-2 capacity-2)
  (pick-up truck-2 city-loc-5 package-1 capacity-2 capacity-3), cost: 1
    pre: (at package-1 city-loc-5) (at truck-2 city-loc-5) (capacity truck-2 capacity-3)
    add: (capacity truck-2 capacity-2) (in package-1 truck-2)
    del: (at package-1 city-loc-5) (capacity truck-2 capacity-3)
  (pick-up truck-2 city-loc-5 package-1 capacity-3 capacity-4), cost: 1
    pre: (at package-1 city-loc-5) (at truck-2 city-loc-5) (capacity truck-2 capacity-4)
    add: (capacity truck-2 capacity-3) (in package-1 truck-2)
    del: (at package-1 city-loc-5) (capacity truck-2 capacity-4)
  (pick-up truck-2 city-loc-5 package-2 capacity-0 capacity-1), cost: 1
    pre: (at package-2 city-loc-5) (at truck-2 city-loc-5) (capacity truck-2 capacity-1)
    add: (capacity truck-2 capacity-0) (in package-2 truck-2)
    del: (at package-2 city-loc-5) (capacity truck-2 capacity-1)
  (pick-up truck-2 city-loc-5 package-2 capacity-1 capacity-2), cost: 1
    pre: (at package-2 city-loc-5) (at truck-2 city-loc-5) (capacity truck-2 capacity-2)
    add: (capacity truck-2 capacity-1) (in package-2 truck-2)
    del: (at package-2 city-loc-5) (capacity truck-2 capacity-2)
  (pick-up truck-2 city-loc-5 package-2 capacity-2 capacity-3), cost: 1
    pre: (at package-2 city-loc-5) (at truck-2 city-loc-5) (capacity truck-2 capacity-3)
    add: (capacity truck-2 capacity-2) (in package-2 truck-2)
    del: (at package-2 city-loc-5) (capacity truck-2 capacity-3)
  (pick-up truck-2 city-loc-5 package-2 capacity-3 capacity-4), cost: 1
    pre: (at package-2 city-loc-5) (at truck-2 city-loc-5) (capacity truck-2 capacity-4)
    add: (capacity truck-2 capacity-3) (in package-2 truck-2)
    del: (at package-2 city-loc-5) (capacity truck-2 capacity-4)
  (pick-up truck-2 city-loc-5 package-3 capacity-0 capacity-1), cost: 1
    pre: (at package-3 city-loc-5) (at truck-2 city-loc-5) (capacity truck-2 capacity-1)
    add: (capacity truck-2 capacity-0) (in package-3 truck-2)
    del: (at package-3 city-loc-5) (capacity truck-2 capacity-1)
  (pick-up truck-2 city-loc-5 package-3 capacity-1 capacity-2), cost: 1
    pre: (at package-3 city-loc-5) (at truck-2 city-loc-5) (capacity truck-2 capacity-2)
    add: (capacity truck-2 capacity-1) (in package-3 truck-2)
    del: (at package-3 city-loc-5) (capacity truck-2 capacity-2)
  (pick-up truck-2 city-loc-5 package-3 capacity-2 capacity-3), cost: 1
    pre: (at package-3 city-loc-5) (at truck-2 city-loc-5) (capacity truck-2 capacity-3)
    add: (capacity truck-2 capacity-2) (in package-3 truck-2)
    del: (at package-3 city-loc-5) (capacity truck-2 capacity-3)
  (pick-up truck-2 city-loc-5 package-3 capacity-3 capacity-4), cost: 1
    pre: (at package-3 city-loc-5) (at truck-2 city-loc-5) (capacity truck-2 capacity-4)
    add: (capacity truck-2 capacity-3) (in package-3 truck-2)
    del: (at package-3 city-loc-5) (capacity truck-2 capacity-4)
  (pick-up truck-2 city-loc-5 package-4 capacity-0 capacity-1), cost: 1
    pre: (at package-4 city-loc-5) (at truck-2 city-loc-5) (capacity truck-2 capacity-1)
    add: (capacity truck-2 capacity-0) (in package-4 truck-2)
    del: (at package-4 city-loc-5) (capacity truck-2 capacity-1)
  (pick-up truck-2 city-loc-5 package-4 capacity-1 capacity-2), cost: 1
    pre: (at package-4 city-loc-5) (at truck-2 city-loc-5) (capacity truck-2 capacity-2)
    add: (capacity truck-2 capacity-1) (in package-4 truck-2)
    del: (at package-4 city-loc-5) (capacity truck-2 capacity-2)
  (pick-up truck-2 city-loc-5 package-4 capacity-2 capacity-3), cost: 1
    pre: (at package-4 city-loc-5) (at truck-2 city-loc-5) (capacity truck-2 capacity-3)
    add: (capacity truck-2 capacity-2) (in package-4 truck-2)
    del: (at package-4 city-loc-5) (capacity truck-2 capacity-3)
  (pick-up truck-2 city-loc-5 package-4 capacity-3 capacity-4), cost: 1
    pre: (at package-4 city-loc-5) (at truck-2 city-loc-5) (capacity truck-2 capacity-4)
    add: (capacity truck-2 capacity-3) (in package-4 truck-2)
    del: (at package-4 city-loc-5) (capacity truck-2 capacity-4)
Init State: (at package-1 city-loc-1) (at package-2 city-loc-1) (at package-3 city-loc-3) (at package-4 city-loc-2) (at truck-1 city-loc-2) (at truck-2 city-loc-1) (capacity truck-1 capacity-3) (capacity truck-2 capacity-2)
Goal: (at package-1 city-loc-2) (at package-2 city-loc-2) (at package-3 city-loc-1) (at package-4 city-loc-5)
