< {at player-01 C0:location, at player-01 C1:location}:=1
, {at stone-01 C0:location, at stone-01 C1:location}:=1
, {at V0:thing C1:location, at V0:thing C2:location}:=1
, {clear V0:location, at C1:thing V0:location, at C2:thing V0:location}:=1
>
