 (at_host-nobody-bigfoot):fam
 (at_host-nobody-sherpa):fam
 (at_host-nobody-yeti):fam
 (console_user-nobody-nouid-bigfoot):fam
 (console_user-nobody-nouid-sherpa):fam
 (console_user-nobody-nouid-yeti):fam
 (not-authenticated-adam_uid-bigfoot):fam
 (not-authenticated-bob_uid-yeti):fam
 (not-authenticated-greg_uid-sherpa):fam
 (not-connected-dmss1):fam
 (not-connected-dmss2):fam
 (not-connecting-dmss1):fam
 (not-connecting-dmss2):fam
 (not-dms_established-dmss1):fam
 (not-dms_established-dmss2):fam
 (not-has_process-bigfoot-proc_0):fam
 (not-has_process-bigfoot-proc_1):fam
 (not-has_process-bigfoot-proc_2):fam
 (not-has_process-bigfoot-proc_3):fam
 (not-has_process-sherpa-proc_0):fam
 (not-has_process-sherpa-proc_1):fam
 (not-has_process-sherpa-proc_2):fam
 (not-has_process-sherpa-proc_3):fam
 (not-has_process-yeti-proc_0):fam
 (not-has_process-yeti-proc_1):fam
 (not-has_process-yeti-proc_2):fam
 (not-has_process-yeti-proc_3):fam
 (not-host_locked-sherpa):fam
 (not-host_locked-yeti):fam
 (not-mandatory_step-bob):fam
 (at_host-adam-bigfoot) (at_host-nobody-bigfoot):=1:fam
 (at_host-bob-yeti) (at_host-nobody-yeti):=1:fam
 (at_host-greg-sherpa) (at_host-nobody-sherpa):=1:fam
 (authenticated-adam_uid-bigfoot) (not-authenticated-adam_uid-bigfoot):=1:fam
 (authenticated-bob_uid-yeti) (not-authenticated-bob_uid-yeti):=1:fam
 (authenticated-greg_uid-sherpa) (not-authenticated-greg_uid-sherpa):=1:fam
 (connected-dmss1) (not-connected-dmss1):=1:fam
 (connected-dmss2) (not-connected-dmss2):=1:fam
 (connecting-dmss1) (not-connecting-dmss1):=1:fam
 (connecting-dmss2) (not-connecting-dmss2):=1:fam
 (console_user-adam-adam_uid-bigfoot) (console_user-nobody-nouid-bigfoot):fam
 (console_user-bob-bob_uid-yeti) (console_user-nobody-nouid-yeti):fam
 (console_user-greg-greg_uid-sherpa) (console_user-nobody-nouid-sherpa):fam
 (dms_authenticated-dmss2-greg_uid) (not-dms_established-dmss2):=1:fam
 (dms_established-dmss1) (not-dms_established-dmss1):=1:fam
 (dms_established-dmss2) (not-dms_established-dmss2):=1:fam
 (euid-bigfoot-proc_0-adam_uid) (not-has_process-bigfoot-proc_0):=1:fam
 (euid-bigfoot-proc_1-adam_uid) (not-has_process-bigfoot-proc_1):=1:fam
 (euid-bigfoot-proc_2-adam_uid) (not-has_process-bigfoot-proc_2):=1:fam
 (euid-bigfoot-proc_3-adam_uid) (not-has_process-bigfoot-proc_3):=1:fam
 (euid-sherpa-proc_0-greg_uid) (not-has_process-sherpa-proc_0):=1:fam
 (euid-sherpa-proc_1-greg_uid) (not-has_process-sherpa-proc_1):=1:fam
 (euid-sherpa-proc_2-greg_uid) (not-has_process-sherpa-proc_2):=1:fam
 (euid-sherpa-proc_3-greg_uid) (not-has_process-sherpa-proc_3):=1:fam
 (euid-yeti-proc_0-bob_uid) (not-has_process-yeti-proc_0):=1:fam
 (euid-yeti-proc_1-bob_uid) (not-has_process-yeti-proc_1):=1:fam
 (euid-yeti-proc_2-bob_uid) (not-has_process-yeti-proc_2):=1:fam
 (euid-yeti-proc_3-bob_uid) (not-has_process-yeti-proc_3):=1:fam
 (has_process-bigfoot-proc_0) (not-has_process-bigfoot-proc_0):=1:fam
 (has_process-bigfoot-proc_1) (not-has_process-bigfoot-proc_1):=1:fam
 (has_process-bigfoot-proc_2) (not-has_process-bigfoot-proc_2):=1:fam
 (has_process-bigfoot-proc_3) (not-has_process-bigfoot-proc_3):=1:fam
 (has_process-sherpa-proc_0) (not-has_process-sherpa-proc_0):=1:fam
 (has_process-sherpa-proc_1) (not-has_process-sherpa-proc_1):=1:fam
 (has_process-sherpa-proc_2) (not-has_process-sherpa-proc_2):=1:fam
 (has_process-sherpa-proc_3) (not-has_process-sherpa-proc_3):=1:fam
 (has_process-yeti-proc_0) (not-has_process-yeti-proc_0):=1:fam
 (has_process-yeti-proc_1) (not-has_process-yeti-proc_1):=1:fam
 (has_process-yeti-proc_2) (not-has_process-yeti-proc_2):=1:fam
 (has_process-yeti-proc_3) (not-has_process-yeti-proc_3):=1:fam
 (mandatory_step-bob) (not-mandatory_step-bob):=1:fam:G
 (not-has_process-bigfoot-proc_0) (running_prog-bigfoot-proc_0-wexplorer):fam
 (not-has_process-bigfoot-proc_1) (running_prog-bigfoot-proc_1-wexplorer):fam
 (not-has_process-bigfoot-proc_2) (running_prog-bigfoot-proc_2-wexplorer):fam
 (not-has_process-bigfoot-proc_3) (running_prog-bigfoot-proc_3-wexplorer):fam
 (not-has_process-sherpa-proc_0) (running_prog-sherpa-proc_0-iexplorer):fam
 (not-has_process-sherpa-proc_0) (running_prog-sherpa-proc_0-wexplorer):fam
 (not-has_process-sherpa-proc_1) (running_prog-sherpa-proc_1-iexplorer):fam
 (not-has_process-sherpa-proc_1) (running_prog-sherpa-proc_1-wexplorer):fam
 (not-has_process-sherpa-proc_2) (running_prog-sherpa-proc_2-iexplorer):fam
 (not-has_process-sherpa-proc_2) (running_prog-sherpa-proc_2-wexplorer):fam
 (not-has_process-sherpa-proc_3) (running_prog-sherpa-proc_3-iexplorer):fam
 (not-has_process-sherpa-proc_3) (running_prog-sherpa-proc_3-wexplorer):fam
 (not-has_process-yeti-proc_0) (running_prog-yeti-proc_0-iexplorer):fam
 (not-has_process-yeti-proc_0) (running_prog-yeti-proc_0-troj_master):fam
 (not-has_process-yeti-proc_0) (running_prog-yeti-proc_0-wexplorer):fam
 (not-has_process-yeti-proc_0) (running_prog-yeti-proc_0-winbork):fam
 (not-has_process-yeti-proc_1) (running_prog-yeti-proc_1-iexplorer):fam
 (not-has_process-yeti-proc_1) (running_prog-yeti-proc_1-troj_master):fam
 (not-has_process-yeti-proc_1) (running_prog-yeti-proc_1-wexplorer):fam
 (not-has_process-yeti-proc_1) (running_prog-yeti-proc_1-winbork):fam
 (not-has_process-yeti-proc_2) (running_prog-yeti-proc_2-iexplorer):fam
 (not-has_process-yeti-proc_2) (running_prog-yeti-proc_2-troj_master):fam
 (not-has_process-yeti-proc_2) (running_prog-yeti-proc_2-wexplorer):fam
 (not-has_process-yeti-proc_2) (running_prog-yeti-proc_2-winbork):fam
 (not-has_process-yeti-proc_3) (running_prog-yeti-proc_3-iexplorer):fam
 (not-has_process-yeti-proc_3) (running_prog-yeti-proc_3-troj_master):fam
 (not-has_process-yeti-proc_3) (running_prog-yeti-proc_3-wexplorer):fam
 (not-has_process-yeti-proc_3) (running_prog-yeti-proc_3-winbork):fam
 (not-has_process-sherpa-proc_0) (running_prog-sherpa-proc_0-iexplorer) (running_prog-sherpa-proc_0-wexplorer):fam
 (not-has_process-sherpa-proc_1) (running_prog-sherpa-proc_1-iexplorer) (running_prog-sherpa-proc_1-wexplorer):fam
 (not-has_process-sherpa-proc_2) (running_prog-sherpa-proc_2-iexplorer) (running_prog-sherpa-proc_2-wexplorer):fam
 (not-has_process-sherpa-proc_3) (running_prog-sherpa-proc_3-iexplorer) (running_prog-sherpa-proc_3-wexplorer):fam
 (not-has_process-yeti-proc_0) (running_prog-yeti-proc_0-iexplorer) (running_prog-yeti-proc_0-troj_master):fam
 (not-has_process-yeti-proc_0) (running_prog-yeti-proc_0-iexplorer) (running_prog-yeti-proc_0-wexplorer):fam
 (not-has_process-yeti-proc_0) (running_prog-yeti-proc_0-iexplorer) (running_prog-yeti-proc_0-winbork):fam
 (not-has_process-yeti-proc_0) (running_prog-yeti-proc_0-troj_master) (running_prog-yeti-proc_0-wexplorer):fam
 (not-has_process-yeti-proc_0) (running_prog-yeti-proc_0-troj_master) (running_prog-yeti-proc_0-winbork):fam
 (not-has_process-yeti-proc_0) (running_prog-yeti-proc_0-wexplorer) (running_prog-yeti-proc_0-winbork):fam
 (not-has_process-yeti-proc_1) (running_prog-yeti-proc_1-iexplorer) (running_prog-yeti-proc_1-troj_master):fam
 (not-has_process-yeti-proc_1) (running_prog-yeti-proc_1-iexplorer) (running_prog-yeti-proc_1-wexplorer):fam
 (not-has_process-yeti-proc_1) (running_prog-yeti-proc_1-iexplorer) (running_prog-yeti-proc_1-winbork):fam
 (not-has_process-yeti-proc_1) (running_prog-yeti-proc_1-troj_master) (running_prog-yeti-proc_1-wexplorer):fam
 (not-has_process-yeti-proc_1) (running_prog-yeti-proc_1-troj_master) (running_prog-yeti-proc_1-winbork):fam
 (not-has_process-yeti-proc_1) (running_prog-yeti-proc_1-wexplorer) (running_prog-yeti-proc_1-winbork):fam
 (not-has_process-yeti-proc_2) (running_prog-yeti-proc_2-iexplorer) (running_prog-yeti-proc_2-troj_master):fam
 (not-has_process-yeti-proc_2) (running_prog-yeti-proc_2-iexplorer) (running_prog-yeti-proc_2-wexplorer):fam
 (not-has_process-yeti-proc_2) (running_prog-yeti-proc_2-iexplorer) (running_prog-yeti-proc_2-winbork):fam
 (not-has_process-yeti-proc_2) (running_prog-yeti-proc_2-troj_master) (running_prog-yeti-proc_2-wexplorer):fam
 (not-has_process-yeti-proc_2) (running_prog-yeti-proc_2-troj_master) (running_prog-yeti-proc_2-winbork):fam
 (not-has_process-yeti-proc_2) (running_prog-yeti-proc_2-wexplorer) (running_prog-yeti-proc_2-winbork):fam
 (not-has_process-yeti-proc_3) (running_prog-yeti-proc_3-iexplorer) (running_prog-yeti-proc_3-troj_master):fam
 (not-has_process-yeti-proc_3) (running_prog-yeti-proc_3-iexplorer) (running_prog-yeti-proc_3-wexplorer):fam
 (not-has_process-yeti-proc_3) (running_prog-yeti-proc_3-iexplorer) (running_prog-yeti-proc_3-winbork):fam
 (not-has_process-yeti-proc_3) (running_prog-yeti-proc_3-troj_master) (running_prog-yeti-proc_3-wexplorer):fam
 (not-has_process-yeti-proc_3) (running_prog-yeti-proc_3-troj_master) (running_prog-yeti-proc_3-winbork):fam
 (not-has_process-yeti-proc_3) (running_prog-yeti-proc_3-wexplorer) (running_prog-yeti-proc_3-winbork):fam
 (not-has_process-yeti-proc_0) (running_prog-yeti-proc_0-iexplorer) (running_prog-yeti-proc_0-troj_master) (running_prog-yeti-proc_0-wexplorer):fam
 (not-has_process-yeti-proc_0) (running_prog-yeti-proc_0-iexplorer) (running_prog-yeti-proc_0-troj_master) (running_prog-yeti-proc_0-winbork):fam
 (not-has_process-yeti-proc_0) (running_prog-yeti-proc_0-iexplorer) (running_prog-yeti-proc_0-wexplorer) (running_prog-yeti-proc_0-winbork):fam
 (not-has_process-yeti-proc_0) (running_prog-yeti-proc_0-troj_master) (running_prog-yeti-proc_0-wexplorer) (running_prog-yeti-proc_0-winbork):fam
 (not-has_process-yeti-proc_1) (running_prog-yeti-proc_1-iexplorer) (running_prog-yeti-proc_1-troj_master) (running_prog-yeti-proc_1-wexplorer):fam
 (not-has_process-yeti-proc_1) (running_prog-yeti-proc_1-iexplorer) (running_prog-yeti-proc_1-troj_master) (running_prog-yeti-proc_1-winbork):fam
 (not-has_process-yeti-proc_1) (running_prog-yeti-proc_1-iexplorer) (running_prog-yeti-proc_1-wexplorer) (running_prog-yeti-proc_1-winbork):fam
 (not-has_process-yeti-proc_1) (running_prog-yeti-proc_1-troj_master) (running_prog-yeti-proc_1-wexplorer) (running_prog-yeti-proc_1-winbork):fam
 (not-has_process-yeti-proc_2) (running_prog-yeti-proc_2-iexplorer) (running_prog-yeti-proc_2-troj_master) (running_prog-yeti-proc_2-wexplorer):fam
 (not-has_process-yeti-proc_2) (running_prog-yeti-proc_2-iexplorer) (running_prog-yeti-proc_2-troj_master) (running_prog-yeti-proc_2-winbork):fam
 (not-has_process-yeti-proc_2) (running_prog-yeti-proc_2-iexplorer) (running_prog-yeti-proc_2-wexplorer) (running_prog-yeti-proc_2-winbork):fam
 (not-has_process-yeti-proc_2) (running_prog-yeti-proc_2-troj_master) (running_prog-yeti-proc_2-wexplorer) (running_prog-yeti-proc_2-winbork):fam
 (not-has_process-yeti-proc_3) (running_prog-yeti-proc_3-iexplorer) (running_prog-yeti-proc_3-troj_master) (running_prog-yeti-proc_3-wexplorer):fam
 (not-has_process-yeti-proc_3) (running_prog-yeti-proc_3-iexplorer) (running_prog-yeti-proc_3-troj_master) (running_prog-yeti-proc_3-winbork):fam
 (not-has_process-yeti-proc_3) (running_prog-yeti-proc_3-iexplorer) (running_prog-yeti-proc_3-wexplorer) (running_prog-yeti-proc_3-winbork):fam
 (not-has_process-yeti-proc_3) (running_prog-yeti-proc_3-troj_master) (running_prog-yeti-proc_3-wexplorer) (running_prog-yeti-proc_3-winbork):fam
 (not-has_process-yeti-proc_0) (running_prog-yeti-proc_0-iexplorer) (running_prog-yeti-proc_0-troj_master) (running_prog-yeti-proc_0-wexplorer) (running_prog-yeti-proc_0-winbork):fam
 (not-has_process-yeti-proc_1) (running_prog-yeti-proc_1-iexplorer) (running_prog-yeti-proc_1-troj_master) (running_prog-yeti-proc_1-wexplorer) (running_prog-yeti-proc_1-winbork):fam
 (not-has_process-yeti-proc_2) (running_prog-yeti-proc_2-iexplorer) (running_prog-yeti-proc_2-troj_master) (running_prog-yeti-proc_2-wexplorer) (running_prog-yeti-proc_2-winbork):fam
 (not-has_process-yeti-proc_3) (running_prog-yeti-proc_3-iexplorer) (running_prog-yeti-proc_3-troj_master) (running_prog-yeti-proc_3-wexplorer) (running_prog-yeti-proc_3-winbork):fam
 (dms_request_in_progress-dmss2) (pmode-m_dms_access) (pmode-m_dms_auth) (pmode-m_dms_connect) (pmode-m_dms_know) (pmode-m_dms_sess) (pmode-m_free) (pmode-m_wait_fork) (pmode-m_wait_pass) (pmode-m_wait_shell):fam
 (dms_requesting-dmss2-e_secret_doc) (pmode-m_dms_access) (pmode-m_dms_auth) (pmode-m_dms_connect) (pmode-m_dms_know) (pmode-m_dms_request) (pmode-m_dms_sess) (pmode-m_free) (pmode-m_wait_fork) (pmode-m_wait_pass) (pmode-m_wait_shell):=1:fam
 (pmode-m_dms_access) (pmode-m_dms_auth) (pmode-m_dms_connect) (pmode-m_dms_know) (pmode-m_dms_request) (pmode-m_dms_send) (pmode-m_dms_sess) (pmode-m_free) (pmode-m_wait_fork) (pmode-m_wait_pass) (pmode-m_wait_shell):=1:fam
 (dms_request_in_progress-dmss2) (forking-bigfoot-adam_uid) (forking-sherpa-greg_uid) (forking-yeti-bob_uid) (pmode-m_dms_access) (pmode-m_dms_auth) (pmode-m_dms_connect) (pmode-m_dms_know) (pmode-m_dms_sess) (pmode-m_free) (pmode-m_wait_pass) (pmode-m_wait_shell):fam
 (dms_requesting-dmss2-e_secret_doc) (forking-bigfoot-adam_uid) (forking-sherpa-greg_uid) (forking-yeti-bob_uid) (pmode-m_dms_access) (pmode-m_dms_auth) (pmode-m_dms_connect) (pmode-m_dms_know) (pmode-m_dms_request) (pmode-m_dms_sess) (pmode-m_free) (pmode-m_wait_pass) (pmode-m_wait_shell):=1:fam
 (forking-bigfoot-adam_uid) (forking-sherpa-greg_uid) (forking-yeti-bob_uid) (pmode-m_dms_access) (pmode-m_dms_auth) (pmode-m_dms_connect) (pmode-m_dms_know) (pmode-m_dms_request) (pmode-m_dms_send) (pmode-m_dms_sess) (pmode-m_free) (pmode-m_wait_pass) (pmode-m_wait_shell):=1:fam

