Non-Maximal 21:
 (passengers slow0-0 n0) (passengers slow0-0 n1) (passengers slow0-0 n2):=1:fam
 (passengers slow1-0 n0) (passengers slow1-0 n1) (passengers slow1-0 n2):=1:fam
 (passengers fast0 n0) (passengers fast0 n1) (passengers fast0 n2) (passengers fast0 n3):=1:fam
 (passengers fast1 n0) (passengers fast1 n1) (passengers fast1 n2) (passengers fast1 n3):=1:fam
 (lift-at fast0 n0) (lift-at fast0 n2) (lift-at fast0 n4) (lift-at fast0 n6) (lift-at fast0 n8):=1:fam
 (lift-at fast1 n0) (lift-at fast1 n2) (lift-at fast1 n4) (lift-at fast1 n6) (lift-at fast1 n8):=1:fam
 (lift-at slow0-0 n0) (lift-at slow0-0 n1) (lift-at slow0-0 n2) (lift-at slow0-0 n3) (lift-at slow0-0 n4):=1:fam
 (lift-at slow1-0 n4) (lift-at slow1-0 n5) (lift-at slow1-0 n6) (lift-at slow1-0 n7) (lift-at slow1-0 n8):=1:fam
 (boarded p0 fast0) (boarded p0 fast1) (boarded p0 slow0-0) (boarded p0 slow1-0) (passenger-at p0 n0) (passenger-at p0 n1) (passenger-at p0 n2) (passenger-at p0 n3) (passenger-at p0 n4) (passenger-at p0 n5) (passenger-at p0 n6) (passenger-at p0 n7) (passenger-at p0 n8):=1:fam:G
 (boarded p1 fast0) (boarded p1 fast1) (boarded p1 slow0-0) (boarded p1 slow1-0) (passenger-at p1 n0) (passenger-at p1 n1) (passenger-at p1 n2) (passenger-at p1 n3) (passenger-at p1 n4) (passenger-at p1 n5) (passenger-at p1 n6) (passenger-at p1 n7) (passenger-at p1 n8):=1:fam:G
 (boarded p10 fast0) (boarded p10 fast1) (boarded p10 slow0-0) (boarded p10 slow1-0) (passenger-at p10 n0) (passenger-at p10 n1) (passenger-at p10 n2) (passenger-at p10 n3) (passenger-at p10 n4) (passenger-at p10 n5) (passenger-at p10 n6) (passenger-at p10 n7) (passenger-at p10 n8):=1:fam:G
 (boarded p11 fast0) (boarded p11 fast1) (boarded p11 slow0-0) (boarded p11 slow1-0) (passenger-at p11 n0) (passenger-at p11 n1) (passenger-at p11 n2) (passenger-at p11 n3) (passenger-at p11 n4) (passenger-at p11 n5) (passenger-at p11 n6) (passenger-at p11 n7) (passenger-at p11 n8):=1:fam:G
 (boarded p12 fast0) (boarded p12 fast1) (boarded p12 slow0-0) (boarded p12 slow1-0) (passenger-at p12 n0) (passenger-at p12 n1) (passenger-at p12 n2) (passenger-at p12 n3) (passenger-at p12 n4) (passenger-at p12 n5) (passenger-at p12 n6) (passenger-at p12 n7) (passenger-at p12 n8):=1:fam:G
 (boarded p2 fast0) (boarded p2 fast1) (boarded p2 slow0-0) (boarded p2 slow1-0) (passenger-at p2 n0) (passenger-at p2 n1) (passenger-at p2 n2) (passenger-at p2 n3) (passenger-at p2 n4) (passenger-at p2 n5) (passenger-at p2 n6) (passenger-at p2 n7) (passenger-at p2 n8):=1:fam:G
 (boarded p3 fast0) (boarded p3 fast1) (boarded p3 slow0-0) (boarded p3 slow1-0) (passenger-at p3 n0) (passenger-at p3 n1) (passenger-at p3 n2) (passenger-at p3 n3) (passenger-at p3 n4) (passenger-at p3 n5) (passenger-at p3 n6) (passenger-at p3 n7) (passenger-at p3 n8):=1:fam:G
 (boarded p4 fast0) (boarded p4 fast1) (boarded p4 slow0-0) (boarded p4 slow1-0) (passenger-at p4 n0) (passenger-at p4 n1) (passenger-at p4 n2) (passenger-at p4 n3) (passenger-at p4 n4) (passenger-at p4 n5) (passenger-at p4 n6) (passenger-at p4 n7) (passenger-at p4 n8):=1:fam:G
 (boarded p5 fast0) (boarded p5 fast1) (boarded p5 slow0-0) (boarded p5 slow1-0) (passenger-at p5 n0) (passenger-at p5 n1) (passenger-at p5 n2) (passenger-at p5 n3) (passenger-at p5 n4) (passenger-at p5 n5) (passenger-at p5 n6) (passenger-at p5 n7) (passenger-at p5 n8):=1:fam:G
 (boarded p6 fast0) (boarded p6 fast1) (boarded p6 slow0-0) (boarded p6 slow1-0) (passenger-at p6 n0) (passenger-at p6 n1) (passenger-at p6 n2) (passenger-at p6 n3) (passenger-at p6 n4) (passenger-at p6 n5) (passenger-at p6 n6) (passenger-at p6 n7) (passenger-at p6 n8):=1:fam:G
 (boarded p7 fast0) (boarded p7 fast1) (boarded p7 slow0-0) (boarded p7 slow1-0) (passenger-at p7 n0) (passenger-at p7 n1) (passenger-at p7 n2) (passenger-at p7 n3) (passenger-at p7 n4) (passenger-at p7 n5) (passenger-at p7 n6) (passenger-at p7 n7) (passenger-at p7 n8):=1:fam:G
 (boarded p8 fast0) (boarded p8 fast1) (boarded p8 slow0-0) (boarded p8 slow1-0) (passenger-at p8 n0) (passenger-at p8 n1) (passenger-at p8 n2) (passenger-at p8 n3) (passenger-at p8 n4) (passenger-at p8 n5) (passenger-at p8 n6) (passenger-at p8 n7) (passenger-at p8 n8):=1:fam:G
 (boarded p9 fast0) (boarded p9 fast1) (boarded p9 slow0-0) (boarded p9 slow1-0) (passenger-at p9 n0) (passenger-at p9 n1) (passenger-at p9 n2) (passenger-at p9 n3) (passenger-at p9 n4) (passenger-at p9 n5) (passenger-at p9 n6) (passenger-at p9 n7) (passenger-at p9 n8):=1:fam:G


Mutex Group Cover Number: 21
