begin_version
3
end_version
begin_metric
1
end_metric
23
begin_variable
var0
-1
7
first b0 s12
first b1 s12
first b2 s12
first b3 s12
first b4 s12
first b5 s12
tnf-unknown
end_variable
begin_variable
var1
-1
7
first b0 s13
first b1 s13
first b2 s13
first b3 s13
first b4 s13
first b5 s13
tnf-unknown
end_variable
begin_variable
var2
-1
5
on b0 a1
on b0 a2
on b0 a3
none-of-those
tnf-unkown
end_variable
begin_variable
var3
-1
5
on b2 a1
on b2 a2
on b2 a3
none-of-those
tnf-unkown
end_variable
begin_variable
var4
-1
5
on b3 a1
on b3 a2
on b3 a3
none-of-those
tnf-unkown
end_variable
begin_variable
var5
-1
5
on b5 a1
on b5 a2
on b5 a3
none-of-those
tnf-unkown
end_variable
begin_variable
var6
-1
3
not-occupied ta1-1-gasoleo
occupied ta1-1-gasoleo
tnf-unknown
end_variable
begin_variable
var7
-1
3
not-occupied ta1-1-lco
occupied ta1-1-lco
tnf-unknown
end_variable
begin_variable
var8
-1
3
not-occupied ta1-1-oc1b
occupied ta1-1-oc1b
tnf-unknown
end_variable
begin_variable
var9
-1
3
not-occupied ta1-1-oca1
occupied ta1-1-oca1
tnf-unknown
end_variable
begin_variable
var10
-1
3
not-occupied ta1-1-rat-a
occupied ta1-1-rat-a
tnf-unknown
end_variable
begin_variable
var11
-1
3
not-occupied ta2-1-gasoleo
occupied ta2-1-gasoleo
tnf-unknown
end_variable
begin_variable
var12
-1
3
not-occupied ta2-1-lco
occupied ta2-1-lco
tnf-unknown
end_variable
begin_variable
var13
-1
3
not-occupied ta2-1-oc1b
occupied ta2-1-oc1b
tnf-unknown
end_variable
begin_variable
var14
-1
3
not-occupied ta2-1-oca1
occupied ta2-1-oca1
tnf-unknown
end_variable
begin_variable
var15
-1
3
not-occupied ta2-1-rat-a
occupied ta2-1-rat-a
tnf-unknown
end_variable
begin_variable
var16
-1
3
not-occupied ta3-1-gasoleo
occupied ta3-1-gasoleo
tnf-unknown
end_variable
begin_variable
var17
-1
3
not-occupied ta3-1-lco
occupied ta3-1-lco
tnf-unknown
end_variable
begin_variable
var18
-1
3
not-occupied ta3-1-oc1b
occupied ta3-1-oc1b
tnf-unknown
end_variable
begin_variable
var19
-1
3
not-occupied ta3-1-oca1
occupied ta3-1-oca1
tnf-unknown
end_variable
begin_variable
var20
-1
3
not-occupied ta3-1-rat-a
occupied ta3-1-rat-a
tnf-unknown
end_variable
begin_variable
var21
-1
4
on b1 a1
on b1 a3
none-of-those
tnf-unkown
end_variable
begin_variable
var22
-1
4
on b4 a1
on b4 a2
none-of-those
tnf-unkown
end_variable
23
begin_mutex_group
2
6 0
6 1
end_mutex_group
begin_mutex_group
2
7 0
7 1
end_mutex_group
begin_mutex_group
2
8 0
8 1
end_mutex_group
begin_mutex_group
2
9 0
9 1
end_mutex_group
begin_mutex_group
2
10 0
10 1
end_mutex_group
begin_mutex_group
2
11 0
11 1
end_mutex_group
begin_mutex_group
2
12 0
12 1
end_mutex_group
begin_mutex_group
2
13 0
13 1
end_mutex_group
begin_mutex_group
2
14 0
14 1
end_mutex_group
begin_mutex_group
2
15 0
15 1
end_mutex_group
begin_mutex_group
2
16 0
16 1
end_mutex_group
begin_mutex_group
2
17 0
17 1
end_mutex_group
begin_mutex_group
2
18 0
18 1
end_mutex_group
begin_mutex_group
2
19 0
19 1
end_mutex_group
begin_mutex_group
2
20 0
20 1
end_mutex_group
begin_mutex_group
4
0 1
1 1
21 0
21 1
end_mutex_group
begin_mutex_group
4
0 4
1 4
22 0
22 1
end_mutex_group
begin_mutex_group
5
0 0
1 0
2 0
2 1
2 2
end_mutex_group
begin_mutex_group
5
0 2
1 2
3 0
3 1
3 2
end_mutex_group
begin_mutex_group
5
0 3
1 3
4 0
4 1
4 2
end_mutex_group
begin_mutex_group
5
0 5
1 5
5 0
5 1
5 2
end_mutex_group
begin_mutex_group
6
0 0
0 1
0 2
0 3
0 4
0 5
end_mutex_group
begin_mutex_group
6
1 0
1 1
1 2
1 3
1 4
1 5
end_mutex_group
begin_state
4
5
0
0
0
3
1
0
1
0
1
0
0
0
0
0
0
1
0
0
0
1
2
end_state
begin_goal
23
0 6
1 6
2 4
3 2
4 4
5 1
6 2
7 2
8 2
9 2
10 2
11 2
12 2
13 2
14 2
15 2
16 2
17 2
18 2
19 2
20 2
21 3
22 3
end_goal
148
begin_operator
pop-unitarypipe s12 b0 a1 a2 b1 oc1b lco ta1-1-lco ta2-1-oc1b
0
5
0 0 1 0
0 2 1 3
0 7 0 1
0 13 1 0
0 21 3 0
1
end_operator
begin_operator
pop-unitarypipe s12 b0 a1 a2 b2 oc1b gasoleo ta1-1-gasoleo ta2-1-oc1b
0
5
0 0 2 0
0 2 1 3
0 3 4 0
0 6 0 1
0 13 1 0
1
end_operator
begin_operator
pop-unitarypipe s12 b0 a1 a2 b4 oc1b lco ta1-1-lco ta2-1-oc1b
0
5
0 0 4 0
0 2 1 3
0 7 0 1
0 13 1 0
0 22 3 0
1
end_operator
begin_operator
pop-unitarypipe s12 b0 a1 a2 b5 oc1b oca1 ta1-1-oca1 ta2-1-oc1b
0
5
0 0 5 0
0 2 1 3
0 5 4 0
0 9 0 1
0 13 1 0
1
end_operator
begin_operator
pop-unitarypipe s12 b2 a1 a2 b0 gasoleo oc1b ta1-1-oc1b ta2-1-gasoleo
0
5
0 0 0 2
0 2 4 0
0 3 1 3
0 8 0 1
0 11 1 0
1
end_operator
begin_operator
pop-unitarypipe s12 b2 a1 a2 b1 gasoleo lco ta1-1-lco ta2-1-gasoleo
0
5
0 0 1 2
0 3 1 3
0 7 0 1
0 11 1 0
0 21 3 0
1
end_operator
begin_operator
pop-unitarypipe s12 b2 a1 a2 b3 gasoleo rat-a ta1-1-rat-a ta2-1-gasoleo
0
5
0 0 3 2
0 3 1 3
0 4 4 0
0 10 0 1
0 11 1 0
1
end_operator
begin_operator
pop-unitarypipe s12 b2 a1 a2 b4 gasoleo lco ta1-1-lco ta2-1-gasoleo
0
5
0 0 4 2
0 3 1 3
0 7 0 1
0 11 1 0
0 22 3 0
1
end_operator
begin_operator
pop-unitarypipe s12 b2 a1 a2 b5 gasoleo oca1 ta1-1-oca1 ta2-1-gasoleo
0
5
0 0 5 2
0 3 1 3
0 5 4 0
0 9 0 1
0 11 1 0
1
end_operator
begin_operator
pop-unitarypipe s12 b3 a1 a2 b1 rat-a lco ta1-1-lco ta2-1-rat-a
0
5
0 0 1 3
0 4 1 3
0 7 0 1
0 15 1 0
0 21 3 0
1
end_operator
begin_operator
pop-unitarypipe s12 b3 a1 a2 b2 rat-a gasoleo ta1-1-gasoleo ta2-1-rat-a
0
5
0 0 2 3
0 3 4 0
0 4 1 3
0 6 0 1
0 15 1 0
1
end_operator
begin_operator
pop-unitarypipe s12 b3 a1 a2 b4 rat-a lco ta1-1-lco ta2-1-rat-a
0
5
0 0 4 3
0 4 1 3
0 7 0 1
0 15 1 0
0 22 3 0
1
end_operator
begin_operator
pop-unitarypipe s12 b4 a1 a2 b0 lco oc1b ta1-1-oc1b ta2-1-lco
0
5
0 0 0 4
0 2 4 0
0 8 0 1
0 12 1 0
0 22 1 2
1
end_operator
begin_operator
pop-unitarypipe s12 b4 a1 a2 b1 lco lco ta1-1-lco ta2-1-lco
0
5
0 0 1 4
0 7 0 1
0 12 1 0
0 21 3 0
0 22 1 2
1
end_operator
begin_operator
pop-unitarypipe s12 b4 a1 a2 b2 lco gasoleo ta1-1-gasoleo ta2-1-lco
0
5
0 0 2 4
0 3 4 0
0 6 0 1
0 12 1 0
0 22 1 2
1
end_operator
begin_operator
pop-unitarypipe s12 b4 a1 a2 b3 lco rat-a ta1-1-rat-a ta2-1-lco
0
5
0 0 3 4
0 4 4 0
0 10 0 1
0 12 1 0
0 22 1 2
1
end_operator
begin_operator
pop-unitarypipe s12 b4 a1 a2 b5 lco oca1 ta1-1-oca1 ta2-1-lco
0
5
0 0 5 4
0 5 4 0
0 9 0 1
0 12 1 0
0 22 1 2
1
end_operator
begin_operator
pop-unitarypipe s12 b5 a1 a2 b0 oca1 oc1b ta1-1-oc1b ta2-1-oca1
0
5
0 0 0 5
0 2 4 0
0 5 1 3
0 8 0 1
0 14 1 0
1
end_operator
begin_operator
pop-unitarypipe s12 b5 a1 a2 b1 oca1 lco ta1-1-lco ta2-1-oca1
0
5
0 0 1 5
0 5 1 3
0 7 0 1
0 14 1 0
0 21 3 0
1
end_operator
begin_operator
pop-unitarypipe s12 b5 a1 a2 b2 oca1 gasoleo ta1-1-gasoleo ta2-1-oca1
0
5
0 0 2 5
0 3 4 0
0 5 1 3
0 6 0 1
0 14 1 0
1
end_operator
begin_operator
pop-unitarypipe s12 b5 a1 a2 b4 oca1 lco ta1-1-lco ta2-1-oca1
0
5
0 0 4 5
0 5 1 3
0 7 0 1
0 14 1 0
0 22 3 0
1
end_operator
begin_operator
pop-unitarypipe s13 b0 a1 a3 b1 oc1b lco ta1-1-lco ta3-1-oc1b
0
5
0 1 1 0
0 2 2 3
0 7 0 1
0 18 1 0
0 21 3 0
1
end_operator
begin_operator
pop-unitarypipe s13 b0 a1 a3 b2 oc1b gasoleo ta1-1-gasoleo ta3-1-oc1b
0
5
0 1 2 0
0 2 2 3
0 3 4 0
0 6 0 1
0 18 1 0
1
end_operator
begin_operator
pop-unitarypipe s13 b0 a1 a3 b4 oc1b lco ta1-1-lco ta3-1-oc1b
0
5
0 1 4 0
0 2 2 3
0 7 0 1
0 18 1 0
0 22 3 0
1
end_operator
begin_operator
pop-unitarypipe s13 b0 a1 a3 b5 oc1b oca1 ta1-1-oca1 ta3-1-oc1b
0
5
0 1 5 0
0 2 2 3
0 5 4 0
0 9 0 1
0 18 1 0
1
end_operator
begin_operator
pop-unitarypipe s13 b1 a1 a3 b0 lco oc1b ta1-1-oc1b ta3-1-lco
0
5
0 1 0 1
0 2 4 0
0 8 0 1
0 17 1 0
0 21 1 2
1
end_operator
begin_operator
pop-unitarypipe s13 b1 a1 a3 b2 lco gasoleo ta1-1-gasoleo ta3-1-lco
0
5
0 1 2 1
0 3 4 0
0 6 0 1
0 17 1 0
0 21 1 2
1
end_operator
begin_operator
pop-unitarypipe s13 b1 a1 a3 b3 lco rat-a ta1-1-rat-a ta3-1-lco
0
5
0 1 3 1
0 4 4 0
0 10 0 1
0 17 1 0
0 21 1 2
1
end_operator
begin_operator
pop-unitarypipe s13 b1 a1 a3 b4 lco lco ta1-1-lco ta3-1-lco
0
5
0 1 4 1
0 7 0 1
0 17 1 0
0 21 1 2
0 22 3 0
1
end_operator
begin_operator
pop-unitarypipe s13 b1 a1 a3 b5 lco oca1 ta1-1-oca1 ta3-1-lco
0
5
0 1 5 1
0 5 4 0
0 9 0 1
0 17 1 0
0 21 1 2
1
end_operator
begin_operator
pop-unitarypipe s13 b2 a1 a3 b0 gasoleo oc1b ta1-1-oc1b ta3-1-gasoleo
0
5
0 1 0 2
0 2 4 0
0 3 2 3
0 8 0 1
0 16 1 0
1
end_operator
begin_operator
pop-unitarypipe s13 b2 a1 a3 b1 gasoleo lco ta1-1-lco ta3-1-gasoleo
0
5
0 1 1 2
0 3 2 3
0 7 0 1
0 16 1 0
0 21 3 0
1
end_operator
begin_operator
pop-unitarypipe s13 b2 a1 a3 b3 gasoleo rat-a ta1-1-rat-a ta3-1-gasoleo
0
5
0 1 3 2
0 3 2 3
0 4 4 0
0 10 0 1
0 16 1 0
1
end_operator
begin_operator
pop-unitarypipe s13 b2 a1 a3 b4 gasoleo lco ta1-1-lco ta3-1-gasoleo
0
5
0 1 4 2
0 3 2 3
0 7 0 1
0 16 1 0
0 22 3 0
1
end_operator
begin_operator
pop-unitarypipe s13 b2 a1 a3 b5 gasoleo oca1 ta1-1-oca1 ta3-1-gasoleo
0
5
0 1 5 2
0 3 2 3
0 5 4 0
0 9 0 1
0 16 1 0
1
end_operator
begin_operator
pop-unitarypipe s13 b3 a1 a3 b1 rat-a lco ta1-1-lco ta3-1-rat-a
0
5
0 1 1 3
0 4 2 3
0 7 0 1
0 20 1 0
0 21 3 0
1
end_operator
begin_operator
pop-unitarypipe s13 b3 a1 a3 b2 rat-a gasoleo ta1-1-gasoleo ta3-1-rat-a
0
5
0 1 2 3
0 3 4 0
0 4 2 3
0 6 0 1
0 20 1 0
1
end_operator
begin_operator
pop-unitarypipe s13 b3 a1 a3 b4 rat-a lco ta1-1-lco ta3-1-rat-a
0
5
0 1 4 3
0 4 2 3
0 7 0 1
0 20 1 0
0 22 3 0
1
end_operator
begin_operator
pop-unitarypipe s13 b5 a1 a3 b0 oca1 oc1b ta1-1-oc1b ta3-1-oca1
0
5
0 1 0 5
0 2 4 0
0 5 2 3
0 8 0 1
0 19 1 0
1
end_operator
begin_operator
pop-unitarypipe s13 b5 a1 a3 b1 oca1 lco ta1-1-lco ta3-1-oca1
0
5
0 1 1 5
0 5 2 3
0 7 0 1
0 19 1 0
0 21 3 0
1
end_operator
begin_operator
pop-unitarypipe s13 b5 a1 a3 b2 oca1 gasoleo ta1-1-gasoleo ta3-1-oca1
0
5
0 1 2 5
0 3 4 0
0 5 2 3
0 6 0 1
0 19 1 0
1
end_operator
begin_operator
pop-unitarypipe s13 b5 a1 a3 b4 oca1 lco ta1-1-lco ta3-1-oca1
0
5
0 1 4 5
0 5 2 3
0 7 0 1
0 19 1 0
0 22 3 0
1
end_operator
begin_operator
push-unitarypipe s12 b0 a1 a2 b2 oc1b gasoleo ta1-1-oc1b ta2-1-gasoleo
0
5
0 0 2 0
0 2 0 3
0 3 4 1
0 8 1 0
0 11 0 1
1
end_operator
begin_operator
push-unitarypipe s12 b0 a1 a2 b4 oc1b lco ta1-1-oc1b ta2-1-lco
0
5
0 0 4 0
0 2 0 3
0 8 1 0
0 12 0 1
0 22 3 1
1
end_operator
begin_operator
push-unitarypipe s12 b0 a1 a2 b5 oc1b oca1 ta1-1-oc1b ta2-1-oca1
0
5
0 0 5 0
0 2 0 3
0 5 4 1
0 8 1 0
0 14 0 1
1
end_operator
begin_operator
push-unitarypipe s12 b1 a1 a2 b0 lco oc1b ta1-1-lco ta2-1-oc1b
0
5
0 0 0 1
0 2 4 1
0 7 1 0
0 13 0 1
0 21 0 2
1
end_operator
begin_operator
push-unitarypipe s12 b1 a1 a2 b2 lco gasoleo ta1-1-lco ta2-1-gasoleo
0
5
0 0 2 1
0 3 4 1
0 7 1 0
0 11 0 1
0 21 0 2
1
end_operator
begin_operator
push-unitarypipe s12 b1 a1 a2 b3 lco rat-a ta1-1-lco ta2-1-rat-a
0
5
0 0 3 1
0 4 4 1
0 7 1 0
0 15 0 1
0 21 0 2
1
end_operator
begin_operator
push-unitarypipe s12 b1 a1 a2 b4 lco lco ta1-1-lco ta2-1-lco
0
5
0 0 4 1
0 7 1 0
0 12 0 1
0 21 0 2
0 22 3 1
1
end_operator
begin_operator
push-unitarypipe s12 b1 a1 a2 b5 lco oca1 ta1-1-lco ta2-1-oca1
0
5
0 0 5 1
0 5 4 1
0 7 1 0
0 14 0 1
0 21 0 2
1
end_operator
begin_operator
push-unitarypipe s12 b2 a1 a2 b0 gasoleo oc1b ta1-1-gasoleo ta2-1-oc1b
0
5
0 0 0 2
0 2 4 1
0 3 0 3
0 6 1 0
0 13 0 1
1
end_operator
begin_operator
push-unitarypipe s12 b2 a1 a2 b3 gasoleo rat-a ta1-1-gasoleo ta2-1-rat-a
0
5
0 0 3 2
0 3 0 3
0 4 4 1
0 6 1 0
0 15 0 1
1
end_operator
begin_operator
push-unitarypipe s12 b2 a1 a2 b4 gasoleo lco ta1-1-gasoleo ta2-1-lco
0
5
0 0 4 2
0 3 0 3
0 6 1 0
0 12 0 1
0 22 3 1
1
end_operator
begin_operator
push-unitarypipe s12 b2 a1 a2 b5 gasoleo oca1 ta1-1-gasoleo ta2-1-oca1
0
5
0 0 5 2
0 3 0 3
0 5 4 1
0 6 1 0
0 14 0 1
1
end_operator
begin_operator
push-unitarypipe s12 b3 a1 a2 b2 rat-a gasoleo ta1-1-rat-a ta2-1-gasoleo
0
5
0 0 2 3
0 3 4 1
0 4 0 3
0 10 1 0
0 11 0 1
1
end_operator
begin_operator
push-unitarypipe s12 b3 a1 a2 b4 rat-a lco ta1-1-rat-a ta2-1-lco
0
5
0 0 4 3
0 4 0 3
0 10 1 0
0 12 0 1
0 22 3 1
1
end_operator
begin_operator
push-unitarypipe s12 b4 a1 a2 b0 lco oc1b ta1-1-lco ta2-1-oc1b
0
5
0 0 0 4
0 2 4 1
0 7 1 0
0 13 0 1
0 22 0 2
1
end_operator
begin_operator
push-unitarypipe s12 b4 a1 a2 b2 lco gasoleo ta1-1-lco ta2-1-gasoleo
0
5
0 0 2 4
0 3 4 1
0 7 1 0
0 11 0 1
0 22 0 2
1
end_operator
begin_operator
push-unitarypipe s12 b4 a1 a2 b3 lco rat-a ta1-1-lco ta2-1-rat-a
0
5
0 0 3 4
0 4 4 1
0 7 1 0
0 15 0 1
0 22 0 2
1
end_operator
begin_operator
push-unitarypipe s12 b4 a1 a2 b5 lco oca1 ta1-1-lco ta2-1-oca1
0
5
0 0 5 4
0 5 4 1
0 7 1 0
0 14 0 1
0 22 0 2
1
end_operator
begin_operator
push-unitarypipe s12 b5 a1 a2 b0 oca1 oc1b ta1-1-oca1 ta2-1-oc1b
0
5
0 0 0 5
0 2 4 1
0 5 0 3
0 9 1 0
0 13 0 1
1
end_operator
begin_operator
push-unitarypipe s12 b5 a1 a2 b2 oca1 gasoleo ta1-1-oca1 ta2-1-gasoleo
0
5
0 0 2 5
0 3 4 1
0 5 0 3
0 9 1 0
0 11 0 1
1
end_operator
begin_operator
push-unitarypipe s12 b5 a1 a2 b4 oca1 lco ta1-1-oca1 ta2-1-lco
0
5
0 0 4 5
0 5 0 3
0 9 1 0
0 12 0 1
0 22 3 1
1
end_operator
begin_operator
push-unitarypipe s13 b0 a1 a3 b1 oc1b lco ta1-1-oc1b ta3-1-lco
0
5
0 1 1 0
0 2 0 3
0 8 1 0
0 17 0 1
0 21 3 1
1
end_operator
begin_operator
push-unitarypipe s13 b0 a1 a3 b2 oc1b gasoleo ta1-1-oc1b ta3-1-gasoleo
0
5
0 1 2 0
0 2 0 3
0 3 4 2
0 8 1 0
0 16 0 1
1
end_operator
begin_operator
push-unitarypipe s13 b0 a1 a3 b5 oc1b oca1 ta1-1-oc1b ta3-1-oca1
0
5
0 1 5 0
0 2 0 3
0 5 4 2
0 8 1 0
0 19 0 1
1
end_operator
begin_operator
push-unitarypipe s13 b1 a1 a3 b0 lco oc1b ta1-1-lco ta3-1-oc1b
0
5
0 1 0 1
0 2 4 2
0 7 1 0
0 18 0 1
0 21 0 2
1
end_operator
begin_operator
push-unitarypipe s13 b1 a1 a3 b2 lco gasoleo ta1-1-lco ta3-1-gasoleo
0
5
0 1 2 1
0 3 4 2
0 7 1 0
0 16 0 1
0 21 0 2
1
end_operator
begin_operator
push-unitarypipe s13 b1 a1 a3 b3 lco rat-a ta1-1-lco ta3-1-rat-a
0
5
0 1 3 1
0 4 4 2
0 7 1 0
0 20 0 1
0 21 0 2
1
end_operator
begin_operator
push-unitarypipe s13 b1 a1 a3 b5 lco oca1 ta1-1-lco ta3-1-oca1
0
5
0 1 5 1
0 5 4 2
0 7 1 0
0 19 0 1
0 21 0 2
1
end_operator
begin_operator
push-unitarypipe s13 b2 a1 a3 b0 gasoleo oc1b ta1-1-gasoleo ta3-1-oc1b
0
5
0 1 0 2
0 2 4 2
0 3 0 3
0 6 1 0
0 18 0 1
1
end_operator
begin_operator
push-unitarypipe s13 b2 a1 a3 b1 gasoleo lco ta1-1-gasoleo ta3-1-lco
0
5
0 1 1 2
0 3 0 3
0 6 1 0
0 17 0 1
0 21 3 1
1
end_operator
begin_operator
push-unitarypipe s13 b2 a1 a3 b3 gasoleo rat-a ta1-1-gasoleo ta3-1-rat-a
0
5
0 1 3 2
0 3 0 3
0 4 4 2
0 6 1 0
0 20 0 1
1
end_operator
begin_operator
push-unitarypipe s13 b2 a1 a3 b5 gasoleo oca1 ta1-1-gasoleo ta3-1-oca1
0
5
0 1 5 2
0 3 0 3
0 5 4 2
0 6 1 0
0 19 0 1
1
end_operator
begin_operator
push-unitarypipe s13 b3 a1 a3 b1 rat-a lco ta1-1-rat-a ta3-1-lco
0
5
0 1 1 3
0 4 0 3
0 10 1 0
0 17 0 1
0 21 3 1
1
end_operator
begin_operator
push-unitarypipe s13 b3 a1 a3 b2 rat-a gasoleo ta1-1-rat-a ta3-1-gasoleo
0
5
0 1 2 3
0 3 4 2
0 4 0 3
0 10 1 0
0 16 0 1
1
end_operator
begin_operator
push-unitarypipe s13 b4 a1 a3 b0 lco oc1b ta1-1-lco ta3-1-oc1b
0
5
0 1 0 4
0 2 4 2
0 7 1 0
0 18 0 1
0 22 0 2
1
end_operator
begin_operator
push-unitarypipe s13 b4 a1 a3 b1 lco lco ta1-1-lco ta3-1-lco
0
5
0 1 1 4
0 7 1 0
0 17 0 1
0 21 3 1
0 22 0 2
1
end_operator
begin_operator
push-unitarypipe s13 b4 a1 a3 b2 lco gasoleo ta1-1-lco ta3-1-gasoleo
0
5
0 1 2 4
0 3 4 2
0 7 1 0
0 16 0 1
0 22 0 2
1
end_operator
begin_operator
push-unitarypipe s13 b4 a1 a3 b3 lco rat-a ta1-1-lco ta3-1-rat-a
0
5
0 1 3 4
0 4 4 2
0 7 1 0
0 20 0 1
0 22 0 2
1
end_operator
begin_operator
push-unitarypipe s13 b4 a1 a3 b5 lco oca1 ta1-1-lco ta3-1-oca1
0
5
0 1 5 4
0 5 4 2
0 7 1 0
0 19 0 1
0 22 0 2
1
end_operator
begin_operator
push-unitarypipe s13 b5 a1 a3 b0 oca1 oc1b ta1-1-oca1 ta3-1-oc1b
0
5
0 1 0 5
0 2 4 2
0 5 0 3
0 9 1 0
0 18 0 1
1
end_operator
begin_operator
push-unitarypipe s13 b5 a1 a3 b1 oca1 lco ta1-1-oca1 ta3-1-lco
0
5
0 1 1 5
0 5 0 3
0 9 1 0
0 17 0 1
0 21 3 1
1
end_operator
begin_operator
push-unitarypipe s13 b5 a1 a3 b2 oca1 gasoleo ta1-1-oca1 ta3-1-gasoleo
0
5
0 1 2 5
0 3 4 2
0 5 0 3
0 9 1 0
0 16 0 1
1
end_operator
begin_operator
tnf-forget-0-0
0
1
0 0 0 6
0
end_operator
begin_operator
tnf-forget-0-1
0
1
0 0 1 6
0
end_operator
begin_operator
tnf-forget-0-2
0
1
0 0 2 6
0
end_operator
begin_operator
tnf-forget-0-3
0
1
0 0 3 6
0
end_operator
begin_operator
tnf-forget-0-4
0
1
0 0 4 6
0
end_operator
begin_operator
tnf-forget-0-5
0
1
0 0 5 6
0
end_operator
begin_operator
tnf-forget-1-0
0
1
0 1 0 6
0
end_operator
begin_operator
tnf-forget-1-1
0
1
0 1 1 6
0
end_operator
begin_operator
tnf-forget-1-2
0
1
0 1 2 6
0
end_operator
begin_operator
tnf-forget-1-3
0
1
0 1 3 6
0
end_operator
begin_operator
tnf-forget-1-4
0
1
0 1 4 6
0
end_operator
begin_operator
tnf-forget-1-5
0
1
0 1 5 6
0
end_operator
begin_operator
tnf-forget-2-0
0
1
0 2 0 4
0
end_operator
begin_operator
tnf-forget-2-1
0
1
0 2 1 4
0
end_operator
begin_operator
tnf-forget-2-2
0
1
0 2 2 4
0
end_operator
begin_operator
tnf-forget-2-3
0
1
0 2 3 4
0
end_operator
begin_operator
tnf-forget-3-0
0
1
0 3 0 4
0
end_operator
begin_operator
tnf-forget-3-1
0
1
0 3 1 4
0
end_operator
begin_operator
tnf-forget-3-2
0
1
0 3 2 4
0
end_operator
begin_operator
tnf-forget-3-3
0
1
0 3 3 4
0
end_operator
begin_operator
tnf-forget-4-0
0
1
0 4 0 4
0
end_operator
begin_operator
tnf-forget-4-1
0
1
0 4 1 4
0
end_operator
begin_operator
tnf-forget-4-2
0
1
0 4 2 4
0
end_operator
begin_operator
tnf-forget-4-3
0
1
0 4 3 4
0
end_operator
begin_operator
tnf-forget-5-0
0
1
0 5 0 4
0
end_operator
begin_operator
tnf-forget-5-1
0
1
0 5 1 4
0
end_operator
begin_operator
tnf-forget-5-2
0
1
0 5 2 4
0
end_operator
begin_operator
tnf-forget-5-3
0
1
0 5 3 4
0
end_operator
begin_operator
tnf-forget-6-0
0
1
0 6 0 2
0
end_operator
begin_operator
tnf-forget-6-1
0
1
0 6 1 2
0
end_operator
begin_operator
tnf-forget-7-0
0
1
0 7 0 2
0
end_operator
begin_operator
tnf-forget-7-1
0
1
0 7 1 2
0
end_operator
begin_operator
tnf-forget-8-0
0
1
0 8 0 2
0
end_operator
begin_operator
tnf-forget-8-1
0
1
0 8 1 2
0
end_operator
begin_operator
tnf-forget-9-0
0
1
0 9 0 2
0
end_operator
begin_operator
tnf-forget-9-1
0
1
0 9 1 2
0
end_operator
begin_operator
tnf-forget-10-0
0
1
0 10 0 2
0
end_operator
begin_operator
tnf-forget-10-1
0
1
0 10 1 2
0
end_operator
begin_operator
tnf-forget-11-0
0
1
0 11 0 2
0
end_operator
begin_operator
tnf-forget-11-1
0
1
0 11 1 2
0
end_operator
begin_operator
tnf-forget-12-0
0
1
0 12 0 2
0
end_operator
begin_operator
tnf-forget-12-1
0
1
0 12 1 2
0
end_operator
begin_operator
tnf-forget-13-0
0
1
0 13 0 2
0
end_operator
begin_operator
tnf-forget-13-1
0
1
0 13 1 2
0
end_operator
begin_operator
tnf-forget-14-0
0
1
0 14 0 2
0
end_operator
begin_operator
tnf-forget-14-1
0
1
0 14 1 2
0
end_operator
begin_operator
tnf-forget-15-0
0
1
0 15 0 2
0
end_operator
begin_operator
tnf-forget-15-1
0
1
0 15 1 2
0
end_operator
begin_operator
tnf-forget-16-0
0
1
0 16 0 2
0
end_operator
begin_operator
tnf-forget-16-1
0
1
0 16 1 2
0
end_operator
begin_operator
tnf-forget-17-0
0
1
0 17 0 2
0
end_operator
begin_operator
tnf-forget-17-1
0
1
0 17 1 2
0
end_operator
begin_operator
tnf-forget-18-0
0
1
0 18 0 2
0
end_operator
begin_operator
tnf-forget-18-1
0
1
0 18 1 2
0
end_operator
begin_operator
tnf-forget-19-0
0
1
0 19 0 2
0
end_operator
begin_operator
tnf-forget-19-1
0
1
0 19 1 2
0
end_operator
begin_operator
tnf-forget-20-0
0
1
0 20 0 2
0
end_operator
begin_operator
tnf-forget-20-1
0
1
0 20 1 2
0
end_operator
begin_operator
tnf-forget-21-0
0
1
0 21 0 3
0
end_operator
begin_operator
tnf-forget-21-1
0
1
0 21 1 3
0
end_operator
begin_operator
tnf-forget-21-2
0
1
0 21 2 3
0
end_operator
begin_operator
tnf-forget-22-0
0
1
0 22 0 3
0
end_operator
begin_operator
tnf-forget-22-1
0
1
0 22 1 3
0
end_operator
begin_operator
tnf-forget-22-2
0
1
0 22 2 3
0
end_operator
0
