Maximal 76:
 (notprintedwith sheet1 back black):fam:G
 (notprintedwith sheet1 back color):fam:G
 (notprintedwith sheet1 front black):fam:G
 (notprintedwith sheet10 back black):fam:G
 (notprintedwith sheet10 back color):fam:G
 (notprintedwith sheet10 front color):fam:G
 (notprintedwith sheet2 back black):fam:G
 (notprintedwith sheet2 back color):fam:G
 (notprintedwith sheet2 front black):fam:G
 (notprintedwith sheet3 back black):fam:G
 (notprintedwith sheet3 back color):fam:G
 (notprintedwith sheet3 front color):fam:G
 (notprintedwith sheet4 back black):fam:G
 (notprintedwith sheet4 back color):fam:G
 (notprintedwith sheet4 front color):fam:G
 (notprintedwith sheet5 back black):fam:G
 (notprintedwith sheet5 back color):fam:G
 (notprintedwith sheet5 front color):fam:G
 (notprintedwith sheet6 back black):fam:G
 (notprintedwith sheet6 back color):fam:G
 (notprintedwith sheet6 front black):fam:G
 (notprintedwith sheet7 back black):fam:G
 (notprintedwith sheet7 back color):fam:G
 (notprintedwith sheet7 front color):fam:G
 (notprintedwith sheet8 back black):fam:G
 (notprintedwith sheet8 front black):fam:G
 (notprintedwith sheet9 back black):fam:G
 (notprintedwith sheet9 back color):fam:G
 (notprintedwith sheet9 front color):fam:G
 (available fe1-rsrc) (uninitialized):=1:fam
 (available hw1-rsrc) (uninitialized):=1:fam
 (available lc1-rsrc) (uninitialized):=1:fam
 (available lime-rsrc) (uninitialized):=1:fam
 (available sys-rsrc) (uninitialized):=1:fam
 (available uc1-rsrc) (uninitialized):=1:fam
 (available uime-rsrc) (uninitialized):=1:fam
 (hasimage sheet1 front image-1) (notprintedwith sheet1 front color):fam:G
 (hasimage sheet10 front image-10) (notprintedwith sheet10 front black):fam:G
 (hasimage sheet2 front image-2) (notprintedwith sheet2 front color):fam:G
 (hasimage sheet3 front image-3) (notprintedwith sheet3 front black):fam:G
 (hasimage sheet4 front image-4) (notprintedwith sheet4 front black):fam:G
 (hasimage sheet5 front image-5) (notprintedwith sheet5 front black):fam:G
 (hasimage sheet6 front image-6) (notprintedwith sheet6 front color):fam:G
 (hasimage sheet7 front image-7) (notprintedwith sheet7 front black):fam:G
 (hasimage sheet8 back image-8b) (notprintedwith sheet8 back color):fam:G
 (hasimage sheet8 front image-8) (notprintedwith sheet8 front color):fam:G
 (hasimage sheet9 front image-9) (notprintedwith sheet9 front black):fam:G
 (location sheet1 some_feeder_tray) (sideup sheet1 back) (sideup sheet1 front):=1:fam:G
 (location sheet10 some_feeder_tray) (sideup sheet10 back) (sideup sheet10 front):=1:fam:G
 (location sheet2 some_feeder_tray) (sideup sheet2 back) (sideup sheet2 front):=1:fam:G
 (location sheet3 some_feeder_tray) (sideup sheet3 back) (sideup sheet3 front):=1:fam:G
 (location sheet4 some_feeder_tray) (sideup sheet4 back) (sideup sheet4 front):=1:fam:G
 (location sheet5 some_feeder_tray) (sideup sheet5 back) (sideup sheet5 front):=1:fam:G
 (location sheet6 some_feeder_tray) (sideup sheet6 back) (sideup sheet6 front):=1:fam:G
 (location sheet7 some_feeder_tray) (sideup sheet7 back) (sideup sheet7 front):=1:fam:G
 (location sheet8 some_feeder_tray) (sideup sheet8 back) (sideup sheet8 front):=1:fam:G
 (location sheet9 some_feeder_tray) (sideup sheet9 back) (sideup sheet9 front):=1:fam:G
 (location sheet1 fe1_exit-hw1_leftentry) (location sheet1 hw1_rightexit-sys_entry) (location sheet1 hw1_toprightentry-uc1_exit) (location sheet1 lc1_entry-hw1_bottomleftexit) (location sheet1 lc1_entryfromime-lime_exit) (location sheet1 lc1_exit-hw1_bottomrightentry) (location sheet1 lime_entry-lc1_exittoime) (location sheet1 some_feeder_tray) (location sheet1 some_finisher_tray) (location sheet1 uc1_entry-hw1_topleftexit) (location sheet1 uc1_exittoime-uime_entry) (location sheet1 uime_exit-uc1_entryfromime):=1:fam
 (location sheet1 fe1_exit-hw1_leftentry) (location sheet1 hw1_rightexit-sys_entry) (location sheet1 hw1_toprightentry-uc1_exit) (location sheet1 lc1_entry-hw1_bottomleftexit) (location sheet1 lc1_entryfromime-lime_exit) (location sheet1 lc1_exit-hw1_bottomrightentry) (location sheet1 lime_entry-lc1_exittoime) (location sheet1 some_feeder_tray) (location sheet1 uc1_entry-hw1_topleftexit) (location sheet1 uc1_exittoime-uime_entry) (location sheet1 uime_exit-uc1_entryfromime) (stackedin sheet1 sys_outputtray):=1:fam:G
 (location sheet10 fe1_exit-hw1_leftentry) (location sheet10 hw1_rightexit-sys_entry) (location sheet10 hw1_toprightentry-uc1_exit) (location sheet10 lc1_entry-hw1_bottomleftexit) (location sheet10 lc1_entryfromime-lime_exit) (location sheet10 lc1_exit-hw1_bottomrightentry) (location sheet10 lime_entry-lc1_exittoime) (location sheet10 some_feeder_tray) (location sheet10 uc1_entry-hw1_topleftexit) (location sheet10 uc1_exittoime-uime_entry) (location sheet10 uime_exit-uc1_entryfromime) (stackedin sheet10 sys_outputtray):=1:fam:G
 (location sheet2 fe1_exit-hw1_leftentry) (location sheet2 hw1_rightexit-sys_entry) (location sheet2 hw1_toprightentry-uc1_exit) (location sheet2 lc1_entry-hw1_bottomleftexit) (location sheet2 lc1_entryfromime-lime_exit) (location sheet2 lc1_exit-hw1_bottomrightentry) (location sheet2 lime_entry-lc1_exittoime) (location sheet2 some_feeder_tray) (location sheet2 some_finisher_tray) (location sheet2 uc1_entry-hw1_topleftexit) (location sheet2 uc1_exittoime-uime_entry) (location sheet2 uime_exit-uc1_entryfromime):=1:fam
 (location sheet2 fe1_exit-hw1_leftentry) (location sheet2 hw1_rightexit-sys_entry) (location sheet2 hw1_toprightentry-uc1_exit) (location sheet2 lc1_entry-hw1_bottomleftexit) (location sheet2 lc1_entryfromime-lime_exit) (location sheet2 lc1_exit-hw1_bottomrightentry) (location sheet2 lime_entry-lc1_exittoime) (location sheet2 some_feeder_tray) (location sheet2 uc1_entry-hw1_topleftexit) (location sheet2 uc1_exittoime-uime_entry) (location sheet2 uime_exit-uc1_entryfromime) (stackedin sheet2 sys_outputtray):=1:fam:G
 (location sheet3 fe1_exit-hw1_leftentry) (location sheet3 hw1_rightexit-sys_entry) (location sheet3 hw1_toprightentry-uc1_exit) (location sheet3 lc1_entry-hw1_bottomleftexit) (location sheet3 lc1_entryfromime-lime_exit) (location sheet3 lc1_exit-hw1_bottomrightentry) (location sheet3 lime_entry-lc1_exittoime) (location sheet3 some_feeder_tray) (location sheet3 some_finisher_tray) (location sheet3 uc1_entry-hw1_topleftexit) (location sheet3 uc1_exittoime-uime_entry) (location sheet3 uime_exit-uc1_entryfromime):=1:fam
 (location sheet3 fe1_exit-hw1_leftentry) (location sheet3 hw1_rightexit-sys_entry) (location sheet3 hw1_toprightentry-uc1_exit) (location sheet3 lc1_entry-hw1_bottomleftexit) (location sheet3 lc1_entryfromime-lime_exit) (location sheet3 lc1_exit-hw1_bottomrightentry) (location sheet3 lime_entry-lc1_exittoime) (location sheet3 some_feeder_tray) (location sheet3 uc1_entry-hw1_topleftexit) (location sheet3 uc1_exittoime-uime_entry) (location sheet3 uime_exit-uc1_entryfromime) (stackedin sheet3 sys_outputtray):=1:fam:G
 (location sheet4 fe1_exit-hw1_leftentry) (location sheet4 hw1_rightexit-sys_entry) (location sheet4 hw1_toprightentry-uc1_exit) (location sheet4 lc1_entry-hw1_bottomleftexit) (location sheet4 lc1_entryfromime-lime_exit) (location sheet4 lc1_exit-hw1_bottomrightentry) (location sheet4 lime_entry-lc1_exittoime) (location sheet4 some_feeder_tray) (location sheet4 some_finisher_tray) (location sheet4 uc1_entry-hw1_topleftexit) (location sheet4 uc1_exittoime-uime_entry) (location sheet4 uime_exit-uc1_entryfromime):=1:fam
 (location sheet4 fe1_exit-hw1_leftentry) (location sheet4 hw1_rightexit-sys_entry) (location sheet4 hw1_toprightentry-uc1_exit) (location sheet4 lc1_entry-hw1_bottomleftexit) (location sheet4 lc1_entryfromime-lime_exit) (location sheet4 lc1_exit-hw1_bottomrightentry) (location sheet4 lime_entry-lc1_exittoime) (location sheet4 some_feeder_tray) (location sheet4 uc1_entry-hw1_topleftexit) (location sheet4 uc1_exittoime-uime_entry) (location sheet4 uime_exit-uc1_entryfromime) (stackedin sheet4 sys_outputtray):=1:fam:G
 (location sheet5 fe1_exit-hw1_leftentry) (location sheet5 hw1_rightexit-sys_entry) (location sheet5 hw1_toprightentry-uc1_exit) (location sheet5 lc1_entry-hw1_bottomleftexit) (location sheet5 lc1_entryfromime-lime_exit) (location sheet5 lc1_exit-hw1_bottomrightentry) (location sheet5 lime_entry-lc1_exittoime) (location sheet5 some_feeder_tray) (location sheet5 some_finisher_tray) (location sheet5 uc1_entry-hw1_topleftexit) (location sheet5 uc1_exittoime-uime_entry) (location sheet5 uime_exit-uc1_entryfromime):=1:fam
 (location sheet5 fe1_exit-hw1_leftentry) (location sheet5 hw1_rightexit-sys_entry) (location sheet5 hw1_toprightentry-uc1_exit) (location sheet5 lc1_entry-hw1_bottomleftexit) (location sheet5 lc1_entryfromime-lime_exit) (location sheet5 lc1_exit-hw1_bottomrightentry) (location sheet5 lime_entry-lc1_exittoime) (location sheet5 some_feeder_tray) (location sheet5 uc1_entry-hw1_topleftexit) (location sheet5 uc1_exittoime-uime_entry) (location sheet5 uime_exit-uc1_entryfromime) (stackedin sheet5 sys_outputtray):=1:fam:G
 (location sheet6 fe1_exit-hw1_leftentry) (location sheet6 hw1_rightexit-sys_entry) (location sheet6 hw1_toprightentry-uc1_exit) (location sheet6 lc1_entry-hw1_bottomleftexit) (location sheet6 lc1_entryfromime-lime_exit) (location sheet6 lc1_exit-hw1_bottomrightentry) (location sheet6 lime_entry-lc1_exittoime) (location sheet6 some_feeder_tray) (location sheet6 some_finisher_tray) (location sheet6 uc1_entry-hw1_topleftexit) (location sheet6 uc1_exittoime-uime_entry) (location sheet6 uime_exit-uc1_entryfromime):=1:fam
 (location sheet6 fe1_exit-hw1_leftentry) (location sheet6 hw1_rightexit-sys_entry) (location sheet6 hw1_toprightentry-uc1_exit) (location sheet6 lc1_entry-hw1_bottomleftexit) (location sheet6 lc1_entryfromime-lime_exit) (location sheet6 lc1_exit-hw1_bottomrightentry) (location sheet6 lime_entry-lc1_exittoime) (location sheet6 some_feeder_tray) (location sheet6 uc1_entry-hw1_topleftexit) (location sheet6 uc1_exittoime-uime_entry) (location sheet6 uime_exit-uc1_entryfromime) (stackedin sheet6 sys_outputtray):=1:fam:G
 (location sheet7 fe1_exit-hw1_leftentry) (location sheet7 hw1_rightexit-sys_entry) (location sheet7 hw1_toprightentry-uc1_exit) (location sheet7 lc1_entry-hw1_bottomleftexit) (location sheet7 lc1_entryfromime-lime_exit) (location sheet7 lc1_exit-hw1_bottomrightentry) (location sheet7 lime_entry-lc1_exittoime) (location sheet7 some_feeder_tray) (location sheet7 some_finisher_tray) (location sheet7 uc1_entry-hw1_topleftexit) (location sheet7 uc1_exittoime-uime_entry) (location sheet7 uime_exit-uc1_entryfromime):=1:fam
 (location sheet7 fe1_exit-hw1_leftentry) (location sheet7 hw1_rightexit-sys_entry) (location sheet7 hw1_toprightentry-uc1_exit) (location sheet7 lc1_entry-hw1_bottomleftexit) (location sheet7 lc1_entryfromime-lime_exit) (location sheet7 lc1_exit-hw1_bottomrightentry) (location sheet7 lime_entry-lc1_exittoime) (location sheet7 some_feeder_tray) (location sheet7 uc1_entry-hw1_topleftexit) (location sheet7 uc1_exittoime-uime_entry) (location sheet7 uime_exit-uc1_entryfromime) (stackedin sheet7 sys_outputtray):=1:fam:G
 (location sheet8 fe1_exit-hw1_leftentry) (location sheet8 hw1_rightexit-sys_entry) (location sheet8 hw1_toprightentry-uc1_exit) (location sheet8 lc1_entry-hw1_bottomleftexit) (location sheet8 lc1_entryfromime-lime_exit) (location sheet8 lc1_exit-hw1_bottomrightentry) (location sheet8 lime_entry-lc1_exittoime) (location sheet8 some_feeder_tray) (location sheet8 some_finisher_tray) (location sheet8 uc1_entry-hw1_topleftexit) (location sheet8 uc1_exittoime-uime_entry) (location sheet8 uime_exit-uc1_entryfromime):=1:fam
 (location sheet8 fe1_exit-hw1_leftentry) (location sheet8 hw1_rightexit-sys_entry) (location sheet8 hw1_toprightentry-uc1_exit) (location sheet8 lc1_entry-hw1_bottomleftexit) (location sheet8 lc1_entryfromime-lime_exit) (location sheet8 lc1_exit-hw1_bottomrightentry) (location sheet8 lime_entry-lc1_exittoime) (location sheet8 some_feeder_tray) (location sheet8 uc1_entry-hw1_topleftexit) (location sheet8 uc1_exittoime-uime_entry) (location sheet8 uime_exit-uc1_entryfromime) (stackedin sheet8 sys_outputtray):=1:fam:G
 (location sheet9 fe1_exit-hw1_leftentry) (location sheet9 hw1_rightexit-sys_entry) (location sheet9 hw1_toprightentry-uc1_exit) (location sheet9 lc1_entry-hw1_bottomleftexit) (location sheet9 lc1_entryfromime-lime_exit) (location sheet9 lc1_exit-hw1_bottomrightentry) (location sheet9 lime_entry-lc1_exittoime) (location sheet9 some_feeder_tray) (location sheet9 some_finisher_tray) (location sheet9 uc1_entry-hw1_topleftexit) (location sheet9 uc1_exittoime-uime_entry) (location sheet9 uime_exit-uc1_entryfromime):=1:fam
 (location sheet9 fe1_exit-hw1_leftentry) (location sheet9 hw1_rightexit-sys_entry) (location sheet9 hw1_toprightentry-uc1_exit) (location sheet9 lc1_entry-hw1_bottomleftexit) (location sheet9 lc1_entryfromime-lime_exit) (location sheet9 lc1_exit-hw1_bottomrightentry) (location sheet9 lime_entry-lc1_exittoime) (location sheet9 some_feeder_tray) (location sheet9 uc1_entry-hw1_topleftexit) (location sheet9 uc1_exittoime-uime_entry) (location sheet9 uime_exit-uc1_entryfromime) (stackedin sheet9 sys_outputtray):=1:fam:G


Mutex Group Cover Number: 76
