 (location sheet1 some_feeder_tray):fam
 (notprintedwith sheet1 back black):=1:fam:G
 (notprintedwith sheet1 front black):fam
 (uninitialized):fam
 (available blackcontainer-rsrc) (uninitialized):=1:fam
 (available blackfeeder-rsrc) (uninitialized):=1:fam
 (available blackprinter-rsrc) (uninitialized):=1:fam
 (available colorcontainer-rsrc) (uninitialized):=1:fam
 (available colorfeeder-rsrc) (uninitialized):=1:fam
 (available colorprinter-rsrc) (uninitialized):=1:fam
 (available down-rsrc) (uninitialized):=1:fam
 (available endcap-rsrc) (uninitialized):=1:fam
 (available finisher1-rsrc) (uninitialized):=1:fam
 (available htmoverblack-rsrc) (uninitialized):=1:fam
 (available htmovercolor-rsrc) (uninitialized):=1:fam
 (available up-rsrc) (uninitialized):=1:fam
 (hasimage sheet1 front image-1) (notprintedwith sheet1 front black):=1:fam:G
 (location sheet1 blackcontainer_entry-blackfeeder_exit) (location sheet1 some_feeder_tray):fam
 (location sheet1 blackprinter_exit-blackcontainer_entryfromime) (notprintedwith sheet1 front black):fam
 (location sheet1 colorprinter_exit-colorcontainer_entryfromime) (notprintedwith sheet1 front black):fam
 (location sheet1 down_bottomentry-colorfeeder_exit) (location sheet1 some_feeder_tray):fam
 (location sheet1 some_feeder_tray) (sideup sheet1 front):=1:fam:G
 (location sheet1 blackcontainer_entry-blackfeeder_exit) (location sheet1 blackcontainer_exittoime-blackprinter_entry) (location sheet1 some_feeder_tray):fam
 (location sheet1 blackcontainer_entry-blackfeeder_exit) (location sheet1 down_bottomentry-colorfeeder_exit) (location sheet1 some_feeder_tray):fam
 (location sheet1 blackprinter_exit-blackcontainer_entryfromime) (location sheet1 colorprinter_exit-colorcontainer_entryfromime) (notprintedwith sheet1 front black):fam
 (location sheet1 blackprinter_exit-blackcontainer_entryfromime) (location sheet1 endcap_entry-blackcontainer_exit) (notprintedwith sheet1 front black):fam
 (location sheet1 colorcontainer_exit-up_bottomentry) (location sheet1 colorprinter_exit-colorcontainer_entryfromime) (notprintedwith sheet1 front black):fam
 (location sheet1 blackcontainer_entry-blackfeeder_exit) (location sheet1 blackcontainer_exittoime-blackprinter_entry) (location sheet1 blackprinter_exit-blackcontainer_entryfromime) (location sheet1 some_feeder_tray):fam
 (location sheet1 blackcontainer_entry-blackfeeder_exit) (location sheet1 blackcontainer_exittoime-blackprinter_entry) (location sheet1 down_bottomentry-colorfeeder_exit) (location sheet1 some_feeder_tray):fam
 (location sheet1 blackprinter_exit-blackcontainer_entryfromime) (location sheet1 colorcontainer_exit-up_bottomentry) (location sheet1 colorprinter_exit-colorcontainer_entryfromime) (notprintedwith sheet1 front black):fam
 (location sheet1 blackprinter_exit-blackcontainer_entryfromime) (location sheet1 colorprinter_exit-colorcontainer_entryfromime) (location sheet1 endcap_entry-blackcontainer_exit) (notprintedwith sheet1 front black):fam
 (location sheet1 blackprinter_exit-blackcontainer_entryfromime) (location sheet1 endcap_entry-blackcontainer_exit) (location sheet1 htmoverblack_entry-endcap_exit) (notprintedwith sheet1 front black):fam
 (location sheet1 blackcontainer_entry-blackfeeder_exit) (location sheet1 blackcontainer_exittoime-blackprinter_entry) (location sheet1 blackprinter_exit-blackcontainer_entryfromime) (location sheet1 down_bottomentry-colorfeeder_exit) (location sheet1 some_feeder_tray):fam
 (location sheet1 blackcontainer_entry-blackfeeder_exit) (location sheet1 blackcontainer_exittoime-blackprinter_entry) (location sheet1 blackprinter_exit-blackcontainer_entryfromime) (location sheet1 endcap_entry-blackcontainer_exit) (location sheet1 some_feeder_tray):fam
 (location sheet1 blackprinter_exit-blackcontainer_entryfromime) (location sheet1 colorcontainer_exit-up_bottomentry) (location sheet1 colorprinter_exit-colorcontainer_entryfromime) (location sheet1 endcap_entry-blackcontainer_exit) (notprintedwith sheet1 front black):fam
 (location sheet1 blackprinter_exit-blackcontainer_entryfromime) (location sheet1 colorprinter_exit-colorcontainer_entryfromime) (location sheet1 endcap_entry-blackcontainer_exit) (location sheet1 htmoverblack_entry-endcap_exit) (notprintedwith sheet1 front black):fam
 (location sheet1 blackprinter_exit-blackcontainer_entryfromime) (location sheet1 endcap_entry-blackcontainer_exit) (location sheet1 htmoverblack_entry-endcap_exit) (location sheet1 htmoverblack_exit-down_topentry) (notprintedwith sheet1 front black):fam
 (location sheet1 blackcontainer_entry-blackfeeder_exit) (location sheet1 blackcontainer_exittoime-blackprinter_entry) (location sheet1 blackprinter_exit-blackcontainer_entryfromime) (location sheet1 down_bottomentry-colorfeeder_exit) (location sheet1 endcap_entry-blackcontainer_exit) (location sheet1 some_feeder_tray):fam
 (location sheet1 blackcontainer_entry-blackfeeder_exit) (location sheet1 blackcontainer_exittoime-blackprinter_entry) (location sheet1 blackprinter_exit-blackcontainer_entryfromime) (location sheet1 endcap_entry-blackcontainer_exit) (location sheet1 htmoverblack_entry-endcap_exit) (location sheet1 some_feeder_tray):fam
 (location sheet1 blackprinter_exit-blackcontainer_entryfromime) (location sheet1 colorcontainer_exit-up_bottomentry) (location sheet1 colorprinter_exit-colorcontainer_entryfromime) (location sheet1 endcap_entry-blackcontainer_exit) (location sheet1 htmoverblack_entry-endcap_exit) (notprintedwith sheet1 front black):fam
 (location sheet1 blackprinter_exit-blackcontainer_entryfromime) (location sheet1 colorprinter_exit-colorcontainer_entryfromime) (location sheet1 endcap_entry-blackcontainer_exit) (location sheet1 htmoverblack_entry-endcap_exit) (location sheet1 htmoverblack_exit-down_topentry) (notprintedwith sheet1 front black):fam
 (location sheet1 blackprinter_exit-blackcontainer_entryfromime) (location sheet1 down_topexit-htmovercolor_entry) (location sheet1 endcap_entry-blackcontainer_exit) (location sheet1 htmoverblack_entry-endcap_exit) (location sheet1 htmoverblack_exit-down_topentry) (notprintedwith sheet1 front black):fam
 (location sheet1 blackcontainer_entry-blackfeeder_exit) (location sheet1 blackcontainer_exittoime-blackprinter_entry) (location sheet1 blackprinter_exit-blackcontainer_entryfromime) (location sheet1 down_bottomentry-colorfeeder_exit) (location sheet1 endcap_entry-blackcontainer_exit) (location sheet1 htmoverblack_entry-endcap_exit) (location sheet1 some_feeder_tray):fam
 (location sheet1 blackcontainer_entry-blackfeeder_exit) (location sheet1 blackcontainer_exittoime-blackprinter_entry) (location sheet1 blackprinter_exit-blackcontainer_entryfromime) (location sheet1 endcap_entry-blackcontainer_exit) (location sheet1 htmoverblack_entry-endcap_exit) (location sheet1 htmoverblack_exit-down_topentry) (location sheet1 some_feeder_tray):fam
 (location sheet1 blackprinter_exit-blackcontainer_entryfromime) (location sheet1 colorcontainer_exit-up_bottomentry) (location sheet1 colorprinter_exit-colorcontainer_entryfromime) (location sheet1 endcap_entry-blackcontainer_exit) (location sheet1 htmoverblack_entry-endcap_exit) (location sheet1 htmoverblack_exit-down_topentry) (notprintedwith sheet1 front black):fam
 (location sheet1 blackprinter_exit-blackcontainer_entryfromime) (location sheet1 colorprinter_exit-colorcontainer_entryfromime) (location sheet1 down_topexit-htmovercolor_entry) (location sheet1 endcap_entry-blackcontainer_exit) (location sheet1 htmoverblack_entry-endcap_exit) (location sheet1 htmoverblack_exit-down_topentry) (notprintedwith sheet1 front black):fam
 (location sheet1 blackprinter_exit-blackcontainer_entryfromime) (location sheet1 down_topexit-htmovercolor_entry) (location sheet1 endcap_entry-blackcontainer_exit) (location sheet1 htmoverblack_entry-endcap_exit) (location sheet1 htmoverblack_exit-down_topentry) (location sheet1 htmovercolor_exit-up_topentry) (notprintedwith sheet1 front black):fam
 (location sheet1 blackcontainer_entry-blackfeeder_exit) (location sheet1 blackcontainer_exittoime-blackprinter_entry) (location sheet1 blackprinter_exit-blackcontainer_entryfromime) (location sheet1 down_bottomentry-colorfeeder_exit) (location sheet1 endcap_entry-blackcontainer_exit) (location sheet1 htmoverblack_entry-endcap_exit) (location sheet1 htmoverblack_exit-down_topentry) (location sheet1 some_feeder_tray):fam
 (location sheet1 blackcontainer_entry-blackfeeder_exit) (location sheet1 blackcontainer_exittoime-blackprinter_entry) (location sheet1 blackprinter_exit-blackcontainer_entryfromime) (location sheet1 down_topexit-htmovercolor_entry) (location sheet1 endcap_entry-blackcontainer_exit) (location sheet1 htmoverblack_entry-endcap_exit) (location sheet1 htmoverblack_exit-down_topentry) (location sheet1 some_feeder_tray):fam
 (location sheet1 blackprinter_exit-blackcontainer_entryfromime) (location sheet1 colorcontainer_exit-up_bottomentry) (location sheet1 colorprinter_exit-colorcontainer_entryfromime) (location sheet1 down_topexit-htmovercolor_entry) (location sheet1 endcap_entry-blackcontainer_exit) (location sheet1 htmoverblack_entry-endcap_exit) (location sheet1 htmoverblack_exit-down_topentry) (notprintedwith sheet1 front black):fam
 (location sheet1 blackprinter_exit-blackcontainer_entryfromime) (location sheet1 colorprinter_exit-colorcontainer_entryfromime) (location sheet1 down_topexit-htmovercolor_entry) (location sheet1 endcap_entry-blackcontainer_exit) (location sheet1 htmoverblack_entry-endcap_exit) (location sheet1 htmoverblack_exit-down_topentry) (location sheet1 htmovercolor_exit-up_topentry) (notprintedwith sheet1 front black):fam
 (location sheet1 blackcontainer_entry-blackfeeder_exit) (location sheet1 blackcontainer_exittoime-blackprinter_entry) (location sheet1 blackprinter_exit-blackcontainer_entryfromime) (location sheet1 colorcontainer_entry-down_bottomexit) (location sheet1 down_bottomentry-colorfeeder_exit) (location sheet1 endcap_entry-blackcontainer_exit) (location sheet1 htmoverblack_entry-endcap_exit) (location sheet1 htmoverblack_exit-down_topentry) (location sheet1 some_feeder_tray):fam
 (location sheet1 blackcontainer_entry-blackfeeder_exit) (location sheet1 blackcontainer_exittoime-blackprinter_entry) (location sheet1 blackprinter_exit-blackcontainer_entryfromime) (location sheet1 down_bottomentry-colorfeeder_exit) (location sheet1 down_topexit-htmovercolor_entry) (location sheet1 endcap_entry-blackcontainer_exit) (location sheet1 htmoverblack_entry-endcap_exit) (location sheet1 htmoverblack_exit-down_topentry) (location sheet1 some_feeder_tray):fam
 (location sheet1 blackcontainer_entry-blackfeeder_exit) (location sheet1 blackcontainer_exittoime-blackprinter_entry) (location sheet1 blackprinter_exit-blackcontainer_entryfromime) (location sheet1 down_topexit-htmovercolor_entry) (location sheet1 endcap_entry-blackcontainer_exit) (location sheet1 htmoverblack_entry-endcap_exit) (location sheet1 htmoverblack_exit-down_topentry) (location sheet1 htmovercolor_exit-up_topentry) (location sheet1 some_feeder_tray):fam
 (location sheet1 blackprinter_exit-blackcontainer_entryfromime) (location sheet1 colorcontainer_exit-up_bottomentry) (location sheet1 colorprinter_exit-colorcontainer_entryfromime) (location sheet1 down_topexit-htmovercolor_entry) (location sheet1 endcap_entry-blackcontainer_exit) (location sheet1 htmoverblack_entry-endcap_exit) (location sheet1 htmoverblack_exit-down_topentry) (location sheet1 htmovercolor_exit-up_topentry) (notprintedwith sheet1 front black):fam
 (location sheet1 blackcontainer_entry-blackfeeder_exit) (location sheet1 blackcontainer_exittoime-blackprinter_entry) (location sheet1 blackprinter_exit-blackcontainer_entryfromime) (location sheet1 colorcontainer_entry-down_bottomexit) (location sheet1 colorcontainer_exittoime-colorprinter_entry) (location sheet1 down_bottomentry-colorfeeder_exit) (location sheet1 endcap_entry-blackcontainer_exit) (location sheet1 htmoverblack_entry-endcap_exit) (location sheet1 htmoverblack_exit-down_topentry) (location sheet1 some_feeder_tray):fam
 (location sheet1 blackcontainer_entry-blackfeeder_exit) (location sheet1 blackcontainer_exittoime-blackprinter_entry) (location sheet1 blackprinter_exit-blackcontainer_entryfromime) (location sheet1 colorcontainer_entry-down_bottomexit) (location sheet1 down_bottomentry-colorfeeder_exit) (location sheet1 down_topexit-htmovercolor_entry) (location sheet1 endcap_entry-blackcontainer_exit) (location sheet1 htmoverblack_entry-endcap_exit) (location sheet1 htmoverblack_exit-down_topentry) (location sheet1 some_feeder_tray):fam
 (location sheet1 blackcontainer_entry-blackfeeder_exit) (location sheet1 blackcontainer_exittoime-blackprinter_entry) (location sheet1 blackprinter_exit-blackcontainer_entryfromime) (location sheet1 down_bottomentry-colorfeeder_exit) (location sheet1 down_topexit-htmovercolor_entry) (location sheet1 endcap_entry-blackcontainer_exit) (location sheet1 htmoverblack_entry-endcap_exit) (location sheet1 htmoverblack_exit-down_topentry) (location sheet1 htmovercolor_exit-up_topentry) (location sheet1 some_feeder_tray):fam
 (location sheet1 blackprinter_exit-blackcontainer_entryfromime) (location sheet1 colorcontainer_exit-up_bottomentry) (location sheet1 colorprinter_exit-colorcontainer_entryfromime) (location sheet1 down_topexit-htmovercolor_entry) (location sheet1 endcap_entry-blackcontainer_exit) (location sheet1 finisher1_entry-up_topexit) (location sheet1 htmoverblack_entry-endcap_exit) (location sheet1 htmoverblack_exit-down_topentry) (location sheet1 htmovercolor_exit-up_topentry) (notprintedwith sheet1 front black):fam
 (location sheet1 blackcontainer_entry-blackfeeder_exit) (location sheet1 blackcontainer_exittoime-blackprinter_entry) (location sheet1 blackprinter_exit-blackcontainer_entryfromime) (location sheet1 colorcontainer_entry-down_bottomexit) (location sheet1 colorcontainer_exittoime-colorprinter_entry) (location sheet1 colorprinter_exit-colorcontainer_entryfromime) (location sheet1 down_bottomentry-colorfeeder_exit) (location sheet1 endcap_entry-blackcontainer_exit) (location sheet1 htmoverblack_entry-endcap_exit) (location sheet1 htmoverblack_exit-down_topentry) (location sheet1 some_feeder_tray):fam
 (location sheet1 blackcontainer_entry-blackfeeder_exit) (location sheet1 blackcontainer_exittoime-blackprinter_entry) (location sheet1 blackprinter_exit-blackcontainer_entryfromime) (location sheet1 colorcontainer_entry-down_bottomexit) (location sheet1 colorcontainer_exittoime-colorprinter_entry) (location sheet1 down_bottomentry-colorfeeder_exit) (location sheet1 down_topexit-htmovercolor_entry) (location sheet1 endcap_entry-blackcontainer_exit) (location sheet1 htmoverblack_entry-endcap_exit) (location sheet1 htmoverblack_exit-down_topentry) (location sheet1 some_feeder_tray):fam
 (location sheet1 blackcontainer_entry-blackfeeder_exit) (location sheet1 blackcontainer_exittoime-blackprinter_entry) (location sheet1 blackprinter_exit-blackcontainer_entryfromime) (location sheet1 colorcontainer_entry-down_bottomexit) (location sheet1 down_bottomentry-colorfeeder_exit) (location sheet1 down_topexit-htmovercolor_entry) (location sheet1 endcap_entry-blackcontainer_exit) (location sheet1 htmoverblack_entry-endcap_exit) (location sheet1 htmoverblack_exit-down_topentry) (location sheet1 htmovercolor_exit-up_topentry) (location sheet1 some_feeder_tray):fam
 (location sheet1 blackprinter_exit-blackcontainer_entryfromime) (location sheet1 colorcontainer_exit-up_bottomentry) (location sheet1 colorprinter_exit-colorcontainer_entryfromime) (location sheet1 down_topexit-htmovercolor_entry) (location sheet1 endcap_entry-blackcontainer_exit) (location sheet1 finisher1_entry-up_topexit) (location sheet1 htmoverblack_entry-endcap_exit) (location sheet1 htmoverblack_exit-down_topentry) (location sheet1 htmovercolor_exit-up_topentry) (notprintedwith sheet1 front black) (stackedin sheet1 finisher1_tray):fam:G
 (location sheet1 blackcontainer_entry-blackfeeder_exit) (location sheet1 blackcontainer_exittoime-blackprinter_entry) (location sheet1 blackprinter_exit-blackcontainer_entryfromime) (location sheet1 colorcontainer_entry-down_bottomexit) (location sheet1 colorcontainer_exit-up_bottomentry) (location sheet1 colorcontainer_exittoime-colorprinter_entry) (location sheet1 colorprinter_exit-colorcontainer_entryfromime) (location sheet1 down_bottomentry-colorfeeder_exit) (location sheet1 endcap_entry-blackcontainer_exit) (location sheet1 htmoverblack_entry-endcap_exit) (location sheet1 htmoverblack_exit-down_topentry) (location sheet1 some_feeder_tray):fam
 (location sheet1 blackcontainer_entry-blackfeeder_exit) (location sheet1 blackcontainer_exittoime-blackprinter_entry) (location sheet1 blackprinter_exit-blackcontainer_entryfromime) (location sheet1 colorcontainer_entry-down_bottomexit) (location sheet1 colorcontainer_exittoime-colorprinter_entry) (location sheet1 colorprinter_exit-colorcontainer_entryfromime) (location sheet1 down_bottomentry-colorfeeder_exit) (location sheet1 down_topexit-htmovercolor_entry) (location sheet1 endcap_entry-blackcontainer_exit) (location sheet1 htmoverblack_entry-endcap_exit) (location sheet1 htmoverblack_exit-down_topentry) (location sheet1 some_feeder_tray):fam
 (location sheet1 blackcontainer_entry-blackfeeder_exit) (location sheet1 blackcontainer_exittoime-blackprinter_entry) (location sheet1 blackprinter_exit-blackcontainer_entryfromime) (location sheet1 colorcontainer_entry-down_bottomexit) (location sheet1 colorcontainer_exittoime-colorprinter_entry) (location sheet1 down_bottomentry-colorfeeder_exit) (location sheet1 down_topexit-htmovercolor_entry) (location sheet1 endcap_entry-blackcontainer_exit) (location sheet1 htmoverblack_entry-endcap_exit) (location sheet1 htmoverblack_exit-down_topentry) (location sheet1 htmovercolor_exit-up_topentry) (location sheet1 some_feeder_tray):fam
 (location sheet1 blackcontainer_entry-blackfeeder_exit) (location sheet1 blackcontainer_exittoime-blackprinter_entry) (location sheet1 blackprinter_exit-blackcontainer_entryfromime) (location sheet1 colorcontainer_entry-down_bottomexit) (location sheet1 colorcontainer_exit-up_bottomentry) (location sheet1 colorcontainer_exittoime-colorprinter_entry) (location sheet1 colorprinter_exit-colorcontainer_entryfromime) (location sheet1 down_bottomentry-colorfeeder_exit) (location sheet1 down_topexit-htmovercolor_entry) (location sheet1 endcap_entry-blackcontainer_exit) (location sheet1 htmoverblack_entry-endcap_exit) (location sheet1 htmoverblack_exit-down_topentry) (location sheet1 some_feeder_tray):fam
 (location sheet1 blackcontainer_entry-blackfeeder_exit) (location sheet1 blackcontainer_exittoime-blackprinter_entry) (location sheet1 blackprinter_exit-blackcontainer_entryfromime) (location sheet1 colorcontainer_entry-down_bottomexit) (location sheet1 colorcontainer_exittoime-colorprinter_entry) (location sheet1 colorprinter_exit-colorcontainer_entryfromime) (location sheet1 down_bottomentry-colorfeeder_exit) (location sheet1 down_topexit-htmovercolor_entry) (location sheet1 endcap_entry-blackcontainer_exit) (location sheet1 htmoverblack_entry-endcap_exit) (location sheet1 htmoverblack_exit-down_topentry) (location sheet1 htmovercolor_exit-up_topentry) (location sheet1 some_feeder_tray):fam
 (location sheet1 blackcontainer_entry-blackfeeder_exit) (location sheet1 blackcontainer_exittoime-blackprinter_entry) (location sheet1 blackprinter_exit-blackcontainer_entryfromime) (location sheet1 colorcontainer_entry-down_bottomexit) (location sheet1 colorcontainer_exit-up_bottomentry) (location sheet1 colorcontainer_exittoime-colorprinter_entry) (location sheet1 colorprinter_exit-colorcontainer_entryfromime) (location sheet1 down_bottomentry-colorfeeder_exit) (location sheet1 down_topexit-htmovercolor_entry) (location sheet1 endcap_entry-blackcontainer_exit) (location sheet1 htmoverblack_entry-endcap_exit) (location sheet1 htmoverblack_exit-down_topentry) (location sheet1 htmovercolor_exit-up_topentry) (location sheet1 some_feeder_tray):fam
 (location sheet1 blackcontainer_entry-blackfeeder_exit) (location sheet1 blackcontainer_exittoime-blackprinter_entry) (location sheet1 blackprinter_exit-blackcontainer_entryfromime) (location sheet1 colorcontainer_entry-down_bottomexit) (location sheet1 colorcontainer_exit-up_bottomentry) (location sheet1 colorcontainer_exittoime-colorprinter_entry) (location sheet1 colorprinter_exit-colorcontainer_entryfromime) (location sheet1 down_bottomentry-colorfeeder_exit) (location sheet1 down_topexit-htmovercolor_entry) (location sheet1 endcap_entry-blackcontainer_exit) (location sheet1 finisher1_entry-up_topexit) (location sheet1 htmoverblack_entry-endcap_exit) (location sheet1 htmoverblack_exit-down_topentry) (location sheet1 htmovercolor_exit-up_topentry) (location sheet1 some_feeder_tray):fam
 (location sheet1 blackcontainer_entry-blackfeeder_exit) (location sheet1 blackcontainer_exittoime-blackprinter_entry) (location sheet1 blackprinter_exit-blackcontainer_entryfromime) (location sheet1 colorcontainer_entry-down_bottomexit) (location sheet1 colorcontainer_exit-up_bottomentry) (location sheet1 colorcontainer_exittoime-colorprinter_entry) (location sheet1 colorprinter_exit-colorcontainer_entryfromime) (location sheet1 down_bottomentry-colorfeeder_exit) (location sheet1 down_topexit-htmovercolor_entry) (location sheet1 endcap_entry-blackcontainer_exit) (location sheet1 finisher1_entry-up_topexit) (location sheet1 htmoverblack_entry-endcap_exit) (location sheet1 htmoverblack_exit-down_topentry) (location sheet1 htmovercolor_exit-up_topentry) (location sheet1 some_feeder_tray) (stackedin sheet1 finisher1_tray):fam:G

