begin_version
3
end_version
begin_metric
1
end_metric
28
begin_variable
var0
-1
24
robot-at robot1 tile_0-1
robot-at robot1 tile_0-2
robot-at robot1 tile_0-3
robot-at robot1 tile_0-4
robot-at robot1 tile_1-1
robot-at robot1 tile_1-2
robot-at robot1 tile_1-3
robot-at robot1 tile_1-4
robot-at robot1 tile_2-1
robot-at robot1 tile_2-2
robot-at robot1 tile_2-3
robot-at robot1 tile_2-4
robot-at robot1 tile_3-1
robot-at robot1 tile_3-2
robot-at robot1 tile_3-3
robot-at robot1 tile_3-4
robot-at robot1 tile_4-1
robot-at robot1 tile_4-2
robot-at robot1 tile_4-3
robot-at robot1 tile_4-4
robot-at robot1 tile_5-1
robot-at robot1 tile_5-2
robot-at robot1 tile_5-3
robot-at robot1 tile_5-4
end_variable
begin_variable
var1
-1
24
robot-at robot2 tile_0-1
robot-at robot2 tile_0-2
robot-at robot2 tile_0-3
robot-at robot2 tile_0-4
robot-at robot2 tile_1-1
robot-at robot2 tile_1-2
robot-at robot2 tile_1-3
robot-at robot2 tile_1-4
robot-at robot2 tile_2-1
robot-at robot2 tile_2-2
robot-at robot2 tile_2-3
robot-at robot2 tile_2-4
robot-at robot2 tile_3-1
robot-at robot2 tile_3-2
robot-at robot2 tile_3-3
robot-at robot2 tile_3-4
robot-at robot2 tile_4-1
robot-at robot2 tile_4-2
robot-at robot2 tile_4-3
robot-at robot2 tile_4-4
robot-at robot2 tile_5-1
robot-at robot2 tile_5-2
robot-at robot2 tile_5-3
robot-at robot2 tile_5-4
end_variable
begin_variable
var2
-1
3
clear tile_1-1
painted tile_1-1 white
none-of-those
end_variable
begin_variable
var3
-1
3
clear tile_1-2
painted tile_1-2 black
none-of-those
end_variable
begin_variable
var4
-1
3
clear tile_1-3
painted tile_1-3 white
none-of-those
end_variable
begin_variable
var5
-1
3
clear tile_1-4
painted tile_1-4 black
none-of-those
end_variable
begin_variable
var6
-1
3
clear tile_2-1
painted tile_2-1 black
none-of-those
end_variable
begin_variable
var7
-1
3
clear tile_2-2
painted tile_2-2 white
none-of-those
end_variable
begin_variable
var8
-1
3
clear tile_2-3
painted tile_2-3 black
none-of-those
end_variable
begin_variable
var9
-1
3
clear tile_2-4
painted tile_2-4 white
none-of-those
end_variable
begin_variable
var10
-1
3
clear tile_3-1
painted tile_3-1 white
none-of-those
end_variable
begin_variable
var11
-1
3
clear tile_3-2
painted tile_3-2 black
none-of-those
end_variable
begin_variable
var12
-1
3
clear tile_3-3
painted tile_3-3 white
none-of-those
end_variable
begin_variable
var13
-1
3
clear tile_3-4
painted tile_3-4 black
none-of-those
end_variable
begin_variable
var14
-1
3
clear tile_4-1
painted tile_4-1 black
none-of-those
end_variable
begin_variable
var15
-1
3
clear tile_4-2
painted tile_4-2 white
none-of-those
end_variable
begin_variable
var16
-1
3
clear tile_4-3
painted tile_4-3 black
none-of-those
end_variable
begin_variable
var17
-1
3
clear tile_4-4
painted tile_4-4 white
none-of-those
end_variable
begin_variable
var18
-1
3
clear tile_5-1
painted tile_5-1 white
none-of-those
end_variable
begin_variable
var19
-1
3
clear tile_5-2
painted tile_5-2 black
none-of-those
end_variable
begin_variable
var20
-1
3
clear tile_5-3
painted tile_5-3 white
none-of-those
end_variable
begin_variable
var21
-1
3
clear tile_5-4
painted tile_5-4 black
none-of-those
end_variable
begin_variable
var22
-1
2
robot-has robot1 black
robot-has robot1 white
end_variable
begin_variable
var23
-1
2
robot-has robot2 black
robot-has robot2 white
end_variable
begin_variable
var24
-1
2
clear tile_0-1
none-of-those
end_variable
begin_variable
var25
-1
2
clear tile_0-2
none-of-those
end_variable
begin_variable
var26
-1
2
clear tile_0-3
none-of-those
end_variable
begin_variable
var27
-1
2
clear tile_0-4
none-of-those
end_variable
48
begin_mutex_group
2
22 0
22 1
end_mutex_group
begin_mutex_group
2
23 0
23 1
end_mutex_group
begin_mutex_group
3
24 0
0 0
1 0
end_mutex_group
begin_mutex_group
3
25 0
0 1
1 1
end_mutex_group
begin_mutex_group
3
26 0
0 2
1 2
end_mutex_group
begin_mutex_group
3
27 0
0 3
1 3
end_mutex_group
begin_mutex_group
3
2 0
0 4
1 4
end_mutex_group
begin_mutex_group
3
3 0
0 5
1 5
end_mutex_group
begin_mutex_group
3
4 0
0 6
1 6
end_mutex_group
begin_mutex_group
3
5 0
0 7
1 7
end_mutex_group
begin_mutex_group
3
6 0
0 8
1 8
end_mutex_group
begin_mutex_group
3
7 0
0 9
1 9
end_mutex_group
begin_mutex_group
3
8 0
0 10
1 10
end_mutex_group
begin_mutex_group
3
9 0
0 11
1 11
end_mutex_group
begin_mutex_group
3
10 0
0 12
1 12
end_mutex_group
begin_mutex_group
3
11 0
0 13
1 13
end_mutex_group
begin_mutex_group
3
12 0
0 14
1 14
end_mutex_group
begin_mutex_group
3
13 0
0 15
1 15
end_mutex_group
begin_mutex_group
3
14 0
0 16
1 16
end_mutex_group
begin_mutex_group
3
15 0
0 17
1 17
end_mutex_group
begin_mutex_group
3
16 0
0 18
1 18
end_mutex_group
begin_mutex_group
3
17 0
0 19
1 19
end_mutex_group
begin_mutex_group
3
18 0
0 20
1 20
end_mutex_group
begin_mutex_group
3
19 0
0 21
1 21
end_mutex_group
begin_mutex_group
3
20 0
0 22
1 22
end_mutex_group
begin_mutex_group
3
21 0
0 23
1 23
end_mutex_group
begin_mutex_group
4
2 0
2 1
0 4
1 4
end_mutex_group
begin_mutex_group
4
3 0
3 1
0 5
1 5
end_mutex_group
begin_mutex_group
4
4 0
4 1
0 6
1 6
end_mutex_group
begin_mutex_group
4
5 0
5 1
0 7
1 7
end_mutex_group
begin_mutex_group
4
6 0
6 1
0 8
1 8
end_mutex_group
begin_mutex_group
4
7 0
7 1
0 9
1 9
end_mutex_group
begin_mutex_group
4
8 0
8 1
0 10
1 10
end_mutex_group
begin_mutex_group
4
9 0
9 1
0 11
1 11
end_mutex_group
begin_mutex_group
4
10 0
10 1
0 12
1 12
end_mutex_group
begin_mutex_group
4
11 0
11 1
0 13
1 13
end_mutex_group
begin_mutex_group
4
12 0
12 1
0 14
1 14
end_mutex_group
begin_mutex_group
4
13 0
13 1
0 15
1 15
end_mutex_group
begin_mutex_group
4
14 0
14 1
0 16
1 16
end_mutex_group
begin_mutex_group
4
15 0
15 1
0 17
1 17
end_mutex_group
begin_mutex_group
4
16 0
16 1
0 18
1 18
end_mutex_group
begin_mutex_group
4
17 0
17 1
0 19
1 19
end_mutex_group
begin_mutex_group
4
18 0
18 1
0 20
1 20
end_mutex_group
begin_mutex_group
4
19 0
19 1
0 21
1 21
end_mutex_group
begin_mutex_group
4
20 0
20 1
0 22
1 22
end_mutex_group
begin_mutex_group
4
21 0
21 1
0 23
1 23
end_mutex_group
begin_mutex_group
24
0 0
0 1
0 2
0 3
0 4
0 5
0 6
0 7
0 8
0 9
0 10
0 11
0 12
0 13
0 14
0 15
0 16
0 17
0 18
0 19
0 20
0 21
0 22
0 23
end_mutex_group
begin_mutex_group
24
1 0
1 1
1 2
1 3
1 4
1 5
1 6
1 7
1 8
1 9
1 10
1 11
1 12
1 13
1 14
1 15
1 16
1 17
1 18
1 19
1 20
1 21
1 22
1 23
end_mutex_group
begin_state
16
17
0
0
0
0
0
0
0
0
0
0
0
0
2
2
0
0
0
0
0
0
1
0
0
0
0
0
end_state
begin_goal
20
2 1
3 1
4 1
5 1
6 1
7 1
8 1
9 1
10 1
11 1
12 1
13 1
14 1
15 1
16 1
17 1
18 1
19 1
20 1
21 1
end_goal
284
begin_operator
change-color robot1 black white
0
1
0 22 0 1
5
end_operator
begin_operator
change-color robot1 white black
0
1
0 22 1 0
5
end_operator
begin_operator
change-color robot2 black white
0
1
0 23 0 1
5
end_operator
begin_operator
change-color robot2 white black
0
1
0 23 1 0
5
end_operator
begin_operator
down robot1 tile_1-1 tile_0-1
0
3
0 0 4 0
0 2 -1 0
0 24 0 1
1
end_operator
begin_operator
down robot1 tile_1-2 tile_0-2
0
3
0 0 5 1
0 3 -1 0
0 25 0 1
1
end_operator
begin_operator
down robot1 tile_1-3 tile_0-3
0
3
0 0 6 2
0 4 -1 0
0 26 0 1
1
end_operator
begin_operator
down robot1 tile_1-4 tile_0-4
0
3
0 0 7 3
0 5 -1 0
0 27 0 1
1
end_operator
begin_operator
down robot1 tile_2-1 tile_1-1
0
3
0 0 8 4
0 2 0 2
0 6 -1 0
1
end_operator
begin_operator
down robot1 tile_2-2 tile_1-2
0
3
0 0 9 5
0 3 0 2
0 7 -1 0
1
end_operator
begin_operator
down robot1 tile_2-3 tile_1-3
0
3
0 0 10 6
0 4 0 2
0 8 -1 0
1
end_operator
begin_operator
down robot1 tile_2-4 tile_1-4
0
3
0 0 11 7
0 5 0 2
0 9 -1 0
1
end_operator
begin_operator
down robot1 tile_3-1 tile_2-1
0
3
0 0 12 8
0 6 0 2
0 10 -1 0
1
end_operator
begin_operator
down robot1 tile_3-2 tile_2-2
0
3
0 0 13 9
0 7 0 2
0 11 -1 0
1
end_operator
begin_operator
down robot1 tile_3-3 tile_2-3
0
3
0 0 14 10
0 8 0 2
0 12 -1 0
1
end_operator
begin_operator
down robot1 tile_3-4 tile_2-4
0
3
0 0 15 11
0 9 0 2
0 13 -1 0
1
end_operator
begin_operator
down robot1 tile_4-1 tile_3-1
0
3
0 0 16 12
0 10 0 2
0 14 -1 0
1
end_operator
begin_operator
down robot1 tile_4-2 tile_3-2
0
3
0 0 17 13
0 11 0 2
0 15 -1 0
1
end_operator
begin_operator
down robot1 tile_4-3 tile_3-3
0
3
0 0 18 14
0 12 0 2
0 16 -1 0
1
end_operator
begin_operator
down robot1 tile_4-4 tile_3-4
0
3
0 0 19 15
0 13 0 2
0 17 -1 0
1
end_operator
begin_operator
down robot1 tile_5-1 tile_4-1
0
3
0 0 20 16
0 14 0 2
0 18 -1 0
1
end_operator
begin_operator
down robot1 tile_5-2 tile_4-2
0
3
0 0 21 17
0 15 0 2
0 19 -1 0
1
end_operator
begin_operator
down robot1 tile_5-3 tile_4-3
0
3
0 0 22 18
0 16 0 2
0 20 -1 0
1
end_operator
begin_operator
down robot1 tile_5-4 tile_4-4
0
3
0 0 23 19
0 17 0 2
0 21 -1 0
1
end_operator
begin_operator
down robot2 tile_1-1 tile_0-1
0
3
0 1 4 0
0 2 -1 0
0 24 0 1
1
end_operator
begin_operator
down robot2 tile_1-2 tile_0-2
0
3
0 1 5 1
0 3 -1 0
0 25 0 1
1
end_operator
begin_operator
down robot2 tile_1-3 tile_0-3
0
3
0 1 6 2
0 4 -1 0
0 26 0 1
1
end_operator
begin_operator
down robot2 tile_1-4 tile_0-4
0
3
0 1 7 3
0 5 -1 0
0 27 0 1
1
end_operator
begin_operator
down robot2 tile_2-1 tile_1-1
0
3
0 1 8 4
0 2 0 2
0 6 -1 0
1
end_operator
begin_operator
down robot2 tile_2-2 tile_1-2
0
3
0 1 9 5
0 3 0 2
0 7 -1 0
1
end_operator
begin_operator
down robot2 tile_2-3 tile_1-3
0
3
0 1 10 6
0 4 0 2
0 8 -1 0
1
end_operator
begin_operator
down robot2 tile_2-4 tile_1-4
0
3
0 1 11 7
0 5 0 2
0 9 -1 0
1
end_operator
begin_operator
down robot2 tile_3-1 tile_2-1
0
3
0 1 12 8
0 6 0 2
0 10 -1 0
1
end_operator
begin_operator
down robot2 tile_3-2 tile_2-2
0
3
0 1 13 9
0 7 0 2
0 11 -1 0
1
end_operator
begin_operator
down robot2 tile_3-3 tile_2-3
0
3
0 1 14 10
0 8 0 2
0 12 -1 0
1
end_operator
begin_operator
down robot2 tile_3-4 tile_2-4
0
3
0 1 15 11
0 9 0 2
0 13 -1 0
1
end_operator
begin_operator
down robot2 tile_4-1 tile_3-1
0
3
0 1 16 12
0 10 0 2
0 14 -1 0
1
end_operator
begin_operator
down robot2 tile_4-2 tile_3-2
0
3
0 1 17 13
0 11 0 2
0 15 -1 0
1
end_operator
begin_operator
down robot2 tile_4-3 tile_3-3
0
3
0 1 18 14
0 12 0 2
0 16 -1 0
1
end_operator
begin_operator
down robot2 tile_4-4 tile_3-4
0
3
0 1 19 15
0 13 0 2
0 17 -1 0
1
end_operator
begin_operator
down robot2 tile_5-1 tile_4-1
0
3
0 1 20 16
0 14 0 2
0 18 -1 0
1
end_operator
begin_operator
down robot2 tile_5-2 tile_4-2
0
3
0 1 21 17
0 15 0 2
0 19 -1 0
1
end_operator
begin_operator
down robot2 tile_5-3 tile_4-3
0
3
0 1 22 18
0 16 0 2
0 20 -1 0
1
end_operator
begin_operator
down robot2 tile_5-4 tile_4-4
0
3
0 1 23 19
0 17 0 2
0 21 -1 0
1
end_operator
begin_operator
left robot1 tile_0-2 tile_0-1
0
3
0 0 1 0
0 24 0 1
0 25 -1 0
1
end_operator
begin_operator
left robot1 tile_0-3 tile_0-2
0
3
0 0 2 1
0 25 0 1
0 26 -1 0
1
end_operator
begin_operator
left robot1 tile_0-4 tile_0-3
0
3
0 0 3 2
0 26 0 1
0 27 -1 0
1
end_operator
begin_operator
left robot1 tile_1-2 tile_1-1
0
3
0 0 5 4
0 2 0 2
0 3 -1 0
1
end_operator
begin_operator
left robot1 tile_1-3 tile_1-2
0
3
0 0 6 5
0 3 0 2
0 4 -1 0
1
end_operator
begin_operator
left robot1 tile_1-4 tile_1-3
0
3
0 0 7 6
0 4 0 2
0 5 -1 0
1
end_operator
begin_operator
left robot1 tile_2-2 tile_2-1
0
3
0 0 9 8
0 6 0 2
0 7 -1 0
1
end_operator
begin_operator
left robot1 tile_2-3 tile_2-2
0
3
0 0 10 9
0 7 0 2
0 8 -1 0
1
end_operator
begin_operator
left robot1 tile_2-4 tile_2-3
0
3
0 0 11 10
0 8 0 2
0 9 -1 0
1
end_operator
begin_operator
left robot1 tile_3-2 tile_3-1
0
3
0 0 13 12
0 10 0 2
0 11 -1 0
1
end_operator
begin_operator
left robot1 tile_3-3 tile_3-2
0
3
0 0 14 13
0 11 0 2
0 12 -1 0
1
end_operator
begin_operator
left robot1 tile_3-4 tile_3-3
0
3
0 0 15 14
0 12 0 2
0 13 -1 0
1
end_operator
begin_operator
left robot1 tile_4-2 tile_4-1
0
3
0 0 17 16
0 14 0 2
0 15 -1 0
1
end_operator
begin_operator
left robot1 tile_4-3 tile_4-2
0
3
0 0 18 17
0 15 0 2
0 16 -1 0
1
end_operator
begin_operator
left robot1 tile_4-4 tile_4-3
0
3
0 0 19 18
0 16 0 2
0 17 -1 0
1
end_operator
begin_operator
left robot1 tile_5-2 tile_5-1
0
3
0 0 21 20
0 18 0 2
0 19 -1 0
1
end_operator
begin_operator
left robot1 tile_5-3 tile_5-2
0
3
0 0 22 21
0 19 0 2
0 20 -1 0
1
end_operator
begin_operator
left robot1 tile_5-4 tile_5-3
0
3
0 0 23 22
0 20 0 2
0 21 -1 0
1
end_operator
begin_operator
left robot2 tile_0-2 tile_0-1
0
3
0 1 1 0
0 24 0 1
0 25 -1 0
1
end_operator
begin_operator
left robot2 tile_0-3 tile_0-2
0
3
0 1 2 1
0 25 0 1
0 26 -1 0
1
end_operator
begin_operator
left robot2 tile_0-4 tile_0-3
0
3
0 1 3 2
0 26 0 1
0 27 -1 0
1
end_operator
begin_operator
left robot2 tile_1-2 tile_1-1
0
3
0 1 5 4
0 2 0 2
0 3 -1 0
1
end_operator
begin_operator
left robot2 tile_1-3 tile_1-2
0
3
0 1 6 5
0 3 0 2
0 4 -1 0
1
end_operator
begin_operator
left robot2 tile_1-4 tile_1-3
0
3
0 1 7 6
0 4 0 2
0 5 -1 0
1
end_operator
begin_operator
left robot2 tile_2-2 tile_2-1
0
3
0 1 9 8
0 6 0 2
0 7 -1 0
1
end_operator
begin_operator
left robot2 tile_2-3 tile_2-2
0
3
0 1 10 9
0 7 0 2
0 8 -1 0
1
end_operator
begin_operator
left robot2 tile_2-4 tile_2-3
0
3
0 1 11 10
0 8 0 2
0 9 -1 0
1
end_operator
begin_operator
left robot2 tile_3-2 tile_3-1
0
3
0 1 13 12
0 10 0 2
0 11 -1 0
1
end_operator
begin_operator
left robot2 tile_3-3 tile_3-2
0
3
0 1 14 13
0 11 0 2
0 12 -1 0
1
end_operator
begin_operator
left robot2 tile_3-4 tile_3-3
0
3
0 1 15 14
0 12 0 2
0 13 -1 0
1
end_operator
begin_operator
left robot2 tile_4-2 tile_4-1
0
3
0 1 17 16
0 14 0 2
0 15 -1 0
1
end_operator
begin_operator
left robot2 tile_4-3 tile_4-2
0
3
0 1 18 17
0 15 0 2
0 16 -1 0
1
end_operator
begin_operator
left robot2 tile_4-4 tile_4-3
0
3
0 1 19 18
0 16 0 2
0 17 -1 0
1
end_operator
begin_operator
left robot2 tile_5-2 tile_5-1
0
3
0 1 21 20
0 18 0 2
0 19 -1 0
1
end_operator
begin_operator
left robot2 tile_5-3 tile_5-2
0
3
0 1 22 21
0 19 0 2
0 20 -1 0
1
end_operator
begin_operator
left robot2 tile_5-4 tile_5-3
0
3
0 1 23 22
0 20 0 2
0 21 -1 0
1
end_operator
begin_operator
paint-down robot1 tile_0-1 tile_1-1 black
2
0 4
22 0
1
0 24 0 1
2
end_operator
begin_operator
paint-down robot1 tile_0-1 tile_1-1 white
2
0 4
22 1
1
0 24 0 1
2
end_operator
begin_operator
paint-down robot1 tile_0-2 tile_1-2 black
2
0 5
22 0
1
0 25 0 1
2
end_operator
begin_operator
paint-down robot1 tile_0-2 tile_1-2 white
2
0 5
22 1
1
0 25 0 1
2
end_operator
begin_operator
paint-down robot1 tile_0-3 tile_1-3 black
2
0 6
22 0
1
0 26 0 1
2
end_operator
begin_operator
paint-down robot1 tile_0-3 tile_1-3 white
2
0 6
22 1
1
0 26 0 1
2
end_operator
begin_operator
paint-down robot1 tile_0-4 tile_1-4 black
2
0 7
22 0
1
0 27 0 1
2
end_operator
begin_operator
paint-down robot1 tile_0-4 tile_1-4 white
2
0 7
22 1
1
0 27 0 1
2
end_operator
begin_operator
paint-down robot1 tile_1-1 tile_2-1 black
2
0 8
22 0
1
0 2 0 2
2
end_operator
begin_operator
paint-down robot1 tile_1-2 tile_2-2 white
2
0 9
22 1
1
0 3 0 2
2
end_operator
begin_operator
paint-down robot1 tile_1-3 tile_2-3 black
2
0 10
22 0
1
0 4 0 2
2
end_operator
begin_operator
paint-down robot1 tile_1-4 tile_2-4 white
2
0 11
22 1
1
0 5 0 2
2
end_operator
begin_operator
paint-down robot1 tile_2-1 tile_3-1 white
2
0 12
22 1
1
0 6 0 2
2
end_operator
begin_operator
paint-down robot1 tile_2-2 tile_3-2 black
2
0 13
22 0
1
0 7 0 2
2
end_operator
begin_operator
paint-down robot1 tile_2-3 tile_3-3 white
2
0 14
22 1
1
0 8 0 2
2
end_operator
begin_operator
paint-down robot1 tile_2-4 tile_3-4 black
2
0 15
22 0
1
0 9 0 2
2
end_operator
begin_operator
paint-down robot1 tile_3-1 tile_4-1 black
2
0 16
22 0
1
0 10 0 2
2
end_operator
begin_operator
paint-down robot1 tile_3-2 tile_4-2 white
2
0 17
22 1
1
0 11 0 2
2
end_operator
begin_operator
paint-down robot1 tile_3-3 tile_4-3 black
2
0 18
22 0
1
0 12 0 2
2
end_operator
begin_operator
paint-down robot1 tile_3-4 tile_4-4 white
2
0 19
22 1
1
0 13 0 2
2
end_operator
begin_operator
paint-down robot1 tile_4-1 tile_5-1 white
2
0 20
22 1
1
0 14 0 2
2
end_operator
begin_operator
paint-down robot1 tile_4-2 tile_5-2 black
2
0 21
22 0
1
0 15 0 2
2
end_operator
begin_operator
paint-down robot1 tile_4-3 tile_5-3 white
2
0 22
22 1
1
0 16 0 2
2
end_operator
begin_operator
paint-down robot1 tile_4-4 tile_5-4 black
2
0 23
22 0
1
0 17 0 2
2
end_operator
begin_operator
paint-down robot2 tile_0-1 tile_1-1 black
2
1 4
23 0
1
0 24 0 1
2
end_operator
begin_operator
paint-down robot2 tile_0-1 tile_1-1 white
2
1 4
23 1
1
0 24 0 1
2
end_operator
begin_operator
paint-down robot2 tile_0-2 tile_1-2 black
2
1 5
23 0
1
0 25 0 1
2
end_operator
begin_operator
paint-down robot2 tile_0-2 tile_1-2 white
2
1 5
23 1
1
0 25 0 1
2
end_operator
begin_operator
paint-down robot2 tile_0-3 tile_1-3 black
2
1 6
23 0
1
0 26 0 1
2
end_operator
begin_operator
paint-down robot2 tile_0-3 tile_1-3 white
2
1 6
23 1
1
0 26 0 1
2
end_operator
begin_operator
paint-down robot2 tile_0-4 tile_1-4 black
2
1 7
23 0
1
0 27 0 1
2
end_operator
begin_operator
paint-down robot2 tile_0-4 tile_1-4 white
2
1 7
23 1
1
0 27 0 1
2
end_operator
begin_operator
paint-down robot2 tile_1-1 tile_2-1 black
2
1 8
23 0
1
0 2 0 2
2
end_operator
begin_operator
paint-down robot2 tile_1-2 tile_2-2 white
2
1 9
23 1
1
0 3 0 2
2
end_operator
begin_operator
paint-down robot2 tile_1-3 tile_2-3 black
2
1 10
23 0
1
0 4 0 2
2
end_operator
begin_operator
paint-down robot2 tile_1-4 tile_2-4 white
2
1 11
23 1
1
0 5 0 2
2
end_operator
begin_operator
paint-down robot2 tile_2-1 tile_3-1 white
2
1 12
23 1
1
0 6 0 2
2
end_operator
begin_operator
paint-down robot2 tile_2-2 tile_3-2 black
2
1 13
23 0
1
0 7 0 2
2
end_operator
begin_operator
paint-down robot2 tile_2-3 tile_3-3 white
2
1 14
23 1
1
0 8 0 2
2
end_operator
begin_operator
paint-down robot2 tile_2-4 tile_3-4 black
2
1 15
23 0
1
0 9 0 2
2
end_operator
begin_operator
paint-down robot2 tile_3-1 tile_4-1 black
2
1 16
23 0
1
0 10 0 2
2
end_operator
begin_operator
paint-down robot2 tile_3-2 tile_4-2 white
2
1 17
23 1
1
0 11 0 2
2
end_operator
begin_operator
paint-down robot2 tile_3-3 tile_4-3 black
2
1 18
23 0
1
0 12 0 2
2
end_operator
begin_operator
paint-down robot2 tile_3-4 tile_4-4 white
2
1 19
23 1
1
0 13 0 2
2
end_operator
begin_operator
paint-down robot2 tile_4-1 tile_5-1 white
2
1 20
23 1
1
0 14 0 2
2
end_operator
begin_operator
paint-down robot2 tile_4-2 tile_5-2 black
2
1 21
23 0
1
0 15 0 2
2
end_operator
begin_operator
paint-down robot2 tile_4-3 tile_5-3 white
2
1 22
23 1
1
0 16 0 2
2
end_operator
begin_operator
paint-down robot2 tile_4-4 tile_5-4 black
2
1 23
23 0
1
0 17 0 2
2
end_operator
begin_operator
paint-up robot1 tile_1-1 tile_0-1 black
2
0 0
22 0
1
0 2 0 2
2
end_operator
begin_operator
paint-up robot1 tile_1-1 tile_0-1 white
2
0 0
22 1
1
0 2 0 1
2
end_operator
begin_operator
paint-up robot1 tile_1-2 tile_0-2 black
2
0 1
22 0
1
0 3 0 1
2
end_operator
begin_operator
paint-up robot1 tile_1-2 tile_0-2 white
2
0 1
22 1
1
0 3 0 2
2
end_operator
begin_operator
paint-up robot1 tile_1-3 tile_0-3 black
2
0 2
22 0
1
0 4 0 2
2
end_operator
begin_operator
paint-up robot1 tile_1-3 tile_0-3 white
2
0 2
22 1
1
0 4 0 1
2
end_operator
begin_operator
paint-up robot1 tile_1-4 tile_0-4 black
2
0 3
22 0
1
0 5 0 1
2
end_operator
begin_operator
paint-up robot1 tile_1-4 tile_0-4 white
2
0 3
22 1
1
0 5 0 2
2
end_operator
begin_operator
paint-up robot1 tile_2-1 tile_1-1 black
2
0 4
22 0
1
0 6 0 1
2
end_operator
begin_operator
paint-up robot1 tile_2-1 tile_1-1 white
2
0 4
22 1
1
0 6 0 2
2
end_operator
begin_operator
paint-up robot1 tile_2-2 tile_1-2 black
2
0 5
22 0
1
0 7 0 2
2
end_operator
begin_operator
paint-up robot1 tile_2-2 tile_1-2 white
2
0 5
22 1
1
0 7 0 1
2
end_operator
begin_operator
paint-up robot1 tile_2-3 tile_1-3 black
2
0 6
22 0
1
0 8 0 1
2
end_operator
begin_operator
paint-up robot1 tile_2-3 tile_1-3 white
2
0 6
22 1
1
0 8 0 2
2
end_operator
begin_operator
paint-up robot1 tile_2-4 tile_1-4 black
2
0 7
22 0
1
0 9 0 2
2
end_operator
begin_operator
paint-up robot1 tile_2-4 tile_1-4 white
2
0 7
22 1
1
0 9 0 1
2
end_operator
begin_operator
paint-up robot1 tile_3-1 tile_2-1 black
2
0 8
22 0
1
0 10 0 2
2
end_operator
begin_operator
paint-up robot1 tile_3-1 tile_2-1 white
2
0 8
22 1
1
0 10 0 1
2
end_operator
begin_operator
paint-up robot1 tile_3-2 tile_2-2 black
2
0 9
22 0
1
0 11 0 1
2
end_operator
begin_operator
paint-up robot1 tile_3-2 tile_2-2 white
2
0 9
22 1
1
0 11 0 2
2
end_operator
begin_operator
paint-up robot1 tile_3-3 tile_2-3 black
2
0 10
22 0
1
0 12 0 2
2
end_operator
begin_operator
paint-up robot1 tile_3-3 tile_2-3 white
2
0 10
22 1
1
0 12 0 1
2
end_operator
begin_operator
paint-up robot1 tile_3-4 tile_2-4 black
2
0 11
22 0
1
0 13 0 1
2
end_operator
begin_operator
paint-up robot1 tile_3-4 tile_2-4 white
2
0 11
22 1
1
0 13 0 2
2
end_operator
begin_operator
paint-up robot1 tile_4-1 tile_3-1 black
2
0 12
22 0
1
0 14 0 1
2
end_operator
begin_operator
paint-up robot1 tile_4-1 tile_3-1 white
2
0 12
22 1
1
0 14 0 2
2
end_operator
begin_operator
paint-up robot1 tile_4-2 tile_3-2 black
2
0 13
22 0
1
0 15 0 2
2
end_operator
begin_operator
paint-up robot1 tile_4-2 tile_3-2 white
2
0 13
22 1
1
0 15 0 1
2
end_operator
begin_operator
paint-up robot1 tile_4-3 tile_3-3 black
2
0 14
22 0
1
0 16 0 1
2
end_operator
begin_operator
paint-up robot1 tile_4-3 tile_3-3 white
2
0 14
22 1
1
0 16 0 2
2
end_operator
begin_operator
paint-up robot1 tile_4-4 tile_3-4 black
2
0 15
22 0
1
0 17 0 2
2
end_operator
begin_operator
paint-up robot1 tile_4-4 tile_3-4 white
2
0 15
22 1
1
0 17 0 1
2
end_operator
begin_operator
paint-up robot1 tile_5-1 tile_4-1 black
2
0 16
22 0
1
0 18 0 2
2
end_operator
begin_operator
paint-up robot1 tile_5-1 tile_4-1 white
2
0 16
22 1
1
0 18 0 1
2
end_operator
begin_operator
paint-up robot1 tile_5-2 tile_4-2 black
2
0 17
22 0
1
0 19 0 1
2
end_operator
begin_operator
paint-up robot1 tile_5-2 tile_4-2 white
2
0 17
22 1
1
0 19 0 2
2
end_operator
begin_operator
paint-up robot1 tile_5-3 tile_4-3 black
2
0 18
22 0
1
0 20 0 2
2
end_operator
begin_operator
paint-up robot1 tile_5-3 tile_4-3 white
2
0 18
22 1
1
0 20 0 1
2
end_operator
begin_operator
paint-up robot1 tile_5-4 tile_4-4 black
2
0 19
22 0
1
0 21 0 1
2
end_operator
begin_operator
paint-up robot1 tile_5-4 tile_4-4 white
2
0 19
22 1
1
0 21 0 2
2
end_operator
begin_operator
paint-up robot2 tile_1-1 tile_0-1 black
2
1 0
23 0
1
0 2 0 2
2
end_operator
begin_operator
paint-up robot2 tile_1-1 tile_0-1 white
2
1 0
23 1
1
0 2 0 1
2
end_operator
begin_operator
paint-up robot2 tile_1-2 tile_0-2 black
2
1 1
23 0
1
0 3 0 1
2
end_operator
begin_operator
paint-up robot2 tile_1-2 tile_0-2 white
2
1 1
23 1
1
0 3 0 2
2
end_operator
begin_operator
paint-up robot2 tile_1-3 tile_0-3 black
2
1 2
23 0
1
0 4 0 2
2
end_operator
begin_operator
paint-up robot2 tile_1-3 tile_0-3 white
2
1 2
23 1
1
0 4 0 1
2
end_operator
begin_operator
paint-up robot2 tile_1-4 tile_0-4 black
2
1 3
23 0
1
0 5 0 1
2
end_operator
begin_operator
paint-up robot2 tile_1-4 tile_0-4 white
2
1 3
23 1
1
0 5 0 2
2
end_operator
begin_operator
paint-up robot2 tile_2-1 tile_1-1 black
2
1 4
23 0
1
0 6 0 1
2
end_operator
begin_operator
paint-up robot2 tile_2-1 tile_1-1 white
2
1 4
23 1
1
0 6 0 2
2
end_operator
begin_operator
paint-up robot2 tile_2-2 tile_1-2 black
2
1 5
23 0
1
0 7 0 2
2
end_operator
begin_operator
paint-up robot2 tile_2-2 tile_1-2 white
2
1 5
23 1
1
0 7 0 1
2
end_operator
begin_operator
paint-up robot2 tile_2-3 tile_1-3 black
2
1 6
23 0
1
0 8 0 1
2
end_operator
begin_operator
paint-up robot2 tile_2-3 tile_1-3 white
2
1 6
23 1
1
0 8 0 2
2
end_operator
begin_operator
paint-up robot2 tile_2-4 tile_1-4 black
2
1 7
23 0
1
0 9 0 2
2
end_operator
begin_operator
paint-up robot2 tile_2-4 tile_1-4 white
2
1 7
23 1
1
0 9 0 1
2
end_operator
begin_operator
paint-up robot2 tile_3-1 tile_2-1 black
2
1 8
23 0
1
0 10 0 2
2
end_operator
begin_operator
paint-up robot2 tile_3-1 tile_2-1 white
2
1 8
23 1
1
0 10 0 1
2
end_operator
begin_operator
paint-up robot2 tile_3-2 tile_2-2 black
2
1 9
23 0
1
0 11 0 1
2
end_operator
begin_operator
paint-up robot2 tile_3-2 tile_2-2 white
2
1 9
23 1
1
0 11 0 2
2
end_operator
begin_operator
paint-up robot2 tile_3-3 tile_2-3 black
2
1 10
23 0
1
0 12 0 2
2
end_operator
begin_operator
paint-up robot2 tile_3-3 tile_2-3 white
2
1 10
23 1
1
0 12 0 1
2
end_operator
begin_operator
paint-up robot2 tile_3-4 tile_2-4 black
2
1 11
23 0
1
0 13 0 1
2
end_operator
begin_operator
paint-up robot2 tile_3-4 tile_2-4 white
2
1 11
23 1
1
0 13 0 2
2
end_operator
begin_operator
paint-up robot2 tile_4-1 tile_3-1 black
2
1 12
23 0
1
0 14 0 1
2
end_operator
begin_operator
paint-up robot2 tile_4-1 tile_3-1 white
2
1 12
23 1
1
0 14 0 2
2
end_operator
begin_operator
paint-up robot2 tile_4-2 tile_3-2 black
2
1 13
23 0
1
0 15 0 2
2
end_operator
begin_operator
paint-up robot2 tile_4-2 tile_3-2 white
2
1 13
23 1
1
0 15 0 1
2
end_operator
begin_operator
paint-up robot2 tile_4-3 tile_3-3 black
2
1 14
23 0
1
0 16 0 1
2
end_operator
begin_operator
paint-up robot2 tile_4-3 tile_3-3 white
2
1 14
23 1
1
0 16 0 2
2
end_operator
begin_operator
paint-up robot2 tile_4-4 tile_3-4 black
2
1 15
23 0
1
0 17 0 2
2
end_operator
begin_operator
paint-up robot2 tile_4-4 tile_3-4 white
2
1 15
23 1
1
0 17 0 1
2
end_operator
begin_operator
paint-up robot2 tile_5-1 tile_4-1 black
2
1 16
23 0
1
0 18 0 2
2
end_operator
begin_operator
paint-up robot2 tile_5-1 tile_4-1 white
2
1 16
23 1
1
0 18 0 1
2
end_operator
begin_operator
paint-up robot2 tile_5-2 tile_4-2 black
2
1 17
23 0
1
0 19 0 1
2
end_operator
begin_operator
paint-up robot2 tile_5-2 tile_4-2 white
2
1 17
23 1
1
0 19 0 2
2
end_operator
begin_operator
paint-up robot2 tile_5-3 tile_4-3 black
2
1 18
23 0
1
0 20 0 2
2
end_operator
begin_operator
paint-up robot2 tile_5-3 tile_4-3 white
2
1 18
23 1
1
0 20 0 1
2
end_operator
begin_operator
paint-up robot2 tile_5-4 tile_4-4 black
2
1 19
23 0
1
0 21 0 1
2
end_operator
begin_operator
paint-up robot2 tile_5-4 tile_4-4 white
2
1 19
23 1
1
0 21 0 2
2
end_operator
begin_operator
right robot1 tile_0-1 tile_0-2
0
3
0 0 0 1
0 24 -1 0
0 25 0 1
1
end_operator
begin_operator
right robot1 tile_0-2 tile_0-3
0
3
0 0 1 2
0 25 -1 0
0 26 0 1
1
end_operator
begin_operator
right robot1 tile_0-3 tile_0-4
0
3
0 0 2 3
0 26 -1 0
0 27 0 1
1
end_operator
begin_operator
right robot1 tile_1-1 tile_1-2
0
3
0 0 4 5
0 2 -1 0
0 3 0 2
1
end_operator
begin_operator
right robot1 tile_1-2 tile_1-3
0
3
0 0 5 6
0 3 -1 0
0 4 0 2
1
end_operator
begin_operator
right robot1 tile_1-3 tile_1-4
0
3
0 0 6 7
0 4 -1 0
0 5 0 2
1
end_operator
begin_operator
right robot1 tile_2-1 tile_2-2
0
3
0 0 8 9
0 6 -1 0
0 7 0 2
1
end_operator
begin_operator
right robot1 tile_2-2 tile_2-3
0
3
0 0 9 10
0 7 -1 0
0 8 0 2
1
end_operator
begin_operator
right robot1 tile_2-3 tile_2-4
0
3
0 0 10 11
0 8 -1 0
0 9 0 2
1
end_operator
begin_operator
right robot1 tile_3-1 tile_3-2
0
3
0 0 12 13
0 10 -1 0
0 11 0 2
1
end_operator
begin_operator
right robot1 tile_3-2 tile_3-3
0
3
0 0 13 14
0 11 -1 0
0 12 0 2
1
end_operator
begin_operator
right robot1 tile_3-3 tile_3-4
0
3
0 0 14 15
0 12 -1 0
0 13 0 2
1
end_operator
begin_operator
right robot1 tile_4-1 tile_4-2
0
3
0 0 16 17
0 14 -1 0
0 15 0 2
1
end_operator
begin_operator
right robot1 tile_4-2 tile_4-3
0
3
0 0 17 18
0 15 -1 0
0 16 0 2
1
end_operator
begin_operator
right robot1 tile_4-3 tile_4-4
0
3
0 0 18 19
0 16 -1 0
0 17 0 2
1
end_operator
begin_operator
right robot1 tile_5-1 tile_5-2
0
3
0 0 20 21
0 18 -1 0
0 19 0 2
1
end_operator
begin_operator
right robot1 tile_5-2 tile_5-3
0
3
0 0 21 22
0 19 -1 0
0 20 0 2
1
end_operator
begin_operator
right robot1 tile_5-3 tile_5-4
0
3
0 0 22 23
0 20 -1 0
0 21 0 2
1
end_operator
begin_operator
right robot2 tile_0-1 tile_0-2
0
3
0 1 0 1
0 24 -1 0
0 25 0 1
1
end_operator
begin_operator
right robot2 tile_0-2 tile_0-3
0
3
0 1 1 2
0 25 -1 0
0 26 0 1
1
end_operator
begin_operator
right robot2 tile_0-3 tile_0-4
0
3
0 1 2 3
0 26 -1 0
0 27 0 1
1
end_operator
begin_operator
right robot2 tile_1-1 tile_1-2
0
3
0 1 4 5
0 2 -1 0
0 3 0 2
1
end_operator
begin_operator
right robot2 tile_1-2 tile_1-3
0
3
0 1 5 6
0 3 -1 0
0 4 0 2
1
end_operator
begin_operator
right robot2 tile_1-3 tile_1-4
0
3
0 1 6 7
0 4 -1 0
0 5 0 2
1
end_operator
begin_operator
right robot2 tile_2-1 tile_2-2
0
3
0 1 8 9
0 6 -1 0
0 7 0 2
1
end_operator
begin_operator
right robot2 tile_2-2 tile_2-3
0
3
0 1 9 10
0 7 -1 0
0 8 0 2
1
end_operator
begin_operator
right robot2 tile_2-3 tile_2-4
0
3
0 1 10 11
0 8 -1 0
0 9 0 2
1
end_operator
begin_operator
right robot2 tile_3-1 tile_3-2
0
3
0 1 12 13
0 10 -1 0
0 11 0 2
1
end_operator
begin_operator
right robot2 tile_3-2 tile_3-3
0
3
0 1 13 14
0 11 -1 0
0 12 0 2
1
end_operator
begin_operator
right robot2 tile_3-3 tile_3-4
0
3
0 1 14 15
0 12 -1 0
0 13 0 2
1
end_operator
begin_operator
right robot2 tile_4-1 tile_4-2
0
3
0 1 16 17
0 14 -1 0
0 15 0 2
1
end_operator
begin_operator
right robot2 tile_4-2 tile_4-3
0
3
0 1 17 18
0 15 -1 0
0 16 0 2
1
end_operator
begin_operator
right robot2 tile_4-3 tile_4-4
0
3
0 1 18 19
0 16 -1 0
0 17 0 2
1
end_operator
begin_operator
right robot2 tile_5-1 tile_5-2
0
3
0 1 20 21
0 18 -1 0
0 19 0 2
1
end_operator
begin_operator
right robot2 tile_5-2 tile_5-3
0
3
0 1 21 22
0 19 -1 0
0 20 0 2
1
end_operator
begin_operator
right robot2 tile_5-3 tile_5-4
0
3
0 1 22 23
0 20 -1 0
0 21 0 2
1
end_operator
begin_operator
up robot1 tile_0-1 tile_1-1
0
3
0 0 0 4
0 2 0 2
0 24 -1 0
3
end_operator
begin_operator
up robot1 tile_0-2 tile_1-2
0
3
0 0 1 5
0 3 0 2
0 25 -1 0
3
end_operator
begin_operator
up robot1 tile_0-3 tile_1-3
0
3
0 0 2 6
0 4 0 2
0 26 -1 0
3
end_operator
begin_operator
up robot1 tile_0-4 tile_1-4
0
3
0 0 3 7
0 5 0 2
0 27 -1 0
3
end_operator
begin_operator
up robot1 tile_1-1 tile_2-1
0
3
0 0 4 8
0 2 -1 0
0 6 0 2
3
end_operator
begin_operator
up robot1 tile_1-2 tile_2-2
0
3
0 0 5 9
0 3 -1 0
0 7 0 2
3
end_operator
begin_operator
up robot1 tile_1-3 tile_2-3
0
3
0 0 6 10
0 4 -1 0
0 8 0 2
3
end_operator
begin_operator
up robot1 tile_1-4 tile_2-4
0
3
0 0 7 11
0 5 -1 0
0 9 0 2
3
end_operator
begin_operator
up robot1 tile_2-1 tile_3-1
0
3
0 0 8 12
0 6 -1 0
0 10 0 2
3
end_operator
begin_operator
up robot1 tile_2-2 tile_3-2
0
3
0 0 9 13
0 7 -1 0
0 11 0 2
3
end_operator
begin_operator
up robot1 tile_2-3 tile_3-3
0
3
0 0 10 14
0 8 -1 0
0 12 0 2
3
end_operator
begin_operator
up robot1 tile_2-4 tile_3-4
0
3
0 0 11 15
0 9 -1 0
0 13 0 2
3
end_operator
begin_operator
up robot1 tile_3-1 tile_4-1
0
3
0 0 12 16
0 10 -1 0
0 14 0 2
3
end_operator
begin_operator
up robot1 tile_3-2 tile_4-2
0
3
0 0 13 17
0 11 -1 0
0 15 0 2
3
end_operator
begin_operator
up robot1 tile_3-3 tile_4-3
0
3
0 0 14 18
0 12 -1 0
0 16 0 2
3
end_operator
begin_operator
up robot1 tile_3-4 tile_4-4
0
3
0 0 15 19
0 13 -1 0
0 17 0 2
3
end_operator
begin_operator
up robot1 tile_4-1 tile_5-1
0
3
0 0 16 20
0 14 -1 0
0 18 0 2
3
end_operator
begin_operator
up robot1 tile_4-2 tile_5-2
0
3
0 0 17 21
0 15 -1 0
0 19 0 2
3
end_operator
begin_operator
up robot1 tile_4-3 tile_5-3
0
3
0 0 18 22
0 16 -1 0
0 20 0 2
3
end_operator
begin_operator
up robot1 tile_4-4 tile_5-4
0
3
0 0 19 23
0 17 -1 0
0 21 0 2
3
end_operator
begin_operator
up robot2 tile_0-1 tile_1-1
0
3
0 1 0 4
0 2 0 2
0 24 -1 0
3
end_operator
begin_operator
up robot2 tile_0-2 tile_1-2
0
3
0 1 1 5
0 3 0 2
0 25 -1 0
3
end_operator
begin_operator
up robot2 tile_0-3 tile_1-3
0
3
0 1 2 6
0 4 0 2
0 26 -1 0
3
end_operator
begin_operator
up robot2 tile_0-4 tile_1-4
0
3
0 1 3 7
0 5 0 2
0 27 -1 0
3
end_operator
begin_operator
up robot2 tile_1-1 tile_2-1
0
3
0 1 4 8
0 2 -1 0
0 6 0 2
3
end_operator
begin_operator
up robot2 tile_1-2 tile_2-2
0
3
0 1 5 9
0 3 -1 0
0 7 0 2
3
end_operator
begin_operator
up robot2 tile_1-3 tile_2-3
0
3
0 1 6 10
0 4 -1 0
0 8 0 2
3
end_operator
begin_operator
up robot2 tile_1-4 tile_2-4
0
3
0 1 7 11
0 5 -1 0
0 9 0 2
3
end_operator
begin_operator
up robot2 tile_2-1 tile_3-1
0
3
0 1 8 12
0 6 -1 0
0 10 0 2
3
end_operator
begin_operator
up robot2 tile_2-2 tile_3-2
0
3
0 1 9 13
0 7 -1 0
0 11 0 2
3
end_operator
begin_operator
up robot2 tile_2-3 tile_3-3
0
3
0 1 10 14
0 8 -1 0
0 12 0 2
3
end_operator
begin_operator
up robot2 tile_2-4 tile_3-4
0
3
0 1 11 15
0 9 -1 0
0 13 0 2
3
end_operator
begin_operator
up robot2 tile_3-1 tile_4-1
0
3
0 1 12 16
0 10 -1 0
0 14 0 2
3
end_operator
begin_operator
up robot2 tile_3-2 tile_4-2
0
3
0 1 13 17
0 11 -1 0
0 15 0 2
3
end_operator
begin_operator
up robot2 tile_3-3 tile_4-3
0
3
0 1 14 18
0 12 -1 0
0 16 0 2
3
end_operator
begin_operator
up robot2 tile_3-4 tile_4-4
0
3
0 1 15 19
0 13 -1 0
0 17 0 2
3
end_operator
begin_operator
up robot2 tile_4-1 tile_5-1
0
3
0 1 16 20
0 14 -1 0
0 18 0 2
3
end_operator
begin_operator
up robot2 tile_4-2 tile_5-2
0
3
0 1 17 21
0 15 -1 0
0 19 0 2
3
end_operator
begin_operator
up robot2 tile_4-3 tile_5-3
0
3
0 1 18 22
0 16 -1 0
0 20 0 2
3
end_operator
begin_operator
up robot2 tile_4-4 tile_5-4
0
3
0 1 19 23
0 17 -1 0
0 21 0 2
3
end_operator
0
