begin_version
3
end_version
begin_metric
1
end_metric
8
begin_variable
var0
-1
7
at driver1 p1-0
at driver1 p1-2
at driver1 s0
at driver1 s1
at driver1 s2
driving driver1 truck1
driving driver1 truck2
end_variable
begin_variable
var1
-1
8
at driver2 p1-0
at driver2 p1-2
at driver2 s0
at driver2 s1
at driver2 s2
driving driver2 truck1
driving driver2 truck2
tnf-unknown
end_variable
begin_variable
var2
-1
5
at package1 s0
at package1 s1
at package1 s2
in package1 truck1
in package1 truck2
end_variable
begin_variable
var3
-1
5
at package2 s0
at package2 s1
at package2 s2
in package2 truck1
in package2 truck2
end_variable
begin_variable
var4
-1
3
at truck1 s0
at truck1 s1
at truck1 s2
end_variable
begin_variable
var5
-1
4
at truck2 s0
at truck2 s1
at truck2 s2
tnf-unknown
end_variable
begin_variable
var6
-1
3
empty truck1
none-of-those
tnf-unkown
end_variable
begin_variable
var7
-1
3
empty truck2
none-of-those
tnf-unkown
end_variable
8
begin_mutex_group
3
4 0
4 1
4 2
end_mutex_group
begin_mutex_group
3
5 0
5 1
5 2
end_mutex_group
begin_mutex_group
3
0 5
1 5
6 0
end_mutex_group
begin_mutex_group
3
0 6
1 6
7 0
end_mutex_group
begin_mutex_group
5
2 0
2 1
2 2
2 3
2 4
end_mutex_group
begin_mutex_group
5
3 0
3 1
3 2
3 3
3 4
end_mutex_group
begin_mutex_group
7
0 0
0 1
0 2
0 3
0 4
0 5
0 6
end_mutex_group
begin_mutex_group
7
1 0
1 1
1 2
1 3
1 4
1 5
1 6
end_mutex_group
begin_state
4
4
0
0
0
0
0
0
end_state
begin_goal
8
0 3
1 7
2 0
3 0
4 1
5 3
6 2
7 2
end_goal
102
begin_operator
board-truck driver1 truck1 s0
1
4 0
2
0 0 2 5
0 6 0 1
1
end_operator
begin_operator
board-truck driver1 truck1 s1
1
4 1
2
0 0 3 5
0 6 0 1
1
end_operator
begin_operator
board-truck driver1 truck1 s2
1
4 2
2
0 0 4 5
0 6 0 1
1
end_operator
begin_operator
board-truck driver1 truck2 s0
1
5 0
2
0 0 2 6
0 7 0 1
1
end_operator
begin_operator
board-truck driver1 truck2 s1
1
5 1
2
0 0 3 6
0 7 0 1
1
end_operator
begin_operator
board-truck driver1 truck2 s2
1
5 2
2
0 0 4 6
0 7 0 1
1
end_operator
begin_operator
board-truck driver2 truck1 s0
1
4 0
2
0 1 2 5
0 6 0 1
1
end_operator
begin_operator
board-truck driver2 truck1 s1
1
4 1
2
0 1 3 5
0 6 0 1
1
end_operator
begin_operator
board-truck driver2 truck1 s2
1
4 2
2
0 1 4 5
0 6 0 1
1
end_operator
begin_operator
board-truck driver2 truck2 s0
1
5 0
2
0 1 2 6
0 7 0 1
1
end_operator
begin_operator
board-truck driver2 truck2 s1
1
5 1
2
0 1 3 6
0 7 0 1
1
end_operator
begin_operator
board-truck driver2 truck2 s2
1
5 2
2
0 1 4 6
0 7 0 1
1
end_operator
begin_operator
disembark-truck driver1 truck1 s0
1
4 0
2
0 0 5 2
0 6 2 0
1
end_operator
begin_operator
disembark-truck driver1 truck1 s1
1
4 1
2
0 0 5 3
0 6 2 0
1
end_operator
begin_operator
disembark-truck driver1 truck1 s2
1
4 2
2
0 0 5 4
0 6 2 0
1
end_operator
begin_operator
disembark-truck driver1 truck2 s0
1
5 0
2
0 0 6 2
0 7 2 0
1
end_operator
begin_operator
disembark-truck driver1 truck2 s1
1
5 1
2
0 0 6 3
0 7 2 0
1
end_operator
begin_operator
disembark-truck driver1 truck2 s2
1
5 2
2
0 0 6 4
0 7 2 0
1
end_operator
begin_operator
disembark-truck driver2 truck1 s0
1
4 0
2
0 1 5 2
0 6 2 0
1
end_operator
begin_operator
disembark-truck driver2 truck1 s1
1
4 1
2
0 1 5 3
0 6 2 0
1
end_operator
begin_operator
disembark-truck driver2 truck1 s2
1
4 2
2
0 1 5 4
0 6 2 0
1
end_operator
begin_operator
disembark-truck driver2 truck2 s0
1
5 0
2
0 1 6 2
0 7 2 0
1
end_operator
begin_operator
disembark-truck driver2 truck2 s1
1
5 1
2
0 1 6 3
0 7 2 0
1
end_operator
begin_operator
disembark-truck driver2 truck2 s2
1
5 2
2
0 1 6 4
0 7 2 0
1
end_operator
begin_operator
drive-truck truck1 s0 s1 driver1
1
0 5
1
0 4 0 1
1
end_operator
begin_operator
drive-truck truck1 s0 s1 driver2
1
1 5
1
0 4 0 1
1
end_operator
begin_operator
drive-truck truck1 s0 s2 driver1
1
0 5
1
0 4 0 2
1
end_operator
begin_operator
drive-truck truck1 s0 s2 driver2
1
1 5
1
0 4 0 2
1
end_operator
begin_operator
drive-truck truck1 s1 s0 driver1
1
0 5
1
0 4 1 0
1
end_operator
begin_operator
drive-truck truck1 s1 s0 driver2
1
1 5
1
0 4 1 0
1
end_operator
begin_operator
drive-truck truck1 s1 s2 driver1
1
0 5
1
0 4 1 2
1
end_operator
begin_operator
drive-truck truck1 s1 s2 driver2
1
1 5
1
0 4 1 2
1
end_operator
begin_operator
drive-truck truck1 s2 s0 driver1
1
0 5
1
0 4 2 0
1
end_operator
begin_operator
drive-truck truck1 s2 s0 driver2
1
1 5
1
0 4 2 0
1
end_operator
begin_operator
drive-truck truck1 s2 s1 driver1
1
0 5
1
0 4 2 1
1
end_operator
begin_operator
drive-truck truck1 s2 s1 driver2
1
1 5
1
0 4 2 1
1
end_operator
begin_operator
drive-truck truck2 s0 s1 driver1
1
0 6
1
0 5 0 1
1
end_operator
begin_operator
drive-truck truck2 s0 s1 driver2
1
1 6
1
0 5 0 1
1
end_operator
begin_operator
drive-truck truck2 s0 s2 driver1
1
0 6
1
0 5 0 2
1
end_operator
begin_operator
drive-truck truck2 s0 s2 driver2
1
1 6
1
0 5 0 2
1
end_operator
begin_operator
drive-truck truck2 s1 s0 driver1
1
0 6
1
0 5 1 0
1
end_operator
begin_operator
drive-truck truck2 s1 s0 driver2
1
1 6
1
0 5 1 0
1
end_operator
begin_operator
drive-truck truck2 s1 s2 driver1
1
0 6
1
0 5 1 2
1
end_operator
begin_operator
drive-truck truck2 s1 s2 driver2
1
1 6
1
0 5 1 2
1
end_operator
begin_operator
drive-truck truck2 s2 s0 driver1
1
0 6
1
0 5 2 0
1
end_operator
begin_operator
drive-truck truck2 s2 s0 driver2
1
1 6
1
0 5 2 0
1
end_operator
begin_operator
drive-truck truck2 s2 s1 driver1
1
0 6
1
0 5 2 1
1
end_operator
begin_operator
drive-truck truck2 s2 s1 driver2
1
1 6
1
0 5 2 1
1
end_operator
begin_operator
load-truck package1 truck1 s0
1
4 0
1
0 2 0 3
1
end_operator
begin_operator
load-truck package1 truck1 s1
1
4 1
1
0 2 1 3
1
end_operator
begin_operator
load-truck package1 truck1 s2
1
4 2
1
0 2 2 3
1
end_operator
begin_operator
load-truck package1 truck2 s0
1
5 0
1
0 2 0 4
1
end_operator
begin_operator
load-truck package1 truck2 s1
1
5 1
1
0 2 1 4
1
end_operator
begin_operator
load-truck package1 truck2 s2
1
5 2
1
0 2 2 4
1
end_operator
begin_operator
load-truck package2 truck1 s0
1
4 0
1
0 3 0 3
1
end_operator
begin_operator
load-truck package2 truck1 s1
1
4 1
1
0 3 1 3
1
end_operator
begin_operator
load-truck package2 truck1 s2
1
4 2
1
0 3 2 3
1
end_operator
begin_operator
load-truck package2 truck2 s0
1
5 0
1
0 3 0 4
1
end_operator
begin_operator
load-truck package2 truck2 s1
1
5 1
1
0 3 1 4
1
end_operator
begin_operator
load-truck package2 truck2 s2
1
5 2
1
0 3 2 4
1
end_operator
begin_operator
unload-truck package1 truck1 s0
1
4 0
1
0 2 3 0
1
end_operator
begin_operator
unload-truck package1 truck1 s1
1
4 1
1
0 2 3 1
1
end_operator
begin_operator
unload-truck package1 truck1 s2
1
4 2
1
0 2 3 2
1
end_operator
begin_operator
unload-truck package1 truck2 s0
1
5 0
1
0 2 4 0
1
end_operator
begin_operator
unload-truck package1 truck2 s1
1
5 1
1
0 2 4 1
1
end_operator
begin_operator
unload-truck package1 truck2 s2
1
5 2
1
0 2 4 2
1
end_operator
begin_operator
unload-truck package2 truck1 s0
1
4 0
1
0 3 3 0
1
end_operator
begin_operator
unload-truck package2 truck1 s1
1
4 1
1
0 3 3 1
1
end_operator
begin_operator
unload-truck package2 truck1 s2
1
4 2
1
0 3 3 2
1
end_operator
begin_operator
unload-truck package2 truck2 s0
1
5 0
1
0 3 4 0
1
end_operator
begin_operator
unload-truck package2 truck2 s1
1
5 1
1
0 3 4 1
1
end_operator
begin_operator
unload-truck package2 truck2 s2
1
5 2
1
0 3 4 2
1
end_operator
begin_operator
walk driver1 p1-0 s0
0
1
0 0 0 2
1
end_operator
begin_operator
walk driver1 p1-0 s1
0
1
0 0 0 3
1
end_operator
begin_operator
walk driver1 p1-2 s1
0
1
0 0 1 3
1
end_operator
begin_operator
walk driver1 p1-2 s2
0
1
0 0 1 4
1
end_operator
begin_operator
walk driver1 s0 p1-0
0
1
0 0 2 0
1
end_operator
begin_operator
walk driver1 s1 p1-0
0
1
0 0 3 0
1
end_operator
begin_operator
walk driver1 s1 p1-2
0
1
0 0 3 1
1
end_operator
begin_operator
walk driver1 s2 p1-2
0
1
0 0 4 1
1
end_operator
begin_operator
walk driver2 p1-0 s0
0
1
0 1 0 2
1
end_operator
begin_operator
walk driver2 p1-0 s1
0
1
0 1 0 3
1
end_operator
begin_operator
walk driver2 p1-2 s1
0
1
0 1 1 3
1
end_operator
begin_operator
walk driver2 p1-2 s2
0
1
0 1 1 4
1
end_operator
begin_operator
walk driver2 s0 p1-0
0
1
0 1 2 0
1
end_operator
begin_operator
walk driver2 s1 p1-0
0
1
0 1 3 0
1
end_operator
begin_operator
walk driver2 s1 p1-2
0
1
0 1 3 1
1
end_operator
begin_operator
walk driver2 s2 p1-2
0
1
0 1 4 1
1
end_operator
begin_operator
tnf-forget-1-0
0
1
0 1 0 7
0
end_operator
begin_operator
tnf-forget-1-1
0
1
0 1 1 7
0
end_operator
begin_operator
tnf-forget-1-2
0
1
0 1 2 7
0
end_operator
begin_operator
tnf-forget-1-3
0
1
0 1 3 7
0
end_operator
begin_operator
tnf-forget-1-4
0
1
0 1 4 7
0
end_operator
begin_operator
tnf-forget-1-5
0
1
0 1 5 7
0
end_operator
begin_operator
tnf-forget-1-6
0
1
0 1 6 7
0
end_operator
begin_operator
tnf-forget-5-0
0
1
0 5 0 3
0
end_operator
begin_operator
tnf-forget-5-1
0
1
0 5 1 3
0
end_operator
begin_operator
tnf-forget-5-2
0
1
0 5 2 3
0
end_operator
begin_operator
tnf-forget-6-0
0
1
0 6 0 2
0
end_operator
begin_operator
tnf-forget-6-1
0
1
0 6 1 2
0
end_operator
begin_operator
tnf-forget-7-0
0
1
0 7 0 2
0
end_operator
begin_operator
tnf-forget-7-1
0
1
0 7 1 2
0
end_operator
0
