Domain: openstacks-sequencedstrips-nonadl
Problem: os-sequencedstrips-p20_1
Require: 200ff
Type[4]:
    [0]: object, parent: -1
    [1]: order, parent: 0
    [2]: product, parent: 0
    [3]: count, parent: 0
Obj-by-Type:
    [0]: 0 1 2 3 4 5 6 7 8 9 10 11 12 13 14 15 16 17 18 19 20 21 22 23 24 25 26 27 28 29 30 31 32 33 34 35 36 37 38 39 40 41 42 43 44 45 46 47 48 49 50 51 52 53 54 55 56 57 58 59 60
    [1]: 20 21 22 23 24 25 26 27 28 29 30 31 32 33 34 35 36 37 38 39
    [2]: 0 1 2 3 4 5 6 7 8 9 10 11 12 13 14 15 16 17 18 19
    [3]: 40 41 42 43 44 45 46 47 48 49 50 51 52 53 54 55 56 57 58 59 60
Obj[61]:
    [0]: p1, type: 2, is-constant: 1, is-private: 0, owner: -1, is-agent: 0
    [1]: p2, type: 2, is-constant: 1, is-private: 0, owner: -1, is-agent: 0
    [2]: p3, type: 2, is-constant: 1, is-private: 0, owner: -1, is-agent: 0
    [3]: p4, type: 2, is-constant: 1, is-private: 0, owner: -1, is-agent: 0
    [4]: p5, type: 2, is-constant: 1, is-private: 0, owner: -1, is-agent: 0
    [5]: p6, type: 2, is-constant: 1, is-private: 0, owner: -1, is-agent: 0
    [6]: p7, type: 2, is-constant: 1, is-private: 0, owner: -1, is-agent: 0
    [7]: p8, type: 2, is-constant: 1, is-private: 0, owner: -1, is-agent: 0
    [8]: p9, type: 2, is-constant: 1, is-private: 0, owner: -1, is-agent: 0
    [9]: p10, type: 2, is-constant: 1, is-private: 0, owner: -1, is-agent: 0
    [10]: p11, type: 2, is-constant: 1, is-private: 0, owner: -1, is-agent: 0
    [11]: p12, type: 2, is-constant: 1, is-private: 0, owner: -1, is-agent: 0
    [12]: p13, type: 2, is-constant: 1, is-private: 0, owner: -1, is-agent: 0
    [13]: p14, type: 2, is-constant: 1, is-private: 0, owner: -1, is-agent: 0
    [14]: p15, type: 2, is-constant: 1, is-private: 0, owner: -1, is-agent: 0
    [15]: p16, type: 2, is-constant: 1, is-private: 0, owner: -1, is-agent: 0
    [16]: p17, type: 2, is-constant: 1, is-private: 0, owner: -1, is-agent: 0
    [17]: p18, type: 2, is-constant: 1, is-private: 0, owner: -1, is-agent: 0
    [18]: p19, type: 2, is-constant: 1, is-private: 0, owner: -1, is-agent: 0
    [19]: p20, type: 2, is-constant: 1, is-private: 0, owner: -1, is-agent: 0
    [20]: o1, type: 1, is-constant: 1, is-private: 0, owner: -1, is-agent: 0
    [21]: o2, type: 1, is-constant: 1, is-private: 0, owner: -1, is-agent: 0
    [22]: o3, type: 1, is-constant: 1, is-private: 0, owner: -1, is-agent: 0
    [23]: o4, type: 1, is-constant: 1, is-private: 0, owner: -1, is-agent: 0
    [24]: o5, type: 1, is-constant: 1, is-private: 0, owner: -1, is-agent: 0
    [25]: o6, type: 1, is-constant: 1, is-private: 0, owner: -1, is-agent: 0
    [26]: o7, type: 1, is-constant: 1, is-private: 0, owner: -1, is-agent: 0
    [27]: o8, type: 1, is-constant: 1, is-private: 0, owner: -1, is-agent: 0
    [28]: o9, type: 1, is-constant: 1, is-private: 0, owner: -1, is-agent: 0
    [29]: o10, type: 1, is-constant: 1, is-private: 0, owner: -1, is-agent: 0
    [30]: o11, type: 1, is-constant: 1, is-private: 0, owner: -1, is-agent: 0
    [31]: o12, type: 1, is-constant: 1, is-private: 0, owner: -1, is-agent: 0
    [32]: o13, type: 1, is-constant: 1, is-private: 0, owner: -1, is-agent: 0
    [33]: o14, type: 1, is-constant: 1, is-private: 0, owner: -1, is-agent: 0
    [34]: o15, type: 1, is-constant: 1, is-private: 0, owner: -1, is-agent: 0
    [35]: o16, type: 1, is-constant: 1, is-private: 0, owner: -1, is-agent: 0
    [36]: o17, type: 1, is-constant: 1, is-private: 0, owner: -1, is-agent: 0
    [37]: o18, type: 1, is-constant: 1, is-private: 0, owner: -1, is-agent: 0
    [38]: o19, type: 1, is-constant: 1, is-private: 0, owner: -1, is-agent: 0
    [39]: o20, type: 1, is-constant: 1, is-private: 0, owner: -1, is-agent: 0
    [40]: n0, type: 3, is-constant: 0, is-private: 0, owner: -1, is-agent: 0
    [41]: n1, type: 3, is-constant: 0, is-private: 0, owner: -1, is-agent: 0
    [42]: n2, type: 3, is-constant: 0, is-private: 0, owner: -1, is-agent: 0
    [43]: n3, type: 3, is-constant: 0, is-private: 0, owner: -1, is-agent: 0
    [44]: n4, type: 3, is-constant: 0, is-private: 0, owner: -1, is-agent: 0
    [45]: n5, type: 3, is-constant: 0, is-private: 0, owner: -1, is-agent: 0
    [46]: n6, type: 3, is-constant: 0, is-private: 0, owner: -1, is-agent: 0
    [47]: n7, type: 3, is-constant: 0, is-private: 0, owner: -1, is-agent: 0
    [48]: n8, type: 3, is-constant: 0, is-private: 0, owner: -1, is-agent: 0
    [49]: n9, type: 3, is-constant: 0, is-private: 0, owner: -1, is-agent: 0
    [50]: n10, type: 3, is-constant: 0, is-private: 0, owner: -1, is-agent: 0
    [51]: n11, type: 3, is-constant: 0, is-private: 0, owner: -1, is-agent: 0
    [52]: n12, type: 3, is-constant: 0, is-private: 0, owner: -1, is-agent: 0
    [53]: n13, type: 3, is-constant: 0, is-private: 0, owner: -1, is-agent: 0
    [54]: n14, type: 3, is-constant: 0, is-private: 0, owner: -1, is-agent: 0
    [55]: n15, type: 3, is-constant: 0, is-private: 0, owner: -1, is-agent: 0
    [56]: n16, type: 3, is-constant: 0, is-private: 0, owner: -1, is-agent: 0
    [57]: n17, type: 3, is-constant: 0, is-private: 0, owner: -1, is-agent: 0
    [58]: n18, type: 3, is-constant: 0, is-private: 0, owner: -1, is-agent: 0
    [59]: n19, type: 3, is-constant: 0, is-private: 0, owner: -1, is-agent: 0
    [60]: n20, type: 3, is-constant: 0, is-private: 0, owner: -1, is-agent: 0
Predicate[9]:
    =: 0 0 :: is-private: 0, owner-param: -1, read: 0, write: 0
    includes: 1 2 :: is-private: 0, owner-param: -1, read: 0, write: 0
    waiting: 1 :: is-private: 0, owner-param: -1, read: 1, write: 1
    started: 1 :: is-private: 0, owner-param: -1, read: 1, write: 1
    shipped: 1 :: is-private: 0, owner-param: -1, read: 0, write: 1
    made: 2 :: is-private: 0, owner-param: -1, read: 1, write: 1, neg-of: 8
    stacks-avail: 3 :: is-private: 0, owner-param: -1, read: 1, write: 1
    next-count: 3 3 :: is-private: 0, owner-param: -1, read: 1, write: 0
    NOT-made: 2 :: is-private: 0, owner-param: -1, read: 1, write: 1, neg-of: 5
Function[1]:
    total-cost: :: is-private: 0, owner-param: -1, read: 0, write: 0
Action[42]:
    open-new-stack: ?open:3 ?new-open:3
        pre: (and (RW:stacks-avail ?open) (R:next-count ?open ?new-open))
        eff: (and (N:RW:stacks-avail ?open) (RW:stacks-avail ?new-open) (increase (total-cost) 1))
    start-order: ?o:1 ?avail:3 ?new-avail:3
        pre: (and (RW:waiting ?o) (RW:stacks-avail ?avail) (R:next-count ?new-avail ?avail))
        eff: (and (N:RW:waiting ?o) (RW:started ?o) (N:RW:stacks-avail ?avail) (RW:stacks-avail ?new-avail))
    make-product-p1: 
        pre: (and (RW:NOT-made p1) (RW:started o12))
        eff: (and (RW:made p1) (N:RW:NOT-made p1))
    make-product-p2: 
        pre: (and (RW:NOT-made p2) (RW:started o14) (RW:started o16))
        eff: (and (RW:made p2) (N:RW:NOT-made p2))
    make-product-p3: 
        pre: (and (RW:NOT-made p3) (RW:started o3) (RW:started o9))
        eff: (and (RW:made p3) (N:RW:NOT-made p3))
    make-product-p4: 
        pre: (and (RW:NOT-made p4) (RW:started o6))
        eff: (and (RW:made p4) (N:RW:NOT-made p4))
    make-product-p5: 
        pre: (and (RW:NOT-made p5) (RW:started o2) (RW:started o4))
        eff: (and (RW:made p5) (N:RW:NOT-made p5))
    make-product-p6: 
        pre: (and (RW:NOT-made p6) (RW:started o20))
        eff: (and (RW:made p6) (N:RW:NOT-made p6))
    make-product-p7: 
        pre: (and (RW:NOT-made p7) (RW:started o7))
        eff: (and (RW:made p7) (N:RW:NOT-made p7))
    make-product-p8: 
        pre: (and (RW:NOT-made p8) (RW:started o4))
        eff: (and (RW:made p8) (N:RW:NOT-made p8))
    make-product-p9: 
        pre: (and (RW:NOT-made p9) (RW:started o5))
        eff: (and (RW:made p9) (N:RW:NOT-made p9))
    make-product-p10: 
        pre: (and (RW:NOT-made p10) (RW:started o5))
        eff: (and (RW:made p10) (N:RW:NOT-made p10))
    make-product-p11: 
        pre: (and (RW:NOT-made p11) (RW:started o15) (RW:started o19))
        eff: (and (RW:made p11) (N:RW:NOT-made p11))
    make-product-p12: 
        pre: (and (RW:NOT-made p12) (RW:started o6) (RW:started o10))
        eff: (and (RW:made p12) (N:RW:NOT-made p12))
    make-product-p13: 
        pre: (and (RW:NOT-made p13) (RW:started o8) (RW:started o18))
        eff: (and (RW:made p13) (N:RW:NOT-made p13))
    make-product-p14: 
        pre: (and (RW:NOT-made p14) (RW:started o17))
        eff: (and (RW:made p14) (N:RW:NOT-made p14))
    make-product-p15: 
        pre: (and (RW:NOT-made p15) (RW:started o1) (RW:started o2) (RW:started o17))
        eff: (and (RW:made p15) (N:RW:NOT-made p15))
    make-product-p16: 
        pre: (and (RW:NOT-made p16) (RW:started o15))
        eff: (and (RW:made p16) (N:RW:NOT-made p16))
    make-product-p17: 
        pre: (and (RW:NOT-made p17) (RW:started o16))
        eff: (and (RW:made p17) (N:RW:NOT-made p17))
    make-product-p18: 
        pre: (and (RW:NOT-made p18) (RW:started o11))
        eff: (and (RW:made p18) (N:RW:NOT-made p18))
    make-product-p19: 
        pre: (and (RW:NOT-made p19) (RW:started o11))
        eff: (and (RW:made p19) (N:RW:NOT-made p19))
    make-product-p20: 
        pre: (and (RW:NOT-made p20) (RW:started o13))
        eff: (and (RW:made p20) (N:RW:NOT-made p20))
    ship-order-o1: ?avail:3 ?new-avail:3
        pre: (and (RW:started o1) (RW:made p15) (RW:stacks-avail ?avail) (R:next-count ?avail ?new-avail))
        eff: (and (N:RW:started o1) (W:shipped o1) (N:RW:stacks-avail ?avail) (RW:stacks-avail ?new-avail))
    ship-order-o2: ?avail:3 ?new-avail:3
        pre: (and (RW:started o2) (RW:made p5) (RW:made p15) (RW:stacks-avail ?avail) (R:next-count ?avail ?new-avail))
        eff: (and (N:RW:started o2) (W:shipped o2) (N:RW:stacks-avail ?avail) (RW:stacks-avail ?new-avail))
    ship-order-o3: ?avail:3 ?new-avail:3
        pre: (and (RW:started o3) (RW:made p3) (RW:stacks-avail ?avail) (R:next-count ?avail ?new-avail))
        eff: (and (N:RW:started o3) (W:shipped o3) (N:RW:stacks-avail ?avail) (RW:stacks-avail ?new-avail))
    ship-order-o4: ?avail:3 ?new-avail:3
        pre: (and (RW:started o4) (RW:made p5) (RW:made p8) (RW:stacks-avail ?avail) (R:next-count ?avail ?new-avail))
        eff: (and (N:RW:started o4) (W:shipped o4) (N:RW:stacks-avail ?avail) (RW:stacks-avail ?new-avail))
    ship-order-o5: ?avail:3 ?new-avail:3
        pre: (and (RW:started o5) (RW:made p9) (RW:made p10) (RW:stacks-avail ?avail) (R:next-count ?avail ?new-avail))
        eff: (and (N:RW:started o5) (W:shipped o5) (N:RW:stacks-avail ?avail) (RW:stacks-avail ?new-avail))
    ship-order-o6: ?avail:3 ?new-avail:3
        pre: (and (RW:started o6) (RW:made p4) (RW:made p12) (RW:stacks-avail ?avail) (R:next-count ?avail ?new-avail))
        eff: (and (N:RW:started o6) (W:shipped o6) (N:RW:stacks-avail ?avail) (RW:stacks-avail ?new-avail))
    ship-order-o7: ?avail:3 ?new-avail:3
        pre: (and (RW:started o7) (RW:made p7) (RW:stacks-avail ?avail) (R:next-count ?avail ?new-avail))
        eff: (and (N:RW:started o7) (W:shipped o7) (N:RW:stacks-avail ?avail) (RW:stacks-avail ?new-avail))
    ship-order-o8: ?avail:3 ?new-avail:3
        pre: (and (RW:started o8) (RW:made p13) (RW:stacks-avail ?avail) (R:next-count ?avail ?new-avail))
        eff: (and (N:RW:started o8) (W:shipped o8) (N:RW:stacks-avail ?avail) (RW:stacks-avail ?new-avail))
    ship-order-o9: ?avail:3 ?new-avail:3
        pre: (and (RW:started o9) (RW:made p3) (RW:stacks-avail ?avail) (R:next-count ?avail ?new-avail))
        eff: (and (N:RW:started o9) (W:shipped o9) (N:RW:stacks-avail ?avail) (RW:stacks-avail ?new-avail))
    ship-order-o10: ?avail:3 ?new-avail:3
        pre: (and (RW:started o10) (RW:made p12) (RW:stacks-avail ?avail) (R:next-count ?avail ?new-avail))
        eff: (and (N:RW:started o10) (W:shipped o10) (N:RW:stacks-avail ?avail) (RW:stacks-avail ?new-avail))
    ship-order-o11: ?avail:3 ?new-avail:3
        pre: (and (RW:started o11) (RW:made p18) (RW:made p19) (RW:stacks-avail ?avail) (R:next-count ?avail ?new-avail))
        eff: (and (N:RW:started o11) (W:shipped o11) (N:RW:stacks-avail ?avail) (RW:stacks-avail ?new-avail))
    ship-order-o12: ?avail:3 ?new-avail:3
        pre: (and (RW:started o12) (RW:made p1) (RW:stacks-avail ?avail) (R:next-count ?avail ?new-avail))
        eff: (and (N:RW:started o12) (W:shipped o12) (N:RW:stacks-avail ?avail) (RW:stacks-avail ?new-avail))
    ship-order-o13: ?avail:3 ?new-avail:3
        pre: (and (RW:started o13) (RW:made p20) (RW:stacks-avail ?avail) (R:next-count ?avail ?new-avail))
        eff: (and (N:RW:started o13) (W:shipped o13) (N:RW:stacks-avail ?avail) (RW:stacks-avail ?new-avail))
    ship-order-o14: ?avail:3 ?new-avail:3
        pre: (and (RW:started o14) (RW:made p2) (RW:stacks-avail ?avail) (R:next-count ?avail ?new-avail))
        eff: (and (N:RW:started o14) (W:shipped o14) (N:RW:stacks-avail ?avail) (RW:stacks-avail ?new-avail))
    ship-order-o15: ?avail:3 ?new-avail:3
        pre: (and (RW:started o15) (RW:made p11) (RW:made p16) (RW:stacks-avail ?avail) (R:next-count ?avail ?new-avail))
        eff: (and (N:RW:started o15) (W:shipped o15) (N:RW:stacks-avail ?avail) (RW:stacks-avail ?new-avail))
    ship-order-o16: ?avail:3 ?new-avail:3
        pre: (and (RW:started o16) (RW:made p2) (RW:made p17) (RW:stacks-avail ?avail) (R:next-count ?avail ?new-avail))
        eff: (and (N:RW:started o16) (W:shipped o16) (N:RW:stacks-avail ?avail) (RW:stacks-avail ?new-avail))
    ship-order-o17: ?avail:3 ?new-avail:3
        pre: (and (RW:started o17) (RW:made p14) (RW:made p15) (RW:stacks-avail ?avail) (R:next-count ?avail ?new-avail))
        eff: (and (N:RW:started o17) (W:shipped o17) (N:RW:stacks-avail ?avail) (RW:stacks-avail ?new-avail))
    ship-order-o18: ?avail:3 ?new-avail:3
        pre: (and (RW:started o18) (RW:made p13) (RW:stacks-avail ?avail) (R:next-count ?avail ?new-avail))
        eff: (and (N:RW:started o18) (W:shipped o18) (N:RW:stacks-avail ?avail) (RW:stacks-avail ?new-avail))
    ship-order-o19: ?avail:3 ?new-avail:3
        pre: (and (RW:started o19) (RW:made p11) (RW:stacks-avail ?avail) (R:next-count ?avail ?new-avail))
        eff: (and (N:RW:started o19) (W:shipped o19) (N:RW:stacks-avail ?avail) (RW:stacks-avail ?new-avail))
    ship-order-o20: ?avail:3 ?new-avail:3
        pre: (and (RW:started o20) (RW:made p6) (RW:stacks-avail ?avail) (R:next-count ?avail ?new-avail))
        eff: (and (N:RW:started o20) (W:shipped o20) (N:RW:stacks-avail ?avail) (RW:stacks-avail ?new-avail))
Init[89]:
  S:(next-count n0 n1)
  S:(next-count n1 n2)
  S:(next-count n2 n3)
  S:(next-count n3 n4)
  S:(next-count n4 n5)
  S:(next-count n5 n6)
  S:(next-count n6 n7)
  S:(next-count n7 n8)
  S:(next-count n8 n9)
  S:(next-count n9 n10)
  S:(next-count n10 n11)
  S:(next-count n11 n12)
  S:(next-count n12 n13)
  S:(next-count n13 n14)
  S:(next-count n14 n15)
  S:(next-count n15 n16)
  S:(next-count n16 n17)
  S:(next-count n17 n18)
  S:(next-count n18 n19)
  S:(next-count n19 n20)
  (stacks-avail n0)
  (waiting o1)
  S:(includes o1 p15)
  (waiting o2)
  S:(includes o2 p5)
  S:(includes o2 p15)
  (waiting o3)
  S:(includes o3 p3)
  (waiting o4)
  S:(includes o4 p5)
  S:(includes o4 p8)
  (waiting o5)
  S:(includes o5 p9)
  S:(includes o5 p10)
  (waiting o6)
  S:(includes o6 p4)
  S:(includes o6 p12)
  (waiting o7)
  S:(includes o7 p7)
  (waiting o8)
  S:(includes o8 p13)
  (waiting o9)
  S:(includes o9 p3)
  (waiting o10)
  S:(includes o10 p12)
  (waiting o11)
  S:(includes o11 p18)
  S:(includes o11 p19)
  (waiting o12)
  S:(includes o12 p1)
  (waiting o13)
  S:(includes o13 p20)
  (waiting o14)
  S:(includes o14 p2)
  (waiting o15)
  S:(includes o15 p11)
  S:(includes o15 p16)
  (waiting o16)
  S:(includes o16 p2)
  S:(includes o16 p17)
  (waiting o17)
  S:(includes o17 p14)
  S:(includes o17 p15)
  (waiting o18)
  S:(includes o18 p13)
  (waiting o19)
  S:(includes o19 p11)
  (waiting o20)
  S:(includes o20 p6)
  (NOT-made p1)
  (NOT-made p2)
  (NOT-made p3)
  (NOT-made p4)
  (NOT-made p5)
  (NOT-made p6)
  (NOT-made p7)
  (NOT-made p8)
  (NOT-made p9)
  (NOT-made p10)
  (NOT-made p11)
  (NOT-made p12)
  (NOT-made p13)
  (NOT-made p14)
  (NOT-made p15)
  (NOT-made p16)
  (NOT-made p17)
  (NOT-made p18)
  (NOT-made p19)
  (NOT-made p20)
Init[1]:
  (= (total-cost) 0)
Goal: (and (W:shipped o1) (W:shipped o2) (W:shipped o3) (W:shipped o4) (W:shipped o5) (W:shipped o6) (W:shipped o7) (W:shipped o8) (W:shipped o9) (W:shipped o10) (W:shipped o11) (W:shipped o12) (W:shipped o13) (W:shipped o14) (W:shipped o15) (W:shipped o16) (W:shipped o17) (W:shipped o18) (W:shipped o19) (W:shipped o20))
Metric: 1
