RSE-Invertible facts:
69:(handempty left) in-fam-group
70:(handempty right) in-fam-group
71:(holding left shaker1) in-fam-group
72:(holding left shot1) in-fam-group
73:(holding left shot2) in-fam-group
74:(holding left shot3) in-fam-group
75:(holding left shot4) in-fam-group
76:(holding left shot5) in-fam-group
77:(holding left shot6) in-fam-group
78:(holding left shot7) in-fam-group
79:(holding left shot8) in-fam-group
80:(holding right shaker1) in-fam-group
81:(holding right shot1) in-fam-group
82:(holding right shot2) in-fam-group
83:(holding right shot3) in-fam-group
84:(holding right shot4) in-fam-group
85:(holding right shot5) in-fam-group
86:(holding right shot6) in-fam-group
87:(holding right shot7) in-fam-group
88:(holding right shot8) in-fam-group
89:(ontable shaker1) in-fam-group
90:(ontable shot1) in-fam-group
91:(ontable shot2) in-fam-group
92:(ontable shot3) in-fam-group
93:(ontable shot4) in-fam-group
94:(ontable shot5) in-fam-group
95:(ontable shot6) in-fam-group
96:(ontable shot7) in-fam-group
97:(ontable shot8) in-fam-group
103:(used shot1 ingredient1) in-fam-group
104:(used shot1 ingredient2) in-fam-group
105:(used shot1 ingredient3) in-fam-group
106:(used shot2 ingredient1) in-fam-group
107:(used shot2 ingredient2) in-fam-group
108:(used shot2 ingredient3) in-fam-group
109:(used shot3 ingredient1) in-fam-group
110:(used shot3 ingredient2) in-fam-group
111:(used shot3 ingredient3) in-fam-group
112:(used shot4 ingredient1) in-fam-group
113:(used shot4 ingredient2) in-fam-group
114:(used shot4 ingredient3) in-fam-group
115:(used shot5 ingredient1) in-fam-group
116:(used shot5 ingredient2) in-fam-group
117:(used shot5 ingredient3) in-fam-group
118:(used shot6 ingredient1) in-fam-group
119:(used shot6 ingredient2) in-fam-group
120:(used shot6 ingredient3) in-fam-group
121:(used shot7 ingredient1) in-fam-group
122:(used shot7 ingredient2) in-fam-group
123:(used shot7 ingredient3) in-fam-group
124:(used shot8 ingredient1) in-fam-group
125:(used shot8 ingredient2) in-fam-group
126:(used shot8 ingredient3) in-fam-group
