 (behind-car car_00 car_01) (behind-car car_02 car_01) (behind-car car_03 car_01) (behind-car car_04 car_01) (behind-car car_05 car_01) (behind-car car_06 car_01) (behind-car car_07 car_01) (behind-car car_08 car_01) (behind-car car_09 car_01) (behind-car car_10 car_01) (behind-car car_11 car_01) (car-clear car_01):=1:fam:G
 (behind-car car_00 car_02) (behind-car car_01 car_02) (behind-car car_03 car_02) (behind-car car_04 car_02) (behind-car car_05 car_02) (behind-car car_06 car_02) (behind-car car_07 car_02) (behind-car car_08 car_02) (behind-car car_09 car_02) (behind-car car_10 car_02) (behind-car car_11 car_02) (car-clear car_02):=1:fam:G
 (behind-car car_00 car_03) (behind-car car_01 car_03) (behind-car car_02 car_03) (behind-car car_04 car_03) (behind-car car_05 car_03) (behind-car car_06 car_03) (behind-car car_07 car_03) (behind-car car_08 car_03) (behind-car car_09 car_03) (behind-car car_10 car_03) (behind-car car_11 car_03) (car-clear car_03):=1:fam:G
 (behind-car car_00 car_04) (behind-car car_01 car_04) (behind-car car_02 car_04) (behind-car car_03 car_04) (behind-car car_05 car_04) (behind-car car_06 car_04) (behind-car car_07 car_04) (behind-car car_08 car_04) (behind-car car_09 car_04) (behind-car car_10 car_04) (behind-car car_11 car_04) (car-clear car_04):=1:fam:G
 (behind-car car_00 car_05) (behind-car car_01 car_05) (behind-car car_02 car_05) (behind-car car_03 car_05) (behind-car car_04 car_05) (behind-car car_06 car_05) (behind-car car_07 car_05) (behind-car car_08 car_05) (behind-car car_09 car_05) (behind-car car_10 car_05) (behind-car car_11 car_05) (car-clear car_05):=1:fam
 (behind-car car_00 car_06) (behind-car car_01 car_06) (behind-car car_02 car_06) (behind-car car_03 car_06) (behind-car car_04 car_06) (behind-car car_05 car_06) (behind-car car_07 car_06) (behind-car car_08 car_06) (behind-car car_09 car_06) (behind-car car_10 car_06) (behind-car car_11 car_06) (car-clear car_06):=1:fam
 (behind-car car_00 car_07) (behind-car car_01 car_07) (behind-car car_02 car_07) (behind-car car_03 car_07) (behind-car car_04 car_07) (behind-car car_05 car_07) (behind-car car_06 car_07) (behind-car car_08 car_07) (behind-car car_09 car_07) (behind-car car_10 car_07) (behind-car car_11 car_07) (car-clear car_07):=1:fam
 (behind-car car_00 car_08) (behind-car car_01 car_08) (behind-car car_02 car_08) (behind-car car_03 car_08) (behind-car car_04 car_08) (behind-car car_05 car_08) (behind-car car_06 car_08) (behind-car car_07 car_08) (behind-car car_09 car_08) (behind-car car_10 car_08) (behind-car car_11 car_08) (car-clear car_08):=1:fam
 (behind-car car_00 car_09) (behind-car car_01 car_09) (behind-car car_02 car_09) (behind-car car_03 car_09) (behind-car car_04 car_09) (behind-car car_05 car_09) (behind-car car_06 car_09) (behind-car car_07 car_09) (behind-car car_08 car_09) (behind-car car_10 car_09) (behind-car car_11 car_09) (car-clear car_09):=1:fam
 (behind-car car_00 car_10) (behind-car car_01 car_10) (behind-car car_02 car_10) (behind-car car_03 car_10) (behind-car car_04 car_10) (behind-car car_05 car_10) (behind-car car_06 car_10) (behind-car car_07 car_10) (behind-car car_08 car_10) (behind-car car_09 car_10) (behind-car car_11 car_10) (car-clear car_10):=1:fam
 (behind-car car_00 car_11) (behind-car car_01 car_11) (behind-car car_02 car_11) (behind-car car_03 car_11) (behind-car car_04 car_11) (behind-car car_05 car_11) (behind-car car_06 car_11) (behind-car car_07 car_11) (behind-car car_08 car_11) (behind-car car_09 car_11) (behind-car car_10 car_11) (car-clear car_11):=1:fam
 (behind-car car_01 car_00) (behind-car car_02 car_00) (behind-car car_03 car_00) (behind-car car_04 car_00) (behind-car car_05 car_00) (behind-car car_06 car_00) (behind-car car_07 car_00) (behind-car car_08 car_00) (behind-car car_09 car_00) (behind-car car_10 car_00) (behind-car car_11 car_00) (car-clear car_00):=1:fam:G
 (at-curb-num car_00 curb_0) (at-curb-num car_01 curb_0) (at-curb-num car_02 curb_0) (at-curb-num car_03 curb_0) (at-curb-num car_04 curb_0) (at-curb-num car_05 curb_0) (at-curb-num car_06 curb_0) (at-curb-num car_07 curb_0) (at-curb-num car_08 curb_0) (at-curb-num car_09 curb_0) (at-curb-num car_10 curb_0) (at-curb-num car_11 curb_0) (curb-clear curb_0):=1:fam:G
 (at-curb-num car_00 curb_1) (at-curb-num car_01 curb_1) (at-curb-num car_02 curb_1) (at-curb-num car_03 curb_1) (at-curb-num car_04 curb_1) (at-curb-num car_05 curb_1) (at-curb-num car_06 curb_1) (at-curb-num car_07 curb_1) (at-curb-num car_08 curb_1) (at-curb-num car_09 curb_1) (at-curb-num car_10 curb_1) (at-curb-num car_11 curb_1) (curb-clear curb_1):=1:fam:G
 (at-curb-num car_00 curb_2) (at-curb-num car_01 curb_2) (at-curb-num car_02 curb_2) (at-curb-num car_03 curb_2) (at-curb-num car_04 curb_2) (at-curb-num car_05 curb_2) (at-curb-num car_06 curb_2) (at-curb-num car_07 curb_2) (at-curb-num car_08 curb_2) (at-curb-num car_09 curb_2) (at-curb-num car_10 curb_2) (at-curb-num car_11 curb_2) (curb-clear curb_2):=1:fam:G
 (at-curb-num car_00 curb_3) (at-curb-num car_01 curb_3) (at-curb-num car_02 curb_3) (at-curb-num car_03 curb_3) (at-curb-num car_04 curb_3) (at-curb-num car_05 curb_3) (at-curb-num car_06 curb_3) (at-curb-num car_07 curb_3) (at-curb-num car_08 curb_3) (at-curb-num car_09 curb_3) (at-curb-num car_10 curb_3) (at-curb-num car_11 curb_3) (curb-clear curb_3):=1:fam:G
 (at-curb-num car_00 curb_4) (at-curb-num car_01 curb_4) (at-curb-num car_02 curb_4) (at-curb-num car_03 curb_4) (at-curb-num car_04 curb_4) (at-curb-num car_05 curb_4) (at-curb-num car_06 curb_4) (at-curb-num car_07 curb_4) (at-curb-num car_08 curb_4) (at-curb-num car_09 curb_4) (at-curb-num car_10 curb_4) (at-curb-num car_11 curb_4) (curb-clear curb_4):=1:fam:G
 (at-curb-num car_00 curb_5) (at-curb-num car_01 curb_5) (at-curb-num car_02 curb_5) (at-curb-num car_03 curb_5) (at-curb-num car_04 curb_5) (at-curb-num car_05 curb_5) (at-curb-num car_06 curb_5) (at-curb-num car_07 curb_5) (at-curb-num car_08 curb_5) (at-curb-num car_09 curb_5) (at-curb-num car_10 curb_5) (at-curb-num car_11 curb_5) (curb-clear curb_5):=1:fam:G
 (at-curb-num car_00 curb_6) (at-curb-num car_01 curb_6) (at-curb-num car_02 curb_6) (at-curb-num car_03 curb_6) (at-curb-num car_04 curb_6) (at-curb-num car_05 curb_6) (at-curb-num car_06 curb_6) (at-curb-num car_07 curb_6) (at-curb-num car_08 curb_6) (at-curb-num car_09 curb_6) (at-curb-num car_10 curb_6) (at-curb-num car_11 curb_6) (curb-clear curb_6):=1:fam:G
 (at-curb-num car_00 curb_0) (at-curb-num car_00 curb_1) (at-curb-num car_00 curb_2) (at-curb-num car_00 curb_3) (at-curb-num car_00 curb_4) (at-curb-num car_00 curb_5) (at-curb-num car_00 curb_6) (behind-car car_00 car_01) (behind-car car_00 car_02) (behind-car car_00 car_03) (behind-car car_00 car_04) (behind-car car_00 car_05) (behind-car car_00 car_06) (behind-car car_00 car_07) (behind-car car_00 car_08) (behind-car car_00 car_09) (behind-car car_00 car_10) (behind-car car_00 car_11):=1:fam:G
 (at-curb-num car_01 curb_0) (at-curb-num car_01 curb_1) (at-curb-num car_01 curb_2) (at-curb-num car_01 curb_3) (at-curb-num car_01 curb_4) (at-curb-num car_01 curb_5) (at-curb-num car_01 curb_6) (behind-car car_01 car_00) (behind-car car_01 car_02) (behind-car car_01 car_03) (behind-car car_01 car_04) (behind-car car_01 car_05) (behind-car car_01 car_06) (behind-car car_01 car_07) (behind-car car_01 car_08) (behind-car car_01 car_09) (behind-car car_01 car_10) (behind-car car_01 car_11):=1:fam:G
 (at-curb-num car_02 curb_0) (at-curb-num car_02 curb_1) (at-curb-num car_02 curb_2) (at-curb-num car_02 curb_3) (at-curb-num car_02 curb_4) (at-curb-num car_02 curb_5) (at-curb-num car_02 curb_6) (behind-car car_02 car_00) (behind-car car_02 car_01) (behind-car car_02 car_03) (behind-car car_02 car_04) (behind-car car_02 car_05) (behind-car car_02 car_06) (behind-car car_02 car_07) (behind-car car_02 car_08) (behind-car car_02 car_09) (behind-car car_02 car_10) (behind-car car_02 car_11):=1:fam:G
 (at-curb-num car_03 curb_0) (at-curb-num car_03 curb_1) (at-curb-num car_03 curb_2) (at-curb-num car_03 curb_3) (at-curb-num car_03 curb_4) (at-curb-num car_03 curb_5) (at-curb-num car_03 curb_6) (behind-car car_03 car_00) (behind-car car_03 car_01) (behind-car car_03 car_02) (behind-car car_03 car_04) (behind-car car_03 car_05) (behind-car car_03 car_06) (behind-car car_03 car_07) (behind-car car_03 car_08) (behind-car car_03 car_09) (behind-car car_03 car_10) (behind-car car_03 car_11):=1:fam:G
 (at-curb-num car_04 curb_0) (at-curb-num car_04 curb_1) (at-curb-num car_04 curb_2) (at-curb-num car_04 curb_3) (at-curb-num car_04 curb_4) (at-curb-num car_04 curb_5) (at-curb-num car_04 curb_6) (behind-car car_04 car_00) (behind-car car_04 car_01) (behind-car car_04 car_02) (behind-car car_04 car_03) (behind-car car_04 car_05) (behind-car car_04 car_06) (behind-car car_04 car_07) (behind-car car_04 car_08) (behind-car car_04 car_09) (behind-car car_04 car_10) (behind-car car_04 car_11):=1:fam:G
 (at-curb-num car_05 curb_0) (at-curb-num car_05 curb_1) (at-curb-num car_05 curb_2) (at-curb-num car_05 curb_3) (at-curb-num car_05 curb_4) (at-curb-num car_05 curb_5) (at-curb-num car_05 curb_6) (behind-car car_05 car_00) (behind-car car_05 car_01) (behind-car car_05 car_02) (behind-car car_05 car_03) (behind-car car_05 car_04) (behind-car car_05 car_06) (behind-car car_05 car_07) (behind-car car_05 car_08) (behind-car car_05 car_09) (behind-car car_05 car_10) (behind-car car_05 car_11):=1:fam:G
 (at-curb-num car_06 curb_0) (at-curb-num car_06 curb_1) (at-curb-num car_06 curb_2) (at-curb-num car_06 curb_3) (at-curb-num car_06 curb_4) (at-curb-num car_06 curb_5) (at-curb-num car_06 curb_6) (behind-car car_06 car_00) (behind-car car_06 car_01) (behind-car car_06 car_02) (behind-car car_06 car_03) (behind-car car_06 car_04) (behind-car car_06 car_05) (behind-car car_06 car_07) (behind-car car_06 car_08) (behind-car car_06 car_09) (behind-car car_06 car_10) (behind-car car_06 car_11):=1:fam:G
 (at-curb-num car_07 curb_0) (at-curb-num car_07 curb_1) (at-curb-num car_07 curb_2) (at-curb-num car_07 curb_3) (at-curb-num car_07 curb_4) (at-curb-num car_07 curb_5) (at-curb-num car_07 curb_6) (behind-car car_07 car_00) (behind-car car_07 car_01) (behind-car car_07 car_02) (behind-car car_07 car_03) (behind-car car_07 car_04) (behind-car car_07 car_05) (behind-car car_07 car_06) (behind-car car_07 car_08) (behind-car car_07 car_09) (behind-car car_07 car_10) (behind-car car_07 car_11):=1:fam:G
 (at-curb-num car_08 curb_0) (at-curb-num car_08 curb_1) (at-curb-num car_08 curb_2) (at-curb-num car_08 curb_3) (at-curb-num car_08 curb_4) (at-curb-num car_08 curb_5) (at-curb-num car_08 curb_6) (behind-car car_08 car_00) (behind-car car_08 car_01) (behind-car car_08 car_02) (behind-car car_08 car_03) (behind-car car_08 car_04) (behind-car car_08 car_05) (behind-car car_08 car_06) (behind-car car_08 car_07) (behind-car car_08 car_09) (behind-car car_08 car_10) (behind-car car_08 car_11):=1:fam:G
 (at-curb-num car_09 curb_0) (at-curb-num car_09 curb_1) (at-curb-num car_09 curb_2) (at-curb-num car_09 curb_3) (at-curb-num car_09 curb_4) (at-curb-num car_09 curb_5) (at-curb-num car_09 curb_6) (behind-car car_09 car_00) (behind-car car_09 car_01) (behind-car car_09 car_02) (behind-car car_09 car_03) (behind-car car_09 car_04) (behind-car car_09 car_05) (behind-car car_09 car_06) (behind-car car_09 car_07) (behind-car car_09 car_08) (behind-car car_09 car_10) (behind-car car_09 car_11):=1:fam:G
 (at-curb-num car_10 curb_0) (at-curb-num car_10 curb_1) (at-curb-num car_10 curb_2) (at-curb-num car_10 curb_3) (at-curb-num car_10 curb_4) (at-curb-num car_10 curb_5) (at-curb-num car_10 curb_6) (behind-car car_10 car_00) (behind-car car_10 car_01) (behind-car car_10 car_02) (behind-car car_10 car_03) (behind-car car_10 car_04) (behind-car car_10 car_05) (behind-car car_10 car_06) (behind-car car_10 car_07) (behind-car car_10 car_08) (behind-car car_10 car_09) (behind-car car_10 car_11):=1:fam:G
 (at-curb-num car_11 curb_0) (at-curb-num car_11 curb_1) (at-curb-num car_11 curb_2) (at-curb-num car_11 curb_3) (at-curb-num car_11 curb_4) (at-curb-num car_11 curb_5) (at-curb-num car_11 curb_6) (behind-car car_11 car_00) (behind-car car_11 car_01) (behind-car car_11 car_02) (behind-car car_11 car_03) (behind-car car_11 car_04) (behind-car car_11 car_05) (behind-car car_11 car_06) (behind-car car_11 car_07) (behind-car car_11 car_08) (behind-car car_11 car_09) (behind-car car_11 car_10):=1:fam:G

