Reduced 61 -> 51
Domain: openstacks-sequencedstrips-adl
Problem: os-sequencedstrips-p20_1
Require: 200ff
Type[4]:
    [0]: object, parent: -1
    [1]: order, parent: 0
    [2]: product, parent: 0
    [3]: count, parent: 0
Obj-by-Type:
    [0]: 0 1 2 3 4 5 6 7 8 9 10 11 12 13 14 15 16 17 18 19 20 21 22 23 24 25 26 27 28 29 30 31 32 33 34 35 36 37 38 39 40 41 42 43 44 45 46 47 48 49 50
    [1]: 11 12 13 14 15 16 17 18 19 20 21 22 23 24 25 26 27 28 29 30
    [2]: 31 32 33 34 35 36 37 38 39 40 41 42 43 44 45 46 47 48 49 50
    [3]: 0 1 2 3 4 5 6 7 8 9 10
Obj[51]:
    [0]: n0, type: 3, is-constant: 0, is-private: 0, owner: -1, is-agent: 0
    [1]: n2, type: 3, is-constant: 0, is-private: 0, owner: -1, is-agent: 0
    [2]: n4, type: 3, is-constant: 0, is-private: 0, owner: -1, is-agent: 0
    [3]: n6, type: 3, is-constant: 0, is-private: 0, owner: -1, is-agent: 0
    [4]: n8, type: 3, is-constant: 0, is-private: 0, owner: -1, is-agent: 0
    [5]: n10, type: 3, is-constant: 0, is-private: 0, owner: -1, is-agent: 0
    [6]: n12, type: 3, is-constant: 0, is-private: 0, owner: -1, is-agent: 0
    [7]: n14, type: 3, is-constant: 0, is-private: 0, owner: -1, is-agent: 0
    [8]: n16, type: 3, is-constant: 0, is-private: 0, owner: -1, is-agent: 0
    [9]: n18, type: 3, is-constant: 0, is-private: 0, owner: -1, is-agent: 0
    [10]: n20, type: 3, is-constant: 0, is-private: 0, owner: -1, is-agent: 0
    [11]: o1, type: 1, is-constant: 0, is-private: 0, owner: -1, is-agent: 0
    [12]: o2, type: 1, is-constant: 0, is-private: 0, owner: -1, is-agent: 0
    [13]: o3, type: 1, is-constant: 0, is-private: 0, owner: -1, is-agent: 0
    [14]: o4, type: 1, is-constant: 0, is-private: 0, owner: -1, is-agent: 0
    [15]: o5, type: 1, is-constant: 0, is-private: 0, owner: -1, is-agent: 0
    [16]: o6, type: 1, is-constant: 0, is-private: 0, owner: -1, is-agent: 0
    [17]: o7, type: 1, is-constant: 0, is-private: 0, owner: -1, is-agent: 0
    [18]: o8, type: 1, is-constant: 0, is-private: 0, owner: -1, is-agent: 0
    [19]: o9, type: 1, is-constant: 0, is-private: 0, owner: -1, is-agent: 0
    [20]: o10, type: 1, is-constant: 0, is-private: 0, owner: -1, is-agent: 0
    [21]: o11, type: 1, is-constant: 0, is-private: 0, owner: -1, is-agent: 0
    [22]: o12, type: 1, is-constant: 0, is-private: 0, owner: -1, is-agent: 0
    [23]: o13, type: 1, is-constant: 0, is-private: 0, owner: -1, is-agent: 0
    [24]: o14, type: 1, is-constant: 0, is-private: 0, owner: -1, is-agent: 0
    [25]: o15, type: 1, is-constant: 0, is-private: 0, owner: -1, is-agent: 0
    [26]: o16, type: 1, is-constant: 0, is-private: 0, owner: -1, is-agent: 0
    [27]: o17, type: 1, is-constant: 0, is-private: 0, owner: -1, is-agent: 0
    [28]: o18, type: 1, is-constant: 0, is-private: 0, owner: -1, is-agent: 0
    [29]: o19, type: 1, is-constant: 0, is-private: 0, owner: -1, is-agent: 0
    [30]: o20, type: 1, is-constant: 0, is-private: 0, owner: -1, is-agent: 0
    [31]: p1, type: 2, is-constant: 0, is-private: 0, owner: -1, is-agent: 0
    [32]: p2, type: 2, is-constant: 0, is-private: 0, owner: -1, is-agent: 0
    [33]: p3, type: 2, is-constant: 0, is-private: 0, owner: -1, is-agent: 0
    [34]: p4, type: 2, is-constant: 0, is-private: 0, owner: -1, is-agent: 0
    [35]: p5, type: 2, is-constant: 0, is-private: 0, owner: -1, is-agent: 0
    [36]: p6, type: 2, is-constant: 0, is-private: 0, owner: -1, is-agent: 0
    [37]: p7, type: 2, is-constant: 0, is-private: 0, owner: -1, is-agent: 0
    [38]: p8, type: 2, is-constant: 0, is-private: 0, owner: -1, is-agent: 0
    [39]: p9, type: 2, is-constant: 0, is-private: 0, owner: -1, is-agent: 0
    [40]: p10, type: 2, is-constant: 0, is-private: 0, owner: -1, is-agent: 0
    [41]: p11, type: 2, is-constant: 0, is-private: 0, owner: -1, is-agent: 0
    [42]: p12, type: 2, is-constant: 0, is-private: 0, owner: -1, is-agent: 0
    [43]: p13, type: 2, is-constant: 0, is-private: 0, owner: -1, is-agent: 0
    [44]: p14, type: 2, is-constant: 0, is-private: 0, owner: -1, is-agent: 0
    [45]: p15, type: 2, is-constant: 0, is-private: 0, owner: -1, is-agent: 0
    [46]: p16, type: 2, is-constant: 0, is-private: 0, owner: -1, is-agent: 0
    [47]: p17, type: 2, is-constant: 0, is-private: 0, owner: -1, is-agent: 0
    [48]: p18, type: 2, is-constant: 0, is-private: 0, owner: -1, is-agent: 0
    [49]: p19, type: 2, is-constant: 0, is-private: 0, owner: -1, is-agent: 0
    [50]: p20, type: 2, is-constant: 0, is-private: 0, owner: -1, is-agent: 0
Predicate[9]:
    =: 0 0 :: is-private: 0, owner-param: -1, read: 1, write: 0
    includes: 1 2 :: is-private: 0, owner-param: -1, read: 0, write: 0
    waiting: 1 :: is-private: 0, owner-param: -1, read: 1, write: 1
    started: 1 :: is-private: 0, owner-param: -1, read: 1, write: 1
    shipped: 1 :: is-private: 0, owner-param: -1, read: 0, write: 1
    made: 2 :: is-private: 0, owner-param: -1, read: 1, write: 1, neg-of: 8
    stacks-avail: 3 :: is-private: 0, owner-param: -1, read: 1, write: 1
    next-count: 3 3 :: is-private: 0, owner-param: -1, read: 1, write: 0
    NOT-made: 2 :: is-private: 0, owner-param: -1, read: 1, write: 1, neg-of: 5
Function[1]:
    total-cost: :: is-private: 0, owner-param: -1, read: 0, write: 0
Action[42]:
    make-product: ?p:2
        pre: (and (R:= ?p p1) (RW:NOT-made p1) (RW:started o17))
        eff: (and (RW:made p1) (N:RW:NOT-made p1))
    start-order: ?o:1 ?avail:3 ?new-avail:3
        pre: (and (RW:waiting ?o) (RW:stacks-avail ?avail) (R:next-count ?new-avail ?avail))
        eff: (and (N:RW:waiting ?o) (RW:started ?o) (RW:stacks-avail ?new-avail))
    ship-order: ?o:1 ?avail:3 ?new-avail:3
        pre: (and (R:= ?o o1) (RW:started o1) (RW:made p2) (RW:stacks-avail ?avail) (R:next-count ?avail ?new-avail))
        eff: (and (N:RW:started o1) (W:shipped o1) (RW:stacks-avail ?new-avail))
    open-new-stack: ?open:3 ?new-open:3
        pre: (and (RW:stacks-avail ?open) (R:next-count ?open ?new-open))
        eff: (and (RW:stacks-avail ?new-open) (increase (total-cost) 1))
    make-product: ?p:2
        pre: (and (R:= ?p p2) (RW:NOT-made p2) (RW:started o1))
        eff: (and (RW:made p2) (N:RW:NOT-made p2))
    make-product: ?p:2
        pre: (and (R:= ?p p3) (RW:NOT-made p3) (RW:started o2) (RW:started o12))
        eff: (and (RW:made p3) (N:RW:NOT-made p3))
    make-product: ?p:2
        pre: (and (R:= ?p p4) (RW:NOT-made p4) (RW:started o2) (RW:started o8) (RW:started o9) (RW:started o10))
        eff: (and (RW:made p4) (N:RW:NOT-made p4))
    make-product: ?p:2
        pre: (and (R:= ?p p5) (RW:NOT-made p5) (RW:started o2) (RW:started o3))
        eff: (and (RW:made p5) (N:RW:NOT-made p5))
    make-product: ?p:2
        pre: (and (R:= ?p p6) (RW:NOT-made p6) (RW:started o3) (RW:started o13))
        eff: (and (RW:made p6) (N:RW:NOT-made p6))
    make-product: ?p:2
        pre: (and (R:= ?p p7) (RW:NOT-made p7) (RW:started o2))
        eff: (and (RW:made p7) (N:RW:NOT-made p7))
    make-product: ?p:2
        pre: (and (R:= ?p p8) (RW:NOT-made p8) (RW:started o3))
        eff: (and (RW:made p8) (N:RW:NOT-made p8))
    make-product: ?p:2
        pre: (and (R:= ?p p9) (RW:NOT-made p9) (RW:started o18))
        eff: (and (RW:made p9) (N:RW:NOT-made p9))
    make-product: ?p:2
        pre: (and (R:= ?p p10) (RW:NOT-made p10) (RW:started o5) (RW:started o10))
        eff: (and (RW:made p10) (N:RW:NOT-made p10))
    make-product: ?p:2
        pre: (and (R:= ?p p11) (RW:NOT-made p11) (RW:started o16))
        eff: (and (RW:made p11) (N:RW:NOT-made p11))
    make-product: ?p:2
        pre: (and (R:= ?p p12) (RW:NOT-made p12) (RW:started o7) (RW:started o8) (RW:started o11) (RW:started o15))
        eff: (and (RW:made p12) (N:RW:NOT-made p12))
    make-product: ?p:2
        pre: (and (R:= ?p p13) (RW:NOT-made p13) (RW:started o8))
        eff: (and (RW:made p13) (N:RW:NOT-made p13))
    make-product: ?p:2
        pre: (and (R:= ?p p14) (RW:NOT-made p14) (RW:started o15))
        eff: (and (RW:made p14) (N:RW:NOT-made p14))
    make-product: ?p:2
        pre: (and (R:= ?p p15) (RW:NOT-made p15) (RW:started o19) (RW:started o20))
        eff: (and (RW:made p15) (N:RW:NOT-made p15))
    make-product: ?p:2
        pre: (and (R:= ?p p16) (RW:NOT-made p16) (RW:started o4) (RW:started o6) (RW:started o15))
        eff: (and (RW:made p16) (N:RW:NOT-made p16))
    make-product: ?p:2
        pre: (and (R:= ?p p17) (RW:NOT-made p17) (RW:started o8))
        eff: (and (RW:made p17) (N:RW:NOT-made p17))
    make-product: ?p:2
        pre: (and (R:= ?p p18) (RW:NOT-made p18) (RW:started o14) (RW:started o15))
        eff: (and (RW:made p18) (N:RW:NOT-made p18))
    make-product: ?p:2
        pre: (and (R:= ?p p19) (RW:NOT-made p19) (RW:started o20))
        eff: (and (RW:made p19) (N:RW:NOT-made p19))
    make-product: ?p:2
        pre: (and (R:= ?p p20) (RW:NOT-made p20) (RW:started o16))
        eff: (and (RW:made p20) (N:RW:NOT-made p20))
    ship-order: ?o:1 ?avail:3 ?new-avail:3
        pre: (and (R:= ?o o2) (RW:started o2) (RW:stacks-avail ?avail) (R:next-count ?avail ?new-avail) (RW:made p3) (RW:made p4) (RW:made p5) (RW:made p7))
        eff: (and (N:RW:started o2) (W:shipped o2) (RW:stacks-avail ?new-avail))
    ship-order: ?o:1 ?avail:3 ?new-avail:3
        pre: (and (R:= ?o o3) (RW:started o3) (RW:stacks-avail ?avail) (R:next-count ?avail ?new-avail) (RW:made p5) (RW:made p6) (RW:made p8))
        eff: (and (N:RW:started o3) (W:shipped o3) (RW:stacks-avail ?new-avail))
    ship-order: ?o:1 ?avail:3 ?new-avail:3
        pre: (and (R:= ?o o4) (RW:started o4) (RW:made p16) (RW:stacks-avail ?avail) (R:next-count ?avail ?new-avail))
        eff: (and (N:RW:started o4) (W:shipped o4) (RW:stacks-avail ?new-avail))
    ship-order: ?o:1 ?avail:3 ?new-avail:3
        pre: (and (R:= ?o o5) (RW:started o5) (RW:made p10) (RW:stacks-avail ?avail) (R:next-count ?avail ?new-avail))
        eff: (and (N:RW:started o5) (W:shipped o5) (RW:stacks-avail ?new-avail))
    ship-order: ?o:1 ?avail:3 ?new-avail:3
        pre: (and (R:= ?o o6) (RW:started o6) (RW:made p16) (RW:stacks-avail ?avail) (R:next-count ?avail ?new-avail))
        eff: (and (N:RW:started o6) (W:shipped o6) (RW:stacks-avail ?new-avail))
    ship-order: ?o:1 ?avail:3 ?new-avail:3
        pre: (and (R:= ?o o7) (RW:started o7) (RW:made p12) (RW:stacks-avail ?avail) (R:next-count ?avail ?new-avail))
        eff: (and (N:RW:started o7) (W:shipped o7) (RW:stacks-avail ?new-avail))
    ship-order: ?o:1 ?avail:3 ?new-avail:3
        pre: (and (R:= ?o o8) (RW:started o8) (RW:stacks-avail ?avail) (R:next-count ?avail ?new-avail) (RW:made p4) (RW:made p12) (RW:made p13) (RW:made p17))
        eff: (and (N:RW:started o8) (W:shipped o8) (RW:stacks-avail ?new-avail))
    ship-order: ?o:1 ?avail:3 ?new-avail:3
        pre: (and (R:= ?o o9) (RW:started o9) (RW:made p4) (RW:stacks-avail ?avail) (R:next-count ?avail ?new-avail))
        eff: (and (N:RW:started o9) (W:shipped o9) (RW:stacks-avail ?new-avail))
    ship-order: ?o:1 ?avail:3 ?new-avail:3
        pre: (and (R:= ?o o10) (RW:started o10) (RW:stacks-avail ?avail) (R:next-count ?avail ?new-avail) (RW:made p4) (RW:made p10))
        eff: (and (N:RW:started o10) (W:shipped o10) (RW:stacks-avail ?new-avail))
    ship-order: ?o:1 ?avail:3 ?new-avail:3
        pre: (and (R:= ?o o11) (RW:started o11) (RW:made p12) (RW:stacks-avail ?avail) (R:next-count ?avail ?new-avail))
        eff: (and (N:RW:started o11) (W:shipped o11) (RW:stacks-avail ?new-avail))
    ship-order: ?o:1 ?avail:3 ?new-avail:3
        pre: (and (R:= ?o o12) (RW:started o12) (RW:made p3) (RW:stacks-avail ?avail) (R:next-count ?avail ?new-avail))
        eff: (and (N:RW:started o12) (W:shipped o12) (RW:stacks-avail ?new-avail))
    ship-order: ?o:1 ?avail:3 ?new-avail:3
        pre: (and (R:= ?o o13) (RW:started o13) (RW:made p6) (RW:stacks-avail ?avail) (R:next-count ?avail ?new-avail))
        eff: (and (N:RW:started o13) (W:shipped o13) (RW:stacks-avail ?new-avail))
    ship-order: ?o:1 ?avail:3 ?new-avail:3
        pre: (and (R:= ?o o14) (RW:started o14) (RW:made p18) (RW:stacks-avail ?avail) (R:next-count ?avail ?new-avail))
        eff: (and (N:RW:started o14) (W:shipped o14) (RW:stacks-avail ?new-avail))
    ship-order: ?o:1 ?avail:3 ?new-avail:3
        pre: (and (R:= ?o o15) (RW:started o15) (RW:stacks-avail ?avail) (R:next-count ?avail ?new-avail) (RW:made p12) (RW:made p14) (RW:made p16) (RW:made p18))
        eff: (and (N:RW:started o15) (W:shipped o15) (RW:stacks-avail ?new-avail))
    ship-order: ?o:1 ?avail:3 ?new-avail:3
        pre: (and (R:= ?o o16) (RW:started o16) (RW:stacks-avail ?avail) (R:next-count ?avail ?new-avail) (RW:made p11) (RW:made p20))
        eff: (and (N:RW:started o16) (W:shipped o16) (RW:stacks-avail ?new-avail))
    ship-order: ?o:1 ?avail:3 ?new-avail:3
        pre: (and (R:= ?o o17) (RW:started o17) (RW:made p1) (RW:stacks-avail ?avail) (R:next-count ?avail ?new-avail))
        eff: (and (N:RW:started o17) (W:shipped o17) (RW:stacks-avail ?new-avail))
    ship-order: ?o:1 ?avail:3 ?new-avail:3
        pre: (and (R:= ?o o18) (RW:started o18) (RW:made p9) (RW:stacks-avail ?avail) (R:next-count ?avail ?new-avail))
        eff: (and (N:RW:started o18) (W:shipped o18) (RW:stacks-avail ?new-avail))
    ship-order: ?o:1 ?avail:3 ?new-avail:3
        pre: (and (R:= ?o o19) (RW:started o19) (RW:made p15) (RW:stacks-avail ?avail) (R:next-count ?avail ?new-avail))
        eff: (and (N:RW:started o19) (W:shipped o19) (RW:stacks-avail ?new-avail))
    ship-order: ?o:1 ?avail:3 ?new-avail:3
        pre: (and (R:= ?o o20) (RW:started o20) (RW:stacks-avail ?avail) (R:next-count ?avail ?new-avail) (RW:made p15) (RW:made p19))
        eff: (and (N:RW:started o20) (W:shipped o20) (RW:stacks-avail ?new-avail))
Init[95]:
  S:(next-count n0 n0)
  S:(next-count n0 n2)
  S:(next-count n2 n0)
  S:(next-count n0 n4)
  S:(next-count n4 n0)
  S:(next-count n0 n6)
  S:(next-count n6 n0)
  S:(next-count n0 n8)
  S:(next-count n8 n0)
  S:(next-count n0 n10)
  S:(next-count n10 n0)
  S:(next-count n0 n12)
  S:(next-count n12 n0)
  S:(next-count n0 n14)
  S:(next-count n14 n0)
  S:(next-count n0 n16)
  S:(next-count n16 n0)
  S:(next-count n0 n18)
  S:(next-count n18 n0)
  S:(next-count n0 n20)
  (stacks-avail n0)
  (waiting o1)
  S:(includes o1 p2)
  (waiting o2)
  S:(includes o2 p3)
  S:(includes o2 p4)
  S:(includes o2 p5)
  S:(includes o2 p7)
  (waiting o3)
  S:(includes o3 p5)
  S:(includes o3 p6)
  S:(includes o3 p8)
  (waiting o4)
  S:(includes o4 p16)
  (waiting o5)
  S:(includes o5 p10)
  (waiting o6)
  S:(includes o6 p16)
  (waiting o7)
  S:(includes o7 p12)
  (waiting o8)
  S:(includes o8 p4)
  S:(includes o8 p12)
  S:(includes o8 p13)
  S:(includes o8 p17)
  (waiting o9)
  S:(includes o9 p4)
  (waiting o10)
  S:(includes o10 p4)
  S:(includes o10 p10)
  (waiting o11)
  S:(includes o11 p12)
  (waiting o12)
  S:(includes o12 p3)
  (waiting o13)
  S:(includes o13 p6)
  (waiting o14)
  S:(includes o14 p18)
  (waiting o15)
  S:(includes o15 p12)
  S:(includes o15 p14)
  S:(includes o15 p16)
  S:(includes o15 p18)
  (waiting o16)
  S:(includes o16 p11)
  S:(includes o16 p20)
  (waiting o17)
  S:(includes o17 p1)
  (waiting o18)
  S:(includes o18 p9)
  (waiting o19)
  S:(includes o19 p15)
  (waiting o20)
  S:(includes o20 p15)
  S:(includes o20 p19)
  (NOT-made p1)
  (NOT-made p2)
  (NOT-made p3)
  (NOT-made p4)
  (NOT-made p5)
  (NOT-made p6)
  (NOT-made p7)
  (NOT-made p8)
  (NOT-made p9)
  (NOT-made p10)
  (NOT-made p11)
  (NOT-made p12)
  (NOT-made p13)
  (NOT-made p14)
  (NOT-made p15)
  (NOT-made p16)
  (NOT-made p17)
  (NOT-made p18)
  (NOT-made p19)
  (NOT-made p20)
Init[1]:
  (= (total-cost) 0)
Goal: (and (W:shipped o1) (W:shipped o2) (W:shipped o3) (W:shipped o4) (W:shipped o5) (W:shipped o6) (W:shipped o7) (W:shipped o8) (W:shipped o9) (W:shipped o10) (W:shipped o11) (W:shipped o12) (W:shipped o13) (W:shipped o14) (W:shipped o15) (W:shipped o16) (W:shipped o17) (W:shipped o18) (W:shipped o19) (W:shipped o20))
Metric: 1
