begin_version
3
end_version
begin_metric
1
end_metric
60
begin_variable
var0
-1
3
NOT-created id_befile
prop_host id_befile id_khost
prop_host id_befile id_rhost
end_variable
begin_variable
var1
-1
3
NOT-created id_bffile
prop_host id_bffile id_khost
prop_host id_bffile id_rhost
end_variable
begin_variable
var2
-1
3
NOT-created id_bgshare
prop_dest_host id_bgshare id_khost
prop_dest_host id_bgshare id_rhost
end_variable
begin_variable
var3
-1
3
NOT-created id_bhshare
prop_dest_host id_bhshare id_khost
prop_dest_host id_bhshare id_rhost
end_variable
begin_variable
var4
-1
3
prop_src_host id_bgshare id_khost
prop_src_host id_bgshare id_rhost
none-of-those
end_variable
begin_variable
var5
-1
3
prop_src_host id_bhshare id_khost
prop_src_host id_bhshare id_rhost
none-of-those
end_variable
begin_variable
var6
-1
2
NOT-created id_barat
none-of-those
end_variable
begin_variable
var7
-1
2
NOT-created id_bbrat
none-of-those
end_variable
begin_variable
var8
-1
2
NOT-created id_yrat
none-of-those
end_variable
begin_variable
var9
-1
2
knows id_befile
none-of-those
end_variable
begin_variable
var10
-1
2
knows id_bffile
none-of-those
end_variable
begin_variable
var11
-1
2
knows id_bgshare
none-of-those
end_variable
begin_variable
var12
-1
2
knows id_bhshare
none-of-those
end_variable
begin_variable
var13
-1
2
knows_property id_befile phost
none-of-those
end_variable
begin_variable
var14
-1
2
knows_property id_befile ppath
none-of-those
end_variable
begin_variable
var15
-1
2
knows_property id_bffile phost
none-of-those
end_variable
begin_variable
var16
-1
2
knows_property id_bffile ppath
none-of-those
end_variable
begin_variable
var17
-1
2
knows_property id_bgshare pdest_host
none-of-those
end_variable
begin_variable
var18
-1
2
knows_property id_bgshare pshare_path
none-of-those
end_variable
begin_variable
var19
-1
2
knows_property id_bgshare psrc_host
none-of-those
end_variable
begin_variable
var20
-1
2
knows_property id_bhshare pdest_host
none-of-those
end_variable
begin_variable
var21
-1
2
knows_property id_bhshare pshare_path
none-of-those
end_variable
begin_variable
var22
-1
2
knows_property id_bhshare psrc_host
none-of-those
end_variable
begin_variable
var23
-1
2
prop_path id_befile somepath
none-of-those
end_variable
begin_variable
var24
-1
2
prop_path id_bffile somepath
none-of-those
end_variable
begin_variable
var25
-1
2
prop_share_path id_bgshare whatever
none-of-those
end_variable
begin_variable
var26
-1
2
prop_share_path id_bhshare whatever
none-of-those
end_variable
begin_variable
var27
-1
2
knows id_adomain
none-of-those
end_variable
begin_variable
var28
-1
2
knows id_barat
none-of-those
end_variable
begin_variable
var29
-1
2
knows id_bbrat
none-of-those
end_variable
begin_variable
var30
-1
2
knows id_cdomainuser
none-of-those
end_variable
begin_variable
var31
-1
2
knows id_ddomaincredential
none-of-those
end_variable
begin_variable
var32
-1
2
knows id_gdomainuser
none-of-those
end_variable
begin_variable
var33
-1
2
knows id_hdomaincredential
none-of-those
end_variable
begin_variable
var34
-1
2
knows id_rhost
none-of-those
end_variable
begin_variable
var35
-1
2
knows_property id_adomain pwindows_domain
none-of-those
end_variable
begin_variable
var36
-1
2
knows_property id_barat pexecutable
none-of-those
end_variable
begin_variable
var37
-1
2
knows_property id_barat phost
none-of-those
end_variable
begin_variable
var38
-1
2
knows_property id_bbrat pexecutable
none-of-those
end_variable
begin_variable
var39
-1
2
knows_property id_bbrat phost
none-of-those
end_variable
begin_variable
var40
-1
2
knows_property id_cdomainuser pdomain
none-of-those
end_variable
begin_variable
var41
-1
2
knows_property id_cdomainuser pusername
none-of-those
end_variable
begin_variable
var42
-1
2
knows_property id_ddomaincredential ppassword
none-of-those
end_variable
begin_variable
var43
-1
2
knows_property id_ddomaincredential puser
none-of-those
end_variable
begin_variable
var44
-1
2
knows_property id_gdomainuser pdomain
none-of-those
end_variable
begin_variable
var45
-1
2
knows_property id_gdomainuser pusername
none-of-those
end_variable
begin_variable
var46
-1
2
knows_property id_hdomaincredential ppassword
none-of-those
end_variable
begin_variable
var47
-1
2
knows_property id_hdomaincredential puser
none-of-those
end_variable
begin_variable
var48
-1
2
knows_property id_khost pdomain_user_admins
none-of-those
end_variable
begin_variable
var49
-1
2
knows_property id_rhost pdomain_user_admins
none-of-those
end_variable
begin_variable
var50
-1
2
knows_property id_rhost pfqdn
none-of-those
end_variable
begin_variable
var51
-1
2
prop_elevated id_barat yes
none-of-those
end_variable
begin_variable
var52
-1
2
prop_elevated id_bbrat yes
none-of-those
end_variable
begin_variable
var53
-1
2
prop_executable id_barat somepath
none-of-those
end_variable
begin_variable
var54
-1
2
prop_executable id_bbrat somepath
none-of-those
end_variable
begin_variable
var55
-1
2
prop_executable id_yrat somepath
none-of-those
end_variable
begin_variable
var56
-1
2
prop_host id_barat id_khost
none-of-those
end_variable
begin_variable
var57
-1
2
prop_host id_barat id_rhost
none-of-those
end_variable
begin_variable
var58
-1
2
prop_host id_bbrat id_rhost
none-of-those
end_variable
begin_variable
var59
-1
2
prop_host id_yrat id_rhost
none-of-those
end_variable
35
begin_mutex_group
1
6 0
end_mutex_group
begin_mutex_group
1
7 0
end_mutex_group
begin_mutex_group
1
0 0
end_mutex_group
begin_mutex_group
1
1 0
end_mutex_group
begin_mutex_group
1
2 0
end_mutex_group
begin_mutex_group
1
3 0
end_mutex_group
begin_mutex_group
1
8 0
end_mutex_group
begin_mutex_group
2
0 0
9 0
end_mutex_group
begin_mutex_group
2
0 0
13 0
end_mutex_group
begin_mutex_group
2
0 0
14 0
end_mutex_group
begin_mutex_group
2
0 0
0 1
end_mutex_group
begin_mutex_group
2
0 0
0 2
end_mutex_group
begin_mutex_group
2
0 0
23 0
end_mutex_group
begin_mutex_group
2
1 0
10 0
end_mutex_group
begin_mutex_group
2
1 0
15 0
end_mutex_group
begin_mutex_group
2
1 0
16 0
end_mutex_group
begin_mutex_group
2
1 0
1 1
end_mutex_group
begin_mutex_group
2
1 0
1 2
end_mutex_group
begin_mutex_group
2
1 0
24 0
end_mutex_group
begin_mutex_group
2
2 0
11 0
end_mutex_group
begin_mutex_group
2
2 0
17 0
end_mutex_group
begin_mutex_group
2
2 0
18 0
end_mutex_group
begin_mutex_group
2
2 0
19 0
end_mutex_group
begin_mutex_group
2
2 0
25 0
end_mutex_group
begin_mutex_group
2
3 0
12 0
end_mutex_group
begin_mutex_group
2
3 0
20 0
end_mutex_group
begin_mutex_group
2
3 0
21 0
end_mutex_group
begin_mutex_group
2
3 0
22 0
end_mutex_group
begin_mutex_group
2
3 0
26 0
end_mutex_group
begin_mutex_group
3
0 0
0 1
0 2
end_mutex_group
begin_mutex_group
3
1 0
1 1
1 2
end_mutex_group
begin_mutex_group
3
2 0
2 1
2 2
end_mutex_group
begin_mutex_group
3
2 0
4 0
4 1
end_mutex_group
begin_mutex_group
3
3 0
3 1
3 2
end_mutex_group
begin_mutex_group
3
3 0
5 0
5 1
end_mutex_group
begin_state
0
0
0
0
2
2
0
0
0
1
1
1
1
1
1
1
1
1
1
1
1
1
1
1
1
1
1
1
1
1
1
1
1
1
1
1
1
1
1
1
1
1
1
1
1
1
1
1
1
1
1
1
1
1
1
1
1
1
1
1
end_state
begin_goal
1
58 0
end_goal
103
begin_operator
creds id_barat id_khost id_adomain
5
27 0
28 0
37 0
51 0
56 0
13
0 30 -1 0
0 31 -1 0
0 32 -1 0
0 33 -1 0
0 35 -1 0
0 40 -1 0
0 41 -1 0
0 42 -1 0
0 43 -1 0
0 44 -1 0
0 45 -1 0
0 46 -1 0
0 47 -1 0
1
end_operator
begin_operator
creds id_barat id_rhost id_adomain
6
27 0
28 0
34 0
37 0
51 0
57 0
13
0 30 -1 0
0 31 -1 0
0 32 -1 0
0 33 -1 0
0 35 -1 0
0 40 -1 0
0 41 -1 0
0 42 -1 0
0 43 -1 0
0 44 -1 0
0 45 -1 0
0 46 -1 0
0 47 -1 0
1
end_operator
begin_operator
creds id_bbrat id_rhost id_adomain
6
27 0
29 0
34 0
39 0
52 0
58 0
13
0 30 -1 0
0 31 -1 0
0 32 -1 0
0 33 -1 0
0 35 -1 0
0 40 -1 0
0 41 -1 0
0 42 -1 0
0 43 -1 0
0 44 -1 0
0 45 -1 0
0 46 -1 0
0 47 -1 0
1
end_operator
begin_operator
creds id_yrat id_khost id_adomain
1
27 0
13
0 30 -1 0
0 31 -1 0
0 32 -1 0
0 33 -1 0
0 35 -1 0
0 40 -1 0
0 41 -1 0
0 42 -1 0
0 43 -1 0
0 44 -1 0
0 45 -1 0
0 46 -1 0
0 47 -1 0
1
end_operator
begin_operator
creds id_yrat id_rhost id_adomain
3
27 0
34 0
59 0
13
0 30 -1 0
0 31 -1 0
0 32 -1 0
0 33 -1 0
0 35 -1 0
0 40 -1 0
0 41 -1 0
0 42 -1 0
0 43 -1 0
0 44 -1 0
0 45 -1 0
0 46 -1 0
0 47 -1 0
1
end_operator
begin_operator
get_admin id_barat id_khost id_adomain
2
27 0
28 0
7
0 30 -1 0
0 32 -1 0
0 40 -1 0
0 41 -1 0
0 44 -1 0
0 45 -1 0
0 48 -1 0
1
end_operator
begin_operator
get_admin id_barat id_rhost id_adomain
3
27 0
28 0
34 0
7
0 30 -1 0
0 32 -1 0
0 40 -1 0
0 41 -1 0
0 44 -1 0
0 45 -1 0
0 49 -1 0
1
end_operator
begin_operator
get_admin id_bbrat id_khost id_adomain
2
27 0
29 0
7
0 30 -1 0
0 32 -1 0
0 40 -1 0
0 41 -1 0
0 44 -1 0
0 45 -1 0
0 48 -1 0
1
end_operator
begin_operator
get_admin id_bbrat id_rhost id_adomain
3
27 0
29 0
34 0
7
0 30 -1 0
0 32 -1 0
0 40 -1 0
0 41 -1 0
0 44 -1 0
0 45 -1 0
0 49 -1 0
1
end_operator
begin_operator
get_admin id_yrat id_khost id_adomain
1
27 0
7
0 30 -1 0
0 32 -1 0
0 40 -1 0
0 41 -1 0
0 44 -1 0
0 45 -1 0
0 48 -1 0
1
end_operator
begin_operator
get_admin id_yrat id_rhost id_adomain
2
27 0
34 0
7
0 30 -1 0
0 32 -1 0
0 40 -1 0
0 41 -1 0
0 44 -1 0
0 45 -1 0
0 49 -1 0
1
end_operator
begin_operator
get_computers id_barat id_adomain
2
27 0
28 0
2
0 34 -1 0
0 50 -1 0
1
end_operator
begin_operator
get_computers id_bbrat id_adomain
2
27 0
29 0
2
0 34 -1 0
0 50 -1 0
1
end_operator
begin_operator
get_computers id_yrat id_adomain
1
27 0
2
0 34 -1 0
0 50 -1 0
1
end_operator
begin_operator
get_domain id_barat id_khost str__o
3
28 0
37 0
56 0
2
0 27 -1 0
0 35 -1 0
1
end_operator
begin_operator
get_domain id_barat id_rhost str__v
5
28 0
34 0
37 0
50 0
57 0
2
0 27 -1 0
0 35 -1 0
1
end_operator
begin_operator
get_domain id_bbrat id_rhost str__v
5
29 0
34 0
39 0
50 0
58 0
2
0 27 -1 0
0 35 -1 0
1
end_operator
begin_operator
get_domain id_yrat id_khost str__o
0
2
0 27 -1 0
0 35 -1 0
1
end_operator
begin_operator
get_domain id_yrat id_rhost str__v
3
34 0
50 0
59 0
2
0 27 -1 0
0 35 -1 0
1
end_operator
begin_operator
net_use id_barat id_khost id_rhost str__v id_ddomaincredential str__e id_cdomainuser str__james id_adomain str__alpha id_bgshare
13
27 0
28 0
30 0
31 0
34 0
35 0
37 0
40 0
41 0
42 0
43 0
50 0
56 0
7
0 2 0 2
0 4 -1 0
0 11 -1 0
0 17 -1 0
0 18 -1 0
0 19 -1 0
0 25 -1 0
1
end_operator
begin_operator
net_use id_barat id_khost id_rhost str__v id_ddomaincredential str__e id_cdomainuser str__james id_adomain str__alpha id_bhshare
13
27 0
28 0
30 0
31 0
34 0
35 0
37 0
40 0
41 0
42 0
43 0
50 0
56 0
7
0 3 0 2
0 5 -1 0
0 12 -1 0
0 20 -1 0
0 21 -1 0
0 22 -1 0
0 26 -1 0
1
end_operator
begin_operator
net_use id_barat id_khost id_rhost str__v id_hdomaincredential str__i id_gdomainuser str__mary id_adomain str__alpha id_bgshare
13
27 0
28 0
32 0
33 0
34 0
35 0
37 0
44 0
45 0
46 0
47 0
50 0
56 0
7
0 2 0 2
0 4 -1 0
0 11 -1 0
0 17 -1 0
0 18 -1 0
0 19 -1 0
0 25 -1 0
1
end_operator
begin_operator
net_use id_barat id_khost id_rhost str__v id_hdomaincredential str__i id_gdomainuser str__mary id_adomain str__alpha id_bhshare
13
27 0
28 0
32 0
33 0
34 0
35 0
37 0
44 0
45 0
46 0
47 0
50 0
56 0
7
0 3 0 2
0 5 -1 0
0 12 -1 0
0 20 -1 0
0 21 -1 0
0 22 -1 0
0 26 -1 0
1
end_operator
begin_operator
net_use id_barat id_rhost id_khost str__o id_ddomaincredential str__e id_cdomainuser str__james id_adomain str__alpha id_bgshare
12
27 0
28 0
30 0
31 0
34 0
35 0
37 0
40 0
41 0
42 0
43 0
57 0
7
0 2 0 1
0 4 -1 1
0 11 -1 0
0 17 -1 0
0 18 -1 0
0 19 -1 0
0 25 -1 0
1
end_operator
begin_operator
net_use id_barat id_rhost id_khost str__o id_ddomaincredential str__e id_cdomainuser str__james id_adomain str__alpha id_bhshare
12
27 0
28 0
30 0
31 0
34 0
35 0
37 0
40 0
41 0
42 0
43 0
57 0
7
0 3 0 1
0 5 -1 1
0 12 -1 0
0 20 -1 0
0 21 -1 0
0 22 -1 0
0 26 -1 0
1
end_operator
begin_operator
net_use id_barat id_rhost id_khost str__o id_hdomaincredential str__i id_gdomainuser str__mary id_adomain str__alpha id_bgshare
12
27 0
28 0
32 0
33 0
34 0
35 0
37 0
44 0
45 0
46 0
47 0
57 0
7
0 2 0 1
0 4 -1 1
0 11 -1 0
0 17 -1 0
0 18 -1 0
0 19 -1 0
0 25 -1 0
1
end_operator
begin_operator
net_use id_barat id_rhost id_khost str__o id_hdomaincredential str__i id_gdomainuser str__mary id_adomain str__alpha id_bhshare
12
27 0
28 0
32 0
33 0
34 0
35 0
37 0
44 0
45 0
46 0
47 0
57 0
7
0 3 0 1
0 5 -1 1
0 12 -1 0
0 20 -1 0
0 21 -1 0
0 22 -1 0
0 26 -1 0
1
end_operator
begin_operator
net_use id_bbrat id_rhost id_khost str__o id_ddomaincredential str__e id_cdomainuser str__james id_adomain str__alpha id_bgshare
12
27 0
29 0
30 0
31 0
34 0
35 0
39 0
40 0
41 0
42 0
43 0
58 0
7
0 2 0 1
0 4 -1 1
0 11 -1 0
0 17 -1 0
0 18 -1 0
0 19 -1 0
0 25 -1 0
1
end_operator
begin_operator
net_use id_bbrat id_rhost id_khost str__o id_ddomaincredential str__e id_cdomainuser str__james id_adomain str__alpha id_bhshare
12
27 0
29 0
30 0
31 0
34 0
35 0
39 0
40 0
41 0
42 0
43 0
58 0
7
0 3 0 1
0 5 -1 1
0 12 -1 0
0 20 -1 0
0 21 -1 0
0 22 -1 0
0 26 -1 0
1
end_operator
begin_operator
net_use id_bbrat id_rhost id_khost str__o id_hdomaincredential str__i id_gdomainuser str__mary id_adomain str__alpha id_bgshare
12
27 0
29 0
32 0
33 0
34 0
35 0
39 0
44 0
45 0
46 0
47 0
58 0
7
0 2 0 1
0 4 -1 1
0 11 -1 0
0 17 -1 0
0 18 -1 0
0 19 -1 0
0 25 -1 0
1
end_operator
begin_operator
net_use id_bbrat id_rhost id_khost str__o id_hdomaincredential str__i id_gdomainuser str__mary id_adomain str__alpha id_bhshare
12
27 0
29 0
32 0
33 0
34 0
35 0
39 0
44 0
45 0
46 0
47 0
58 0
7
0 3 0 1
0 5 -1 1
0 12 -1 0
0 20 -1 0
0 21 -1 0
0 22 -1 0
0 26 -1 0
1
end_operator
begin_operator
net_use id_yrat id_khost id_rhost str__v id_ddomaincredential str__e id_cdomainuser str__james id_adomain str__alpha id_bgshare
10
27 0
30 0
31 0
34 0
35 0
40 0
41 0
42 0
43 0
50 0
7
0 2 0 2
0 4 -1 0
0 11 -1 0
0 17 -1 0
0 18 -1 0
0 19 -1 0
0 25 -1 0
1
end_operator
begin_operator
net_use id_yrat id_khost id_rhost str__v id_ddomaincredential str__e id_cdomainuser str__james id_adomain str__alpha id_bhshare
10
27 0
30 0
31 0
34 0
35 0
40 0
41 0
42 0
43 0
50 0
7
0 3 0 2
0 5 -1 0
0 12 -1 0
0 20 -1 0
0 21 -1 0
0 22 -1 0
0 26 -1 0
1
end_operator
begin_operator
net_use id_yrat id_khost id_rhost str__v id_hdomaincredential str__i id_gdomainuser str__mary id_adomain str__alpha id_bgshare
10
27 0
32 0
33 0
34 0
35 0
44 0
45 0
46 0
47 0
50 0
7
0 2 0 2
0 4 -1 0
0 11 -1 0
0 17 -1 0
0 18 -1 0
0 19 -1 0
0 25 -1 0
1
end_operator
begin_operator
net_use id_yrat id_khost id_rhost str__v id_hdomaincredential str__i id_gdomainuser str__mary id_adomain str__alpha id_bhshare
10
27 0
32 0
33 0
34 0
35 0
44 0
45 0
46 0
47 0
50 0
7
0 3 0 2
0 5 -1 0
0 12 -1 0
0 20 -1 0
0 21 -1 0
0 22 -1 0
0 26 -1 0
1
end_operator
begin_operator
net_use id_yrat id_rhost id_khost str__o id_ddomaincredential str__e id_cdomainuser str__james id_adomain str__alpha id_bgshare
10
27 0
30 0
31 0
34 0
35 0
40 0
41 0
42 0
43 0
59 0
7
0 2 0 1
0 4 -1 1
0 11 -1 0
0 17 -1 0
0 18 -1 0
0 19 -1 0
0 25 -1 0
1
end_operator
begin_operator
net_use id_yrat id_rhost id_khost str__o id_ddomaincredential str__e id_cdomainuser str__james id_adomain str__alpha id_bhshare
10
27 0
30 0
31 0
34 0
35 0
40 0
41 0
42 0
43 0
59 0
7
0 3 0 1
0 5 -1 1
0 12 -1 0
0 20 -1 0
0 21 -1 0
0 22 -1 0
0 26 -1 0
1
end_operator
begin_operator
net_use id_yrat id_rhost id_khost str__o id_hdomaincredential str__i id_gdomainuser str__mary id_adomain str__alpha id_bgshare
10
27 0
32 0
33 0
34 0
35 0
44 0
45 0
46 0
47 0
59 0
7
0 2 0 1
0 4 -1 1
0 11 -1 0
0 17 -1 0
0 18 -1 0
0 19 -1 0
0 25 -1 0
1
end_operator
begin_operator
net_use id_yrat id_rhost id_khost str__o id_hdomaincredential str__i id_gdomainuser str__mary id_adomain str__alpha id_bhshare
10
27 0
32 0
33 0
34 0
35 0
44 0
45 0
46 0
47 0
59 0
7
0 3 0 1
0 5 -1 1
0 12 -1 0
0 20 -1 0
0 21 -1 0
0 22 -1 0
0 26 -1 0
1
end_operator
begin_operator
smb_copy id_barat id_khost somepath id_bgshare id_khost id_rhost whatever id_befile
14
2 2
4 0
11 0
17 0
18 0
19 0
25 0
28 0
34 0
36 0
37 0
51 0
53 0
56 0
5
0 0 0 2
0 9 -1 0
0 13 -1 0
0 14 -1 0
0 23 -1 0
1
end_operator
begin_operator
smb_copy id_barat id_khost somepath id_bgshare id_khost id_rhost whatever id_bffile
14
2 2
4 0
11 0
17 0
18 0
19 0
25 0
28 0
34 0
36 0
37 0
51 0
53 0
56 0
5
0 1 0 2
0 10 -1 0
0 15 -1 0
0 16 -1 0
0 24 -1 0
1
end_operator
begin_operator
smb_copy id_barat id_khost somepath id_bhshare id_khost id_rhost whatever id_befile
14
3 2
5 0
12 0
20 0
21 0
22 0
26 0
28 0
34 0
36 0
37 0
51 0
53 0
56 0
5
0 0 0 2
0 9 -1 0
0 13 -1 0
0 14 -1 0
0 23 -1 0
1
end_operator
begin_operator
smb_copy id_barat id_khost somepath id_bhshare id_khost id_rhost whatever id_bffile
14
3 2
5 0
12 0
20 0
21 0
22 0
26 0
28 0
34 0
36 0
37 0
51 0
53 0
56 0
5
0 1 0 2
0 10 -1 0
0 15 -1 0
0 16 -1 0
0 24 -1 0
1
end_operator
begin_operator
smb_copy id_barat id_rhost somepath id_bgshare id_rhost id_khost whatever id_befile
14
2 1
4 1
11 0
17 0
18 0
19 0
25 0
28 0
34 0
36 0
37 0
51 0
53 0
57 0
5
0 0 0 1
0 9 -1 0
0 13 -1 0
0 14 -1 0
0 23 -1 0
1
end_operator
begin_operator
smb_copy id_barat id_rhost somepath id_bgshare id_rhost id_khost whatever id_bffile
14
2 1
4 1
11 0
17 0
18 0
19 0
25 0
28 0
34 0
36 0
37 0
51 0
53 0
57 0
5
0 1 0 1
0 10 -1 0
0 15 -1 0
0 16 -1 0
0 24 -1 0
1
end_operator
begin_operator
smb_copy id_barat id_rhost somepath id_bhshare id_rhost id_khost whatever id_befile
14
3 1
5 1
12 0
20 0
21 0
22 0
26 0
28 0
34 0
36 0
37 0
51 0
53 0
57 0
5
0 0 0 1
0 9 -1 0
0 13 -1 0
0 14 -1 0
0 23 -1 0
1
end_operator
begin_operator
smb_copy id_barat id_rhost somepath id_bhshare id_rhost id_khost whatever id_bffile
14
3 1
5 1
12 0
20 0
21 0
22 0
26 0
28 0
34 0
36 0
37 0
51 0
53 0
57 0
5
0 1 0 1
0 10 -1 0
0 15 -1 0
0 16 -1 0
0 24 -1 0
1
end_operator
begin_operator
smb_copy id_bbrat id_rhost somepath id_bgshare id_rhost id_khost whatever id_befile
14
2 1
4 1
11 0
17 0
18 0
19 0
25 0
29 0
34 0
38 0
39 0
52 0
54 0
58 0
5
0 0 0 1
0 9 -1 0
0 13 -1 0
0 14 -1 0
0 23 -1 0
1
end_operator
begin_operator
smb_copy id_bbrat id_rhost somepath id_bgshare id_rhost id_khost whatever id_bffile
14
2 1
4 1
11 0
17 0
18 0
19 0
25 0
29 0
34 0
38 0
39 0
52 0
54 0
58 0
5
0 1 0 1
0 10 -1 0
0 15 -1 0
0 16 -1 0
0 24 -1 0
1
end_operator
begin_operator
smb_copy id_bbrat id_rhost somepath id_bhshare id_rhost id_khost whatever id_befile
14
3 1
5 1
12 0
20 0
21 0
22 0
26 0
29 0
34 0
38 0
39 0
52 0
54 0
58 0
5
0 0 0 1
0 9 -1 0
0 13 -1 0
0 14 -1 0
0 23 -1 0
1
end_operator
begin_operator
smb_copy id_bbrat id_rhost somepath id_bhshare id_rhost id_khost whatever id_bffile
14
3 1
5 1
12 0
20 0
21 0
22 0
26 0
29 0
34 0
38 0
39 0
52 0
54 0
58 0
5
0 1 0 1
0 10 -1 0
0 15 -1 0
0 16 -1 0
0 24 -1 0
1
end_operator
begin_operator
smb_copy id_yrat id_khost somepath id_bgshare id_khost id_rhost whatever id_befile
9
2 2
4 0
11 0
17 0
18 0
19 0
25 0
34 0
55 0
5
0 0 0 2
0 9 -1 0
0 13 -1 0
0 14 -1 0
0 23 -1 0
1
end_operator
begin_operator
smb_copy id_yrat id_khost somepath id_bgshare id_khost id_rhost whatever id_bffile
9
2 2
4 0
11 0
17 0
18 0
19 0
25 0
34 0
55 0
5
0 1 0 2
0 10 -1 0
0 15 -1 0
0 16 -1 0
0 24 -1 0
1
end_operator
begin_operator
smb_copy id_yrat id_khost somepath id_bhshare id_khost id_rhost whatever id_befile
9
3 2
5 0
12 0
20 0
21 0
22 0
26 0
34 0
55 0
5
0 0 0 2
0 9 -1 0
0 13 -1 0
0 14 -1 0
0 23 -1 0
1
end_operator
begin_operator
smb_copy id_yrat id_khost somepath id_bhshare id_khost id_rhost whatever id_bffile
9
3 2
5 0
12 0
20 0
21 0
22 0
26 0
34 0
55 0
5
0 1 0 2
0 10 -1 0
0 15 -1 0
0 16 -1 0
0 24 -1 0
1
end_operator
begin_operator
smb_copy id_yrat id_khost str__z id_bgshare id_khost id_rhost whatever id_befile
8
2 2
4 0
11 0
17 0
18 0
19 0
25 0
34 0
5
0 0 0 2
0 9 -1 0
0 13 -1 0
0 14 -1 0
0 23 -1 0
1
end_operator
begin_operator
smb_copy id_yrat id_khost str__z id_bgshare id_khost id_rhost whatever id_bffile
8
2 2
4 0
11 0
17 0
18 0
19 0
25 0
34 0
5
0 1 0 2
0 10 -1 0
0 15 -1 0
0 16 -1 0
0 24 -1 0
1
end_operator
begin_operator
smb_copy id_yrat id_khost str__z id_bhshare id_khost id_rhost whatever id_befile
8
3 2
5 0
12 0
20 0
21 0
22 0
26 0
34 0
5
0 0 0 2
0 9 -1 0
0 13 -1 0
0 14 -1 0
0 23 -1 0
1
end_operator
begin_operator
smb_copy id_yrat id_khost str__z id_bhshare id_khost id_rhost whatever id_bffile
8
3 2
5 0
12 0
20 0
21 0
22 0
26 0
34 0
5
0 1 0 2
0 10 -1 0
0 15 -1 0
0 16 -1 0
0 24 -1 0
1
end_operator
begin_operator
smb_copy id_yrat id_rhost somepath id_bgshare id_rhost id_khost whatever id_befile
10
2 1
4 1
11 0
17 0
18 0
19 0
25 0
34 0
55 0
59 0
5
0 0 0 1
0 9 -1 0
0 13 -1 0
0 14 -1 0
0 23 -1 0
1
end_operator
begin_operator
smb_copy id_yrat id_rhost somepath id_bgshare id_rhost id_khost whatever id_bffile
10
2 1
4 1
11 0
17 0
18 0
19 0
25 0
34 0
55 0
59 0
5
0 1 0 1
0 10 -1 0
0 15 -1 0
0 16 -1 0
0 24 -1 0
1
end_operator
begin_operator
smb_copy id_yrat id_rhost somepath id_bhshare id_rhost id_khost whatever id_befile
10
3 1
5 1
12 0
20 0
21 0
22 0
26 0
34 0
55 0
59 0
5
0 0 0 1
0 9 -1 0
0 13 -1 0
0 14 -1 0
0 23 -1 0
1
end_operator
begin_operator
smb_copy id_yrat id_rhost somepath id_bhshare id_rhost id_khost whatever id_bffile
10
3 1
5 1
12 0
20 0
21 0
22 0
26 0
34 0
55 0
59 0
5
0 1 0 1
0 10 -1 0
0 15 -1 0
0 16 -1 0
0 24 -1 0
1
end_operator
begin_operator
smb_copy id_yrat id_rhost str__z id_bgshare id_rhost id_khost whatever id_befile
9
2 1
4 1
11 0
17 0
18 0
19 0
25 0
34 0
59 0
5
0 0 0 1
0 9 -1 0
0 13 -1 0
0 14 -1 0
0 23 -1 0
1
end_operator
begin_operator
smb_copy id_yrat id_rhost str__z id_bgshare id_rhost id_khost whatever id_bffile
9
2 1
4 1
11 0
17 0
18 0
19 0
25 0
34 0
59 0
5
0 1 0 1
0 10 -1 0
0 15 -1 0
0 16 -1 0
0 24 -1 0
1
end_operator
begin_operator
smb_copy id_yrat id_rhost str__z id_bhshare id_rhost id_khost whatever id_befile
9
3 1
5 1
12 0
20 0
21 0
22 0
26 0
34 0
59 0
5
0 0 0 1
0 9 -1 0
0 13 -1 0
0 14 -1 0
0 23 -1 0
1
end_operator
begin_operator
smb_copy id_yrat id_rhost str__z id_bhshare id_rhost id_khost whatever id_bffile
9
3 1
5 1
12 0
20 0
21 0
22 0
26 0
34 0
59 0
5
0 1 0 1
0 10 -1 0
0 15 -1 0
0 16 -1 0
0 24 -1 0
1
end_operator
begin_operator
wmic id_barat id_khost id_rhost id_befile somepath id_ddomaincredential id_cdomainuser id_adomain str__alpha str__e id_bbrat
17
0 2
9 0
13 0
14 0
23 0
27 0
28 0
30 0
31 0
34 0
35 0
37 0
40 0
42 0
43 0
49 0
56 0
7
0 7 0 1
0 29 -1 0
0 38 -1 0
0 39 -1 0
0 52 -1 0
0 54 -1 0
0 58 -1 0
1
end_operator
begin_operator
wmic id_barat id_khost id_rhost id_befile somepath id_ddomaincredential id_cdomainuser id_adomain str__alpha str__e id_yrat
17
0 2
9 0
13 0
14 0
23 0
27 0
28 0
30 0
31 0
34 0
35 0
37 0
40 0
42 0
43 0
49 0
56 0
3
0 8 0 1
0 55 -1 0
0 59 -1 0
1
end_operator
begin_operator
wmic id_barat id_khost id_rhost id_befile somepath id_hdomaincredential id_gdomainuser id_adomain str__alpha str__i id_bbrat
17
0 2
9 0
13 0
14 0
23 0
27 0
28 0
32 0
33 0
34 0
35 0
37 0
44 0
46 0
47 0
49 0
56 0
7
0 7 0 1
0 29 -1 0
0 38 -1 0
0 39 -1 0
0 52 -1 0
0 54 -1 0
0 58 -1 0
1
end_operator
begin_operator
wmic id_barat id_khost id_rhost id_befile somepath id_hdomaincredential id_gdomainuser id_adomain str__alpha str__i id_yrat
17
0 2
9 0
13 0
14 0
23 0
27 0
28 0
32 0
33 0
34 0
35 0
37 0
44 0
46 0
47 0
49 0
56 0
3
0 8 0 1
0 55 -1 0
0 59 -1 0
1
end_operator
begin_operator
wmic id_barat id_khost id_rhost id_bffile somepath id_ddomaincredential id_cdomainuser id_adomain str__alpha str__e id_bbrat
17
1 2
10 0
15 0
16 0
24 0
27 0
28 0
30 0
31 0
34 0
35 0
37 0
40 0
42 0
43 0
49 0
56 0
7
0 7 0 1
0 29 -1 0
0 38 -1 0
0 39 -1 0
0 52 -1 0
0 54 -1 0
0 58 -1 0
1
end_operator
begin_operator
wmic id_barat id_khost id_rhost id_bffile somepath id_ddomaincredential id_cdomainuser id_adomain str__alpha str__e id_yrat
17
1 2
10 0
15 0
16 0
24 0
27 0
28 0
30 0
31 0
34 0
35 0
37 0
40 0
42 0
43 0
49 0
56 0
3
0 8 0 1
0 55 -1 0
0 59 -1 0
1
end_operator
begin_operator
wmic id_barat id_khost id_rhost id_bffile somepath id_hdomaincredential id_gdomainuser id_adomain str__alpha str__i id_bbrat
17
1 2
10 0
15 0
16 0
24 0
27 0
28 0
32 0
33 0
34 0
35 0
37 0
44 0
46 0
47 0
49 0
56 0
7
0 7 0 1
0 29 -1 0
0 38 -1 0
0 39 -1 0
0 52 -1 0
0 54 -1 0
0 58 -1 0
1
end_operator
begin_operator
wmic id_barat id_khost id_rhost id_bffile somepath id_hdomaincredential id_gdomainuser id_adomain str__alpha str__i id_yrat
17
1 2
10 0
15 0
16 0
24 0
27 0
28 0
32 0
33 0
34 0
35 0
37 0
44 0
46 0
47 0
49 0
56 0
3
0 8 0 1
0 55 -1 0
0 59 -1 0
1
end_operator
begin_operator
wmic id_barat id_rhost id_khost id_befile somepath id_ddomaincredential id_cdomainuser id_adomain str__alpha str__e id_yrat
17
0 1
9 0
13 0
14 0
23 0
27 0
28 0
30 0
31 0
34 0
35 0
37 0
40 0
42 0
43 0
48 0
57 0
2
0 8 0 1
0 55 -1 0
1
end_operator
begin_operator
wmic id_barat id_rhost id_khost id_befile somepath id_hdomaincredential id_gdomainuser id_adomain str__alpha str__i id_yrat
17
0 1
9 0
13 0
14 0
23 0
27 0
28 0
32 0
33 0
34 0
35 0
37 0
44 0
46 0
47 0
48 0
57 0
2
0 8 0 1
0 55 -1 0
1
end_operator
begin_operator
wmic id_barat id_rhost id_khost id_bffile somepath id_ddomaincredential id_cdomainuser id_adomain str__alpha str__e id_yrat
17
1 1
10 0
15 0
16 0
24 0
27 0
28 0
30 0
31 0
34 0
35 0
37 0
40 0
42 0
43 0
48 0
57 0
2
0 8 0 1
0 55 -1 0
1
end_operator
begin_operator
wmic id_barat id_rhost id_khost id_bffile somepath id_hdomaincredential id_gdomainuser id_adomain str__alpha str__i id_yrat
17
1 1
10 0
15 0
16 0
24 0
27 0
28 0
32 0
33 0
34 0
35 0
37 0
44 0
46 0
47 0
48 0
57 0
2
0 8 0 1
0 55 -1 0
1
end_operator
begin_operator
wmic id_bbrat id_rhost id_khost id_befile somepath id_ddomaincredential id_cdomainuser id_adomain str__alpha str__e id_barat
17
0 1
9 0
13 0
14 0
23 0
27 0
29 0
30 0
31 0
34 0
35 0
39 0
40 0
42 0
43 0
48 0
58 0
7
0 6 0 1
0 28 -1 0
0 36 -1 0
0 37 -1 0
0 51 -1 0
0 53 -1 0
0 56 -1 0
1
end_operator
begin_operator
wmic id_bbrat id_rhost id_khost id_befile somepath id_ddomaincredential id_cdomainuser id_adomain str__alpha str__e id_yrat
17
0 1
9 0
13 0
14 0
23 0
27 0
29 0
30 0
31 0
34 0
35 0
39 0
40 0
42 0
43 0
48 0
58 0
2
0 8 0 1
0 55 -1 0
1
end_operator
begin_operator
wmic id_bbrat id_rhost id_khost id_befile somepath id_hdomaincredential id_gdomainuser id_adomain str__alpha str__i id_barat
17
0 1
9 0
13 0
14 0
23 0
27 0
29 0
32 0
33 0
34 0
35 0
39 0
44 0
46 0
47 0
48 0
58 0
7
0 6 0 1
0 28 -1 0
0 36 -1 0
0 37 -1 0
0 51 -1 0
0 53 -1 0
0 56 -1 0
1
end_operator
begin_operator
wmic id_bbrat id_rhost id_khost id_befile somepath id_hdomaincredential id_gdomainuser id_adomain str__alpha str__i id_yrat
17
0 1
9 0
13 0
14 0
23 0
27 0
29 0
32 0
33 0
34 0
35 0
39 0
44 0
46 0
47 0
48 0
58 0
2
0 8 0 1
0 55 -1 0
1
end_operator
begin_operator
wmic id_bbrat id_rhost id_khost id_bffile somepath id_ddomaincredential id_cdomainuser id_adomain str__alpha str__e id_barat
17
1 1
10 0
15 0
16 0
24 0
27 0
29 0
30 0
31 0
34 0
35 0
39 0
40 0
42 0
43 0
48 0
58 0
7
0 6 0 1
0 28 -1 0
0 36 -1 0
0 37 -1 0
0 51 -1 0
0 53 -1 0
0 56 -1 0
1
end_operator
begin_operator
wmic id_bbrat id_rhost id_khost id_bffile somepath id_ddomaincredential id_cdomainuser id_adomain str__alpha str__e id_yrat
17
1 1
10 0
15 0
16 0
24 0
27 0
29 0
30 0
31 0
34 0
35 0
39 0
40 0
42 0
43 0
48 0
58 0
2
0 8 0 1
0 55 -1 0
1
end_operator
begin_operator
wmic id_bbrat id_rhost id_khost id_bffile somepath id_hdomaincredential id_gdomainuser id_adomain str__alpha str__i id_barat
17
1 1
10 0
15 0
16 0
24 0
27 0
29 0
32 0
33 0
34 0
35 0
39 0
44 0
46 0
47 0
48 0
58 0
7
0 6 0 1
0 28 -1 0
0 36 -1 0
0 37 -1 0
0 51 -1 0
0 53 -1 0
0 56 -1 0
1
end_operator
begin_operator
wmic id_bbrat id_rhost id_khost id_bffile somepath id_hdomaincredential id_gdomainuser id_adomain str__alpha str__i id_yrat
17
1 1
10 0
15 0
16 0
24 0
27 0
29 0
32 0
33 0
34 0
35 0
39 0
44 0
46 0
47 0
48 0
58 0
2
0 8 0 1
0 55 -1 0
1
end_operator
begin_operator
wmic id_yrat id_khost id_rhost id_befile somepath id_ddomaincredential id_cdomainuser id_adomain str__alpha str__e id_barat
14
0 2
9 0
13 0
14 0
23 0
27 0
30 0
31 0
34 0
35 0
40 0
42 0
43 0
49 0
7
0 6 0 1
0 28 -1 0
0 36 -1 0
0 37 -1 0
0 51 -1 0
0 53 -1 0
0 57 -1 0
1
end_operator
begin_operator
wmic id_yrat id_khost id_rhost id_befile somepath id_ddomaincredential id_cdomainuser id_adomain str__alpha str__e id_bbrat
14
0 2
9 0
13 0
14 0
23 0
27 0
30 0
31 0
34 0
35 0
40 0
42 0
43 0
49 0
7
0 7 0 1
0 29 -1 0
0 38 -1 0
0 39 -1 0
0 52 -1 0
0 54 -1 0
0 58 -1 0
1
end_operator
begin_operator
wmic id_yrat id_khost id_rhost id_befile somepath id_ddomaincredential id_cdomainuser id_adomain str__alpha str__e id_yrat
14
0 2
9 0
13 0
14 0
23 0
27 0
30 0
31 0
34 0
35 0
40 0
42 0
43 0
49 0
3
0 8 0 1
0 55 -1 0
0 59 -1 0
1
end_operator
begin_operator
wmic id_yrat id_khost id_rhost id_befile somepath id_hdomaincredential id_gdomainuser id_adomain str__alpha str__i id_barat
14
0 2
9 0
13 0
14 0
23 0
27 0
32 0
33 0
34 0
35 0
44 0
46 0
47 0
49 0
7
0 6 0 1
0 28 -1 0
0 36 -1 0
0 37 -1 0
0 51 -1 0
0 53 -1 0
0 57 -1 0
1
end_operator
begin_operator
wmic id_yrat id_khost id_rhost id_befile somepath id_hdomaincredential id_gdomainuser id_adomain str__alpha str__i id_bbrat
14
0 2
9 0
13 0
14 0
23 0
27 0
32 0
33 0
34 0
35 0
44 0
46 0
47 0
49 0
7
0 7 0 1
0 29 -1 0
0 38 -1 0
0 39 -1 0
0 52 -1 0
0 54 -1 0
0 58 -1 0
1
end_operator
begin_operator
wmic id_yrat id_khost id_rhost id_befile somepath id_hdomaincredential id_gdomainuser id_adomain str__alpha str__i id_yrat
14
0 2
9 0
13 0
14 0
23 0
27 0
32 0
33 0
34 0
35 0
44 0
46 0
47 0
49 0
3
0 8 0 1
0 55 -1 0
0 59 -1 0
1
end_operator
begin_operator
wmic id_yrat id_khost id_rhost id_bffile somepath id_ddomaincredential id_cdomainuser id_adomain str__alpha str__e id_barat
14
1 2
10 0
15 0
16 0
24 0
27 0
30 0
31 0
34 0
35 0
40 0
42 0
43 0
49 0
7
0 6 0 1
0 28 -1 0
0 36 -1 0
0 37 -1 0
0 51 -1 0
0 53 -1 0
0 57 -1 0
1
end_operator
begin_operator
wmic id_yrat id_khost id_rhost id_bffile somepath id_ddomaincredential id_cdomainuser id_adomain str__alpha str__e id_bbrat
14
1 2
10 0
15 0
16 0
24 0
27 0
30 0
31 0
34 0
35 0
40 0
42 0
43 0
49 0
7
0 7 0 1
0 29 -1 0
0 38 -1 0
0 39 -1 0
0 52 -1 0
0 54 -1 0
0 58 -1 0
1
end_operator
begin_operator
wmic id_yrat id_khost id_rhost id_bffile somepath id_ddomaincredential id_cdomainuser id_adomain str__alpha str__e id_yrat
14
1 2
10 0
15 0
16 0
24 0
27 0
30 0
31 0
34 0
35 0
40 0
42 0
43 0
49 0
3
0 8 0 1
0 55 -1 0
0 59 -1 0
1
end_operator
begin_operator
wmic id_yrat id_khost id_rhost id_bffile somepath id_hdomaincredential id_gdomainuser id_adomain str__alpha str__i id_barat
14
1 2
10 0
15 0
16 0
24 0
27 0
32 0
33 0
34 0
35 0
44 0
46 0
47 0
49 0
7
0 6 0 1
0 28 -1 0
0 36 -1 0
0 37 -1 0
0 51 -1 0
0 53 -1 0
0 57 -1 0
1
end_operator
begin_operator
wmic id_yrat id_khost id_rhost id_bffile somepath id_hdomaincredential id_gdomainuser id_adomain str__alpha str__i id_bbrat
14
1 2
10 0
15 0
16 0
24 0
27 0
32 0
33 0
34 0
35 0
44 0
46 0
47 0
49 0
7
0 7 0 1
0 29 -1 0
0 38 -1 0
0 39 -1 0
0 52 -1 0
0 54 -1 0
0 58 -1 0
1
end_operator
begin_operator
wmic id_yrat id_khost id_rhost id_bffile somepath id_hdomaincredential id_gdomainuser id_adomain str__alpha str__i id_yrat
14
1 2
10 0
15 0
16 0
24 0
27 0
32 0
33 0
34 0
35 0
44 0
46 0
47 0
49 0
3
0 8 0 1
0 55 -1 0
0 59 -1 0
1
end_operator
begin_operator
wmic id_yrat id_rhost id_khost id_befile somepath id_ddomaincredential id_cdomainuser id_adomain str__alpha str__e id_barat
15
0 1
9 0
13 0
14 0
23 0
27 0
30 0
31 0
34 0
35 0
40 0
42 0
43 0
48 0
59 0
7
0 6 0 1
0 28 -1 0
0 36 -1 0
0 37 -1 0
0 51 -1 0
0 53 -1 0
0 56 -1 0
1
end_operator
begin_operator
wmic id_yrat id_rhost id_khost id_befile somepath id_hdomaincredential id_gdomainuser id_adomain str__alpha str__i id_barat
15
0 1
9 0
13 0
14 0
23 0
27 0
32 0
33 0
34 0
35 0
44 0
46 0
47 0
48 0
59 0
7
0 6 0 1
0 28 -1 0
0 36 -1 0
0 37 -1 0
0 51 -1 0
0 53 -1 0
0 56 -1 0
1
end_operator
begin_operator
wmic id_yrat id_rhost id_khost id_bffile somepath id_ddomaincredential id_cdomainuser id_adomain str__alpha str__e id_barat
15
1 1
10 0
15 0
16 0
24 0
27 0
30 0
31 0
34 0
35 0
40 0
42 0
43 0
48 0
59 0
7
0 6 0 1
0 28 -1 0
0 36 -1 0
0 37 -1 0
0 51 -1 0
0 53 -1 0
0 56 -1 0
1
end_operator
begin_operator
wmic id_yrat id_rhost id_khost id_bffile somepath id_hdomaincredential id_gdomainuser id_adomain str__alpha str__i id_barat
15
1 1
10 0
15 0
16 0
24 0
27 0
32 0
33 0
34 0
35 0
44 0
46 0
47 0
48 0
59 0
7
0 6 0 1
0 28 -1 0
0 36 -1 0
0 37 -1 0
0 51 -1 0
0 53 -1 0
0 56 -1 0
1
end_operator
0
