Fact[52]:
  (at p0 l0)
  (at p0 l1)
  (at p0 l2)
  (at p0 l3)
  (at p1 l0)
  (at p1 l1)
  (at p1 l2)
  (at p1 l3)
  (at p2 l0)
  (at p2 l1)
  (at p2 l2)
  (at p2 l3)
  (at t0 l0)
  (at t0 l1)
  (at t0 l2)
  (at t0 l3)
  (fuel t0 level10)
  (fuel t0 level11)
  (fuel t0 level12)
  (fuel t0 level13)
  (fuel t0 level14)
  (fuel t0 level15)
  (fuel t0 level16)
  (fuel t0 level17)
  (fuel t0 level18)
  (fuel t0 level19)
  (fuel t0 level2)
  (fuel t0 level20)
  (fuel t0 level21)
  (fuel t0 level22)
  (fuel t0 level23)
  (fuel t0 level24)
  (fuel t0 level25)
  (fuel t0 level26)
  (fuel t0 level27)
  (fuel t0 level28)
  (fuel t0 level29)
  (fuel t0 level3)
  (fuel t0 level30)
  (fuel t0 level32)
  (fuel t0 level33)
  (fuel t0 level34)
  (fuel t0 level36)
  (fuel t0 level4)
  (fuel t0 level5)
  (fuel t0 level6)
  (fuel t0 level7)
  (fuel t0 level8)
  (fuel t0 level9)
  (in p0 t0)
  (in p1 t0)
  (in p2 t0)
Op[169]:
  (drive t0 l0 l1 level1 level13 level14), cost: 1
    pre: (at t0 l0) (fuel t0 level14)
    add: (at t0 l1)
    del: (at t0 l0) (fuel t0 level14)
  (drive t0 l0 l1 level11 level13 level24), cost: 1
    pre: (at t0 l0) (fuel t0 level24)
    add: (at t0 l1) (fuel t0 level11)
    del: (at t0 l0) (fuel t0 level24)
  (drive t0 l0 l1 level13 level13 level26), cost: 1
    pre: (at t0 l0) (fuel t0 level26)
    add: (at t0 l1) (fuel t0 level13)
    del: (at t0 l0) (fuel t0 level26)
  (drive t0 l0 l1 level15 level13 level28), cost: 1
    pre: (at t0 l0) (fuel t0 level28)
    add: (at t0 l1) (fuel t0 level15)
    del: (at t0 l0) (fuel t0 level28)
  (drive t0 l0 l1 level17 level13 level30), cost: 1
    pre: (at t0 l0) (fuel t0 level30)
    add: (at t0 l1) (fuel t0 level17)
    del: (at t0 l0) (fuel t0 level30)
  (drive t0 l0 l1 level21 level13 level34), cost: 1
    pre: (at t0 l0) (fuel t0 level34)
    add: (at t0 l1) (fuel t0 level21)
    del: (at t0 l0) (fuel t0 level34)
  (drive t0 l0 l1 level3 level13 level16), cost: 1
    pre: (at t0 l0) (fuel t0 level16)
    add: (at t0 l1) (fuel t0 level3)
    del: (at t0 l0) (fuel t0 level16)
  (drive t0 l0 l1 level5 level13 level18), cost: 1
    pre: (at t0 l0) (fuel t0 level18)
    add: (at t0 l1) (fuel t0 level5)
    del: (at t0 l0) (fuel t0 level18)
  (drive t0 l0 l1 level7 level13 level20), cost: 1
    pre: (at t0 l0) (fuel t0 level20)
    add: (at t0 l1) (fuel t0 level7)
    del: (at t0 l0) (fuel t0 level20)
  (drive t0 l0 l1 level9 level13 level22), cost: 1
    pre: (at t0 l0) (fuel t0 level22)
    add: (at t0 l1) (fuel t0 level9)
    del: (at t0 l0) (fuel t0 level22)
  (drive t0 l0 l2 level0 level2 level2), cost: 1
    pre: (at t0 l0) (fuel t0 level2)
    add: (at t0 l2)
    del: (at t0 l0) (fuel t0 level2)
  (drive t0 l0 l2 level10 level2 level12), cost: 1
    pre: (at t0 l0) (fuel t0 level12)
    add: (at t0 l2) (fuel t0 level10)
    del: (at t0 l0) (fuel t0 level12)
  (drive t0 l0 l2 level12 level2 level14), cost: 1
    pre: (at t0 l0) (fuel t0 level14)
    add: (at t0 l2) (fuel t0 level12)
    del: (at t0 l0) (fuel t0 level14)
  (drive t0 l0 l2 level14 level2 level16), cost: 1
    pre: (at t0 l0) (fuel t0 level16)
    add: (at t0 l2) (fuel t0 level14)
    del: (at t0 l0) (fuel t0 level16)
  (drive t0 l0 l2 level16 level2 level18), cost: 1
    pre: (at t0 l0) (fuel t0 level18)
    add: (at t0 l2) (fuel t0 level16)
    del: (at t0 l0) (fuel t0 level18)
  (drive t0 l0 l2 level18 level2 level20), cost: 1
    pre: (at t0 l0) (fuel t0 level20)
    add: (at t0 l2) (fuel t0 level18)
    del: (at t0 l0) (fuel t0 level20)
  (drive t0 l0 l2 level2 level2 level4), cost: 1
    pre: (at t0 l0) (fuel t0 level4)
    add: (at t0 l2) (fuel t0 level2)
    del: (at t0 l0) (fuel t0 level4)
  (drive t0 l0 l2 level20 level2 level22), cost: 1
    pre: (at t0 l0) (fuel t0 level22)
    add: (at t0 l2) (fuel t0 level20)
    del: (at t0 l0) (fuel t0 level22)
  (drive t0 l0 l2 level22 level2 level24), cost: 1
    pre: (at t0 l0) (fuel t0 level24)
    add: (at t0 l2) (fuel t0 level22)
    del: (at t0 l0) (fuel t0 level24)
  (drive t0 l0 l2 level24 level2 level26), cost: 1
    pre: (at t0 l0) (fuel t0 level26)
    add: (at t0 l2) (fuel t0 level24)
    del: (at t0 l0) (fuel t0 level26)
  (drive t0 l0 l2 level26 level2 level28), cost: 1
    pre: (at t0 l0) (fuel t0 level28)
    add: (at t0 l2) (fuel t0 level26)
    del: (at t0 l0) (fuel t0 level28)
  (drive t0 l0 l2 level28 level2 level30), cost: 1
    pre: (at t0 l0) (fuel t0 level30)
    add: (at t0 l2) (fuel t0 level28)
    del: (at t0 l0) (fuel t0 level30)
  (drive t0 l0 l2 level32 level2 level34), cost: 1
    pre: (at t0 l0) (fuel t0 level34)
    add: (at t0 l2) (fuel t0 level32)
    del: (at t0 l0) (fuel t0 level34)
  (drive t0 l0 l2 level4 level2 level6), cost: 1
    pre: (at t0 l0) (fuel t0 level6)
    add: (at t0 l2) (fuel t0 level4)
    del: (at t0 l0) (fuel t0 level6)
  (drive t0 l0 l2 level6 level2 level8), cost: 1
    pre: (at t0 l0) (fuel t0 level8)
    add: (at t0 l2) (fuel t0 level6)
    del: (at t0 l0) (fuel t0 level8)
  (drive t0 l0 l2 level8 level2 level10), cost: 1
    pre: (at t0 l0) (fuel t0 level10)
    add: (at t0 l2) (fuel t0 level8)
    del: (at t0 l0) (fuel t0 level10)
  (drive t0 l0 l3 level0 level18 level18), cost: 1
    pre: (at t0 l0) (fuel t0 level18)
    add: (at t0 l3)
    del: (at t0 l0) (fuel t0 level18)
  (drive t0 l0 l3 level10 level18 level28), cost: 1
    pre: (at t0 l0) (fuel t0 level28)
    add: (at t0 l3) (fuel t0 level10)
    del: (at t0 l0) (fuel t0 level28)
  (drive t0 l0 l3 level12 level18 level30), cost: 1
    pre: (at t0 l0) (fuel t0 level30)
    add: (at t0 l3) (fuel t0 level12)
    del: (at t0 l0) (fuel t0 level30)
  (drive t0 l0 l3 level16 level18 level34), cost: 1
    pre: (at t0 l0) (fuel t0 level34)
    add: (at t0 l3) (fuel t0 level16)
    del: (at t0 l0) (fuel t0 level34)
  (drive t0 l0 l3 level2 level18 level20), cost: 1
    pre: (at t0 l0) (fuel t0 level20)
    add: (at t0 l3) (fuel t0 level2)
    del: (at t0 l0) (fuel t0 level20)
  (drive t0 l0 l3 level4 level18 level22), cost: 1
    pre: (at t0 l0) (fuel t0 level22)
    add: (at t0 l3) (fuel t0 level4)
    del: (at t0 l0) (fuel t0 level22)
  (drive t0 l0 l3 level6 level18 level24), cost: 1
    pre: (at t0 l0) (fuel t0 level24)
    add: (at t0 l3) (fuel t0 level6)
    del: (at t0 l0) (fuel t0 level24)
  (drive t0 l0 l3 level8 level18 level26), cost: 1
    pre: (at t0 l0) (fuel t0 level26)
    add: (at t0 l3) (fuel t0 level8)
    del: (at t0 l0) (fuel t0 level26)
  (drive t0 l1 l0 level0 level13 level13), cost: 1
    pre: (at t0 l1) (fuel t0 level13)
    add: (at t0 l0)
    del: (at t0 l1) (fuel t0 level13)
  (drive t0 l1 l0 level10 level13 level23), cost: 1
    pre: (at t0 l1) (fuel t0 level23)
    add: (at t0 l0) (fuel t0 level10)
    del: (at t0 l1) (fuel t0 level23)
  (drive t0 l1 l0 level12 level13 level25), cost: 1
    pre: (at t0 l1) (fuel t0 level25)
    add: (at t0 l0) (fuel t0 level12)
    del: (at t0 l1) (fuel t0 level25)
  (drive t0 l1 l0 level14 level13 level27), cost: 1
    pre: (at t0 l1) (fuel t0 level27)
    add: (at t0 l0) (fuel t0 level14)
    del: (at t0 l1) (fuel t0 level27)
  (drive t0 l1 l0 level16 level13 level29), cost: 1
    pre: (at t0 l1) (fuel t0 level29)
    add: (at t0 l0) (fuel t0 level16)
    del: (at t0 l1) (fuel t0 level29)
  (drive t0 l1 l0 level2 level13 level15), cost: 1
    pre: (at t0 l1) (fuel t0 level15)
    add: (at t0 l0) (fuel t0 level2)
    del: (at t0 l1) (fuel t0 level15)
  (drive t0 l1 l0 level20 level13 level33), cost: 1
    pre: (at t0 l1) (fuel t0 level33)
    add: (at t0 l0) (fuel t0 level20)
    del: (at t0 l1) (fuel t0 level33)
  (drive t0 l1 l0 level4 level13 level17), cost: 1
    pre: (at t0 l1) (fuel t0 level17)
    add: (at t0 l0) (fuel t0 level4)
    del: (at t0 l1) (fuel t0 level17)
  (drive t0 l1 l0 level6 level13 level19), cost: 1
    pre: (at t0 l1) (fuel t0 level19)
    add: (at t0 l0) (fuel t0 level6)
    del: (at t0 l1) (fuel t0 level19)
  (drive t0 l1 l0 level8 level13 level21), cost: 1
    pre: (at t0 l1) (fuel t0 level21)
    add: (at t0 l0) (fuel t0 level8)
    del: (at t0 l1) (fuel t0 level21)
  (drive t0 l1 l2 level0 level3 level3), cost: 1
    pre: (at t0 l1) (fuel t0 level3)
    add: (at t0 l2)
    del: (at t0 l1) (fuel t0 level3)
  (drive t0 l1 l2 level10 level3 level13), cost: 1
    pre: (at t0 l1) (fuel t0 level13)
    add: (at t0 l2) (fuel t0 level10)
    del: (at t0 l1) (fuel t0 level13)
  (drive t0 l1 l2 level12 level3 level15), cost: 1
    pre: (at t0 l1) (fuel t0 level15)
    add: (at t0 l2) (fuel t0 level12)
    del: (at t0 l1) (fuel t0 level15)
  (drive t0 l1 l2 level14 level3 level17), cost: 1
    pre: (at t0 l1) (fuel t0 level17)
    add: (at t0 l2) (fuel t0 level14)
    del: (at t0 l1) (fuel t0 level17)
  (drive t0 l1 l2 level16 level3 level19), cost: 1
    pre: (at t0 l1) (fuel t0 level19)
    add: (at t0 l2) (fuel t0 level16)
    del: (at t0 l1) (fuel t0 level19)
  (drive t0 l1 l2 level18 level3 level21), cost: 1
    pre: (at t0 l1) (fuel t0 level21)
    add: (at t0 l2) (fuel t0 level18)
    del: (at t0 l1) (fuel t0 level21)
  (drive t0 l1 l2 level2 level3 level5), cost: 1
    pre: (at t0 l1) (fuel t0 level5)
    add: (at t0 l2) (fuel t0 level2)
    del: (at t0 l1) (fuel t0 level5)
  (drive t0 l1 l2 level20 level3 level23), cost: 1
    pre: (at t0 l1) (fuel t0 level23)
    add: (at t0 l2) (fuel t0 level20)
    del: (at t0 l1) (fuel t0 level23)
  (drive t0 l1 l2 level22 level3 level25), cost: 1
    pre: (at t0 l1) (fuel t0 level25)
    add: (at t0 l2) (fuel t0 level22)
    del: (at t0 l1) (fuel t0 level25)
  (drive t0 l1 l2 level24 level3 level27), cost: 1
    pre: (at t0 l1) (fuel t0 level27)
    add: (at t0 l2) (fuel t0 level24)
    del: (at t0 l1) (fuel t0 level27)
  (drive t0 l1 l2 level26 level3 level29), cost: 1
    pre: (at t0 l1) (fuel t0 level29)
    add: (at t0 l2) (fuel t0 level26)
    del: (at t0 l1) (fuel t0 level29)
  (drive t0 l1 l2 level30 level3 level33), cost: 1
    pre: (at t0 l1) (fuel t0 level33)
    add: (at t0 l2) (fuel t0 level30)
    del: (at t0 l1) (fuel t0 level33)
  (drive t0 l1 l2 level4 level3 level7), cost: 1
    pre: (at t0 l1) (fuel t0 level7)
    add: (at t0 l2) (fuel t0 level4)
    del: (at t0 l1) (fuel t0 level7)
  (drive t0 l1 l2 level6 level3 level9), cost: 1
    pre: (at t0 l1) (fuel t0 level9)
    add: (at t0 l2) (fuel t0 level6)
    del: (at t0 l1) (fuel t0 level9)
  (drive t0 l1 l2 level8 level3 level11), cost: 1
    pre: (at t0 l1) (fuel t0 level11)
    add: (at t0 l2) (fuel t0 level8)
    del: (at t0 l1) (fuel t0 level11)
  (drive t0 l1 l3 level0 level11 level11), cost: 1
    pre: (at t0 l1) (fuel t0 level11)
    add: (at t0 l3)
    del: (at t0 l1) (fuel t0 level11)
  (drive t0 l1 l3 level10 level11 level21), cost: 1
    pre: (at t0 l1) (fuel t0 level21)
    add: (at t0 l3) (fuel t0 level10)
    del: (at t0 l1) (fuel t0 level21)
  (drive t0 l1 l3 level12 level11 level23), cost: 1
    pre: (at t0 l1) (fuel t0 level23)
    add: (at t0 l3) (fuel t0 level12)
    del: (at t0 l1) (fuel t0 level23)
  (drive t0 l1 l3 level14 level11 level25), cost: 1
    pre: (at t0 l1) (fuel t0 level25)
    add: (at t0 l3) (fuel t0 level14)
    del: (at t0 l1) (fuel t0 level25)
  (drive t0 l1 l3 level16 level11 level27), cost: 1
    pre: (at t0 l1) (fuel t0 level27)
    add: (at t0 l3) (fuel t0 level16)
    del: (at t0 l1) (fuel t0 level27)
  (drive t0 l1 l3 level18 level11 level29), cost: 1
    pre: (at t0 l1) (fuel t0 level29)
    add: (at t0 l3) (fuel t0 level18)
    del: (at t0 l1) (fuel t0 level29)
  (drive t0 l1 l3 level2 level11 level13), cost: 1
    pre: (at t0 l1) (fuel t0 level13)
    add: (at t0 l3) (fuel t0 level2)
    del: (at t0 l1) (fuel t0 level13)
  (drive t0 l1 l3 level22 level11 level33), cost: 1
    pre: (at t0 l1) (fuel t0 level33)
    add: (at t0 l3) (fuel t0 level22)
    del: (at t0 l1) (fuel t0 level33)
  (drive t0 l1 l3 level4 level11 level15), cost: 1
    pre: (at t0 l1) (fuel t0 level15)
    add: (at t0 l3) (fuel t0 level4)
    del: (at t0 l1) (fuel t0 level15)
  (drive t0 l1 l3 level6 level11 level17), cost: 1
    pre: (at t0 l1) (fuel t0 level17)
    add: (at t0 l3) (fuel t0 level6)
    del: (at t0 l1) (fuel t0 level17)
  (drive t0 l1 l3 level8 level11 level19), cost: 1
    pre: (at t0 l1) (fuel t0 level19)
    add: (at t0 l3) (fuel t0 level8)
    del: (at t0 l1) (fuel t0 level19)
  (drive t0 l2 l0 level0 level2 level2), cost: 1
    pre: (at t0 l2) (fuel t0 level2)
    add: (at t0 l0)
    del: (at t0 l2) (fuel t0 level2)
  (drive t0 l2 l0 level10 level2 level12), cost: 1
    pre: (at t0 l2) (fuel t0 level12)
    add: (at t0 l0) (fuel t0 level10)
    del: (at t0 l2) (fuel t0 level12)
  (drive t0 l2 l0 level12 level2 level14), cost: 1
    pre: (at t0 l2) (fuel t0 level14)
    add: (at t0 l0) (fuel t0 level12)
    del: (at t0 l2) (fuel t0 level14)
  (drive t0 l2 l0 level14 level2 level16), cost: 1
    pre: (at t0 l2) (fuel t0 level16)
    add: (at t0 l0) (fuel t0 level14)
    del: (at t0 l2) (fuel t0 level16)
  (drive t0 l2 l0 level16 level2 level18), cost: 1
    pre: (at t0 l2) (fuel t0 level18)
    add: (at t0 l0) (fuel t0 level16)
    del: (at t0 l2) (fuel t0 level18)
  (drive t0 l2 l0 level18 level2 level20), cost: 1
    pre: (at t0 l2) (fuel t0 level20)
    add: (at t0 l0) (fuel t0 level18)
    del: (at t0 l2) (fuel t0 level20)
  (drive t0 l2 l0 level2 level2 level4), cost: 1
    pre: (at t0 l2) (fuel t0 level4)
    add: (at t0 l0) (fuel t0 level2)
    del: (at t0 l2) (fuel t0 level4)
  (drive t0 l2 l0 level20 level2 level22), cost: 1
    pre: (at t0 l2) (fuel t0 level22)
    add: (at t0 l0) (fuel t0 level20)
    del: (at t0 l2) (fuel t0 level22)
  (drive t0 l2 l0 level22 level2 level24), cost: 1
    pre: (at t0 l2) (fuel t0 level24)
    add: (at t0 l0) (fuel t0 level22)
    del: (at t0 l2) (fuel t0 level24)
  (drive t0 l2 l0 level24 level2 level26), cost: 1
    pre: (at t0 l2) (fuel t0 level26)
    add: (at t0 l0) (fuel t0 level24)
    del: (at t0 l2) (fuel t0 level26)
  (drive t0 l2 l0 level26 level2 level28), cost: 1
    pre: (at t0 l2) (fuel t0 level28)
    add: (at t0 l0) (fuel t0 level26)
    del: (at t0 l2) (fuel t0 level28)
  (drive t0 l2 l0 level28 level2 level30), cost: 1
    pre: (at t0 l2) (fuel t0 level30)
    add: (at t0 l0) (fuel t0 level28)
    del: (at t0 l2) (fuel t0 level30)
  (drive t0 l2 l0 level30 level2 level32), cost: 1
    pre: (at t0 l2) (fuel t0 level32)
    add: (at t0 l0) (fuel t0 level30)
    del: (at t0 l2) (fuel t0 level32)
  (drive t0 l2 l0 level34 level2 level36), cost: 1
    pre: (at t0 l2) (fuel t0 level36)
    add: (at t0 l0) (fuel t0 level34)
    del: (at t0 l2) (fuel t0 level36)
  (drive t0 l2 l0 level4 level2 level6), cost: 1
    pre: (at t0 l2) (fuel t0 level6)
    add: (at t0 l0) (fuel t0 level4)
    del: (at t0 l2) (fuel t0 level6)
  (drive t0 l2 l0 level6 level2 level8), cost: 1
    pre: (at t0 l2) (fuel t0 level8)
    add: (at t0 l0) (fuel t0 level6)
    del: (at t0 l2) (fuel t0 level8)
  (drive t0 l2 l0 level8 level2 level10), cost: 1
    pre: (at t0 l2) (fuel t0 level10)
    add: (at t0 l0) (fuel t0 level8)
    del: (at t0 l2) (fuel t0 level10)
  (drive t0 l2 l1 level1 level3 level4), cost: 1
    pre: (at t0 l2) (fuel t0 level4)
    add: (at t0 l1)
    del: (at t0 l2) (fuel t0 level4)
  (drive t0 l2 l1 level11 level3 level14), cost: 1
    pre: (at t0 l2) (fuel t0 level14)
    add: (at t0 l1) (fuel t0 level11)
    del: (at t0 l2) (fuel t0 level14)
  (drive t0 l2 l1 level13 level3 level16), cost: 1
    pre: (at t0 l2) (fuel t0 level16)
    add: (at t0 l1) (fuel t0 level13)
    del: (at t0 l2) (fuel t0 level16)
  (drive t0 l2 l1 level15 level3 level18), cost: 1
    pre: (at t0 l2) (fuel t0 level18)
    add: (at t0 l1) (fuel t0 level15)
    del: (at t0 l2) (fuel t0 level18)
  (drive t0 l2 l1 level17 level3 level20), cost: 1
    pre: (at t0 l2) (fuel t0 level20)
    add: (at t0 l1) (fuel t0 level17)
    del: (at t0 l2) (fuel t0 level20)
  (drive t0 l2 l1 level19 level3 level22), cost: 1
    pre: (at t0 l2) (fuel t0 level22)
    add: (at t0 l1) (fuel t0 level19)
    del: (at t0 l2) (fuel t0 level22)
  (drive t0 l2 l1 level21 level3 level24), cost: 1
    pre: (at t0 l2) (fuel t0 level24)
    add: (at t0 l1) (fuel t0 level21)
    del: (at t0 l2) (fuel t0 level24)
  (drive t0 l2 l1 level23 level3 level26), cost: 1
    pre: (at t0 l2) (fuel t0 level26)
    add: (at t0 l1) (fuel t0 level23)
    del: (at t0 l2) (fuel t0 level26)
  (drive t0 l2 l1 level25 level3 level28), cost: 1
    pre: (at t0 l2) (fuel t0 level28)
    add: (at t0 l1) (fuel t0 level25)
    del: (at t0 l2) (fuel t0 level28)
  (drive t0 l2 l1 level27 level3 level30), cost: 1
    pre: (at t0 l2) (fuel t0 level30)
    add: (at t0 l1) (fuel t0 level27)
    del: (at t0 l2) (fuel t0 level30)
  (drive t0 l2 l1 level29 level3 level32), cost: 1
    pre: (at t0 l2) (fuel t0 level32)
    add: (at t0 l1) (fuel t0 level29)
    del: (at t0 l2) (fuel t0 level32)
  (drive t0 l2 l1 level3 level3 level6), cost: 1
    pre: (at t0 l2) (fuel t0 level6)
    add: (at t0 l1) (fuel t0 level3)
    del: (at t0 l2) (fuel t0 level6)
  (drive t0 l2 l1 level33 level3 level36), cost: 1
    pre: (at t0 l2) (fuel t0 level36)
    add: (at t0 l1) (fuel t0 level33)
    del: (at t0 l2) (fuel t0 level36)
  (drive t0 l2 l1 level5 level3 level8), cost: 1
    pre: (at t0 l2) (fuel t0 level8)
    add: (at t0 l1) (fuel t0 level5)
    del: (at t0 l2) (fuel t0 level8)
  (drive t0 l2 l1 level7 level3 level10), cost: 1
    pre: (at t0 l2) (fuel t0 level10)
    add: (at t0 l1) (fuel t0 level7)
    del: (at t0 l2) (fuel t0 level10)
  (drive t0 l2 l1 level9 level3 level12), cost: 1
    pre: (at t0 l2) (fuel t0 level12)
    add: (at t0 l1) (fuel t0 level9)
    del: (at t0 l2) (fuel t0 level12)
  (drive t0 l2 l3 level0 level6 level6), cost: 1
    pre: (at t0 l2) (fuel t0 level6)
    add: (at t0 l3)
    del: (at t0 l2) (fuel t0 level6)
  (drive t0 l2 l3 level10 level6 level16), cost: 1
    pre: (at t0 l2) (fuel t0 level16)
    add: (at t0 l3) (fuel t0 level10)
    del: (at t0 l2) (fuel t0 level16)
  (drive t0 l2 l3 level12 level6 level18), cost: 1
    pre: (at t0 l2) (fuel t0 level18)
    add: (at t0 l3) (fuel t0 level12)
    del: (at t0 l2) (fuel t0 level18)
  (drive t0 l2 l3 level14 level6 level20), cost: 1
    pre: (at t0 l2) (fuel t0 level20)
    add: (at t0 l3) (fuel t0 level14)
    del: (at t0 l2) (fuel t0 level20)
  (drive t0 l2 l3 level16 level6 level22), cost: 1
    pre: (at t0 l2) (fuel t0 level22)
    add: (at t0 l3) (fuel t0 level16)
    del: (at t0 l2) (fuel t0 level22)
  (drive t0 l2 l3 level18 level6 level24), cost: 1
    pre: (at t0 l2) (fuel t0 level24)
    add: (at t0 l3) (fuel t0 level18)
    del: (at t0 l2) (fuel t0 level24)
  (drive t0 l2 l3 level2 level6 level8), cost: 1
    pre: (at t0 l2) (fuel t0 level8)
    add: (at t0 l3) (fuel t0 level2)
    del: (at t0 l2) (fuel t0 level8)
  (drive t0 l2 l3 level20 level6 level26), cost: 1
    pre: (at t0 l2) (fuel t0 level26)
    add: (at t0 l3) (fuel t0 level20)
    del: (at t0 l2) (fuel t0 level26)
  (drive t0 l2 l3 level22 level6 level28), cost: 1
    pre: (at t0 l2) (fuel t0 level28)
    add: (at t0 l3) (fuel t0 level22)
    del: (at t0 l2) (fuel t0 level28)
  (drive t0 l2 l3 level24 level6 level30), cost: 1
    pre: (at t0 l2) (fuel t0 level30)
    add: (at t0 l3) (fuel t0 level24)
    del: (at t0 l2) (fuel t0 level30)
  (drive t0 l2 l3 level26 level6 level32), cost: 1
    pre: (at t0 l2) (fuel t0 level32)
    add: (at t0 l3) (fuel t0 level26)
    del: (at t0 l2) (fuel t0 level32)
  (drive t0 l2 l3 level30 level6 level36), cost: 1
    pre: (at t0 l2) (fuel t0 level36)
    add: (at t0 l3) (fuel t0 level30)
    del: (at t0 l2) (fuel t0 level36)
  (drive t0 l2 l3 level4 level6 level10), cost: 1
    pre: (at t0 l2) (fuel t0 level10)
    add: (at t0 l3) (fuel t0 level4)
    del: (at t0 l2) (fuel t0 level10)
  (drive t0 l2 l3 level6 level6 level12), cost: 1
    pre: (at t0 l2) (fuel t0 level12)
    add: (at t0 l3) (fuel t0 level6)
    del: (at t0 l2) (fuel t0 level12)
  (drive t0 l2 l3 level8 level6 level14), cost: 1
    pre: (at t0 l2) (fuel t0 level14)
    add: (at t0 l3) (fuel t0 level8)
    del: (at t0 l2) (fuel t0 level14)
  (drive t0 l3 l0 level0 level18 level18), cost: 1
    pre: (at t0 l3) (fuel t0 level18)
    add: (at t0 l0)
    del: (at t0 l3) (fuel t0 level18)
  (drive t0 l3 l0 level12 level18 level30), cost: 1
    pre: (at t0 l3) (fuel t0 level30)
    add: (at t0 l0) (fuel t0 level12)
    del: (at t0 l3) (fuel t0 level30)
  (drive t0 l3 l0 level2 level18 level20), cost: 1
    pre: (at t0 l3) (fuel t0 level20)
    add: (at t0 l0) (fuel t0 level2)
    del: (at t0 l3) (fuel t0 level20)
  (drive t0 l3 l0 level4 level18 level22), cost: 1
    pre: (at t0 l3) (fuel t0 level22)
    add: (at t0 l0) (fuel t0 level4)
    del: (at t0 l3) (fuel t0 level22)
  (drive t0 l3 l0 level6 level18 level24), cost: 1
    pre: (at t0 l3) (fuel t0 level24)
    add: (at t0 l0) (fuel t0 level6)
    del: (at t0 l3) (fuel t0 level24)
  (drive t0 l3 l0 level8 level18 level26), cost: 1
    pre: (at t0 l3) (fuel t0 level26)
    add: (at t0 l0) (fuel t0 level8)
    del: (at t0 l3) (fuel t0 level26)
  (drive t0 l3 l1 level1 level11 level12), cost: 1
    pre: (at t0 l3) (fuel t0 level12)
    add: (at t0 l1)
    del: (at t0 l3) (fuel t0 level12)
  (drive t0 l3 l1 level11 level11 level22), cost: 1
    pre: (at t0 l3) (fuel t0 level22)
    add: (at t0 l1) (fuel t0 level11)
    del: (at t0 l3) (fuel t0 level22)
  (drive t0 l3 l1 level13 level11 level24), cost: 1
    pre: (at t0 l3) (fuel t0 level24)
    add: (at t0 l1) (fuel t0 level13)
    del: (at t0 l3) (fuel t0 level24)
  (drive t0 l3 l1 level15 level11 level26), cost: 1
    pre: (at t0 l3) (fuel t0 level26)
    add: (at t0 l1) (fuel t0 level15)
    del: (at t0 l3) (fuel t0 level26)
  (drive t0 l3 l1 level19 level11 level30), cost: 1
    pre: (at t0 l3) (fuel t0 level30)
    add: (at t0 l1) (fuel t0 level19)
    del: (at t0 l3) (fuel t0 level30)
  (drive t0 l3 l1 level3 level11 level14), cost: 1
    pre: (at t0 l3) (fuel t0 level14)
    add: (at t0 l1) (fuel t0 level3)
    del: (at t0 l3) (fuel t0 level14)
  (drive t0 l3 l1 level5 level11 level16), cost: 1
    pre: (at t0 l3) (fuel t0 level16)
    add: (at t0 l1) (fuel t0 level5)
    del: (at t0 l3) (fuel t0 level16)
  (drive t0 l3 l1 level7 level11 level18), cost: 1
    pre: (at t0 l3) (fuel t0 level18)
    add: (at t0 l1) (fuel t0 level7)
    del: (at t0 l3) (fuel t0 level18)
  (drive t0 l3 l1 level9 level11 level20), cost: 1
    pre: (at t0 l3) (fuel t0 level20)
    add: (at t0 l1) (fuel t0 level9)
    del: (at t0 l3) (fuel t0 level20)
  (drive t0 l3 l2 level0 level6 level6), cost: 1
    pre: (at t0 l3) (fuel t0 level6)
    add: (at t0 l2)
    del: (at t0 l3) (fuel t0 level6)
  (drive t0 l3 l2 level10 level6 level16), cost: 1
    pre: (at t0 l3) (fuel t0 level16)
    add: (at t0 l2) (fuel t0 level10)
    del: (at t0 l3) (fuel t0 level16)
  (drive t0 l3 l2 level12 level6 level18), cost: 1
    pre: (at t0 l3) (fuel t0 level18)
    add: (at t0 l2) (fuel t0 level12)
    del: (at t0 l3) (fuel t0 level18)
  (drive t0 l3 l2 level14 level6 level20), cost: 1
    pre: (at t0 l3) (fuel t0 level20)
    add: (at t0 l2) (fuel t0 level14)
    del: (at t0 l3) (fuel t0 level20)
  (drive t0 l3 l2 level16 level6 level22), cost: 1
    pre: (at t0 l3) (fuel t0 level22)
    add: (at t0 l2) (fuel t0 level16)
    del: (at t0 l3) (fuel t0 level22)
  (drive t0 l3 l2 level18 level6 level24), cost: 1
    pre: (at t0 l3) (fuel t0 level24)
    add: (at t0 l2) (fuel t0 level18)
    del: (at t0 l3) (fuel t0 level24)
  (drive t0 l3 l2 level2 level6 level8), cost: 1
    pre: (at t0 l3) (fuel t0 level8)
    add: (at t0 l2) (fuel t0 level2)
    del: (at t0 l3) (fuel t0 level8)
  (drive t0 l3 l2 level20 level6 level26), cost: 1
    pre: (at t0 l3) (fuel t0 level26)
    add: (at t0 l2) (fuel t0 level20)
    del: (at t0 l3) (fuel t0 level26)
  (drive t0 l3 l2 level24 level6 level30), cost: 1
    pre: (at t0 l3) (fuel t0 level30)
    add: (at t0 l2) (fuel t0 level24)
    del: (at t0 l3) (fuel t0 level30)
  (drive t0 l3 l2 level4 level6 level10), cost: 1
    pre: (at t0 l3) (fuel t0 level10)
    add: (at t0 l2) (fuel t0 level4)
    del: (at t0 l3) (fuel t0 level10)
  (drive t0 l3 l2 level6 level6 level12), cost: 1
    pre: (at t0 l3) (fuel t0 level12)
    add: (at t0 l2) (fuel t0 level6)
    del: (at t0 l3) (fuel t0 level12)
  (drive t0 l3 l2 level8 level6 level14), cost: 1
    pre: (at t0 l3) (fuel t0 level14)
    add: (at t0 l2) (fuel t0 level8)
    del: (at t0 l3) (fuel t0 level14)
  (load p0 t0 l0), cost: 1
    pre: (at p0 l0) (at t0 l0)
    add: (in p0 t0)
    del: (at p0 l0)
  (load p0 t0 l1), cost: 1
    pre: (at p0 l1) (at t0 l1)
    add: (in p0 t0)
    del: (at p0 l1)
  (load p0 t0 l2), cost: 1
    pre: (at p0 l2) (at t0 l2)
    add: (in p0 t0)
    del: (at p0 l2)
  (load p0 t0 l3), cost: 1
    pre: (at p0 l3) (at t0 l3)
    add: (in p0 t0)
    del: (at p0 l3)
  (load p1 t0 l0), cost: 1
    pre: (at p1 l0) (at t0 l0)
    add: (in p1 t0)
    del: (at p1 l0)
  (load p1 t0 l1), cost: 1
    pre: (at p1 l1) (at t0 l1)
    add: (in p1 t0)
    del: (at p1 l1)
  (load p1 t0 l2), cost: 1
    pre: (at p1 l2) (at t0 l2)
    add: (in p1 t0)
    del: (at p1 l2)
  (load p1 t0 l3), cost: 1
    pre: (at p1 l3) (at t0 l3)
    add: (in p1 t0)
    del: (at p1 l3)
  (load p2 t0 l0), cost: 1
    pre: (at p2 l0) (at t0 l0)
    add: (in p2 t0)
    del: (at p2 l0)
  (load p2 t0 l1), cost: 1
    pre: (at p2 l1) (at t0 l1)
    add: (in p2 t0)
    del: (at p2 l1)
  (load p2 t0 l2), cost: 1
    pre: (at p2 l2) (at t0 l2)
    add: (in p2 t0)
    del: (at p2 l2)
  (load p2 t0 l3), cost: 1
    pre: (at p2 l3) (at t0 l3)
    add: (in p2 t0)
    del: (at p2 l3)
  (unload p0 t0 l0), cost: 1
    pre: (at t0 l0) (in p0 t0)
    add: (at p0 l0)
    del: (in p0 t0)
  (unload p0 t0 l1), cost: 1
    pre: (at t0 l1) (in p0 t0)
    add: (at p0 l1)
    del: (in p0 t0)
  (unload p0 t0 l2), cost: 1
    pre: (at t0 l2) (in p0 t0)
    add: (at p0 l2)
    del: (in p0 t0)
  (unload p0 t0 l3), cost: 1
    pre: (at t0 l3) (in p0 t0)
    add: (at p0 l3)
    del: (in p0 t0)
  (unload p1 t0 l0), cost: 1
    pre: (at t0 l0) (in p1 t0)
    add: (at p1 l0)
    del: (in p1 t0)
  (unload p1 t0 l1), cost: 1
    pre: (at t0 l1) (in p1 t0)
    add: (at p1 l1)
    del: (in p1 t0)
  (unload p1 t0 l2), cost: 1
    pre: (at t0 l2) (in p1 t0)
    add: (at p1 l2)
    del: (in p1 t0)
  (unload p1 t0 l3), cost: 1
    pre: (at t0 l3) (in p1 t0)
    add: (at p1 l3)
    del: (in p1 t0)
  (unload p2 t0 l0), cost: 1
    pre: (at t0 l0) (in p2 t0)
    add: (at p2 l0)
    del: (in p2 t0)
  (unload p2 t0 l1), cost: 1
    pre: (at t0 l1) (in p2 t0)
    add: (at p2 l1)
    del: (in p2 t0)
  (unload p2 t0 l2), cost: 1
    pre: (at t0 l2) (in p2 t0)
    add: (at p2 l2)
    del: (in p2 t0)
  (unload p2 t0 l3), cost: 1
    pre: (at t0 l3) (in p2 t0)
    add: (at p2 l3)
    del: (in p2 t0)
Init State: (at p0 l0) (at p1 l1) (at p2 l3) (at t0 l2) (fuel t0 level36)
Goal: (at p0 l1) (at p1 l0) (at p2 l0)
