RSE-Invertible facts:
0:(at rover0 waypoint0) in-fam-group
1:(at rover0 waypoint1) in-fam-group
2:(at rover0 waypoint2) in-fam-group
3:(at rover0 waypoint3) in-fam-group
4:(at rover0 waypoint4) in-fam-group
5:(at rover0 waypoint5) in-fam-group
6:(at rover0 waypoint6) in-fam-group
7:(at rover1 waypoint0) in-fam-group
8:(at rover1 waypoint1) in-fam-group
9:(at rover1 waypoint2) in-fam-group
10:(at rover1 waypoint6) in-fam-group
11:(at rover2 waypoint0) in-fam-group
12:(at rover2 waypoint1) in-fam-group
13:(at rover2 waypoint2) in-fam-group
14:(at rover2 waypoint3) in-fam-group
15:(at rover2 waypoint4) in-fam-group
16:(at rover2 waypoint5) in-fam-group
17:(at rover3 waypoint0) in-fam-group
18:(at rover3 waypoint1) in-fam-group
19:(at rover3 waypoint2) in-fam-group
20:(at rover3 waypoint3) in-fam-group
21:(at rover3 waypoint4) in-fam-group
22:(at rover3 waypoint5) in-fam-group
23:(at rover3 waypoint6) in-fam-group
33:(calibrated camera0 rover1)
34:(calibrated camera1 rover1)
35:(calibrated camera2 rover1)
36:(calibrated camera3 rover1)
