Compile-in LMG: actions: 3, lifted mgroups: 2
Compile-in LMG: Found mutex condition for action 'jump-new-move' and mgroup {occupied V0:location, free V0:location}:=1: (= ?from ?to)
Compile-in LMG: Found mutex condition for action 'jump-new-move' and mgroup {occupied V0:location, free V0:location}:=1: (= ?over ?to)
Compile-in LMG: Precondition of action 'jump-new-move' extended with (and (not (= ?from ?to)) (not (= ?over ?to)))
Compile-in LMG: Found mutex condition for action 'jump-continue-move' and mgroup {occupied V0:location, free V0:location}:=1: (= ?from ?to)
Compile-in LMG: Found mutex condition for action 'jump-continue-move' and mgroup {occupied V0:location, free V0:location}:=1: (= ?over ?to)
Compile-in LMG: Precondition of action 'jump-continue-move' extended with (and (not (= ?from ?to)) (not (= ?over ?to)))
Compile-in LMG: DONE. actions: 3
Domain: pegsolitaire-sequential
Problem: pegsolitaire-sequential-080
Require: 200ff
Type[2]:
    [0]: object, parent: -1
    [1]: location, parent: 0
Obj-by-Type:
    [0]: 0 1 2 3 4 5 6 7 8 9 10 11 12 13 14 15 16 17 18 19 20 21 22 23 24 25 26 27 28 29 30 31 32
    [1]: 0 1 2 3 4 5 6 7 8 9 10 11 12 13 14 15 16 17 18 19 20 21 22 23 24 25 26 27 28 29 30 31 32
Obj[33]:
    [0]: pos-0-2, type: 1, is-constant: 0, is-private: 0, owner: -1, is-agent: 0
    [1]: pos-0-3, type: 1, is-constant: 0, is-private: 0, owner: -1, is-agent: 0
    [2]: pos-0-4, type: 1, is-constant: 0, is-private: 0, owner: -1, is-agent: 0
    [3]: pos-1-2, type: 1, is-constant: 0, is-private: 0, owner: -1, is-agent: 0
    [4]: pos-1-3, type: 1, is-constant: 0, is-private: 0, owner: -1, is-agent: 0
    [5]: pos-1-4, type: 1, is-constant: 0, is-private: 0, owner: -1, is-agent: 0
    [6]: pos-2-0, type: 1, is-constant: 0, is-private: 0, owner: -1, is-agent: 0
    [7]: pos-2-1, type: 1, is-constant: 0, is-private: 0, owner: -1, is-agent: 0
    [8]: pos-2-2, type: 1, is-constant: 0, is-private: 0, owner: -1, is-agent: 0
    [9]: pos-2-3, type: 1, is-constant: 0, is-private: 0, owner: -1, is-agent: 0
    [10]: pos-2-4, type: 1, is-constant: 0, is-private: 0, owner: -1, is-agent: 0
    [11]: pos-2-5, type: 1, is-constant: 0, is-private: 0, owner: -1, is-agent: 0
    [12]: pos-2-6, type: 1, is-constant: 0, is-private: 0, owner: -1, is-agent: 0
    [13]: pos-3-0, type: 1, is-constant: 0, is-private: 0, owner: -1, is-agent: 0
    [14]: pos-3-1, type: 1, is-constant: 0, is-private: 0, owner: -1, is-agent: 0
    [15]: pos-3-2, type: 1, is-constant: 0, is-private: 0, owner: -1, is-agent: 0
    [16]: pos-3-3, type: 1, is-constant: 0, is-private: 0, owner: -1, is-agent: 0
    [17]: pos-3-4, type: 1, is-constant: 0, is-private: 0, owner: -1, is-agent: 0
    [18]: pos-3-5, type: 1, is-constant: 0, is-private: 0, owner: -1, is-agent: 0
    [19]: pos-3-6, type: 1, is-constant: 0, is-private: 0, owner: -1, is-agent: 0
    [20]: pos-4-0, type: 1, is-constant: 0, is-private: 0, owner: -1, is-agent: 0
    [21]: pos-4-1, type: 1, is-constant: 0, is-private: 0, owner: -1, is-agent: 0
    [22]: pos-4-2, type: 1, is-constant: 0, is-private: 0, owner: -1, is-agent: 0
    [23]: pos-4-3, type: 1, is-constant: 0, is-private: 0, owner: -1, is-agent: 0
    [24]: pos-4-4, type: 1, is-constant: 0, is-private: 0, owner: -1, is-agent: 0
    [25]: pos-4-5, type: 1, is-constant: 0, is-private: 0, owner: -1, is-agent: 0
    [26]: pos-4-6, type: 1, is-constant: 0, is-private: 0, owner: -1, is-agent: 0
    [27]: pos-5-2, type: 1, is-constant: 0, is-private: 0, owner: -1, is-agent: 0
    [28]: pos-5-3, type: 1, is-constant: 0, is-private: 0, owner: -1, is-agent: 0
    [29]: pos-5-4, type: 1, is-constant: 0, is-private: 0, owner: -1, is-agent: 0
    [30]: pos-6-2, type: 1, is-constant: 0, is-private: 0, owner: -1, is-agent: 0
    [31]: pos-6-3, type: 1, is-constant: 0, is-private: 0, owner: -1, is-agent: 0
    [32]: pos-6-4, type: 1, is-constant: 0, is-private: 0, owner: -1, is-agent: 0
Predicate[6]:
    =: 0 0 :: is-private: 0, owner-param: -1, read: 1, write: 0
    in-line: 1 1 1 :: is-private: 0, owner-param: -1, read: 1, write: 0
    occupied: 1 :: is-private: 0, owner-param: -1, read: 1, write: 1
    free: 1 :: is-private: 0, owner-param: -1, read: 1, write: 1
    move-ended: :: is-private: 0, owner-param: -1, read: 1, write: 1
    last-visited: 1 :: is-private: 0, owner-param: -1, read: 1, write: 1
Function[1]:
    total-cost: :: is-private: 0, owner-param: -1, read: 0, write: 0
Action[3]:
    jump-new-move: ?from:1 ?over:1 ?to:1
        pre: (and (RW:move-ended) (R:in-line ?from ?over ?to) (RW:occupied ?from) (RW:occupied ?over) (RW:free ?to) (N:R:= ?from ?to) (N:R:= ?over ?to))
        eff: (and (N:RW:move-ended) (N:RW:occupied ?from) (N:RW:occupied ?over) (N:RW:free ?to) (RW:free ?from) (RW:free ?over) (RW:occupied ?to) (RW:last-visited ?to) (increase (total-cost) 1))
    jump-continue-move: ?from:1 ?over:1 ?to:1
        pre: (and (RW:last-visited ?from) (R:in-line ?from ?over ?to) (RW:occupied ?from) (RW:occupied ?over) (RW:free ?to) (N:R:= ?from ?to) (N:R:= ?over ?to))
        eff: (and (N:RW:occupied ?from) (N:RW:occupied ?over) (N:RW:free ?to) (RW:free ?from) (RW:free ?over) (RW:occupied ?to) (N:RW:last-visited ?from) (RW:last-visited ?to))
    end-move: ?loc:1
        pre: (and (RW:last-visited ?loc))
        eff: (and (RW:move-ended) (N:RW:last-visited ?loc))
Init[110]:
  (move-ended)
  S:(in-line pos-0-2 pos-0-3 pos-0-4)
  S:(in-line pos-0-4 pos-0-3 pos-0-2)
  S:(in-line pos-0-2 pos-1-2 pos-2-2)
  S:(in-line pos-2-2 pos-1-2 pos-0-2)
  S:(in-line pos-0-3 pos-1-3 pos-2-3)
  S:(in-line pos-2-3 pos-1-3 pos-0-3)
  S:(in-line pos-0-4 pos-1-4 pos-2-4)
  S:(in-line pos-2-4 pos-1-4 pos-0-4)
  S:(in-line pos-1-2 pos-1-3 pos-1-4)
  S:(in-line pos-1-4 pos-1-3 pos-1-2)
  S:(in-line pos-1-2 pos-2-2 pos-3-2)
  S:(in-line pos-3-2 pos-2-2 pos-1-2)
  S:(in-line pos-1-3 pos-2-3 pos-3-3)
  S:(in-line pos-3-3 pos-2-3 pos-1-3)
  S:(in-line pos-1-4 pos-2-4 pos-3-4)
  S:(in-line pos-3-4 pos-2-4 pos-1-4)
  S:(in-line pos-2-0 pos-2-1 pos-2-2)
  S:(in-line pos-2-2 pos-2-1 pos-2-0)
  S:(in-line pos-2-0 pos-3-0 pos-4-0)
  S:(in-line pos-4-0 pos-3-0 pos-2-0)
  S:(in-line pos-2-1 pos-2-2 pos-2-3)
  S:(in-line pos-2-3 pos-2-2 pos-2-1)
  S:(in-line pos-2-1 pos-3-1 pos-4-1)
  S:(in-line pos-4-1 pos-3-1 pos-2-1)
  S:(in-line pos-2-2 pos-2-3 pos-2-4)
  S:(in-line pos-2-4 pos-2-3 pos-2-2)
  S:(in-line pos-2-2 pos-3-2 pos-4-2)
  S:(in-line pos-4-2 pos-3-2 pos-2-2)
  S:(in-line pos-2-3 pos-2-4 pos-2-5)
  S:(in-line pos-2-5 pos-2-4 pos-2-3)
  S:(in-line pos-2-3 pos-3-3 pos-4-3)
  S:(in-line pos-4-3 pos-3-3 pos-2-3)
  S:(in-line pos-2-4 pos-2-5 pos-2-6)
  S:(in-line pos-2-6 pos-2-5 pos-2-4)
  S:(in-line pos-2-4 pos-3-4 pos-4-4)
  S:(in-line pos-4-4 pos-3-4 pos-2-4)
  S:(in-line pos-2-5 pos-3-5 pos-4-5)
  S:(in-line pos-4-5 pos-3-5 pos-2-5)
  S:(in-line pos-2-6 pos-3-6 pos-4-6)
  S:(in-line pos-4-6 pos-3-6 pos-2-6)
  S:(in-line pos-3-0 pos-3-1 pos-3-2)
  S:(in-line pos-3-2 pos-3-1 pos-3-0)
  S:(in-line pos-3-1 pos-3-2 pos-3-3)
  S:(in-line pos-3-3 pos-3-2 pos-3-1)
  S:(in-line pos-3-2 pos-3-3 pos-3-4)
  S:(in-line pos-3-4 pos-3-3 pos-3-2)
  S:(in-line pos-3-2 pos-4-2 pos-5-2)
  S:(in-line pos-5-2 pos-4-2 pos-3-2)
  S:(in-line pos-3-3 pos-3-4 pos-3-5)
  S:(in-line pos-3-5 pos-3-4 pos-3-3)
  S:(in-line pos-3-3 pos-4-3 pos-5-3)
  S:(in-line pos-5-3 pos-4-3 pos-3-3)
  S:(in-line pos-3-4 pos-3-5 pos-3-6)
  S:(in-line pos-3-6 pos-3-5 pos-3-4)
  S:(in-line pos-3-4 pos-4-4 pos-5-4)
  S:(in-line pos-5-4 pos-4-4 pos-3-4)
  S:(in-line pos-4-0 pos-4-1 pos-4-2)
  S:(in-line pos-4-2 pos-4-1 pos-4-0)
  S:(in-line pos-4-1 pos-4-2 pos-4-3)
  S:(in-line pos-4-3 pos-4-2 pos-4-1)
  S:(in-line pos-4-2 pos-4-3 pos-4-4)
  S:(in-line pos-4-4 pos-4-3 pos-4-2)
  S:(in-line pos-4-2 pos-5-2 pos-6-2)
  S:(in-line pos-6-2 pos-5-2 pos-4-2)
  S:(in-line pos-4-3 pos-4-4 pos-4-5)
  S:(in-line pos-4-5 pos-4-4 pos-4-3)
  S:(in-line pos-4-3 pos-5-3 pos-6-3)
  S:(in-line pos-6-3 pos-5-3 pos-4-3)
  S:(in-line pos-4-4 pos-4-5 pos-4-6)
  S:(in-line pos-4-6 pos-4-5 pos-4-4)
  S:(in-line pos-4-4 pos-5-4 pos-6-4)
  S:(in-line pos-6-4 pos-5-4 pos-4-4)
  S:(in-line pos-5-2 pos-5-3 pos-5-4)
  S:(in-line pos-5-4 pos-5-3 pos-5-2)
  S:(in-line pos-6-2 pos-6-3 pos-6-4)
  S:(in-line pos-6-4 pos-6-3 pos-6-2)
  (free pos-0-2)
  (free pos-1-2)
  (free pos-2-0)
  (free pos-2-3)
  (free pos-2-4)
  (free pos-3-0)
  (free pos-3-5)
  (free pos-3-6)
  (free pos-4-0)
  (free pos-4-3)
  (free pos-4-4)
  (free pos-5-3)
  (free pos-5-4)
  (free pos-6-2)
  (free pos-6-3)
  (free pos-6-4)
  (occupied pos-0-3)
  (occupied pos-0-4)
  (occupied pos-1-3)
  (occupied pos-1-4)
  (occupied pos-2-1)
  (occupied pos-2-2)
  (occupied pos-2-5)
  (occupied pos-2-6)
  (occupied pos-3-1)
  (occupied pos-3-2)
  (occupied pos-3-3)
  (occupied pos-3-4)
  (occupied pos-4-1)
  (occupied pos-4-2)
  (occupied pos-4-5)
  (occupied pos-4-6)
  (occupied pos-5-2)
Init[1]:
  (= (total-cost) 0)
Goal: (and (RW:free pos-0-2) (RW:free pos-0-3) (RW:free pos-0-4) (RW:free pos-1-2) (RW:free pos-1-3) (RW:free pos-1-4) (RW:free pos-2-0) (RW:free pos-2-1) (RW:free pos-2-2) (RW:free pos-2-3) (RW:free pos-2-4) (RW:free pos-2-5) (RW:free pos-2-6) (RW:free pos-3-0) (RW:free pos-3-1) (RW:free pos-3-2) (RW:free pos-3-4) (RW:free pos-3-5) (RW:free pos-3-6) (RW:free pos-4-0) (RW:free pos-4-1) (RW:free pos-4-2) (RW:free pos-4-3) (RW:free pos-4-4) (RW:free pos-4-5) (RW:free pos-4-6) (RW:free pos-5-2) (RW:free pos-5-3) (RW:free pos-5-4) (RW:free pos-6-2) (RW:free pos-6-3) (RW:free pos-6-4) (RW:occupied pos-3-3))
Metric: 1
