Init: (free pos-0-2) (free pos-0-4) (free pos-2-0) (free pos-2-2) (free pos-2-3) (free pos-2-4) (free pos-2-6) (free pos-3-1) (free pos-3-2) (free pos-3-4) (free pos-3-5) (free pos-4-2) (free pos-4-3) (free pos-4-4) (free pos-4-6) (free pos-5-3) (free pos-6-2) (free pos-6-4) (move-ended) (occupied pos-0-3) (occupied pos-1-2) (occupied pos-1-3) (occupied pos-1-4) (occupied pos-2-1) (occupied pos-2-5) (occupied pos-3-0) (occupied pos-3-3) (occupied pos-3-6) (occupied pos-4-0) (occupied pos-4-1) (occupied pos-4-5) (occupied pos-5-2) (occupied pos-5-4)
Unreachable facts [3/98]:
  (free pos-6-3)
  (last-visited pos-6-3)
  (occupied pos-6-3)
Unreachable ops [8/141]:
  (end-move pos-6-3)
  (jump-continue-move pos-4-3 pos-5-3 pos-6-3)
  (jump-continue-move pos-6-2 pos-6-3 pos-6-4)
  (jump-continue-move pos-6-4 pos-6-3 pos-6-2)
  (jump-new-move pos-4-3 pos-5-3 pos-6-3)
  (jump-new-move pos-6-2 pos-6-3 pos-6-4)
  (jump-new-move pos-6-3 pos-5-3 pos-4-3)
  (jump-new-move pos-6-4 pos-6-3 pos-6-2)
