Reduced 59 -> 49
Domain: transport
Problem: transport-two-cities-sequential-20nodes-1000size-4degree-100mindistance-3trucks-11packages-2008seed
Require: 200ff
Type[6]:
    [0]: object, parent: -1
    [1]: location, parent: 0
    [2]: locatable, parent: 0
    [3]: vehicle, parent: 2
    [4]: package, parent: 2
    [5]: capacity-number, parent: 0
Obj-by-Type:
    [0]: 0 1 2 3 4 5 6 7 8 9 10 11 12 13 14 15 16 17 18 19 20 21 22 23 24 25 26 27 28 29 30 31 32 33 34 35 36 37 38 39 40 41 42 43 44 45 46 47 48
    [1]: 0 1 2 3 4 5 6 7 8 9 10 11 12 13 14 15 16 17 18 19 20 21 22 23 24 25 26 27 28 29 30 31 32 33 34
    [2]: 35 36 37 38 39 40 41 42 43 44
    [3]: 35 36 37
    [4]: 38 39 40 41 42 43 44
    [5]: 45 46 47 48
Obj[49]:
    [0]: city-1-loc-1, type: 1, is-constant: 0, is-private: 0, owner: -1, is-agent: 0
    [1]: city-2-loc-1, type: 1, is-constant: 0, is-private: 0, owner: -1, is-agent: 0
    [2]: city-1-loc-2, type: 1, is-constant: 0, is-private: 0, owner: -1, is-agent: 0
    [3]: city-2-loc-2, type: 1, is-constant: 0, is-private: 0, owner: -1, is-agent: 0
    [4]: city-1-loc-3, type: 1, is-constant: 0, is-private: 0, owner: -1, is-agent: 0
    [5]: city-2-loc-3, type: 1, is-constant: 0, is-private: 0, owner: -1, is-agent: 0
    [6]: city-1-loc-4, type: 1, is-constant: 0, is-private: 0, owner: -1, is-agent: 0
    [7]: city-2-loc-4, type: 1, is-constant: 0, is-private: 0, owner: -1, is-agent: 0
    [8]: city-1-loc-5, type: 1, is-constant: 0, is-private: 0, owner: -1, is-agent: 0
    [9]: city-2-loc-5, type: 1, is-constant: 0, is-private: 0, owner: -1, is-agent: 0
    [10]: city-1-loc-6, type: 1, is-constant: 0, is-private: 0, owner: -1, is-agent: 0
    [11]: city-2-loc-6, type: 1, is-constant: 0, is-private: 0, owner: -1, is-agent: 0
    [12]: city-1-loc-7, type: 1, is-constant: 0, is-private: 0, owner: -1, is-agent: 0
    [13]: city-2-loc-7, type: 1, is-constant: 0, is-private: 0, owner: -1, is-agent: 0
    [14]: city-1-loc-9, type: 1, is-constant: 0, is-private: 0, owner: -1, is-agent: 0
    [15]: city-2-loc-9, type: 1, is-constant: 0, is-private: 0, owner: -1, is-agent: 0
    [16]: city-1-loc-10, type: 1, is-constant: 0, is-private: 0, owner: -1, is-agent: 0
    [17]: city-1-loc-11, type: 1, is-constant: 0, is-private: 0, owner: -1, is-agent: 0
    [18]: city-2-loc-11, type: 1, is-constant: 0, is-private: 0, owner: -1, is-agent: 0
    [19]: city-1-loc-12, type: 1, is-constant: 0, is-private: 0, owner: -1, is-agent: 0
    [20]: city-2-loc-12, type: 1, is-constant: 0, is-private: 0, owner: -1, is-agent: 0
    [21]: city-1-loc-13, type: 1, is-constant: 0, is-private: 0, owner: -1, is-agent: 0
    [22]: city-1-loc-14, type: 1, is-constant: 0, is-private: 0, owner: -1, is-agent: 0
    [23]: city-2-loc-14, type: 1, is-constant: 0, is-private: 0, owner: -1, is-agent: 0
    [24]: city-1-loc-15, type: 1, is-constant: 0, is-private: 0, owner: -1, is-agent: 0
    [25]: city-2-loc-15, type: 1, is-constant: 0, is-private: 0, owner: -1, is-agent: 0
    [26]: city-1-loc-16, type: 1, is-constant: 0, is-private: 0, owner: -1, is-agent: 0
    [27]: city-2-loc-16, type: 1, is-constant: 0, is-private: 0, owner: -1, is-agent: 0
    [28]: city-1-loc-17, type: 1, is-constant: 0, is-private: 0, owner: -1, is-agent: 0
    [29]: city-2-loc-17, type: 1, is-constant: 0, is-private: 0, owner: -1, is-agent: 0
    [30]: city-1-loc-18, type: 1, is-constant: 0, is-private: 0, owner: -1, is-agent: 0
    [31]: city-2-loc-18, type: 1, is-constant: 0, is-private: 0, owner: -1, is-agent: 0
    [32]: city-1-loc-19, type: 1, is-constant: 0, is-private: 0, owner: -1, is-agent: 0
    [33]: city-1-loc-20, type: 1, is-constant: 0, is-private: 0, owner: -1, is-agent: 0
    [34]: city-2-loc-20, type: 1, is-constant: 0, is-private: 0, owner: -1, is-agent: 0
    [35]: truck-1, type: 3, is-constant: 0, is-private: 0, owner: -1, is-agent: 0
    [36]: truck-2, type: 3, is-constant: 0, is-private: 0, owner: -1, is-agent: 0
    [37]: truck-3, type: 3, is-constant: 0, is-private: 0, owner: -1, is-agent: 0
    [38]: package-1, type: 4, is-constant: 0, is-private: 0, owner: -1, is-agent: 0
    [39]: package-2, type: 4, is-constant: 0, is-private: 0, owner: -1, is-agent: 0
    [40]: package-3, type: 4, is-constant: 0, is-private: 0, owner: -1, is-agent: 0
    [41]: package-4, type: 4, is-constant: 0, is-private: 0, owner: -1, is-agent: 0
    [42]: package-5, type: 4, is-constant: 0, is-private: 0, owner: -1, is-agent: 0
    [43]: package-7, type: 4, is-constant: 0, is-private: 0, owner: -1, is-agent: 0
    [44]: package-11, type: 4, is-constant: 0, is-private: 0, owner: -1, is-agent: 0
    [45]: capacity-0, type: 5, is-constant: 0, is-private: 0, owner: -1, is-agent: 0
    [46]: capacity-1, type: 5, is-constant: 0, is-private: 0, owner: -1, is-agent: 0
    [47]: capacity-3, type: 5, is-constant: 0, is-private: 0, owner: -1, is-agent: 0
    [48]: capacity-4, type: 5, is-constant: 0, is-private: 0, owner: -1, is-agent: 0
Predicate[6]:
    =: 0 0 :: is-private: 0, owner-param: -1, read: 0, write: 0
    road: 1 1 :: is-private: 0, owner-param: -1, read: 1, write: 0
    at: 2 1 :: is-private: 0, owner-param: -1, read: 1, write: 1
    in: 4 3 :: is-private: 0, owner-param: -1, read: 1, write: 1
    capacity: 3 5 :: is-private: 0, owner-param: -1, read: 1, write: 1
    capacity-predecessor: 5 5 :: is-private: 0, owner-param: -1, read: 1, write: 0
Function[2]:
    road-length: 1 1 :: is-private: 0, owner-param: -1, read: 0, write: 0
    total-cost: :: is-private: 0, owner-param: -1, read: 0, write: 0
Action[3]:
    drive: ?v:3 ?l1:1 ?l2:1
        pre: (and (RW:at ?v ?l1) (R:road ?l1 ?l2))
        eff: (and (RW:at ?v ?l2) (increase (total-cost) (road-length ?l1 ?l2)))
    pick-up: ?v:3 ?l:1 ?p:4 ?s1:5 ?s2:5
        pre: (and (RW:at ?v ?l) (RW:at ?p ?l) (R:capacity-predecessor ?s1 ?s2) (RW:capacity ?v ?s2))
        eff: (and (RW:in ?p ?v) (RW:capacity ?v ?s1) (increase (total-cost) 1))
    drop: ?v:3 ?l:1 ?p:4 ?s1:5 ?s2:5
        pre: (and (RW:at ?v ?l) (RW:in ?p ?v) (R:capacity-predecessor ?s1 ?s2) (RW:capacity ?v ?s1))
        eff: (and (RW:at ?p ?l) (RW:capacity ?v ?s2) (increase (total-cost) 1))
Init[161]:
  S:(capacity-predecessor capacity-0 capacity-1)
  S:(capacity-predecessor capacity-1 capacity-0)
  S:(capacity-predecessor capacity-0 capacity-3)
  S:(capacity-predecessor capacity-3 capacity-4)
  S:(road city-1-loc-3 city-1-loc-1)
  S:(road city-1-loc-1 city-1-loc-3)
  S:(road city-1-loc-4 city-1-loc-1)
  S:(road city-1-loc-1 city-1-loc-4)
  S:(road city-1-loc-5 city-1-loc-4)
  S:(road city-1-loc-4 city-1-loc-5)
  S:(road city-1-loc-6 city-1-loc-2)
  S:(road city-1-loc-2 city-1-loc-6)
  S:(road city-1-loc-7 city-1-loc-1)
  S:(road city-1-loc-1 city-1-loc-7)
  S:(road city-1-loc-7 city-1-loc-3)
  S:(road city-1-loc-3 city-1-loc-7)
  S:(road city-2-loc-3 city-1-loc-7)
  S:(road city-1-loc-7 city-2-loc-3)
  S:(road city-1-loc-9 city-1-loc-6)
  S:(road city-1-loc-6 city-1-loc-9)
  S:(road city-1-loc-10 city-1-loc-3)
  S:(road city-1-loc-3 city-1-loc-10)
  S:(road city-1-loc-10 city-1-loc-7)
  S:(road city-1-loc-7 city-1-loc-10)
  S:(road city-1-loc-10 city-2-loc-3)
  S:(road city-2-loc-3 city-1-loc-10)
  S:(road city-1-loc-11 city-1-loc-9)
  S:(road city-1-loc-9 city-1-loc-11)
  S:(road city-1-loc-12 city-1-loc-1)
  S:(road city-1-loc-1 city-1-loc-12)
  S:(road city-1-loc-12 city-1-loc-3)
  S:(road city-1-loc-3 city-1-loc-12)
  S:(road city-1-loc-13 city-1-loc-9)
  S:(road city-1-loc-9 city-1-loc-13)
  S:(road city-1-loc-13 city-1-loc-11)
  S:(road city-1-loc-11 city-1-loc-13)
  S:(road city-1-loc-14 city-1-loc-4)
  S:(road city-1-loc-4 city-1-loc-14)
  S:(road city-1-loc-14 city-1-loc-5)
  S:(road city-1-loc-5 city-1-loc-14)
  S:(road city-1-loc-14 city-2-loc-3)
  S:(road city-2-loc-3 city-1-loc-14)
  S:(road city-1-loc-15 city-1-loc-9)
  S:(road city-1-loc-9 city-1-loc-15)
  S:(road city-1-loc-15 city-1-loc-11)
  S:(road city-1-loc-11 city-1-loc-15)
  S:(road city-1-loc-15 city-1-loc-13)
  S:(road city-1-loc-13 city-1-loc-15)
  S:(road city-1-loc-16 city-1-loc-11)
  S:(road city-1-loc-11 city-1-loc-16)
  S:(road city-1-loc-16 city-1-loc-13)
  S:(road city-1-loc-13 city-1-loc-16)
  S:(road city-1-loc-16 city-1-loc-15)
  S:(road city-1-loc-15 city-1-loc-16)
  S:(road city-1-loc-17 city-2-loc-3)
  S:(road city-2-loc-3 city-1-loc-17)
  S:(road city-1-loc-17 city-1-loc-10)
  S:(road city-1-loc-10 city-1-loc-17)
  S:(road city-1-loc-17 city-1-loc-11)
  S:(road city-1-loc-11 city-1-loc-17)
  S:(road city-1-loc-17 city-1-loc-15)
  S:(road city-1-loc-15 city-1-loc-17)
  S:(road city-1-loc-18 city-1-loc-9)
  S:(road city-1-loc-9 city-1-loc-18)
  S:(road city-1-loc-18 city-1-loc-13)
  S:(road city-1-loc-13 city-1-loc-18)
  S:(road city-1-loc-18 city-1-loc-15)
  S:(road city-1-loc-15 city-1-loc-18)
  S:(road city-1-loc-19 city-1-loc-12)
  S:(road city-1-loc-12 city-1-loc-19)
  S:(road city-1-loc-20 city-1-loc-2)
  S:(road city-1-loc-2 city-1-loc-20)
  S:(road city-1-loc-20 city-1-loc-18)
  S:(road city-1-loc-18 city-1-loc-20)
  S:(road city-2-loc-7 city-2-loc-3)
  S:(road city-2-loc-3 city-2-loc-7)
  S:(road city-2-loc-4 city-2-loc-6)
  S:(road city-2-loc-6 city-2-loc-4)
  S:(road city-2-loc-9 city-2-loc-2)
  S:(road city-2-loc-2 city-2-loc-9)
  S:(road city-2-loc-6 city-2-loc-4)
  S:(road city-2-loc-4 city-2-loc-6)
  S:(road city-2-loc-11 city-2-loc-3)
  S:(road city-2-loc-3 city-2-loc-11)
  S:(road city-2-loc-11 city-2-loc-9)
  S:(road city-2-loc-9 city-2-loc-11)
  S:(road city-2-loc-12 city-2-loc-4)
  S:(road city-2-loc-4 city-2-loc-12)
  S:(road city-2-loc-12 city-2-loc-6)
  S:(road city-2-loc-6 city-2-loc-12)
  S:(road city-1-loc-13 city-2-loc-1)
  S:(road city-2-loc-1 city-1-loc-13)
  S:(road city-1-loc-13 city-2-loc-9)
  S:(road city-2-loc-9 city-1-loc-13)
  S:(road city-2-loc-14 city-2-loc-6)
  S:(road city-2-loc-6 city-2-loc-14)
  S:(road city-2-loc-14 city-2-loc-12)
  S:(road city-2-loc-12 city-2-loc-14)
  S:(road city-2-loc-15 city-2-loc-1)
  S:(road city-2-loc-1 city-2-loc-15)
  S:(road city-2-loc-15 city-2-loc-4)
  S:(road city-2-loc-4 city-2-loc-15)
  S:(road city-2-loc-15 city-2-loc-6)
  S:(road city-2-loc-6 city-2-loc-15)
  S:(road city-2-loc-16 city-2-loc-1)
  S:(road city-2-loc-1 city-2-loc-16)
  S:(road city-2-loc-16 city-2-loc-9)
  S:(road city-2-loc-9 city-2-loc-16)
  S:(road city-2-loc-16 city-1-loc-13)
  S:(road city-1-loc-13 city-2-loc-16)
  S:(road city-2-loc-17 city-2-loc-1)
  S:(road city-2-loc-1 city-2-loc-17)
  S:(road city-2-loc-17 city-2-loc-6)
  S:(road city-2-loc-6 city-2-loc-17)
  S:(road city-2-loc-17 city-2-loc-14)
  S:(road city-2-loc-14 city-2-loc-17)
  S:(road city-2-loc-17 city-2-loc-15)
  S:(road city-2-loc-15 city-2-loc-17)
  S:(road city-2-loc-18 city-2-loc-3)
  S:(road city-2-loc-3 city-2-loc-18)
  S:(road city-2-loc-18 city-2-loc-7)
  S:(road city-2-loc-7 city-2-loc-18)
  S:(road city-2-loc-18 city-2-loc-11)
  S:(road city-2-loc-11 city-2-loc-18)
  S:(road city-1-loc-17 city-2-loc-1)
  S:(road city-2-loc-1 city-1-loc-17)
  S:(road city-1-loc-17 city-1-loc-13)
  S:(road city-1-loc-13 city-1-loc-17)
  S:(road city-1-loc-17 city-2-loc-15)
  S:(road city-2-loc-15 city-1-loc-17)
  S:(road city-1-loc-17 city-2-loc-16)
  S:(road city-2-loc-16 city-1-loc-17)
  S:(road city-1-loc-17 city-2-loc-17)
  S:(road city-2-loc-17 city-1-loc-17)
  S:(road city-2-loc-20 city-2-loc-5)
  S:(road city-2-loc-5 city-2-loc-20)
  S:(road city-2-loc-20 city-2-loc-4)
  S:(road city-2-loc-4 city-2-loc-20)
  S:(road city-2-loc-20 city-1-loc-13)
  S:(road city-1-loc-13 city-2-loc-20)
  S:(road city-2-loc-20 city-1-loc-17)
  S:(road city-1-loc-17 city-2-loc-20)
  S:(road city-1-loc-12 city-2-loc-4)
  S:(road city-2-loc-4 city-1-loc-12)
  (at package-1 city-1-loc-10)
  (at package-2 city-1-loc-6)
  (at package-3 city-1-loc-5)
  (at package-4 city-1-loc-14)
  (at package-5 city-1-loc-13)
  (at package-1 city-1-loc-15)
  (at package-7 city-1-loc-3)
  (at package-4 city-1-loc-18)
  (at package-4 city-2-loc-3)
  (at package-3 city-1-loc-6)
  (at package-11 city-1-loc-4)
  (at truck-1 city-2-loc-11)
  (capacity truck-1 capacity-3)
  (at truck-2 city-1-loc-13)
  (capacity truck-2 capacity-3)
  (at truck-3 city-2-loc-15)
  (capacity truck-3 capacity-3)
Init[141]:
  (= (total-cost) 0)
  (= (road-length city-1-loc-3 city-1-loc-1) 22)
  (= (road-length city-1-loc-1 city-1-loc-3) 22)
  (= (road-length city-1-loc-4 city-1-loc-1) 26)
  (= (road-length city-1-loc-1 city-1-loc-4) 26)
  (= (road-length city-1-loc-5 city-1-loc-4) 12)
  (= (road-length city-1-loc-4 city-1-loc-5) 12)
  (= (road-length city-1-loc-6 city-1-loc-2) 19)
  (= (road-length city-1-loc-2 city-1-loc-6) 19)
  (= (road-length city-1-loc-7 city-1-loc-1) 15)
  (= (road-length city-1-loc-1 city-1-loc-7) 15)
  (= (road-length city-1-loc-7 city-1-loc-3) 16)
  (= (road-length city-1-loc-3 city-1-loc-7) 16)
  (= (road-length city-2-loc-3 city-1-loc-7) 30)
  (= (road-length city-1-loc-7 city-2-loc-3) 30)
  (= (road-length city-1-loc-9 city-1-loc-6) 28)
  (= (road-length city-1-loc-6 city-1-loc-9) 28)
  (= (road-length city-1-loc-10 city-1-loc-3) 25)
  (= (road-length city-1-loc-3 city-1-loc-10) 25)
  (= (road-length city-1-loc-10 city-1-loc-7) 18)
  (= (road-length city-1-loc-7 city-1-loc-10) 18)
  (= (road-length city-1-loc-10 city-2-loc-3) 24)
  (= (road-length city-2-loc-3 city-1-loc-10) 24)
  (= (road-length city-1-loc-11 city-1-loc-9) 24)
  (= (road-length city-1-loc-9 city-1-loc-11) 24)
  (= (road-length city-1-loc-12 city-1-loc-1) 29)
  (= (road-length city-1-loc-1 city-1-loc-12) 29)
  (= (road-length city-1-loc-12 city-1-loc-3) 23)
  (= (road-length city-1-loc-3 city-1-loc-12) 23)
  (= (road-length city-1-loc-13 city-1-loc-9) 29)
  (= (road-length city-1-loc-9 city-1-loc-13) 29)
  (= (road-length city-1-loc-13 city-1-loc-11) 13)
  (= (road-length city-1-loc-11 city-1-loc-13) 13)
  (= (road-length city-1-loc-14 city-1-loc-4) 13)
  (= (road-length city-1-loc-4 city-1-loc-14) 13)
  (= (road-length city-1-loc-14 city-1-loc-5) 18)
  (= (road-length city-1-loc-5 city-1-loc-14) 18)
  (= (road-length city-1-loc-14 city-2-loc-3) 25)
  (= (road-length city-2-loc-3 city-1-loc-14) 25)
  (= (road-length city-1-loc-15 city-1-loc-9) 15)
  (= (road-length city-1-loc-9 city-1-loc-15) 15)
  (= (road-length city-1-loc-15 city-1-loc-11) 12)
  (= (road-length city-1-loc-11 city-1-loc-15) 12)
  (= (road-length city-1-loc-15 city-1-loc-13) 22)
  (= (road-length city-1-loc-13 city-1-loc-15) 22)
  (= (road-length city-1-loc-16 city-1-loc-11) 16)
  (= (road-length city-1-loc-11 city-1-loc-16) 16)
  (= (road-length city-1-loc-16 city-1-loc-13) 20)
  (= (road-length city-1-loc-13 city-1-loc-16) 20)
  (= (road-length city-1-loc-16 city-1-loc-15) 27)
  (= (road-length city-1-loc-15 city-1-loc-16) 27)
  (= (road-length city-1-loc-17 city-2-loc-3) 16)
  (= (road-length city-2-loc-3 city-1-loc-17) 16)
  (= (road-length city-1-loc-17 city-1-loc-10) 21)
  (= (road-length city-1-loc-10 city-1-loc-17) 21)
  (= (road-length city-1-loc-17 city-1-loc-11) 26)
  (= (road-length city-1-loc-11 city-1-loc-17) 26)
  (= (road-length city-1-loc-17 city-1-loc-15) 22)
  (= (road-length city-1-loc-15 city-1-loc-17) 22)
  (= (road-length city-1-loc-18 city-1-loc-9) 25)
  (= (road-length city-1-loc-9 city-1-loc-18) 25)
  (= (road-length city-1-loc-18 city-1-loc-13) 24)
  (= (road-length city-1-loc-13 city-1-loc-18) 24)
  (= (road-length city-1-loc-18 city-1-loc-15) 31)
  (= (road-length city-1-loc-15 city-1-loc-18) 31)
  (= (road-length city-1-loc-19 city-1-loc-12) 28)
  (= (road-length city-1-loc-12 city-1-loc-19) 28)
  (= (road-length city-1-loc-20 city-1-loc-2) 26)
  (= (road-length city-1-loc-2 city-1-loc-20) 26)
  (= (road-length city-1-loc-20 city-1-loc-18) 28)
  (= (road-length city-1-loc-18 city-1-loc-20) 28)
  (= (road-length city-2-loc-7 city-2-loc-3) 21)
  (= (road-length city-2-loc-3 city-2-loc-7) 21)
  (= (road-length city-2-loc-4 city-2-loc-6) 26)
  (= (road-length city-2-loc-6 city-2-loc-4) 26)
  (= (road-length city-2-loc-9 city-2-loc-2) 28)
  (= (road-length city-2-loc-2 city-2-loc-9) 28)
  (= (road-length city-2-loc-6 city-2-loc-4) 15)
  (= (road-length city-2-loc-4 city-2-loc-6) 15)
  (= (road-length city-2-loc-11 city-2-loc-3) 14)
  (= (road-length city-2-loc-3 city-2-loc-11) 14)
  (= (road-length city-2-loc-11 city-2-loc-9) 26)
  (= (road-length city-2-loc-9 city-2-loc-11) 26)
  (= (road-length city-2-loc-12 city-2-loc-4) 24)
  (= (road-length city-2-loc-4 city-2-loc-12) 24)
  (= (road-length city-2-loc-12 city-2-loc-6) 11)
  (= (road-length city-2-loc-6 city-2-loc-12) 11)
  (= (road-length city-1-loc-13 city-2-loc-1) 28)
  (= (road-length city-2-loc-1 city-1-loc-13) 28)
  (= (road-length city-1-loc-13 city-2-loc-9) 27)
  (= (road-length city-2-loc-9 city-1-loc-13) 27)
  (= (road-length city-2-loc-14 city-2-loc-6) 26)
  (= (road-length city-2-loc-6 city-2-loc-14) 26)
  (= (road-length city-2-loc-14 city-2-loc-12) 26)
  (= (road-length city-2-loc-12 city-2-loc-14) 26)
  (= (road-length city-2-loc-15 city-2-loc-1) 18)
  (= (road-length city-2-loc-1 city-2-loc-15) 18)
  (= (road-length city-2-loc-15 city-2-loc-4) 24)
  (= (road-length city-2-loc-4 city-2-loc-15) 24)
  (= (road-length city-2-loc-15 city-2-loc-6) 28)
  (= (road-length city-2-loc-6 city-2-loc-15) 28)
  (= (road-length city-2-loc-16 city-2-loc-1) 22)
  (= (road-length city-2-loc-1 city-2-loc-16) 22)
  (= (road-length city-2-loc-16 city-2-loc-9) 20)
  (= (road-length city-2-loc-9 city-2-loc-16) 20)
  (= (road-length city-2-loc-16 city-1-loc-13) 13)
  (= (road-length city-1-loc-13 city-2-loc-16) 13)
  (= (road-length city-2-loc-17 city-2-loc-1) 29)
  (= (road-length city-2-loc-1 city-2-loc-17) 29)
  (= (road-length city-2-loc-17 city-2-loc-6) 30)
  (= (road-length city-2-loc-6 city-2-loc-17) 30)
  (= (road-length city-2-loc-17 city-2-loc-14) 17)
  (= (road-length city-2-loc-14 city-2-loc-17) 17)
  (= (road-length city-2-loc-17 city-2-loc-15) 23)
  (= (road-length city-2-loc-15 city-2-loc-17) 23)
  (= (road-length city-2-loc-18 city-2-loc-3) 19)
  (= (road-length city-2-loc-3 city-2-loc-18) 19)
  (= (road-length city-2-loc-18 city-2-loc-7) 13)
  (= (road-length city-2-loc-7 city-2-loc-18) 13)
  (= (road-length city-2-loc-18 city-2-loc-11) 25)
  (= (road-length city-2-loc-11 city-2-loc-18) 25)
  (= (road-length city-1-loc-17 city-2-loc-1) 15)
  (= (road-length city-2-loc-1 city-1-loc-17) 15)
  (= (road-length city-1-loc-17 city-1-loc-13) 19)
  (= (road-length city-1-loc-13 city-1-loc-17) 19)
  (= (road-length city-1-loc-17 city-2-loc-15) 28)
  (= (road-length city-2-loc-15 city-1-loc-17) 28)
  (= (road-length city-1-loc-17 city-2-loc-16) 20)
  (= (road-length city-2-loc-16 city-1-loc-17) 20)
  (= (road-length city-1-loc-17 city-2-loc-17) 29)
  (= (road-length city-2-loc-17 city-1-loc-17) 29)
  (= (road-length city-2-loc-20 city-2-loc-5) 24)
  (= (road-length city-2-loc-5 city-2-loc-20) 24)
  (= (road-length city-2-loc-20 city-2-loc-4) 28)
  (= (road-length city-2-loc-4 city-2-loc-20) 28)
  (= (road-length city-2-loc-20 city-1-loc-13) 27)
  (= (road-length city-1-loc-13 city-2-loc-20) 27)
  (= (road-length city-2-loc-20 city-1-loc-17) 24)
  (= (road-length city-1-loc-17 city-2-loc-20) 24)
  (= (road-length city-1-loc-12 city-2-loc-4) 109)
  (= (road-length city-2-loc-4 city-1-loc-12) 109)
Goal: (and (RW:at package-1 city-2-loc-14) (RW:at package-2 city-2-loc-7) (RW:at package-3 city-2-loc-11) (RW:at package-4 city-2-loc-4) (RW:at package-5 city-2-loc-5) (RW:at package-1 city-2-loc-12) (RW:at package-7 city-2-loc-16) (RW:at package-4 city-2-loc-2) (RW:at package-4 city-2-loc-6) (RW:at package-3 city-2-loc-18) (RW:at package-11 city-2-loc-3))
Metric: 1
