Maximal 69:
 (NOT-object-done object0) (object-done object0):=1:fam:G
 (NOT-object-done object1) (object-done object1):=1:fam:G
 (NOT-object-done object2) (object-done object2):=1:fam:G
 (NOT-object-done object3) (object-done object3):=1:fam:G
 (NOT-parked pr2) (parked pr2):=1:fam
 (not-pushed cart) (pushing pr2 cart):=1:fam
 (not-pushing pr2) (pushing pr2 cart):=1:fam
 (NOT-base-obstacle x0 y0) (base-pos pr2 x0 y0) (cart-pos cart x0 y0):fam
 (NOT-base-obstacle x0 y1) (base-pos pr2 x0 y1) (cart-pos cart x0 y1):fam
 (NOT-base-obstacle x0 y2) (base-pos pr2 x0 y2) (cart-pos cart x0 y2):fam
 (NOT-base-obstacle x0 y3) (base-pos pr2 x0 y3) (cart-pos cart x0 y3):fam
 (NOT-base-obstacle x0 y4) (base-pos pr2 x0 y4) (cart-pos cart x0 y4):fam
 (NOT-base-obstacle x0 y5) (base-pos pr2 x0 y5) (cart-pos cart x0 y5):fam
 (NOT-base-obstacle x0 y6) (base-pos pr2 x0 y6) (cart-pos cart x0 y6):fam
 (NOT-base-obstacle x0 y7) (base-pos pr2 x0 y7) (cart-pos cart x0 y7):fam
 (NOT-base-obstacle x1 y0) (base-pos pr2 x1 y0) (cart-pos cart x1 y0):fam
 (NOT-base-obstacle x1 y1) (base-pos pr2 x1 y1) (cart-pos cart x1 y1):fam
 (NOT-base-obstacle x1 y2) (base-pos pr2 x1 y2) (cart-pos cart x1 y2):fam
 (NOT-base-obstacle x1 y3) (base-pos pr2 x1 y3) (cart-pos cart x1 y3):fam
 (NOT-base-obstacle x1 y4) (base-pos pr2 x1 y4) (cart-pos cart x1 y4):fam
 (NOT-base-obstacle x1 y5) (base-pos pr2 x1 y5) (cart-pos cart x1 y5):fam
 (NOT-base-obstacle x1 y6) (base-pos pr2 x1 y6) (cart-pos cart x1 y6):fam
 (NOT-base-obstacle x1 y7) (base-pos pr2 x1 y7) (cart-pos cart x1 y7):fam
 (NOT-base-obstacle x2 y0) (base-pos pr2 x2 y0) (cart-pos cart x2 y0):fam
 (NOT-base-obstacle x2 y1) (base-pos pr2 x2 y1) (cart-pos cart x2 y1):fam
 (NOT-base-obstacle x2 y6) (base-pos pr2 x2 y6) (cart-pos cart x2 y6):fam
 (NOT-base-obstacle x2 y7) (base-pos pr2 x2 y7) (cart-pos cart x2 y7):fam
 (NOT-base-obstacle x3 y0) (base-pos pr2 x3 y0) (cart-pos cart x3 y0):fam
 (NOT-base-obstacle x3 y1) (base-pos pr2 x3 y1) (cart-pos cart x3 y1):fam
 (NOT-base-obstacle x3 y3) (base-pos pr2 x3 y3) (cart-pos cart x3 y3):fam
 (NOT-base-obstacle x3 y4) (base-pos pr2 x3 y4) (cart-pos cart x3 y4):fam
 (NOT-base-obstacle x3 y5) (base-pos pr2 x3 y5) (cart-pos cart x3 y5):fam
 (NOT-base-obstacle x3 y6) (base-pos pr2 x3 y6) (cart-pos cart x3 y6):fam
 (NOT-base-obstacle x3 y7) (base-pos pr2 x3 y7) (cart-pos cart x3 y7):fam
 (NOT-base-obstacle x4 y0) (base-pos pr2 x4 y0) (cart-pos cart x4 y0):fam
 (NOT-base-obstacle x4 y1) (base-pos pr2 x4 y1) (cart-pos cart x4 y1):fam
 (NOT-base-obstacle x4 y3) (base-pos pr2 x4 y3) (cart-pos cart x4 y3):fam
 (NOT-base-obstacle x4 y4) (base-pos pr2 x4 y4) (cart-pos cart x4 y4):fam
 (NOT-base-obstacle x4 y5) (base-pos pr2 x4 y5) (cart-pos cart x4 y5):fam
 (NOT-base-obstacle x4 y6) (base-pos pr2 x4 y6) (cart-pos cart x4 y6):fam
 (NOT-base-obstacle x4 y7) (base-pos pr2 x4 y7) (cart-pos cart x4 y7):fam
 (NOT-base-obstacle x5 y0) (base-pos pr2 x5 y0) (cart-pos cart x5 y0):fam
 (NOT-base-obstacle x5 y1) (base-pos pr2 x5 y1) (cart-pos cart x5 y1):fam
 (NOT-base-obstacle x5 y6) (base-pos pr2 x5 y6) (cart-pos cart x5 y6):fam
 (NOT-base-obstacle x5 y7) (base-pos pr2 x5 y7) (cart-pos cart x5 y7):fam
 (NOT-base-obstacle x6 y0) (base-pos pr2 x6 y0) (cart-pos cart x6 y0):fam
 (NOT-base-obstacle x6 y1) (base-pos pr2 x6 y1) (cart-pos cart x6 y1):fam
 (NOT-base-obstacle x6 y2) (base-pos pr2 x6 y2) (cart-pos cart x6 y2):fam
 (NOT-base-obstacle x6 y3) (base-pos pr2 x6 y3) (cart-pos cart x6 y3):fam
 (NOT-base-obstacle x6 y4) (base-pos pr2 x6 y4) (cart-pos cart x6 y4):fam
 (NOT-base-obstacle x6 y5) (base-pos pr2 x6 y5) (cart-pos cart x6 y5):fam
 (NOT-base-obstacle x6 y6) (base-pos pr2 x6 y6) (cart-pos cart x6 y6):fam
 (NOT-base-obstacle x6 y7) (base-pos pr2 x6 y7) (cart-pos cart x6 y7):fam
 (NOT-base-obstacle x7 y0) (base-pos pr2 x7 y0) (cart-pos cart x7 y0):fam
 (NOT-base-obstacle x7 y1) (base-pos pr2 x7 y1) (cart-pos cart x7 y1):fam
 (NOT-base-obstacle x7 y2) (base-pos pr2 x7 y2) (cart-pos cart x7 y2):fam
 (NOT-base-obstacle x7 y3) (base-pos pr2 x7 y3) (cart-pos cart x7 y3):fam
 (NOT-base-obstacle x7 y4) (base-pos pr2 x7 y4) (cart-pos cart x7 y4):fam
 (NOT-base-obstacle x7 y5) (base-pos pr2 x7 y5) (cart-pos cart x7 y5):fam
 (NOT-base-obstacle x7 y6) (base-pos pr2 x7 y6) (cart-pos cart x7 y6):fam
 (NOT-base-obstacle x7 y7) (base-pos pr2 x7 y7) (cart-pos cart x7 y7):fam
 (gripper-empty pr2) (holding pr2 object0) (holding pr2 object1) (holding pr2 object2) (holding pr2 object3):=1:fam
 (holding pr2 object0) (object-pos object0 x3 y3) (object-pos object0 x3 y4) (object-pos object0 x4 y3) (object-pos object0 x4 y4) (on-cart object0 cart):=1:fam
 (holding pr2 object1) (object-pos object1 x3 y3) (object-pos object1 x3 y4) (object-pos object1 x4 y3) (object-pos object1 x4 y4) (on-cart object1 cart):=1:fam
 (holding pr2 object2) (object-pos object2 x3 y3) (object-pos object2 x3 y4) (object-pos object2 x4 y3) (object-pos object2 x4 y4) (on-cart object2 cart):=1:fam
 (holding pr2 object3) (object-pos object3 x3 y3) (object-pos object3 x3 y4) (object-pos object3 x4 y3) (object-pos object3 x4 y4) (on-cart object3 cart):=1:fam
 (gripper-rel pr2 xrel-1 yrel-1) (gripper-rel pr2 xrel-1 yrel0) (gripper-rel pr2 xrel-1 yrel1) (gripper-rel pr2 xrel0 yrel-1) (gripper-rel pr2 xrel0 yrel0) (gripper-rel pr2 xrel0 yrel1) (gripper-rel pr2 xrel1 yrel-1) (gripper-rel pr2 xrel1 yrel0) (gripper-rel pr2 xrel1 yrel1):=1:fam
 (base-pos pr2 x0 y0) (base-pos pr2 x0 y1) (base-pos pr2 x0 y2) (base-pos pr2 x0 y3) (base-pos pr2 x0 y4) (base-pos pr2 x0 y5) (base-pos pr2 x0 y6) (base-pos pr2 x0 y7) (base-pos pr2 x1 y0) (base-pos pr2 x1 y1) (base-pos pr2 x1 y2) (base-pos pr2 x1 y3) (base-pos pr2 x1 y4) (base-pos pr2 x1 y5) (base-pos pr2 x1 y6) (base-pos pr2 x1 y7) (base-pos pr2 x2 y0) (base-pos pr2 x2 y1) (base-pos pr2 x2 y6) (base-pos pr2 x2 y7) (base-pos pr2 x3 y0) (base-pos pr2 x3 y1) (base-pos pr2 x3 y3) (base-pos pr2 x3 y4) (base-pos pr2 x3 y5) (base-pos pr2 x3 y6) (base-pos pr2 x3 y7) (base-pos pr2 x4 y0) (base-pos pr2 x4 y1) (base-pos pr2 x4 y3) (base-pos pr2 x4 y4) (base-pos pr2 x4 y5) (base-pos pr2 x4 y6) (base-pos pr2 x4 y7) (base-pos pr2 x5 y0) (base-pos pr2 x5 y1) (base-pos pr2 x5 y6) (base-pos pr2 x5 y7) (base-pos pr2 x6 y0) (base-pos pr2 x6 y1) (base-pos pr2 x6 y2) (base-pos pr2 x6 y3) (base-pos pr2 x6 y4) (base-pos pr2 x6 y5) (base-pos pr2 x6 y6) (base-pos pr2 x6 y7) (base-pos pr2 x7 y0) (base-pos pr2 x7 y1) (base-pos pr2 x7 y2) (base-pos pr2 x7 y3) (base-pos pr2 x7 y4) (base-pos pr2 x7 y5) (base-pos pr2 x7 y6) (base-pos pr2 x7 y7):=1:fam
 (cart-pos cart x0 y0) (cart-pos cart x0 y1) (cart-pos cart x0 y2) (cart-pos cart x0 y3) (cart-pos cart x0 y4) (cart-pos cart x0 y5) (cart-pos cart x0 y6) (cart-pos cart x0 y7) (cart-pos cart x1 y0) (cart-pos cart x1 y1) (cart-pos cart x1 y2) (cart-pos cart x1 y3) (cart-pos cart x1 y4) (cart-pos cart x1 y5) (cart-pos cart x1 y6) (cart-pos cart x1 y7) (cart-pos cart x2 y0) (cart-pos cart x2 y1) (cart-pos cart x2 y6) (cart-pos cart x2 y7) (cart-pos cart x3 y0) (cart-pos cart x3 y1) (cart-pos cart x3 y3) (cart-pos cart x3 y4) (cart-pos cart x3 y5) (cart-pos cart x3 y6) (cart-pos cart x3 y7) (cart-pos cart x4 y0) (cart-pos cart x4 y1) (cart-pos cart x4 y3) (cart-pos cart x4 y4) (cart-pos cart x4 y5) (cart-pos cart x4 y6) (cart-pos cart x4 y7) (cart-pos cart x5 y0) (cart-pos cart x5 y1) (cart-pos cart x5 y6) (cart-pos cart x5 y7) (cart-pos cart x6 y0) (cart-pos cart x6 y1) (cart-pos cart x6 y2) (cart-pos cart x6 y3) (cart-pos cart x6 y4) (cart-pos cart x6 y5) (cart-pos cart x6 y6) (cart-pos cart x6 y7) (cart-pos cart x7 y0) (cart-pos cart x7 y1) (cart-pos cart x7 y2) (cart-pos cart x7 y3) (cart-pos cart x7 y4) (cart-pos cart x7 y5) (cart-pos cart x7 y6) (cart-pos cart x7 y7):=1:fam


Mutex Group Cover Number: 121
