RSE-Invertible facts:
0:(at player-01 pos-02-03) in-fam-group
1:(at player-01 pos-02-04) in-fam-group
2:(at player-01 pos-03-02) in-fam-group
3:(at player-01 pos-03-03) in-fam-group
4:(at player-01 pos-03-04) in-fam-group
5:(at player-01 pos-04-02) in-fam-group
6:(at player-01 pos-04-03) in-fam-group
7:(at player-01 pos-04-04) in-fam-group
8:(at player-01 pos-04-05) in-fam-group
9:(at player-01 pos-05-02) in-fam-group
10:(at player-01 pos-05-03) in-fam-group
11:(at player-01 pos-05-04) in-fam-group
12:(at player-01 pos-05-05) in-fam-group
13:(at player-01 pos-05-06) in-fam-group
14:(at player-01 pos-05-07) in-fam-group
15:(at player-01 pos-05-08) in-fam-group
16:(at player-01 pos-06-02) in-fam-group
17:(at player-01 pos-06-03) in-fam-group
18:(at player-01 pos-06-04) in-fam-group
19:(at player-01 pos-06-07) in-fam-group
20:(at player-01 pos-06-08) in-fam-group
21:(at player-01 pos-07-06) in-fam-group
22:(at player-01 pos-07-07) in-fam-group
23:(at player-01 pos-08-06) in-fam-group
24:(at player-01 pos-08-07) in-fam-group
25:(at player-01 pos-09-06) in-fam-group
26:(at player-01 pos-09-07) in-fam-group
102:(clear pos-06-08) in-fam-group
103:(clear pos-07-06) in-fam-group
105:(clear pos-08-06) in-fam-group
106:(clear pos-08-07) in-fam-group
107:(clear pos-09-06) in-fam-group
