begin_version
3
end_version
begin_metric
1
end_metric
6
begin_variable
var0
-1
5
at package-1 city-loc-1
at package-1 city-loc-2
at package-1 city-loc-3
in package-1 truck-1
in package-1 truck-2
end_variable
begin_variable
var1
-1
5
at package-2 city-loc-1
at package-2 city-loc-2
at package-2 city-loc-3
in package-2 truck-1
in package-2 truck-2
end_variable
begin_variable
var2
-1
6
capacity truck-1 capacity-0
capacity truck-1 capacity-1
capacity truck-1 capacity-2
capacity truck-1 capacity-3
capacity truck-1 capacity-4
tnf-unknown
end_variable
begin_variable
var3
-1
6
capacity truck-2 capacity-0
capacity truck-2 capacity-1
capacity truck-2 capacity-2
capacity truck-2 capacity-3
capacity truck-2 capacity-4
tnf-unknown
end_variable
begin_variable
var4
-1
4
at truck-1 city-loc-1
at truck-1 city-loc-2
at truck-1 city-loc-3
tnf-unknown
end_variable
begin_variable
var5
-1
4
at truck-2 city-loc-1
at truck-2 city-loc-2
at truck-2 city-loc-3
tnf-unknown
end_variable
6
begin_mutex_group
3
4 0
4 1
4 2
end_mutex_group
begin_mutex_group
3
5 0
5 1
5 2
end_mutex_group
begin_mutex_group
5
0 0
0 1
0 2
0 3
0 4
end_mutex_group
begin_mutex_group
5
1 0
1 1
1 2
1 3
1 4
end_mutex_group
begin_mutex_group
5
2 0
2 1
2 2
2 3
2 4
end_mutex_group
begin_mutex_group
5
3 0
3 1
3 2
3 3
3 4
end_mutex_group
begin_state
2
2
4
3
2
0
end_state
begin_goal
6
0 1
1 1
2 5
3 5
4 3
5 3
end_goal
120
begin_operator
drive truck-1 city-loc-1 city-loc-3
0
1
0 4 0 2
22
end_operator
begin_operator
drive truck-1 city-loc-2 city-loc-3
0
1
0 4 1 2
50
end_operator
begin_operator
drive truck-1 city-loc-3 city-loc-1
0
1
0 4 2 0
22
end_operator
begin_operator
drive truck-1 city-loc-3 city-loc-2
0
1
0 4 2 1
50
end_operator
begin_operator
drive truck-2 city-loc-1 city-loc-3
0
1
0 5 0 2
22
end_operator
begin_operator
drive truck-2 city-loc-2 city-loc-3
0
1
0 5 1 2
50
end_operator
begin_operator
drive truck-2 city-loc-3 city-loc-1
0
1
0 5 2 0
22
end_operator
begin_operator
drive truck-2 city-loc-3 city-loc-2
0
1
0 5 2 1
50
end_operator
begin_operator
drop truck-1 city-loc-1 package-1 capacity-0 capacity-1
1
4 0
2
0 0 3 0
0 2 0 1
1
end_operator
begin_operator
drop truck-1 city-loc-1 package-1 capacity-1 capacity-2
1
4 0
2
0 0 3 0
0 2 1 2
1
end_operator
begin_operator
drop truck-1 city-loc-1 package-1 capacity-2 capacity-3
1
4 0
2
0 0 3 0
0 2 2 3
1
end_operator
begin_operator
drop truck-1 city-loc-1 package-1 capacity-3 capacity-4
1
4 0
2
0 0 3 0
0 2 3 4
1
end_operator
begin_operator
drop truck-1 city-loc-1 package-2 capacity-0 capacity-1
1
4 0
2
0 1 3 0
0 2 0 1
1
end_operator
begin_operator
drop truck-1 city-loc-1 package-2 capacity-1 capacity-2
1
4 0
2
0 1 3 0
0 2 1 2
1
end_operator
begin_operator
drop truck-1 city-loc-1 package-2 capacity-2 capacity-3
1
4 0
2
0 1 3 0
0 2 2 3
1
end_operator
begin_operator
drop truck-1 city-loc-1 package-2 capacity-3 capacity-4
1
4 0
2
0 1 3 0
0 2 3 4
1
end_operator
begin_operator
drop truck-1 city-loc-2 package-1 capacity-0 capacity-1
1
4 1
2
0 0 3 1
0 2 0 1
1
end_operator
begin_operator
drop truck-1 city-loc-2 package-1 capacity-1 capacity-2
1
4 1
2
0 0 3 1
0 2 1 2
1
end_operator
begin_operator
drop truck-1 city-loc-2 package-1 capacity-2 capacity-3
1
4 1
2
0 0 3 1
0 2 2 3
1
end_operator
begin_operator
drop truck-1 city-loc-2 package-1 capacity-3 capacity-4
1
4 1
2
0 0 3 1
0 2 3 4
1
end_operator
begin_operator
drop truck-1 city-loc-2 package-2 capacity-0 capacity-1
1
4 1
2
0 1 3 1
0 2 0 1
1
end_operator
begin_operator
drop truck-1 city-loc-2 package-2 capacity-1 capacity-2
1
4 1
2
0 1 3 1
0 2 1 2
1
end_operator
begin_operator
drop truck-1 city-loc-2 package-2 capacity-2 capacity-3
1
4 1
2
0 1 3 1
0 2 2 3
1
end_operator
begin_operator
drop truck-1 city-loc-2 package-2 capacity-3 capacity-4
1
4 1
2
0 1 3 1
0 2 3 4
1
end_operator
begin_operator
drop truck-1 city-loc-3 package-1 capacity-0 capacity-1
1
4 2
2
0 0 3 2
0 2 0 1
1
end_operator
begin_operator
drop truck-1 city-loc-3 package-1 capacity-1 capacity-2
1
4 2
2
0 0 3 2
0 2 1 2
1
end_operator
begin_operator
drop truck-1 city-loc-3 package-1 capacity-2 capacity-3
1
4 2
2
0 0 3 2
0 2 2 3
1
end_operator
begin_operator
drop truck-1 city-loc-3 package-1 capacity-3 capacity-4
1
4 2
2
0 0 3 2
0 2 3 4
1
end_operator
begin_operator
drop truck-1 city-loc-3 package-2 capacity-0 capacity-1
1
4 2
2
0 1 3 2
0 2 0 1
1
end_operator
begin_operator
drop truck-1 city-loc-3 package-2 capacity-1 capacity-2
1
4 2
2
0 1 3 2
0 2 1 2
1
end_operator
begin_operator
drop truck-1 city-loc-3 package-2 capacity-2 capacity-3
1
4 2
2
0 1 3 2
0 2 2 3
1
end_operator
begin_operator
drop truck-1 city-loc-3 package-2 capacity-3 capacity-4
1
4 2
2
0 1 3 2
0 2 3 4
1
end_operator
begin_operator
drop truck-2 city-loc-1 package-1 capacity-0 capacity-1
1
5 0
2
0 0 4 0
0 3 0 1
1
end_operator
begin_operator
drop truck-2 city-loc-1 package-1 capacity-1 capacity-2
1
5 0
2
0 0 4 0
0 3 1 2
1
end_operator
begin_operator
drop truck-2 city-loc-1 package-1 capacity-2 capacity-3
1
5 0
2
0 0 4 0
0 3 2 3
1
end_operator
begin_operator
drop truck-2 city-loc-1 package-1 capacity-3 capacity-4
1
5 0
2
0 0 4 0
0 3 3 4
1
end_operator
begin_operator
drop truck-2 city-loc-1 package-2 capacity-0 capacity-1
1
5 0
2
0 1 4 0
0 3 0 1
1
end_operator
begin_operator
drop truck-2 city-loc-1 package-2 capacity-1 capacity-2
1
5 0
2
0 1 4 0
0 3 1 2
1
end_operator
begin_operator
drop truck-2 city-loc-1 package-2 capacity-2 capacity-3
1
5 0
2
0 1 4 0
0 3 2 3
1
end_operator
begin_operator
drop truck-2 city-loc-1 package-2 capacity-3 capacity-4
1
5 0
2
0 1 4 0
0 3 3 4
1
end_operator
begin_operator
drop truck-2 city-loc-2 package-1 capacity-0 capacity-1
1
5 1
2
0 0 4 1
0 3 0 1
1
end_operator
begin_operator
drop truck-2 city-loc-2 package-1 capacity-1 capacity-2
1
5 1
2
0 0 4 1
0 3 1 2
1
end_operator
begin_operator
drop truck-2 city-loc-2 package-1 capacity-2 capacity-3
1
5 1
2
0 0 4 1
0 3 2 3
1
end_operator
begin_operator
drop truck-2 city-loc-2 package-1 capacity-3 capacity-4
1
5 1
2
0 0 4 1
0 3 3 4
1
end_operator
begin_operator
drop truck-2 city-loc-2 package-2 capacity-0 capacity-1
1
5 1
2
0 1 4 1
0 3 0 1
1
end_operator
begin_operator
drop truck-2 city-loc-2 package-2 capacity-1 capacity-2
1
5 1
2
0 1 4 1
0 3 1 2
1
end_operator
begin_operator
drop truck-2 city-loc-2 package-2 capacity-2 capacity-3
1
5 1
2
0 1 4 1
0 3 2 3
1
end_operator
begin_operator
drop truck-2 city-loc-2 package-2 capacity-3 capacity-4
1
5 1
2
0 1 4 1
0 3 3 4
1
end_operator
begin_operator
drop truck-2 city-loc-3 package-1 capacity-0 capacity-1
1
5 2
2
0 0 4 2
0 3 0 1
1
end_operator
begin_operator
drop truck-2 city-loc-3 package-1 capacity-1 capacity-2
1
5 2
2
0 0 4 2
0 3 1 2
1
end_operator
begin_operator
drop truck-2 city-loc-3 package-1 capacity-2 capacity-3
1
5 2
2
0 0 4 2
0 3 2 3
1
end_operator
begin_operator
drop truck-2 city-loc-3 package-1 capacity-3 capacity-4
1
5 2
2
0 0 4 2
0 3 3 4
1
end_operator
begin_operator
drop truck-2 city-loc-3 package-2 capacity-0 capacity-1
1
5 2
2
0 1 4 2
0 3 0 1
1
end_operator
begin_operator
drop truck-2 city-loc-3 package-2 capacity-1 capacity-2
1
5 2
2
0 1 4 2
0 3 1 2
1
end_operator
begin_operator
drop truck-2 city-loc-3 package-2 capacity-2 capacity-3
1
5 2
2
0 1 4 2
0 3 2 3
1
end_operator
begin_operator
drop truck-2 city-loc-3 package-2 capacity-3 capacity-4
1
5 2
2
0 1 4 2
0 3 3 4
1
end_operator
begin_operator
pick-up truck-1 city-loc-1 package-1 capacity-0 capacity-1
1
4 0
2
0 0 0 3
0 2 1 0
1
end_operator
begin_operator
pick-up truck-1 city-loc-1 package-1 capacity-1 capacity-2
1
4 0
2
0 0 0 3
0 2 2 1
1
end_operator
begin_operator
pick-up truck-1 city-loc-1 package-1 capacity-2 capacity-3
1
4 0
2
0 0 0 3
0 2 3 2
1
end_operator
begin_operator
pick-up truck-1 city-loc-1 package-1 capacity-3 capacity-4
1
4 0
2
0 0 0 3
0 2 4 3
1
end_operator
begin_operator
pick-up truck-1 city-loc-1 package-2 capacity-0 capacity-1
1
4 0
2
0 1 0 3
0 2 1 0
1
end_operator
begin_operator
pick-up truck-1 city-loc-1 package-2 capacity-1 capacity-2
1
4 0
2
0 1 0 3
0 2 2 1
1
end_operator
begin_operator
pick-up truck-1 city-loc-1 package-2 capacity-2 capacity-3
1
4 0
2
0 1 0 3
0 2 3 2
1
end_operator
begin_operator
pick-up truck-1 city-loc-1 package-2 capacity-3 capacity-4
1
4 0
2
0 1 0 3
0 2 4 3
1
end_operator
begin_operator
pick-up truck-1 city-loc-2 package-1 capacity-0 capacity-1
1
4 1
2
0 0 1 3
0 2 1 0
1
end_operator
begin_operator
pick-up truck-1 city-loc-2 package-1 capacity-1 capacity-2
1
4 1
2
0 0 1 3
0 2 2 1
1
end_operator
begin_operator
pick-up truck-1 city-loc-2 package-1 capacity-2 capacity-3
1
4 1
2
0 0 1 3
0 2 3 2
1
end_operator
begin_operator
pick-up truck-1 city-loc-2 package-1 capacity-3 capacity-4
1
4 1
2
0 0 1 3
0 2 4 3
1
end_operator
begin_operator
pick-up truck-1 city-loc-2 package-2 capacity-0 capacity-1
1
4 1
2
0 1 1 3
0 2 1 0
1
end_operator
begin_operator
pick-up truck-1 city-loc-2 package-2 capacity-1 capacity-2
1
4 1
2
0 1 1 3
0 2 2 1
1
end_operator
begin_operator
pick-up truck-1 city-loc-2 package-2 capacity-2 capacity-3
1
4 1
2
0 1 1 3
0 2 3 2
1
end_operator
begin_operator
pick-up truck-1 city-loc-2 package-2 capacity-3 capacity-4
1
4 1
2
0 1 1 3
0 2 4 3
1
end_operator
begin_operator
pick-up truck-1 city-loc-3 package-1 capacity-0 capacity-1
1
4 2
2
0 0 2 3
0 2 1 0
1
end_operator
begin_operator
pick-up truck-1 city-loc-3 package-1 capacity-1 capacity-2
1
4 2
2
0 0 2 3
0 2 2 1
1
end_operator
begin_operator
pick-up truck-1 city-loc-3 package-1 capacity-2 capacity-3
1
4 2
2
0 0 2 3
0 2 3 2
1
end_operator
begin_operator
pick-up truck-1 city-loc-3 package-1 capacity-3 capacity-4
1
4 2
2
0 0 2 3
0 2 4 3
1
end_operator
begin_operator
pick-up truck-1 city-loc-3 package-2 capacity-0 capacity-1
1
4 2
2
0 1 2 3
0 2 1 0
1
end_operator
begin_operator
pick-up truck-1 city-loc-3 package-2 capacity-1 capacity-2
1
4 2
2
0 1 2 3
0 2 2 1
1
end_operator
begin_operator
pick-up truck-1 city-loc-3 package-2 capacity-2 capacity-3
1
4 2
2
0 1 2 3
0 2 3 2
1
end_operator
begin_operator
pick-up truck-1 city-loc-3 package-2 capacity-3 capacity-4
1
4 2
2
0 1 2 3
0 2 4 3
1
end_operator
begin_operator
pick-up truck-2 city-loc-1 package-1 capacity-0 capacity-1
1
5 0
2
0 0 0 4
0 3 1 0
1
end_operator
begin_operator
pick-up truck-2 city-loc-1 package-1 capacity-1 capacity-2
1
5 0
2
0 0 0 4
0 3 2 1
1
end_operator
begin_operator
pick-up truck-2 city-loc-1 package-1 capacity-2 capacity-3
1
5 0
2
0 0 0 4
0 3 3 2
1
end_operator
begin_operator
pick-up truck-2 city-loc-1 package-1 capacity-3 capacity-4
1
5 0
2
0 0 0 4
0 3 4 3
1
end_operator
begin_operator
pick-up truck-2 city-loc-1 package-2 capacity-0 capacity-1
1
5 0
2
0 1 0 4
0 3 1 0
1
end_operator
begin_operator
pick-up truck-2 city-loc-1 package-2 capacity-1 capacity-2
1
5 0
2
0 1 0 4
0 3 2 1
1
end_operator
begin_operator
pick-up truck-2 city-loc-1 package-2 capacity-2 capacity-3
1
5 0
2
0 1 0 4
0 3 3 2
1
end_operator
begin_operator
pick-up truck-2 city-loc-1 package-2 capacity-3 capacity-4
1
5 0
2
0 1 0 4
0 3 4 3
1
end_operator
begin_operator
pick-up truck-2 city-loc-2 package-1 capacity-0 capacity-1
1
5 1
2
0 0 1 4
0 3 1 0
1
end_operator
begin_operator
pick-up truck-2 city-loc-2 package-1 capacity-1 capacity-2
1
5 1
2
0 0 1 4
0 3 2 1
1
end_operator
begin_operator
pick-up truck-2 city-loc-2 package-1 capacity-2 capacity-3
1
5 1
2
0 0 1 4
0 3 3 2
1
end_operator
begin_operator
pick-up truck-2 city-loc-2 package-1 capacity-3 capacity-4
1
5 1
2
0 0 1 4
0 3 4 3
1
end_operator
begin_operator
pick-up truck-2 city-loc-2 package-2 capacity-0 capacity-1
1
5 1
2
0 1 1 4
0 3 1 0
1
end_operator
begin_operator
pick-up truck-2 city-loc-2 package-2 capacity-1 capacity-2
1
5 1
2
0 1 1 4
0 3 2 1
1
end_operator
begin_operator
pick-up truck-2 city-loc-2 package-2 capacity-2 capacity-3
1
5 1
2
0 1 1 4
0 3 3 2
1
end_operator
begin_operator
pick-up truck-2 city-loc-2 package-2 capacity-3 capacity-4
1
5 1
2
0 1 1 4
0 3 4 3
1
end_operator
begin_operator
pick-up truck-2 city-loc-3 package-1 capacity-0 capacity-1
1
5 2
2
0 0 2 4
0 3 1 0
1
end_operator
begin_operator
pick-up truck-2 city-loc-3 package-1 capacity-1 capacity-2
1
5 2
2
0 0 2 4
0 3 2 1
1
end_operator
begin_operator
pick-up truck-2 city-loc-3 package-1 capacity-2 capacity-3
1
5 2
2
0 0 2 4
0 3 3 2
1
end_operator
begin_operator
pick-up truck-2 city-loc-3 package-1 capacity-3 capacity-4
1
5 2
2
0 0 2 4
0 3 4 3
1
end_operator
begin_operator
pick-up truck-2 city-loc-3 package-2 capacity-0 capacity-1
1
5 2
2
0 1 2 4
0 3 1 0
1
end_operator
begin_operator
pick-up truck-2 city-loc-3 package-2 capacity-1 capacity-2
1
5 2
2
0 1 2 4
0 3 2 1
1
end_operator
begin_operator
pick-up truck-2 city-loc-3 package-2 capacity-2 capacity-3
1
5 2
2
0 1 2 4
0 3 3 2
1
end_operator
begin_operator
pick-up truck-2 city-loc-3 package-2 capacity-3 capacity-4
1
5 2
2
0 1 2 4
0 3 4 3
1
end_operator
begin_operator
tnf-forget-2-0
0
1
0 2 0 5
0
end_operator
begin_operator
tnf-forget-2-1
0
1
0 2 1 5
0
end_operator
begin_operator
tnf-forget-2-2
0
1
0 2 2 5
0
end_operator
begin_operator
tnf-forget-2-3
0
1
0 2 3 5
0
end_operator
begin_operator
tnf-forget-2-4
0
1
0 2 4 5
0
end_operator
begin_operator
tnf-forget-3-0
0
1
0 3 0 5
0
end_operator
begin_operator
tnf-forget-3-1
0
1
0 3 1 5
0
end_operator
begin_operator
tnf-forget-3-2
0
1
0 3 2 5
0
end_operator
begin_operator
tnf-forget-3-3
0
1
0 3 3 5
0
end_operator
begin_operator
tnf-forget-3-4
0
1
0 3 4 5
0
end_operator
begin_operator
tnf-forget-4-0
0
1
0 4 0 3
0
end_operator
begin_operator
tnf-forget-4-1
0
1
0 4 1 3
0
end_operator
begin_operator
tnf-forget-4-2
0
1
0 4 2 3
0
end_operator
begin_operator
tnf-forget-5-0
0
1
0 5 0 3
0
end_operator
begin_operator
tnf-forget-5-1
0
1
0 5 1 3
0
end_operator
begin_operator
tnf-forget-5-2
0
1
0 5 2 3
0
end_operator
0
