Reduced 32 -> 32
Domain: scanalyzer3d
Problem: scanalyzer3d-39
Require: 200ff
Type[3]:
    [0]: object, parent: -1
    [1]: segment, parent: 0
    [2]: car, parent: 0
Obj-by-Type:
    [0]: 0 1 2 3 4 5 6 7 8 9 10 11 12 13 14 15 16 17 18 19 20 21 22 23 24 25 26 27 28 29 30 31
    [1]: 16 17 18 19 20 21 22 23 24 25 26 27 28 29 30 31
    [2]: 0 1 2 3 4 5 6 7 8 9 10 11 12 13 14 15
Obj[32]:
    [0]: car-in-1, type: 2, is-constant: 0, is-private: 0, owner: -1, is-agent: 0
    [1]: car-in-2, type: 2, is-constant: 0, is-private: 0, owner: -1, is-agent: 0
    [2]: car-in-3, type: 2, is-constant: 0, is-private: 0, owner: -1, is-agent: 0
    [3]: car-in-4, type: 2, is-constant: 0, is-private: 0, owner: -1, is-agent: 0
    [4]: car-in-5, type: 2, is-constant: 0, is-private: 0, owner: -1, is-agent: 0
    [5]: car-in-6, type: 2, is-constant: 0, is-private: 0, owner: -1, is-agent: 0
    [6]: car-in-7, type: 2, is-constant: 0, is-private: 0, owner: -1, is-agent: 0
    [7]: car-in-8, type: 2, is-constant: 0, is-private: 0, owner: -1, is-agent: 0
    [8]: car-out-1, type: 2, is-constant: 0, is-private: 0, owner: -1, is-agent: 0
    [9]: car-out-2, type: 2, is-constant: 0, is-private: 0, owner: -1, is-agent: 0
    [10]: car-out-3, type: 2, is-constant: 0, is-private: 0, owner: -1, is-agent: 0
    [11]: car-out-4, type: 2, is-constant: 0, is-private: 0, owner: -1, is-agent: 0
    [12]: car-out-5, type: 2, is-constant: 0, is-private: 0, owner: -1, is-agent: 0
    [13]: car-out-6, type: 2, is-constant: 0, is-private: 0, owner: -1, is-agent: 0
    [14]: car-out-7, type: 2, is-constant: 0, is-private: 0, owner: -1, is-agent: 0
    [15]: car-out-8, type: 2, is-constant: 0, is-private: 0, owner: -1, is-agent: 0
    [16]: seg-in-1, type: 1, is-constant: 0, is-private: 0, owner: -1, is-agent: 0
    [17]: seg-in-2, type: 1, is-constant: 0, is-private: 0, owner: -1, is-agent: 0
    [18]: seg-in-3, type: 1, is-constant: 0, is-private: 0, owner: -1, is-agent: 0
    [19]: seg-in-4, type: 1, is-constant: 0, is-private: 0, owner: -1, is-agent: 0
    [20]: seg-in-5, type: 1, is-constant: 0, is-private: 0, owner: -1, is-agent: 0
    [21]: seg-in-6, type: 1, is-constant: 0, is-private: 0, owner: -1, is-agent: 0
    [22]: seg-in-7, type: 1, is-constant: 0, is-private: 0, owner: -1, is-agent: 0
    [23]: seg-in-8, type: 1, is-constant: 0, is-private: 0, owner: -1, is-agent: 0
    [24]: seg-out-1, type: 1, is-constant: 0, is-private: 0, owner: -1, is-agent: 0
    [25]: seg-out-2, type: 1, is-constant: 0, is-private: 0, owner: -1, is-agent: 0
    [26]: seg-out-3, type: 1, is-constant: 0, is-private: 0, owner: -1, is-agent: 0
    [27]: seg-out-4, type: 1, is-constant: 0, is-private: 0, owner: -1, is-agent: 0
    [28]: seg-out-5, type: 1, is-constant: 0, is-private: 0, owner: -1, is-agent: 0
    [29]: seg-out-6, type: 1, is-constant: 0, is-private: 0, owner: -1, is-agent: 0
    [30]: seg-out-7, type: 1, is-constant: 0, is-private: 0, owner: -1, is-agent: 0
    [31]: seg-out-8, type: 1, is-constant: 0, is-private: 0, owner: -1, is-agent: 0
Predicate[7]:
    =: 0 0 :: is-private: 0, owner-param: -1, read: 0, write: 0
    on: 2 1 :: is-private: 0, owner-param: -1, read: 1, write: 1
    analyzed: 2 :: is-private: 0, owner-param: -1, read: 0, write: 1
    cycle-2: 1 1 :: is-private: 0, owner-param: -1, read: 1, write: 0
    cycle-4: 1 1 1 1 :: is-private: 0, owner-param: -1, read: 0, write: 0
    cycle-2-with-analysis: 1 1 :: is-private: 0, owner-param: -1, read: 1, write: 0
    cycle-4-with-analysis: 1 1 1 1 :: is-private: 0, owner-param: -1, read: 0, write: 0
Function[1]:
    total-cost: :: is-private: 0, owner-param: -1, read: 0, write: 0
Action[2]:
    analyze-2: ?s1:1 ?s2:1 ?c1:2 ?c2:2
        pre: (and (R:cycle-2-with-analysis ?s1 ?s2) (RW:on ?c1 ?s1) (RW:on ?c2 ?s2))
        eff: (and (N:RW:on ?c1 ?s1) (N:RW:on ?c2 ?s2) (RW:on ?c1 ?s2) (RW:on ?c2 ?s1) (W:analyzed ?c1) (increase (total-cost) 3))
    rotate-2: ?s1:1 ?s2:1 ?c1:2 ?c2:2
        pre: (and (R:cycle-2 ?s1 ?s2) (RW:on ?c1 ?s1) (RW:on ?c2 ?s2))
        eff: (and (N:RW:on ?c1 ?s1) (N:RW:on ?c2 ?s2) (RW:on ?c1 ?s2) (RW:on ?c2 ?s1) (increase (total-cost) 1))
Init[144]:
  S:(cycle-2 seg-in-1 seg-out-1)
  S:(cycle-2 seg-in-1 seg-out-2)
  S:(cycle-2 seg-in-1 seg-out-3)
  S:(cycle-2 seg-in-1 seg-out-4)
  S:(cycle-2 seg-in-1 seg-out-5)
  S:(cycle-2 seg-in-1 seg-out-6)
  S:(cycle-2 seg-in-1 seg-out-7)
  S:(cycle-2 seg-in-1 seg-out-8)
  S:(cycle-2 seg-in-2 seg-out-1)
  S:(cycle-2 seg-in-2 seg-out-2)
  S:(cycle-2 seg-in-2 seg-out-3)
  S:(cycle-2 seg-in-2 seg-out-4)
  S:(cycle-2 seg-in-2 seg-out-5)
  S:(cycle-2 seg-in-2 seg-out-6)
  S:(cycle-2 seg-in-2 seg-out-7)
  S:(cycle-2 seg-in-2 seg-out-8)
  S:(cycle-2 seg-in-3 seg-out-1)
  S:(cycle-2 seg-in-3 seg-out-2)
  S:(cycle-2 seg-in-3 seg-out-3)
  S:(cycle-2 seg-in-3 seg-out-4)
  S:(cycle-2 seg-in-3 seg-out-5)
  S:(cycle-2 seg-in-3 seg-out-6)
  S:(cycle-2 seg-in-3 seg-out-7)
  S:(cycle-2 seg-in-3 seg-out-8)
  S:(cycle-2 seg-in-4 seg-out-1)
  S:(cycle-2 seg-in-4 seg-out-2)
  S:(cycle-2 seg-in-4 seg-out-3)
  S:(cycle-2 seg-in-4 seg-out-4)
  S:(cycle-2 seg-in-4 seg-out-5)
  S:(cycle-2 seg-in-4 seg-out-6)
  S:(cycle-2 seg-in-4 seg-out-7)
  S:(cycle-2 seg-in-4 seg-out-8)
  S:(cycle-2 seg-in-5 seg-out-1)
  S:(cycle-2 seg-in-5 seg-out-2)
  S:(cycle-2 seg-in-5 seg-out-3)
  S:(cycle-2 seg-in-5 seg-out-4)
  S:(cycle-2 seg-in-5 seg-out-5)
  S:(cycle-2 seg-in-5 seg-out-6)
  S:(cycle-2 seg-in-5 seg-out-7)
  S:(cycle-2 seg-in-5 seg-out-8)
  S:(cycle-2 seg-in-6 seg-out-1)
  S:(cycle-2 seg-in-6 seg-out-2)
  S:(cycle-2 seg-in-6 seg-out-3)
  S:(cycle-2 seg-in-6 seg-out-4)
  S:(cycle-2 seg-in-6 seg-out-5)
  S:(cycle-2 seg-in-6 seg-out-6)
  S:(cycle-2 seg-in-6 seg-out-7)
  S:(cycle-2 seg-in-6 seg-out-8)
  S:(cycle-2 seg-in-7 seg-out-1)
  S:(cycle-2 seg-in-7 seg-out-2)
  S:(cycle-2 seg-in-7 seg-out-3)
  S:(cycle-2 seg-in-7 seg-out-4)
  S:(cycle-2 seg-in-7 seg-out-5)
  S:(cycle-2 seg-in-7 seg-out-6)
  S:(cycle-2 seg-in-7 seg-out-7)
  S:(cycle-2 seg-in-7 seg-out-8)
  S:(cycle-2 seg-in-8 seg-out-1)
  S:(cycle-2 seg-in-8 seg-out-2)
  S:(cycle-2 seg-in-8 seg-out-3)
  S:(cycle-2 seg-in-8 seg-out-4)
  S:(cycle-2 seg-in-8 seg-out-5)
  S:(cycle-2 seg-in-8 seg-out-6)
  S:(cycle-2 seg-in-8 seg-out-7)
  S:(cycle-2 seg-in-8 seg-out-8)
  S:(cycle-2-with-analysis seg-in-1 seg-out-1)
  S:(cycle-2-with-analysis seg-in-1 seg-out-2)
  S:(cycle-2-with-analysis seg-in-1 seg-out-3)
  S:(cycle-2-with-analysis seg-in-1 seg-out-4)
  S:(cycle-2-with-analysis seg-in-1 seg-out-5)
  S:(cycle-2-with-analysis seg-in-1 seg-out-6)
  S:(cycle-2-with-analysis seg-in-1 seg-out-7)
  S:(cycle-2-with-analysis seg-in-1 seg-out-8)
  S:(cycle-2-with-analysis seg-in-2 seg-out-1)
  S:(cycle-2-with-analysis seg-in-2 seg-out-2)
  S:(cycle-2-with-analysis seg-in-2 seg-out-3)
  S:(cycle-2-with-analysis seg-in-2 seg-out-4)
  S:(cycle-2-with-analysis seg-in-2 seg-out-5)
  S:(cycle-2-with-analysis seg-in-2 seg-out-6)
  S:(cycle-2-with-analysis seg-in-2 seg-out-7)
  S:(cycle-2-with-analysis seg-in-2 seg-out-8)
  S:(cycle-2-with-analysis seg-in-3 seg-out-1)
  S:(cycle-2-with-analysis seg-in-3 seg-out-2)
  S:(cycle-2-with-analysis seg-in-3 seg-out-3)
  S:(cycle-2-with-analysis seg-in-3 seg-out-4)
  S:(cycle-2-with-analysis seg-in-3 seg-out-5)
  S:(cycle-2-with-analysis seg-in-3 seg-out-6)
  S:(cycle-2-with-analysis seg-in-3 seg-out-7)
  S:(cycle-2-with-analysis seg-in-3 seg-out-8)
  S:(cycle-2-with-analysis seg-in-4 seg-out-1)
  S:(cycle-2-with-analysis seg-in-4 seg-out-2)
  S:(cycle-2-with-analysis seg-in-4 seg-out-3)
  S:(cycle-2-with-analysis seg-in-4 seg-out-4)
  S:(cycle-2-with-analysis seg-in-4 seg-out-5)
  S:(cycle-2-with-analysis seg-in-4 seg-out-6)
  S:(cycle-2-with-analysis seg-in-4 seg-out-7)
  S:(cycle-2-with-analysis seg-in-4 seg-out-8)
  S:(cycle-2-with-analysis seg-in-5 seg-out-1)
  S:(cycle-2-with-analysis seg-in-5 seg-out-2)
  S:(cycle-2-with-analysis seg-in-5 seg-out-3)
  S:(cycle-2-with-analysis seg-in-5 seg-out-4)
  S:(cycle-2-with-analysis seg-in-5 seg-out-5)
  S:(cycle-2-with-analysis seg-in-5 seg-out-6)
  S:(cycle-2-with-analysis seg-in-5 seg-out-7)
  S:(cycle-2-with-analysis seg-in-5 seg-out-8)
  S:(cycle-2-with-analysis seg-in-6 seg-out-1)
  S:(cycle-2-with-analysis seg-in-6 seg-out-2)
  S:(cycle-2-with-analysis seg-in-6 seg-out-3)
  S:(cycle-2-with-analysis seg-in-6 seg-out-4)
  S:(cycle-2-with-analysis seg-in-6 seg-out-5)
  S:(cycle-2-with-analysis seg-in-6 seg-out-6)
  S:(cycle-2-with-analysis seg-in-6 seg-out-7)
  S:(cycle-2-with-analysis seg-in-6 seg-out-8)
  S:(cycle-2-with-analysis seg-in-7 seg-out-1)
  S:(cycle-2-with-analysis seg-in-7 seg-out-2)
  S:(cycle-2-with-analysis seg-in-7 seg-out-3)
  S:(cycle-2-with-analysis seg-in-7 seg-out-4)
  S:(cycle-2-with-analysis seg-in-7 seg-out-5)
  S:(cycle-2-with-analysis seg-in-7 seg-out-6)
  S:(cycle-2-with-analysis seg-in-7 seg-out-7)
  S:(cycle-2-with-analysis seg-in-7 seg-out-8)
  S:(cycle-2-with-analysis seg-in-8 seg-out-1)
  S:(cycle-2-with-analysis seg-in-8 seg-out-2)
  S:(cycle-2-with-analysis seg-in-8 seg-out-3)
  S:(cycle-2-with-analysis seg-in-8 seg-out-4)
  S:(cycle-2-with-analysis seg-in-8 seg-out-5)
  S:(cycle-2-with-analysis seg-in-8 seg-out-6)
  S:(cycle-2-with-analysis seg-in-8 seg-out-7)
  S:(cycle-2-with-analysis seg-in-8 seg-out-8)
  (on car-in-1 seg-in-1)
  (on car-in-2 seg-in-2)
  (on car-in-3 seg-in-3)
  (on car-in-4 seg-in-4)
  (on car-in-5 seg-in-5)
  (on car-in-6 seg-in-6)
  (on car-in-7 seg-in-7)
  (on car-in-8 seg-in-8)
  (on car-out-1 seg-out-1)
  (on car-out-2 seg-out-2)
  (on car-out-3 seg-out-3)
  (on car-out-4 seg-out-4)
  (on car-out-5 seg-out-5)
  (on car-out-6 seg-out-6)
  (on car-out-7 seg-out-7)
  (on car-out-8 seg-out-8)
Init[1]:
  (= (total-cost) 0)
Goal: (and (W:analyzed car-in-1) (W:analyzed car-in-2) (W:analyzed car-in-3) (W:analyzed car-in-4) (W:analyzed car-in-5) (W:analyzed car-in-6) (W:analyzed car-in-7) (W:analyzed car-in-8) (W:analyzed car-out-1) (W:analyzed car-out-2) (W:analyzed car-out-3) (W:analyzed car-out-4) (W:analyzed car-out-5) (W:analyzed car-out-6) (W:analyzed car-out-7) (W:analyzed car-out-8) (RW:on car-in-1 seg-in-1) (RW:on car-in-2 seg-in-2) (RW:on car-in-3 seg-in-3) (RW:on car-in-4 seg-in-4) (RW:on car-in-5 seg-in-5) (RW:on car-in-6 seg-in-6) (RW:on car-in-7 seg-in-7) (RW:on car-in-8 seg-in-8) (RW:on car-out-1 seg-out-1) (RW:on car-out-2 seg-out-2) (RW:on car-out-3 seg-out-3) (RW:on car-out-4 seg-out-4) (RW:on car-out-5 seg-out-5) (RW:on car-out-6 seg-out-6) (RW:on car-out-7 seg-out-7) (RW:on car-out-8 seg-out-8))
Metric: 1
