begin_version
3
end_version
begin_metric
1
end_metric
9
begin_variable
var0
-1
9
at t1 p1 p1
at t1 p1 p2
at t1 p1 p3
at t1 p2 p1
at t1 p2 p2
at t1 p2 p3
at t1 p3 p1
at t1 p3 p2
at t1 p3 p3
end_variable
begin_variable
var1
-1
9
at t2 p1 p1
at t2 p1 p2
at t2 p1 p3
at t2 p2 p1
at t2 p2 p2
at t2 p2 p3
at t2 p3 p1
at t2 p3 p2
at t2 p3 p3
end_variable
begin_variable
var2
-1
9
at t3 p1 p1
at t3 p1 p2
at t3 p1 p3
at t3 p2 p1
at t3 p2 p2
at t3 p2 p3
at t3 p3 p1
at t3 p3 p2
at t3 p3 p3
end_variable
begin_variable
var3
-1
9
at t4 p1 p1
at t4 p1 p2
at t4 p1 p3
at t4 p2 p1
at t4 p2 p2
at t4 p2 p3
at t4 p3 p1
at t4 p3 p2
at t4 p3 p3
end_variable
begin_variable
var4
-1
9
at t5 p1 p1
at t5 p1 p2
at t5 p1 p3
at t5 p2 p1
at t5 p2 p2
at t5 p2 p3
at t5 p3 p1
at t5 p3 p2
at t5 p3 p3
end_variable
begin_variable
var5
-1
9
at t6 p1 p1
at t6 p1 p2
at t6 p1 p3
at t6 p2 p1
at t6 p2 p2
at t6 p2 p3
at t6 p3 p1
at t6 p3 p2
at t6 p3 p3
end_variable
begin_variable
var6
-1
9
at t7 p1 p1
at t7 p1 p2
at t7 p1 p3
at t7 p2 p1
at t7 p2 p2
at t7 p2 p3
at t7 p3 p1
at t7 p3 p2
at t7 p3 p3
end_variable
begin_variable
var7
-1
9
at t8 p1 p1
at t8 p1 p2
at t8 p1 p3
at t8 p2 p1
at t8 p2 p2
at t8 p2 p3
at t8 p3 p1
at t8 p3 p2
at t8 p3 p3
end_variable
begin_variable
var8
-1
9
blank p1 p1
blank p1 p2
blank p1 p3
blank p2 p1
blank p2 p2
blank p2 p3
blank p3 p1
blank p3 p2
blank p3 p3
end_variable
18
begin_mutex_group
9
0 0
0 1
0 2
0 3
0 4
0 5
0 6
0 7
0 8
end_mutex_group
begin_mutex_group
9
0 0
1 0
2 0
3 0
4 0
5 0
6 0
7 0
8 0
end_mutex_group
begin_mutex_group
9
0 1
1 1
2 1
3 1
4 1
5 1
6 1
7 1
8 1
end_mutex_group
begin_mutex_group
9
0 2
1 2
2 2
3 2
4 2
5 2
6 2
7 2
8 2
end_mutex_group
begin_mutex_group
9
0 3
1 3
2 3
3 3
4 3
5 3
6 3
7 3
8 3
end_mutex_group
begin_mutex_group
9
0 4
1 4
2 4
3 4
4 4
5 4
6 4
7 4
8 4
end_mutex_group
begin_mutex_group
9
0 5
1 5
2 5
3 5
4 5
5 5
6 5
7 5
8 5
end_mutex_group
begin_mutex_group
9
0 6
1 6
2 6
3 6
4 6
5 6
6 6
7 6
8 6
end_mutex_group
begin_mutex_group
9
0 7
1 7
2 7
3 7
4 7
5 7
6 7
7 7
8 7
end_mutex_group
begin_mutex_group
9
0 8
1 8
2 8
3 8
4 8
5 8
6 8
7 8
8 8
end_mutex_group
begin_mutex_group
9
1 0
1 1
1 2
1 3
1 4
1 5
1 6
1 7
1 8
end_mutex_group
begin_mutex_group
9
2 0
2 1
2 2
2 3
2 4
2 5
2 6
2 7
2 8
end_mutex_group
begin_mutex_group
9
3 0
3 1
3 2
3 3
3 4
3 5
3 6
3 7
3 8
end_mutex_group
begin_mutex_group
9
4 0
4 1
4 2
4 3
4 4
4 5
4 6
4 7
4 8
end_mutex_group
begin_mutex_group
9
5 0
5 1
5 2
5 3
5 4
5 5
5 6
5 7
5 8
end_mutex_group
begin_mutex_group
9
6 0
6 1
6 2
6 3
6 4
6 5
6 6
6 7
6 8
end_mutex_group
begin_mutex_group
9
7 0
7 1
7 2
7 3
7 4
7 5
7 6
7 7
7 8
end_mutex_group
begin_mutex_group
9
8 0
8 1
8 2
8 3
8 4
8 5
8 6
8 7
8 8
end_mutex_group
begin_state
8
0
4
5
2
1
6
7
3
end_state
begin_goal
8
0 3
1 6
2 1
3 4
4 7
5 2
6 5
7 8
end_goal
192
begin_operator
move-down t1 p1 p2 p1
0
2
0 0 1 0
0 8 0 1
1
end_operator
begin_operator
move-down t1 p1 p3 p2
0
2
0 0 2 1
0 8 1 2
1
end_operator
begin_operator
move-down t1 p2 p2 p1
0
2
0 0 4 3
0 8 3 4
1
end_operator
begin_operator
move-down t1 p2 p3 p2
0
2
0 0 5 4
0 8 4 5
1
end_operator
begin_operator
move-down t1 p3 p2 p1
0
2
0 0 7 6
0 8 6 7
1
end_operator
begin_operator
move-down t1 p3 p3 p2
0
2
0 0 8 7
0 8 7 8
1
end_operator
begin_operator
move-down t2 p1 p2 p1
0
2
0 1 1 0
0 8 0 1
1
end_operator
begin_operator
move-down t2 p1 p3 p2
0
2
0 1 2 1
0 8 1 2
1
end_operator
begin_operator
move-down t2 p2 p2 p1
0
2
0 1 4 3
0 8 3 4
1
end_operator
begin_operator
move-down t2 p2 p3 p2
0
2
0 1 5 4
0 8 4 5
1
end_operator
begin_operator
move-down t2 p3 p2 p1
0
2
0 1 7 6
0 8 6 7
1
end_operator
begin_operator
move-down t2 p3 p3 p2
0
2
0 1 8 7
0 8 7 8
1
end_operator
begin_operator
move-down t3 p1 p2 p1
0
2
0 2 1 0
0 8 0 1
1
end_operator
begin_operator
move-down t3 p1 p3 p2
0
2
0 2 2 1
0 8 1 2
1
end_operator
begin_operator
move-down t3 p2 p2 p1
0
2
0 2 4 3
0 8 3 4
1
end_operator
begin_operator
move-down t3 p2 p3 p2
0
2
0 2 5 4
0 8 4 5
1
end_operator
begin_operator
move-down t3 p3 p2 p1
0
2
0 2 7 6
0 8 6 7
1
end_operator
begin_operator
move-down t3 p3 p3 p2
0
2
0 2 8 7
0 8 7 8
1
end_operator
begin_operator
move-down t4 p1 p2 p1
0
2
0 3 1 0
0 8 0 1
1
end_operator
begin_operator
move-down t4 p1 p3 p2
0
2
0 3 2 1
0 8 1 2
1
end_operator
begin_operator
move-down t4 p2 p2 p1
0
2
0 3 4 3
0 8 3 4
1
end_operator
begin_operator
move-down t4 p2 p3 p2
0
2
0 3 5 4
0 8 4 5
1
end_operator
begin_operator
move-down t4 p3 p2 p1
0
2
0 3 7 6
0 8 6 7
1
end_operator
begin_operator
move-down t4 p3 p3 p2
0
2
0 3 8 7
0 8 7 8
1
end_operator
begin_operator
move-down t5 p1 p2 p1
0
2
0 4 1 0
0 8 0 1
1
end_operator
begin_operator
move-down t5 p1 p3 p2
0
2
0 4 2 1
0 8 1 2
1
end_operator
begin_operator
move-down t5 p2 p2 p1
0
2
0 4 4 3
0 8 3 4
1
end_operator
begin_operator
move-down t5 p2 p3 p2
0
2
0 4 5 4
0 8 4 5
1
end_operator
begin_operator
move-down t5 p3 p2 p1
0
2
0 4 7 6
0 8 6 7
1
end_operator
begin_operator
move-down t5 p3 p3 p2
0
2
0 4 8 7
0 8 7 8
1
end_operator
begin_operator
move-down t6 p1 p2 p1
0
2
0 5 1 0
0 8 0 1
1
end_operator
begin_operator
move-down t6 p1 p3 p2
0
2
0 5 2 1
0 8 1 2
1
end_operator
begin_operator
move-down t6 p2 p2 p1
0
2
0 5 4 3
0 8 3 4
1
end_operator
begin_operator
move-down t6 p2 p3 p2
0
2
0 5 5 4
0 8 4 5
1
end_operator
begin_operator
move-down t6 p3 p2 p1
0
2
0 5 7 6
0 8 6 7
1
end_operator
begin_operator
move-down t6 p3 p3 p2
0
2
0 5 8 7
0 8 7 8
1
end_operator
begin_operator
move-down t7 p1 p2 p1
0
2
0 6 1 0
0 8 0 1
1
end_operator
begin_operator
move-down t7 p1 p3 p2
0
2
0 6 2 1
0 8 1 2
1
end_operator
begin_operator
move-down t7 p2 p2 p1
0
2
0 6 4 3
0 8 3 4
1
end_operator
begin_operator
move-down t7 p2 p3 p2
0
2
0 6 5 4
0 8 4 5
1
end_operator
begin_operator
move-down t7 p3 p2 p1
0
2
0 6 7 6
0 8 6 7
1
end_operator
begin_operator
move-down t7 p3 p3 p2
0
2
0 6 8 7
0 8 7 8
1
end_operator
begin_operator
move-down t8 p1 p2 p1
0
2
0 7 1 0
0 8 0 1
1
end_operator
begin_operator
move-down t8 p1 p3 p2
0
2
0 7 2 1
0 8 1 2
1
end_operator
begin_operator
move-down t8 p2 p2 p1
0
2
0 7 4 3
0 8 3 4
1
end_operator
begin_operator
move-down t8 p2 p3 p2
0
2
0 7 5 4
0 8 4 5
1
end_operator
begin_operator
move-down t8 p3 p2 p1
0
2
0 7 7 6
0 8 6 7
1
end_operator
begin_operator
move-down t8 p3 p3 p2
0
2
0 7 8 7
0 8 7 8
1
end_operator
begin_operator
move-left t1 p1 p1 p2
0
2
0 0 0 3
0 8 3 0
1
end_operator
begin_operator
move-left t1 p1 p2 p2
0
2
0 0 1 4
0 8 4 1
1
end_operator
begin_operator
move-left t1 p1 p3 p2
0
2
0 0 2 5
0 8 5 2
1
end_operator
begin_operator
move-left t1 p2 p1 p3
0
2
0 0 3 6
0 8 6 3
1
end_operator
begin_operator
move-left t1 p2 p2 p3
0
2
0 0 4 7
0 8 7 4
1
end_operator
begin_operator
move-left t1 p2 p3 p3
0
2
0 0 5 8
0 8 8 5
1
end_operator
begin_operator
move-left t2 p1 p1 p2
0
2
0 1 0 3
0 8 3 0
1
end_operator
begin_operator
move-left t2 p1 p2 p2
0
2
0 1 1 4
0 8 4 1
1
end_operator
begin_operator
move-left t2 p1 p3 p2
0
2
0 1 2 5
0 8 5 2
1
end_operator
begin_operator
move-left t2 p2 p1 p3
0
2
0 1 3 6
0 8 6 3
1
end_operator
begin_operator
move-left t2 p2 p2 p3
0
2
0 1 4 7
0 8 7 4
1
end_operator
begin_operator
move-left t2 p2 p3 p3
0
2
0 1 5 8
0 8 8 5
1
end_operator
begin_operator
move-left t3 p1 p1 p2
0
2
0 2 0 3
0 8 3 0
1
end_operator
begin_operator
move-left t3 p1 p2 p2
0
2
0 2 1 4
0 8 4 1
1
end_operator
begin_operator
move-left t3 p1 p3 p2
0
2
0 2 2 5
0 8 5 2
1
end_operator
begin_operator
move-left t3 p2 p1 p3
0
2
0 2 3 6
0 8 6 3
1
end_operator
begin_operator
move-left t3 p2 p2 p3
0
2
0 2 4 7
0 8 7 4
1
end_operator
begin_operator
move-left t3 p2 p3 p3
0
2
0 2 5 8
0 8 8 5
1
end_operator
begin_operator
move-left t4 p1 p1 p2
0
2
0 3 0 3
0 8 3 0
1
end_operator
begin_operator
move-left t4 p1 p2 p2
0
2
0 3 1 4
0 8 4 1
1
end_operator
begin_operator
move-left t4 p1 p3 p2
0
2
0 3 2 5
0 8 5 2
1
end_operator
begin_operator
move-left t4 p2 p1 p3
0
2
0 3 3 6
0 8 6 3
1
end_operator
begin_operator
move-left t4 p2 p2 p3
0
2
0 3 4 7
0 8 7 4
1
end_operator
begin_operator
move-left t4 p2 p3 p3
0
2
0 3 5 8
0 8 8 5
1
end_operator
begin_operator
move-left t5 p1 p1 p2
0
2
0 4 0 3
0 8 3 0
1
end_operator
begin_operator
move-left t5 p1 p2 p2
0
2
0 4 1 4
0 8 4 1
1
end_operator
begin_operator
move-left t5 p1 p3 p2
0
2
0 4 2 5
0 8 5 2
1
end_operator
begin_operator
move-left t5 p2 p1 p3
0
2
0 4 3 6
0 8 6 3
1
end_operator
begin_operator
move-left t5 p2 p2 p3
0
2
0 4 4 7
0 8 7 4
1
end_operator
begin_operator
move-left t5 p2 p3 p3
0
2
0 4 5 8
0 8 8 5
1
end_operator
begin_operator
move-left t6 p1 p1 p2
0
2
0 5 0 3
0 8 3 0
1
end_operator
begin_operator
move-left t6 p1 p2 p2
0
2
0 5 1 4
0 8 4 1
1
end_operator
begin_operator
move-left t6 p1 p3 p2
0
2
0 5 2 5
0 8 5 2
1
end_operator
begin_operator
move-left t6 p2 p1 p3
0
2
0 5 3 6
0 8 6 3
1
end_operator
begin_operator
move-left t6 p2 p2 p3
0
2
0 5 4 7
0 8 7 4
1
end_operator
begin_operator
move-left t6 p2 p3 p3
0
2
0 5 5 8
0 8 8 5
1
end_operator
begin_operator
move-left t7 p1 p1 p2
0
2
0 6 0 3
0 8 3 0
1
end_operator
begin_operator
move-left t7 p1 p2 p2
0
2
0 6 1 4
0 8 4 1
1
end_operator
begin_operator
move-left t7 p1 p3 p2
0
2
0 6 2 5
0 8 5 2
1
end_operator
begin_operator
move-left t7 p2 p1 p3
0
2
0 6 3 6
0 8 6 3
1
end_operator
begin_operator
move-left t7 p2 p2 p3
0
2
0 6 4 7
0 8 7 4
1
end_operator
begin_operator
move-left t7 p2 p3 p3
0
2
0 6 5 8
0 8 8 5
1
end_operator
begin_operator
move-left t8 p1 p1 p2
0
2
0 7 0 3
0 8 3 0
1
end_operator
begin_operator
move-left t8 p1 p2 p2
0
2
0 7 1 4
0 8 4 1
1
end_operator
begin_operator
move-left t8 p1 p3 p2
0
2
0 7 2 5
0 8 5 2
1
end_operator
begin_operator
move-left t8 p2 p1 p3
0
2
0 7 3 6
0 8 6 3
1
end_operator
begin_operator
move-left t8 p2 p2 p3
0
2
0 7 4 7
0 8 7 4
1
end_operator
begin_operator
move-left t8 p2 p3 p3
0
2
0 7 5 8
0 8 8 5
1
end_operator
begin_operator
move-right t1 p2 p1 p1
0
2
0 0 3 0
0 8 0 3
1
end_operator
begin_operator
move-right t1 p2 p2 p1
0
2
0 0 4 1
0 8 1 4
1
end_operator
begin_operator
move-right t1 p2 p3 p1
0
2
0 0 5 2
0 8 2 5
1
end_operator
begin_operator
move-right t1 p3 p1 p2
0
2
0 0 6 3
0 8 3 6
1
end_operator
begin_operator
move-right t1 p3 p2 p2
0
2
0 0 7 4
0 8 4 7
1
end_operator
begin_operator
move-right t1 p3 p3 p2
0
2
0 0 8 5
0 8 5 8
1
end_operator
begin_operator
move-right t2 p2 p1 p1
0
2
0 1 3 0
0 8 0 3
1
end_operator
begin_operator
move-right t2 p2 p2 p1
0
2
0 1 4 1
0 8 1 4
1
end_operator
begin_operator
move-right t2 p2 p3 p1
0
2
0 1 5 2
0 8 2 5
1
end_operator
begin_operator
move-right t2 p3 p1 p2
0
2
0 1 6 3
0 8 3 6
1
end_operator
begin_operator
move-right t2 p3 p2 p2
0
2
0 1 7 4
0 8 4 7
1
end_operator
begin_operator
move-right t2 p3 p3 p2
0
2
0 1 8 5
0 8 5 8
1
end_operator
begin_operator
move-right t3 p2 p1 p1
0
2
0 2 3 0
0 8 0 3
1
end_operator
begin_operator
move-right t3 p2 p2 p1
0
2
0 2 4 1
0 8 1 4
1
end_operator
begin_operator
move-right t3 p2 p3 p1
0
2
0 2 5 2
0 8 2 5
1
end_operator
begin_operator
move-right t3 p3 p1 p2
0
2
0 2 6 3
0 8 3 6
1
end_operator
begin_operator
move-right t3 p3 p2 p2
0
2
0 2 7 4
0 8 4 7
1
end_operator
begin_operator
move-right t3 p3 p3 p2
0
2
0 2 8 5
0 8 5 8
1
end_operator
begin_operator
move-right t4 p2 p1 p1
0
2
0 3 3 0
0 8 0 3
1
end_operator
begin_operator
move-right t4 p2 p2 p1
0
2
0 3 4 1
0 8 1 4
1
end_operator
begin_operator
move-right t4 p2 p3 p1
0
2
0 3 5 2
0 8 2 5
1
end_operator
begin_operator
move-right t4 p3 p1 p2
0
2
0 3 6 3
0 8 3 6
1
end_operator
begin_operator
move-right t4 p3 p2 p2
0
2
0 3 7 4
0 8 4 7
1
end_operator
begin_operator
move-right t4 p3 p3 p2
0
2
0 3 8 5
0 8 5 8
1
end_operator
begin_operator
move-right t5 p2 p1 p1
0
2
0 4 3 0
0 8 0 3
1
end_operator
begin_operator
move-right t5 p2 p2 p1
0
2
0 4 4 1
0 8 1 4
1
end_operator
begin_operator
move-right t5 p2 p3 p1
0
2
0 4 5 2
0 8 2 5
1
end_operator
begin_operator
move-right t5 p3 p1 p2
0
2
0 4 6 3
0 8 3 6
1
end_operator
begin_operator
move-right t5 p3 p2 p2
0
2
0 4 7 4
0 8 4 7
1
end_operator
begin_operator
move-right t5 p3 p3 p2
0
2
0 4 8 5
0 8 5 8
1
end_operator
begin_operator
move-right t6 p2 p1 p1
0
2
0 5 3 0
0 8 0 3
1
end_operator
begin_operator
move-right t6 p2 p2 p1
0
2
0 5 4 1
0 8 1 4
1
end_operator
begin_operator
move-right t6 p2 p3 p1
0
2
0 5 5 2
0 8 2 5
1
end_operator
begin_operator
move-right t6 p3 p1 p2
0
2
0 5 6 3
0 8 3 6
1
end_operator
begin_operator
move-right t6 p3 p2 p2
0
2
0 5 7 4
0 8 4 7
1
end_operator
begin_operator
move-right t6 p3 p3 p2
0
2
0 5 8 5
0 8 5 8
1
end_operator
begin_operator
move-right t7 p2 p1 p1
0
2
0 6 3 0
0 8 0 3
1
end_operator
begin_operator
move-right t7 p2 p2 p1
0
2
0 6 4 1
0 8 1 4
1
end_operator
begin_operator
move-right t7 p2 p3 p1
0
2
0 6 5 2
0 8 2 5
1
end_operator
begin_operator
move-right t7 p3 p1 p2
0
2
0 6 6 3
0 8 3 6
1
end_operator
begin_operator
move-right t7 p3 p2 p2
0
2
0 6 7 4
0 8 4 7
1
end_operator
begin_operator
move-right t7 p3 p3 p2
0
2
0 6 8 5
0 8 5 8
1
end_operator
begin_operator
move-right t8 p2 p1 p1
0
2
0 7 3 0
0 8 0 3
1
end_operator
begin_operator
move-right t8 p2 p2 p1
0
2
0 7 4 1
0 8 1 4
1
end_operator
begin_operator
move-right t8 p2 p3 p1
0
2
0 7 5 2
0 8 2 5
1
end_operator
begin_operator
move-right t8 p3 p1 p2
0
2
0 7 6 3
0 8 3 6
1
end_operator
begin_operator
move-right t8 p3 p2 p2
0
2
0 7 7 4
0 8 4 7
1
end_operator
begin_operator
move-right t8 p3 p3 p2
0
2
0 7 8 5
0 8 5 8
1
end_operator
begin_operator
move-up t1 p1 p1 p2
0
2
0 0 0 1
0 8 1 0
1
end_operator
begin_operator
move-up t1 p1 p2 p3
0
2
0 0 1 2
0 8 2 1
1
end_operator
begin_operator
move-up t1 p2 p1 p2
0
2
0 0 3 4
0 8 4 3
1
end_operator
begin_operator
move-up t1 p2 p2 p3
0
2
0 0 4 5
0 8 5 4
1
end_operator
begin_operator
move-up t1 p3 p1 p2
0
2
0 0 6 7
0 8 7 6
1
end_operator
begin_operator
move-up t1 p3 p2 p3
0
2
0 0 7 8
0 8 8 7
1
end_operator
begin_operator
move-up t2 p1 p1 p2
0
2
0 1 0 1
0 8 1 0
1
end_operator
begin_operator
move-up t2 p1 p2 p3
0
2
0 1 1 2
0 8 2 1
1
end_operator
begin_operator
move-up t2 p2 p1 p2
0
2
0 1 3 4
0 8 4 3
1
end_operator
begin_operator
move-up t2 p2 p2 p3
0
2
0 1 4 5
0 8 5 4
1
end_operator
begin_operator
move-up t2 p3 p1 p2
0
2
0 1 6 7
0 8 7 6
1
end_operator
begin_operator
move-up t2 p3 p2 p3
0
2
0 1 7 8
0 8 8 7
1
end_operator
begin_operator
move-up t3 p1 p1 p2
0
2
0 2 0 1
0 8 1 0
1
end_operator
begin_operator
move-up t3 p1 p2 p3
0
2
0 2 1 2
0 8 2 1
1
end_operator
begin_operator
move-up t3 p2 p1 p2
0
2
0 2 3 4
0 8 4 3
1
end_operator
begin_operator
move-up t3 p2 p2 p3
0
2
0 2 4 5
0 8 5 4
1
end_operator
begin_operator
move-up t3 p3 p1 p2
0
2
0 2 6 7
0 8 7 6
1
end_operator
begin_operator
move-up t3 p3 p2 p3
0
2
0 2 7 8
0 8 8 7
1
end_operator
begin_operator
move-up t4 p1 p1 p2
0
2
0 3 0 1
0 8 1 0
1
end_operator
begin_operator
move-up t4 p1 p2 p3
0
2
0 3 1 2
0 8 2 1
1
end_operator
begin_operator
move-up t4 p2 p1 p2
0
2
0 3 3 4
0 8 4 3
1
end_operator
begin_operator
move-up t4 p2 p2 p3
0
2
0 3 4 5
0 8 5 4
1
end_operator
begin_operator
move-up t4 p3 p1 p2
0
2
0 3 6 7
0 8 7 6
1
end_operator
begin_operator
move-up t4 p3 p2 p3
0
2
0 3 7 8
0 8 8 7
1
end_operator
begin_operator
move-up t5 p1 p1 p2
0
2
0 4 0 1
0 8 1 0
1
end_operator
begin_operator
move-up t5 p1 p2 p3
0
2
0 4 1 2
0 8 2 1
1
end_operator
begin_operator
move-up t5 p2 p1 p2
0
2
0 4 3 4
0 8 4 3
1
end_operator
begin_operator
move-up t5 p2 p2 p3
0
2
0 4 4 5
0 8 5 4
1
end_operator
begin_operator
move-up t5 p3 p1 p2
0
2
0 4 6 7
0 8 7 6
1
end_operator
begin_operator
move-up t5 p3 p2 p3
0
2
0 4 7 8
0 8 8 7
1
end_operator
begin_operator
move-up t6 p1 p1 p2
0
2
0 5 0 1
0 8 1 0
1
end_operator
begin_operator
move-up t6 p1 p2 p3
0
2
0 5 1 2
0 8 2 1
1
end_operator
begin_operator
move-up t6 p2 p1 p2
0
2
0 5 3 4
0 8 4 3
1
end_operator
begin_operator
move-up t6 p2 p2 p3
0
2
0 5 4 5
0 8 5 4
1
end_operator
begin_operator
move-up t6 p3 p1 p2
0
2
0 5 6 7
0 8 7 6
1
end_operator
begin_operator
move-up t6 p3 p2 p3
0
2
0 5 7 8
0 8 8 7
1
end_operator
begin_operator
move-up t7 p1 p1 p2
0
2
0 6 0 1
0 8 1 0
1
end_operator
begin_operator
move-up t7 p1 p2 p3
0
2
0 6 1 2
0 8 2 1
1
end_operator
begin_operator
move-up t7 p2 p1 p2
0
2
0 6 3 4
0 8 4 3
1
end_operator
begin_operator
move-up t7 p2 p2 p3
0
2
0 6 4 5
0 8 5 4
1
end_operator
begin_operator
move-up t7 p3 p1 p2
0
2
0 6 6 7
0 8 7 6
1
end_operator
begin_operator
move-up t7 p3 p2 p3
0
2
0 6 7 8
0 8 8 7
1
end_operator
begin_operator
move-up t8 p1 p1 p2
0
2
0 7 0 1
0 8 1 0
1
end_operator
begin_operator
move-up t8 p1 p2 p3
0
2
0 7 1 2
0 8 2 1
1
end_operator
begin_operator
move-up t8 p2 p1 p2
0
2
0 7 3 4
0 8 4 3
1
end_operator
begin_operator
move-up t8 p2 p2 p3
0
2
0 7 4 5
0 8 5 4
1
end_operator
begin_operator
move-up t8 p3 p1 p2
0
2
0 7 6 7
0 8 7 6
1
end_operator
begin_operator
move-up t8 p3 p2 p3
0
2
0 7 7 8
0 8 8 7
1
end_operator
0
