Collapsing type 1:location with 50 objects
Reduced 50 -> 1
Domain: pegsolitaire-invasion
Problem: pegsolitaire-invasion-5
Require: ff
Type[2]:
    [0]: object, parent: -1
    [1]: location, parent: 0
Obj-by-Type:
    [0]: 0
    [1]: 0
Obj[1]:
    [0]: pos-0-0, type: 1, is-constant: 0, is-private: 0, owner: -1, is-agent: 0
Predicate[4]:
    =: 0 0 :: is-private: 0, owner-param: -1, read: 0, write: 0
    in-line: 1 1 1 :: is-private: 0, owner-param: -1, read: 1, write: 0
    occupied: 1 :: is-private: 0, owner-param: -1, read: 1, write: 1
    free: 1 :: is-private: 0, owner-param: -1, read: 1, write: 1
Function[0]:
Action[1]:
    jump: ?from:1 ?over:1 ?to:1
        pre: (and (R:in-line ?from ?over ?to) (RW:occupied ?from) (RW:occupied ?over) (RW:free ?to))
        eff: (and (RW:free ?from) (RW:free ?over) (RW:occupied ?to))
Init[190]:
  S:(in-line pos-0-0 pos-0-0 pos-0-0)
  S:(in-line pos-0-0 pos-0-0 pos-0-0)
  S:(in-line pos-0-0 pos-0-0 pos-0-0)
  S:(in-line pos-0-0 pos-0-0 pos-0-0)
  S:(in-line pos-0-0 pos-0-0 pos-0-0)
  S:(in-line pos-0-0 pos-0-0 pos-0-0)
  S:(in-line pos-0-0 pos-0-0 pos-0-0)
  S:(in-line pos-0-0 pos-0-0 pos-0-0)
  S:(in-line pos-0-0 pos-0-0 pos-0-0)
  S:(in-line pos-0-0 pos-0-0 pos-0-0)
  S:(in-line pos-0-0 pos-0-0 pos-0-0)
  S:(in-line pos-0-0 pos-0-0 pos-0-0)
  S:(in-line pos-0-0 pos-0-0 pos-0-0)
  S:(in-line pos-0-0 pos-0-0 pos-0-0)
  S:(in-line pos-0-0 pos-0-0 pos-0-0)
  S:(in-line pos-0-0 pos-0-0 pos-0-0)
  S:(in-line pos-0-0 pos-0-0 pos-0-0)
  S:(in-line pos-0-0 pos-0-0 pos-0-0)
  S:(in-line pos-0-0 pos-0-0 pos-0-0)
  S:(in-line pos-0-0 pos-0-0 pos-0-0)
  S:(in-line pos-0-0 pos-0-0 pos-0-0)
  S:(in-line pos-0-0 pos-0-0 pos-0-0)
  S:(in-line pos-0-0 pos-0-0 pos-0-0)
  S:(in-line pos-0-0 pos-0-0 pos-0-0)
  S:(in-line pos-0-0 pos-0-0 pos-0-0)
  S:(in-line pos-0-0 pos-0-0 pos-0-0)
  S:(in-line pos-0-0 pos-0-0 pos-0-0)
  S:(in-line pos-0-0 pos-0-0 pos-0-0)
  S:(in-line pos-0-0 pos-0-0 pos-0-0)
  S:(in-line pos-0-0 pos-0-0 pos-0-0)
  S:(in-line pos-0-0 pos-0-0 pos-0-0)
  S:(in-line pos-0-0 pos-0-0 pos-0-0)
  S:(in-line pos-0-0 pos-0-0 pos-0-0)
  S:(in-line pos-0-0 pos-0-0 pos-0-0)
  S:(in-line pos-0-0 pos-0-0 pos-0-0)
  S:(in-line pos-0-0 pos-0-0 pos-0-0)
  S:(in-line pos-0-0 pos-0-0 pos-0-0)
  S:(in-line pos-0-0 pos-0-0 pos-0-0)
  S:(in-line pos-0-0 pos-0-0 pos-0-0)
  S:(in-line pos-0-0 pos-0-0 pos-0-0)
  S:(in-line pos-0-0 pos-0-0 pos-0-0)
  S:(in-line pos-0-0 pos-0-0 pos-0-0)
  S:(in-line pos-0-0 pos-0-0 pos-0-0)
  S:(in-line pos-0-0 pos-0-0 pos-0-0)
  S:(in-line pos-0-0 pos-0-0 pos-0-0)
  S:(in-line pos-0-0 pos-0-0 pos-0-0)
  S:(in-line pos-0-0 pos-0-0 pos-0-0)
  S:(in-line pos-0-0 pos-0-0 pos-0-0)
  S:(in-line pos-0-0 pos-0-0 pos-0-0)
  S:(in-line pos-0-0 pos-0-0 pos-0-0)
  S:(in-line pos-0-0 pos-0-0 pos-0-0)
  S:(in-line pos-0-0 pos-0-0 pos-0-0)
  S:(in-line pos-0-0 pos-0-0 pos-0-0)
  S:(in-line pos-0-0 pos-0-0 pos-0-0)
  S:(in-line pos-0-0 pos-0-0 pos-0-0)
  S:(in-line pos-0-0 pos-0-0 pos-0-0)
  S:(in-line pos-0-0 pos-0-0 pos-0-0)
  S:(in-line pos-0-0 pos-0-0 pos-0-0)
  S:(in-line pos-0-0 pos-0-0 pos-0-0)
  S:(in-line pos-0-0 pos-0-0 pos-0-0)
  S:(in-line pos-0-0 pos-0-0 pos-0-0)
  S:(in-line pos-0-0 pos-0-0 pos-0-0)
  S:(in-line pos-0-0 pos-0-0 pos-0-0)
  S:(in-line pos-0-0 pos-0-0 pos-0-0)
  S:(in-line pos-0-0 pos-0-0 pos-0-0)
  S:(in-line pos-0-0 pos-0-0 pos-0-0)
  S:(in-line pos-0-0 pos-0-0 pos-0-0)
  S:(in-line pos-0-0 pos-0-0 pos-0-0)
  S:(in-line pos-0-0 pos-0-0 pos-0-0)
  S:(in-line pos-0-0 pos-0-0 pos-0-0)
  S:(in-line pos-0-0 pos-0-0 pos-0-0)
  S:(in-line pos-0-0 pos-0-0 pos-0-0)
  S:(in-line pos-0-0 pos-0-0 pos-0-0)
  S:(in-line pos-0-0 pos-0-0 pos-0-0)
  S:(in-line pos-0-0 pos-0-0 pos-0-0)
  S:(in-line pos-0-0 pos-0-0 pos-0-0)
  S:(in-line pos-0-0 pos-0-0 pos-0-0)
  S:(in-line pos-0-0 pos-0-0 pos-0-0)
  S:(in-line pos-0-0 pos-0-0 pos-0-0)
  S:(in-line pos-0-0 pos-0-0 pos-0-0)
  S:(in-line pos-0-0 pos-0-0 pos-0-0)
  S:(in-line pos-0-0 pos-0-0 pos-0-0)
  S:(in-line pos-0-0 pos-0-0 pos-0-0)
  S:(in-line pos-0-0 pos-0-0 pos-0-0)
  S:(in-line pos-0-0 pos-0-0 pos-0-0)
  S:(in-line pos-0-0 pos-0-0 pos-0-0)
  S:(in-line pos-0-0 pos-0-0 pos-0-0)
  S:(in-line pos-0-0 pos-0-0 pos-0-0)
  S:(in-line pos-0-0 pos-0-0 pos-0-0)
  S:(in-line pos-0-0 pos-0-0 pos-0-0)
  S:(in-line pos-0-0 pos-0-0 pos-0-0)
  S:(in-line pos-0-0 pos-0-0 pos-0-0)
  S:(in-line pos-0-0 pos-0-0 pos-0-0)
  S:(in-line pos-0-0 pos-0-0 pos-0-0)
  S:(in-line pos-0-0 pos-0-0 pos-0-0)
  S:(in-line pos-0-0 pos-0-0 pos-0-0)
  S:(in-line pos-0-0 pos-0-0 pos-0-0)
  S:(in-line pos-0-0 pos-0-0 pos-0-0)
  S:(in-line pos-0-0 pos-0-0 pos-0-0)
  S:(in-line pos-0-0 pos-0-0 pos-0-0)
  S:(in-line pos-0-0 pos-0-0 pos-0-0)
  S:(in-line pos-0-0 pos-0-0 pos-0-0)
  S:(in-line pos-0-0 pos-0-0 pos-0-0)
  S:(in-line pos-0-0 pos-0-0 pos-0-0)
  S:(in-line pos-0-0 pos-0-0 pos-0-0)
  S:(in-line pos-0-0 pos-0-0 pos-0-0)
  S:(in-line pos-0-0 pos-0-0 pos-0-0)
  S:(in-line pos-0-0 pos-0-0 pos-0-0)
  S:(in-line pos-0-0 pos-0-0 pos-0-0)
  S:(in-line pos-0-0 pos-0-0 pos-0-0)
  S:(in-line pos-0-0 pos-0-0 pos-0-0)
  S:(in-line pos-0-0 pos-0-0 pos-0-0)
  S:(in-line pos-0-0 pos-0-0 pos-0-0)
  S:(in-line pos-0-0 pos-0-0 pos-0-0)
  S:(in-line pos-0-0 pos-0-0 pos-0-0)
  S:(in-line pos-0-0 pos-0-0 pos-0-0)
  S:(in-line pos-0-0 pos-0-0 pos-0-0)
  S:(in-line pos-0-0 pos-0-0 pos-0-0)
  S:(in-line pos-0-0 pos-0-0 pos-0-0)
  S:(in-line pos-0-0 pos-0-0 pos-0-0)
  S:(in-line pos-0-0 pos-0-0 pos-0-0)
  S:(in-line pos-0-0 pos-0-0 pos-0-0)
  S:(in-line pos-0-0 pos-0-0 pos-0-0)
  S:(in-line pos-0-0 pos-0-0 pos-0-0)
  S:(in-line pos-0-0 pos-0-0 pos-0-0)
  S:(in-line pos-0-0 pos-0-0 pos-0-0)
  S:(in-line pos-0-0 pos-0-0 pos-0-0)
  S:(in-line pos-0-0 pos-0-0 pos-0-0)
  S:(in-line pos-0-0 pos-0-0 pos-0-0)
  S:(in-line pos-0-0 pos-0-0 pos-0-0)
  S:(in-line pos-0-0 pos-0-0 pos-0-0)
  S:(in-line pos-0-0 pos-0-0 pos-0-0)
  S:(in-line pos-0-0 pos-0-0 pos-0-0)
  S:(in-line pos-0-0 pos-0-0 pos-0-0)
  S:(in-line pos-0-0 pos-0-0 pos-0-0)
  S:(in-line pos-0-0 pos-0-0 pos-0-0)
  S:(in-line pos-0-0 pos-0-0 pos-0-0)
  S:(in-line pos-0-0 pos-0-0 pos-0-0)
  S:(in-line pos-0-0 pos-0-0 pos-0-0)
  S:(in-line pos-0-0 pos-0-0 pos-0-0)
  (free pos-0-0)
  (free pos-0-0)
  (free pos-0-0)
  (free pos-0-0)
  (free pos-0-0)
  (free pos-0-0)
  (free pos-0-0)
  (free pos-0-0)
  (free pos-0-0)
  (free pos-0-0)
  (free pos-0-0)
  (free pos-0-0)
  (free pos-0-0)
  (free pos-0-0)
  (free pos-0-0)
  (free pos-0-0)
  (free pos-0-0)
  (free pos-0-0)
  (free pos-0-0)
  (free pos-0-0)
  (free pos-0-0)
  (free pos-0-0)
  (free pos-0-0)
  (free pos-0-0)
  (free pos-0-0)
  (occupied pos-0-0)
  (occupied pos-0-0)
  (occupied pos-0-0)
  (occupied pos-0-0)
  (occupied pos-0-0)
  (occupied pos-0-0)
  (occupied pos-0-0)
  (occupied pos-0-0)
  (occupied pos-0-0)
  (occupied pos-0-0)
  (occupied pos-0-0)
  (occupied pos-0-0)
  (occupied pos-0-0)
  (occupied pos-0-0)
  (occupied pos-0-0)
  (occupied pos-0-0)
  (occupied pos-0-0)
  (occupied pos-0-0)
  (occupied pos-0-0)
  (occupied pos-0-0)
  (occupied pos-0-0)
  (occupied pos-0-0)
  (occupied pos-0-0)
  (occupied pos-0-0)
  (occupied pos-0-0)
Init[0]:
Goal: (RW:occupied pos-0-0)
Metric: 0
