Domain: document
Problem: unsolv-problem-1
Require: ff
Type[3]:
    [0]: object, parent: -1
    [1]: document, parent: 0
    [2]: location, parent: 0
Obj-by-Type:
    [0]: 0 1 2 3 4 5 6 7 8 9 10 11 12 13 14 15 16 17 18 19 20 21 22 23 24 25 26 27 28 29 30 31 32 33 34 35 36 37 38 39 40 41 42 43 44 45 46 47 48 49 50 51 52 53 54 55 56 57 58 59
    [1]: 1 2 3 4 5 6 7 8 9 10 11 12 13 14 15 16 17 18 19 20 21 22 23 24 25 26 27 28 29 30 31 32 33
    [2]: 0 34 35 36 37 38 39 40 41 42 43 44 45 46 47 48 49 50 51 52 53 54 55 56 57 58 59
Obj[60]:
    [0]: office, type: 2, is-constant: 1, is-private: 0, owner: -1, is-agent: 0
    [1]: fuel1, type: 1, is-constant: 0, is-private: 0, owner: -1, is-agent: 0
    [2]: fuel2, type: 1, is-constant: 0, is-private: 0, owner: -1, is-agent: 0
    [3]: document1, type: 1, is-constant: 0, is-private: 0, owner: -1, is-agent: 0
    [4]: document2, type: 1, is-constant: 0, is-private: 0, owner: -1, is-agent: 0
    [5]: document3, type: 1, is-constant: 0, is-private: 0, owner: -1, is-agent: 0
    [6]: document4, type: 1, is-constant: 0, is-private: 0, owner: -1, is-agent: 0
    [7]: document5, type: 1, is-constant: 0, is-private: 0, owner: -1, is-agent: 0
    [8]: document6, type: 1, is-constant: 0, is-private: 0, owner: -1, is-agent: 0
    [9]: document7, type: 1, is-constant: 0, is-private: 0, owner: -1, is-agent: 0
    [10]: document8, type: 1, is-constant: 0, is-private: 0, owner: -1, is-agent: 0
    [11]: document9, type: 1, is-constant: 0, is-private: 0, owner: -1, is-agent: 0
    [12]: document10, type: 1, is-constant: 0, is-private: 0, owner: -1, is-agent: 0
    [13]: document11, type: 1, is-constant: 0, is-private: 0, owner: -1, is-agent: 0
    [14]: document12, type: 1, is-constant: 0, is-private: 0, owner: -1, is-agent: 0
    [15]: document13, type: 1, is-constant: 0, is-private: 0, owner: -1, is-agent: 0
    [16]: document14, type: 1, is-constant: 0, is-private: 0, owner: -1, is-agent: 0
    [17]: document15, type: 1, is-constant: 0, is-private: 0, owner: -1, is-agent: 0
    [18]: document16, type: 1, is-constant: 0, is-private: 0, owner: -1, is-agent: 0
    [19]: document17, type: 1, is-constant: 0, is-private: 0, owner: -1, is-agent: 0
    [20]: document18, type: 1, is-constant: 0, is-private: 0, owner: -1, is-agent: 0
    [21]: document19, type: 1, is-constant: 0, is-private: 0, owner: -1, is-agent: 0
    [22]: document20, type: 1, is-constant: 0, is-private: 0, owner: -1, is-agent: 0
    [23]: document21, type: 1, is-constant: 0, is-private: 0, owner: -1, is-agent: 0
    [24]: document22, type: 1, is-constant: 0, is-private: 0, owner: -1, is-agent: 0
    [25]: document23, type: 1, is-constant: 0, is-private: 0, owner: -1, is-agent: 0
    [26]: document24, type: 1, is-constant: 0, is-private: 0, owner: -1, is-agent: 0
    [27]: document25, type: 1, is-constant: 0, is-private: 0, owner: -1, is-agent: 0
    [28]: document26, type: 1, is-constant: 0, is-private: 0, owner: -1, is-agent: 0
    [29]: document27, type: 1, is-constant: 0, is-private: 0, owner: -1, is-agent: 0
    [30]: document28, type: 1, is-constant: 0, is-private: 0, owner: -1, is-agent: 0
    [31]: document29, type: 1, is-constant: 0, is-private: 0, owner: -1, is-agent: 0
    [32]: document30, type: 1, is-constant: 0, is-private: 0, owner: -1, is-agent: 0
    [33]: document31, type: 1, is-constant: 0, is-private: 0, owner: -1, is-agent: 0
    [34]: office1, type: 2, is-constant: 0, is-private: 0, owner: -1, is-agent: 0
    [35]: office2, type: 2, is-constant: 0, is-private: 0, owner: -1, is-agent: 0
    [36]: office3, type: 2, is-constant: 0, is-private: 0, owner: -1, is-agent: 0
    [37]: office4, type: 2, is-constant: 0, is-private: 0, owner: -1, is-agent: 0
    [38]: office5, type: 2, is-constant: 0, is-private: 0, owner: -1, is-agent: 0
    [39]: office6, type: 2, is-constant: 0, is-private: 0, owner: -1, is-agent: 0
    [40]: office7, type: 2, is-constant: 0, is-private: 0, owner: -1, is-agent: 0
    [41]: office8, type: 2, is-constant: 0, is-private: 0, owner: -1, is-agent: 0
    [42]: office9, type: 2, is-constant: 0, is-private: 0, owner: -1, is-agent: 0
    [43]: office10, type: 2, is-constant: 0, is-private: 0, owner: -1, is-agent: 0
    [44]: office11, type: 2, is-constant: 0, is-private: 0, owner: -1, is-agent: 0
    [45]: office12, type: 2, is-constant: 0, is-private: 0, owner: -1, is-agent: 0
    [46]: office13, type: 2, is-constant: 0, is-private: 0, owner: -1, is-agent: 0
    [47]: office14, type: 2, is-constant: 0, is-private: 0, owner: -1, is-agent: 0
    [48]: office15, type: 2, is-constant: 0, is-private: 0, owner: -1, is-agent: 0
    [49]: office16, type: 2, is-constant: 0, is-private: 0, owner: -1, is-agent: 0
    [50]: office17, type: 2, is-constant: 0, is-private: 0, owner: -1, is-agent: 0
    [51]: office18, type: 2, is-constant: 0, is-private: 0, owner: -1, is-agent: 0
    [52]: office19, type: 2, is-constant: 0, is-private: 0, owner: -1, is-agent: 0
    [53]: office20, type: 2, is-constant: 0, is-private: 0, owner: -1, is-agent: 0
    [54]: office21, type: 2, is-constant: 0, is-private: 0, owner: -1, is-agent: 0
    [55]: office22, type: 2, is-constant: 0, is-private: 0, owner: -1, is-agent: 0
    [56]: office23, type: 2, is-constant: 0, is-private: 0, owner: -1, is-agent: 0
    [57]: office24, type: 2, is-constant: 0, is-private: 0, owner: -1, is-agent: 0
    [58]: office25, type: 2, is-constant: 0, is-private: 0, owner: -1, is-agent: 0
    [59]: depot, type: 2, is-constant: 0, is-private: 0, owner: -1, is-agent: 0
Predicate[5]:
    =: 0 0 :: is-private: 0, owner-param: -1, read: 0, write: 0
    track: 2 2 :: is-private: 0, owner-param: -1, read: 1, write: 0
    at: 1 2 :: is-private: 0, owner-param: -1, read: 1, write: 1
    in-train: 1 :: is-private: 0, owner-param: -1, read: 1, write: 1
    train-at: 2 :: is-private: 0, owner-param: -1, read: 1, write: 1
Function[0]:
Action[3]:
    drive: ?l1:2 ?l2:2 ?g:1
        pre: (and (RW:train-at ?l1) (R:track ?l1 ?l2) (RW:in-train ?g))
        eff: (and (N:RW:train-at ?l1) (RW:train-at ?l2) (N:RW:in-train ?g))
    pickup-documents: ?l:2 ?d:1
        pre: (and (RW:train-at ?l) (RW:at ?d ?l))
        eff: (and (N:RW:at ?d ?l) (RW:in-train ?d))
    deposit-documents: ?l:2 ?d:1
        pre: (and (RW:train-at ?l) (RW:in-train ?d))
        eff: (and (N:RW:in-train ?d) (RW:at ?d ?l))
Init[90]:
  (train-at office1)
  (in-train fuel1)
  (in-train fuel2)
  (at document1 office7)
  (at document2 office7)
  (at document3 office7)
  (at document4 office7)
  (at document5 office7)
  (at document6 office7)
  (at document7 office11)
  (at document8 office11)
  (at document9 office11)
  (at document10 office11)
  (at document11 office11)
  (at document12 office11)
  (at document13 office11)
  (at document14 office12)
  (at document15 office12)
  (at document16 office12)
  (at document17 office12)
  (at document18 office12)
  (at document19 office14)
  (at document20 office14)
  (at document21 office14)
  (at document22 office14)
  (at document23 office14)
  (at document24 office16)
  (at document25 office16)
  (at document26 office16)
  (at document27 office25)
  (at document28 office25)
  (at document29 office25)
  (at document30 office25)
  (at document31 office25)
  S:(track office1 office)
  S:(track office1 office2)
  S:(track office2 office15)
  S:(track office2 office1)
  S:(track office2 office3)
  S:(track office3 office)
  S:(track office3 office4)
  S:(track office4 office21)
  S:(track office4 office5)
  S:(track office5 office8)
  S:(track office5 office6)
  S:(track office6 office)
  S:(track office6 office7)
  S:(track office7 office)
  S:(track office7 office8)
  S:(track office8 office5)
  S:(track office8 office9)
  S:(track office9 office24)
  S:(track office9 office10)
  S:(track office10 office)
  S:(track office10 office11)
  S:(track office11 office15)
  S:(track office11 office12)
  S:(track office12 office)
  S:(track office12 office13)
  S:(track office13 office)
  S:(track office13 office14)
  S:(track office14 office21)
  S:(track office14 office15)
  S:(track office15 office2)
  S:(track office15 office7)
  S:(track office15 office16)
  S:(track office16 office)
  S:(track office16 office17)
  S:(track office17 office5)
  S:(track office17 office18)
  S:(track office18 office)
  S:(track office18 office19)
  S:(track office19 office)
  S:(track office19 office20)
  S:(track office20 office)
  S:(track office20 office21)
  S:(track office21 office6)
  S:(track office21 office23)
  S:(track office21 office22)
  S:(track office22 office)
  S:(track office22 office23)
  S:(track office23 office8)
  S:(track office23 office24)
  S:(track office24 office24)
  S:(track office24 office6)
  S:(track office24 office25)
  S:(track office25 office24)
  S:(track office25 office25)
  S:(track office25 depot)
  S:(track depot office)
Init[0]:
Goal: (and (RW:at document1 depot) (RW:at document2 depot) (RW:at document3 depot) (RW:at document4 depot) (RW:at document7 depot) (RW:at document9 depot) (RW:at document13 depot) (RW:at document14 depot) (RW:at document16 depot) (RW:at document19 depot) (RW:at document20 depot) (RW:at document21 depot) (RW:at document23 depot) (RW:at document24 depot) (RW:at document25 depot) (RW:at document26 depot) (RW:at document27 depot) (RW:at document28 depot) (RW:at document30 depot))
Metric: 0
