Domain: resources
Problem: grid-prob-8-2
Require: ff
Type[1]:
    [0]: object, parent: -1
Obj-by-Type:
    [0]: 0 1 2 3 4 5 6 7 8 9 10 11 12 13 14 15 16 17 18 19 20 21 22 23 24 25 26 27 28 29 30 31 32 33 34 35 36 37 38 39 40 41 42 43 44 45 46 47 48 49 50 51 52 53 54 55 56 57 58 59 60 61 62 63 64 65
Obj[66]:
    [0]: p0, type: 0, is-constant: 0, is-private: 0, owner: -1, is-agent: 0
    [1]: p1, type: 0, is-constant: 0, is-private: 0, owner: -1, is-agent: 0
    [2]: p2, type: 0, is-constant: 0, is-private: 0, owner: -1, is-agent: 0
    [3]: p3, type: 0, is-constant: 0, is-private: 0, owner: -1, is-agent: 0
    [4]: p4, type: 0, is-constant: 0, is-private: 0, owner: -1, is-agent: 0
    [5]: p5, type: 0, is-constant: 0, is-private: 0, owner: -1, is-agent: 0
    [6]: p6, type: 0, is-constant: 0, is-private: 0, owner: -1, is-agent: 0
    [7]: p7, type: 0, is-constant: 0, is-private: 0, owner: -1, is-agent: 0
    [8]: loc-0-0, type: 0, is-constant: 0, is-private: 0, owner: -1, is-agent: 0
    [9]: loc-0-1, type: 0, is-constant: 0, is-private: 0, owner: -1, is-agent: 0
    [10]: loc-0-2, type: 0, is-constant: 0, is-private: 0, owner: -1, is-agent: 0
    [11]: loc-0-3, type: 0, is-constant: 0, is-private: 0, owner: -1, is-agent: 0
    [12]: loc-0-4, type: 0, is-constant: 0, is-private: 0, owner: -1, is-agent: 0
    [13]: loc-0-5, type: 0, is-constant: 0, is-private: 0, owner: -1, is-agent: 0
    [14]: loc-0-6, type: 0, is-constant: 0, is-private: 0, owner: -1, is-agent: 0
    [15]: loc-0-7, type: 0, is-constant: 0, is-private: 0, owner: -1, is-agent: 0
    [16]: loc-1-0, type: 0, is-constant: 0, is-private: 0, owner: -1, is-agent: 0
    [17]: loc-1-1, type: 0, is-constant: 0, is-private: 0, owner: -1, is-agent: 0
    [18]: loc-1-2, type: 0, is-constant: 0, is-private: 0, owner: -1, is-agent: 0
    [19]: loc-1-3, type: 0, is-constant: 0, is-private: 0, owner: -1, is-agent: 0
    [20]: loc-1-4, type: 0, is-constant: 0, is-private: 0, owner: -1, is-agent: 0
    [21]: loc-1-5, type: 0, is-constant: 0, is-private: 0, owner: -1, is-agent: 0
    [22]: loc-1-6, type: 0, is-constant: 0, is-private: 0, owner: -1, is-agent: 0
    [23]: loc-1-7, type: 0, is-constant: 0, is-private: 0, owner: -1, is-agent: 0
    [24]: loc-2-0, type: 0, is-constant: 0, is-private: 0, owner: -1, is-agent: 0
    [25]: loc-2-1, type: 0, is-constant: 0, is-private: 0, owner: -1, is-agent: 0
    [26]: loc-2-2, type: 0, is-constant: 0, is-private: 0, owner: -1, is-agent: 0
    [27]: loc-2-3, type: 0, is-constant: 0, is-private: 0, owner: -1, is-agent: 0
    [28]: loc-2-4, type: 0, is-constant: 0, is-private: 0, owner: -1, is-agent: 0
    [29]: loc-2-5, type: 0, is-constant: 0, is-private: 0, owner: -1, is-agent: 0
    [30]: loc-2-6, type: 0, is-constant: 0, is-private: 0, owner: -1, is-agent: 0
    [31]: loc-2-7, type: 0, is-constant: 0, is-private: 0, owner: -1, is-agent: 0
    [32]: loc-3-0, type: 0, is-constant: 0, is-private: 0, owner: -1, is-agent: 0
    [33]: loc-3-1, type: 0, is-constant: 0, is-private: 0, owner: -1, is-agent: 0
    [34]: loc-3-2, type: 0, is-constant: 0, is-private: 0, owner: -1, is-agent: 0
    [35]: loc-3-3, type: 0, is-constant: 0, is-private: 0, owner: -1, is-agent: 0
    [36]: loc-3-4, type: 0, is-constant: 0, is-private: 0, owner: -1, is-agent: 0
    [37]: loc-3-5, type: 0, is-constant: 0, is-private: 0, owner: -1, is-agent: 0
    [38]: loc-3-6, type: 0, is-constant: 0, is-private: 0, owner: -1, is-agent: 0
    [39]: loc-3-7, type: 0, is-constant: 0, is-private: 0, owner: -1, is-agent: 0
    [40]: loc-4-0, type: 0, is-constant: 0, is-private: 0, owner: -1, is-agent: 0
    [41]: loc-4-1, type: 0, is-constant: 0, is-private: 0, owner: -1, is-agent: 0
    [42]: loc-5-0, type: 0, is-constant: 0, is-private: 0, owner: -1, is-agent: 0
    [43]: loc-5-1, type: 0, is-constant: 0, is-private: 0, owner: -1, is-agent: 0
    [44]: loc-5-2, type: 0, is-constant: 0, is-private: 0, owner: -1, is-agent: 0
    [45]: loc-5-3, type: 0, is-constant: 0, is-private: 0, owner: -1, is-agent: 0
    [46]: loc-5-4, type: 0, is-constant: 0, is-private: 0, owner: -1, is-agent: 0
    [47]: loc-5-5, type: 0, is-constant: 0, is-private: 0, owner: -1, is-agent: 0
    [48]: loc-5-6, type: 0, is-constant: 0, is-private: 0, owner: -1, is-agent: 0
    [49]: loc-5-7, type: 0, is-constant: 0, is-private: 0, owner: -1, is-agent: 0
    [50]: loc-6-0, type: 0, is-constant: 0, is-private: 0, owner: -1, is-agent: 0
    [51]: loc-6-1, type: 0, is-constant: 0, is-private: 0, owner: -1, is-agent: 0
    [52]: loc-6-2, type: 0, is-constant: 0, is-private: 0, owner: -1, is-agent: 0
    [53]: loc-6-3, type: 0, is-constant: 0, is-private: 0, owner: -1, is-agent: 0
    [54]: loc-6-4, type: 0, is-constant: 0, is-private: 0, owner: -1, is-agent: 0
    [55]: loc-6-5, type: 0, is-constant: 0, is-private: 0, owner: -1, is-agent: 0
    [56]: loc-6-6, type: 0, is-constant: 0, is-private: 0, owner: -1, is-agent: 0
    [57]: loc-6-7, type: 0, is-constant: 0, is-private: 0, owner: -1, is-agent: 0
    [58]: loc-7-0, type: 0, is-constant: 0, is-private: 0, owner: -1, is-agent: 0
    [59]: loc-7-1, type: 0, is-constant: 0, is-private: 0, owner: -1, is-agent: 0
    [60]: loc-7-2, type: 0, is-constant: 0, is-private: 0, owner: -1, is-agent: 0
    [61]: loc-7-3, type: 0, is-constant: 0, is-private: 0, owner: -1, is-agent: 0
    [62]: loc-7-4, type: 0, is-constant: 0, is-private: 0, owner: -1, is-agent: 0
    [63]: loc-7-5, type: 0, is-constant: 0, is-private: 0, owner: -1, is-agent: 0
    [64]: loc-7-6, type: 0, is-constant: 0, is-private: 0, owner: -1, is-agent: 0
    [65]: loc-7-7, type: 0, is-constant: 0, is-private: 0, owner: -1, is-agent: 0
Predicate[6]:
    =: 0 0 :: is-private: 0, owner-param: -1, read: 0, write: 0
    location: 0 :: is-private: 0, owner-param: -1, read: 1, write: 0
    person: 0 :: is-private: 0, owner-param: -1, read: 1, write: 0
    person-at: 0 0 :: is-private: 0, owner-param: -1, read: 1, write: 1
    connected: 0 0 :: is-private: 0, owner-param: -1, read: 1, write: 0
    active: 0 :: is-private: 0, owner-param: -1, read: 1, write: 1
Function[0]:
Action[1]:
    move: ?p:0 ?l1:0 ?l2:0
        pre: (and (R:person ?p) (RW:person-at ?p ?l1) (R:location ?l1) (R:location ?l2) (R:connected ?l1 ?l2) (RW:active ?l2))
        eff: (and (RW:person-at ?p ?l2) (N:RW:person-at ?p ?l1) (N:RW:active ?l2))
Init[312]:
  S:(person p0)
  S:(person p1)
  S:(person p2)
  S:(person p3)
  S:(person p4)
  S:(person p5)
  S:(person p6)
  S:(person p7)
  S:(location loc-0-0)
  S:(location loc-0-1)
  S:(location loc-0-2)
  S:(location loc-0-3)
  S:(location loc-0-4)
  S:(location loc-0-5)
  S:(location loc-0-6)
  S:(location loc-0-7)
  S:(location loc-1-0)
  S:(location loc-1-1)
  S:(location loc-1-2)
  S:(location loc-1-3)
  S:(location loc-1-4)
  S:(location loc-1-5)
  S:(location loc-1-6)
  S:(location loc-1-7)
  S:(location loc-2-0)
  S:(location loc-2-1)
  S:(location loc-2-2)
  S:(location loc-2-3)
  S:(location loc-2-4)
  S:(location loc-2-5)
  S:(location loc-2-6)
  S:(location loc-2-7)
  S:(location loc-3-0)
  S:(location loc-3-1)
  S:(location loc-3-2)
  S:(location loc-3-3)
  S:(location loc-3-4)
  S:(location loc-3-5)
  S:(location loc-3-6)
  S:(location loc-3-7)
  S:(location loc-4-0)
  S:(location loc-4-1)
  S:(location loc-5-0)
  S:(location loc-5-1)
  S:(location loc-5-2)
  S:(location loc-5-3)
  S:(location loc-5-4)
  S:(location loc-5-5)
  S:(location loc-5-6)
  S:(location loc-5-7)
  S:(location loc-6-0)
  S:(location loc-6-1)
  S:(location loc-6-2)
  S:(location loc-6-3)
  S:(location loc-6-4)
  S:(location loc-6-5)
  S:(location loc-6-6)
  S:(location loc-6-7)
  S:(location loc-7-0)
  S:(location loc-7-1)
  S:(location loc-7-2)
  S:(location loc-7-3)
  S:(location loc-7-4)
  S:(location loc-7-5)
  S:(location loc-7-6)
  S:(location loc-7-7)
  (active loc-1-0)
  (active loc-1-1)
  (active loc-1-2)
  (active loc-1-3)
  (active loc-1-4)
  (active loc-1-5)
  (active loc-1-6)
  (active loc-1-7)
  (active loc-2-0)
  (active loc-2-1)
  (active loc-2-2)
  (active loc-2-3)
  (active loc-2-4)
  (active loc-2-5)
  (active loc-2-6)
  (active loc-2-7)
  (active loc-3-0)
  (active loc-3-1)
  (active loc-3-2)
  (active loc-3-3)
  (active loc-3-4)
  (active loc-3-5)
  (active loc-3-6)
  (active loc-3-7)
  (active loc-4-0)
  (active loc-4-1)
  (active loc-5-0)
  (active loc-5-1)
  (active loc-5-2)
  (active loc-5-3)
  (active loc-5-4)
  (active loc-5-5)
  (active loc-5-6)
  (active loc-5-7)
  (active loc-6-0)
  (active loc-6-1)
  (active loc-6-2)
  (active loc-6-3)
  (active loc-6-4)
  (active loc-6-5)
  (active loc-6-6)
  (active loc-6-7)
  (active loc-7-0)
  (active loc-7-1)
  (active loc-7-2)
  (active loc-7-3)
  (active loc-7-4)
  (active loc-7-5)
  (active loc-7-6)
  (active loc-7-7)
  S:(connected loc-0-0 loc-1-0)
  S:(connected loc-0-1 loc-1-1)
  S:(connected loc-0-2 loc-1-2)
  S:(connected loc-0-3 loc-1-3)
  S:(connected loc-0-4 loc-1-4)
  S:(connected loc-0-5 loc-1-5)
  S:(connected loc-0-6 loc-1-6)
  S:(connected loc-0-7 loc-1-7)
  S:(connected loc-1-0 loc-2-0)
  S:(connected loc-1-1 loc-2-1)
  S:(connected loc-1-2 loc-2-2)
  S:(connected loc-1-3 loc-2-3)
  S:(connected loc-1-4 loc-2-4)
  S:(connected loc-1-5 loc-2-5)
  S:(connected loc-1-6 loc-2-6)
  S:(connected loc-1-7 loc-2-7)
  S:(connected loc-2-0 loc-3-0)
  S:(connected loc-2-1 loc-3-1)
  S:(connected loc-2-2 loc-3-2)
  S:(connected loc-2-3 loc-3-3)
  S:(connected loc-2-4 loc-3-4)
  S:(connected loc-2-5 loc-3-5)
  S:(connected loc-2-6 loc-3-6)
  S:(connected loc-2-7 loc-3-7)
  S:(connected loc-3-0 loc-4-0)
  S:(connected loc-3-1 loc-4-1)
  S:(connected loc-4-0 loc-5-0)
  S:(connected loc-4-1 loc-5-1)
  S:(connected loc-5-0 loc-6-0)
  S:(connected loc-5-1 loc-6-1)
  S:(connected loc-5-2 loc-6-2)
  S:(connected loc-5-3 loc-6-3)
  S:(connected loc-5-4 loc-6-4)
  S:(connected loc-5-5 loc-6-5)
  S:(connected loc-5-6 loc-6-6)
  S:(connected loc-5-7 loc-6-7)
  S:(connected loc-6-0 loc-7-0)
  S:(connected loc-6-1 loc-7-1)
  S:(connected loc-6-2 loc-7-2)
  S:(connected loc-6-3 loc-7-3)
  S:(connected loc-6-4 loc-7-4)
  S:(connected loc-6-5 loc-7-5)
  S:(connected loc-6-6 loc-7-6)
  S:(connected loc-6-7 loc-7-7)
  S:(connected loc-1-0 loc-0-0)
  S:(connected loc-1-1 loc-0-1)
  S:(connected loc-1-2 loc-0-2)
  S:(connected loc-1-3 loc-0-3)
  S:(connected loc-1-4 loc-0-4)
  S:(connected loc-1-5 loc-0-5)
  S:(connected loc-1-6 loc-0-6)
  S:(connected loc-1-7 loc-0-7)
  S:(connected loc-2-0 loc-1-0)
  S:(connected loc-2-1 loc-1-1)
  S:(connected loc-2-2 loc-1-2)
  S:(connected loc-2-3 loc-1-3)
  S:(connected loc-2-4 loc-1-4)
  S:(connected loc-2-5 loc-1-5)
  S:(connected loc-2-6 loc-1-6)
  S:(connected loc-2-7 loc-1-7)
  S:(connected loc-3-0 loc-2-0)
  S:(connected loc-3-1 loc-2-1)
  S:(connected loc-3-2 loc-2-2)
  S:(connected loc-3-3 loc-2-3)
  S:(connected loc-3-4 loc-2-4)
  S:(connected loc-3-5 loc-2-5)
  S:(connected loc-3-6 loc-2-6)
  S:(connected loc-3-7 loc-2-7)
  S:(connected loc-4-0 loc-3-0)
  S:(connected loc-4-1 loc-3-1)
  S:(connected loc-5-0 loc-4-0)
  S:(connected loc-5-1 loc-4-1)
  S:(connected loc-6-0 loc-5-0)
  S:(connected loc-6-1 loc-5-1)
  S:(connected loc-6-2 loc-5-2)
  S:(connected loc-6-3 loc-5-3)
  S:(connected loc-6-4 loc-5-4)
  S:(connected loc-6-5 loc-5-5)
  S:(connected loc-6-6 loc-5-6)
  S:(connected loc-6-7 loc-5-7)
  S:(connected loc-7-0 loc-6-0)
  S:(connected loc-7-1 loc-6-1)
  S:(connected loc-7-2 loc-6-2)
  S:(connected loc-7-3 loc-6-3)
  S:(connected loc-7-4 loc-6-4)
  S:(connected loc-7-5 loc-6-5)
  S:(connected loc-7-6 loc-6-6)
  S:(connected loc-7-7 loc-6-7)
  S:(connected loc-0-0 loc-0-1)
  S:(connected loc-0-1 loc-0-2)
  S:(connected loc-0-2 loc-0-3)
  S:(connected loc-0-3 loc-0-4)
  S:(connected loc-0-4 loc-0-5)
  S:(connected loc-0-5 loc-0-6)
  S:(connected loc-0-6 loc-0-7)
  S:(connected loc-1-0 loc-1-1)
  S:(connected loc-1-1 loc-1-2)
  S:(connected loc-1-2 loc-1-3)
  S:(connected loc-1-3 loc-1-4)
  S:(connected loc-1-4 loc-1-5)
  S:(connected loc-1-5 loc-1-6)
  S:(connected loc-1-6 loc-1-7)
  S:(connected loc-2-0 loc-2-1)
  S:(connected loc-2-1 loc-2-2)
  S:(connected loc-2-2 loc-2-3)
  S:(connected loc-2-3 loc-2-4)
  S:(connected loc-2-4 loc-2-5)
  S:(connected loc-2-5 loc-2-6)
  S:(connected loc-2-6 loc-2-7)
  S:(connected loc-3-0 loc-3-1)
  S:(connected loc-3-1 loc-3-2)
  S:(connected loc-3-2 loc-3-3)
  S:(connected loc-3-3 loc-3-4)
  S:(connected loc-3-4 loc-3-5)
  S:(connected loc-3-5 loc-3-6)
  S:(connected loc-3-6 loc-3-7)
  S:(connected loc-4-0 loc-4-1)
  S:(connected loc-5-0 loc-5-1)
  S:(connected loc-5-1 loc-5-2)
  S:(connected loc-5-2 loc-5-3)
  S:(connected loc-5-3 loc-5-4)
  S:(connected loc-5-4 loc-5-5)
  S:(connected loc-5-5 loc-5-6)
  S:(connected loc-5-6 loc-5-7)
  S:(connected loc-6-0 loc-6-1)
  S:(connected loc-6-1 loc-6-2)
  S:(connected loc-6-2 loc-6-3)
  S:(connected loc-6-3 loc-6-4)
  S:(connected loc-6-4 loc-6-5)
  S:(connected loc-6-5 loc-6-6)
  S:(connected loc-6-6 loc-6-7)
  S:(connected loc-7-0 loc-7-1)
  S:(connected loc-7-1 loc-7-2)
  S:(connected loc-7-2 loc-7-3)
  S:(connected loc-7-3 loc-7-4)
  S:(connected loc-7-4 loc-7-5)
  S:(connected loc-7-5 loc-7-6)
  S:(connected loc-7-6 loc-7-7)
  S:(connected loc-0-1 loc-0-0)
  S:(connected loc-0-2 loc-0-1)
  S:(connected loc-0-3 loc-0-2)
  S:(connected loc-0-4 loc-0-3)
  S:(connected loc-0-5 loc-0-4)
  S:(connected loc-0-6 loc-0-5)
  S:(connected loc-0-7 loc-0-6)
  S:(connected loc-1-1 loc-1-0)
  S:(connected loc-1-2 loc-1-1)
  S:(connected loc-1-3 loc-1-2)
  S:(connected loc-1-4 loc-1-3)
  S:(connected loc-1-5 loc-1-4)
  S:(connected loc-1-6 loc-1-5)
  S:(connected loc-1-7 loc-1-6)
  S:(connected loc-2-1 loc-2-0)
  S:(connected loc-2-2 loc-2-1)
  S:(connected loc-2-3 loc-2-2)
  S:(connected loc-2-4 loc-2-3)
  S:(connected loc-2-5 loc-2-4)
  S:(connected loc-2-6 loc-2-5)
  S:(connected loc-2-7 loc-2-6)
  S:(connected loc-3-1 loc-3-0)
  S:(connected loc-3-2 loc-3-1)
  S:(connected loc-3-3 loc-3-2)
  S:(connected loc-3-4 loc-3-3)
  S:(connected loc-3-5 loc-3-4)
  S:(connected loc-3-6 loc-3-5)
  S:(connected loc-3-7 loc-3-6)
  S:(connected loc-4-1 loc-4-0)
  S:(connected loc-5-1 loc-5-0)
  S:(connected loc-5-2 loc-5-1)
  S:(connected loc-5-3 loc-5-2)
  S:(connected loc-5-4 loc-5-3)
  S:(connected loc-5-5 loc-5-4)
  S:(connected loc-5-6 loc-5-5)
  S:(connected loc-5-7 loc-5-6)
  S:(connected loc-6-1 loc-6-0)
  S:(connected loc-6-2 loc-6-1)
  S:(connected loc-6-3 loc-6-2)
  S:(connected loc-6-4 loc-6-3)
  S:(connected loc-6-5 loc-6-4)
  S:(connected loc-6-6 loc-6-5)
  S:(connected loc-6-7 loc-6-6)
  S:(connected loc-7-1 loc-7-0)
  S:(connected loc-7-2 loc-7-1)
  S:(connected loc-7-3 loc-7-2)
  S:(connected loc-7-4 loc-7-3)
  S:(connected loc-7-5 loc-7-4)
  S:(connected loc-7-6 loc-7-5)
  S:(connected loc-7-7 loc-7-6)
  (person-at p0 loc-0-0)
  (person-at p1 loc-0-1)
  (person-at p2 loc-0-2)
  (person-at p3 loc-0-3)
  (person-at p4 loc-0-4)
  (person-at p5 loc-0-5)
  (person-at p6 loc-0-6)
  (person-at p7 loc-0-7)
Init[0]:
Goal: (and (RW:person-at p0 loc-7-0) (RW:person-at p1 loc-7-1) (RW:person-at p2 loc-7-2) (RW:person-at p3 loc-7-3) (RW:person-at p4 loc-7-4) (RW:person-at p5 loc-7-5) (RW:person-at p6 loc-7-6) (RW:person-at p7 loc-7-7))
Metric: 0
