Domain: transport-strips
Problem: transport-l8-t1-p8---int100n150-m25---int100c40---s131026---e0
Require: 200ff
Type[5]:
    [0]: object, parent: -1
    [1]: package, parent: 0
    [2]: truck, parent: 0
    [3]: location, parent: 0
    [4]: fuellevel, parent: 0
Obj-by-Type:
    [0]: 0 1 2 3 4 5 6 7 8 9 10 11 12 13 14 15 16 17 18 19 20 21 22 23 24 25 26 27 28 29 30 31 32 33 34 35 36 37 38 39 40 41 42 43 44 45 46 47 48 49 50 51 52 53 54 55 56 57 58 59
    [1]: 9 10 11 12 13 14 15 16
    [2]: 8
    [3]: 0 1 2 3 4 5 6 7
    [4]: 17 18 19 20 21 22 23 24 25 26 27 28 29 30 31 32 33 34 35 36 37 38 39 40 41 42 43 44 45 46 47 48 49 50 51 52 53 54 55 56 57 58 59
Obj[60]:
    [0]: l0, type: 3, is-constant: 0, is-private: 0, owner: -1, is-agent: 0
    [1]: l1, type: 3, is-constant: 0, is-private: 0, owner: -1, is-agent: 0
    [2]: l2, type: 3, is-constant: 0, is-private: 0, owner: -1, is-agent: 0
    [3]: l3, type: 3, is-constant: 0, is-private: 0, owner: -1, is-agent: 0
    [4]: l4, type: 3, is-constant: 0, is-private: 0, owner: -1, is-agent: 0
    [5]: l5, type: 3, is-constant: 0, is-private: 0, owner: -1, is-agent: 0
    [6]: l6, type: 3, is-constant: 0, is-private: 0, owner: -1, is-agent: 0
    [7]: l7, type: 3, is-constant: 0, is-private: 0, owner: -1, is-agent: 0
    [8]: t0, type: 2, is-constant: 0, is-private: 0, owner: -1, is-agent: 0
    [9]: p0, type: 1, is-constant: 0, is-private: 0, owner: -1, is-agent: 0
    [10]: p1, type: 1, is-constant: 0, is-private: 0, owner: -1, is-agent: 0
    [11]: p2, type: 1, is-constant: 0, is-private: 0, owner: -1, is-agent: 0
    [12]: p3, type: 1, is-constant: 0, is-private: 0, owner: -1, is-agent: 0
    [13]: p4, type: 1, is-constant: 0, is-private: 0, owner: -1, is-agent: 0
    [14]: p5, type: 1, is-constant: 0, is-private: 0, owner: -1, is-agent: 0
    [15]: p6, type: 1, is-constant: 0, is-private: 0, owner: -1, is-agent: 0
    [16]: p7, type: 1, is-constant: 0, is-private: 0, owner: -1, is-agent: 0
    [17]: level0, type: 4, is-constant: 0, is-private: 0, owner: -1, is-agent: 0
    [18]: level1, type: 4, is-constant: 0, is-private: 0, owner: -1, is-agent: 0
    [19]: level2, type: 4, is-constant: 0, is-private: 0, owner: -1, is-agent: 0
    [20]: level3, type: 4, is-constant: 0, is-private: 0, owner: -1, is-agent: 0
    [21]: level4, type: 4, is-constant: 0, is-private: 0, owner: -1, is-agent: 0
    [22]: level5, type: 4, is-constant: 0, is-private: 0, owner: -1, is-agent: 0
    [23]: level6, type: 4, is-constant: 0, is-private: 0, owner: -1, is-agent: 0
    [24]: level7, type: 4, is-constant: 0, is-private: 0, owner: -1, is-agent: 0
    [25]: level8, type: 4, is-constant: 0, is-private: 0, owner: -1, is-agent: 0
    [26]: level9, type: 4, is-constant: 0, is-private: 0, owner: -1, is-agent: 0
    [27]: level10, type: 4, is-constant: 0, is-private: 0, owner: -1, is-agent: 0
    [28]: level11, type: 4, is-constant: 0, is-private: 0, owner: -1, is-agent: 0
    [29]: level12, type: 4, is-constant: 0, is-private: 0, owner: -1, is-agent: 0
    [30]: level13, type: 4, is-constant: 0, is-private: 0, owner: -1, is-agent: 0
    [31]: level14, type: 4, is-constant: 0, is-private: 0, owner: -1, is-agent: 0
    [32]: level15, type: 4, is-constant: 0, is-private: 0, owner: -1, is-agent: 0
    [33]: level16, type: 4, is-constant: 0, is-private: 0, owner: -1, is-agent: 0
    [34]: level17, type: 4, is-constant: 0, is-private: 0, owner: -1, is-agent: 0
    [35]: level18, type: 4, is-constant: 0, is-private: 0, owner: -1, is-agent: 0
    [36]: level19, type: 4, is-constant: 0, is-private: 0, owner: -1, is-agent: 0
    [37]: level20, type: 4, is-constant: 0, is-private: 0, owner: -1, is-agent: 0
    [38]: level21, type: 4, is-constant: 0, is-private: 0, owner: -1, is-agent: 0
    [39]: level22, type: 4, is-constant: 0, is-private: 0, owner: -1, is-agent: 0
    [40]: level23, type: 4, is-constant: 0, is-private: 0, owner: -1, is-agent: 0
    [41]: level24, type: 4, is-constant: 0, is-private: 0, owner: -1, is-agent: 0
    [42]: level25, type: 4, is-constant: 0, is-private: 0, owner: -1, is-agent: 0
    [43]: level26, type: 4, is-constant: 0, is-private: 0, owner: -1, is-agent: 0
    [44]: level27, type: 4, is-constant: 0, is-private: 0, owner: -1, is-agent: 0
    [45]: level28, type: 4, is-constant: 0, is-private: 0, owner: -1, is-agent: 0
    [46]: level29, type: 4, is-constant: 0, is-private: 0, owner: -1, is-agent: 0
    [47]: level30, type: 4, is-constant: 0, is-private: 0, owner: -1, is-agent: 0
    [48]: level31, type: 4, is-constant: 0, is-private: 0, owner: -1, is-agent: 0
    [49]: level32, type: 4, is-constant: 0, is-private: 0, owner: -1, is-agent: 0
    [50]: level33, type: 4, is-constant: 0, is-private: 0, owner: -1, is-agent: 0
    [51]: level34, type: 4, is-constant: 0, is-private: 0, owner: -1, is-agent: 0
    [52]: level35, type: 4, is-constant: 0, is-private: 0, owner: -1, is-agent: 0
    [53]: level36, type: 4, is-constant: 0, is-private: 0, owner: -1, is-agent: 0
    [54]: level37, type: 4, is-constant: 0, is-private: 0, owner: -1, is-agent: 0
    [55]: level38, type: 4, is-constant: 0, is-private: 0, owner: -1, is-agent: 0
    [56]: level39, type: 4, is-constant: 0, is-private: 0, owner: -1, is-agent: 0
    [57]: level40, type: 4, is-constant: 0, is-private: 0, owner: -1, is-agent: 0
    [58]: level41, type: 4, is-constant: 0, is-private: 0, owner: -1, is-agent: 0
    [59]: level42, type: 4, is-constant: 0, is-private: 0, owner: -1, is-agent: 0
Predicate[7]:
    =: 0 0 :: is-private: 0, owner-param: -1, read: 0, write: 0
    connected: 3 3 :: is-private: 0, owner-param: -1, read: 1, write: 0
    at: 0 3 :: is-private: 0, owner-param: -1, read: 1, write: 1
    in: 1 2 :: is-private: 0, owner-param: -1, read: 1, write: 1
    fuel: 2 4 :: is-private: 0, owner-param: -1, read: 1, write: 1
    fuelcost: 4 3 3 :: is-private: 0, owner-param: -1, read: 1, write: 0
    sum: 4 4 4 :: is-private: 0, owner-param: -1, read: 1, write: 0
Function[1]:
    total-cost: :: is-private: 0, owner-param: -1, read: 0, write: 0
Action[3]:
    load: ?p:1 ?t:2 ?l:3
        pre: (and (RW:at ?t ?l) (RW:at ?p ?l))
        eff: (and (N:RW:at ?p ?l) (RW:in ?p ?t) (increase (total-cost) 1))
    unload: ?p:1 ?t:2 ?l:3
        pre: (and (RW:at ?t ?l) (RW:in ?p ?t))
        eff: (and (RW:at ?p ?l) (N:RW:in ?p ?t) (increase (total-cost) 1))
    drive: ?t:2 ?l1:3 ?l2:3 ?fuelpost:4 ?fueldelta:4 ?fuelpre:4
        pre: (and (R:connected ?l1 ?l2) (R:fuelcost ?fueldelta ?l1 ?l2) (RW:fuel ?t ?fuelpre) (R:sum ?fuelpost ?fueldelta ?fuelpre) (RW:at ?t ?l1))
        eff: (and (N:RW:at ?t ?l1) (RW:at ?t ?l2) (N:RW:fuel ?t ?fuelpre) (RW:fuel ?t ?fuelpost) (increase (total-cost) 1))
Init[1004]:
  S:(sum level0 level0 level0)
  S:(sum level0 level1 level1)
  S:(sum level0 level2 level2)
  S:(sum level0 level3 level3)
  S:(sum level0 level4 level4)
  S:(sum level0 level5 level5)
  S:(sum level0 level6 level6)
  S:(sum level0 level7 level7)
  S:(sum level0 level8 level8)
  S:(sum level0 level9 level9)
  S:(sum level0 level10 level10)
  S:(sum level0 level11 level11)
  S:(sum level0 level12 level12)
  S:(sum level0 level13 level13)
  S:(sum level0 level14 level14)
  S:(sum level0 level15 level15)
  S:(sum level0 level16 level16)
  S:(sum level0 level17 level17)
  S:(sum level0 level18 level18)
  S:(sum level0 level19 level19)
  S:(sum level0 level20 level20)
  S:(sum level0 level21 level21)
  S:(sum level0 level22 level22)
  S:(sum level0 level23 level23)
  S:(sum level0 level24 level24)
  S:(sum level0 level25 level25)
  S:(sum level0 level26 level26)
  S:(sum level0 level27 level27)
  S:(sum level0 level28 level28)
  S:(sum level0 level29 level29)
  S:(sum level0 level30 level30)
  S:(sum level0 level31 level31)
  S:(sum level0 level32 level32)
  S:(sum level0 level33 level33)
  S:(sum level0 level34 level34)
  S:(sum level0 level35 level35)
  S:(sum level0 level36 level36)
  S:(sum level0 level37 level37)
  S:(sum level0 level38 level38)
  S:(sum level0 level39 level39)
  S:(sum level0 level40 level40)
  S:(sum level0 level41 level41)
  S:(sum level0 level42 level42)
  S:(sum level1 level0 level1)
  S:(sum level1 level1 level2)
  S:(sum level1 level2 level3)
  S:(sum level1 level3 level4)
  S:(sum level1 level4 level5)
  S:(sum level1 level5 level6)
  S:(sum level1 level6 level7)
  S:(sum level1 level7 level8)
  S:(sum level1 level8 level9)
  S:(sum level1 level9 level10)
  S:(sum level1 level10 level11)
  S:(sum level1 level11 level12)
  S:(sum level1 level12 level13)
  S:(sum level1 level13 level14)
  S:(sum level1 level14 level15)
  S:(sum level1 level15 level16)
  S:(sum level1 level16 level17)
  S:(sum level1 level17 level18)
  S:(sum level1 level18 level19)
  S:(sum level1 level19 level20)
  S:(sum level1 level20 level21)
  S:(sum level1 level21 level22)
  S:(sum level1 level22 level23)
  S:(sum level1 level23 level24)
  S:(sum level1 level24 level25)
  S:(sum level1 level25 level26)
  S:(sum level1 level26 level27)
  S:(sum level1 level27 level28)
  S:(sum level1 level28 level29)
  S:(sum level1 level29 level30)
  S:(sum level1 level30 level31)
  S:(sum level1 level31 level32)
  S:(sum level1 level32 level33)
  S:(sum level1 level33 level34)
  S:(sum level1 level34 level35)
  S:(sum level1 level35 level36)
  S:(sum level1 level36 level37)
  S:(sum level1 level37 level38)
  S:(sum level1 level38 level39)
  S:(sum level1 level39 level40)
  S:(sum level1 level40 level41)
  S:(sum level1 level41 level42)
  S:(sum level2 level0 level2)
  S:(sum level2 level1 level3)
  S:(sum level2 level2 level4)
  S:(sum level2 level3 level5)
  S:(sum level2 level4 level6)
  S:(sum level2 level5 level7)
  S:(sum level2 level6 level8)
  S:(sum level2 level7 level9)
  S:(sum level2 level8 level10)
  S:(sum level2 level9 level11)
  S:(sum level2 level10 level12)
  S:(sum level2 level11 level13)
  S:(sum level2 level12 level14)
  S:(sum level2 level13 level15)
  S:(sum level2 level14 level16)
  S:(sum level2 level15 level17)
  S:(sum level2 level16 level18)
  S:(sum level2 level17 level19)
  S:(sum level2 level18 level20)
  S:(sum level2 level19 level21)
  S:(sum level2 level20 level22)
  S:(sum level2 level21 level23)
  S:(sum level2 level22 level24)
  S:(sum level2 level23 level25)
  S:(sum level2 level24 level26)
  S:(sum level2 level25 level27)
  S:(sum level2 level26 level28)
  S:(sum level2 level27 level29)
  S:(sum level2 level28 level30)
  S:(sum level2 level29 level31)
  S:(sum level2 level30 level32)
  S:(sum level2 level31 level33)
  S:(sum level2 level32 level34)
  S:(sum level2 level33 level35)
  S:(sum level2 level34 level36)
  S:(sum level2 level35 level37)
  S:(sum level2 level36 level38)
  S:(sum level2 level37 level39)
  S:(sum level2 level38 level40)
  S:(sum level2 level39 level41)
  S:(sum level2 level40 level42)
  S:(sum level3 level0 level3)
  S:(sum level3 level1 level4)
  S:(sum level3 level2 level5)
  S:(sum level3 level3 level6)
  S:(sum level3 level4 level7)
  S:(sum level3 level5 level8)
  S:(sum level3 level6 level9)
  S:(sum level3 level7 level10)
  S:(sum level3 level8 level11)
  S:(sum level3 level9 level12)
  S:(sum level3 level10 level13)
  S:(sum level3 level11 level14)
  S:(sum level3 level12 level15)
  S:(sum level3 level13 level16)
  S:(sum level3 level14 level17)
  S:(sum level3 level15 level18)
  S:(sum level3 level16 level19)
  S:(sum level3 level17 level20)
  S:(sum level3 level18 level21)
  S:(sum level3 level19 level22)
  S:(sum level3 level20 level23)
  S:(sum level3 level21 level24)
  S:(sum level3 level22 level25)
  S:(sum level3 level23 level26)
  S:(sum level3 level24 level27)
  S:(sum level3 level25 level28)
  S:(sum level3 level26 level29)
  S:(sum level3 level27 level30)
  S:(sum level3 level28 level31)
  S:(sum level3 level29 level32)
  S:(sum level3 level30 level33)
  S:(sum level3 level31 level34)
  S:(sum level3 level32 level35)
  S:(sum level3 level33 level36)
  S:(sum level3 level34 level37)
  S:(sum level3 level35 level38)
  S:(sum level3 level36 level39)
  S:(sum level3 level37 level40)
  S:(sum level3 level38 level41)
  S:(sum level3 level39 level42)
  S:(sum level4 level0 level4)
  S:(sum level4 level1 level5)
  S:(sum level4 level2 level6)
  S:(sum level4 level3 level7)
  S:(sum level4 level4 level8)
  S:(sum level4 level5 level9)
  S:(sum level4 level6 level10)
  S:(sum level4 level7 level11)
  S:(sum level4 level8 level12)
  S:(sum level4 level9 level13)
  S:(sum level4 level10 level14)
  S:(sum level4 level11 level15)
  S:(sum level4 level12 level16)
  S:(sum level4 level13 level17)
  S:(sum level4 level14 level18)
  S:(sum level4 level15 level19)
  S:(sum level4 level16 level20)
  S:(sum level4 level17 level21)
  S:(sum level4 level18 level22)
  S:(sum level4 level19 level23)
  S:(sum level4 level20 level24)
  S:(sum level4 level21 level25)
  S:(sum level4 level22 level26)
  S:(sum level4 level23 level27)
  S:(sum level4 level24 level28)
  S:(sum level4 level25 level29)
  S:(sum level4 level26 level30)
  S:(sum level4 level27 level31)
  S:(sum level4 level28 level32)
  S:(sum level4 level29 level33)
  S:(sum level4 level30 level34)
  S:(sum level4 level31 level35)
  S:(sum level4 level32 level36)
  S:(sum level4 level33 level37)
  S:(sum level4 level34 level38)
  S:(sum level4 level35 level39)
  S:(sum level4 level36 level40)
  S:(sum level4 level37 level41)
  S:(sum level4 level38 level42)
  S:(sum level5 level0 level5)
  S:(sum level5 level1 level6)
  S:(sum level5 level2 level7)
  S:(sum level5 level3 level8)
  S:(sum level5 level4 level9)
  S:(sum level5 level5 level10)
  S:(sum level5 level6 level11)
  S:(sum level5 level7 level12)
  S:(sum level5 level8 level13)
  S:(sum level5 level9 level14)
  S:(sum level5 level10 level15)
  S:(sum level5 level11 level16)
  S:(sum level5 level12 level17)
  S:(sum level5 level13 level18)
  S:(sum level5 level14 level19)
  S:(sum level5 level15 level20)
  S:(sum level5 level16 level21)
  S:(sum level5 level17 level22)
  S:(sum level5 level18 level23)
  S:(sum level5 level19 level24)
  S:(sum level5 level20 level25)
  S:(sum level5 level21 level26)
  S:(sum level5 level22 level27)
  S:(sum level5 level23 level28)
  S:(sum level5 level24 level29)
  S:(sum level5 level25 level30)
  S:(sum level5 level26 level31)
  S:(sum level5 level27 level32)
  S:(sum level5 level28 level33)
  S:(sum level5 level29 level34)
  S:(sum level5 level30 level35)
  S:(sum level5 level31 level36)
  S:(sum level5 level32 level37)
  S:(sum level5 level33 level38)
  S:(sum level5 level34 level39)
  S:(sum level5 level35 level40)
  S:(sum level5 level36 level41)
  S:(sum level5 level37 level42)
  S:(sum level6 level0 level6)
  S:(sum level6 level1 level7)
  S:(sum level6 level2 level8)
  S:(sum level6 level3 level9)
  S:(sum level6 level4 level10)
  S:(sum level6 level5 level11)
  S:(sum level6 level6 level12)
  S:(sum level6 level7 level13)
  S:(sum level6 level8 level14)
  S:(sum level6 level9 level15)
  S:(sum level6 level10 level16)
  S:(sum level6 level11 level17)
  S:(sum level6 level12 level18)
  S:(sum level6 level13 level19)
  S:(sum level6 level14 level20)
  S:(sum level6 level15 level21)
  S:(sum level6 level16 level22)
  S:(sum level6 level17 level23)
  S:(sum level6 level18 level24)
  S:(sum level6 level19 level25)
  S:(sum level6 level20 level26)
  S:(sum level6 level21 level27)
  S:(sum level6 level22 level28)
  S:(sum level6 level23 level29)
  S:(sum level6 level24 level30)
  S:(sum level6 level25 level31)
  S:(sum level6 level26 level32)
  S:(sum level6 level27 level33)
  S:(sum level6 level28 level34)
  S:(sum level6 level29 level35)
  S:(sum level6 level30 level36)
  S:(sum level6 level31 level37)
  S:(sum level6 level32 level38)
  S:(sum level6 level33 level39)
  S:(sum level6 level34 level40)
  S:(sum level6 level35 level41)
  S:(sum level6 level36 level42)
  S:(sum level7 level0 level7)
  S:(sum level7 level1 level8)
  S:(sum level7 level2 level9)
  S:(sum level7 level3 level10)
  S:(sum level7 level4 level11)
  S:(sum level7 level5 level12)
  S:(sum level7 level6 level13)
  S:(sum level7 level7 level14)
  S:(sum level7 level8 level15)
  S:(sum level7 level9 level16)
  S:(sum level7 level10 level17)
  S:(sum level7 level11 level18)
  S:(sum level7 level12 level19)
  S:(sum level7 level13 level20)
  S:(sum level7 level14 level21)
  S:(sum level7 level15 level22)
  S:(sum level7 level16 level23)
  S:(sum level7 level17 level24)
  S:(sum level7 level18 level25)
  S:(sum level7 level19 level26)
  S:(sum level7 level20 level27)
  S:(sum level7 level21 level28)
  S:(sum level7 level22 level29)
  S:(sum level7 level23 level30)
  S:(sum level7 level24 level31)
  S:(sum level7 level25 level32)
  S:(sum level7 level26 level33)
  S:(sum level7 level27 level34)
  S:(sum level7 level28 level35)
  S:(sum level7 level29 level36)
  S:(sum level7 level30 level37)
  S:(sum level7 level31 level38)
  S:(sum level7 level32 level39)
  S:(sum level7 level33 level40)
  S:(sum level7 level34 level41)
  S:(sum level7 level35 level42)
  S:(sum level8 level0 level8)
  S:(sum level8 level1 level9)
  S:(sum level8 level2 level10)
  S:(sum level8 level3 level11)
  S:(sum level8 level4 level12)
  S:(sum level8 level5 level13)
  S:(sum level8 level6 level14)
  S:(sum level8 level7 level15)
  S:(sum level8 level8 level16)
  S:(sum level8 level9 level17)
  S:(sum level8 level10 level18)
  S:(sum level8 level11 level19)
  S:(sum level8 level12 level20)
  S:(sum level8 level13 level21)
  S:(sum level8 level14 level22)
  S:(sum level8 level15 level23)
  S:(sum level8 level16 level24)
  S:(sum level8 level17 level25)
  S:(sum level8 level18 level26)
  S:(sum level8 level19 level27)
  S:(sum level8 level20 level28)
  S:(sum level8 level21 level29)
  S:(sum level8 level22 level30)
  S:(sum level8 level23 level31)
  S:(sum level8 level24 level32)
  S:(sum level8 level25 level33)
  S:(sum level8 level26 level34)
  S:(sum level8 level27 level35)
  S:(sum level8 level28 level36)
  S:(sum level8 level29 level37)
  S:(sum level8 level30 level38)
  S:(sum level8 level31 level39)
  S:(sum level8 level32 level40)
  S:(sum level8 level33 level41)
  S:(sum level8 level34 level42)
  S:(sum level9 level0 level9)
  S:(sum level9 level1 level10)
  S:(sum level9 level2 level11)
  S:(sum level9 level3 level12)
  S:(sum level9 level4 level13)
  S:(sum level9 level5 level14)
  S:(sum level9 level6 level15)
  S:(sum level9 level7 level16)
  S:(sum level9 level8 level17)
  S:(sum level9 level9 level18)
  S:(sum level9 level10 level19)
  S:(sum level9 level11 level20)
  S:(sum level9 level12 level21)
  S:(sum level9 level13 level22)
  S:(sum level9 level14 level23)
  S:(sum level9 level15 level24)
  S:(sum level9 level16 level25)
  S:(sum level9 level17 level26)
  S:(sum level9 level18 level27)
  S:(sum level9 level19 level28)
  S:(sum level9 level20 level29)
  S:(sum level9 level21 level30)
  S:(sum level9 level22 level31)
  S:(sum level9 level23 level32)
  S:(sum level9 level24 level33)
  S:(sum level9 level25 level34)
  S:(sum level9 level26 level35)
  S:(sum level9 level27 level36)
  S:(sum level9 level28 level37)
  S:(sum level9 level29 level38)
  S:(sum level9 level30 level39)
  S:(sum level9 level31 level40)
  S:(sum level9 level32 level41)
  S:(sum level9 level33 level42)
  S:(sum level10 level0 level10)
  S:(sum level10 level1 level11)
  S:(sum level10 level2 level12)
  S:(sum level10 level3 level13)
  S:(sum level10 level4 level14)
  S:(sum level10 level5 level15)
  S:(sum level10 level6 level16)
  S:(sum level10 level7 level17)
  S:(sum level10 level8 level18)
  S:(sum level10 level9 level19)
  S:(sum level10 level10 level20)
  S:(sum level10 level11 level21)
  S:(sum level10 level12 level22)
  S:(sum level10 level13 level23)
  S:(sum level10 level14 level24)
  S:(sum level10 level15 level25)
  S:(sum level10 level16 level26)
  S:(sum level10 level17 level27)
  S:(sum level10 level18 level28)
  S:(sum level10 level19 level29)
  S:(sum level10 level20 level30)
  S:(sum level10 level21 level31)
  S:(sum level10 level22 level32)
  S:(sum level10 level23 level33)
  S:(sum level10 level24 level34)
  S:(sum level10 level25 level35)
  S:(sum level10 level26 level36)
  S:(sum level10 level27 level37)
  S:(sum level10 level28 level38)
  S:(sum level10 level29 level39)
  S:(sum level10 level30 level40)
  S:(sum level10 level31 level41)
  S:(sum level10 level32 level42)
  S:(sum level11 level0 level11)
  S:(sum level11 level1 level12)
  S:(sum level11 level2 level13)
  S:(sum level11 level3 level14)
  S:(sum level11 level4 level15)
  S:(sum level11 level5 level16)
  S:(sum level11 level6 level17)
  S:(sum level11 level7 level18)
  S:(sum level11 level8 level19)
  S:(sum level11 level9 level20)
  S:(sum level11 level10 level21)
  S:(sum level11 level11 level22)
  S:(sum level11 level12 level23)
  S:(sum level11 level13 level24)
  S:(sum level11 level14 level25)
  S:(sum level11 level15 level26)
  S:(sum level11 level16 level27)
  S:(sum level11 level17 level28)
  S:(sum level11 level18 level29)
  S:(sum level11 level19 level30)
  S:(sum level11 level20 level31)
  S:(sum level11 level21 level32)
  S:(sum level11 level22 level33)
  S:(sum level11 level23 level34)
  S:(sum level11 level24 level35)
  S:(sum level11 level25 level36)
  S:(sum level11 level26 level37)
  S:(sum level11 level27 level38)
  S:(sum level11 level28 level39)
  S:(sum level11 level29 level40)
  S:(sum level11 level30 level41)
  S:(sum level11 level31 level42)
  S:(sum level12 level0 level12)
  S:(sum level12 level1 level13)
  S:(sum level12 level2 level14)
  S:(sum level12 level3 level15)
  S:(sum level12 level4 level16)
  S:(sum level12 level5 level17)
  S:(sum level12 level6 level18)
  S:(sum level12 level7 level19)
  S:(sum level12 level8 level20)
  S:(sum level12 level9 level21)
  S:(sum level12 level10 level22)
  S:(sum level12 level11 level23)
  S:(sum level12 level12 level24)
  S:(sum level12 level13 level25)
  S:(sum level12 level14 level26)
  S:(sum level12 level15 level27)
  S:(sum level12 level16 level28)
  S:(sum level12 level17 level29)
  S:(sum level12 level18 level30)
  S:(sum level12 level19 level31)
  S:(sum level12 level20 level32)
  S:(sum level12 level21 level33)
  S:(sum level12 level22 level34)
  S:(sum level12 level23 level35)
  S:(sum level12 level24 level36)
  S:(sum level12 level25 level37)
  S:(sum level12 level26 level38)
  S:(sum level12 level27 level39)
  S:(sum level12 level28 level40)
  S:(sum level12 level29 level41)
  S:(sum level12 level30 level42)
  S:(sum level13 level0 level13)
  S:(sum level13 level1 level14)
  S:(sum level13 level2 level15)
  S:(sum level13 level3 level16)
  S:(sum level13 level4 level17)
  S:(sum level13 level5 level18)
  S:(sum level13 level6 level19)
  S:(sum level13 level7 level20)
  S:(sum level13 level8 level21)
  S:(sum level13 level9 level22)
  S:(sum level13 level10 level23)
  S:(sum level13 level11 level24)
  S:(sum level13 level12 level25)
  S:(sum level13 level13 level26)
  S:(sum level13 level14 level27)
  S:(sum level13 level15 level28)
  S:(sum level13 level16 level29)
  S:(sum level13 level17 level30)
  S:(sum level13 level18 level31)
  S:(sum level13 level19 level32)
  S:(sum level13 level20 level33)
  S:(sum level13 level21 level34)
  S:(sum level13 level22 level35)
  S:(sum level13 level23 level36)
  S:(sum level13 level24 level37)
  S:(sum level13 level25 level38)
  S:(sum level13 level26 level39)
  S:(sum level13 level27 level40)
  S:(sum level13 level28 level41)
  S:(sum level13 level29 level42)
  S:(sum level14 level0 level14)
  S:(sum level14 level1 level15)
  S:(sum level14 level2 level16)
  S:(sum level14 level3 level17)
  S:(sum level14 level4 level18)
  S:(sum level14 level5 level19)
  S:(sum level14 level6 level20)
  S:(sum level14 level7 level21)
  S:(sum level14 level8 level22)
  S:(sum level14 level9 level23)
  S:(sum level14 level10 level24)
  S:(sum level14 level11 level25)
  S:(sum level14 level12 level26)
  S:(sum level14 level13 level27)
  S:(sum level14 level14 level28)
  S:(sum level14 level15 level29)
  S:(sum level14 level16 level30)
  S:(sum level14 level17 level31)
  S:(sum level14 level18 level32)
  S:(sum level14 level19 level33)
  S:(sum level14 level20 level34)
  S:(sum level14 level21 level35)
  S:(sum level14 level22 level36)
  S:(sum level14 level23 level37)
  S:(sum level14 level24 level38)
  S:(sum level14 level25 level39)
  S:(sum level14 level26 level40)
  S:(sum level14 level27 level41)
  S:(sum level14 level28 level42)
  S:(sum level15 level0 level15)
  S:(sum level15 level1 level16)
  S:(sum level15 level2 level17)
  S:(sum level15 level3 level18)
  S:(sum level15 level4 level19)
  S:(sum level15 level5 level20)
  S:(sum level15 level6 level21)
  S:(sum level15 level7 level22)
  S:(sum level15 level8 level23)
  S:(sum level15 level9 level24)
  S:(sum level15 level10 level25)
  S:(sum level15 level11 level26)
  S:(sum level15 level12 level27)
  S:(sum level15 level13 level28)
  S:(sum level15 level14 level29)
  S:(sum level15 level15 level30)
  S:(sum level15 level16 level31)
  S:(sum level15 level17 level32)
  S:(sum level15 level18 level33)
  S:(sum level15 level19 level34)
  S:(sum level15 level20 level35)
  S:(sum level15 level21 level36)
  S:(sum level15 level22 level37)
  S:(sum level15 level23 level38)
  S:(sum level15 level24 level39)
  S:(sum level15 level25 level40)
  S:(sum level15 level26 level41)
  S:(sum level15 level27 level42)
  S:(sum level16 level0 level16)
  S:(sum level16 level1 level17)
  S:(sum level16 level2 level18)
  S:(sum level16 level3 level19)
  S:(sum level16 level4 level20)
  S:(sum level16 level5 level21)
  S:(sum level16 level6 level22)
  S:(sum level16 level7 level23)
  S:(sum level16 level8 level24)
  S:(sum level16 level9 level25)
  S:(sum level16 level10 level26)
  S:(sum level16 level11 level27)
  S:(sum level16 level12 level28)
  S:(sum level16 level13 level29)
  S:(sum level16 level14 level30)
  S:(sum level16 level15 level31)
  S:(sum level16 level16 level32)
  S:(sum level16 level17 level33)
  S:(sum level16 level18 level34)
  S:(sum level16 level19 level35)
  S:(sum level16 level20 level36)
  S:(sum level16 level21 level37)
  S:(sum level16 level22 level38)
  S:(sum level16 level23 level39)
  S:(sum level16 level24 level40)
  S:(sum level16 level25 level41)
  S:(sum level16 level26 level42)
  S:(sum level17 level0 level17)
  S:(sum level17 level1 level18)
  S:(sum level17 level2 level19)
  S:(sum level17 level3 level20)
  S:(sum level17 level4 level21)
  S:(sum level17 level5 level22)
  S:(sum level17 level6 level23)
  S:(sum level17 level7 level24)
  S:(sum level17 level8 level25)
  S:(sum level17 level9 level26)
  S:(sum level17 level10 level27)
  S:(sum level17 level11 level28)
  S:(sum level17 level12 level29)
  S:(sum level17 level13 level30)
  S:(sum level17 level14 level31)
  S:(sum level17 level15 level32)
  S:(sum level17 level16 level33)
  S:(sum level17 level17 level34)
  S:(sum level17 level18 level35)
  S:(sum level17 level19 level36)
  S:(sum level17 level20 level37)
  S:(sum level17 level21 level38)
  S:(sum level17 level22 level39)
  S:(sum level17 level23 level40)
  S:(sum level17 level24 level41)
  S:(sum level17 level25 level42)
  S:(sum level18 level0 level18)
  S:(sum level18 level1 level19)
  S:(sum level18 level2 level20)
  S:(sum level18 level3 level21)
  S:(sum level18 level4 level22)
  S:(sum level18 level5 level23)
  S:(sum level18 level6 level24)
  S:(sum level18 level7 level25)
  S:(sum level18 level8 level26)
  S:(sum level18 level9 level27)
  S:(sum level18 level10 level28)
  S:(sum level18 level11 level29)
  S:(sum level18 level12 level30)
  S:(sum level18 level13 level31)
  S:(sum level18 level14 level32)
  S:(sum level18 level15 level33)
  S:(sum level18 level16 level34)
  S:(sum level18 level17 level35)
  S:(sum level18 level18 level36)
  S:(sum level18 level19 level37)
  S:(sum level18 level20 level38)
  S:(sum level18 level21 level39)
  S:(sum level18 level22 level40)
  S:(sum level18 level23 level41)
  S:(sum level18 level24 level42)
  S:(sum level19 level0 level19)
  S:(sum level19 level1 level20)
  S:(sum level19 level2 level21)
  S:(sum level19 level3 level22)
  S:(sum level19 level4 level23)
  S:(sum level19 level5 level24)
  S:(sum level19 level6 level25)
  S:(sum level19 level7 level26)
  S:(sum level19 level8 level27)
  S:(sum level19 level9 level28)
  S:(sum level19 level10 level29)
  S:(sum level19 level11 level30)
  S:(sum level19 level12 level31)
  S:(sum level19 level13 level32)
  S:(sum level19 level14 level33)
  S:(sum level19 level15 level34)
  S:(sum level19 level16 level35)
  S:(sum level19 level17 level36)
  S:(sum level19 level18 level37)
  S:(sum level19 level19 level38)
  S:(sum level19 level20 level39)
  S:(sum level19 level21 level40)
  S:(sum level19 level22 level41)
  S:(sum level19 level23 level42)
  S:(sum level20 level0 level20)
  S:(sum level20 level1 level21)
  S:(sum level20 level2 level22)
  S:(sum level20 level3 level23)
  S:(sum level20 level4 level24)
  S:(sum level20 level5 level25)
  S:(sum level20 level6 level26)
  S:(sum level20 level7 level27)
  S:(sum level20 level8 level28)
  S:(sum level20 level9 level29)
  S:(sum level20 level10 level30)
  S:(sum level20 level11 level31)
  S:(sum level20 level12 level32)
  S:(sum level20 level13 level33)
  S:(sum level20 level14 level34)
  S:(sum level20 level15 level35)
  S:(sum level20 level16 level36)
  S:(sum level20 level17 level37)
  S:(sum level20 level18 level38)
  S:(sum level20 level19 level39)
  S:(sum level20 level20 level40)
  S:(sum level20 level21 level41)
  S:(sum level20 level22 level42)
  S:(sum level21 level0 level21)
  S:(sum level21 level1 level22)
  S:(sum level21 level2 level23)
  S:(sum level21 level3 level24)
  S:(sum level21 level4 level25)
  S:(sum level21 level5 level26)
  S:(sum level21 level6 level27)
  S:(sum level21 level7 level28)
  S:(sum level21 level8 level29)
  S:(sum level21 level9 level30)
  S:(sum level21 level10 level31)
  S:(sum level21 level11 level32)
  S:(sum level21 level12 level33)
  S:(sum level21 level13 level34)
  S:(sum level21 level14 level35)
  S:(sum level21 level15 level36)
  S:(sum level21 level16 level37)
  S:(sum level21 level17 level38)
  S:(sum level21 level18 level39)
  S:(sum level21 level19 level40)
  S:(sum level21 level20 level41)
  S:(sum level21 level21 level42)
  S:(sum level22 level0 level22)
  S:(sum level22 level1 level23)
  S:(sum level22 level2 level24)
  S:(sum level22 level3 level25)
  S:(sum level22 level4 level26)
  S:(sum level22 level5 level27)
  S:(sum level22 level6 level28)
  S:(sum level22 level7 level29)
  S:(sum level22 level8 level30)
  S:(sum level22 level9 level31)
  S:(sum level22 level10 level32)
  S:(sum level22 level11 level33)
  S:(sum level22 level12 level34)
  S:(sum level22 level13 level35)
  S:(sum level22 level14 level36)
  S:(sum level22 level15 level37)
  S:(sum level22 level16 level38)
  S:(sum level22 level17 level39)
  S:(sum level22 level18 level40)
  S:(sum level22 level19 level41)
  S:(sum level22 level20 level42)
  S:(sum level23 level0 level23)
  S:(sum level23 level1 level24)
  S:(sum level23 level2 level25)
  S:(sum level23 level3 level26)
  S:(sum level23 level4 level27)
  S:(sum level23 level5 level28)
  S:(sum level23 level6 level29)
  S:(sum level23 level7 level30)
  S:(sum level23 level8 level31)
  S:(sum level23 level9 level32)
  S:(sum level23 level10 level33)
  S:(sum level23 level11 level34)
  S:(sum level23 level12 level35)
  S:(sum level23 level13 level36)
  S:(sum level23 level14 level37)
  S:(sum level23 level15 level38)
  S:(sum level23 level16 level39)
  S:(sum level23 level17 level40)
  S:(sum level23 level18 level41)
  S:(sum level23 level19 level42)
  S:(sum level24 level0 level24)
  S:(sum level24 level1 level25)
  S:(sum level24 level2 level26)
  S:(sum level24 level3 level27)
  S:(sum level24 level4 level28)
  S:(sum level24 level5 level29)
  S:(sum level24 level6 level30)
  S:(sum level24 level7 level31)
  S:(sum level24 level8 level32)
  S:(sum level24 level9 level33)
  S:(sum level24 level10 level34)
  S:(sum level24 level11 level35)
  S:(sum level24 level12 level36)
  S:(sum level24 level13 level37)
  S:(sum level24 level14 level38)
  S:(sum level24 level15 level39)
  S:(sum level24 level16 level40)
  S:(sum level24 level17 level41)
  S:(sum level24 level18 level42)
  S:(sum level25 level0 level25)
  S:(sum level25 level1 level26)
  S:(sum level25 level2 level27)
  S:(sum level25 level3 level28)
  S:(sum level25 level4 level29)
  S:(sum level25 level5 level30)
  S:(sum level25 level6 level31)
  S:(sum level25 level7 level32)
  S:(sum level25 level8 level33)
  S:(sum level25 level9 level34)
  S:(sum level25 level10 level35)
  S:(sum level25 level11 level36)
  S:(sum level25 level12 level37)
  S:(sum level25 level13 level38)
  S:(sum level25 level14 level39)
  S:(sum level25 level15 level40)
  S:(sum level25 level16 level41)
  S:(sum level25 level17 level42)
  S:(sum level26 level0 level26)
  S:(sum level26 level1 level27)
  S:(sum level26 level2 level28)
  S:(sum level26 level3 level29)
  S:(sum level26 level4 level30)
  S:(sum level26 level5 level31)
  S:(sum level26 level6 level32)
  S:(sum level26 level7 level33)
  S:(sum level26 level8 level34)
  S:(sum level26 level9 level35)
  S:(sum level26 level10 level36)
  S:(sum level26 level11 level37)
  S:(sum level26 level12 level38)
  S:(sum level26 level13 level39)
  S:(sum level26 level14 level40)
  S:(sum level26 level15 level41)
  S:(sum level26 level16 level42)
  S:(sum level27 level0 level27)
  S:(sum level27 level1 level28)
  S:(sum level27 level2 level29)
  S:(sum level27 level3 level30)
  S:(sum level27 level4 level31)
  S:(sum level27 level5 level32)
  S:(sum level27 level6 level33)
  S:(sum level27 level7 level34)
  S:(sum level27 level8 level35)
  S:(sum level27 level9 level36)
  S:(sum level27 level10 level37)
  S:(sum level27 level11 level38)
  S:(sum level27 level12 level39)
  S:(sum level27 level13 level40)
  S:(sum level27 level14 level41)
  S:(sum level27 level15 level42)
  S:(sum level28 level0 level28)
  S:(sum level28 level1 level29)
  S:(sum level28 level2 level30)
  S:(sum level28 level3 level31)
  S:(sum level28 level4 level32)
  S:(sum level28 level5 level33)
  S:(sum level28 level6 level34)
  S:(sum level28 level7 level35)
  S:(sum level28 level8 level36)
  S:(sum level28 level9 level37)
  S:(sum level28 level10 level38)
  S:(sum level28 level11 level39)
  S:(sum level28 level12 level40)
  S:(sum level28 level13 level41)
  S:(sum level28 level14 level42)
  S:(sum level29 level0 level29)
  S:(sum level29 level1 level30)
  S:(sum level29 level2 level31)
  S:(sum level29 level3 level32)
  S:(sum level29 level4 level33)
  S:(sum level29 level5 level34)
  S:(sum level29 level6 level35)
  S:(sum level29 level7 level36)
  S:(sum level29 level8 level37)
  S:(sum level29 level9 level38)
  S:(sum level29 level10 level39)
  S:(sum level29 level11 level40)
  S:(sum level29 level12 level41)
  S:(sum level29 level13 level42)
  S:(sum level30 level0 level30)
  S:(sum level30 level1 level31)
  S:(sum level30 level2 level32)
  S:(sum level30 level3 level33)
  S:(sum level30 level4 level34)
  S:(sum level30 level5 level35)
  S:(sum level30 level6 level36)
  S:(sum level30 level7 level37)
  S:(sum level30 level8 level38)
  S:(sum level30 level9 level39)
  S:(sum level30 level10 level40)
  S:(sum level30 level11 level41)
  S:(sum level30 level12 level42)
  S:(sum level31 level0 level31)
  S:(sum level31 level1 level32)
  S:(sum level31 level2 level33)
  S:(sum level31 level3 level34)
  S:(sum level31 level4 level35)
  S:(sum level31 level5 level36)
  S:(sum level31 level6 level37)
  S:(sum level31 level7 level38)
  S:(sum level31 level8 level39)
  S:(sum level31 level9 level40)
  S:(sum level31 level10 level41)
  S:(sum level31 level11 level42)
  S:(sum level32 level0 level32)
  S:(sum level32 level1 level33)
  S:(sum level32 level2 level34)
  S:(sum level32 level3 level35)
  S:(sum level32 level4 level36)
  S:(sum level32 level5 level37)
  S:(sum level32 level6 level38)
  S:(sum level32 level7 level39)
  S:(sum level32 level8 level40)
  S:(sum level32 level9 level41)
  S:(sum level32 level10 level42)
  S:(sum level33 level0 level33)
  S:(sum level33 level1 level34)
  S:(sum level33 level2 level35)
  S:(sum level33 level3 level36)
  S:(sum level33 level4 level37)
  S:(sum level33 level5 level38)
  S:(sum level33 level6 level39)
  S:(sum level33 level7 level40)
  S:(sum level33 level8 level41)
  S:(sum level33 level9 level42)
  S:(sum level34 level0 level34)
  S:(sum level34 level1 level35)
  S:(sum level34 level2 level36)
  S:(sum level34 level3 level37)
  S:(sum level34 level4 level38)
  S:(sum level34 level5 level39)
  S:(sum level34 level6 level40)
  S:(sum level34 level7 level41)
  S:(sum level34 level8 level42)
  S:(sum level35 level0 level35)
  S:(sum level35 level1 level36)
  S:(sum level35 level2 level37)
  S:(sum level35 level3 level38)
  S:(sum level35 level4 level39)
  S:(sum level35 level5 level40)
  S:(sum level35 level6 level41)
  S:(sum level35 level7 level42)
  S:(sum level36 level0 level36)
  S:(sum level36 level1 level37)
  S:(sum level36 level2 level38)
  S:(sum level36 level3 level39)
  S:(sum level36 level4 level40)
  S:(sum level36 level5 level41)
  S:(sum level36 level6 level42)
  S:(sum level37 level0 level37)
  S:(sum level37 level1 level38)
  S:(sum level37 level2 level39)
  S:(sum level37 level3 level40)
  S:(sum level37 level4 level41)
  S:(sum level37 level5 level42)
  S:(sum level38 level0 level38)
  S:(sum level38 level1 level39)
  S:(sum level38 level2 level40)
  S:(sum level38 level3 level41)
  S:(sum level38 level4 level42)
  S:(sum level39 level0 level39)
  S:(sum level39 level1 level40)
  S:(sum level39 level2 level41)
  S:(sum level39 level3 level42)
  S:(sum level40 level0 level40)
  S:(sum level40 level1 level41)
  S:(sum level40 level2 level42)
  S:(sum level41 level0 level41)
  S:(sum level41 level1 level42)
  S:(sum level42 level0 level42)
  S:(connected l0 l1)
  S:(fuelcost level19 l0 l1)
  S:(connected l0 l2)
  S:(fuelcost level3 l0 l2)
  S:(connected l0 l7)
  S:(fuelcost level13 l0 l7)
  S:(connected l1 l0)
  S:(fuelcost level19 l1 l0)
  S:(connected l1 l3)
  S:(fuelcost level25 l1 l3)
  S:(connected l1 l5)
  S:(fuelcost level13 l1 l5)
  S:(connected l1 l6)
  S:(fuelcost level12 l1 l6)
  S:(connected l1 l7)
  S:(fuelcost level17 l1 l7)
  S:(connected l2 l0)
  S:(fuelcost level3 l2 l0)
  S:(connected l2 l5)
  S:(fuelcost level8 l2 l5)
  S:(connected l2 l6)
  S:(fuelcost level6 l2 l6)
  S:(connected l3 l1)
  S:(fuelcost level25 l3 l1)
  S:(connected l3 l5)
  S:(fuelcost level21 l3 l5)
  S:(connected l4 l5)
  S:(fuelcost level10 l4 l5)
  S:(connected l5 l1)
  S:(fuelcost level13 l5 l1)
  S:(connected l5 l2)
  S:(fuelcost level8 l5 l2)
  S:(connected l5 l3)
  S:(fuelcost level21 l5 l3)
  S:(connected l5 l4)
  S:(fuelcost level10 l5 l4)
  S:(connected l5 l6)
  S:(fuelcost level3 l5 l6)
  S:(connected l6 l1)
  S:(fuelcost level12 l6 l1)
  S:(connected l6 l2)
  S:(fuelcost level6 l6 l2)
  S:(connected l6 l5)
  S:(fuelcost level3 l6 l5)
  S:(connected l7 l0)
  S:(fuelcost level13 l7 l0)
  S:(connected l7 l1)
  S:(fuelcost level17 l7 l1)
  (at t0 l2)
  (fuel t0 level42)
  (at p0 l6)
  (at p1 l5)
  (at p2 l3)
  (at p3 l1)
  (at p4 l1)
  (at p5 l6)
  (at p6 l5)
  (at p7 l0)
Init[0]:
Goal: (and (RW:at p0 l7) (RW:at p1 l0) (RW:at p2 l1) (RW:at p3 l0) (RW:at p4 l0) (RW:at p5 l4) (RW:at p6 l2) (RW:at p7 l4))
Metric: 0
