Fact[132]:
  (achieved_constraint0)
  (achieved_constraint1)
  (achieved_constraint2)
  (breaker-ar-status-is-auto_breaker_x11_x12)
  (breaker-ar-status-is-auto_breaker_x17_x18)
  (breaker-ar-status-is-auto_breaker_x19_x20)
  (breaker-ar-status-is-non-auto_breaker_x11_x12)
  (breaker-ar-status-is-non-auto_breaker_x17_x18)
  (breaker-ar-status-is-non-auto_breaker_x19_x20)
  (breaker-ar-status-is-unknown_breaker_x11_x12)
  (breaker-ar-status-is-unknown_breaker_x17_x18)
  (breaker-ar-status-is-unknown_breaker_x19_x20)
  (breaker-auto-reclose-wait_breaker_x19_x20_obs1412)
  (breaker-commanded-ar-non-auto_breaker_x7_x8_obs1401)
  (breaker-commanded-ar-non-auto_breaker_x9_x10_obs1402)
  (breaker-commanded-open_breaker_x11_x12_obs1406)
  (breaker-commanded-open_breaker_x19_x20_obs1398)
  (breaker-state-is-closed_breaker_x11_x12)
  (breaker-state-is-closed_breaker_x17_x18)
  (breaker-state-is-closed_breaker_x19_x20)
  (breaker-state-is-closed_breaker_x5_x6)
  (breaker-state-is-open_breaker_x11_x12)
  (breaker-state-is-open_breaker_x17_x18)
  (breaker-state-is-open_breaker_x19_x20)
  (breaker-state-is-open_breaker_x22_x23)
  (breaker-state-is-open_breaker_x26_x27)
  (breaker-state-is-open_breaker_x28_x29)
  (breaker-state-is-open_breaker_x5_x6)
  (breaker-state-is-unknown_breaker_x11_x12)
  (breaker-state-is-unknown_breaker_x17_x18)
  (breaker-state-is-unknown_breaker_x19_x20)
  (breaker-state-is-unknown_breaker_x22_x23)
  (breaker-state-is-unknown_breaker_x26_x27)
  (breaker-state-is-unknown_breaker_x28_x29)
  (breaker-state-is-unknown_breaker_x5_x6)
  (dominates-2_hyp1_count-as-fault_breaker_x17_x18)
  (dominates-2_hyp1_count-as-fault_line_x13_x14)
  (dominates-2_hyp2_count-as-fault_breaker_x17_x18)
  (dominates-2_hyp2_count-as-fault_breaker_x19_x20)
  (dominates-2_hyp3_count-as-fault_breaker_x19_x20)
  (dominates-2_hyp3_count-as-fault_line_x15_x16)
  (fault-count-2_count-as-fault_breaker_x11_x12_n0)
  (fault-count-2_count-as-fault_breaker_x11_x12_n1)
  (fault-count-2_count-as-fault_breaker_x17_x18_n0)
  (fault-count-2_count-as-fault_breaker_x19_x20_n0)
  (fault-count-2_count-as-fault_breaker_x19_x20_n1)
  (fault-count-2_count-as-fault_breaker_x3_x4_n0)
  (fault-count-2_count-as-fault_breaker_x5_x6_n0)
  (fault-count-2_count-as-fault_breaker_x7_x8_n0)
  (fault-count-2_count-as-fault_breaker_x9_x10_n0)
  (fault-count-2_count-as-fault_bus_x21_n0)
  (fault-count-2_count-as-fault_line_x13_x14_n0)
  (fault-count-2_count-as-fault_line_x13_x14_n1)
  (fault-count-2_count-as-fault_line_x15_x16_n0)
  (fault-count-2_count-as-fault_line_x15_x16_n1)
  (future_obs1400)
  (future_obs1401)
  (future_obs1402)
  (future_obs1403)
  (future_obs1404)
  (future_obs1405)
  (future_obs1406)
  (future_obs1407)
  (future_obs1408)
  (future_obs1409)
  (future_obs1410)
  (future_obs1411)
  (future_obs1412)
  (future_obs1413)
  (future_obs1414)
  (future_obs1415)
  (future_obs1416)
  (future_obs1417)
  (line-iso-state-changed_line_x15_x16_obs1407)
  (line-iso-state-may-have-changed_line_x13_x14_obs1410)
  (line-iso-state-may-have-changed_line_x13_x14_obs1412)
  (line-iso-state-may-have-changed_line_x13_x14_obs1416)
  (line-iso-state-may-have-changed_line_x15_x16_obs1407)
  (line-iso-state-may-have-changed_line_x15_x16_obs1415)
  (line-iso-trip-in-progress_line_x13_x14_obs1410)
  (line-iso-trip-in-progress_line_x13_x14_obs1412)
  (line-iso-trip-in-progress_line_x15_x16_obs1407)
  (line-isolated_line_x13_x14)
  (line-isolated_line_x15_x16)
  (not_at_end_constraint0)
  (not_at_end_constraint1)
  (not_at_end_constraint2)
  (not_line-iso-trip-in-progress_line_x13_x14_obs1410)
  (not_line-iso-trip-in-progress_line_x13_x14_obs1412)
  (not_line-iso-trip-in-progress_line_x15_x16_obs1407)
  (not_line-isolated_line_x13_x14)
  (not_line-isolated_line_x15_x16)
  (observed_obs1398)
  (observed_obs1399)
  (observed_obs1400)
  (observed_obs1401)
  (observed_obs1402)
  (observed_obs1403)
  (observed_obs1404)
  (observed_obs1405)
  (observed_obs1406)
  (observed_obs1407)
  (observed_obs1408)
  (observed_obs1409)
  (observed_obs1410)
  (observed_obs1411)
  (observed_obs1412)
  (observed_obs1413)
  (observed_obs1414)
  (observed_obs1415)
  (observed_obs1416)
  (observed_obs1417)
  (pending_obs1398)
  (pending_obs1399)
  (pending_obs1400)
  (pending_obs1401)
  (pending_obs1402)
  (pending_obs1403)
  (pending_obs1404)
  (pending_obs1405)
  (pending_obs1406)
  (pending_obs1407)
  (pending_obs1408)
  (pending_obs1409)
  (pending_obs1410)
  (pending_obs1411)
  (pending_obs1412)
  (pending_obs1413)
  (pending_obs1414)
  (pending_obs1415)
  (pending_obs1416)
  (pending_obs1417)
Op[94]:
  (advance-to-obs_obs1400), cost: 1
    pre: (future_obs1400) (not_at_end_constraint0) (not_at_end_constraint1) (not_at_end_constraint2) (observed_obs1398) (observed_obs1399)
    add: (pending_obs1400)
    del: (future_obs1400)
  (advance-to-obs_obs1401), cost: 1
    pre: (future_obs1401) (not_at_end_constraint0) (not_at_end_constraint1) (not_at_end_constraint2) (observed_obs1400)
    add: (pending_obs1401)
    del: (future_obs1401)
  (advance-to-obs_obs1402), cost: 1
    pre: (future_obs1402) (not_at_end_constraint0) (not_at_end_constraint1) (not_at_end_constraint2) (observed_obs1400)
    add: (pending_obs1402)
    del: (future_obs1402)
  (advance-to-obs_obs1403), cost: 1
    pre: (future_obs1403) (not_at_end_constraint0) (not_at_end_constraint1) (not_at_end_constraint2) (observed_obs1401) (observed_obs1402)
    add: (pending_obs1403)
    del: (future_obs1403)
  (advance-to-obs_obs1404), cost: 1
    pre: (future_obs1404) (not_at_end_constraint0) (not_at_end_constraint1) (not_at_end_constraint2) (observed_obs1403)
    add: (pending_obs1404)
    del: (future_obs1404)
  (advance-to-obs_obs1405), cost: 1
    pre: (future_obs1405) (not_at_end_constraint0) (not_at_end_constraint1) (not_at_end_constraint2) (observed_obs1404)
    add: (pending_obs1405)
    del: (future_obs1405)
  (advance-to-obs_obs1406), cost: 1
    pre: (future_obs1406) (not_at_end_constraint0) (not_at_end_constraint1) (not_at_end_constraint2) (observed_obs1405)
    add: (pending_obs1406)
    del: (future_obs1406)
  (advance-to-obs_obs1407), cost: 1
    pre: (future_obs1407) (not_at_end_constraint0) (not_at_end_constraint1) (not_at_end_constraint2) (observed_obs1406)
    add: (pending_obs1407)
    del: (future_obs1407)
  (advance-to-obs_obs1408), cost: 1
    pre: (future_obs1408) (not_at_end_constraint0) (not_at_end_constraint1) (not_at_end_constraint2) (observed_obs1407)
    add: (pending_obs1408)
    del: (future_obs1408)
  (advance-to-obs_obs1409), cost: 1
    pre: (future_obs1409) (not_at_end_constraint0) (not_at_end_constraint1) (not_at_end_constraint2) (not_line-iso-trip-in-progress_line_x15_x16_obs1407) (observed_obs1408)
    add: (pending_obs1409)
    del: (future_obs1409)
  (advance-to-obs_obs1410), cost: 1
    pre: (future_obs1410) (not_at_end_constraint0) (not_at_end_constraint1) (not_at_end_constraint2) (observed_obs1409)
    add: (pending_obs1410)
    del: (future_obs1410)
  (advance-to-obs_obs1411), cost: 1
    pre: (future_obs1411) (not_at_end_constraint0) (not_at_end_constraint1) (not_at_end_constraint2) (not_line-iso-trip-in-progress_line_x13_x14_obs1410) (observed_obs1410)
    add: (pending_obs1411)
    del: (future_obs1411)
  (advance-to-obs_obs1412), cost: 1
    pre: (future_obs1412) (not_at_end_constraint0) (not_at_end_constraint1) (not_at_end_constraint2) (not_line-iso-trip-in-progress_line_x13_x14_obs1410) (observed_obs1410)
    add: (pending_obs1412)
    del: (future_obs1412)
  (advance-to-obs_obs1413), cost: 1
    pre: (future_obs1413) (not_at_end_constraint0) (not_at_end_constraint1) (not_at_end_constraint2) (not_line-iso-trip-in-progress_line_x13_x14_obs1410) (observed_obs1410)
    add: (pending_obs1413)
    del: (future_obs1413)
  (advance-to-obs_obs1414), cost: 1
    pre: (future_obs1414) (not_at_end_constraint0) (not_at_end_constraint1) (not_at_end_constraint2) (not_line-iso-trip-in-progress_line_x13_x14_obs1412) (observed_obs1411) (observed_obs1412) (observed_obs1413)
    add: (pending_obs1414)
    del: (future_obs1414)
  (advance-to-obs_obs1415), cost: 1
    pre: (future_obs1415) (not_at_end_constraint0) (not_at_end_constraint1) (not_at_end_constraint2) (observed_obs1414)
    add: (pending_obs1415)
    del: (future_obs1415) (line-iso-state-changed_line_x15_x16_obs1407) (line-iso-state-may-have-changed_line_x15_x16_obs1407)
  (advance-to-obs_obs1416), cost: 1
    pre: (future_obs1416) (not_at_end_constraint0) (not_at_end_constraint1) (not_at_end_constraint2) (observed_obs1415)
    add: (pending_obs1416)
    del: (future_obs1416) (line-iso-state-may-have-changed_line_x13_x14_obs1410)
  (advance-to-obs_obs1417), cost: 1
    pre: (future_obs1417) (not_at_end_constraint0) (not_at_end_constraint1) (not_at_end_constraint2) (observed_obs1416)
    add: (pending_obs1417)
    del: (future_obs1417) (line-iso-state-may-have-changed_line_x13_x14_obs1412)
  (breaker-ar-status-non-auto-1_breaker_x7_x8_obs1403_obs1401), cost: 1
    pre: (breaker-commanded-ar-non-auto_breaker_x7_x8_obs1401) (not_at_end_constraint0) (not_at_end_constraint1) (not_at_end_constraint2) (pending_obs1403)
    add: (observed_obs1403)
    del: (pending_obs1403)
  (breaker-ar-status-non-auto-1_breaker_x9_x10_obs1404_obs1402), cost: 1
    pre: (breaker-commanded-ar-non-auto_breaker_x9_x10_obs1402) (not_at_end_constraint0) (not_at_end_constraint1) (not_at_end_constraint2) (pending_obs1404)
    add: (observed_obs1404)
    del: (pending_obs1404)
  (breaker-ar-status-non-auto-unexplained-1_breaker_x11_x12_obs1400_n0_n1), cost: 1
    pre: (fault-count-2_count-as-fault_breaker_x11_x12_n0) (not_at_end_constraint0) (not_at_end_constraint1) (not_at_end_constraint2) (pending_obs1400)
    add: (breaker-ar-status-is-non-auto_breaker_x11_x12) (fault-count-2_count-as-fault_breaker_x11_x12_n1) (observed_obs1400)
    del: (breaker-ar-status-is-auto_breaker_x11_x12) (fault-count-2_count-as-fault_breaker_x11_x12_n0) (pending_obs1400)
  (breaker-ar-status-non-auto-unexplained-1_breaker_x3_x4_obs1408_n0_n1), cost: 1
    pre: (fault-count-2_count-as-fault_breaker_x3_x4_n0) (not_at_end_constraint0) (not_at_end_constraint1) (not_at_end_constraint2) (pending_obs1408)
    add: (observed_obs1408)
    del: (fault-count-2_count-as-fault_breaker_x3_x4_n0) (pending_obs1408)
  (breaker-ar-status-non-auto-unexplained-1_breaker_x7_x8_obs1403_n0_n1), cost: 1
    pre: (fault-count-2_count-as-fault_breaker_x7_x8_n0) (not_at_end_constraint0) (not_at_end_constraint1) (not_at_end_constraint2) (pending_obs1403)
    add: (observed_obs1403)
    del: (fault-count-2_count-as-fault_breaker_x7_x8_n0) (pending_obs1403)
  (breaker-ar-status-non-auto-unexplained-1_breaker_x9_x10_obs1404_n0_n1), cost: 1
    pre: (fault-count-2_count-as-fault_breaker_x9_x10_n0) (not_at_end_constraint0) (not_at_end_constraint1) (not_at_end_constraint2) (pending_obs1404)
    add: (observed_obs1404)
    del: (fault-count-2_count-as-fault_breaker_x9_x10_n0) (pending_obs1404)
  (breaker-close-unexplained_breaker_x19_x20_obs1416_n0_n1), cost: 1
    pre: (breaker-state-is-open_breaker_x19_x20) (fault-count-2_count-as-fault_breaker_x19_x20_n0) (not_at_end_constraint0) (not_at_end_constraint1) (not_at_end_constraint2) (pending_obs1416)
    add: (breaker-state-is-closed_breaker_x19_x20) (fault-count-2_count-as-fault_breaker_x19_x20_n1) (line-iso-state-may-have-changed_line_x13_x14_obs1416) (observed_obs1416)
    del: (breaker-state-is-open_breaker_x19_x20) (dominates-2_hyp2_count-as-fault_breaker_x19_x20) (dominates-2_hyp3_count-as-fault_breaker_x19_x20) (fault-count-2_count-as-fault_breaker_x19_x20_n0) (pending_obs1416)
  (breaker-close-unexplained_breaker_x19_x20_obs1416_n1_n2), cost: 1
    pre: (breaker-state-is-open_breaker_x19_x20) (fault-count-2_count-as-fault_breaker_x19_x20_n1) (not_at_end_constraint0) (not_at_end_constraint1) (not_at_end_constraint2) (pending_obs1416)
    add: (breaker-state-is-closed_breaker_x19_x20) (line-iso-state-may-have-changed_line_x13_x14_obs1416) (observed_obs1416)
    del: (breaker-state-is-open_breaker_x19_x20) (fault-count-2_count-as-fault_breaker_x19_x20_n1) (pending_obs1416)
  (breaker-close-unexplained_breaker_x5_x6_obs1415_n0_n1), cost: 1
    pre: (breaker-state-is-open_breaker_x5_x6) (fault-count-2_count-as-fault_breaker_x5_x6_n0) (not_at_end_constraint0) (not_at_end_constraint1) (not_at_end_constraint2) (pending_obs1415)
    add: (breaker-state-is-closed_breaker_x5_x6) (line-iso-state-may-have-changed_line_x15_x16_obs1415) (observed_obs1415)
    del: (breaker-state-is-open_breaker_x5_x6) (fault-count-2_count-as-fault_breaker_x5_x6_n0) (pending_obs1415)
  (breaker-command-ar-non-auto-1_breaker_x11_x12_obs1411), cost: 1
    pre: (not_at_end_constraint0) (not_at_end_constraint1) (not_at_end_constraint2) (pending_obs1411)
    add: (observed_obs1411)
    del: (pending_obs1411)
  (breaker-command-ar-non-auto-1_breaker_x1_x2_obs1417), cost: 1
    pre: (not_at_end_constraint0) (not_at_end_constraint1) (not_at_end_constraint2) (pending_obs1417)
    add: (observed_obs1417)
    del: (pending_obs1417)
  (breaker-command-ar-non-auto-1_breaker_x7_x8_obs1401), cost: 1
    pre: (not_at_end_constraint0) (not_at_end_constraint1) (not_at_end_constraint2) (pending_obs1401)
    add: (breaker-commanded-ar-non-auto_breaker_x7_x8_obs1401) (observed_obs1401)
    del: (pending_obs1401)
  (breaker-command-ar-non-auto-1_breaker_x9_x10_obs1402), cost: 1
    pre: (not_at_end_constraint0) (not_at_end_constraint1) (not_at_end_constraint2) (pending_obs1402)
    add: (breaker-commanded-ar-non-auto_breaker_x9_x10_obs1402) (observed_obs1402)
    del: (pending_obs1402)
  (breaker-command-open_breaker_x11_x12_obs1406), cost: 1
    pre: (not_at_end_constraint0) (not_at_end_constraint1) (not_at_end_constraint2) (pending_obs1406)
    add: (breaker-commanded-open_breaker_x11_x12_obs1406) (observed_obs1406)
    del: (pending_obs1406)
  (breaker-command-open_breaker_x19_x20_obs1398), cost: 1
    pre: (not_at_end_constraint0) (not_at_end_constraint1) (not_at_end_constraint2) (pending_obs1398)
    add: (breaker-commanded-open_breaker_x19_x20_obs1398) (observed_obs1398)
    del: (pending_obs1398)
  (breaker-command-open_breaker_x7_x8_obs1405), cost: 1
    pre: (not_at_end_constraint0) (not_at_end_constraint1) (not_at_end_constraint2) (pending_obs1405)
    add: (observed_obs1405)
    del: (pending_obs1405)
  (breaker-command-open_breaker_x9_x10_obs1414), cost: 1
    pre: (not_at_end_constraint0) (not_at_end_constraint1) (not_at_end_constraint2) (pending_obs1414)
    add: (observed_obs1414)
    del: (pending_obs1414)
  (breaker-init-ar-status-was-auto_breaker_x11_x12), cost: 1
    pre: (breaker-ar-status-is-unknown_breaker_x11_x12) (not_at_end_constraint0) (not_at_end_constraint1) (not_at_end_constraint2)
    add: (breaker-ar-status-is-auto_breaker_x11_x12)
    del: (breaker-ar-status-is-unknown_breaker_x11_x12)
  (breaker-init-ar-status-was-auto_breaker_x17_x18), cost: 1
    pre: (breaker-ar-status-is-unknown_breaker_x17_x18) (not_at_end_constraint0) (not_at_end_constraint1) (not_at_end_constraint2)
    add: (breaker-ar-status-is-auto_breaker_x17_x18)
    del: (breaker-ar-status-is-unknown_breaker_x17_x18)
  (breaker-init-ar-status-was-auto_breaker_x19_x20), cost: 1
    pre: (breaker-ar-status-is-unknown_breaker_x19_x20) (not_at_end_constraint0) (not_at_end_constraint1) (not_at_end_constraint2)
    add: (breaker-ar-status-is-auto_breaker_x19_x20)
    del: (breaker-ar-status-is-unknown_breaker_x19_x20)
  (breaker-init-ar-status-was-non-auto_breaker_x11_x12), cost: 1
    pre: (breaker-ar-status-is-unknown_breaker_x11_x12) (not_at_end_constraint0) (not_at_end_constraint1) (not_at_end_constraint2)
    add: (breaker-ar-status-is-non-auto_breaker_x11_x12)
    del: (breaker-ar-status-is-unknown_breaker_x11_x12)
  (breaker-init-ar-status-was-non-auto_breaker_x17_x18), cost: 1
    pre: (breaker-ar-status-is-unknown_breaker_x17_x18) (not_at_end_constraint0) (not_at_end_constraint1) (not_at_end_constraint2)
    add: (breaker-ar-status-is-non-auto_breaker_x17_x18)
    del: (breaker-ar-status-is-unknown_breaker_x17_x18)
  (breaker-init-ar-status-was-non-auto_breaker_x19_x20), cost: 1
    pre: (breaker-ar-status-is-unknown_breaker_x19_x20) (not_at_end_constraint0) (not_at_end_constraint1) (not_at_end_constraint2)
    add: (breaker-ar-status-is-non-auto_breaker_x19_x20)
    del: (breaker-ar-status-is-unknown_breaker_x19_x20)
  (breaker-init-state-was-closed_breaker_x11_x12), cost: 1
    pre: (breaker-state-is-unknown_breaker_x11_x12) (not_at_end_constraint0) (not_at_end_constraint1) (not_at_end_constraint2)
    add: (breaker-state-is-closed_breaker_x11_x12)
    del: (breaker-state-is-unknown_breaker_x11_x12)
  (breaker-init-state-was-closed_breaker_x17_x18), cost: 1
    pre: (breaker-state-is-unknown_breaker_x17_x18) (not_at_end_constraint0) (not_at_end_constraint1) (not_at_end_constraint2)
    add: (breaker-state-is-closed_breaker_x17_x18)
    del: (breaker-state-is-unknown_breaker_x17_x18)
  (breaker-init-state-was-closed_breaker_x19_x20), cost: 1
    pre: (breaker-state-is-unknown_breaker_x19_x20) (not_at_end_constraint0) (not_at_end_constraint1) (not_at_end_constraint2)
    add: (breaker-state-is-closed_breaker_x19_x20)
    del: (breaker-state-is-unknown_breaker_x19_x20)
  (breaker-init-state-was-closed_breaker_x22_x23), cost: 1
    pre: (breaker-state-is-unknown_breaker_x22_x23) (not_at_end_constraint0) (not_at_end_constraint1) (not_at_end_constraint2)
    add:
    del: (breaker-state-is-unknown_breaker_x22_x23)
  (breaker-init-state-was-closed_breaker_x26_x27), cost: 1
    pre: (breaker-state-is-unknown_breaker_x26_x27) (not_at_end_constraint0) (not_at_end_constraint1) (not_at_end_constraint2)
    add:
    del: (breaker-state-is-unknown_breaker_x26_x27)
  (breaker-init-state-was-closed_breaker_x28_x29), cost: 1
    pre: (breaker-state-is-unknown_breaker_x28_x29) (not_at_end_constraint0) (not_at_end_constraint1) (not_at_end_constraint2)
    add:
    del: (breaker-state-is-unknown_breaker_x28_x29)
  (breaker-init-state-was-closed_breaker_x5_x6), cost: 1
    pre: (breaker-state-is-unknown_breaker_x5_x6) (not_at_end_constraint0) (not_at_end_constraint1) (not_at_end_constraint2)
    add: (breaker-state-is-closed_breaker_x5_x6)
    del: (breaker-state-is-unknown_breaker_x5_x6)
  (breaker-init-state-was-open_breaker_x11_x12), cost: 1
    pre: (breaker-state-is-unknown_breaker_x11_x12) (not_at_end_constraint0) (not_at_end_constraint1) (not_at_end_constraint2)
    add: (breaker-state-is-open_breaker_x11_x12)
    del: (breaker-state-is-unknown_breaker_x11_x12)
  (breaker-init-state-was-open_breaker_x17_x18), cost: 1
    pre: (breaker-state-is-unknown_breaker_x17_x18) (not_at_end_constraint0) (not_at_end_constraint1) (not_at_end_constraint2)
    add: (breaker-state-is-open_breaker_x17_x18)
    del: (breaker-state-is-unknown_breaker_x17_x18)
  (breaker-init-state-was-open_breaker_x19_x20), cost: 1
    pre: (breaker-state-is-unknown_breaker_x19_x20) (not_at_end_constraint0) (not_at_end_constraint1) (not_at_end_constraint2)
    add: (breaker-state-is-open_breaker_x19_x20)
    del: (breaker-state-is-unknown_breaker_x19_x20)
  (breaker-init-state-was-open_breaker_x22_x23), cost: 1
    pre: (breaker-state-is-unknown_breaker_x22_x23) (not_at_end_constraint0) (not_at_end_constraint1) (not_at_end_constraint2)
    add: (breaker-state-is-open_breaker_x22_x23)
    del: (breaker-state-is-unknown_breaker_x22_x23)
  (breaker-init-state-was-open_breaker_x26_x27), cost: 1
    pre: (breaker-state-is-unknown_breaker_x26_x27) (not_at_end_constraint0) (not_at_end_constraint1) (not_at_end_constraint2)
    add: (breaker-state-is-open_breaker_x26_x27)
    del: (breaker-state-is-unknown_breaker_x26_x27)
  (breaker-init-state-was-open_breaker_x28_x29), cost: 1
    pre: (breaker-state-is-unknown_breaker_x28_x29) (not_at_end_constraint0) (not_at_end_constraint1) (not_at_end_constraint2)
    add: (breaker-state-is-open_breaker_x28_x29)
    del: (breaker-state-is-unknown_breaker_x28_x29)
  (breaker-init-state-was-open_breaker_x5_x6), cost: 1
    pre: (breaker-state-is-unknown_breaker_x5_x6) (not_at_end_constraint0) (not_at_end_constraint1) (not_at_end_constraint2)
    add: (breaker-state-is-open_breaker_x5_x6)
    del: (breaker-state-is-unknown_breaker_x5_x6)
  (breaker-open-on-command_breaker_x11_x12_obs1410_obs1406), cost: 1
    pre: (breaker-commanded-open_breaker_x11_x12_obs1406) (not_at_end_constraint0) (not_at_end_constraint1) (not_at_end_constraint2) (pending_obs1410)
    add: (breaker-state-is-open_breaker_x11_x12) (line-iso-state-may-have-changed_line_x13_x14_obs1410) (observed_obs1410)
    del: (breaker-state-is-closed_breaker_x11_x12) (breaker-state-is-unknown_breaker_x11_x12) (pending_obs1410)
  (breaker-open-on-command_breaker_x19_x20_obs1412_obs1398), cost: 1
    pre: (breaker-commanded-open_breaker_x19_x20_obs1398) (not_at_end_constraint0) (not_at_end_constraint1) (not_at_end_constraint2) (pending_obs1412)
    add: (breaker-state-is-open_breaker_x19_x20) (line-iso-state-may-have-changed_line_x13_x14_obs1412) (observed_obs1412)
    del: (breaker-state-is-closed_breaker_x19_x20) (breaker-state-is-unknown_breaker_x19_x20) (pending_obs1412)
  (breaker-open-unexplained_breaker_x11_x12_obs1410_n1_n2), cost: 1
    pre: (breaker-state-is-closed_breaker_x11_x12) (fault-count-2_count-as-fault_breaker_x11_x12_n1) (not_at_end_constraint0) (not_at_end_constraint1) (not_at_end_constraint2) (pending_obs1410)
    add: (breaker-state-is-open_breaker_x11_x12) (line-iso-state-may-have-changed_line_x13_x14_obs1410) (observed_obs1410)
    del: (breaker-state-is-closed_breaker_x11_x12) (fault-count-2_count-as-fault_breaker_x11_x12_n1) (pending_obs1410)
  (breaker-open-unexplained_breaker_x17_x18_obs1407_n0_n1), cost: 1
    pre: (breaker-state-is-closed_breaker_x17_x18) (fault-count-2_count-as-fault_breaker_x17_x18_n0) (not_at_end_constraint0) (not_at_end_constraint1) (not_at_end_constraint2) (pending_obs1407)
    add: (breaker-state-is-open_breaker_x17_x18) (line-iso-state-may-have-changed_line_x15_x16_obs1407) (observed_obs1407)
    del: (breaker-state-is-closed_breaker_x17_x18) (dominates-2_hyp1_count-as-fault_breaker_x17_x18) (dominates-2_hyp2_count-as-fault_breaker_x17_x18) (fault-count-2_count-as-fault_breaker_x17_x18_n0) (pending_obs1407)
  (breaker-open-unexplained_breaker_x19_x20_obs1412_n0_n1), cost: 1
    pre: (breaker-state-is-closed_breaker_x19_x20) (fault-count-2_count-as-fault_breaker_x19_x20_n0) (not_at_end_constraint0) (not_at_end_constraint1) (not_at_end_constraint2) (pending_obs1412)
    add: (breaker-state-is-open_breaker_x19_x20) (fault-count-2_count-as-fault_breaker_x19_x20_n1) (line-iso-state-may-have-changed_line_x13_x14_obs1412) (observed_obs1412)
    del: (breaker-state-is-closed_breaker_x19_x20) (dominates-2_hyp2_count-as-fault_breaker_x19_x20) (dominates-2_hyp3_count-as-fault_breaker_x19_x20) (fault-count-2_count-as-fault_breaker_x19_x20_n0) (pending_obs1412)
  (breaker-reclose_breaker_x19_x20_obs1416_obs1412), cost: 1
    pre: (breaker-auto-reclose-wait_breaker_x19_x20_obs1412) (breaker-state-is-open_breaker_x19_x20) (not_at_end_constraint0) (not_at_end_constraint1) (not_at_end_constraint2) (pending_obs1416)
    add: (breaker-state-is-closed_breaker_x19_x20) (line-iso-state-may-have-changed_line_x13_x14_obs1416) (observed_obs1416)
    del: (breaker-state-is-open_breaker_x19_x20) (pending_obs1416)
  (breaker-trip-unexplained_breaker_x11_x12_obs1410_n1_n2), cost: 1
    pre: (breaker-ar-status-is-auto_breaker_x11_x12) (breaker-state-is-closed_breaker_x11_x12) (fault-count-2_count-as-fault_breaker_x11_x12_n1) (not_at_end_constraint0) (not_at_end_constraint1) (not_at_end_constraint2) (pending_obs1410)
    add: (breaker-state-is-open_breaker_x11_x12) (line-iso-state-may-have-changed_line_x13_x14_obs1410) (observed_obs1410)
    del: (breaker-state-is-closed_breaker_x11_x12) (fault-count-2_count-as-fault_breaker_x11_x12_n1) (pending_obs1410)
  (breaker-trip-unexplained_breaker_x17_x18_obs1407_n0_n1), cost: 1
    pre: (breaker-ar-status-is-auto_breaker_x17_x18) (breaker-state-is-closed_breaker_x17_x18) (fault-count-2_count-as-fault_breaker_x17_x18_n0) (not_at_end_constraint0) (not_at_end_constraint1) (not_at_end_constraint2) (pending_obs1407)
    add: (breaker-state-is-open_breaker_x17_x18) (line-iso-state-may-have-changed_line_x15_x16_obs1407) (observed_obs1407)
    del: (breaker-state-is-closed_breaker_x17_x18) (dominates-2_hyp1_count-as-fault_breaker_x17_x18) (dominates-2_hyp2_count-as-fault_breaker_x17_x18) (fault-count-2_count-as-fault_breaker_x17_x18_n0) (pending_obs1407)
  (breaker-trip-unexplained_breaker_x19_x20_obs1412_n0_n1), cost: 1
    pre: (breaker-ar-status-is-auto_breaker_x19_x20) (breaker-state-is-closed_breaker_x19_x20) (fault-count-2_count-as-fault_breaker_x19_x20_n0) (not_at_end_constraint0) (not_at_end_constraint1) (not_at_end_constraint2) (pending_obs1412)
    add: (breaker-auto-reclose-wait_breaker_x19_x20_obs1412) (breaker-state-is-open_breaker_x19_x20) (fault-count-2_count-as-fault_breaker_x19_x20_n1) (line-iso-state-may-have-changed_line_x13_x14_obs1412) (observed_obs1412)
    del: (breaker-state-is-closed_breaker_x19_x20) (dominates-2_hyp2_count-as-fault_breaker_x19_x20) (dominates-2_hyp3_count-as-fault_breaker_x19_x20) (fault-count-2_count-as-fault_breaker_x19_x20_n0) (pending_obs1412)
  (bus-voltage-goes-normal-unexplained_bus_x21_obs1413_n0_n1), cost: 1
    pre: (fault-count-2_count-as-fault_bus_x21_n0) (not_at_end_constraint0) (not_at_end_constraint1) (not_at_end_constraint2) (pending_obs1413)
    add: (observed_obs1413)
    del: (fault-count-2_count-as-fault_bus_x21_n0) (pending_obs1413)
  (line-finish-iso-trip-3_line_x13_x14_breaker_x22_x23_breaker_x11_x12_breaker_x19_x20_obs1410), cost: 1
    pre: (breaker-state-is-open_breaker_x11_x12) (breaker-state-is-open_breaker_x19_x20) (breaker-state-is-open_breaker_x22_x23) (line-iso-trip-in-progress_line_x13_x14_obs1410) (not_at_end_constraint0) (not_at_end_constraint1) (not_at_end_constraint2)
    add: (line-isolated_line_x13_x14) (not_line-iso-trip-in-progress_line_x13_x14_obs1410)
    del: (line-iso-trip-in-progress_line_x13_x14_obs1410) (not_line-isolated_line_x13_x14)
  (line-finish-iso-trip-3_line_x13_x14_breaker_x22_x23_breaker_x11_x12_breaker_x19_x20_obs1412), cost: 1
    pre: (breaker-state-is-open_breaker_x11_x12) (breaker-state-is-open_breaker_x19_x20) (breaker-state-is-open_breaker_x22_x23) (line-iso-trip-in-progress_line_x13_x14_obs1412) (not_at_end_constraint0) (not_at_end_constraint1) (not_at_end_constraint2)
    add: (line-isolated_line_x13_x14) (not_line-iso-trip-in-progress_line_x13_x14_obs1412)
    del: (line-iso-trip-in-progress_line_x13_x14_obs1412) (not_line-isolated_line_x13_x14)
  (line-finish-iso-trip-4_line_x15_x16_breaker_x17_x18_breaker_x26_x27_breaker_x28_x29_breaker_x5_x6_obs1407), cost: 1
    pre: (breaker-state-is-open_breaker_x17_x18) (breaker-state-is-open_breaker_x26_x27) (breaker-state-is-open_breaker_x28_x29) (breaker-state-is-open_breaker_x5_x6) (line-iso-trip-in-progress_line_x15_x16_obs1407) (not_at_end_constraint0) (not_at_end_constraint1) (not_at_end_constraint2)
    add: (line-iso-state-changed_line_x15_x16_obs1407) (line-isolated_line_x15_x16) (not_line-iso-trip-in-progress_line_x15_x16_obs1407)
    del: (line-iso-trip-in-progress_line_x15_x16_obs1407) (not_line-isolated_line_x15_x16)
  (line-init-state-isolated-3_line_x13_x14_breaker_x22_x23_breaker_x11_x12_breaker_x19_x20), cost: 1
    pre: (breaker-state-is-open_breaker_x11_x12) (breaker-state-is-open_breaker_x19_x20) (breaker-state-is-open_breaker_x22_x23) (not_at_end_constraint0) (not_at_end_constraint1) (not_at_end_constraint2)
    add: (line-isolated_line_x13_x14)
    del: (not_line-isolated_line_x13_x14)
  (line-init-state-isolated-4_line_x15_x16_breaker_x17_x18_breaker_x26_x27_breaker_x28_x29_breaker_x5_x6), cost: 1
    pre: (breaker-state-is-open_breaker_x17_x18) (breaker-state-is-open_breaker_x26_x27) (breaker-state-is-open_breaker_x28_x29) (breaker-state-is-open_breaker_x5_x6) (not_at_end_constraint0) (not_at_end_constraint1) (not_at_end_constraint2)
    add: (line-isolated_line_x15_x16)
    del: (not_line-isolated_line_x15_x16)
  (line-iso-trip-first-breaker-simple-trip-1_line_x13_x14_breaker_x11_x12_breaker_x11_x12_obs1410_n1_n2), cost: 1
    pre: (breaker-ar-status-is-auto_breaker_x11_x12) (breaker-state-is-closed_breaker_x11_x12) (fault-count-2_count-as-fault_line_x13_x14_n1) (not_at_end_constraint0) (not_at_end_constraint1) (not_at_end_constraint2) (not_line-isolated_line_x13_x14) (pending_obs1410)
    add: (breaker-state-is-open_breaker_x11_x12) (line-iso-trip-in-progress_line_x13_x14_obs1410) (observed_obs1410)
    del: (breaker-state-is-closed_breaker_x11_x12) (dominates-2_hyp1_count-as-fault_line_x13_x14) (fault-count-2_count-as-fault_line_x13_x14_n1) (not_line-iso-trip-in-progress_line_x13_x14_obs1410) (pending_obs1410)
  (line-iso-trip-first-breaker-simple-trip-1_line_x13_x14_breaker_x19_x20_breaker_x19_x20_obs1412_n1_n2), cost: 1
    pre: (breaker-ar-status-is-auto_breaker_x19_x20) (breaker-state-is-closed_breaker_x19_x20) (fault-count-2_count-as-fault_line_x13_x14_n1) (not_at_end_constraint0) (not_at_end_constraint1) (not_at_end_constraint2) (not_line-isolated_line_x13_x14) (pending_obs1412)
    add: (breaker-auto-reclose-wait_breaker_x19_x20_obs1412) (breaker-state-is-open_breaker_x19_x20) (line-iso-trip-in-progress_line_x13_x14_obs1412) (observed_obs1412)
    del: (breaker-state-is-closed_breaker_x19_x20) (dominates-2_hyp1_count-as-fault_line_x13_x14) (fault-count-2_count-as-fault_line_x13_x14_n1) (not_line-iso-trip-in-progress_line_x13_x14_obs1412) (pending_obs1412)
  (line-iso-trip-first-breaker-simple-trip-1_line_x15_x16_breaker_x17_x18_breaker_x17_x18_obs1407_n0_n1), cost: 1
    pre: (breaker-ar-status-is-auto_breaker_x17_x18) (breaker-state-is-closed_breaker_x17_x18) (fault-count-2_count-as-fault_line_x15_x16_n0) (not_at_end_constraint0) (not_at_end_constraint1) (not_at_end_constraint2) (not_line-isolated_line_x15_x16) (pending_obs1407)
    add: (breaker-state-is-open_breaker_x17_x18) (fault-count-2_count-as-fault_line_x15_x16_n1) (line-iso-trip-in-progress_line_x15_x16_obs1407) (observed_obs1407)
    del: (breaker-state-is-closed_breaker_x17_x18) (dominates-2_hyp3_count-as-fault_line_x15_x16) (fault-count-2_count-as-fault_line_x15_x16_n0) (not_line-iso-trip-in-progress_line_x15_x16_obs1407) (pending_obs1407)
  (line-iso-trip-first-breaker-simple-trip-2_line_x13_x14_breaker_x11_x12_breaker_x11_x12_obs1410_n1_n2), cost: 1
    pre: (breaker-ar-status-is-non-auto_breaker_x11_x12) (breaker-state-is-closed_breaker_x11_x12) (fault-count-2_count-as-fault_line_x13_x14_n1) (not_at_end_constraint0) (not_at_end_constraint1) (not_at_end_constraint2) (not_line-isolated_line_x13_x14) (pending_obs1410)
    add: (breaker-state-is-open_breaker_x11_x12) (line-iso-trip-in-progress_line_x13_x14_obs1410) (observed_obs1410)
    del: (breaker-state-is-closed_breaker_x11_x12) (dominates-2_hyp1_count-as-fault_line_x13_x14) (fault-count-2_count-as-fault_line_x13_x14_n1) (not_line-iso-trip-in-progress_line_x13_x14_obs1410) (pending_obs1410)
  (line-iso-trip-first-breaker-simple-trip-2_line_x13_x14_breaker_x19_x20_breaker_x19_x20_obs1412_n1_n2), cost: 1
    pre: (breaker-ar-status-is-non-auto_breaker_x19_x20) (breaker-state-is-closed_breaker_x19_x20) (fault-count-2_count-as-fault_line_x13_x14_n1) (not_at_end_constraint0) (not_at_end_constraint1) (not_at_end_constraint2) (not_line-isolated_line_x13_x14) (pending_obs1412)
    add: (breaker-state-is-open_breaker_x19_x20) (line-iso-trip-in-progress_line_x13_x14_obs1412) (observed_obs1412)
    del: (breaker-state-is-closed_breaker_x19_x20) (dominates-2_hyp1_count-as-fault_line_x13_x14) (fault-count-2_count-as-fault_line_x13_x14_n1) (not_line-iso-trip-in-progress_line_x13_x14_obs1412) (pending_obs1412)
  (line-iso-trip-first-breaker-simple-trip-2_line_x15_x16_breaker_x17_x18_breaker_x17_x18_obs1407_n0_n1), cost: 1
    pre: (breaker-ar-status-is-non-auto_breaker_x17_x18) (breaker-state-is-closed_breaker_x17_x18) (fault-count-2_count-as-fault_line_x15_x16_n0) (not_at_end_constraint0) (not_at_end_constraint1) (not_at_end_constraint2) (not_line-isolated_line_x15_x16) (pending_obs1407)
    add: (breaker-state-is-open_breaker_x17_x18) (fault-count-2_count-as-fault_line_x15_x16_n1) (line-iso-trip-in-progress_line_x15_x16_obs1407) (observed_obs1407)
    del: (breaker-state-is-closed_breaker_x17_x18) (dominates-2_hyp3_count-as-fault_line_x15_x16) (fault-count-2_count-as-fault_line_x15_x16_n0) (not_line-iso-trip-in-progress_line_x15_x16_obs1407) (pending_obs1407)
  (line-re-energise-isolated-3c_line_x13_x14_breaker_x22_x23_breaker_x11_x12_breaker_x19_x20_obs1410), cost: 1
    pre: (breaker-state-is-closed_breaker_x19_x20) (line-iso-state-may-have-changed_line_x13_x14_obs1410) (line-isolated_line_x13_x14) (not_at_end_constraint0) (not_at_end_constraint1) (not_at_end_constraint2)
    add: (not_line-isolated_line_x13_x14)
    del: (line-isolated_line_x13_x14)
  (line-re-energise-isolated-3c_line_x13_x14_breaker_x22_x23_breaker_x11_x12_breaker_x19_x20_obs1412), cost: 1
    pre: (breaker-state-is-closed_breaker_x19_x20) (line-iso-state-may-have-changed_line_x13_x14_obs1412) (line-isolated_line_x13_x14) (not_at_end_constraint0) (not_at_end_constraint1) (not_at_end_constraint2)
    add: (not_line-isolated_line_x13_x14)
    del: (line-isolated_line_x13_x14)
  (line-re-energise-isolated-3c_line_x13_x14_breaker_x22_x23_breaker_x11_x12_breaker_x19_x20_obs1416), cost: 1
    pre: (breaker-state-is-closed_breaker_x19_x20) (line-iso-state-may-have-changed_line_x13_x14_obs1416) (line-isolated_line_x13_x14) (not_at_end_constraint0) (not_at_end_constraint1) (not_at_end_constraint2)
    add: (not_line-isolated_line_x13_x14)
    del: (line-isolated_line_x13_x14)
  (line-re-energise-isolated-4d_line_x15_x16_breaker_x17_x18_breaker_x26_x27_breaker_x28_x29_breaker_x5_x6_obs1407), cost: 1
    pre: (breaker-state-is-closed_breaker_x5_x6) (line-iso-state-may-have-changed_line_x15_x16_obs1407) (line-isolated_line_x15_x16) (not_at_end_constraint0) (not_at_end_constraint1) (not_at_end_constraint2)
    add: (line-iso-state-changed_line_x15_x16_obs1407) (not_line-isolated_line_x15_x16)
    del: (line-isolated_line_x15_x16)
  (line-re-energise-isolated-4d_line_x15_x16_breaker_x17_x18_breaker_x26_x27_breaker_x28_x29_breaker_x5_x6_obs1415), cost: 1
    pre: (breaker-state-is-closed_breaker_x5_x6) (line-iso-state-may-have-changed_line_x15_x16_obs1415) (line-isolated_line_x15_x16) (not_at_end_constraint0) (not_at_end_constraint1) (not_at_end_constraint2)
    add: (not_line-isolated_line_x15_x16)
    del: (line-isolated_line_x15_x16)
  (line-set-state-isolated-3_line_x13_x14_breaker_x22_x23_breaker_x11_x12_breaker_x19_x20_obs1410), cost: 1
    pre: (breaker-state-is-open_breaker_x11_x12) (breaker-state-is-open_breaker_x19_x20) (breaker-state-is-open_breaker_x22_x23) (line-iso-state-may-have-changed_line_x13_x14_obs1410) (not_at_end_constraint0) (not_at_end_constraint1) (not_at_end_constraint2)
    add: (line-isolated_line_x13_x14)
    del: (not_line-isolated_line_x13_x14)
  (line-set-state-isolated-3_line_x13_x14_breaker_x22_x23_breaker_x11_x12_breaker_x19_x20_obs1412), cost: 1
    pre: (breaker-state-is-open_breaker_x11_x12) (breaker-state-is-open_breaker_x19_x20) (breaker-state-is-open_breaker_x22_x23) (line-iso-state-may-have-changed_line_x13_x14_obs1412) (not_at_end_constraint0) (not_at_end_constraint1) (not_at_end_constraint2)
    add: (line-isolated_line_x13_x14)
    del: (not_line-isolated_line_x13_x14)
  (line-set-state-isolated-4_line_x15_x16_breaker_x17_x18_breaker_x26_x27_breaker_x28_x29_breaker_x5_x6_obs1407), cost: 1
    pre: (breaker-state-is-open_breaker_x17_x18) (breaker-state-is-open_breaker_x26_x27) (breaker-state-is-open_breaker_x28_x29) (breaker-state-is-open_breaker_x5_x6) (line-iso-state-may-have-changed_line_x15_x16_obs1407) (not_at_end_constraint0) (not_at_end_constraint1) (not_at_end_constraint2)
    add: (line-iso-state-changed_line_x15_x16_obs1407) (line-isolated_line_x15_x16)
    del: (not_line-isolated_line_x15_x16)
  (line-voltage-goes-to-zero-unexplained-1_line_x13_x14_obs1399_n0_n1), cost: 1
    pre: (fault-count-2_count-as-fault_line_x13_x14_n0) (not_at_end_constraint0) (not_at_end_constraint1) (not_at_end_constraint2) (pending_obs1399)
    add: (fault-count-2_count-as-fault_line_x13_x14_n1) (observed_obs1399)
    del: (fault-count-2_count-as-fault_line_x13_x14_n0) (pending_obs1399)
  (line-voltage-goes-to-zero-unexplained-1_line_x15_x16_obs1409_n0_n1), cost: 1
    pre: (fault-count-2_count-as-fault_line_x15_x16_n0) (not_at_end_constraint0) (not_at_end_constraint1) (not_at_end_constraint2) (pending_obs1409)
    add: (fault-count-2_count-as-fault_line_x15_x16_n1) (observed_obs1409)
    del: (dominates-2_hyp3_count-as-fault_line_x15_x16) (fault-count-2_count-as-fault_line_x15_x16_n0) (pending_obs1409)
  (line-voltage-goes-to-zero-unexplained-1_line_x15_x16_obs1409_n1_n2), cost: 1
    pre: (fault-count-2_count-as-fault_line_x15_x16_n1) (not_at_end_constraint0) (not_at_end_constraint1) (not_at_end_constraint2) (pending_obs1409)
    add: (observed_obs1409)
    del: (fault-count-2_count-as-fault_line_x15_x16_n1) (pending_obs1409)
  (line-voltage-goes-to-zero-when-isolated-1_line_x15_x16_obs1409_obs1407), cost: 1
    pre: (line-iso-state-changed_line_x15_x16_obs1407) (line-isolated_line_x15_x16) (not_at_end_constraint0) (not_at_end_constraint1) (not_at_end_constraint2) (pending_obs1409)
    add: (observed_obs1409)
    del: (pending_obs1409)
  (set_goal_1_constraint0), cost: 1
    pre: (dominates-2_hyp3_count-as-fault_breaker_x19_x20) (not_at_end_constraint0) (not_at_end_constraint1) (not_at_end_constraint2) (observed_obs1398) (observed_obs1399) (observed_obs1400) (observed_obs1401) (observed_obs1402) (observed_obs1403) (observed_obs1404) (observed_obs1405) (observed_obs1406) (observed_obs1407) (observed_obs1408) (observed_obs1409) (observed_obs1410) (observed_obs1411) (observed_obs1412) (observed_obs1413) (observed_obs1414) (observed_obs1415) (observed_obs1416) (observed_obs1417)
    add: (achieved_constraint0)
    del: (not_at_end_constraint0)
  (set_goal_1_constraint1), cost: 1
    pre: (achieved_constraint0) (dominates-2_hyp2_count-as-fault_breaker_x17_x18) (not_at_end_constraint1) (not_at_end_constraint2) (observed_obs1398) (observed_obs1399) (observed_obs1400) (observed_obs1401) (observed_obs1402) (observed_obs1403) (observed_obs1404) (observed_obs1405) (observed_obs1406) (observed_obs1407) (observed_obs1408) (observed_obs1409) (observed_obs1410) (observed_obs1411) (observed_obs1412) (observed_obs1413) (observed_obs1414) (observed_obs1415) (observed_obs1416) (observed_obs1417)
    add: (achieved_constraint1)
    del: (not_at_end_constraint1)
  (set_goal_1_constraint2), cost: 1
    pre: (achieved_constraint0) (achieved_constraint1) (dominates-2_hyp1_count-as-fault_breaker_x17_x18) (not_at_end_constraint2) (observed_obs1398) (observed_obs1399) (observed_obs1400) (observed_obs1401) (observed_obs1402) (observed_obs1403) (observed_obs1404) (observed_obs1405) (observed_obs1406) (observed_obs1407) (observed_obs1408) (observed_obs1409) (observed_obs1410) (observed_obs1411) (observed_obs1412) (observed_obs1413) (observed_obs1414) (observed_obs1415) (observed_obs1416) (observed_obs1417)
    add: (achieved_constraint2)
    del: (not_at_end_constraint2)
  (set_goal_2_constraint1), cost: 1
    pre: (achieved_constraint0) (dominates-2_hyp2_count-as-fault_breaker_x19_x20) (not_at_end_constraint1) (not_at_end_constraint2) (observed_obs1398) (observed_obs1399) (observed_obs1400) (observed_obs1401) (observed_obs1402) (observed_obs1403) (observed_obs1404) (observed_obs1405) (observed_obs1406) (observed_obs1407) (observed_obs1408) (observed_obs1409) (observed_obs1410) (observed_obs1411) (observed_obs1412) (observed_obs1413) (observed_obs1414) (observed_obs1415) (observed_obs1416) (observed_obs1417)
    add: (achieved_constraint1)
    del: (not_at_end_constraint1)
  (set_goal_5_constraint2), cost: 1
    pre: (achieved_constraint0) (achieved_constraint1) (dominates-2_hyp1_count-as-fault_line_x13_x14) (not_at_end_constraint2) (observed_obs1398) (observed_obs1399) (observed_obs1400) (observed_obs1401) (observed_obs1402) (observed_obs1403) (observed_obs1404) (observed_obs1405) (observed_obs1406) (observed_obs1407) (observed_obs1408) (observed_obs1409) (observed_obs1410) (observed_obs1411) (observed_obs1412) (observed_obs1413) (observed_obs1414) (observed_obs1415) (observed_obs1416) (observed_obs1417)
    add: (achieved_constraint2)
    del: (not_at_end_constraint2)
  (set_goal_6_constraint0), cost: 1
    pre: (dominates-2_hyp3_count-as-fault_line_x15_x16) (not_at_end_constraint0) (not_at_end_constraint1) (not_at_end_constraint2) (observed_obs1398) (observed_obs1399) (observed_obs1400) (observed_obs1401) (observed_obs1402) (observed_obs1403) (observed_obs1404) (observed_obs1405) (observed_obs1406) (observed_obs1407) (observed_obs1408) (observed_obs1409) (observed_obs1410) (observed_obs1411) (observed_obs1412) (observed_obs1413) (observed_obs1414) (observed_obs1415) (observed_obs1416) (observed_obs1417)
    add: (achieved_constraint0)
    del: (not_at_end_constraint0)
Init State: (breaker-ar-status-is-unknown_breaker_x11_x12) (breaker-ar-status-is-unknown_breaker_x17_x18) (breaker-ar-status-is-unknown_breaker_x19_x20) (breaker-state-is-unknown_breaker_x11_x12) (breaker-state-is-unknown_breaker_x17_x18) (breaker-state-is-unknown_breaker_x19_x20) (breaker-state-is-unknown_breaker_x22_x23) (breaker-state-is-unknown_breaker_x26_x27) (breaker-state-is-unknown_breaker_x28_x29) (breaker-state-is-unknown_breaker_x5_x6) (dominates-2_hyp1_count-as-fault_breaker_x17_x18) (dominates-2_hyp1_count-as-fault_line_x13_x14) (dominates-2_hyp2_count-as-fault_breaker_x17_x18) (dominates-2_hyp2_count-as-fault_breaker_x19_x20) (dominates-2_hyp3_count-as-fault_breaker_x19_x20) (dominates-2_hyp3_count-as-fault_line_x15_x16) (fault-count-2_count-as-fault_breaker_x11_x12_n0) (fault-count-2_count-as-fault_breaker_x17_x18_n0) (fault-count-2_count-as-fault_breaker_x19_x20_n0) (fault-count-2_count-as-fault_breaker_x3_x4_n0) (fault-count-2_count-as-fault_breaker_x5_x6_n0) (fault-count-2_count-as-fault_breaker_x7_x8_n0) (fault-count-2_count-as-fault_breaker_x9_x10_n0) (fault-count-2_count-as-fault_bus_x21_n0) (fault-count-2_count-as-fault_line_x13_x14_n0) (fault-count-2_count-as-fault_line_x15_x16_n0) (future_obs1400) (future_obs1401) (future_obs1402) (future_obs1403) (future_obs1404) (future_obs1405) (future_obs1406) (future_obs1407) (future_obs1408) (future_obs1409) (future_obs1410) (future_obs1411) (future_obs1412) (future_obs1413) (future_obs1414) (future_obs1415) (future_obs1416) (future_obs1417) (not_at_end_constraint0) (not_at_end_constraint1) (not_at_end_constraint2) (not_line-iso-trip-in-progress_line_x13_x14_obs1410) (not_line-iso-trip-in-progress_line_x13_x14_obs1412) (not_line-iso-trip-in-progress_line_x15_x16_obs1407) (not_line-isolated_line_x13_x14) (not_line-isolated_line_x15_x16) (pending_obs1398) (pending_obs1399)
Goal: (achieved_constraint0) (achieved_constraint1) (achieved_constraint2) (observed_obs1398) (observed_obs1399) (observed_obs1400) (observed_obs1401) (observed_obs1402) (observed_obs1403) (observed_obs1404) (observed_obs1405) (observed_obs1406) (observed_obs1407) (observed_obs1408) (observed_obs1409) (observed_obs1410) (observed_obs1411) (observed_obs1412) (observed_obs1413) (observed_obs1414) (observed_obs1415) (observed_obs1416) (observed_obs1417)
