 (available goods0 market4) (on-sale goods0 market4):fam
 (available goods0 market5) (on-sale goods0 market5):fam
 (available goods0 market6) (on-sale goods0 market6):fam
 (available goods2 market3) (on-sale goods2 market3):fam
 (available goods2 market6) (on-sale goods2 market6):fam
 (money level60) (money level62) (on-sale goods1 market1):fam
 (available goods1 market1) (loaded goods1 truck0) (on-sale goods1 market1) (stored goods1):=1:fam:G
 (at truck0 depot0) (at truck0 market1) (at truck0 market2) (at truck0 market3) (at truck0 market4) (at truck0 market5) (at truck0 market6):=1:fam
 (money level10) (money level11) (money level12) (money level13) (money level14) (money level15) (money level16) (money level17) (money level18) (money level19) (money level2) (money level20) (money level21) (money level22) (money level23) (money level24) (money level25) (money level26) (money level27) (money level28) (money level29) (money level3) (money level30) (money level31) (money level32) (money level33) (money level34) (money level35) (money level36) (money level37) (money level38) (money level39) (money level4) (money level40) (money level41) (money level42) (money level43) (money level44) (money level45) (money level46) (money level47) (money level48) (money level49) (money level5) (money level50) (money level51) (money level52) (money level53) (money level54) (money level55) (money level56) (money level57) (money level58) (money level59) (money level6) (money level60) (money level61) (money level62) (money level63) (money level65) (money level67) (money level7) (money level8) (money level9):fam

