Fact[81]:
  (at t1 p1 p1 0-0-0)
  (at t1 p1 p2 0-1-1)
  (at t1 p1 p3 0-2-2)
  (at t1 p2 p1 0-3-3)
  (at t1 p2 p2 0-4-4)
  (at t1 p2 p3 0-5-5)
  (at t1 p3 p1 0-6-6)
  (at t1 p3 p2 0-7-7)
  (at t1 p3 p3 0-8-8)
  (at t2 p1 p1 1-0-9)
  (at t2 p1 p2 1-1-10)
  (at t2 p1 p3 1-2-11)
  (at t2 p2 p1 1-3-12)
  (at t2 p2 p2 1-4-13)
  (at t2 p2 p3 1-5-14)
  (at t2 p3 p1 1-6-15)
  (at t2 p3 p2 1-7-16)
  (at t2 p3 p3 1-8-17)
  (at t3 p1 p1 2-0-18)
  (at t3 p1 p2 2-1-19)
  (at t3 p1 p3 2-2-20)
  (at t3 p2 p1 2-3-21)
  (at t3 p2 p2 2-4-22)
  (at t3 p2 p3 2-5-23)
  (at t3 p3 p1 2-6-24)
  (at t3 p3 p2 2-7-25)
  (at t3 p3 p3 2-8-26)
  (at t4 p1 p1 3-0-27)
  (at t4 p1 p2 3-1-28)
  (at t4 p1 p3 3-2-29)
  (at t4 p2 p1 3-3-30)
  (at t4 p2 p2 3-4-31)
  (at t4 p2 p3 3-5-32)
  (at t4 p3 p1 3-6-33)
  (at t4 p3 p2 3-7-34)
  (at t4 p3 p3 3-8-35)
  (at t5 p1 p1 4-0-36)
  (at t5 p1 p2 4-1-37)
  (at t5 p1 p3 4-2-38)
  (at t5 p2 p1 4-3-39)
  (at t5 p2 p2 4-4-40)
  (at t5 p2 p3 4-5-41)
  (at t5 p3 p1 4-6-42)
  (at t5 p3 p2 4-7-43)
  (at t5 p3 p3 4-8-44)
  (at t6 p1 p1 5-0-45)
  (at t6 p1 p2 5-1-46)
  (at t6 p1 p3 5-2-47)
  (at t6 p2 p1 5-3-48)
  (at t6 p2 p2 5-4-49)
  (at t6 p2 p3 5-5-50)
  (at t6 p3 p1 5-6-51)
  (at t6 p3 p2 5-7-52)
  (at t6 p3 p3 5-8-53)
  (at t7 p1 p1 6-0-54)
  (at t7 p1 p2 6-1-55)
  (at t7 p1 p3 6-2-56)
  (at t7 p2 p1 6-3-57)
  (at t7 p2 p2 6-4-58)
  (at t7 p2 p3 6-5-59)
  (at t7 p3 p1 6-6-60)
  (at t7 p3 p2 6-7-61)
  (at t7 p3 p3 6-8-62)
  (at t8 p1 p1 7-0-63)
  (at t8 p1 p2 7-1-64)
  (at t8 p1 p3 7-2-65)
  (at t8 p2 p1 7-3-66)
  (at t8 p2 p2 7-4-67)
  (at t8 p2 p3 7-5-68)
  (at t8 p3 p1 7-6-69)
  (at t8 p3 p2 7-7-70)
  (at t8 p3 p3 7-8-71)
  (blank p1 p1 8-0-72)
  (blank p1 p2 8-1-73)
  (blank p1 p3 8-2-74)
  (blank p2 p1 8-3-75)
  (blank p2 p2 8-4-76)
  (blank p2 p3 8-5-77)
  (blank p3 p1 8-6-78)
  (blank p3 p2 8-7-79)
  (blank p3 p3 8-8-80)
Op[192]:
  (move-down t1 p1 p2 p1), cost: 1
    pre: (at t1 p1 p2 0-1-1) (blank p1 p1 8-0-72)
    add: (at t1 p1 p1 0-0-0) (blank p1 p2 8-1-73)
    del: (at t1 p1 p2 0-1-1) (blank p1 p1 8-0-72)
  (move-down t1 p1 p3 p2), cost: 1
    pre: (at t1 p1 p3 0-2-2) (blank p1 p2 8-1-73)
    add: (at t1 p1 p2 0-1-1) (blank p1 p3 8-2-74)
    del: (at t1 p1 p3 0-2-2) (blank p1 p2 8-1-73)
  (move-down t1 p2 p2 p1), cost: 1
    pre: (at t1 p2 p2 0-4-4) (blank p2 p1 8-3-75)
    add: (at t1 p2 p1 0-3-3) (blank p2 p2 8-4-76)
    del: (at t1 p2 p2 0-4-4) (blank p2 p1 8-3-75)
  (move-down t1 p2 p3 p2), cost: 1
    pre: (at t1 p2 p3 0-5-5) (blank p2 p2 8-4-76)
    add: (at t1 p2 p2 0-4-4) (blank p2 p3 8-5-77)
    del: (at t1 p2 p3 0-5-5) (blank p2 p2 8-4-76)
  (move-down t1 p3 p2 p1), cost: 1
    pre: (at t1 p3 p2 0-7-7) (blank p3 p1 8-6-78)
    add: (at t1 p3 p1 0-6-6) (blank p3 p2 8-7-79)
    del: (at t1 p3 p2 0-7-7) (blank p3 p1 8-6-78)
  (move-down t1 p3 p3 p2), cost: 1
    pre: (at t1 p3 p3 0-8-8) (blank p3 p2 8-7-79)
    add: (at t1 p3 p2 0-7-7) (blank p3 p3 8-8-80)
    del: (at t1 p3 p3 0-8-8) (blank p3 p2 8-7-79)
  (move-down t2 p1 p2 p1), cost: 1
    pre: (at t2 p1 p2 1-1-10) (blank p1 p1 8-0-72)
    add: (at t2 p1 p1 1-0-9) (blank p1 p2 8-1-73)
    del: (at t2 p1 p2 1-1-10) (blank p1 p1 8-0-72)
  (move-down t2 p1 p3 p2), cost: 1
    pre: (at t2 p1 p3 1-2-11) (blank p1 p2 8-1-73)
    add: (at t2 p1 p2 1-1-10) (blank p1 p3 8-2-74)
    del: (at t2 p1 p3 1-2-11) (blank p1 p2 8-1-73)
  (move-down t2 p2 p2 p1), cost: 1
    pre: (at t2 p2 p2 1-4-13) (blank p2 p1 8-3-75)
    add: (at t2 p2 p1 1-3-12) (blank p2 p2 8-4-76)
    del: (at t2 p2 p2 1-4-13) (blank p2 p1 8-3-75)
  (move-down t2 p2 p3 p2), cost: 1
    pre: (at t2 p2 p3 1-5-14) (blank p2 p2 8-4-76)
    add: (at t2 p2 p2 1-4-13) (blank p2 p3 8-5-77)
    del: (at t2 p2 p3 1-5-14) (blank p2 p2 8-4-76)
  (move-down t2 p3 p2 p1), cost: 1
    pre: (at t2 p3 p2 1-7-16) (blank p3 p1 8-6-78)
    add: (at t2 p3 p1 1-6-15) (blank p3 p2 8-7-79)
    del: (at t2 p3 p2 1-7-16) (blank p3 p1 8-6-78)
  (move-down t2 p3 p3 p2), cost: 1
    pre: (at t2 p3 p3 1-8-17) (blank p3 p2 8-7-79)
    add: (at t2 p3 p2 1-7-16) (blank p3 p3 8-8-80)
    del: (at t2 p3 p3 1-8-17) (blank p3 p2 8-7-79)
  (move-down t3 p1 p2 p1), cost: 1
    pre: (at t3 p1 p2 2-1-19) (blank p1 p1 8-0-72)
    add: (at t3 p1 p1 2-0-18) (blank p1 p2 8-1-73)
    del: (at t3 p1 p2 2-1-19) (blank p1 p1 8-0-72)
  (move-down t3 p1 p3 p2), cost: 1
    pre: (at t3 p1 p3 2-2-20) (blank p1 p2 8-1-73)
    add: (at t3 p1 p2 2-1-19) (blank p1 p3 8-2-74)
    del: (at t3 p1 p3 2-2-20) (blank p1 p2 8-1-73)
  (move-down t3 p2 p2 p1), cost: 1
    pre: (at t3 p2 p2 2-4-22) (blank p2 p1 8-3-75)
    add: (at t3 p2 p1 2-3-21) (blank p2 p2 8-4-76)
    del: (at t3 p2 p2 2-4-22) (blank p2 p1 8-3-75)
  (move-down t3 p2 p3 p2), cost: 1
    pre: (at t3 p2 p3 2-5-23) (blank p2 p2 8-4-76)
    add: (at t3 p2 p2 2-4-22) (blank p2 p3 8-5-77)
    del: (at t3 p2 p3 2-5-23) (blank p2 p2 8-4-76)
  (move-down t3 p3 p2 p1), cost: 1
    pre: (at t3 p3 p2 2-7-25) (blank p3 p1 8-6-78)
    add: (at t3 p3 p1 2-6-24) (blank p3 p2 8-7-79)
    del: (at t3 p3 p2 2-7-25) (blank p3 p1 8-6-78)
  (move-down t3 p3 p3 p2), cost: 1
    pre: (at t3 p3 p3 2-8-26) (blank p3 p2 8-7-79)
    add: (at t3 p3 p2 2-7-25) (blank p3 p3 8-8-80)
    del: (at t3 p3 p3 2-8-26) (blank p3 p2 8-7-79)
  (move-down t4 p1 p2 p1), cost: 1
    pre: (at t4 p1 p2 3-1-28) (blank p1 p1 8-0-72)
    add: (at t4 p1 p1 3-0-27) (blank p1 p2 8-1-73)
    del: (at t4 p1 p2 3-1-28) (blank p1 p1 8-0-72)
  (move-down t4 p1 p3 p2), cost: 1
    pre: (at t4 p1 p3 3-2-29) (blank p1 p2 8-1-73)
    add: (at t4 p1 p2 3-1-28) (blank p1 p3 8-2-74)
    del: (at t4 p1 p3 3-2-29) (blank p1 p2 8-1-73)
  (move-down t4 p2 p2 p1), cost: 1
    pre: (at t4 p2 p2 3-4-31) (blank p2 p1 8-3-75)
    add: (at t4 p2 p1 3-3-30) (blank p2 p2 8-4-76)
    del: (at t4 p2 p2 3-4-31) (blank p2 p1 8-3-75)
  (move-down t4 p2 p3 p2), cost: 1
    pre: (at t4 p2 p3 3-5-32) (blank p2 p2 8-4-76)
    add: (at t4 p2 p2 3-4-31) (blank p2 p3 8-5-77)
    del: (at t4 p2 p3 3-5-32) (blank p2 p2 8-4-76)
  (move-down t4 p3 p2 p1), cost: 1
    pre: (at t4 p3 p2 3-7-34) (blank p3 p1 8-6-78)
    add: (at t4 p3 p1 3-6-33) (blank p3 p2 8-7-79)
    del: (at t4 p3 p2 3-7-34) (blank p3 p1 8-6-78)
  (move-down t4 p3 p3 p2), cost: 1
    pre: (at t4 p3 p3 3-8-35) (blank p3 p2 8-7-79)
    add: (at t4 p3 p2 3-7-34) (blank p3 p3 8-8-80)
    del: (at t4 p3 p3 3-8-35) (blank p3 p2 8-7-79)
  (move-down t5 p1 p2 p1), cost: 1
    pre: (at t5 p1 p2 4-1-37) (blank p1 p1 8-0-72)
    add: (at t5 p1 p1 4-0-36) (blank p1 p2 8-1-73)
    del: (at t5 p1 p2 4-1-37) (blank p1 p1 8-0-72)
  (move-down t5 p1 p3 p2), cost: 1
    pre: (at t5 p1 p3 4-2-38) (blank p1 p2 8-1-73)
    add: (at t5 p1 p2 4-1-37) (blank p1 p3 8-2-74)
    del: (at t5 p1 p3 4-2-38) (blank p1 p2 8-1-73)
  (move-down t5 p2 p2 p1), cost: 1
    pre: (at t5 p2 p2 4-4-40) (blank p2 p1 8-3-75)
    add: (at t5 p2 p1 4-3-39) (blank p2 p2 8-4-76)
    del: (at t5 p2 p2 4-4-40) (blank p2 p1 8-3-75)
  (move-down t5 p2 p3 p2), cost: 1
    pre: (at t5 p2 p3 4-5-41) (blank p2 p2 8-4-76)
    add: (at t5 p2 p2 4-4-40) (blank p2 p3 8-5-77)
    del: (at t5 p2 p3 4-5-41) (blank p2 p2 8-4-76)
  (move-down t5 p3 p2 p1), cost: 1
    pre: (at t5 p3 p2 4-7-43) (blank p3 p1 8-6-78)
    add: (at t5 p3 p1 4-6-42) (blank p3 p2 8-7-79)
    del: (at t5 p3 p2 4-7-43) (blank p3 p1 8-6-78)
  (move-down t5 p3 p3 p2), cost: 1
    pre: (at t5 p3 p3 4-8-44) (blank p3 p2 8-7-79)
    add: (at t5 p3 p2 4-7-43) (blank p3 p3 8-8-80)
    del: (at t5 p3 p3 4-8-44) (blank p3 p2 8-7-79)
  (move-down t6 p1 p2 p1), cost: 1
    pre: (at t6 p1 p2 5-1-46) (blank p1 p1 8-0-72)
    add: (at t6 p1 p1 5-0-45) (blank p1 p2 8-1-73)
    del: (at t6 p1 p2 5-1-46) (blank p1 p1 8-0-72)
  (move-down t6 p1 p3 p2), cost: 1
    pre: (at t6 p1 p3 5-2-47) (blank p1 p2 8-1-73)
    add: (at t6 p1 p2 5-1-46) (blank p1 p3 8-2-74)
    del: (at t6 p1 p3 5-2-47) (blank p1 p2 8-1-73)
  (move-down t6 p2 p2 p1), cost: 1
    pre: (at t6 p2 p2 5-4-49) (blank p2 p1 8-3-75)
    add: (at t6 p2 p1 5-3-48) (blank p2 p2 8-4-76)
    del: (at t6 p2 p2 5-4-49) (blank p2 p1 8-3-75)
  (move-down t6 p2 p3 p2), cost: 1
    pre: (at t6 p2 p3 5-5-50) (blank p2 p2 8-4-76)
    add: (at t6 p2 p2 5-4-49) (blank p2 p3 8-5-77)
    del: (at t6 p2 p3 5-5-50) (blank p2 p2 8-4-76)
  (move-down t6 p3 p2 p1), cost: 1
    pre: (at t6 p3 p2 5-7-52) (blank p3 p1 8-6-78)
    add: (at t6 p3 p1 5-6-51) (blank p3 p2 8-7-79)
    del: (at t6 p3 p2 5-7-52) (blank p3 p1 8-6-78)
  (move-down t6 p3 p3 p2), cost: 1
    pre: (at t6 p3 p3 5-8-53) (blank p3 p2 8-7-79)
    add: (at t6 p3 p2 5-7-52) (blank p3 p3 8-8-80)
    del: (at t6 p3 p3 5-8-53) (blank p3 p2 8-7-79)
  (move-down t7 p1 p2 p1), cost: 1
    pre: (at t7 p1 p2 6-1-55) (blank p1 p1 8-0-72)
    add: (at t7 p1 p1 6-0-54) (blank p1 p2 8-1-73)
    del: (at t7 p1 p2 6-1-55) (blank p1 p1 8-0-72)
  (move-down t7 p1 p3 p2), cost: 1
    pre: (at t7 p1 p3 6-2-56) (blank p1 p2 8-1-73)
    add: (at t7 p1 p2 6-1-55) (blank p1 p3 8-2-74)
    del: (at t7 p1 p3 6-2-56) (blank p1 p2 8-1-73)
  (move-down t7 p2 p2 p1), cost: 1
    pre: (at t7 p2 p2 6-4-58) (blank p2 p1 8-3-75)
    add: (at t7 p2 p1 6-3-57) (blank p2 p2 8-4-76)
    del: (at t7 p2 p2 6-4-58) (blank p2 p1 8-3-75)
  (move-down t7 p2 p3 p2), cost: 1
    pre: (at t7 p2 p3 6-5-59) (blank p2 p2 8-4-76)
    add: (at t7 p2 p2 6-4-58) (blank p2 p3 8-5-77)
    del: (at t7 p2 p3 6-5-59) (blank p2 p2 8-4-76)
  (move-down t7 p3 p2 p1), cost: 1
    pre: (at t7 p3 p2 6-7-61) (blank p3 p1 8-6-78)
    add: (at t7 p3 p1 6-6-60) (blank p3 p2 8-7-79)
    del: (at t7 p3 p2 6-7-61) (blank p3 p1 8-6-78)
  (move-down t7 p3 p3 p2), cost: 1
    pre: (at t7 p3 p3 6-8-62) (blank p3 p2 8-7-79)
    add: (at t7 p3 p2 6-7-61) (blank p3 p3 8-8-80)
    del: (at t7 p3 p3 6-8-62) (blank p3 p2 8-7-79)
  (move-down t8 p1 p2 p1), cost: 1
    pre: (at t8 p1 p2 7-1-64) (blank p1 p1 8-0-72)
    add: (at t8 p1 p1 7-0-63) (blank p1 p2 8-1-73)
    del: (at t8 p1 p2 7-1-64) (blank p1 p1 8-0-72)
  (move-down t8 p1 p3 p2), cost: 1
    pre: (at t8 p1 p3 7-2-65) (blank p1 p2 8-1-73)
    add: (at t8 p1 p2 7-1-64) (blank p1 p3 8-2-74)
    del: (at t8 p1 p3 7-2-65) (blank p1 p2 8-1-73)
  (move-down t8 p2 p2 p1), cost: 1
    pre: (at t8 p2 p2 7-4-67) (blank p2 p1 8-3-75)
    add: (at t8 p2 p1 7-3-66) (blank p2 p2 8-4-76)
    del: (at t8 p2 p2 7-4-67) (blank p2 p1 8-3-75)
  (move-down t8 p2 p3 p2), cost: 1
    pre: (at t8 p2 p3 7-5-68) (blank p2 p2 8-4-76)
    add: (at t8 p2 p2 7-4-67) (blank p2 p3 8-5-77)
    del: (at t8 p2 p3 7-5-68) (blank p2 p2 8-4-76)
  (move-down t8 p3 p2 p1), cost: 1
    pre: (at t8 p3 p2 7-7-70) (blank p3 p1 8-6-78)
    add: (at t8 p3 p1 7-6-69) (blank p3 p2 8-7-79)
    del: (at t8 p3 p2 7-7-70) (blank p3 p1 8-6-78)
  (move-down t8 p3 p3 p2), cost: 1
    pre: (at t8 p3 p3 7-8-71) (blank p3 p2 8-7-79)
    add: (at t8 p3 p2 7-7-70) (blank p3 p3 8-8-80)
    del: (at t8 p3 p3 7-8-71) (blank p3 p2 8-7-79)
  (move-left t1 p1 p1 p2), cost: 1
    pre: (at t1 p1 p1 0-0-0) (blank p2 p1 8-3-75)
    add: (at t1 p2 p1 0-3-3) (blank p1 p1 8-0-72)
    del: (at t1 p1 p1 0-0-0) (blank p2 p1 8-3-75)
  (move-left t1 p1 p2 p2), cost: 1
    pre: (at t1 p1 p2 0-1-1) (blank p2 p2 8-4-76)
    add: (at t1 p2 p2 0-4-4) (blank p1 p2 8-1-73)
    del: (at t1 p1 p2 0-1-1) (blank p2 p2 8-4-76)
  (move-left t1 p1 p3 p2), cost: 1
    pre: (at t1 p1 p3 0-2-2) (blank p2 p3 8-5-77)
    add: (at t1 p2 p3 0-5-5) (blank p1 p3 8-2-74)
    del: (at t1 p1 p3 0-2-2) (blank p2 p3 8-5-77)
  (move-left t1 p2 p1 p3), cost: 1
    pre: (at t1 p2 p1 0-3-3) (blank p3 p1 8-6-78)
    add: (at t1 p3 p1 0-6-6) (blank p2 p1 8-3-75)
    del: (at t1 p2 p1 0-3-3) (blank p3 p1 8-6-78)
  (move-left t1 p2 p2 p3), cost: 1
    pre: (at t1 p2 p2 0-4-4) (blank p3 p2 8-7-79)
    add: (at t1 p3 p2 0-7-7) (blank p2 p2 8-4-76)
    del: (at t1 p2 p2 0-4-4) (blank p3 p2 8-7-79)
  (move-left t1 p2 p3 p3), cost: 1
    pre: (at t1 p2 p3 0-5-5) (blank p3 p3 8-8-80)
    add: (at t1 p3 p3 0-8-8) (blank p2 p3 8-5-77)
    del: (at t1 p2 p3 0-5-5) (blank p3 p3 8-8-80)
  (move-left t2 p1 p1 p2), cost: 1
    pre: (at t2 p1 p1 1-0-9) (blank p2 p1 8-3-75)
    add: (at t2 p2 p1 1-3-12) (blank p1 p1 8-0-72)
    del: (at t2 p1 p1 1-0-9) (blank p2 p1 8-3-75)
  (move-left t2 p1 p2 p2), cost: 1
    pre: (at t2 p1 p2 1-1-10) (blank p2 p2 8-4-76)
    add: (at t2 p2 p2 1-4-13) (blank p1 p2 8-1-73)
    del: (at t2 p1 p2 1-1-10) (blank p2 p2 8-4-76)
  (move-left t2 p1 p3 p2), cost: 1
    pre: (at t2 p1 p3 1-2-11) (blank p2 p3 8-5-77)
    add: (at t2 p2 p3 1-5-14) (blank p1 p3 8-2-74)
    del: (at t2 p1 p3 1-2-11) (blank p2 p3 8-5-77)
  (move-left t2 p2 p1 p3), cost: 1
    pre: (at t2 p2 p1 1-3-12) (blank p3 p1 8-6-78)
    add: (at t2 p3 p1 1-6-15) (blank p2 p1 8-3-75)
    del: (at t2 p2 p1 1-3-12) (blank p3 p1 8-6-78)
  (move-left t2 p2 p2 p3), cost: 1
    pre: (at t2 p2 p2 1-4-13) (blank p3 p2 8-7-79)
    add: (at t2 p3 p2 1-7-16) (blank p2 p2 8-4-76)
    del: (at t2 p2 p2 1-4-13) (blank p3 p2 8-7-79)
  (move-left t2 p2 p3 p3), cost: 1
    pre: (at t2 p2 p3 1-5-14) (blank p3 p3 8-8-80)
    add: (at t2 p3 p3 1-8-17) (blank p2 p3 8-5-77)
    del: (at t2 p2 p3 1-5-14) (blank p3 p3 8-8-80)
  (move-left t3 p1 p1 p2), cost: 1
    pre: (at t3 p1 p1 2-0-18) (blank p2 p1 8-3-75)
    add: (at t3 p2 p1 2-3-21) (blank p1 p1 8-0-72)
    del: (at t3 p1 p1 2-0-18) (blank p2 p1 8-3-75)
  (move-left t3 p1 p2 p2), cost: 1
    pre: (at t3 p1 p2 2-1-19) (blank p2 p2 8-4-76)
    add: (at t3 p2 p2 2-4-22) (blank p1 p2 8-1-73)
    del: (at t3 p1 p2 2-1-19) (blank p2 p2 8-4-76)
  (move-left t3 p1 p3 p2), cost: 1
    pre: (at t3 p1 p3 2-2-20) (blank p2 p3 8-5-77)
    add: (at t3 p2 p3 2-5-23) (blank p1 p3 8-2-74)
    del: (at t3 p1 p3 2-2-20) (blank p2 p3 8-5-77)
  (move-left t3 p2 p1 p3), cost: 1
    pre: (at t3 p2 p1 2-3-21) (blank p3 p1 8-6-78)
    add: (at t3 p3 p1 2-6-24) (blank p2 p1 8-3-75)
    del: (at t3 p2 p1 2-3-21) (blank p3 p1 8-6-78)
  (move-left t3 p2 p2 p3), cost: 1
    pre: (at t3 p2 p2 2-4-22) (blank p3 p2 8-7-79)
    add: (at t3 p3 p2 2-7-25) (blank p2 p2 8-4-76)
    del: (at t3 p2 p2 2-4-22) (blank p3 p2 8-7-79)
  (move-left t3 p2 p3 p3), cost: 1
    pre: (at t3 p2 p3 2-5-23) (blank p3 p3 8-8-80)
    add: (at t3 p3 p3 2-8-26) (blank p2 p3 8-5-77)
    del: (at t3 p2 p3 2-5-23) (blank p3 p3 8-8-80)
  (move-left t4 p1 p1 p2), cost: 1
    pre: (at t4 p1 p1 3-0-27) (blank p2 p1 8-3-75)
    add: (at t4 p2 p1 3-3-30) (blank p1 p1 8-0-72)
    del: (at t4 p1 p1 3-0-27) (blank p2 p1 8-3-75)
  (move-left t4 p1 p2 p2), cost: 1
    pre: (at t4 p1 p2 3-1-28) (blank p2 p2 8-4-76)
    add: (at t4 p2 p2 3-4-31) (blank p1 p2 8-1-73)
    del: (at t4 p1 p2 3-1-28) (blank p2 p2 8-4-76)
  (move-left t4 p1 p3 p2), cost: 1
    pre: (at t4 p1 p3 3-2-29) (blank p2 p3 8-5-77)
    add: (at t4 p2 p3 3-5-32) (blank p1 p3 8-2-74)
    del: (at t4 p1 p3 3-2-29) (blank p2 p3 8-5-77)
  (move-left t4 p2 p1 p3), cost: 1
    pre: (at t4 p2 p1 3-3-30) (blank p3 p1 8-6-78)
    add: (at t4 p3 p1 3-6-33) (blank p2 p1 8-3-75)
    del: (at t4 p2 p1 3-3-30) (blank p3 p1 8-6-78)
  (move-left t4 p2 p2 p3), cost: 1
    pre: (at t4 p2 p2 3-4-31) (blank p3 p2 8-7-79)
    add: (at t4 p3 p2 3-7-34) (blank p2 p2 8-4-76)
    del: (at t4 p2 p2 3-4-31) (blank p3 p2 8-7-79)
  (move-left t4 p2 p3 p3), cost: 1
    pre: (at t4 p2 p3 3-5-32) (blank p3 p3 8-8-80)
    add: (at t4 p3 p3 3-8-35) (blank p2 p3 8-5-77)
    del: (at t4 p2 p3 3-5-32) (blank p3 p3 8-8-80)
  (move-left t5 p1 p1 p2), cost: 1
    pre: (at t5 p1 p1 4-0-36) (blank p2 p1 8-3-75)
    add: (at t5 p2 p1 4-3-39) (blank p1 p1 8-0-72)
    del: (at t5 p1 p1 4-0-36) (blank p2 p1 8-3-75)
  (move-left t5 p1 p2 p2), cost: 1
    pre: (at t5 p1 p2 4-1-37) (blank p2 p2 8-4-76)
    add: (at t5 p2 p2 4-4-40) (blank p1 p2 8-1-73)
    del: (at t5 p1 p2 4-1-37) (blank p2 p2 8-4-76)
  (move-left t5 p1 p3 p2), cost: 1
    pre: (at t5 p1 p3 4-2-38) (blank p2 p3 8-5-77)
    add: (at t5 p2 p3 4-5-41) (blank p1 p3 8-2-74)
    del: (at t5 p1 p3 4-2-38) (blank p2 p3 8-5-77)
  (move-left t5 p2 p1 p3), cost: 1
    pre: (at t5 p2 p1 4-3-39) (blank p3 p1 8-6-78)
    add: (at t5 p3 p1 4-6-42) (blank p2 p1 8-3-75)
    del: (at t5 p2 p1 4-3-39) (blank p3 p1 8-6-78)
  (move-left t5 p2 p2 p3), cost: 1
    pre: (at t5 p2 p2 4-4-40) (blank p3 p2 8-7-79)
    add: (at t5 p3 p2 4-7-43) (blank p2 p2 8-4-76)
    del: (at t5 p2 p2 4-4-40) (blank p3 p2 8-7-79)
  (move-left t5 p2 p3 p3), cost: 1
    pre: (at t5 p2 p3 4-5-41) (blank p3 p3 8-8-80)
    add: (at t5 p3 p3 4-8-44) (blank p2 p3 8-5-77)
    del: (at t5 p2 p3 4-5-41) (blank p3 p3 8-8-80)
  (move-left t6 p1 p1 p2), cost: 1
    pre: (at t6 p1 p1 5-0-45) (blank p2 p1 8-3-75)
    add: (at t6 p2 p1 5-3-48) (blank p1 p1 8-0-72)
    del: (at t6 p1 p1 5-0-45) (blank p2 p1 8-3-75)
  (move-left t6 p1 p2 p2), cost: 1
    pre: (at t6 p1 p2 5-1-46) (blank p2 p2 8-4-76)
    add: (at t6 p2 p2 5-4-49) (blank p1 p2 8-1-73)
    del: (at t6 p1 p2 5-1-46) (blank p2 p2 8-4-76)
  (move-left t6 p1 p3 p2), cost: 1
    pre: (at t6 p1 p3 5-2-47) (blank p2 p3 8-5-77)
    add: (at t6 p2 p3 5-5-50) (blank p1 p3 8-2-74)
    del: (at t6 p1 p3 5-2-47) (blank p2 p3 8-5-77)
  (move-left t6 p2 p1 p3), cost: 1
    pre: (at t6 p2 p1 5-3-48) (blank p3 p1 8-6-78)
    add: (at t6 p3 p1 5-6-51) (blank p2 p1 8-3-75)
    del: (at t6 p2 p1 5-3-48) (blank p3 p1 8-6-78)
  (move-left t6 p2 p2 p3), cost: 1
    pre: (at t6 p2 p2 5-4-49) (blank p3 p2 8-7-79)
    add: (at t6 p3 p2 5-7-52) (blank p2 p2 8-4-76)
    del: (at t6 p2 p2 5-4-49) (blank p3 p2 8-7-79)
  (move-left t6 p2 p3 p3), cost: 1
    pre: (at t6 p2 p3 5-5-50) (blank p3 p3 8-8-80)
    add: (at t6 p3 p3 5-8-53) (blank p2 p3 8-5-77)
    del: (at t6 p2 p3 5-5-50) (blank p3 p3 8-8-80)
  (move-left t7 p1 p1 p2), cost: 1
    pre: (at t7 p1 p1 6-0-54) (blank p2 p1 8-3-75)
    add: (at t7 p2 p1 6-3-57) (blank p1 p1 8-0-72)
    del: (at t7 p1 p1 6-0-54) (blank p2 p1 8-3-75)
  (move-left t7 p1 p2 p2), cost: 1
    pre: (at t7 p1 p2 6-1-55) (blank p2 p2 8-4-76)
    add: (at t7 p2 p2 6-4-58) (blank p1 p2 8-1-73)
    del: (at t7 p1 p2 6-1-55) (blank p2 p2 8-4-76)
  (move-left t7 p1 p3 p2), cost: 1
    pre: (at t7 p1 p3 6-2-56) (blank p2 p3 8-5-77)
    add: (at t7 p2 p3 6-5-59) (blank p1 p3 8-2-74)
    del: (at t7 p1 p3 6-2-56) (blank p2 p3 8-5-77)
  (move-left t7 p2 p1 p3), cost: 1
    pre: (at t7 p2 p1 6-3-57) (blank p3 p1 8-6-78)
    add: (at t7 p3 p1 6-6-60) (blank p2 p1 8-3-75)
    del: (at t7 p2 p1 6-3-57) (blank p3 p1 8-6-78)
  (move-left t7 p2 p2 p3), cost: 1
    pre: (at t7 p2 p2 6-4-58) (blank p3 p2 8-7-79)
    add: (at t7 p3 p2 6-7-61) (blank p2 p2 8-4-76)
    del: (at t7 p2 p2 6-4-58) (blank p3 p2 8-7-79)
  (move-left t7 p2 p3 p3), cost: 1
    pre: (at t7 p2 p3 6-5-59) (blank p3 p3 8-8-80)
    add: (at t7 p3 p3 6-8-62) (blank p2 p3 8-5-77)
    del: (at t7 p2 p3 6-5-59) (blank p3 p3 8-8-80)
  (move-left t8 p1 p1 p2), cost: 1
    pre: (at t8 p1 p1 7-0-63) (blank p2 p1 8-3-75)
    add: (at t8 p2 p1 7-3-66) (blank p1 p1 8-0-72)
    del: (at t8 p1 p1 7-0-63) (blank p2 p1 8-3-75)
  (move-left t8 p1 p2 p2), cost: 1
    pre: (at t8 p1 p2 7-1-64) (blank p2 p2 8-4-76)
    add: (at t8 p2 p2 7-4-67) (blank p1 p2 8-1-73)
    del: (at t8 p1 p2 7-1-64) (blank p2 p2 8-4-76)
  (move-left t8 p1 p3 p2), cost: 1
    pre: (at t8 p1 p3 7-2-65) (blank p2 p3 8-5-77)
    add: (at t8 p2 p3 7-5-68) (blank p1 p3 8-2-74)
    del: (at t8 p1 p3 7-2-65) (blank p2 p3 8-5-77)
  (move-left t8 p2 p1 p3), cost: 1
    pre: (at t8 p2 p1 7-3-66) (blank p3 p1 8-6-78)
    add: (at t8 p3 p1 7-6-69) (blank p2 p1 8-3-75)
    del: (at t8 p2 p1 7-3-66) (blank p3 p1 8-6-78)
  (move-left t8 p2 p2 p3), cost: 1
    pre: (at t8 p2 p2 7-4-67) (blank p3 p2 8-7-79)
    add: (at t8 p3 p2 7-7-70) (blank p2 p2 8-4-76)
    del: (at t8 p2 p2 7-4-67) (blank p3 p2 8-7-79)
  (move-left t8 p2 p3 p3), cost: 1
    pre: (at t8 p2 p3 7-5-68) (blank p3 p3 8-8-80)
    add: (at t8 p3 p3 7-8-71) (blank p2 p3 8-5-77)
    del: (at t8 p2 p3 7-5-68) (blank p3 p3 8-8-80)
  (move-right t1 p2 p1 p1), cost: 1
    pre: (at t1 p2 p1 0-3-3) (blank p1 p1 8-0-72)
    add: (at t1 p1 p1 0-0-0) (blank p2 p1 8-3-75)
    del: (at t1 p2 p1 0-3-3) (blank p1 p1 8-0-72)
  (move-right t1 p2 p2 p1), cost: 1
    pre: (at t1 p2 p2 0-4-4) (blank p1 p2 8-1-73)
    add: (at t1 p1 p2 0-1-1) (blank p2 p2 8-4-76)
    del: (at t1 p2 p2 0-4-4) (blank p1 p2 8-1-73)
  (move-right t1 p2 p3 p1), cost: 1
    pre: (at t1 p2 p3 0-5-5) (blank p1 p3 8-2-74)
    add: (at t1 p1 p3 0-2-2) (blank p2 p3 8-5-77)
    del: (at t1 p2 p3 0-5-5) (blank p1 p3 8-2-74)
  (move-right t1 p3 p1 p2), cost: 1
    pre: (at t1 p3 p1 0-6-6) (blank p2 p1 8-3-75)
    add: (at t1 p2 p1 0-3-3) (blank p3 p1 8-6-78)
    del: (at t1 p3 p1 0-6-6) (blank p2 p1 8-3-75)
  (move-right t1 p3 p2 p2), cost: 1
    pre: (at t1 p3 p2 0-7-7) (blank p2 p2 8-4-76)
    add: (at t1 p2 p2 0-4-4) (blank p3 p2 8-7-79)
    del: (at t1 p3 p2 0-7-7) (blank p2 p2 8-4-76)
  (move-right t1 p3 p3 p2), cost: 1
    pre: (at t1 p3 p3 0-8-8) (blank p2 p3 8-5-77)
    add: (at t1 p2 p3 0-5-5) (blank p3 p3 8-8-80)
    del: (at t1 p3 p3 0-8-8) (blank p2 p3 8-5-77)
  (move-right t2 p2 p1 p1), cost: 1
    pre: (at t2 p2 p1 1-3-12) (blank p1 p1 8-0-72)
    add: (at t2 p1 p1 1-0-9) (blank p2 p1 8-3-75)
    del: (at t2 p2 p1 1-3-12) (blank p1 p1 8-0-72)
  (move-right t2 p2 p2 p1), cost: 1
    pre: (at t2 p2 p2 1-4-13) (blank p1 p2 8-1-73)
    add: (at t2 p1 p2 1-1-10) (blank p2 p2 8-4-76)
    del: (at t2 p2 p2 1-4-13) (blank p1 p2 8-1-73)
  (move-right t2 p2 p3 p1), cost: 1
    pre: (at t2 p2 p3 1-5-14) (blank p1 p3 8-2-74)
    add: (at t2 p1 p3 1-2-11) (blank p2 p3 8-5-77)
    del: (at t2 p2 p3 1-5-14) (blank p1 p3 8-2-74)
  (move-right t2 p3 p1 p2), cost: 1
    pre: (at t2 p3 p1 1-6-15) (blank p2 p1 8-3-75)
    add: (at t2 p2 p1 1-3-12) (blank p3 p1 8-6-78)
    del: (at t2 p3 p1 1-6-15) (blank p2 p1 8-3-75)
  (move-right t2 p3 p2 p2), cost: 1
    pre: (at t2 p3 p2 1-7-16) (blank p2 p2 8-4-76)
    add: (at t2 p2 p2 1-4-13) (blank p3 p2 8-7-79)
    del: (at t2 p3 p2 1-7-16) (blank p2 p2 8-4-76)
  (move-right t2 p3 p3 p2), cost: 1
    pre: (at t2 p3 p3 1-8-17) (blank p2 p3 8-5-77)
    add: (at t2 p2 p3 1-5-14) (blank p3 p3 8-8-80)
    del: (at t2 p3 p3 1-8-17) (blank p2 p3 8-5-77)
  (move-right t3 p2 p1 p1), cost: 1
    pre: (at t3 p2 p1 2-3-21) (blank p1 p1 8-0-72)
    add: (at t3 p1 p1 2-0-18) (blank p2 p1 8-3-75)
    del: (at t3 p2 p1 2-3-21) (blank p1 p1 8-0-72)
  (move-right t3 p2 p2 p1), cost: 1
    pre: (at t3 p2 p2 2-4-22) (blank p1 p2 8-1-73)
    add: (at t3 p1 p2 2-1-19) (blank p2 p2 8-4-76)
    del: (at t3 p2 p2 2-4-22) (blank p1 p2 8-1-73)
  (move-right t3 p2 p3 p1), cost: 1
    pre: (at t3 p2 p3 2-5-23) (blank p1 p3 8-2-74)
    add: (at t3 p1 p3 2-2-20) (blank p2 p3 8-5-77)
    del: (at t3 p2 p3 2-5-23) (blank p1 p3 8-2-74)
  (move-right t3 p3 p1 p2), cost: 1
    pre: (at t3 p3 p1 2-6-24) (blank p2 p1 8-3-75)
    add: (at t3 p2 p1 2-3-21) (blank p3 p1 8-6-78)
    del: (at t3 p3 p1 2-6-24) (blank p2 p1 8-3-75)
  (move-right t3 p3 p2 p2), cost: 1
    pre: (at t3 p3 p2 2-7-25) (blank p2 p2 8-4-76)
    add: (at t3 p2 p2 2-4-22) (blank p3 p2 8-7-79)
    del: (at t3 p3 p2 2-7-25) (blank p2 p2 8-4-76)
  (move-right t3 p3 p3 p2), cost: 1
    pre: (at t3 p3 p3 2-8-26) (blank p2 p3 8-5-77)
    add: (at t3 p2 p3 2-5-23) (blank p3 p3 8-8-80)
    del: (at t3 p3 p3 2-8-26) (blank p2 p3 8-5-77)
  (move-right t4 p2 p1 p1), cost: 1
    pre: (at t4 p2 p1 3-3-30) (blank p1 p1 8-0-72)
    add: (at t4 p1 p1 3-0-27) (blank p2 p1 8-3-75)
    del: (at t4 p2 p1 3-3-30) (blank p1 p1 8-0-72)
  (move-right t4 p2 p2 p1), cost: 1
    pre: (at t4 p2 p2 3-4-31) (blank p1 p2 8-1-73)
    add: (at t4 p1 p2 3-1-28) (blank p2 p2 8-4-76)
    del: (at t4 p2 p2 3-4-31) (blank p1 p2 8-1-73)
  (move-right t4 p2 p3 p1), cost: 1
    pre: (at t4 p2 p3 3-5-32) (blank p1 p3 8-2-74)
    add: (at t4 p1 p3 3-2-29) (blank p2 p3 8-5-77)
    del: (at t4 p2 p3 3-5-32) (blank p1 p3 8-2-74)
  (move-right t4 p3 p1 p2), cost: 1
    pre: (at t4 p3 p1 3-6-33) (blank p2 p1 8-3-75)
    add: (at t4 p2 p1 3-3-30) (blank p3 p1 8-6-78)
    del: (at t4 p3 p1 3-6-33) (blank p2 p1 8-3-75)
  (move-right t4 p3 p2 p2), cost: 1
    pre: (at t4 p3 p2 3-7-34) (blank p2 p2 8-4-76)
    add: (at t4 p2 p2 3-4-31) (blank p3 p2 8-7-79)
    del: (at t4 p3 p2 3-7-34) (blank p2 p2 8-4-76)
  (move-right t4 p3 p3 p2), cost: 1
    pre: (at t4 p3 p3 3-8-35) (blank p2 p3 8-5-77)
    add: (at t4 p2 p3 3-5-32) (blank p3 p3 8-8-80)
    del: (at t4 p3 p3 3-8-35) (blank p2 p3 8-5-77)
  (move-right t5 p2 p1 p1), cost: 1
    pre: (at t5 p2 p1 4-3-39) (blank p1 p1 8-0-72)
    add: (at t5 p1 p1 4-0-36) (blank p2 p1 8-3-75)
    del: (at t5 p2 p1 4-3-39) (blank p1 p1 8-0-72)
  (move-right t5 p2 p2 p1), cost: 1
    pre: (at t5 p2 p2 4-4-40) (blank p1 p2 8-1-73)
    add: (at t5 p1 p2 4-1-37) (blank p2 p2 8-4-76)
    del: (at t5 p2 p2 4-4-40) (blank p1 p2 8-1-73)
  (move-right t5 p2 p3 p1), cost: 1
    pre: (at t5 p2 p3 4-5-41) (blank p1 p3 8-2-74)
    add: (at t5 p1 p3 4-2-38) (blank p2 p3 8-5-77)
    del: (at t5 p2 p3 4-5-41) (blank p1 p3 8-2-74)
  (move-right t5 p3 p1 p2), cost: 1
    pre: (at t5 p3 p1 4-6-42) (blank p2 p1 8-3-75)
    add: (at t5 p2 p1 4-3-39) (blank p3 p1 8-6-78)
    del: (at t5 p3 p1 4-6-42) (blank p2 p1 8-3-75)
  (move-right t5 p3 p2 p2), cost: 1
    pre: (at t5 p3 p2 4-7-43) (blank p2 p2 8-4-76)
    add: (at t5 p2 p2 4-4-40) (blank p3 p2 8-7-79)
    del: (at t5 p3 p2 4-7-43) (blank p2 p2 8-4-76)
  (move-right t5 p3 p3 p2), cost: 1
    pre: (at t5 p3 p3 4-8-44) (blank p2 p3 8-5-77)
    add: (at t5 p2 p3 4-5-41) (blank p3 p3 8-8-80)
    del: (at t5 p3 p3 4-8-44) (blank p2 p3 8-5-77)
  (move-right t6 p2 p1 p1), cost: 1
    pre: (at t6 p2 p1 5-3-48) (blank p1 p1 8-0-72)
    add: (at t6 p1 p1 5-0-45) (blank p2 p1 8-3-75)
    del: (at t6 p2 p1 5-3-48) (blank p1 p1 8-0-72)
  (move-right t6 p2 p2 p1), cost: 1
    pre: (at t6 p2 p2 5-4-49) (blank p1 p2 8-1-73)
    add: (at t6 p1 p2 5-1-46) (blank p2 p2 8-4-76)
    del: (at t6 p2 p2 5-4-49) (blank p1 p2 8-1-73)
  (move-right t6 p2 p3 p1), cost: 1
    pre: (at t6 p2 p3 5-5-50) (blank p1 p3 8-2-74)
    add: (at t6 p1 p3 5-2-47) (blank p2 p3 8-5-77)
    del: (at t6 p2 p3 5-5-50) (blank p1 p3 8-2-74)
  (move-right t6 p3 p1 p2), cost: 1
    pre: (at t6 p3 p1 5-6-51) (blank p2 p1 8-3-75)
    add: (at t6 p2 p1 5-3-48) (blank p3 p1 8-6-78)
    del: (at t6 p3 p1 5-6-51) (blank p2 p1 8-3-75)
  (move-right t6 p3 p2 p2), cost: 1
    pre: (at t6 p3 p2 5-7-52) (blank p2 p2 8-4-76)
    add: (at t6 p2 p2 5-4-49) (blank p3 p2 8-7-79)
    del: (at t6 p3 p2 5-7-52) (blank p2 p2 8-4-76)
  (move-right t6 p3 p3 p2), cost: 1
    pre: (at t6 p3 p3 5-8-53) (blank p2 p3 8-5-77)
    add: (at t6 p2 p3 5-5-50) (blank p3 p3 8-8-80)
    del: (at t6 p3 p3 5-8-53) (blank p2 p3 8-5-77)
  (move-right t7 p2 p1 p1), cost: 1
    pre: (at t7 p2 p1 6-3-57) (blank p1 p1 8-0-72)
    add: (at t7 p1 p1 6-0-54) (blank p2 p1 8-3-75)
    del: (at t7 p2 p1 6-3-57) (blank p1 p1 8-0-72)
  (move-right t7 p2 p2 p1), cost: 1
    pre: (at t7 p2 p2 6-4-58) (blank p1 p2 8-1-73)
    add: (at t7 p1 p2 6-1-55) (blank p2 p2 8-4-76)
    del: (at t7 p2 p2 6-4-58) (blank p1 p2 8-1-73)
  (move-right t7 p2 p3 p1), cost: 1
    pre: (at t7 p2 p3 6-5-59) (blank p1 p3 8-2-74)
    add: (at t7 p1 p3 6-2-56) (blank p2 p3 8-5-77)
    del: (at t7 p2 p3 6-5-59) (blank p1 p3 8-2-74)
  (move-right t7 p3 p1 p2), cost: 1
    pre: (at t7 p3 p1 6-6-60) (blank p2 p1 8-3-75)
    add: (at t7 p2 p1 6-3-57) (blank p3 p1 8-6-78)
    del: (at t7 p3 p1 6-6-60) (blank p2 p1 8-3-75)
  (move-right t7 p3 p2 p2), cost: 1
    pre: (at t7 p3 p2 6-7-61) (blank p2 p2 8-4-76)
    add: (at t7 p2 p2 6-4-58) (blank p3 p2 8-7-79)
    del: (at t7 p3 p2 6-7-61) (blank p2 p2 8-4-76)
  (move-right t7 p3 p3 p2), cost: 1
    pre: (at t7 p3 p3 6-8-62) (blank p2 p3 8-5-77)
    add: (at t7 p2 p3 6-5-59) (blank p3 p3 8-8-80)
    del: (at t7 p3 p3 6-8-62) (blank p2 p3 8-5-77)
  (move-right t8 p2 p1 p1), cost: 1
    pre: (at t8 p2 p1 7-3-66) (blank p1 p1 8-0-72)
    add: (at t8 p1 p1 7-0-63) (blank p2 p1 8-3-75)
    del: (at t8 p2 p1 7-3-66) (blank p1 p1 8-0-72)
  (move-right t8 p2 p2 p1), cost: 1
    pre: (at t8 p2 p2 7-4-67) (blank p1 p2 8-1-73)
    add: (at t8 p1 p2 7-1-64) (blank p2 p2 8-4-76)
    del: (at t8 p2 p2 7-4-67) (blank p1 p2 8-1-73)
  (move-right t8 p2 p3 p1), cost: 1
    pre: (at t8 p2 p3 7-5-68) (blank p1 p3 8-2-74)
    add: (at t8 p1 p3 7-2-65) (blank p2 p3 8-5-77)
    del: (at t8 p2 p3 7-5-68) (blank p1 p3 8-2-74)
  (move-right t8 p3 p1 p2), cost: 1
    pre: (at t8 p3 p1 7-6-69) (blank p2 p1 8-3-75)
    add: (at t8 p2 p1 7-3-66) (blank p3 p1 8-6-78)
    del: (at t8 p3 p1 7-6-69) (blank p2 p1 8-3-75)
  (move-right t8 p3 p2 p2), cost: 1
    pre: (at t8 p3 p2 7-7-70) (blank p2 p2 8-4-76)
    add: (at t8 p2 p2 7-4-67) (blank p3 p2 8-7-79)
    del: (at t8 p3 p2 7-7-70) (blank p2 p2 8-4-76)
  (move-right t8 p3 p3 p2), cost: 1
    pre: (at t8 p3 p3 7-8-71) (blank p2 p3 8-5-77)
    add: (at t8 p2 p3 7-5-68) (blank p3 p3 8-8-80)
    del: (at t8 p3 p3 7-8-71) (blank p2 p3 8-5-77)
  (move-up t1 p1 p1 p2), cost: 1
    pre: (at t1 p1 p1 0-0-0) (blank p1 p2 8-1-73)
    add: (at t1 p1 p2 0-1-1) (blank p1 p1 8-0-72)
    del: (at t1 p1 p1 0-0-0) (blank p1 p2 8-1-73)
  (move-up t1 p1 p2 p3), cost: 1
    pre: (at t1 p1 p2 0-1-1) (blank p1 p3 8-2-74)
    add: (at t1 p1 p3 0-2-2) (blank p1 p2 8-1-73)
    del: (at t1 p1 p2 0-1-1) (blank p1 p3 8-2-74)
  (move-up t1 p2 p1 p2), cost: 1
    pre: (at t1 p2 p1 0-3-3) (blank p2 p2 8-4-76)
    add: (at t1 p2 p2 0-4-4) (blank p2 p1 8-3-75)
    del: (at t1 p2 p1 0-3-3) (blank p2 p2 8-4-76)
  (move-up t1 p2 p2 p3), cost: 1
    pre: (at t1 p2 p2 0-4-4) (blank p2 p3 8-5-77)
    add: (at t1 p2 p3 0-5-5) (blank p2 p2 8-4-76)
    del: (at t1 p2 p2 0-4-4) (blank p2 p3 8-5-77)
  (move-up t1 p3 p1 p2), cost: 1
    pre: (at t1 p3 p1 0-6-6) (blank p3 p2 8-7-79)
    add: (at t1 p3 p2 0-7-7) (blank p3 p1 8-6-78)
    del: (at t1 p3 p1 0-6-6) (blank p3 p2 8-7-79)
  (move-up t1 p3 p2 p3), cost: 1
    pre: (at t1 p3 p2 0-7-7) (blank p3 p3 8-8-80)
    add: (at t1 p3 p3 0-8-8) (blank p3 p2 8-7-79)
    del: (at t1 p3 p2 0-7-7) (blank p3 p3 8-8-80)
  (move-up t2 p1 p1 p2), cost: 1
    pre: (at t2 p1 p1 1-0-9) (blank p1 p2 8-1-73)
    add: (at t2 p1 p2 1-1-10) (blank p1 p1 8-0-72)
    del: (at t2 p1 p1 1-0-9) (blank p1 p2 8-1-73)
  (move-up t2 p1 p2 p3), cost: 1
    pre: (at t2 p1 p2 1-1-10) (blank p1 p3 8-2-74)
    add: (at t2 p1 p3 1-2-11) (blank p1 p2 8-1-73)
    del: (at t2 p1 p2 1-1-10) (blank p1 p3 8-2-74)
  (move-up t2 p2 p1 p2), cost: 1
    pre: (at t2 p2 p1 1-3-12) (blank p2 p2 8-4-76)
    add: (at t2 p2 p2 1-4-13) (blank p2 p1 8-3-75)
    del: (at t2 p2 p1 1-3-12) (blank p2 p2 8-4-76)
  (move-up t2 p2 p2 p3), cost: 1
    pre: (at t2 p2 p2 1-4-13) (blank p2 p3 8-5-77)
    add: (at t2 p2 p3 1-5-14) (blank p2 p2 8-4-76)
    del: (at t2 p2 p2 1-4-13) (blank p2 p3 8-5-77)
  (move-up t2 p3 p1 p2), cost: 1
    pre: (at t2 p3 p1 1-6-15) (blank p3 p2 8-7-79)
    add: (at t2 p3 p2 1-7-16) (blank p3 p1 8-6-78)
    del: (at t2 p3 p1 1-6-15) (blank p3 p2 8-7-79)
  (move-up t2 p3 p2 p3), cost: 1
    pre: (at t2 p3 p2 1-7-16) (blank p3 p3 8-8-80)
    add: (at t2 p3 p3 1-8-17) (blank p3 p2 8-7-79)
    del: (at t2 p3 p2 1-7-16) (blank p3 p3 8-8-80)
  (move-up t3 p1 p1 p2), cost: 1
    pre: (at t3 p1 p1 2-0-18) (blank p1 p2 8-1-73)
    add: (at t3 p1 p2 2-1-19) (blank p1 p1 8-0-72)
    del: (at t3 p1 p1 2-0-18) (blank p1 p2 8-1-73)
  (move-up t3 p1 p2 p3), cost: 1
    pre: (at t3 p1 p2 2-1-19) (blank p1 p3 8-2-74)
    add: (at t3 p1 p3 2-2-20) (blank p1 p2 8-1-73)
    del: (at t3 p1 p2 2-1-19) (blank p1 p3 8-2-74)
  (move-up t3 p2 p1 p2), cost: 1
    pre: (at t3 p2 p1 2-3-21) (blank p2 p2 8-4-76)
    add: (at t3 p2 p2 2-4-22) (blank p2 p1 8-3-75)
    del: (at t3 p2 p1 2-3-21) (blank p2 p2 8-4-76)
  (move-up t3 p2 p2 p3), cost: 1
    pre: (at t3 p2 p2 2-4-22) (blank p2 p3 8-5-77)
    add: (at t3 p2 p3 2-5-23) (blank p2 p2 8-4-76)
    del: (at t3 p2 p2 2-4-22) (blank p2 p3 8-5-77)
  (move-up t3 p3 p1 p2), cost: 1
    pre: (at t3 p3 p1 2-6-24) (blank p3 p2 8-7-79)
    add: (at t3 p3 p2 2-7-25) (blank p3 p1 8-6-78)
    del: (at t3 p3 p1 2-6-24) (blank p3 p2 8-7-79)
  (move-up t3 p3 p2 p3), cost: 1
    pre: (at t3 p3 p2 2-7-25) (blank p3 p3 8-8-80)
    add: (at t3 p3 p3 2-8-26) (blank p3 p2 8-7-79)
    del: (at t3 p3 p2 2-7-25) (blank p3 p3 8-8-80)
  (move-up t4 p1 p1 p2), cost: 1
    pre: (at t4 p1 p1 3-0-27) (blank p1 p2 8-1-73)
    add: (at t4 p1 p2 3-1-28) (blank p1 p1 8-0-72)
    del: (at t4 p1 p1 3-0-27) (blank p1 p2 8-1-73)
  (move-up t4 p1 p2 p3), cost: 1
    pre: (at t4 p1 p2 3-1-28) (blank p1 p3 8-2-74)
    add: (at t4 p1 p3 3-2-29) (blank p1 p2 8-1-73)
    del: (at t4 p1 p2 3-1-28) (blank p1 p3 8-2-74)
  (move-up t4 p2 p1 p2), cost: 1
    pre: (at t4 p2 p1 3-3-30) (blank p2 p2 8-4-76)
    add: (at t4 p2 p2 3-4-31) (blank p2 p1 8-3-75)
    del: (at t4 p2 p1 3-3-30) (blank p2 p2 8-4-76)
  (move-up t4 p2 p2 p3), cost: 1
    pre: (at t4 p2 p2 3-4-31) (blank p2 p3 8-5-77)
    add: (at t4 p2 p3 3-5-32) (blank p2 p2 8-4-76)
    del: (at t4 p2 p2 3-4-31) (blank p2 p3 8-5-77)
  (move-up t4 p3 p1 p2), cost: 1
    pre: (at t4 p3 p1 3-6-33) (blank p3 p2 8-7-79)
    add: (at t4 p3 p2 3-7-34) (blank p3 p1 8-6-78)
    del: (at t4 p3 p1 3-6-33) (blank p3 p2 8-7-79)
  (move-up t4 p3 p2 p3), cost: 1
    pre: (at t4 p3 p2 3-7-34) (blank p3 p3 8-8-80)
    add: (at t4 p3 p3 3-8-35) (blank p3 p2 8-7-79)
    del: (at t4 p3 p2 3-7-34) (blank p3 p3 8-8-80)
  (move-up t5 p1 p1 p2), cost: 1
    pre: (at t5 p1 p1 4-0-36) (blank p1 p2 8-1-73)
    add: (at t5 p1 p2 4-1-37) (blank p1 p1 8-0-72)
    del: (at t5 p1 p1 4-0-36) (blank p1 p2 8-1-73)
  (move-up t5 p1 p2 p3), cost: 1
    pre: (at t5 p1 p2 4-1-37) (blank p1 p3 8-2-74)
    add: (at t5 p1 p3 4-2-38) (blank p1 p2 8-1-73)
    del: (at t5 p1 p2 4-1-37) (blank p1 p3 8-2-74)
  (move-up t5 p2 p1 p2), cost: 1
    pre: (at t5 p2 p1 4-3-39) (blank p2 p2 8-4-76)
    add: (at t5 p2 p2 4-4-40) (blank p2 p1 8-3-75)
    del: (at t5 p2 p1 4-3-39) (blank p2 p2 8-4-76)
  (move-up t5 p2 p2 p3), cost: 1
    pre: (at t5 p2 p2 4-4-40) (blank p2 p3 8-5-77)
    add: (at t5 p2 p3 4-5-41) (blank p2 p2 8-4-76)
    del: (at t5 p2 p2 4-4-40) (blank p2 p3 8-5-77)
  (move-up t5 p3 p1 p2), cost: 1
    pre: (at t5 p3 p1 4-6-42) (blank p3 p2 8-7-79)
    add: (at t5 p3 p2 4-7-43) (blank p3 p1 8-6-78)
    del: (at t5 p3 p1 4-6-42) (blank p3 p2 8-7-79)
  (move-up t5 p3 p2 p3), cost: 1
    pre: (at t5 p3 p2 4-7-43) (blank p3 p3 8-8-80)
    add: (at t5 p3 p3 4-8-44) (blank p3 p2 8-7-79)
    del: (at t5 p3 p2 4-7-43) (blank p3 p3 8-8-80)
  (move-up t6 p1 p1 p2), cost: 1
    pre: (at t6 p1 p1 5-0-45) (blank p1 p2 8-1-73)
    add: (at t6 p1 p2 5-1-46) (blank p1 p1 8-0-72)
    del: (at t6 p1 p1 5-0-45) (blank p1 p2 8-1-73)
  (move-up t6 p1 p2 p3), cost: 1
    pre: (at t6 p1 p2 5-1-46) (blank p1 p3 8-2-74)
    add: (at t6 p1 p3 5-2-47) (blank p1 p2 8-1-73)
    del: (at t6 p1 p2 5-1-46) (blank p1 p3 8-2-74)
  (move-up t6 p2 p1 p2), cost: 1
    pre: (at t6 p2 p1 5-3-48) (blank p2 p2 8-4-76)
    add: (at t6 p2 p2 5-4-49) (blank p2 p1 8-3-75)
    del: (at t6 p2 p1 5-3-48) (blank p2 p2 8-4-76)
  (move-up t6 p2 p2 p3), cost: 1
    pre: (at t6 p2 p2 5-4-49) (blank p2 p3 8-5-77)
    add: (at t6 p2 p3 5-5-50) (blank p2 p2 8-4-76)
    del: (at t6 p2 p2 5-4-49) (blank p2 p3 8-5-77)
  (move-up t6 p3 p1 p2), cost: 1
    pre: (at t6 p3 p1 5-6-51) (blank p3 p2 8-7-79)
    add: (at t6 p3 p2 5-7-52) (blank p3 p1 8-6-78)
    del: (at t6 p3 p1 5-6-51) (blank p3 p2 8-7-79)
  (move-up t6 p3 p2 p3), cost: 1
    pre: (at t6 p3 p2 5-7-52) (blank p3 p3 8-8-80)
    add: (at t6 p3 p3 5-8-53) (blank p3 p2 8-7-79)
    del: (at t6 p3 p2 5-7-52) (blank p3 p3 8-8-80)
  (move-up t7 p1 p1 p2), cost: 1
    pre: (at t7 p1 p1 6-0-54) (blank p1 p2 8-1-73)
    add: (at t7 p1 p2 6-1-55) (blank p1 p1 8-0-72)
    del: (at t7 p1 p1 6-0-54) (blank p1 p2 8-1-73)
  (move-up t7 p1 p2 p3), cost: 1
    pre: (at t7 p1 p2 6-1-55) (blank p1 p3 8-2-74)
    add: (at t7 p1 p3 6-2-56) (blank p1 p2 8-1-73)
    del: (at t7 p1 p2 6-1-55) (blank p1 p3 8-2-74)
  (move-up t7 p2 p1 p2), cost: 1
    pre: (at t7 p2 p1 6-3-57) (blank p2 p2 8-4-76)
    add: (at t7 p2 p2 6-4-58) (blank p2 p1 8-3-75)
    del: (at t7 p2 p1 6-3-57) (blank p2 p2 8-4-76)
  (move-up t7 p2 p2 p3), cost: 1
    pre: (at t7 p2 p2 6-4-58) (blank p2 p3 8-5-77)
    add: (at t7 p2 p3 6-5-59) (blank p2 p2 8-4-76)
    del: (at t7 p2 p2 6-4-58) (blank p2 p3 8-5-77)
  (move-up t7 p3 p1 p2), cost: 1
    pre: (at t7 p3 p1 6-6-60) (blank p3 p2 8-7-79)
    add: (at t7 p3 p2 6-7-61) (blank p3 p1 8-6-78)
    del: (at t7 p3 p1 6-6-60) (blank p3 p2 8-7-79)
  (move-up t7 p3 p2 p3), cost: 1
    pre: (at t7 p3 p2 6-7-61) (blank p3 p3 8-8-80)
    add: (at t7 p3 p3 6-8-62) (blank p3 p2 8-7-79)
    del: (at t7 p3 p2 6-7-61) (blank p3 p3 8-8-80)
  (move-up t8 p1 p1 p2), cost: 1
    pre: (at t8 p1 p1 7-0-63) (blank p1 p2 8-1-73)
    add: (at t8 p1 p2 7-1-64) (blank p1 p1 8-0-72)
    del: (at t8 p1 p1 7-0-63) (blank p1 p2 8-1-73)
  (move-up t8 p1 p2 p3), cost: 1
    pre: (at t8 p1 p2 7-1-64) (blank p1 p3 8-2-74)
    add: (at t8 p1 p3 7-2-65) (blank p1 p2 8-1-73)
    del: (at t8 p1 p2 7-1-64) (blank p1 p3 8-2-74)
  (move-up t8 p2 p1 p2), cost: 1
    pre: (at t8 p2 p1 7-3-66) (blank p2 p2 8-4-76)
    add: (at t8 p2 p2 7-4-67) (blank p2 p1 8-3-75)
    del: (at t8 p2 p1 7-3-66) (blank p2 p2 8-4-76)
  (move-up t8 p2 p2 p3), cost: 1
    pre: (at t8 p2 p2 7-4-67) (blank p2 p3 8-5-77)
    add: (at t8 p2 p3 7-5-68) (blank p2 p2 8-4-76)
    del: (at t8 p2 p2 7-4-67) (blank p2 p3 8-5-77)
  (move-up t8 p3 p1 p2), cost: 1
    pre: (at t8 p3 p1 7-6-69) (blank p3 p2 8-7-79)
    add: (at t8 p3 p2 7-7-70) (blank p3 p1 8-6-78)
    del: (at t8 p3 p1 7-6-69) (blank p3 p2 8-7-79)
  (move-up t8 p3 p2 p3), cost: 1
    pre: (at t8 p3 p2 7-7-70) (blank p3 p3 8-8-80)
    add: (at t8 p3 p3 7-8-71) (blank p3 p2 8-7-79)
    del: (at t8 p3 p2 7-7-70) (blank p3 p3 8-8-80)
Init State: (at t1 p3 p3 0-8-8) (at t2 p1 p1 1-0-9) (at t3 p2 p2 2-4-22) (at t4 p2 p3 3-5-32) (at t5 p1 p3 4-2-38) (at t6 p1 p2 5-1-46) (at t7 p3 p1 6-6-60) (at t8 p3 p2 7-7-70) (blank p2 p1 8-3-75)
Goal: (at t1 p2 p1 0-3-3) (at t2 p3 p1 1-6-15) (at t3 p1 p2 2-1-19) (at t4 p2 p2 3-4-31) (at t5 p3 p2 4-7-43) (at t6 p1 p3 5-2-47) (at t7 p2 p3 6-5-59) (at t8 p3 p3 7-8-71)
Value: 15
