begin_version
3
end_version
begin_metric
1
end_metric
3
begin_variable
var0
-1
3
I
none-of-those
tnf-unknown
end_variable
begin_variable
var1
-1
3
G
none-of-those
tnf-unkown
end_variable
begin_variable
var2
-1
3
P
none-of-those
tnf-unknown
end_variable
0
begin_state
0
1
1
end_state
begin_goal
3
0 2
1 0
2 2
end_goal
7
begin_operator
unreachable-op
1
2 0
1
0 1 2 0
0
end_operator
begin_operator
tnf-forget-0-0
0
1
0 0 0 2
0
end_operator
begin_operator
tnf-forget-0-1
0
1
0 0 1 2
0
end_operator
begin_operator
tnf-forget-1-0
0
1
0 1 0 2
0
end_operator
begin_operator
tnf-forget-1-1
0
1
0 1 1 2
0
end_operator
begin_operator
tnf-forget-2-0
0
1
0 2 0 2
0
end_operator
begin_operator
tnf-forget-2-1
0
1
0 2 1 2
0
end_operator
0
