Reduced 25 -> 15
Domain: pebbling
Problem: pebbling-5
Require: ff
Type[2]:
    [0]: object, parent: -1
    [1]: location, parent: 0
Obj-by-Type:
    [0]: 0 1 2 3 4 5 6 7 8 9 10 11 12 13 14
    [1]: 0 1 2 3 4 5 6 7 8 9 10 11 12 13 14
Obj[15]:
    [0]: pos-0-0, type: 1, is-constant: 0, is-private: 0, owner: -1, is-agent: 0
    [1]: pos-1-0, type: 1, is-constant: 0, is-private: 0, owner: -1, is-agent: 0
    [2]: pos-2-0, type: 1, is-constant: 0, is-private: 0, owner: -1, is-agent: 0
    [3]: pos-0-1, type: 1, is-constant: 0, is-private: 0, owner: -1, is-agent: 0
    [4]: pos-1-1, type: 1, is-constant: 0, is-private: 0, owner: -1, is-agent: 0
    [5]: pos-2-1, type: 1, is-constant: 0, is-private: 0, owner: -1, is-agent: 0
    [6]: pos-0-2, type: 1, is-constant: 0, is-private: 0, owner: -1, is-agent: 0
    [7]: pos-1-2, type: 1, is-constant: 0, is-private: 0, owner: -1, is-agent: 0
    [8]: pos-2-2, type: 1, is-constant: 0, is-private: 0, owner: -1, is-agent: 0
    [9]: pos-3-2, type: 1, is-constant: 0, is-private: 0, owner: -1, is-agent: 0
    [10]: pos-1-3, type: 1, is-constant: 0, is-private: 0, owner: -1, is-agent: 0
    [11]: pos-2-3, type: 1, is-constant: 0, is-private: 0, owner: -1, is-agent: 0
    [12]: pos-3-3, type: 1, is-constant: 0, is-private: 0, owner: -1, is-agent: 0
    [13]: pos-4-3, type: 1, is-constant: 0, is-private: 0, owner: -1, is-agent: 0
    [14]: pos-2-4, type: 1, is-constant: 0, is-private: 0, owner: -1, is-agent: 0
Predicate[5]:
    =: 0 0 :: is-private: 0, owner-param: -1, read: 0, write: 0
    x-succ: 1 1 :: is-private: 0, owner-param: -1, read: 1, write: 0
    y-succ: 1 1 :: is-private: 0, owner-param: -1, read: 1, write: 0
    occupied: 1 :: is-private: 0, owner-param: -1, read: 1, write: 1
    free: 1 :: is-private: 0, owner-param: -1, read: 1, write: 1
Function[0]:
Action[1]:
    move: ?from:1 ?xsucc:1 ?ysucc:1
        pre: (and (R:x-succ ?from ?xsucc) (R:y-succ ?from ?ysucc) (RW:occupied ?from) (RW:free ?xsucc) (RW:free ?ysucc))
        eff: (and (RW:free ?from) (RW:occupied ?xsucc) (RW:occupied ?ysucc))
Init[65]:
  S:(x-succ pos-0-0 pos-1-0)
  S:(x-succ pos-1-0 pos-2-0)
  S:(x-succ pos-2-0 pos-2-0)
  S:(x-succ pos-2-0 pos-2-0)
  S:(x-succ pos-0-1 pos-1-1)
  S:(x-succ pos-1-1 pos-2-1)
  S:(x-succ pos-2-1 pos-2-0)
  S:(x-succ pos-2-0 pos-2-0)
  S:(x-succ pos-0-2 pos-1-2)
  S:(x-succ pos-1-2 pos-2-2)
  S:(x-succ pos-2-2 pos-3-2)
  S:(x-succ pos-3-2 pos-2-0)
  S:(x-succ pos-0-2 pos-1-3)
  S:(x-succ pos-1-3 pos-2-3)
  S:(x-succ pos-2-3 pos-3-3)
  S:(x-succ pos-3-3 pos-4-3)
  S:(x-succ pos-0-2 pos-0-2)
  S:(x-succ pos-0-2 pos-2-4)
  S:(x-succ pos-2-4 pos-4-3)
  S:(x-succ pos-4-3 pos-4-3)
  S:(y-succ pos-0-0 pos-0-1)
  S:(y-succ pos-1-0 pos-1-1)
  S:(y-succ pos-2-0 pos-2-1)
  S:(y-succ pos-2-0 pos-2-0)
  S:(y-succ pos-2-0 pos-2-0)
  S:(y-succ pos-0-1 pos-0-2)
  S:(y-succ pos-1-1 pos-1-2)
  S:(y-succ pos-2-1 pos-2-2)
  S:(y-succ pos-2-0 pos-3-2)
  S:(y-succ pos-2-0 pos-2-0)
  S:(y-succ pos-0-2 pos-0-2)
  S:(y-succ pos-1-2 pos-1-3)
  S:(y-succ pos-2-2 pos-2-3)
  S:(y-succ pos-3-2 pos-3-3)
  S:(y-succ pos-2-0 pos-4-3)
  S:(y-succ pos-0-2 pos-0-2)
  S:(y-succ pos-1-3 pos-0-2)
  S:(y-succ pos-2-3 pos-2-4)
  S:(y-succ pos-3-3 pos-4-3)
  S:(y-succ pos-4-3 pos-4-3)
  (free pos-2-0)
  (free pos-2-0)
  (free pos-2-0)
  (free pos-1-1)
  (free pos-2-1)
  (free pos-2-0)
  (free pos-2-0)
  (free pos-0-2)
  (free pos-1-2)
  (free pos-2-2)
  (free pos-3-2)
  (free pos-2-0)
  (free pos-0-2)
  (free pos-1-3)
  (free pos-2-3)
  (free pos-3-3)
  (free pos-4-3)
  (free pos-0-2)
  (free pos-0-2)
  (free pos-2-4)
  (free pos-4-3)
  (free pos-4-3)
  (occupied pos-0-0)
  (occupied pos-1-0)
  (occupied pos-0-1)
Init[0]:
Goal: (and (RW:free pos-0-0) (RW:free pos-1-0) (RW:free pos-0-1))
Metric: 0
