 (available d0):fam
 (available d1):fam
 (in-storage t0):fam
 (at-surface d0) (available d0):fam
 (at-surface d1) (available d1):fam
 (full t0) (in-storage t0):fam
 (in-storage t0) (in-storage t1):fam
 (full t1) (in-storage t0) (in-storage t1):fam
 (in-storage t0) (in-storage t1) (in-storage t2):fam
 (full t2) (in-storage t0) (in-storage t1) (in-storage t2):fam
 (in-storage t0) (in-storage t1) (in-storage t2) (in-storage t3):fam
 (at-diver d0 l0) (at-diver d0 l1) (at-diver d0 l2) (at-surface d0) (available d0):fam
 (at-diver d1 l0) (at-diver d1 l1) (at-diver d1 l2) (at-surface d1) (available d1):fam
 (capacity d0 four) (capacity d0 one) (capacity d0 three) (capacity d0 two) (capacity d0 zero):=1:fam
 (capacity d1 four) (capacity d1 one) (capacity d1 three) (capacity d1 two) (capacity d1 zero):=1:fam
 (full t3) (in-storage t0) (in-storage t1) (in-storage t2) (in-storage t3):fam
 (in-storage t0) (in-storage t1) (in-storage t2) (in-storage t3) (in-storage t4):fam
 (at-diver d0 l0) (at-diver d0 l1) (at-diver d0 l2) (at-surface d0) (available d0) (decompressing d0):=1:fam:G
 (at-diver d1 l0) (at-diver d1 l1) (at-diver d1 l2) (at-surface d1) (available d1) (decompressing d1):=1:fam:G
 (at-tank t0 l0) (at-tank t0 l1) (at-tank t0 l2) (holding d0 t0) (holding d1 t0) (in-storage t0):=1:fam
 (full t4) (in-storage t0) (in-storage t1) (in-storage t2) (in-storage t3) (in-storage t4):fam
 (in-storage t0) (in-storage t1) (in-storage t2) (in-storage t3) (in-storage t4) (in-storage t5):fam
 (at-tank t1 l0) (at-tank t1 l1) (at-tank t1 l2) (holding d0 t1) (holding d1 t1) (in-storage t0) (in-storage t1):=1:fam
 (full t5) (in-storage t0) (in-storage t1) (in-storage t2) (in-storage t3) (in-storage t4) (in-storage t5):fam
 (at-tank t2 l0) (at-tank t2 l1) (at-tank t2 l2) (holding d0 t2) (holding d1 t2) (in-storage t0) (in-storage t1) (in-storage t2):=1:fam
 (at-tank t3 l0) (at-tank t3 l1) (at-tank t3 l2) (holding d0 t3) (holding d1 t3) (in-storage t0) (in-storage t1) (in-storage t2) (in-storage t3):=1:fam
 (at-tank t4 l0) (at-tank t4 l1) (at-tank t4 l2) (holding d0 t4) (holding d1 t4) (in-storage t0) (in-storage t1) (in-storage t2) (in-storage t3) (in-storage t4):=1:fam
 (at-tank t5 l0) (at-tank t5 l1) (at-tank t5 l2) (holding d0 t5) (holding d1 t5) (in-storage t0) (in-storage t1) (in-storage t2) (in-storage t3) (in-storage t4) (in-storage t5):=1:fam

