Reduced 92 -> 46
Domain: rover
Problem: roverprob--s1026--m25--r2--w12--o7--c7--g5--p0--p1--c10
Require: ff
Type[9]:
    [0]: object, parent: -1
    [1]: rover, parent: 0
    [2]: waypoint, parent: 0
    [3]: store, parent: 0
    [4]: camera, parent: 0
    [5]: mode, parent: 0
    [6]: lander, parent: 0
    [7]: objective, parent: 0
    [8]: energylevel, parent: 0
Obj-by-Type:
    [0]: 0 1 2 3 4 5 6 7 8 9 10 11 12 13 14 15 16 17 18 19 20 21 22 23 24 25 26 27 28 29 30 31 32 33 34 35 36 37 38 39 40 41 42 43 44 45
    [1]: 2
    [2]: 4 5 6 7 8 9 10
    [3]: 3
    [4]: 11
    [5]: 1
    [6]: 0
    [7]: 12 13 14 15
    [8]: 16 17 18 19 20 21 22 23 24 25 26 27 28 29 30 31 32 33 34 35 36 37 38 39 40 41 42 43 44 45
Obj[46]:
    [0]: general, type: 6, is-constant: 0, is-private: 0, owner: -1, is-agent: 0
    [1]: colour, type: 5, is-constant: 0, is-private: 0, owner: -1, is-agent: 0
    [2]: rover0, type: 1, is-constant: 0, is-private: 0, owner: -1, is-agent: 0
    [3]: rover0store, type: 3, is-constant: 0, is-private: 0, owner: -1, is-agent: 0
    [4]: waypoint0, type: 2, is-constant: 0, is-private: 0, owner: -1, is-agent: 0
    [5]: waypoint3, type: 2, is-constant: 0, is-private: 0, owner: -1, is-agent: 0
    [6]: waypoint4, type: 2, is-constant: 0, is-private: 0, owner: -1, is-agent: 0
    [7]: waypoint5, type: 2, is-constant: 0, is-private: 0, owner: -1, is-agent: 0
    [8]: waypoint7, type: 2, is-constant: 0, is-private: 0, owner: -1, is-agent: 0
    [9]: waypoint8, type: 2, is-constant: 0, is-private: 0, owner: -1, is-agent: 0
    [10]: waypoint9, type: 2, is-constant: 0, is-private: 0, owner: -1, is-agent: 0
    [11]: camera0, type: 4, is-constant: 0, is-private: 0, owner: -1, is-agent: 0
    [12]: objective0, type: 7, is-constant: 0, is-private: 0, owner: -1, is-agent: 0
    [13]: objective2, type: 7, is-constant: 0, is-private: 0, owner: -1, is-agent: 0
    [14]: objective3, type: 7, is-constant: 0, is-private: 0, owner: -1, is-agent: 0
    [15]: objective4, type: 7, is-constant: 0, is-private: 0, owner: -1, is-agent: 0
    [16]: level0, type: 8, is-constant: 0, is-private: 0, owner: -1, is-agent: 0
    [17]: level2, type: 8, is-constant: 0, is-private: 0, owner: -1, is-agent: 0
    [18]: level3, type: 8, is-constant: 0, is-private: 0, owner: -1, is-agent: 0
    [19]: level4, type: 8, is-constant: 0, is-private: 0, owner: -1, is-agent: 0
    [20]: level5, type: 8, is-constant: 0, is-private: 0, owner: -1, is-agent: 0
    [21]: level7, type: 8, is-constant: 0, is-private: 0, owner: -1, is-agent: 0
    [22]: level8, type: 8, is-constant: 0, is-private: 0, owner: -1, is-agent: 0
    [23]: level9, type: 8, is-constant: 0, is-private: 0, owner: -1, is-agent: 0
    [24]: level10, type: 8, is-constant: 0, is-private: 0, owner: -1, is-agent: 0
    [25]: level11, type: 8, is-constant: 0, is-private: 0, owner: -1, is-agent: 0
    [26]: level12, type: 8, is-constant: 0, is-private: 0, owner: -1, is-agent: 0
    [27]: level14, type: 8, is-constant: 0, is-private: 0, owner: -1, is-agent: 0
    [28]: level15, type: 8, is-constant: 0, is-private: 0, owner: -1, is-agent: 0
    [29]: level17, type: 8, is-constant: 0, is-private: 0, owner: -1, is-agent: 0
    [30]: level18, type: 8, is-constant: 0, is-private: 0, owner: -1, is-agent: 0
    [31]: level19, type: 8, is-constant: 0, is-private: 0, owner: -1, is-agent: 0
    [32]: level22, type: 8, is-constant: 0, is-private: 0, owner: -1, is-agent: 0
    [33]: level23, type: 8, is-constant: 0, is-private: 0, owner: -1, is-agent: 0
    [34]: level24, type: 8, is-constant: 0, is-private: 0, owner: -1, is-agent: 0
    [35]: level30, type: 8, is-constant: 0, is-private: 0, owner: -1, is-agent: 0
    [36]: level31, type: 8, is-constant: 0, is-private: 0, owner: -1, is-agent: 0
    [37]: level33, type: 8, is-constant: 0, is-private: 0, owner: -1, is-agent: 0
    [38]: level35, type: 8, is-constant: 0, is-private: 0, owner: -1, is-agent: 0
    [39]: level36, type: 8, is-constant: 0, is-private: 0, owner: -1, is-agent: 0
    [40]: level42, type: 8, is-constant: 0, is-private: 0, owner: -1, is-agent: 0
    [41]: level44, type: 8, is-constant: 0, is-private: 0, owner: -1, is-agent: 0
    [42]: level46, type: 8, is-constant: 0, is-private: 0, owner: -1, is-agent: 0
    [43]: level47, type: 8, is-constant: 0, is-private: 0, owner: -1, is-agent: 0
    [44]: level48, type: 8, is-constant: 0, is-private: 0, owner: -1, is-agent: 0
    [45]: level50, type: 8, is-constant: 0, is-private: 0, owner: -1, is-agent: 0
Predicate[29]:
    =: 0 0 :: is-private: 0, owner-param: -1, read: 0, write: 0
    at: 1 2 :: is-private: 0, owner-param: -1, read: 1, write: 1
    at_lander: 6 2 :: is-private: 0, owner-param: -1, read: 1, write: 0
    can_traverse: 1 2 2 :: is-private: 0, owner-param: -1, read: 1, write: 0
    equipped_for_soil_analysis: 1 :: is-private: 0, owner-param: -1, read: 1, write: 0
    equipped_for_rock_analysis: 1 :: is-private: 0, owner-param: -1, read: 1, write: 0
    equipped_for_imaging: 1 :: is-private: 0, owner-param: -1, read: 1, write: 0
    empty: 3 :: is-private: 0, owner-param: -1, read: 1, write: 1
    have_rock_analysis: 1 2 :: is-private: 0, owner-param: -1, read: 1, write: 1
    have_soil_analysis: 1 2 :: is-private: 0, owner-param: -1, read: 1, write: 1
    full: 3 :: is-private: 0, owner-param: -1, read: 1, write: 1
    calibrated: 4 1 :: is-private: 0, owner-param: -1, read: 1, write: 1
    supports: 4 5 :: is-private: 0, owner-param: -1, read: 1, write: 0
    available: 1 :: is-private: 0, owner-param: -1, read: 1, write: 1
    visible: 2 2 :: is-private: 0, owner-param: -1, read: 1, write: 0
    have_image: 1 7 5 :: is-private: 0, owner-param: -1, read: 1, write: 1
    communicated_soil_data: 2 :: is-private: 0, owner-param: -1, read: 0, write: 1
    communicated_rock_data: 2 :: is-private: 0, owner-param: -1, read: 0, write: 1
    communicated_image_data: 7 5 :: is-private: 0, owner-param: -1, read: 0, write: 1
    at_soil_sample: 2 :: is-private: 0, owner-param: -1, read: 1, write: 0
    at_rock_sample: 2 :: is-private: 0, owner-param: -1, read: 1, write: 0
    visible_from: 7 2 :: is-private: 0, owner-param: -1, read: 1, write: 0
    store_of: 3 1 :: is-private: 0, owner-param: -1, read: 1, write: 0
    calibration_target: 4 7 :: is-private: 0, owner-param: -1, read: 1, write: 0
    on_board: 4 1 :: is-private: 0, owner-param: -1, read: 1, write: 0
    channel_free: 6 :: is-private: 0, owner-param: -1, read: 1, write: 1
    energy: 1 8 :: is-private: 0, owner-param: -1, read: 1, write: 1
    energycost: 8 2 2 :: is-private: 0, owner-param: -1, read: 1, write: 0
    sum: 8 8 8 :: is-private: 0, owner-param: -1, read: 1, write: 0
Function[0]:
Action[9]:
    navigate: ?x:1 ?y:2 ?z:2 ?energypost:8 ?energydelta:8 ?energypre:8
        pre: (and (R:can_traverse ?x ?y ?z) (RW:available ?x) (RW:at ?x ?y) (R:visible ?y ?z) (R:energycost ?energydelta ?y ?z) (RW:energy ?x ?energypre) (R:sum ?energypost ?energydelta ?energypre))
        eff: (and (RW:energy ?x ?energypost) (RW:at ?x ?z))
    sample_soil: ?x:1 ?s:3 ?p:2
        pre: (and (RW:at ?x ?p) (R:at_soil_sample ?p) (R:equipped_for_soil_analysis ?x) (R:store_of ?s ?x) (RW:empty ?s))
        eff: (and (N:RW:empty ?s) (RW:full ?s) (RW:have_soil_analysis ?x ?p))
    sample_rock: ?x:1 ?s:3 ?p:2
        pre: (and (RW:at ?x ?p) (R:at_rock_sample ?p) (R:equipped_for_rock_analysis ?x) (R:store_of ?s ?x) (RW:empty ?s))
        eff: (and (N:RW:empty ?s) (RW:full ?s) (RW:have_rock_analysis ?x ?p))
    drop: ?x:1 ?y:3
        pre: (and (R:store_of ?y ?x) (RW:full ?y))
        eff: (and (N:RW:full ?y) (RW:empty ?y))
    calibrate: ?r:1 ?i:4 ?t:7 ?w:2
        pre: (and (R:equipped_for_imaging ?r) (R:calibration_target ?i ?t) (RW:at ?r ?w) (R:visible_from ?t ?w) (R:on_board ?i ?r))
        eff: (and (RW:calibrated ?i ?r))
    take_image: ?r:1 ?p:2 ?o:7 ?i:4 ?m:5
        pre: (and (RW:calibrated ?i ?r) (R:on_board ?i ?r) (R:equipped_for_imaging ?r) (R:supports ?i ?m) (R:visible_from ?o ?p) (RW:at ?r ?p))
        eff: (and (RW:have_image ?r ?o ?m))
    communicate_soil_data: ?r:1 ?l:6 ?p:2 ?x:2 ?y:2
        pre: (and (RW:at ?r ?x) (R:at_lander ?l ?y) (RW:have_soil_analysis ?r ?p) (R:visible ?x ?y) (RW:available ?r) (RW:channel_free ?l))
        eff: (and (RW:channel_free ?l) (W:communicated_soil_data ?p) (RW:available ?r))
    communicate_rock_data: ?r:1 ?l:6 ?p:2 ?x:2 ?y:2
        pre: (and (RW:at ?r ?x) (R:at_lander ?l ?y) (RW:have_rock_analysis ?r ?p) (R:visible ?x ?y) (RW:available ?r) (RW:channel_free ?l))
        eff: (and (RW:channel_free ?l) (W:communicated_rock_data ?p) (RW:available ?r))
    communicate_image_data: ?r:1 ?l:6 ?o:7 ?m:5 ?x:2 ?y:2
        pre: (and (RW:at ?r ?x) (R:at_lander ?l ?y) (RW:have_image ?r ?o ?m) (R:visible ?x ?y) (RW:available ?r) (RW:channel_free ?l))
        eff: (and (RW:channel_free ?l) (W:communicated_image_data ?o ?m) (RW:available ?r))
Init[1511]:
  S:(visible waypoint0 waypoint0)
  S:(visible waypoint0 waypoint7)
  S:(visible waypoint7 waypoint0)
  S:(visible waypoint0 waypoint8)
  S:(visible waypoint8 waypoint0)
  S:(visible waypoint0 waypoint5)
  S:(visible waypoint5 waypoint0)
  S:(visible waypoint0 waypoint3)
  S:(visible waypoint3 waypoint0)
  S:(visible waypoint0 waypoint4)
  S:(visible waypoint4 waypoint0)
  S:(visible waypoint0 waypoint0)
  S:(visible waypoint0 waypoint0)
  S:(visible waypoint3 waypoint0)
  S:(visible waypoint0 waypoint3)
  S:(visible waypoint5 waypoint8)
  S:(visible waypoint8 waypoint5)
  S:(visible waypoint0 waypoint9)
  S:(visible waypoint9 waypoint0)
  S:(visible waypoint7 waypoint4)
  S:(visible waypoint4 waypoint7)
  S:(visible waypoint7 waypoint0)
  S:(visible waypoint0 waypoint7)
  S:(visible waypoint7 waypoint9)
  S:(visible waypoint9 waypoint7)
  S:(visible waypoint8 waypoint3)
  S:(visible waypoint3 waypoint8)
  S:(visible waypoint8 waypoint0)
  S:(visible waypoint0 waypoint8)
  S:(visible waypoint8 waypoint9)
  S:(visible waypoint9 waypoint8)
  S:(visible waypoint9 waypoint0)
  S:(visible waypoint0 waypoint9)
  S:(visible waypoint9 waypoint3)
  S:(visible waypoint3 waypoint9)
  S:(visible waypoint9 waypoint5)
  S:(visible waypoint5 waypoint9)
  S:(energycost level8 waypoint0 waypoint0)
  S:(energycost level3 waypoint0 waypoint7)
  S:(energycost level3 waypoint7 waypoint0)
  S:(energycost level12 waypoint0 waypoint8)
  S:(energycost level12 waypoint8 waypoint0)
  S:(energycost level15 waypoint0 waypoint0)
  S:(energycost level24 waypoint0 waypoint0)
  S:(energycost level2 waypoint0 waypoint0)
  S:(energycost level19 waypoint0 waypoint3)
  S:(energycost level19 waypoint3 waypoint0)
  S:(energycost level7 waypoint0 waypoint4)
  S:(energycost level7 waypoint4 waypoint0)
  S:(energycost level10 waypoint0 waypoint5)
  S:(energycost level10 waypoint5 waypoint0)
  S:(energycost level11 waypoint0 waypoint0)
  S:(energycost level11 waypoint0 waypoint0)
  S:(energycost level2 waypoint0 waypoint7)
  S:(energycost level2 waypoint7 waypoint0)
  S:(energycost level5 waypoint0 waypoint8)
  S:(energycost level5 waypoint8 waypoint0)
  S:(energycost level8 waypoint0 waypoint9)
  S:(energycost level8 waypoint9 waypoint0)
  S:(energycost level5 waypoint0 waypoint4)
  S:(energycost level5 waypoint4 waypoint0)
  S:(energycost level22 waypoint0 waypoint0)
  S:(energycost level22 waypoint0 waypoint0)
  S:(energycost level24 waypoint0 waypoint8)
  S:(energycost level24 waypoint8 waypoint0)
  S:(energycost level2 waypoint0 waypoint9)
  S:(energycost level2 waypoint9 waypoint0)
  S:(energycost level19 waypoint0 waypoint0)
  S:(energycost level2 waypoint3 waypoint0)
  S:(energycost level2 waypoint0 waypoint3)
  S:(energycost level10 waypoint3 waypoint8)
  S:(energycost level10 waypoint8 waypoint3)
  S:(energycost level4 waypoint3 waypoint9)
  S:(energycost level4 waypoint9 waypoint3)
  S:(energycost level4 waypoint3 waypoint0)
  S:(energycost level4 waypoint0 waypoint3)
  S:(energycost level14 waypoint3 waypoint0)
  S:(energycost level14 waypoint0 waypoint3)
  S:(energycost level17 waypoint4 waypoint7)
  S:(energycost level17 waypoint7 waypoint4)
  S:(energycost level19 waypoint4 waypoint0)
  S:(energycost level19 waypoint0 waypoint4)
  S:(energycost level23 waypoint5 waypoint8)
  S:(energycost level23 waypoint8 waypoint5)
  S:(energycost level2 waypoint5 waypoint9)
  S:(energycost level2 waypoint9 waypoint5)
  S:(energycost level18 waypoint5 waypoint0)
  S:(energycost level18 waypoint0 waypoint5)
  S:(energycost level5 waypoint0 waypoint7)
  S:(energycost level5 waypoint7 waypoint0)
  S:(energycost level19 waypoint0 waypoint8)
  S:(energycost level19 waypoint8 waypoint0)
  S:(energycost level2 waypoint0 waypoint9)
  S:(energycost level2 waypoint9 waypoint0)
  S:(energycost level8 waypoint0 waypoint0)
  S:(energycost level8 waypoint0 waypoint0)
  S:(energycost level7 waypoint7 waypoint9)
  S:(energycost level7 waypoint9 waypoint7)
  S:(energycost level2 waypoint7 waypoint0)
  S:(energycost level2 waypoint0 waypoint7)
  S:(energycost level8 waypoint7 waypoint0)
  S:(energycost level8 waypoint0 waypoint7)
  S:(energycost level22 waypoint8 waypoint9)
  S:(energycost level22 waypoint9 waypoint8)
  S:(energycost level11 waypoint8 waypoint0)
  S:(energycost level11 waypoint0 waypoint8)
  S:(energycost level2 waypoint9 waypoint0)
  S:(energycost level2 waypoint0 waypoint9)
  S:(energycost level9 waypoint0 waypoint0)
  S:(sum level0 level0 level0)
  S:(sum level0 level0 level0)
  S:(sum level0 level2 level2)
  S:(sum level0 level3 level3)
  S:(sum level0 level4 level4)
  S:(sum level0 level5 level5)
  S:(sum level0 level0 level0)
  S:(sum level0 level7 level7)
  S:(sum level0 level8 level8)
  S:(sum level0 level9 level9)
  S:(sum level0 level10 level10)
  S:(sum level0 level11 level11)
  S:(sum level0 level12 level12)
  S:(sum level0 level5 level5)
  S:(sum level0 level14 level14)
  S:(sum level0 level15 level15)
  S:(sum level0 level2 level2)
  S:(sum level0 level17 level17)
  S:(sum level0 level18 level18)
  S:(sum level0 level19 level19)
  S:(sum level0 level0 level0)
  S:(sum level0 level0 level0)
  S:(sum level0 level22 level22)
  S:(sum level0 level23 level23)
  S:(sum level0 level24 level24)
  S:(sum level0 level0 level0)
  S:(sum level0 level0 level0)
  S:(sum level0 level0 level0)
  S:(sum level0 level0 level0)
  S:(sum level0 level0 level0)
  S:(sum level0 level30 level30)
  S:(sum level0 level31 level31)
  S:(sum level0 level22 level22)
  S:(sum level0 level33 level33)
  S:(sum level0 level11 level11)
  S:(sum level0 level35 level35)
  S:(sum level0 level36 level36)
  S:(sum level0 level14 level14)
  S:(sum level0 level8 level8)
  S:(sum level0 level42 level42)
  S:(sum level0 level5 level5)
  S:(sum level0 level44 level44)
  S:(sum level0 level4 level4)
  S:(sum level0 level46 level46)
  S:(sum level0 level47 level47)
  S:(sum level0 level48 level48)
  S:(sum level0 level14 level14)
  S:(sum level0 level50 level50)
  S:(sum level0 level0 level0)
  S:(sum level0 level0 level2)
  S:(sum level0 level2 level3)
  S:(sum level0 level3 level4)
  S:(sum level0 level4 level5)
  S:(sum level0 level5 level0)
  S:(sum level0 level0 level7)
  S:(sum level0 level7 level8)
  S:(sum level0 level8 level9)
  S:(sum level0 level9 level10)
  S:(sum level0 level10 level11)
  S:(sum level0 level11 level12)
  S:(sum level0 level12 level5)
  S:(sum level0 level5 level14)
  S:(sum level0 level14 level15)
  S:(sum level0 level15 level2)
  S:(sum level0 level2 level17)
  S:(sum level0 level17 level18)
  S:(sum level0 level18 level19)
  S:(sum level0 level19 level0)
  S:(sum level0 level0 level0)
  S:(sum level0 level0 level22)
  S:(sum level0 level22 level23)
  S:(sum level0 level23 level24)
  S:(sum level0 level24 level0)
  S:(sum level0 level0 level0)
  S:(sum level0 level0 level0)
  S:(sum level0 level0 level0)
  S:(sum level0 level0 level0)
  S:(sum level0 level0 level30)
  S:(sum level0 level30 level31)
  S:(sum level0 level31 level22)
  S:(sum level0 level22 level33)
  S:(sum level0 level33 level11)
  S:(sum level0 level11 level35)
  S:(sum level0 level35 level36)
  S:(sum level0 level36 level14)
  S:(sum level0 level14 level36)
  S:(sum level0 level36 level0)
  S:(sum level0 level0 level22)
  S:(sum level0 level22 level8)
  S:(sum level0 level8 level42)
  S:(sum level0 level42 level5)
  S:(sum level0 level5 level44)
  S:(sum level0 level44 level4)
  S:(sum level0 level4 level46)
  S:(sum level0 level46 level47)
  S:(sum level0 level47 level48)
  S:(sum level0 level48 level14)
  S:(sum level0 level14 level50)
  S:(sum level2 level0 level2)
  S:(sum level2 level0 level3)
  S:(sum level2 level2 level4)
  S:(sum level2 level3 level5)
  S:(sum level2 level4 level0)
  S:(sum level2 level5 level7)
  S:(sum level2 level0 level8)
  S:(sum level2 level7 level9)
  S:(sum level2 level8 level10)
  S:(sum level2 level9 level11)
  S:(sum level2 level10 level12)
  S:(sum level2 level11 level5)
  S:(sum level2 level12 level14)
  S:(sum level2 level5 level15)
  S:(sum level2 level14 level2)
  S:(sum level2 level15 level17)
  S:(sum level2 level2 level18)
  S:(sum level2 level17 level19)
  S:(sum level2 level18 level0)
  S:(sum level2 level19 level0)
  S:(sum level2 level0 level22)
  S:(sum level2 level0 level23)
  S:(sum level2 level22 level24)
  S:(sum level2 level23 level0)
  S:(sum level2 level24 level0)
  S:(sum level2 level0 level0)
  S:(sum level2 level0 level0)
  S:(sum level2 level0 level0)
  S:(sum level2 level0 level30)
  S:(sum level2 level0 level31)
  S:(sum level2 level30 level22)
  S:(sum level2 level31 level33)
  S:(sum level2 level22 level11)
  S:(sum level2 level33 level35)
  S:(sum level2 level11 level36)
  S:(sum level2 level35 level14)
  S:(sum level2 level36 level36)
  S:(sum level2 level14 level0)
  S:(sum level2 level36 level22)
  S:(sum level2 level0 level8)
  S:(sum level2 level22 level42)
  S:(sum level2 level8 level5)
  S:(sum level2 level42 level44)
  S:(sum level2 level5 level4)
  S:(sum level2 level44 level46)
  S:(sum level2 level4 level47)
  S:(sum level2 level46 level48)
  S:(sum level2 level47 level14)
  S:(sum level2 level48 level50)
  S:(sum level3 level0 level3)
  S:(sum level3 level0 level4)
  S:(sum level3 level2 level5)
  S:(sum level3 level3 level0)
  S:(sum level3 level4 level7)
  S:(sum level3 level5 level8)
  S:(sum level3 level0 level9)
  S:(sum level3 level7 level10)
  S:(sum level3 level8 level11)
  S:(sum level3 level9 level12)
  S:(sum level3 level10 level5)
  S:(sum level3 level11 level14)
  S:(sum level3 level12 level15)
  S:(sum level3 level5 level2)
  S:(sum level3 level14 level17)
  S:(sum level3 level15 level18)
  S:(sum level3 level2 level19)
  S:(sum level3 level17 level0)
  S:(sum level3 level18 level0)
  S:(sum level3 level19 level22)
  S:(sum level3 level0 level23)
  S:(sum level3 level0 level24)
  S:(sum level3 level22 level0)
  S:(sum level3 level23 level0)
  S:(sum level3 level24 level0)
  S:(sum level3 level0 level0)
  S:(sum level3 level0 level0)
  S:(sum level3 level0 level30)
  S:(sum level3 level0 level31)
  S:(sum level3 level0 level22)
  S:(sum level3 level30 level33)
  S:(sum level3 level31 level11)
  S:(sum level3 level22 level35)
  S:(sum level3 level33 level36)
  S:(sum level3 level11 level14)
  S:(sum level3 level35 level36)
  S:(sum level3 level36 level0)
  S:(sum level3 level14 level22)
  S:(sum level3 level36 level8)
  S:(sum level3 level0 level42)
  S:(sum level3 level22 level5)
  S:(sum level3 level8 level44)
  S:(sum level3 level42 level4)
  S:(sum level3 level5 level46)
  S:(sum level3 level44 level47)
  S:(sum level3 level4 level48)
  S:(sum level3 level46 level14)
  S:(sum level3 level47 level50)
  S:(sum level4 level0 level4)
  S:(sum level4 level0 level5)
  S:(sum level4 level2 level0)
  S:(sum level4 level3 level7)
  S:(sum level4 level4 level8)
  S:(sum level4 level5 level9)
  S:(sum level4 level0 level10)
  S:(sum level4 level7 level11)
  S:(sum level4 level8 level12)
  S:(sum level4 level9 level5)
  S:(sum level4 level10 level14)
  S:(sum level4 level11 level15)
  S:(sum level4 level12 level2)
  S:(sum level4 level5 level17)
  S:(sum level4 level14 level18)
  S:(sum level4 level15 level19)
  S:(sum level4 level2 level0)
  S:(sum level4 level17 level0)
  S:(sum level4 level18 level22)
  S:(sum level4 level19 level23)
  S:(sum level4 level0 level24)
  S:(sum level4 level0 level0)
  S:(sum level4 level22 level0)
  S:(sum level4 level23 level0)
  S:(sum level4 level24 level0)
  S:(sum level4 level0 level0)
  S:(sum level4 level0 level30)
  S:(sum level4 level0 level31)
  S:(sum level4 level0 level22)
  S:(sum level4 level0 level33)
  S:(sum level4 level30 level11)
  S:(sum level4 level31 level35)
  S:(sum level4 level22 level36)
  S:(sum level4 level33 level14)
  S:(sum level4 level11 level36)
  S:(sum level4 level35 level0)
  S:(sum level4 level36 level22)
  S:(sum level4 level14 level8)
  S:(sum level4 level36 level42)
  S:(sum level4 level0 level5)
  S:(sum level4 level22 level44)
  S:(sum level4 level8 level4)
  S:(sum level4 level42 level46)
  S:(sum level4 level5 level47)
  S:(sum level4 level44 level48)
  S:(sum level4 level4 level14)
  S:(sum level4 level46 level50)
  S:(sum level5 level0 level5)
  S:(sum level5 level0 level0)
  S:(sum level5 level2 level7)
  S:(sum level5 level3 level8)
  S:(sum level5 level4 level9)
  S:(sum level5 level5 level10)
  S:(sum level5 level0 level11)
  S:(sum level5 level7 level12)
  S:(sum level5 level8 level5)
  S:(sum level5 level9 level14)
  S:(sum level5 level10 level15)
  S:(sum level5 level11 level2)
  S:(sum level5 level12 level17)
  S:(sum level5 level5 level18)
  S:(sum level5 level14 level19)
  S:(sum level5 level15 level0)
  S:(sum level5 level2 level0)
  S:(sum level5 level17 level22)
  S:(sum level5 level18 level23)
  S:(sum level5 level19 level24)
  S:(sum level5 level0 level0)
  S:(sum level5 level0 level0)
  S:(sum level5 level22 level0)
  S:(sum level5 level23 level0)
  S:(sum level5 level24 level0)
  S:(sum level5 level0 level30)
  S:(sum level5 level0 level31)
  S:(sum level5 level0 level22)
  S:(sum level5 level0 level33)
  S:(sum level5 level0 level11)
  S:(sum level5 level30 level35)
  S:(sum level5 level31 level36)
  S:(sum level5 level22 level14)
  S:(sum level5 level33 level36)
  S:(sum level5 level11 level0)
  S:(sum level5 level35 level22)
  S:(sum level5 level36 level8)
  S:(sum level5 level14 level42)
  S:(sum level5 level36 level5)
  S:(sum level5 level0 level44)
  S:(sum level5 level22 level4)
  S:(sum level5 level8 level46)
  S:(sum level5 level42 level47)
  S:(sum level5 level5 level48)
  S:(sum level5 level44 level14)
  S:(sum level5 level4 level50)
  S:(sum level0 level0 level0)
  S:(sum level0 level0 level7)
  S:(sum level0 level2 level8)
  S:(sum level0 level3 level9)
  S:(sum level0 level4 level10)
  S:(sum level0 level5 level11)
  S:(sum level0 level0 level12)
  S:(sum level0 level7 level5)
  S:(sum level0 level8 level14)
  S:(sum level0 level9 level15)
  S:(sum level0 level10 level2)
  S:(sum level0 level11 level17)
  S:(sum level0 level12 level18)
  S:(sum level0 level5 level19)
  S:(sum level0 level14 level0)
  S:(sum level0 level15 level0)
  S:(sum level0 level2 level22)
  S:(sum level0 level17 level23)
  S:(sum level0 level18 level24)
  S:(sum level0 level19 level0)
  S:(sum level0 level0 level0)
  S:(sum level0 level0 level0)
  S:(sum level0 level22 level0)
  S:(sum level0 level23 level0)
  S:(sum level0 level24 level30)
  S:(sum level0 level0 level31)
  S:(sum level0 level0 level22)
  S:(sum level0 level0 level33)
  S:(sum level0 level0 level11)
  S:(sum level0 level0 level35)
  S:(sum level0 level30 level36)
  S:(sum level0 level31 level14)
  S:(sum level0 level22 level36)
  S:(sum level0 level33 level0)
  S:(sum level0 level11 level22)
  S:(sum level0 level35 level8)
  S:(sum level0 level36 level42)
  S:(sum level0 level14 level5)
  S:(sum level0 level36 level44)
  S:(sum level0 level0 level4)
  S:(sum level0 level22 level46)
  S:(sum level0 level8 level47)
  S:(sum level0 level42 level48)
  S:(sum level0 level5 level14)
  S:(sum level0 level44 level50)
  S:(sum level7 level0 level7)
  S:(sum level7 level0 level8)
  S:(sum level7 level2 level9)
  S:(sum level7 level3 level10)
  S:(sum level7 level4 level11)
  S:(sum level7 level5 level12)
  S:(sum level7 level0 level5)
  S:(sum level7 level7 level14)
  S:(sum level7 level8 level15)
  S:(sum level7 level9 level2)
  S:(sum level7 level10 level17)
  S:(sum level7 level11 level18)
  S:(sum level7 level12 level19)
  S:(sum level7 level5 level0)
  S:(sum level7 level14 level0)
  S:(sum level7 level15 level22)
  S:(sum level7 level2 level23)
  S:(sum level7 level17 level24)
  S:(sum level7 level18 level0)
  S:(sum level7 level19 level0)
  S:(sum level7 level0 level0)
  S:(sum level7 level0 level0)
  S:(sum level7 level22 level0)
  S:(sum level7 level23 level30)
  S:(sum level7 level24 level31)
  S:(sum level7 level0 level22)
  S:(sum level7 level0 level33)
  S:(sum level7 level0 level11)
  S:(sum level7 level0 level35)
  S:(sum level7 level0 level36)
  S:(sum level7 level30 level14)
  S:(sum level7 level31 level36)
  S:(sum level7 level22 level0)
  S:(sum level7 level33 level22)
  S:(sum level7 level11 level8)
  S:(sum level7 level35 level42)
  S:(sum level7 level36 level5)
  S:(sum level7 level14 level44)
  S:(sum level7 level36 level4)
  S:(sum level7 level0 level46)
  S:(sum level7 level22 level47)
  S:(sum level7 level8 level48)
  S:(sum level7 level42 level14)
  S:(sum level7 level5 level50)
  S:(sum level8 level0 level8)
  S:(sum level8 level0 level9)
  S:(sum level8 level2 level10)
  S:(sum level8 level3 level11)
  S:(sum level8 level4 level12)
  S:(sum level8 level5 level5)
  S:(sum level8 level0 level14)
  S:(sum level8 level7 level15)
  S:(sum level8 level8 level2)
  S:(sum level8 level9 level17)
  S:(sum level8 level10 level18)
  S:(sum level8 level11 level19)
  S:(sum level8 level12 level0)
  S:(sum level8 level5 level0)
  S:(sum level8 level14 level22)
  S:(sum level8 level15 level23)
  S:(sum level8 level2 level24)
  S:(sum level8 level17 level0)
  S:(sum level8 level18 level0)
  S:(sum level8 level19 level0)
  S:(sum level8 level0 level0)
  S:(sum level8 level0 level0)
  S:(sum level8 level22 level30)
  S:(sum level8 level23 level31)
  S:(sum level8 level24 level22)
  S:(sum level8 level0 level33)
  S:(sum level8 level0 level11)
  S:(sum level8 level0 level35)
  S:(sum level8 level0 level36)
  S:(sum level8 level0 level14)
  S:(sum level8 level30 level36)
  S:(sum level8 level31 level0)
  S:(sum level8 level22 level22)
  S:(sum level8 level33 level8)
  S:(sum level8 level11 level42)
  S:(sum level8 level35 level5)
  S:(sum level8 level36 level44)
  S:(sum level8 level14 level4)
  S:(sum level8 level36 level46)
  S:(sum level8 level0 level47)
  S:(sum level8 level22 level48)
  S:(sum level8 level8 level14)
  S:(sum level8 level42 level50)
  S:(sum level9 level0 level9)
  S:(sum level9 level0 level10)
  S:(sum level9 level2 level11)
  S:(sum level9 level3 level12)
  S:(sum level9 level4 level5)
  S:(sum level9 level5 level14)
  S:(sum level9 level0 level15)
  S:(sum level9 level7 level2)
  S:(sum level9 level8 level17)
  S:(sum level9 level9 level18)
  S:(sum level9 level10 level19)
  S:(sum level9 level11 level0)
  S:(sum level9 level12 level0)
  S:(sum level9 level5 level22)
  S:(sum level9 level14 level23)
  S:(sum level9 level15 level24)
  S:(sum level9 level2 level0)
  S:(sum level9 level17 level0)
  S:(sum level9 level18 level0)
  S:(sum level9 level19 level0)
  S:(sum level9 level0 level0)
  S:(sum level9 level0 level30)
  S:(sum level9 level22 level31)
  S:(sum level9 level23 level22)
  S:(sum level9 level24 level33)
  S:(sum level9 level0 level11)
  S:(sum level9 level0 level35)
  S:(sum level9 level0 level36)
  S:(sum level9 level0 level14)
  S:(sum level9 level0 level36)
  S:(sum level9 level30 level0)
  S:(sum level9 level31 level22)
  S:(sum level9 level22 level8)
  S:(sum level9 level33 level42)
  S:(sum level9 level11 level5)
  S:(sum level9 level35 level44)
  S:(sum level9 level36 level4)
  S:(sum level9 level14 level46)
  S:(sum level9 level36 level47)
  S:(sum level9 level0 level48)
  S:(sum level9 level22 level14)
  S:(sum level9 level8 level50)
  S:(sum level10 level0 level10)
  S:(sum level10 level0 level11)
  S:(sum level10 level2 level12)
  S:(sum level10 level3 level5)
  S:(sum level10 level4 level14)
  S:(sum level10 level5 level15)
  S:(sum level10 level0 level2)
  S:(sum level10 level7 level17)
  S:(sum level10 level8 level18)
  S:(sum level10 level9 level19)
  S:(sum level10 level10 level0)
  S:(sum level10 level11 level0)
  S:(sum level10 level12 level22)
  S:(sum level10 level5 level23)
  S:(sum level10 level14 level24)
  S:(sum level10 level15 level0)
  S:(sum level10 level2 level0)
  S:(sum level10 level17 level0)
  S:(sum level10 level18 level0)
  S:(sum level10 level19 level0)
  S:(sum level10 level0 level30)
  S:(sum level10 level0 level31)
  S:(sum level10 level22 level22)
  S:(sum level10 level23 level33)
  S:(sum level10 level24 level11)
  S:(sum level10 level0 level35)
  S:(sum level10 level0 level36)
  S:(sum level10 level0 level14)
  S:(sum level10 level0 level36)
  S:(sum level10 level0 level0)
  S:(sum level10 level30 level22)
  S:(sum level10 level31 level8)
  S:(sum level10 level22 level42)
  S:(sum level10 level33 level5)
  S:(sum level10 level11 level44)
  S:(sum level10 level35 level4)
  S:(sum level10 level36 level46)
  S:(sum level10 level14 level47)
  S:(sum level10 level36 level48)
  S:(sum level10 level0 level14)
  S:(sum level10 level22 level50)
  S:(sum level11 level0 level11)
  S:(sum level11 level0 level12)
  S:(sum level11 level2 level5)
  S:(sum level11 level3 level14)
  S:(sum level11 level4 level15)
  S:(sum level11 level5 level2)
  S:(sum level11 level0 level17)
  S:(sum level11 level7 level18)
  S:(sum level11 level8 level19)
  S:(sum level11 level9 level0)
  S:(sum level11 level10 level0)
  S:(sum level11 level11 level22)
  S:(sum level11 level12 level23)
  S:(sum level11 level5 level24)
  S:(sum level11 level14 level0)
  S:(sum level11 level15 level0)
  S:(sum level11 level2 level0)
  S:(sum level11 level17 level0)
  S:(sum level11 level18 level0)
  S:(sum level11 level19 level30)
  S:(sum level11 level0 level31)
  S:(sum level11 level0 level22)
  S:(sum level11 level22 level33)
  S:(sum level11 level23 level11)
  S:(sum level11 level24 level35)
  S:(sum level11 level0 level36)
  S:(sum level11 level0 level14)
  S:(sum level11 level0 level36)
  S:(sum level11 level0 level0)
  S:(sum level11 level0 level22)
  S:(sum level11 level30 level8)
  S:(sum level11 level31 level42)
  S:(sum level11 level22 level5)
  S:(sum level11 level33 level44)
  S:(sum level11 level11 level4)
  S:(sum level11 level35 level46)
  S:(sum level11 level36 level47)
  S:(sum level11 level14 level48)
  S:(sum level11 level36 level14)
  S:(sum level11 level0 level50)
  S:(sum level12 level0 level12)
  S:(sum level12 level0 level5)
  S:(sum level12 level2 level14)
  S:(sum level12 level3 level15)
  S:(sum level12 level4 level2)
  S:(sum level12 level5 level17)
  S:(sum level12 level0 level18)
  S:(sum level12 level7 level19)
  S:(sum level12 level8 level0)
  S:(sum level12 level9 level0)
  S:(sum level12 level10 level22)
  S:(sum level12 level11 level23)
  S:(sum level12 level12 level24)
  S:(sum level12 level5 level0)
  S:(sum level12 level14 level0)
  S:(sum level12 level15 level0)
  S:(sum level12 level2 level0)
  S:(sum level12 level17 level0)
  S:(sum level12 level18 level30)
  S:(sum level12 level19 level31)
  S:(sum level12 level0 level22)
  S:(sum level12 level0 level33)
  S:(sum level12 level22 level11)
  S:(sum level12 level23 level35)
  S:(sum level12 level24 level36)
  S:(sum level12 level0 level14)
  S:(sum level12 level0 level36)
  S:(sum level12 level0 level0)
  S:(sum level12 level0 level22)
  S:(sum level12 level0 level8)
  S:(sum level12 level30 level42)
  S:(sum level12 level31 level5)
  S:(sum level12 level22 level44)
  S:(sum level12 level33 level4)
  S:(sum level12 level11 level46)
  S:(sum level12 level35 level47)
  S:(sum level12 level36 level48)
  S:(sum level12 level14 level14)
  S:(sum level12 level36 level50)
  S:(sum level5 level0 level5)
  S:(sum level5 level0 level14)
  S:(sum level5 level2 level15)
  S:(sum level5 level3 level2)
  S:(sum level5 level4 level17)
  S:(sum level5 level5 level18)
  S:(sum level5 level0 level19)
  S:(sum level5 level7 level0)
  S:(sum level5 level8 level0)
  S:(sum level5 level9 level22)
  S:(sum level5 level10 level23)
  S:(sum level5 level11 level24)
  S:(sum level5 level12 level0)
  S:(sum level5 level5 level0)
  S:(sum level5 level14 level0)
  S:(sum level5 level15 level0)
  S:(sum level5 level2 level0)
  S:(sum level5 level17 level30)
  S:(sum level5 level18 level31)
  S:(sum level5 level19 level22)
  S:(sum level5 level0 level33)
  S:(sum level5 level0 level11)
  S:(sum level5 level22 level35)
  S:(sum level5 level23 level36)
  S:(sum level5 level24 level14)
  S:(sum level5 level0 level36)
  S:(sum level5 level0 level0)
  S:(sum level5 level0 level22)
  S:(sum level5 level0 level8)
  S:(sum level5 level0 level42)
  S:(sum level5 level30 level5)
  S:(sum level5 level31 level44)
  S:(sum level5 level22 level4)
  S:(sum level5 level33 level46)
  S:(sum level5 level11 level47)
  S:(sum level5 level35 level48)
  S:(sum level5 level36 level14)
  S:(sum level5 level14 level50)
  S:(sum level14 level0 level14)
  S:(sum level14 level0 level15)
  S:(sum level14 level2 level2)
  S:(sum level14 level3 level17)
  S:(sum level14 level4 level18)
  S:(sum level14 level5 level19)
  S:(sum level14 level0 level0)
  S:(sum level14 level7 level0)
  S:(sum level14 level8 level22)
  S:(sum level14 level9 level23)
  S:(sum level14 level10 level24)
  S:(sum level14 level11 level0)
  S:(sum level14 level12 level0)
  S:(sum level14 level5 level0)
  S:(sum level14 level14 level0)
  S:(sum level14 level15 level0)
  S:(sum level14 level2 level30)
  S:(sum level14 level17 level31)
  S:(sum level14 level18 level22)
  S:(sum level14 level19 level33)
  S:(sum level14 level0 level11)
  S:(sum level14 level0 level35)
  S:(sum level14 level22 level36)
  S:(sum level14 level23 level14)
  S:(sum level14 level24 level36)
  S:(sum level14 level0 level0)
  S:(sum level14 level0 level22)
  S:(sum level14 level0 level8)
  S:(sum level14 level0 level42)
  S:(sum level14 level0 level5)
  S:(sum level14 level30 level44)
  S:(sum level14 level31 level4)
  S:(sum level14 level22 level46)
  S:(sum level14 level33 level47)
  S:(sum level14 level11 level48)
  S:(sum level14 level35 level14)
  S:(sum level14 level36 level50)
  S:(sum level15 level0 level15)
  S:(sum level15 level0 level2)
  S:(sum level15 level2 level17)
  S:(sum level15 level3 level18)
  S:(sum level15 level4 level19)
  S:(sum level15 level5 level0)
  S:(sum level15 level0 level0)
  S:(sum level15 level7 level22)
  S:(sum level15 level8 level23)
  S:(sum level15 level9 level24)
  S:(sum level15 level10 level0)
  S:(sum level15 level11 level0)
  S:(sum level15 level12 level0)
  S:(sum level15 level5 level0)
  S:(sum level15 level14 level0)
  S:(sum level15 level15 level30)
  S:(sum level15 level2 level31)
  S:(sum level15 level17 level22)
  S:(sum level15 level18 level33)
  S:(sum level15 level19 level11)
  S:(sum level15 level0 level35)
  S:(sum level15 level0 level36)
  S:(sum level15 level22 level14)
  S:(sum level15 level23 level36)
  S:(sum level15 level24 level0)
  S:(sum level15 level0 level22)
  S:(sum level15 level0 level8)
  S:(sum level15 level0 level42)
  S:(sum level15 level0 level5)
  S:(sum level15 level0 level44)
  S:(sum level15 level30 level4)
  S:(sum level15 level31 level46)
  S:(sum level15 level22 level47)
  S:(sum level15 level33 level48)
  S:(sum level15 level11 level14)
  S:(sum level15 level35 level50)
  S:(sum level2 level0 level2)
  S:(sum level2 level0 level17)
  S:(sum level2 level2 level18)
  S:(sum level2 level3 level19)
  S:(sum level2 level4 level0)
  S:(sum level2 level5 level0)
  S:(sum level2 level0 level22)
  S:(sum level2 level7 level23)
  S:(sum level2 level8 level24)
  S:(sum level2 level9 level0)
  S:(sum level2 level10 level0)
  S:(sum level2 level11 level0)
  S:(sum level2 level12 level0)
  S:(sum level2 level5 level0)
  S:(sum level2 level14 level30)
  S:(sum level2 level15 level31)
  S:(sum level2 level2 level22)
  S:(sum level2 level17 level33)
  S:(sum level2 level18 level11)
  S:(sum level2 level19 level35)
  S:(sum level2 level0 level36)
  S:(sum level2 level0 level14)
  S:(sum level2 level22 level36)
  S:(sum level2 level23 level0)
  S:(sum level2 level24 level22)
  S:(sum level2 level0 level8)
  S:(sum level2 level0 level42)
  S:(sum level2 level0 level5)
  S:(sum level2 level0 level44)
  S:(sum level2 level0 level4)
  S:(sum level2 level30 level46)
  S:(sum level2 level31 level47)
  S:(sum level2 level22 level48)
  S:(sum level2 level33 level14)
  S:(sum level2 level11 level50)
  S:(sum level17 level0 level17)
  S:(sum level17 level0 level18)
  S:(sum level17 level2 level19)
  S:(sum level17 level3 level0)
  S:(sum level17 level4 level0)
  S:(sum level17 level5 level22)
  S:(sum level17 level0 level23)
  S:(sum level17 level7 level24)
  S:(sum level17 level8 level0)
  S:(sum level17 level9 level0)
  S:(sum level17 level10 level0)
  S:(sum level17 level11 level0)
  S:(sum level17 level12 level0)
  S:(sum level17 level5 level30)
  S:(sum level17 level14 level31)
  S:(sum level17 level15 level22)
  S:(sum level17 level2 level33)
  S:(sum level17 level17 level11)
  S:(sum level17 level18 level35)
  S:(sum level17 level19 level36)
  S:(sum level17 level0 level14)
  S:(sum level17 level0 level36)
  S:(sum level17 level22 level0)
  S:(sum level17 level23 level22)
  S:(sum level17 level24 level8)
  S:(sum level17 level0 level42)
  S:(sum level17 level0 level5)
  S:(sum level17 level0 level44)
  S:(sum level17 level0 level4)
  S:(sum level17 level0 level46)
  S:(sum level17 level30 level47)
  S:(sum level17 level31 level48)
  S:(sum level17 level22 level14)
  S:(sum level17 level33 level50)
  S:(sum level18 level0 level18)
  S:(sum level18 level0 level19)
  S:(sum level18 level2 level0)
  S:(sum level18 level3 level0)
  S:(sum level18 level4 level22)
  S:(sum level18 level5 level23)
  S:(sum level18 level0 level24)
  S:(sum level18 level7 level0)
  S:(sum level18 level8 level0)
  S:(sum level18 level9 level0)
  S:(sum level18 level10 level0)
  S:(sum level18 level11 level0)
  S:(sum level18 level12 level30)
  S:(sum level18 level5 level31)
  S:(sum level18 level14 level22)
  S:(sum level18 level15 level33)
  S:(sum level18 level2 level11)
  S:(sum level18 level17 level35)
  S:(sum level18 level18 level36)
  S:(sum level18 level19 level14)
  S:(sum level18 level0 level36)
  S:(sum level18 level0 level0)
  S:(sum level18 level22 level22)
  S:(sum level18 level23 level8)
  S:(sum level18 level24 level42)
  S:(sum level18 level0 level5)
  S:(sum level18 level0 level44)
  S:(sum level18 level0 level4)
  S:(sum level18 level0 level46)
  S:(sum level18 level0 level47)
  S:(sum level18 level30 level48)
  S:(sum level18 level31 level14)
  S:(sum level18 level22 level50)
  S:(sum level19 level0 level19)
  S:(sum level19 level0 level0)
  S:(sum level19 level2 level0)
  S:(sum level19 level3 level22)
  S:(sum level19 level4 level23)
  S:(sum level19 level5 level24)
  S:(sum level19 level0 level0)
  S:(sum level19 level7 level0)
  S:(sum level19 level8 level0)
  S:(sum level19 level9 level0)
  S:(sum level19 level10 level0)
  S:(sum level19 level11 level30)
  S:(sum level19 level12 level31)
  S:(sum level19 level5 level22)
  S:(sum level19 level14 level33)
  S:(sum level19 level15 level11)
  S:(sum level19 level2 level35)
  S:(sum level19 level17 level36)
  S:(sum level19 level18 level14)
  S:(sum level19 level19 level36)
  S:(sum level19 level0 level0)
  S:(sum level19 level0 level22)
  S:(sum level19 level22 level8)
  S:(sum level19 level23 level42)
  S:(sum level19 level24 level5)
  S:(sum level19 level0 level44)
  S:(sum level19 level0 level4)
  S:(sum level19 level0 level46)
  S:(sum level19 level0 level47)
  S:(sum level19 level0 level48)
  S:(sum level19 level30 level14)
  S:(sum level19 level31 level50)
  S:(sum level0 level0 level0)
  S:(sum level0 level0 level0)
  S:(sum level0 level2 level22)
  S:(sum level0 level3 level23)
  S:(sum level0 level4 level24)
  S:(sum level0 level5 level0)
  S:(sum level0 level0 level0)
  S:(sum level0 level7 level0)
  S:(sum level0 level8 level0)
  S:(sum level0 level9 level0)
  S:(sum level0 level10 level30)
  S:(sum level0 level11 level31)
  S:(sum level0 level12 level22)
  S:(sum level0 level5 level33)
  S:(sum level0 level14 level11)
  S:(sum level0 level15 level35)
  S:(sum level0 level2 level36)
  S:(sum level0 level17 level14)
  S:(sum level0 level18 level36)
  S:(sum level0 level19 level0)
  S:(sum level0 level0 level22)
  S:(sum level0 level0 level8)
  S:(sum level0 level22 level42)
  S:(sum level0 level23 level5)
  S:(sum level0 level24 level44)
  S:(sum level0 level0 level4)
  S:(sum level0 level0 level46)
  S:(sum level0 level0 level47)
  S:(sum level0 level0 level48)
  S:(sum level0 level0 level14)
  S:(sum level0 level30 level50)
  S:(sum level0 level0 level0)
  S:(sum level0 level0 level22)
  S:(sum level0 level2 level23)
  S:(sum level0 level3 level24)
  S:(sum level0 level4 level0)
  S:(sum level0 level5 level0)
  S:(sum level0 level0 level0)
  S:(sum level0 level7 level0)
  S:(sum level0 level8 level0)
  S:(sum level0 level9 level30)
  S:(sum level0 level10 level31)
  S:(sum level0 level11 level22)
  S:(sum level0 level12 level33)
  S:(sum level0 level5 level11)
  S:(sum level0 level14 level35)
  S:(sum level0 level15 level36)
  S:(sum level0 level2 level14)
  S:(sum level0 level17 level36)
  S:(sum level0 level18 level0)
  S:(sum level0 level19 level22)
  S:(sum level0 level0 level8)
  S:(sum level0 level0 level42)
  S:(sum level0 level22 level5)
  S:(sum level0 level23 level44)
  S:(sum level0 level24 level4)
  S:(sum level0 level0 level46)
  S:(sum level0 level0 level47)
  S:(sum level0 level0 level48)
  S:(sum level0 level0 level14)
  S:(sum level0 level0 level50)
  S:(sum level22 level0 level22)
  S:(sum level22 level0 level23)
  S:(sum level22 level2 level24)
  S:(sum level22 level3 level0)
  S:(sum level22 level4 level0)
  S:(sum level22 level5 level0)
  S:(sum level22 level0 level0)
  S:(sum level22 level7 level0)
  S:(sum level22 level8 level30)
  S:(sum level22 level9 level31)
  S:(sum level22 level10 level22)
  S:(sum level22 level11 level33)
  S:(sum level22 level12 level11)
  S:(sum level22 level5 level35)
  S:(sum level22 level14 level36)
  S:(sum level22 level15 level14)
  S:(sum level22 level2 level36)
  S:(sum level22 level17 level0)
  S:(sum level22 level18 level22)
  S:(sum level22 level19 level8)
  S:(sum level22 level0 level42)
  S:(sum level22 level0 level5)
  S:(sum level22 level22 level44)
  S:(sum level22 level23 level4)
  S:(sum level22 level24 level46)
  S:(sum level22 level0 level47)
  S:(sum level22 level0 level48)
  S:(sum level22 level0 level14)
  S:(sum level22 level0 level50)
  S:(sum level23 level0 level23)
  S:(sum level23 level0 level24)
  S:(sum level23 level2 level0)
  S:(sum level23 level3 level0)
  S:(sum level23 level4 level0)
  S:(sum level23 level5 level0)
  S:(sum level23 level0 level0)
  S:(sum level23 level7 level30)
  S:(sum level23 level8 level31)
  S:(sum level23 level9 level22)
  S:(sum level23 level10 level33)
  S:(sum level23 level11 level11)
  S:(sum level23 level12 level35)
  S:(sum level23 level5 level36)
  S:(sum level23 level14 level14)
  S:(sum level23 level15 level36)
  S:(sum level23 level2 level0)
  S:(sum level23 level17 level22)
  S:(sum level23 level18 level8)
  S:(sum level23 level19 level42)
  S:(sum level23 level0 level5)
  S:(sum level23 level0 level44)
  S:(sum level23 level22 level4)
  S:(sum level23 level23 level46)
  S:(sum level23 level24 level47)
  S:(sum level23 level0 level48)
  S:(sum level23 level0 level14)
  S:(sum level23 level0 level50)
  S:(sum level24 level0 level24)
  S:(sum level24 level0 level0)
  S:(sum level24 level2 level0)
  S:(sum level24 level3 level0)
  S:(sum level24 level4 level0)
  S:(sum level24 level5 level0)
  S:(sum level24 level0 level30)
  S:(sum level24 level7 level31)
  S:(sum level24 level8 level22)
  S:(sum level24 level9 level33)
  S:(sum level24 level10 level11)
  S:(sum level24 level11 level35)
  S:(sum level24 level12 level36)
  S:(sum level24 level5 level14)
  S:(sum level24 level14 level36)
  S:(sum level24 level15 level0)
  S:(sum level24 level2 level22)
  S:(sum level24 level17 level8)
  S:(sum level24 level18 level42)
  S:(sum level24 level19 level5)
  S:(sum level24 level0 level44)
  S:(sum level24 level0 level4)
  S:(sum level24 level22 level46)
  S:(sum level24 level23 level47)
  S:(sum level24 level24 level48)
  S:(sum level24 level0 level14)
  S:(sum level24 level0 level50)
  S:(sum level0 level0 level0)
  S:(sum level0 level0 level0)
  S:(sum level0 level2 level0)
  S:(sum level0 level3 level0)
  S:(sum level0 level4 level0)
  S:(sum level0 level5 level30)
  S:(sum level0 level0 level31)
  S:(sum level0 level7 level22)
  S:(sum level0 level8 level33)
  S:(sum level0 level9 level11)
  S:(sum level0 level10 level35)
  S:(sum level0 level11 level36)
  S:(sum level0 level12 level14)
  S:(sum level0 level5 level36)
  S:(sum level0 level14 level0)
  S:(sum level0 level15 level22)
  S:(sum level0 level2 level8)
  S:(sum level0 level17 level42)
  S:(sum level0 level18 level5)
  S:(sum level0 level19 level44)
  S:(sum level0 level0 level4)
  S:(sum level0 level0 level46)
  S:(sum level0 level22 level47)
  S:(sum level0 level23 level48)
  S:(sum level0 level24 level14)
  S:(sum level0 level0 level50)
  S:(sum level0 level0 level0)
  S:(sum level0 level0 level0)
  S:(sum level0 level2 level0)
  S:(sum level0 level3 level0)
  S:(sum level0 level4 level30)
  S:(sum level0 level5 level31)
  S:(sum level0 level0 level22)
  S:(sum level0 level7 level33)
  S:(sum level0 level8 level11)
  S:(sum level0 level9 level35)
  S:(sum level0 level10 level36)
  S:(sum level0 level11 level14)
  S:(sum level0 level12 level36)
  S:(sum level0 level5 level0)
  S:(sum level0 level14 level22)
  S:(sum level0 level15 level8)
  S:(sum level0 level2 level42)
  S:(sum level0 level17 level5)
  S:(sum level0 level18 level44)
  S:(sum level0 level19 level4)
  S:(sum level0 level0 level46)
  S:(sum level0 level0 level47)
  S:(sum level0 level22 level48)
  S:(sum level0 level23 level14)
  S:(sum level0 level24 level50)
  S:(sum level0 level0 level0)
  S:(sum level0 level0 level0)
  S:(sum level0 level2 level0)
  S:(sum level0 level3 level30)
  S:(sum level0 level4 level31)
  S:(sum level0 level5 level22)
  S:(sum level0 level0 level33)
  S:(sum level0 level7 level11)
  S:(sum level0 level8 level35)
  S:(sum level0 level9 level36)
  S:(sum level0 level10 level14)
  S:(sum level0 level11 level36)
  S:(sum level0 level12 level0)
  S:(sum level0 level5 level22)
  S:(sum level0 level14 level8)
  S:(sum level0 level15 level42)
  S:(sum level0 level2 level5)
  S:(sum level0 level17 level44)
  S:(sum level0 level18 level4)
  S:(sum level0 level19 level46)
  S:(sum level0 level0 level47)
  S:(sum level0 level0 level48)
  S:(sum level0 level22 level14)
  S:(sum level0 level23 level50)
  S:(sum level0 level0 level0)
  S:(sum level0 level0 level0)
  S:(sum level0 level2 level30)
  S:(sum level0 level3 level31)
  S:(sum level0 level4 level22)
  S:(sum level0 level5 level33)
  S:(sum level0 level0 level11)
  S:(sum level0 level7 level35)
  S:(sum level0 level8 level36)
  S:(sum level0 level9 level14)
  S:(sum level0 level10 level36)
  S:(sum level0 level11 level0)
  S:(sum level0 level12 level22)
  S:(sum level0 level5 level8)
  S:(sum level0 level14 level42)
  S:(sum level0 level15 level5)
  S:(sum level0 level2 level44)
  S:(sum level0 level17 level4)
  S:(sum level0 level18 level46)
  S:(sum level0 level19 level47)
  S:(sum level0 level0 level48)
  S:(sum level0 level0 level14)
  S:(sum level0 level22 level50)
  S:(sum level0 level0 level0)
  S:(sum level0 level0 level30)
  S:(sum level0 level2 level31)
  S:(sum level0 level3 level22)
  S:(sum level0 level4 level33)
  S:(sum level0 level5 level11)
  S:(sum level0 level0 level35)
  S:(sum level0 level7 level36)
  S:(sum level0 level8 level14)
  S:(sum level0 level9 level36)
  S:(sum level0 level10 level0)
  S:(sum level0 level11 level22)
  S:(sum level0 level12 level8)
  S:(sum level0 level5 level42)
  S:(sum level0 level14 level5)
  S:(sum level0 level15 level44)
  S:(sum level0 level2 level4)
  S:(sum level0 level17 level46)
  S:(sum level0 level18 level47)
  S:(sum level0 level19 level48)
  S:(sum level0 level0 level14)
  S:(sum level0 level0 level50)
  S:(sum level30 level0 level30)
  S:(sum level30 level0 level31)
  S:(sum level30 level2 level22)
  S:(sum level30 level3 level33)
  S:(sum level30 level4 level11)
  S:(sum level30 level5 level35)
  S:(sum level30 level0 level36)
  S:(sum level30 level7 level14)
  S:(sum level30 level8 level36)
  S:(sum level30 level9 level0)
  S:(sum level30 level10 level22)
  S:(sum level30 level11 level8)
  S:(sum level30 level12 level42)
  S:(sum level30 level5 level5)
  S:(sum level30 level14 level44)
  S:(sum level30 level15 level4)
  S:(sum level30 level2 level46)
  S:(sum level30 level17 level47)
  S:(sum level30 level18 level48)
  S:(sum level30 level19 level14)
  S:(sum level30 level0 level50)
  S:(sum level31 level0 level31)
  S:(sum level31 level0 level22)
  S:(sum level31 level2 level33)
  S:(sum level31 level3 level11)
  S:(sum level31 level4 level35)
  S:(sum level31 level5 level36)
  S:(sum level31 level0 level14)
  S:(sum level31 level7 level36)
  S:(sum level31 level8 level0)
  S:(sum level31 level9 level22)
  S:(sum level31 level10 level8)
  S:(sum level31 level11 level42)
  S:(sum level31 level12 level5)
  S:(sum level31 level5 level44)
  S:(sum level31 level14 level4)
  S:(sum level31 level15 level46)
  S:(sum level31 level2 level47)
  S:(sum level31 level17 level48)
  S:(sum level31 level18 level14)
  S:(sum level31 level19 level50)
  S:(sum level22 level0 level22)
  S:(sum level22 level0 level33)
  S:(sum level22 level2 level11)
  S:(sum level22 level3 level35)
  S:(sum level22 level4 level36)
  S:(sum level22 level5 level14)
  S:(sum level22 level0 level36)
  S:(sum level22 level7 level0)
  S:(sum level22 level8 level22)
  S:(sum level22 level9 level8)
  S:(sum level22 level10 level42)
  S:(sum level22 level11 level5)
  S:(sum level22 level12 level44)
  S:(sum level22 level5 level4)
  S:(sum level22 level14 level46)
  S:(sum level22 level15 level47)
  S:(sum level22 level2 level48)
  S:(sum level22 level17 level14)
  S:(sum level22 level18 level50)
  S:(sum level33 level0 level33)
  S:(sum level33 level0 level11)
  S:(sum level33 level2 level35)
  S:(sum level33 level3 level36)
  S:(sum level33 level4 level14)
  S:(sum level33 level5 level36)
  S:(sum level33 level0 level0)
  S:(sum level33 level7 level22)
  S:(sum level33 level8 level8)
  S:(sum level33 level9 level42)
  S:(sum level33 level10 level5)
  S:(sum level33 level11 level44)
  S:(sum level33 level12 level4)
  S:(sum level33 level5 level46)
  S:(sum level33 level14 level47)
  S:(sum level33 level15 level48)
  S:(sum level33 level2 level14)
  S:(sum level33 level17 level50)
  S:(sum level11 level0 level11)
  S:(sum level11 level0 level35)
  S:(sum level11 level2 level36)
  S:(sum level11 level3 level14)
  S:(sum level11 level4 level36)
  S:(sum level11 level5 level0)
  S:(sum level11 level0 level22)
  S:(sum level11 level7 level8)
  S:(sum level11 level8 level42)
  S:(sum level11 level9 level5)
  S:(sum level11 level10 level44)
  S:(sum level11 level11 level4)
  S:(sum level11 level12 level46)
  S:(sum level11 level5 level47)
  S:(sum level11 level14 level48)
  S:(sum level11 level15 level14)
  S:(sum level11 level2 level50)
  S:(sum level35 level0 level35)
  S:(sum level35 level0 level36)
  S:(sum level35 level2 level14)
  S:(sum level35 level3 level36)
  S:(sum level35 level4 level0)
  S:(sum level35 level5 level22)
  S:(sum level35 level0 level8)
  S:(sum level35 level7 level42)
  S:(sum level35 level8 level5)
  S:(sum level35 level9 level44)
  S:(sum level35 level10 level4)
  S:(sum level35 level11 level46)
  S:(sum level35 level12 level47)
  S:(sum level35 level5 level48)
  S:(sum level35 level14 level14)
  S:(sum level35 level15 level50)
  S:(sum level36 level0 level36)
  S:(sum level36 level0 level14)
  S:(sum level36 level2 level36)
  S:(sum level36 level3 level0)
  S:(sum level36 level4 level22)
  S:(sum level36 level5 level8)
  S:(sum level36 level0 level42)
  S:(sum level36 level7 level5)
  S:(sum level36 level8 level44)
  S:(sum level36 level9 level4)
  S:(sum level36 level10 level46)
  S:(sum level36 level11 level47)
  S:(sum level36 level12 level48)
  S:(sum level36 level5 level14)
  S:(sum level36 level14 level50)
  S:(sum level14 level0 level14)
  S:(sum level14 level0 level36)
  S:(sum level14 level2 level0)
  S:(sum level14 level3 level22)
  S:(sum level14 level4 level8)
  S:(sum level14 level5 level42)
  S:(sum level14 level0 level5)
  S:(sum level14 level7 level44)
  S:(sum level14 level8 level4)
  S:(sum level14 level9 level46)
  S:(sum level14 level10 level47)
  S:(sum level14 level11 level48)
  S:(sum level14 level12 level14)
  S:(sum level14 level5 level50)
  S:(sum level36 level0 level0)
  S:(sum level36 level2 level22)
  S:(sum level36 level3 level8)
  S:(sum level36 level4 level42)
  S:(sum level36 level5 level5)
  S:(sum level36 level0 level44)
  S:(sum level36 level7 level4)
  S:(sum level36 level8 level46)
  S:(sum level36 level9 level47)
  S:(sum level36 level10 level48)
  S:(sum level36 level11 level14)
  S:(sum level36 level12 level50)
  S:(sum level0 level0 level22)
  S:(sum level0 level2 level8)
  S:(sum level0 level3 level42)
  S:(sum level0 level4 level5)
  S:(sum level0 level5 level44)
  S:(sum level0 level0 level4)
  S:(sum level0 level7 level46)
  S:(sum level0 level8 level47)
  S:(sum level0 level9 level48)
  S:(sum level0 level10 level14)
  S:(sum level0 level11 level50)
  S:(sum level22 level0 level8)
  S:(sum level22 level2 level42)
  S:(sum level22 level3 level5)
  S:(sum level22 level4 level44)
  S:(sum level22 level5 level4)
  S:(sum level22 level0 level46)
  S:(sum level22 level7 level47)
  S:(sum level22 level8 level48)
  S:(sum level22 level9 level14)
  S:(sum level22 level10 level50)
  S:(sum level8 level0 level8)
  S:(sum level8 level0 level42)
  S:(sum level8 level2 level5)
  S:(sum level8 level3 level44)
  S:(sum level8 level4 level4)
  S:(sum level8 level5 level46)
  S:(sum level8 level0 level47)
  S:(sum level8 level7 level48)
  S:(sum level8 level8 level14)
  S:(sum level8 level9 level50)
  S:(sum level42 level0 level42)
  S:(sum level42 level0 level5)
  S:(sum level42 level2 level44)
  S:(sum level42 level3 level4)
  S:(sum level42 level4 level46)
  S:(sum level42 level5 level47)
  S:(sum level42 level0 level48)
  S:(sum level42 level7 level14)
  S:(sum level42 level8 level50)
  S:(sum level5 level0 level5)
  S:(sum level5 level0 level44)
  S:(sum level5 level2 level4)
  S:(sum level5 level3 level46)
  S:(sum level5 level4 level47)
  S:(sum level5 level5 level48)
  S:(sum level5 level0 level14)
  S:(sum level5 level7 level50)
  S:(sum level44 level0 level44)
  S:(sum level44 level0 level4)
  S:(sum level44 level2 level46)
  S:(sum level44 level3 level47)
  S:(sum level44 level4 level48)
  S:(sum level44 level5 level14)
  S:(sum level44 level0 level50)
  S:(sum level4 level0 level4)
  S:(sum level4 level0 level46)
  S:(sum level4 level2 level47)
  S:(sum level4 level3 level48)
  S:(sum level4 level4 level14)
  S:(sum level4 level5 level50)
  S:(sum level46 level0 level46)
  S:(sum level46 level0 level47)
  S:(sum level46 level2 level48)
  S:(sum level46 level3 level14)
  S:(sum level46 level4 level50)
  S:(sum level47 level0 level47)
  S:(sum level47 level0 level48)
  S:(sum level47 level2 level14)
  S:(sum level47 level3 level50)
  S:(sum level48 level0 level48)
  S:(sum level48 level0 level14)
  S:(sum level48 level2 level50)
  S:(sum level14 level0 level14)
  S:(sum level14 level0 level50)
  S:(sum level50 level0 level50)
  S:(at_soil_sample waypoint3)
  S:(at_soil_sample waypoint4)
  S:(at_rock_sample waypoint5)
  S:(at_soil_sample waypoint0)
  S:(at_soil_sample waypoint7)
  S:(at_rock_sample waypoint7)
  S:(at_rock_sample waypoint8)
  S:(at_rock_sample waypoint9)
  S:(at_lander general waypoint0)
  (channel_free general)
  (energy rover0 level50)
  (at rover0 waypoint7)
  (available rover0)
  S:(store_of rover0store rover0)
  (empty rover0store)
  S:(equipped_for_soil_analysis rover0)
  S:(equipped_for_rock_analysis rover0)
  S:(equipped_for_imaging rover0)
  S:(can_traverse rover0 waypoint0 waypoint0)
  S:(can_traverse rover0 waypoint0 waypoint7)
  S:(can_traverse rover0 waypoint7 waypoint0)
  S:(can_traverse rover0 waypoint0 waypoint8)
  S:(can_traverse rover0 waypoint8 waypoint0)
  S:(can_traverse rover0 waypoint0 waypoint5)
  S:(can_traverse rover0 waypoint5 waypoint0)
  S:(can_traverse rover0 waypoint0 waypoint3)
  S:(can_traverse rover0 waypoint3 waypoint0)
  S:(can_traverse rover0 waypoint0 waypoint4)
  S:(can_traverse rover0 waypoint4 waypoint0)
  S:(can_traverse rover0 waypoint0 waypoint0)
  S:(can_traverse rover0 waypoint0 waypoint0)
  S:(can_traverse rover0 waypoint3 waypoint0)
  S:(can_traverse rover0 waypoint0 waypoint3)
  S:(can_traverse rover0 waypoint5 waypoint8)
  S:(can_traverse rover0 waypoint8 waypoint5)
  S:(can_traverse rover0 waypoint0 waypoint9)
  S:(can_traverse rover0 waypoint9 waypoint0)
  S:(can_traverse rover0 waypoint7 waypoint4)
  S:(can_traverse rover0 waypoint4 waypoint7)
  S:(can_traverse rover0 waypoint7 waypoint0)
  S:(can_traverse rover0 waypoint0 waypoint7)
  S:(can_traverse rover0 waypoint7 waypoint9)
  S:(can_traverse rover0 waypoint9 waypoint7)
  S:(can_traverse rover0 waypoint8 waypoint3)
  S:(can_traverse rover0 waypoint3 waypoint8)
  S:(can_traverse rover0 waypoint8 waypoint0)
  S:(can_traverse rover0 waypoint0 waypoint8)
  S:(can_traverse rover0 waypoint8 waypoint9)
  S:(can_traverse rover0 waypoint9 waypoint8)
  S:(can_traverse rover0 waypoint9 waypoint0)
  S:(can_traverse rover0 waypoint0 waypoint9)
  S:(can_traverse rover0 waypoint9 waypoint3)
  S:(can_traverse rover0 waypoint3 waypoint9)
  S:(can_traverse rover0 waypoint9 waypoint5)
  S:(can_traverse rover0 waypoint5 waypoint9)
  S:(on_board camera0 rover0)
  S:(calibration_target camera0 objective0)
  S:(calibration_target camera0 objective2)
  S:(calibration_target camera0 objective3)
  S:(calibration_target camera0 objective4)
  S:(supports camera0 colour)
  S:(visible_from objective0 waypoint7)
  S:(visible_from objective0 waypoint9)
  S:(visible_from objective0 waypoint8)
  S:(visible_from objective0 waypoint0)
  S:(visible_from objective0 waypoint0)
  S:(visible_from objective0 waypoint4)
  S:(visible_from objective0 waypoint3)
  S:(visible_from objective2 waypoint3)
  S:(visible_from objective2 waypoint8)
  S:(visible_from objective2 waypoint4)
  S:(visible_from objective2 waypoint0)
  S:(visible_from objective2 waypoint5)
  S:(visible_from objective3 waypoint8)
  S:(visible_from objective3 waypoint0)
  S:(visible_from objective3 waypoint5)
  S:(visible_from objective3 waypoint9)
  S:(visible_from objective4 waypoint0)
  S:(visible_from objective4 waypoint5)
  S:(visible_from objective4 waypoint7)
  S:(visible_from objective4 waypoint4)
  S:(visible_from objective4 waypoint8)
Init[0]:
Goal: (and (W:communicated_soil_data waypoint0) (W:communicated_soil_data waypoint3) (W:communicated_soil_data waypoint7) (W:communicated_soil_data waypoint4) (W:communicated_rock_data waypoint9) (W:communicated_rock_data waypoint7) (W:communicated_rock_data waypoint8) (W:communicated_rock_data waypoint5) (W:communicated_image_data objective4 colour) (W:communicated_image_data objective2 colour))
Metric: 0
