Reduced 81 -> 81
Domain: transport
Problem: transport-city-sequential-50nodes-1000size-4degree-100mindistance-4trucks-25packages-2014seed
Require: 200ff
Type[7]:
    [0]: object, parent: -1
    [1]: location, parent: 0
    [2]: locatable, parent: 0
    [3]: capacity-number, parent: 0
    [4]: pnum, parent: 0
    [5]: vehicle, parent: 2
    [6]: package, parent: 2
Obj-by-Type:
    [0]: 0 1 2 3 4 5 6 7 8 9 10 11 12 13 14 15 16 17 18 19 20 21 22 23 24 25 26 27 28 29 30 31 32 33 34 35 36 37 38 39 40 41 42 43 44 45 46 47 48 49 50 51 52 53 54 55 56 57 58 59 60 61 62 63 64 65 66 67 68 69 70 71 72 73 74 75 76 77 78 79 80
    [1]: 13 14 15 16 17 18 19 20 21 22 23 24 25 26 27 28 29 30 31 32 33 34 35 36 37 38 39 40 41 42 43 44 45 46 47 48 49 50 51 52 53 54 55 56 57 58 59 60 61 62
    [2]: 5 6 7 8 63 64 65 66 67 68 69 70 71 72 73 74 75 76 77 78 79 80
    [3]: 0 1 2 3 4
    [4]: 9 10 11 12
    [5]: 5 6 7 8
    [6]: 63 64 65 66 67 68 69 70 71 72 73 74 75 76 77 78 79 80
Obj[81]:
    [0]: capacity-0, type: 3, is-constant: 0, is-private: 0, owner: -1, is-agent: 0
    [1]: capacity-1, type: 3, is-constant: 0, is-private: 0, owner: -1, is-agent: 0
    [2]: capacity-2, type: 3, is-constant: 0, is-private: 0, owner: -1, is-agent: 0
    [3]: capacity-3, type: 3, is-constant: 0, is-private: 0, owner: -1, is-agent: 0
    [4]: capacity-4, type: 3, is-constant: 0, is-private: 0, owner: -1, is-agent: 0
    [5]: truck-1, type: 5, is-constant: 0, is-private: 0, owner: -1, is-agent: 0
    [6]: truck-2, type: 5, is-constant: 0, is-private: 0, owner: -1, is-agent: 0
    [7]: truck-3, type: 5, is-constant: 0, is-private: 0, owner: -1, is-agent: 0
    [8]: truck-4, type: 5, is-constant: 0, is-private: 0, owner: -1, is-agent: 0
    [9]: pnum1, type: 4, is-constant: 0, is-private: 0, owner: -1, is-agent: 0
    [10]: pnum2, type: 4, is-constant: 0, is-private: 0, owner: -1, is-agent: 0
    [11]: pnum3, type: 4, is-constant: 0, is-private: 0, owner: -1, is-agent: 0
    [12]: pnum0, type: 4, is-constant: 0, is-private: 0, owner: -1, is-agent: 0
    [13]: city-loc-1, type: 1, is-constant: 0, is-private: 0, owner: -1, is-agent: 0
    [14]: city-loc-2, type: 1, is-constant: 0, is-private: 0, owner: -1, is-agent: 0
    [15]: city-loc-3, type: 1, is-constant: 0, is-private: 0, owner: -1, is-agent: 0
    [16]: city-loc-4, type: 1, is-constant: 0, is-private: 0, owner: -1, is-agent: 0
    [17]: city-loc-5, type: 1, is-constant: 0, is-private: 0, owner: -1, is-agent: 0
    [18]: city-loc-6, type: 1, is-constant: 0, is-private: 0, owner: -1, is-agent: 0
    [19]: city-loc-7, type: 1, is-constant: 0, is-private: 0, owner: -1, is-agent: 0
    [20]: city-loc-8, type: 1, is-constant: 0, is-private: 0, owner: -1, is-agent: 0
    [21]: city-loc-9, type: 1, is-constant: 0, is-private: 0, owner: -1, is-agent: 0
    [22]: city-loc-10, type: 1, is-constant: 0, is-private: 0, owner: -1, is-agent: 0
    [23]: city-loc-11, type: 1, is-constant: 0, is-private: 0, owner: -1, is-agent: 0
    [24]: city-loc-12, type: 1, is-constant: 0, is-private: 0, owner: -1, is-agent: 0
    [25]: city-loc-13, type: 1, is-constant: 0, is-private: 0, owner: -1, is-agent: 0
    [26]: city-loc-14, type: 1, is-constant: 0, is-private: 0, owner: -1, is-agent: 0
    [27]: city-loc-15, type: 1, is-constant: 0, is-private: 0, owner: -1, is-agent: 0
    [28]: city-loc-16, type: 1, is-constant: 0, is-private: 0, owner: -1, is-agent: 0
    [29]: city-loc-17, type: 1, is-constant: 0, is-private: 0, owner: -1, is-agent: 0
    [30]: city-loc-18, type: 1, is-constant: 0, is-private: 0, owner: -1, is-agent: 0
    [31]: city-loc-19, type: 1, is-constant: 0, is-private: 0, owner: -1, is-agent: 0
    [32]: city-loc-20, type: 1, is-constant: 0, is-private: 0, owner: -1, is-agent: 0
    [33]: city-loc-21, type: 1, is-constant: 0, is-private: 0, owner: -1, is-agent: 0
    [34]: city-loc-22, type: 1, is-constant: 0, is-private: 0, owner: -1, is-agent: 0
    [35]: city-loc-23, type: 1, is-constant: 0, is-private: 0, owner: -1, is-agent: 0
    [36]: city-loc-24, type: 1, is-constant: 0, is-private: 0, owner: -1, is-agent: 0
    [37]: city-loc-25, type: 1, is-constant: 0, is-private: 0, owner: -1, is-agent: 0
    [38]: city-loc-26, type: 1, is-constant: 0, is-private: 0, owner: -1, is-agent: 0
    [39]: city-loc-27, type: 1, is-constant: 0, is-private: 0, owner: -1, is-agent: 0
    [40]: city-loc-28, type: 1, is-constant: 0, is-private: 0, owner: -1, is-agent: 0
    [41]: city-loc-29, type: 1, is-constant: 0, is-private: 0, owner: -1, is-agent: 0
    [42]: city-loc-30, type: 1, is-constant: 0, is-private: 0, owner: -1, is-agent: 0
    [43]: city-loc-31, type: 1, is-constant: 0, is-private: 0, owner: -1, is-agent: 0
    [44]: city-loc-32, type: 1, is-constant: 0, is-private: 0, owner: -1, is-agent: 0
    [45]: city-loc-33, type: 1, is-constant: 0, is-private: 0, owner: -1, is-agent: 0
    [46]: city-loc-34, type: 1, is-constant: 0, is-private: 0, owner: -1, is-agent: 0
    [47]: city-loc-35, type: 1, is-constant: 0, is-private: 0, owner: -1, is-agent: 0
    [48]: city-loc-36, type: 1, is-constant: 0, is-private: 0, owner: -1, is-agent: 0
    [49]: city-loc-37, type: 1, is-constant: 0, is-private: 0, owner: -1, is-agent: 0
    [50]: city-loc-38, type: 1, is-constant: 0, is-private: 0, owner: -1, is-agent: 0
    [51]: city-loc-39, type: 1, is-constant: 0, is-private: 0, owner: -1, is-agent: 0
    [52]: city-loc-40, type: 1, is-constant: 0, is-private: 0, owner: -1, is-agent: 0
    [53]: city-loc-41, type: 1, is-constant: 0, is-private: 0, owner: -1, is-agent: 0
    [54]: city-loc-42, type: 1, is-constant: 0, is-private: 0, owner: -1, is-agent: 0
    [55]: city-loc-43, type: 1, is-constant: 0, is-private: 0, owner: -1, is-agent: 0
    [56]: city-loc-44, type: 1, is-constant: 0, is-private: 0, owner: -1, is-agent: 0
    [57]: city-loc-45, type: 1, is-constant: 0, is-private: 0, owner: -1, is-agent: 0
    [58]: city-loc-46, type: 1, is-constant: 0, is-private: 0, owner: -1, is-agent: 0
    [59]: city-loc-47, type: 1, is-constant: 0, is-private: 0, owner: -1, is-agent: 0
    [60]: city-loc-48, type: 1, is-constant: 0, is-private: 0, owner: -1, is-agent: 0
    [61]: city-loc-49, type: 1, is-constant: 0, is-private: 0, owner: -1, is-agent: 0
    [62]: city-loc-50, type: 1, is-constant: 0, is-private: 0, owner: -1, is-agent: 0
    [63]: package-bag1, type: 6, is-constant: 0, is-private: 0, owner: -1, is-agent: 0
    [64]: package-bag2, type: 6, is-constant: 0, is-private: 0, owner: -1, is-agent: 0
    [65]: package-bag3, type: 6, is-constant: 0, is-private: 0, owner: -1, is-agent: 0
    [66]: package-bag4, type: 6, is-constant: 0, is-private: 0, owner: -1, is-agent: 0
    [67]: package-bag5, type: 6, is-constant: 0, is-private: 0, owner: -1, is-agent: 0
    [68]: package-bag6, type: 6, is-constant: 0, is-private: 0, owner: -1, is-agent: 0
    [69]: package-bag7, type: 6, is-constant: 0, is-private: 0, owner: -1, is-agent: 0
    [70]: package-bag8, type: 6, is-constant: 0, is-private: 0, owner: -1, is-agent: 0
    [71]: package-bag9, type: 6, is-constant: 0, is-private: 0, owner: -1, is-agent: 0
    [72]: package-bag10, type: 6, is-constant: 0, is-private: 0, owner: -1, is-agent: 0
    [73]: package-bag11, type: 6, is-constant: 0, is-private: 0, owner: -1, is-agent: 0
    [74]: package-bag12, type: 6, is-constant: 0, is-private: 0, owner: -1, is-agent: 0
    [75]: package-bag13, type: 6, is-constant: 0, is-private: 0, owner: -1, is-agent: 0
    [76]: package-bag14, type: 6, is-constant: 0, is-private: 0, owner: -1, is-agent: 0
    [77]: package-bag15, type: 6, is-constant: 0, is-private: 0, owner: -1, is-agent: 0
    [78]: package-bag16, type: 6, is-constant: 0, is-private: 0, owner: -1, is-agent: 0
    [79]: package-bag17, type: 6, is-constant: 0, is-private: 0, owner: -1, is-agent: 0
    [80]: package-bag18, type: 6, is-constant: 0, is-private: 0, owner: -1, is-agent: 0
Predicate[9]:
    =: 0 0 :: is-private: 0, owner-param: -1, read: 0, write: 0
    road: 1 1 :: is-private: 0, owner-param: -1, read: 1, write: 0
    capacity: 5 3 :: is-private: 0, owner-param: -1, read: 1, write: 1
    capacity-predecessor: 3 3 :: is-private: 0, owner-param: -1, read: 1, write: 0
    at-vehicle: 5 1 :: is-private: 0, owner-param: -1, read: 1, write: 1
    package-less: 4 4 :: is-private: 0, owner-param: -1, read: 1, write: 0
    count-package: 6 0 4 :: is-private: 0, owner-param: -1, read: 1, write: 1
    package-lte-sum: 4 4 4 :: is-private: 0, owner-param: -1, read: 1, write: 0
    package-bag-size: 6 4 :: is-private: 0, owner-param: -1, read: 1, write: 0
Function[2]:
    road-length: 1 1 :: is-private: 0, owner-param: -1, read: 0, write: 0
    total-cost: :: is-private: 0, owner-param: -1, read: 0, write: 0
Action[3]:
    drive: ?v:5 ?l1:1 ?l2:1
        pre: (and (RW:at-vehicle ?v ?l1) (R:road ?l1 ?l2))
        eff: (and (N:RW:at-vehicle ?v ?l1) (RW:at-vehicle ?v ?l2) (increase (total-cost) (road-length ?l1 ?l2)))
    pick-up: ?v:5 ?l:1 ?p:6 ?s1:3 ?s2:3 ?n1:4 ?n0:4 ?n2:4 ?n3:4 ?p-size:4
        pre: (and (RW:count-package ?p ?l ?n1) (R:package-less ?n0 ?n1) (RW:count-package ?p ?v ?n2) (R:package-less ?n2 ?n3) (RW:at-vehicle ?v ?l) (R:capacity-predecessor ?s1 ?s2) (RW:capacity ?v ?s2) (R:package-lte-sum ?n1 ?n2 ?p-size) (R:package-bag-size ?p ?p-size))
        eff: (and (RW:count-package ?p ?l ?n0) (N:RW:count-package ?p ?l ?n1) (RW:count-package ?p ?v ?n3) (N:RW:count-package ?p ?v ?n2) (RW:capacity ?v ?s1) (N:RW:capacity ?v ?s2) (increase (total-cost) 1))
    drop: ?v:5 ?l:1 ?p:6 ?s1:3 ?s2:3 ?n1:4 ?n0:4 ?n2:4 ?n3:4 ?p-size:4
        pre: (and (RW:count-package ?p ?v ?n1) (R:package-less ?n0 ?n1) (RW:count-package ?p ?l ?n2) (R:package-less ?n2 ?n3) (RW:at-vehicle ?v ?l) (R:capacity-predecessor ?s1 ?s2) (RW:capacity ?v ?s1) (R:package-lte-sum ?n1 ?n2 ?p-size) (R:package-bag-size ?p ?p-size))
        eff: (and (RW:count-package ?p ?v ?n0) (N:RW:count-package ?p ?v ?n1) (RW:count-package ?p ?l ?n3) (N:RW:count-package ?p ?l ?n2) (RW:capacity ?v ?s2) (N:RW:capacity ?v ?s1) (increase (total-cost) 1))
Init[1224]:
  S:(road city-loc-19 city-loc-23)
  S:(road city-loc-14 city-loc-34)
  S:(road city-loc-3 city-loc-48)
  S:(road city-loc-39 city-loc-40)
  S:(capacity-predecessor capacity-0 capacity-1)
  S:(road city-loc-24 city-loc-8)
  S:(road city-loc-34 city-loc-49)
  S:(road city-loc-27 city-loc-2)
  S:(road city-loc-23 city-loc-2)
  S:(road city-loc-26 city-loc-47)
  S:(road city-loc-47 city-loc-35)
  S:(road city-loc-33 city-loc-23)
  S:(road city-loc-17 city-loc-10)
  S:(road city-loc-9 city-loc-8)
  S:(road city-loc-7 city-loc-14)
  S:(road city-loc-18 city-loc-40)
  S:(road city-loc-20 city-loc-18)
  S:(road city-loc-17 city-loc-16)
  S:(road city-loc-15 city-loc-38)
  S:(road city-loc-42 city-loc-9)
  S:(road city-loc-24 city-loc-1)
  S:(road city-loc-21 city-loc-5)
  S:(road city-loc-30 city-loc-44)
  S:(road city-loc-49 city-loc-34)
  S:(road city-loc-38 city-loc-45)
  S:(road city-loc-5 city-loc-15)
  (at-vehicle truck-4 city-loc-45)
  S:(road city-loc-5 city-loc-21)
  S:(road city-loc-22 city-loc-1)
  S:(road city-loc-31 city-loc-48)
  S:(road city-loc-46 city-loc-48)
  S:(road city-loc-29 city-loc-43)
  S:(road city-loc-21 city-loc-50)
  S:(road city-loc-48 city-loc-3)
  S:(road city-loc-26 city-loc-41)
  S:(road city-loc-9 city-loc-24)
  S:(road city-loc-36 city-loc-16)
  S:(road city-loc-25 city-loc-33)
  S:(road city-loc-35 city-loc-47)
  S:(road city-loc-44 city-loc-30)
  S:(road city-loc-12 city-loc-14)
  S:(road city-loc-31 city-loc-46)
  S:(road city-loc-42 city-loc-24)
  S:(road city-loc-43 city-loc-29)
  S:(road city-loc-7 city-loc-49)
  S:(capacity-predecessor capacity-3 capacity-4)
  S:(road city-loc-9 city-loc-42)
  S:(road city-loc-22 city-loc-42)
  (at-vehicle truck-2 city-loc-14)
  S:(road city-loc-42 city-loc-22)
  S:(road city-loc-28 city-loc-13)
  S:(road city-loc-42 city-loc-7)
  S:(road city-loc-15 city-loc-5)
  S:(road city-loc-41 city-loc-26)
  S:(road city-loc-48 city-loc-47)
  S:(road city-loc-4 city-loc-50)
  S:(road city-loc-5 city-loc-45)
  S:(road city-loc-3 city-loc-39)
  S:(road city-loc-21 city-loc-26)
  S:(road city-loc-29 city-loc-6)
  S:(road city-loc-49 city-loc-7)
  S:(road city-loc-43 city-loc-34)
  S:(road city-loc-5 city-loc-50)
  S:(road city-loc-41 city-loc-38)
  S:(road city-loc-18 city-loc-20)
  S:(road city-loc-32 city-loc-44)
  S:(road city-loc-38 city-loc-15)
  S:(road city-loc-37 city-loc-6)
  S:(road city-loc-22 city-loc-14)
  S:(road city-loc-10 city-loc-32)
  S:(road city-loc-41 city-loc-18)
  S:(road city-loc-1 city-loc-9)
  S:(road city-loc-23 city-loc-33)
  S:(road city-loc-24 city-loc-4)
  S:(road city-loc-12 city-loc-35)
  S:(road city-loc-6 city-loc-37)
  S:(road city-loc-2 city-loc-27)
  S:(road city-loc-39 city-loc-41)
  (capacity truck-4 capacity-3)
  S:(road city-loc-3 city-loc-47)
  S:(road city-loc-12 city-loc-11)
  S:(road city-loc-4 city-loc-8)
  S:(capacity-predecessor capacity-1 capacity-2)
  S:(road city-loc-34 city-loc-29)
  S:(road city-loc-48 city-loc-46)
  S:(road city-loc-8 city-loc-9)
  S:(road city-loc-1 city-loc-22)
  S:(road city-loc-31 city-loc-11)
  S:(road city-loc-39 city-loc-25)
  S:(road city-loc-13 city-loc-28)
  S:(road city-loc-25 city-loc-40)
  (capacity truck-1 capacity-3)
  S:(road city-loc-33 city-loc-25)
  S:(road city-loc-50 city-loc-5)
  S:(road city-loc-9 city-loc-13)
  S:(road city-loc-33 city-loc-46)
  S:(road city-loc-5 city-loc-41)
  S:(road city-loc-14 city-loc-49)
  S:(road city-loc-18 city-loc-15)
  S:(road city-loc-14 city-loc-7)
  S:(road city-loc-50 city-loc-24)
  S:(road city-loc-34 city-loc-43)
  S:(road city-loc-15 city-loc-18)
  S:(road city-loc-8 city-loc-13)
  S:(road city-loc-4 city-loc-24)
  S:(road city-loc-16 city-loc-36)
  S:(road city-loc-32 city-loc-49)
  S:(road city-loc-7 city-loc-22)
  S:(road city-loc-6 city-loc-29)
  S:(road city-loc-38 city-loc-5)
  S:(road city-loc-34 city-loc-12)
  S:(road city-loc-25 city-loc-39)
  S:(road city-loc-38 city-loc-41)
  S:(road city-loc-47 city-loc-26)
  S:(road city-loc-30 city-loc-13)
  S:(road city-loc-32 city-loc-10)
  S:(road city-loc-17 city-loc-36)
  S:(road city-loc-46 city-loc-31)
  S:(road city-loc-45 city-loc-38)
  S:(road city-loc-47 city-loc-48)
  S:(road city-loc-12 city-loc-34)
  S:(road city-loc-49 city-loc-10)
  S:(road city-loc-50 city-loc-45)
  S:(road city-loc-17 city-loc-34)
  S:(road city-loc-36 city-loc-17)
  S:(road city-loc-42 city-loc-1)
  S:(road city-loc-48 city-loc-35)
  S:(road city-loc-13 city-loc-8)
  S:(road city-loc-41 city-loc-5)
  S:(road city-loc-43 city-loc-17)
  S:(road city-loc-1 city-loc-21)
  S:(road city-loc-39 city-loc-26)
  S:(road city-loc-21 city-loc-1)
  S:(road city-loc-2 city-loc-23)
  S:(road city-loc-14 city-loc-12)
  S:(road city-loc-32 city-loc-7)
  S:(road city-loc-44 city-loc-32)
  S:(road city-loc-49 city-loc-17)
  S:(road city-loc-11 city-loc-31)
  S:(road city-loc-3 city-loc-26)
  S:(road city-loc-29 city-loc-37)
  (at-vehicle truck-1 city-loc-32)
  S:(road city-loc-39 city-loc-3)
  S:(road city-loc-5 city-loc-26)
  S:(road city-loc-35 city-loc-48)
  S:(road city-loc-13 city-loc-9)
  S:(road city-loc-40 city-loc-25)
  S:(road city-loc-37 city-loc-29)
  S:(road city-loc-15 city-loc-20)
  S:(road city-loc-48 city-loc-31)
  S:(road city-loc-45 city-loc-50)
  (capacity truck-3 capacity-2)
  S:(road city-loc-19 city-loc-2)
  S:(road city-loc-19 city-loc-27)
  S:(road city-loc-41 city-loc-15)
  S:(road city-loc-18 city-loc-41)
  S:(road city-loc-8 city-loc-4)
  S:(road city-loc-10 city-loc-17)
  S:(road city-loc-1 city-loc-42)
  S:(road city-loc-43 city-loc-36)
  S:(road city-loc-50 city-loc-4)
  S:(road city-loc-24 city-loc-50)
  S:(road city-loc-34 city-loc-14)
  S:(road city-loc-8 city-loc-24)
  S:(road city-loc-14 city-loc-22)
  S:(road city-loc-45 city-loc-5)
  S:(road city-loc-9 city-loc-1)
  S:(road city-loc-26 city-loc-21)
  S:(road city-loc-35 city-loc-12)
  S:(road city-loc-11 city-loc-12)
  S:(road city-loc-13 city-loc-30)
  S:(road city-loc-26 city-loc-3)
  S:(road city-loc-40 city-loc-18)
  S:(road city-loc-43 city-loc-6)
  S:(road city-loc-26 city-loc-39)
  S:(road city-loc-16 city-loc-17)
  S:(road city-loc-20 city-loc-15)
  S:(road city-loc-12 city-loc-29)
  S:(road city-loc-7 city-loc-42)
  S:(road city-loc-6 city-loc-43)
  S:(road city-loc-15 city-loc-41)
  S:(road city-loc-29 city-loc-34)
  S:(road city-loc-19 city-loc-46)
  (capacity truck-2 capacity-3)
  S:(road city-loc-47 city-loc-3)
  S:(road city-loc-10 city-loc-49)
  S:(road city-loc-23 city-loc-19)
  S:(road city-loc-40 city-loc-39)
  S:(road city-loc-46 city-loc-33)
  S:(road city-loc-34 city-loc-17)
  (at-vehicle truck-3 city-loc-27)
  S:(road city-loc-49 city-loc-14)
  S:(road city-loc-5 city-loc-38)
  S:(road city-loc-2 city-loc-19)
  S:(road city-loc-22 city-loc-7)
  S:(road city-loc-35 city-loc-3)
  S:(road city-loc-3 city-loc-35)
  S:(road city-loc-17 city-loc-49)
  S:(road city-loc-41 city-loc-39)
  S:(road city-loc-17 city-loc-43)
  S:(road city-loc-29 city-loc-12)
  S:(capacity-predecessor capacity-2 capacity-3)
  S:(road city-loc-24 city-loc-42)
  S:(road city-loc-7 city-loc-32)
  S:(road city-loc-50 city-loc-21)
  S:(road city-loc-26 city-loc-5)
  S:(road city-loc-27 city-loc-19)
  S:(road city-loc-1 city-loc-24)
  S:(road city-loc-24 city-loc-9)
  S:(road city-loc-46 city-loc-19)
  S:(road city-loc-49 city-loc-32)
  S:(road city-loc-36 city-loc-43)
  S:(package-less pnum1 pnum2)
  S:(package-less pnum2 pnum3)
  (count-package package-bag1 city-loc-16 pnum1)
  (count-package package-bag1 city-loc-4 pnum1)
  (count-package package-bag1 city-loc-24 pnum1)
  (count-package package-bag2 city-loc-10 pnum3)
  (count-package package-bag3 city-loc-38 pnum1)
  (count-package package-bag3 city-loc-11 pnum1)
  (count-package package-bag4 city-loc-9 pnum1)
  (count-package package-bag4 city-loc-4 pnum1)
  (count-package package-bag5 city-loc-1 pnum2)
  (count-package package-bag6 city-loc-33 pnum1)
  (count-package package-bag7 city-loc-46 pnum1)
  (count-package package-bag8 city-loc-18 pnum1)
  (count-package package-bag9 city-loc-37 pnum1)
  (count-package package-bag10 city-loc-35 pnum1)
  (count-package package-bag11 city-loc-3 pnum1)
  (count-package package-bag12 city-loc-25 pnum1)
  (count-package package-bag13 city-loc-38 pnum1)
  (count-package package-bag14 city-loc-11 pnum1)
  (count-package package-bag15 city-loc-13 pnum1)
  (count-package package-bag16 city-loc-14 pnum1)
  (count-package package-bag17 city-loc-39 pnum1)
  (count-package package-bag18 city-loc-49 pnum1)
  S:(package-less pnum0 pnum1)
  (count-package package-bag1 city-loc-1 pnum0)
  (count-package package-bag1 city-loc-2 pnum0)
  (count-package package-bag1 city-loc-3 pnum0)
  (count-package package-bag1 city-loc-5 pnum0)
  (count-package package-bag1 city-loc-6 pnum0)
  (count-package package-bag1 city-loc-7 pnum0)
  (count-package package-bag1 city-loc-8 pnum0)
  (count-package package-bag1 city-loc-9 pnum0)
  (count-package package-bag1 city-loc-10 pnum0)
  (count-package package-bag1 city-loc-11 pnum0)
  (count-package package-bag1 city-loc-12 pnum0)
  (count-package package-bag1 city-loc-13 pnum0)
  (count-package package-bag1 city-loc-14 pnum0)
  (count-package package-bag1 city-loc-15 pnum0)
  (count-package package-bag1 city-loc-17 pnum0)
  (count-package package-bag1 city-loc-18 pnum0)
  (count-package package-bag1 city-loc-19 pnum0)
  (count-package package-bag1 city-loc-20 pnum0)
  (count-package package-bag1 city-loc-21 pnum0)
  (count-package package-bag1 city-loc-22 pnum0)
  (count-package package-bag1 city-loc-23 pnum0)
  (count-package package-bag1 city-loc-25 pnum0)
  (count-package package-bag1 city-loc-26 pnum0)
  (count-package package-bag1 city-loc-27 pnum0)
  (count-package package-bag1 city-loc-28 pnum0)
  (count-package package-bag1 city-loc-29 pnum0)
  (count-package package-bag1 city-loc-30 pnum0)
  (count-package package-bag1 city-loc-31 pnum0)
  (count-package package-bag1 city-loc-32 pnum0)
  (count-package package-bag1 city-loc-33 pnum0)
  (count-package package-bag1 city-loc-34 pnum0)
  (count-package package-bag1 city-loc-35 pnum0)
  (count-package package-bag1 city-loc-36 pnum0)
  (count-package package-bag1 city-loc-37 pnum0)
  (count-package package-bag1 city-loc-38 pnum0)
  (count-package package-bag1 city-loc-39 pnum0)
  (count-package package-bag1 city-loc-40 pnum0)
  (count-package package-bag1 city-loc-41 pnum0)
  (count-package package-bag1 city-loc-42 pnum0)
  (count-package package-bag1 city-loc-43 pnum0)
  (count-package package-bag1 city-loc-44 pnum0)
  (count-package package-bag1 city-loc-45 pnum0)
  (count-package package-bag1 city-loc-46 pnum0)
  (count-package package-bag1 city-loc-47 pnum0)
  (count-package package-bag1 city-loc-48 pnum0)
  (count-package package-bag1 city-loc-49 pnum0)
  (count-package package-bag1 city-loc-50 pnum0)
  (count-package package-bag1 truck-1 pnum0)
  (count-package package-bag1 truck-2 pnum0)
  (count-package package-bag1 truck-3 pnum0)
  (count-package package-bag1 truck-4 pnum0)
  (count-package package-bag2 city-loc-1 pnum0)
  (count-package package-bag2 city-loc-2 pnum0)
  (count-package package-bag2 city-loc-3 pnum0)
  (count-package package-bag2 city-loc-4 pnum0)
  (count-package package-bag2 city-loc-5 pnum0)
  (count-package package-bag2 city-loc-6 pnum0)
  (count-package package-bag2 city-loc-7 pnum0)
  (count-package package-bag2 city-loc-8 pnum0)
  (count-package package-bag2 city-loc-9 pnum0)
  (count-package package-bag2 city-loc-11 pnum0)
  (count-package package-bag2 city-loc-12 pnum0)
  (count-package package-bag2 city-loc-13 pnum0)
  (count-package package-bag2 city-loc-14 pnum0)
  (count-package package-bag2 city-loc-15 pnum0)
  (count-package package-bag2 city-loc-16 pnum0)
  (count-package package-bag2 city-loc-17 pnum0)
  (count-package package-bag2 city-loc-18 pnum0)
  (count-package package-bag2 city-loc-19 pnum0)
  (count-package package-bag2 city-loc-20 pnum0)
  (count-package package-bag2 city-loc-21 pnum0)
  (count-package package-bag2 city-loc-22 pnum0)
  (count-package package-bag2 city-loc-23 pnum0)
  (count-package package-bag2 city-loc-24 pnum0)
  (count-package package-bag2 city-loc-25 pnum0)
  (count-package package-bag2 city-loc-26 pnum0)
  (count-package package-bag2 city-loc-27 pnum0)
  (count-package package-bag2 city-loc-28 pnum0)
  (count-package package-bag2 city-loc-29 pnum0)
  (count-package package-bag2 city-loc-30 pnum0)
  (count-package package-bag2 city-loc-31 pnum0)
  (count-package package-bag2 city-loc-32 pnum0)
  (count-package package-bag2 city-loc-33 pnum0)
  (count-package package-bag2 city-loc-34 pnum0)
  (count-package package-bag2 city-loc-35 pnum0)
  (count-package package-bag2 city-loc-36 pnum0)
  (count-package package-bag2 city-loc-37 pnum0)
  (count-package package-bag2 city-loc-38 pnum0)
  (count-package package-bag2 city-loc-39 pnum0)
  (count-package package-bag2 city-loc-40 pnum0)
  (count-package package-bag2 city-loc-41 pnum0)
  (count-package package-bag2 city-loc-42 pnum0)
  (count-package package-bag2 city-loc-43 pnum0)
  (count-package package-bag2 city-loc-44 pnum0)
  (count-package package-bag2 city-loc-45 pnum0)
  (count-package package-bag2 city-loc-46 pnum0)
  (count-package package-bag2 city-loc-47 pnum0)
  (count-package package-bag2 city-loc-48 pnum0)
  (count-package package-bag2 city-loc-49 pnum0)
  (count-package package-bag2 city-loc-50 pnum0)
  (count-package package-bag2 truck-1 pnum0)
  (count-package package-bag2 truck-2 pnum0)
  (count-package package-bag2 truck-3 pnum0)
  (count-package package-bag2 truck-4 pnum0)
  (count-package package-bag3 city-loc-1 pnum0)
  (count-package package-bag3 city-loc-2 pnum0)
  (count-package package-bag3 city-loc-3 pnum0)
  (count-package package-bag3 city-loc-4 pnum0)
  (count-package package-bag3 city-loc-5 pnum0)
  (count-package package-bag3 city-loc-6 pnum0)
  (count-package package-bag3 city-loc-7 pnum0)
  (count-package package-bag3 city-loc-8 pnum0)
  (count-package package-bag3 city-loc-9 pnum0)
  (count-package package-bag3 city-loc-10 pnum0)
  (count-package package-bag3 city-loc-12 pnum0)
  (count-package package-bag3 city-loc-13 pnum0)
  (count-package package-bag3 city-loc-14 pnum0)
  (count-package package-bag3 city-loc-15 pnum0)
  (count-package package-bag3 city-loc-16 pnum0)
  (count-package package-bag3 city-loc-17 pnum0)
  (count-package package-bag3 city-loc-18 pnum0)
  (count-package package-bag3 city-loc-19 pnum0)
  (count-package package-bag3 city-loc-20 pnum0)
  (count-package package-bag3 city-loc-21 pnum0)
  (count-package package-bag3 city-loc-22 pnum0)
  (count-package package-bag3 city-loc-23 pnum0)
  (count-package package-bag3 city-loc-24 pnum0)
  (count-package package-bag3 city-loc-25 pnum0)
  (count-package package-bag3 city-loc-26 pnum0)
  (count-package package-bag3 city-loc-27 pnum0)
  (count-package package-bag3 city-loc-28 pnum0)
  (count-package package-bag3 city-loc-29 pnum0)
  (count-package package-bag3 city-loc-30 pnum0)
  (count-package package-bag3 city-loc-31 pnum0)
  (count-package package-bag3 city-loc-32 pnum0)
  (count-package package-bag3 city-loc-33 pnum0)
  (count-package package-bag3 city-loc-34 pnum0)
  (count-package package-bag3 city-loc-35 pnum0)
  (count-package package-bag3 city-loc-36 pnum0)
  (count-package package-bag3 city-loc-37 pnum0)
  (count-package package-bag3 city-loc-39 pnum0)
  (count-package package-bag3 city-loc-40 pnum0)
  (count-package package-bag3 city-loc-41 pnum0)
  (count-package package-bag3 city-loc-42 pnum0)
  (count-package package-bag3 city-loc-43 pnum0)
  (count-package package-bag3 city-loc-44 pnum0)
  (count-package package-bag3 city-loc-45 pnum0)
  (count-package package-bag3 city-loc-46 pnum0)
  (count-package package-bag3 city-loc-47 pnum0)
  (count-package package-bag3 city-loc-48 pnum0)
  (count-package package-bag3 city-loc-49 pnum0)
  (count-package package-bag3 city-loc-50 pnum0)
  (count-package package-bag3 truck-1 pnum0)
  (count-package package-bag3 truck-2 pnum0)
  (count-package package-bag3 truck-3 pnum0)
  (count-package package-bag3 truck-4 pnum0)
  (count-package package-bag4 city-loc-1 pnum0)
  (count-package package-bag4 city-loc-2 pnum0)
  (count-package package-bag4 city-loc-3 pnum0)
  (count-package package-bag4 city-loc-5 pnum0)
  (count-package package-bag4 city-loc-6 pnum0)
  (count-package package-bag4 city-loc-7 pnum0)
  (count-package package-bag4 city-loc-8 pnum0)
  (count-package package-bag4 city-loc-10 pnum0)
  (count-package package-bag4 city-loc-11 pnum0)
  (count-package package-bag4 city-loc-12 pnum0)
  (count-package package-bag4 city-loc-13 pnum0)
  (count-package package-bag4 city-loc-14 pnum0)
  (count-package package-bag4 city-loc-15 pnum0)
  (count-package package-bag4 city-loc-16 pnum0)
  (count-package package-bag4 city-loc-17 pnum0)
  (count-package package-bag4 city-loc-18 pnum0)
  (count-package package-bag4 city-loc-19 pnum0)
  (count-package package-bag4 city-loc-20 pnum0)
  (count-package package-bag4 city-loc-21 pnum0)
  (count-package package-bag4 city-loc-22 pnum0)
  (count-package package-bag4 city-loc-23 pnum0)
  (count-package package-bag4 city-loc-24 pnum0)
  (count-package package-bag4 city-loc-25 pnum0)
  (count-package package-bag4 city-loc-26 pnum0)
  (count-package package-bag4 city-loc-27 pnum0)
  (count-package package-bag4 city-loc-28 pnum0)
  (count-package package-bag4 city-loc-29 pnum0)
  (count-package package-bag4 city-loc-30 pnum0)
  (count-package package-bag4 city-loc-31 pnum0)
  (count-package package-bag4 city-loc-32 pnum0)
  (count-package package-bag4 city-loc-33 pnum0)
  (count-package package-bag4 city-loc-34 pnum0)
  (count-package package-bag4 city-loc-35 pnum0)
  (count-package package-bag4 city-loc-36 pnum0)
  (count-package package-bag4 city-loc-37 pnum0)
  (count-package package-bag4 city-loc-38 pnum0)
  (count-package package-bag4 city-loc-39 pnum0)
  (count-package package-bag4 city-loc-40 pnum0)
  (count-package package-bag4 city-loc-41 pnum0)
  (count-package package-bag4 city-loc-42 pnum0)
  (count-package package-bag4 city-loc-43 pnum0)
  (count-package package-bag4 city-loc-44 pnum0)
  (count-package package-bag4 city-loc-45 pnum0)
  (count-package package-bag4 city-loc-46 pnum0)
  (count-package package-bag4 city-loc-47 pnum0)
  (count-package package-bag4 city-loc-48 pnum0)
  (count-package package-bag4 city-loc-49 pnum0)
  (count-package package-bag4 city-loc-50 pnum0)
  (count-package package-bag4 truck-1 pnum0)
  (count-package package-bag4 truck-2 pnum0)
  (count-package package-bag4 truck-3 pnum0)
  (count-package package-bag4 truck-4 pnum0)
  (count-package package-bag5 city-loc-2 pnum0)
  (count-package package-bag5 city-loc-3 pnum0)
  (count-package package-bag5 city-loc-4 pnum0)
  (count-package package-bag5 city-loc-5 pnum0)
  (count-package package-bag5 city-loc-6 pnum0)
  (count-package package-bag5 city-loc-7 pnum0)
  (count-package package-bag5 city-loc-8 pnum0)
  (count-package package-bag5 city-loc-9 pnum0)
  (count-package package-bag5 city-loc-10 pnum0)
  (count-package package-bag5 city-loc-11 pnum0)
  (count-package package-bag5 city-loc-12 pnum0)
  (count-package package-bag5 city-loc-13 pnum0)
  (count-package package-bag5 city-loc-14 pnum0)
  (count-package package-bag5 city-loc-15 pnum0)
  (count-package package-bag5 city-loc-16 pnum0)
  (count-package package-bag5 city-loc-17 pnum0)
  (count-package package-bag5 city-loc-18 pnum0)
  (count-package package-bag5 city-loc-19 pnum0)
  (count-package package-bag5 city-loc-20 pnum0)
  (count-package package-bag5 city-loc-21 pnum0)
  (count-package package-bag5 city-loc-22 pnum0)
  (count-package package-bag5 city-loc-23 pnum0)
  (count-package package-bag5 city-loc-24 pnum0)
  (count-package package-bag5 city-loc-25 pnum0)
  (count-package package-bag5 city-loc-26 pnum0)
  (count-package package-bag5 city-loc-27 pnum0)
  (count-package package-bag5 city-loc-28 pnum0)
  (count-package package-bag5 city-loc-29 pnum0)
  (count-package package-bag5 city-loc-30 pnum0)
  (count-package package-bag5 city-loc-31 pnum0)
  (count-package package-bag5 city-loc-32 pnum0)
  (count-package package-bag5 city-loc-33 pnum0)
  (count-package package-bag5 city-loc-34 pnum0)
  (count-package package-bag5 city-loc-35 pnum0)
  (count-package package-bag5 city-loc-36 pnum0)
  (count-package package-bag5 city-loc-37 pnum0)
  (count-package package-bag5 city-loc-38 pnum0)
  (count-package package-bag5 city-loc-39 pnum0)
  (count-package package-bag5 city-loc-40 pnum0)
  (count-package package-bag5 city-loc-41 pnum0)
  (count-package package-bag5 city-loc-42 pnum0)
  (count-package package-bag5 city-loc-43 pnum0)
  (count-package package-bag5 city-loc-44 pnum0)
  (count-package package-bag5 city-loc-45 pnum0)
  (count-package package-bag5 city-loc-46 pnum0)
  (count-package package-bag5 city-loc-47 pnum0)
  (count-package package-bag5 city-loc-48 pnum0)
  (count-package package-bag5 city-loc-49 pnum0)
  (count-package package-bag5 city-loc-50 pnum0)
  (count-package package-bag5 truck-1 pnum0)
  (count-package package-bag5 truck-2 pnum0)
  (count-package package-bag5 truck-3 pnum0)
  (count-package package-bag5 truck-4 pnum0)
  (count-package package-bag6 city-loc-1 pnum0)
  (count-package package-bag6 city-loc-2 pnum0)
  (count-package package-bag6 city-loc-3 pnum0)
  (count-package package-bag6 city-loc-4 pnum0)
  (count-package package-bag6 city-loc-5 pnum0)
  (count-package package-bag6 city-loc-6 pnum0)
  (count-package package-bag6 city-loc-7 pnum0)
  (count-package package-bag6 city-loc-8 pnum0)
  (count-package package-bag6 city-loc-9 pnum0)
  (count-package package-bag6 city-loc-10 pnum0)
  (count-package package-bag6 city-loc-11 pnum0)
  (count-package package-bag6 city-loc-12 pnum0)
  (count-package package-bag6 city-loc-13 pnum0)
  (count-package package-bag6 city-loc-14 pnum0)
  (count-package package-bag6 city-loc-15 pnum0)
  (count-package package-bag6 city-loc-16 pnum0)
  (count-package package-bag6 city-loc-17 pnum0)
  (count-package package-bag6 city-loc-18 pnum0)
  (count-package package-bag6 city-loc-19 pnum0)
  (count-package package-bag6 city-loc-20 pnum0)
  (count-package package-bag6 city-loc-21 pnum0)
  (count-package package-bag6 city-loc-22 pnum0)
  (count-package package-bag6 city-loc-23 pnum0)
  (count-package package-bag6 city-loc-24 pnum0)
  (count-package package-bag6 city-loc-25 pnum0)
  (count-package package-bag6 city-loc-26 pnum0)
  (count-package package-bag6 city-loc-27 pnum0)
  (count-package package-bag6 city-loc-28 pnum0)
  (count-package package-bag6 city-loc-29 pnum0)
  (count-package package-bag6 city-loc-30 pnum0)
  (count-package package-bag6 city-loc-31 pnum0)
  (count-package package-bag6 city-loc-32 pnum0)
  (count-package package-bag6 city-loc-34 pnum0)
  (count-package package-bag6 city-loc-35 pnum0)
  (count-package package-bag6 city-loc-36 pnum0)
  (count-package package-bag6 city-loc-37 pnum0)
  (count-package package-bag6 city-loc-38 pnum0)
  (count-package package-bag6 city-loc-39 pnum0)
  (count-package package-bag6 city-loc-40 pnum0)
  (count-package package-bag6 city-loc-41 pnum0)
  (count-package package-bag6 city-loc-42 pnum0)
  (count-package package-bag6 city-loc-43 pnum0)
  (count-package package-bag6 city-loc-44 pnum0)
  (count-package package-bag6 city-loc-45 pnum0)
  (count-package package-bag6 city-loc-46 pnum0)
  (count-package package-bag6 city-loc-47 pnum0)
  (count-package package-bag6 city-loc-48 pnum0)
  (count-package package-bag6 city-loc-49 pnum0)
  (count-package package-bag6 city-loc-50 pnum0)
  (count-package package-bag6 truck-1 pnum0)
  (count-package package-bag6 truck-2 pnum0)
  (count-package package-bag6 truck-3 pnum0)
  (count-package package-bag6 truck-4 pnum0)
  (count-package package-bag7 city-loc-1 pnum0)
  (count-package package-bag7 city-loc-2 pnum0)
  (count-package package-bag7 city-loc-3 pnum0)
  (count-package package-bag7 city-loc-4 pnum0)
  (count-package package-bag7 city-loc-5 pnum0)
  (count-package package-bag7 city-loc-6 pnum0)
  (count-package package-bag7 city-loc-7 pnum0)
  (count-package package-bag7 city-loc-8 pnum0)
  (count-package package-bag7 city-loc-9 pnum0)
  (count-package package-bag7 city-loc-10 pnum0)
  (count-package package-bag7 city-loc-11 pnum0)
  (count-package package-bag7 city-loc-12 pnum0)
  (count-package package-bag7 city-loc-13 pnum0)
  (count-package package-bag7 city-loc-14 pnum0)
  (count-package package-bag7 city-loc-15 pnum0)
  (count-package package-bag7 city-loc-16 pnum0)
  (count-package package-bag7 city-loc-17 pnum0)
  (count-package package-bag7 city-loc-18 pnum0)
  (count-package package-bag7 city-loc-19 pnum0)
  (count-package package-bag7 city-loc-20 pnum0)
  (count-package package-bag7 city-loc-21 pnum0)
  (count-package package-bag7 city-loc-22 pnum0)
  (count-package package-bag7 city-loc-23 pnum0)
  (count-package package-bag7 city-loc-24 pnum0)
  (count-package package-bag7 city-loc-25 pnum0)
  (count-package package-bag7 city-loc-26 pnum0)
  (count-package package-bag7 city-loc-27 pnum0)
  (count-package package-bag7 city-loc-28 pnum0)
  (count-package package-bag7 city-loc-29 pnum0)
  (count-package package-bag7 city-loc-30 pnum0)
  (count-package package-bag7 city-loc-31 pnum0)
  (count-package package-bag7 city-loc-32 pnum0)
  (count-package package-bag7 city-loc-33 pnum0)
  (count-package package-bag7 city-loc-34 pnum0)
  (count-package package-bag7 city-loc-35 pnum0)
  (count-package package-bag7 city-loc-36 pnum0)
  (count-package package-bag7 city-loc-37 pnum0)
  (count-package package-bag7 city-loc-38 pnum0)
  (count-package package-bag7 city-loc-39 pnum0)
  (count-package package-bag7 city-loc-40 pnum0)
  (count-package package-bag7 city-loc-41 pnum0)
  (count-package package-bag7 city-loc-42 pnum0)
  (count-package package-bag7 city-loc-43 pnum0)
  (count-package package-bag7 city-loc-44 pnum0)
  (count-package package-bag7 city-loc-45 pnum0)
  (count-package package-bag7 city-loc-47 pnum0)
  (count-package package-bag7 city-loc-48 pnum0)
  (count-package package-bag7 city-loc-49 pnum0)
  (count-package package-bag7 city-loc-50 pnum0)
  (count-package package-bag7 truck-1 pnum0)
  (count-package package-bag7 truck-2 pnum0)
  (count-package package-bag7 truck-3 pnum0)
  (count-package package-bag7 truck-4 pnum0)
  (count-package package-bag8 city-loc-1 pnum0)
  (count-package package-bag8 city-loc-2 pnum0)
  (count-package package-bag8 city-loc-3 pnum0)
  (count-package package-bag8 city-loc-4 pnum0)
  (count-package package-bag8 city-loc-5 pnum0)
  (count-package package-bag8 city-loc-6 pnum0)
  (count-package package-bag8 city-loc-7 pnum0)
  (count-package package-bag8 city-loc-8 pnum0)
  (count-package package-bag8 city-loc-9 pnum0)
  (count-package package-bag8 city-loc-10 pnum0)
  (count-package package-bag8 city-loc-11 pnum0)
  (count-package package-bag8 city-loc-12 pnum0)
  (count-package package-bag8 city-loc-13 pnum0)
  (count-package package-bag8 city-loc-14 pnum0)
  (count-package package-bag8 city-loc-15 pnum0)
  (count-package package-bag8 city-loc-16 pnum0)
  (count-package package-bag8 city-loc-17 pnum0)
  (count-package package-bag8 city-loc-19 pnum0)
  (count-package package-bag8 city-loc-20 pnum0)
  (count-package package-bag8 city-loc-21 pnum0)
  (count-package package-bag8 city-loc-22 pnum0)
  (count-package package-bag8 city-loc-23 pnum0)
  (count-package package-bag8 city-loc-24 pnum0)
  (count-package package-bag8 city-loc-25 pnum0)
  (count-package package-bag8 city-loc-26 pnum0)
  (count-package package-bag8 city-loc-27 pnum0)
  (count-package package-bag8 city-loc-28 pnum0)
  (count-package package-bag8 city-loc-29 pnum0)
  (count-package package-bag8 city-loc-30 pnum0)
  (count-package package-bag8 city-loc-31 pnum0)
  (count-package package-bag8 city-loc-32 pnum0)
  (count-package package-bag8 city-loc-33 pnum0)
  (count-package package-bag8 city-loc-34 pnum0)
  (count-package package-bag8 city-loc-35 pnum0)
  (count-package package-bag8 city-loc-36 pnum0)
  (count-package package-bag8 city-loc-37 pnum0)
  (count-package package-bag8 city-loc-38 pnum0)
  (count-package package-bag8 city-loc-39 pnum0)
  (count-package package-bag8 city-loc-40 pnum0)
  (count-package package-bag8 city-loc-41 pnum0)
  (count-package package-bag8 city-loc-42 pnum0)
  (count-package package-bag8 city-loc-43 pnum0)
  (count-package package-bag8 city-loc-44 pnum0)
  (count-package package-bag8 city-loc-45 pnum0)
  (count-package package-bag8 city-loc-46 pnum0)
  (count-package package-bag8 city-loc-47 pnum0)
  (count-package package-bag8 city-loc-48 pnum0)
  (count-package package-bag8 city-loc-49 pnum0)
  (count-package package-bag8 city-loc-50 pnum0)
  (count-package package-bag8 truck-1 pnum0)
  (count-package package-bag8 truck-2 pnum0)
  (count-package package-bag8 truck-3 pnum0)
  (count-package package-bag8 truck-4 pnum0)
  (count-package package-bag9 city-loc-1 pnum0)
  (count-package package-bag9 city-loc-2 pnum0)
  (count-package package-bag9 city-loc-3 pnum0)
  (count-package package-bag9 city-loc-4 pnum0)
  (count-package package-bag9 city-loc-5 pnum0)
  (count-package package-bag9 city-loc-6 pnum0)
  (count-package package-bag9 city-loc-7 pnum0)
  (count-package package-bag9 city-loc-8 pnum0)
  (count-package package-bag9 city-loc-9 pnum0)
  (count-package package-bag9 city-loc-10 pnum0)
  (count-package package-bag9 city-loc-11 pnum0)
  (count-package package-bag9 city-loc-12 pnum0)
  (count-package package-bag9 city-loc-13 pnum0)
  (count-package package-bag9 city-loc-14 pnum0)
  (count-package package-bag9 city-loc-15 pnum0)
  (count-package package-bag9 city-loc-16 pnum0)
  (count-package package-bag9 city-loc-17 pnum0)
  (count-package package-bag9 city-loc-18 pnum0)
  (count-package package-bag9 city-loc-19 pnum0)
  (count-package package-bag9 city-loc-20 pnum0)
  (count-package package-bag9 city-loc-21 pnum0)
  (count-package package-bag9 city-loc-22 pnum0)
  (count-package package-bag9 city-loc-23 pnum0)
  (count-package package-bag9 city-loc-24 pnum0)
  (count-package package-bag9 city-loc-25 pnum0)
  (count-package package-bag9 city-loc-26 pnum0)
  (count-package package-bag9 city-loc-27 pnum0)
  (count-package package-bag9 city-loc-28 pnum0)
  (count-package package-bag9 city-loc-29 pnum0)
  (count-package package-bag9 city-loc-30 pnum0)
  (count-package package-bag9 city-loc-31 pnum0)
  (count-package package-bag9 city-loc-32 pnum0)
  (count-package package-bag9 city-loc-33 pnum0)
  (count-package package-bag9 city-loc-34 pnum0)
  (count-package package-bag9 city-loc-35 pnum0)
  (count-package package-bag9 city-loc-36 pnum0)
  (count-package package-bag9 city-loc-38 pnum0)
  (count-package package-bag9 city-loc-39 pnum0)
  (count-package package-bag9 city-loc-40 pnum0)
  (count-package package-bag9 city-loc-41 pnum0)
  (count-package package-bag9 city-loc-42 pnum0)
  (count-package package-bag9 city-loc-43 pnum0)
  (count-package package-bag9 city-loc-44 pnum0)
  (count-package package-bag9 city-loc-45 pnum0)
  (count-package package-bag9 city-loc-46 pnum0)
  (count-package package-bag9 city-loc-47 pnum0)
  (count-package package-bag9 city-loc-48 pnum0)
  (count-package package-bag9 city-loc-49 pnum0)
  (count-package package-bag9 city-loc-50 pnum0)
  (count-package package-bag9 truck-1 pnum0)
  (count-package package-bag9 truck-2 pnum0)
  (count-package package-bag9 truck-3 pnum0)
  (count-package package-bag9 truck-4 pnum0)
  (count-package package-bag10 city-loc-1 pnum0)
  (count-package package-bag10 city-loc-2 pnum0)
  (count-package package-bag10 city-loc-3 pnum0)
  (count-package package-bag10 city-loc-4 pnum0)
  (count-package package-bag10 city-loc-5 pnum0)
  (count-package package-bag10 city-loc-6 pnum0)
  (count-package package-bag10 city-loc-7 pnum0)
  (count-package package-bag10 city-loc-8 pnum0)
  (count-package package-bag10 city-loc-9 pnum0)
  (count-package package-bag10 city-loc-10 pnum0)
  (count-package package-bag10 city-loc-11 pnum0)
  (count-package package-bag10 city-loc-12 pnum0)
  (count-package package-bag10 city-loc-13 pnum0)
  (count-package package-bag10 city-loc-14 pnum0)
  (count-package package-bag10 city-loc-15 pnum0)
  (count-package package-bag10 city-loc-16 pnum0)
  (count-package package-bag10 city-loc-17 pnum0)
  (count-package package-bag10 city-loc-18 pnum0)
  (count-package package-bag10 city-loc-19 pnum0)
  (count-package package-bag10 city-loc-20 pnum0)
  (count-package package-bag10 city-loc-21 pnum0)
  (count-package package-bag10 city-loc-22 pnum0)
  (count-package package-bag10 city-loc-23 pnum0)
  (count-package package-bag10 city-loc-24 pnum0)
  (count-package package-bag10 city-loc-25 pnum0)
  (count-package package-bag10 city-loc-26 pnum0)
  (count-package package-bag10 city-loc-27 pnum0)
  (count-package package-bag10 city-loc-28 pnum0)
  (count-package package-bag10 city-loc-29 pnum0)
  (count-package package-bag10 city-loc-30 pnum0)
  (count-package package-bag10 city-loc-31 pnum0)
  (count-package package-bag10 city-loc-32 pnum0)
  (count-package package-bag10 city-loc-33 pnum0)
  (count-package package-bag10 city-loc-34 pnum0)
  (count-package package-bag10 city-loc-36 pnum0)
  (count-package package-bag10 city-loc-37 pnum0)
  (count-package package-bag10 city-loc-38 pnum0)
  (count-package package-bag10 city-loc-39 pnum0)
  (count-package package-bag10 city-loc-40 pnum0)
  (count-package package-bag10 city-loc-41 pnum0)
  (count-package package-bag10 city-loc-42 pnum0)
  (count-package package-bag10 city-loc-43 pnum0)
  (count-package package-bag10 city-loc-44 pnum0)
  (count-package package-bag10 city-loc-45 pnum0)
  (count-package package-bag10 city-loc-46 pnum0)
  (count-package package-bag10 city-loc-47 pnum0)
  (count-package package-bag10 city-loc-48 pnum0)
  (count-package package-bag10 city-loc-49 pnum0)
  (count-package package-bag10 city-loc-50 pnum0)
  (count-package package-bag10 truck-1 pnum0)
  (count-package package-bag10 truck-2 pnum0)
  (count-package package-bag10 truck-3 pnum0)
  (count-package package-bag10 truck-4 pnum0)
  (count-package package-bag11 city-loc-1 pnum0)
  (count-package package-bag11 city-loc-2 pnum0)
  (count-package package-bag11 city-loc-4 pnum0)
  (count-package package-bag11 city-loc-5 pnum0)
  (count-package package-bag11 city-loc-6 pnum0)
  (count-package package-bag11 city-loc-7 pnum0)
  (count-package package-bag11 city-loc-8 pnum0)
  (count-package package-bag11 city-loc-9 pnum0)
  (count-package package-bag11 city-loc-10 pnum0)
  (count-package package-bag11 city-loc-11 pnum0)
  (count-package package-bag11 city-loc-12 pnum0)
  (count-package package-bag11 city-loc-13 pnum0)
  (count-package package-bag11 city-loc-14 pnum0)
  (count-package package-bag11 city-loc-15 pnum0)
  (count-package package-bag11 city-loc-16 pnum0)
  (count-package package-bag11 city-loc-17 pnum0)
  (count-package package-bag11 city-loc-18 pnum0)
  (count-package package-bag11 city-loc-19 pnum0)
  (count-package package-bag11 city-loc-20 pnum0)
  (count-package package-bag11 city-loc-21 pnum0)
  (count-package package-bag11 city-loc-22 pnum0)
  (count-package package-bag11 city-loc-23 pnum0)
  (count-package package-bag11 city-loc-24 pnum0)
  (count-package package-bag11 city-loc-25 pnum0)
  (count-package package-bag11 city-loc-26 pnum0)
  (count-package package-bag11 city-loc-27 pnum0)
  (count-package package-bag11 city-loc-28 pnum0)
  (count-package package-bag11 city-loc-29 pnum0)
  (count-package package-bag11 city-loc-30 pnum0)
  (count-package package-bag11 city-loc-31 pnum0)
  (count-package package-bag11 city-loc-32 pnum0)
  (count-package package-bag11 city-loc-33 pnum0)
  (count-package package-bag11 city-loc-34 pnum0)
  (count-package package-bag11 city-loc-35 pnum0)
  (count-package package-bag11 city-loc-36 pnum0)
  (count-package package-bag11 city-loc-37 pnum0)
  (count-package package-bag11 city-loc-38 pnum0)
  (count-package package-bag11 city-loc-39 pnum0)
  (count-package package-bag11 city-loc-40 pnum0)
  (count-package package-bag11 city-loc-41 pnum0)
  (count-package package-bag11 city-loc-42 pnum0)
  (count-package package-bag11 city-loc-43 pnum0)
  (count-package package-bag11 city-loc-44 pnum0)
  (count-package package-bag11 city-loc-45 pnum0)
  (count-package package-bag11 city-loc-46 pnum0)
  (count-package package-bag11 city-loc-47 pnum0)
  (count-package package-bag11 city-loc-48 pnum0)
  (count-package package-bag11 city-loc-49 pnum0)
  (count-package package-bag11 city-loc-50 pnum0)
  (count-package package-bag11 truck-1 pnum0)
  (count-package package-bag11 truck-2 pnum0)
  (count-package package-bag11 truck-3 pnum0)
  (count-package package-bag11 truck-4 pnum0)
  (count-package package-bag12 city-loc-1 pnum0)
  (count-package package-bag12 city-loc-2 pnum0)
  (count-package package-bag12 city-loc-3 pnum0)
  (count-package package-bag12 city-loc-4 pnum0)
  (count-package package-bag12 city-loc-5 pnum0)
  (count-package package-bag12 city-loc-6 pnum0)
  (count-package package-bag12 city-loc-7 pnum0)
  (count-package package-bag12 city-loc-8 pnum0)
  (count-package package-bag12 city-loc-9 pnum0)
  (count-package package-bag12 city-loc-10 pnum0)
  (count-package package-bag12 city-loc-11 pnum0)
  (count-package package-bag12 city-loc-12 pnum0)
  (count-package package-bag12 city-loc-13 pnum0)
  (count-package package-bag12 city-loc-14 pnum0)
  (count-package package-bag12 city-loc-15 pnum0)
  (count-package package-bag12 city-loc-16 pnum0)
  (count-package package-bag12 city-loc-17 pnum0)
  (count-package package-bag12 city-loc-18 pnum0)
  (count-package package-bag12 city-loc-19 pnum0)
  (count-package package-bag12 city-loc-20 pnum0)
  (count-package package-bag12 city-loc-21 pnum0)
  (count-package package-bag12 city-loc-22 pnum0)
  (count-package package-bag12 city-loc-23 pnum0)
  (count-package package-bag12 city-loc-24 pnum0)
  (count-package package-bag12 city-loc-26 pnum0)
  (count-package package-bag12 city-loc-27 pnum0)
  (count-package package-bag12 city-loc-28 pnum0)
  (count-package package-bag12 city-loc-29 pnum0)
  (count-package package-bag12 city-loc-30 pnum0)
  (count-package package-bag12 city-loc-31 pnum0)
  (count-package package-bag12 city-loc-32 pnum0)
  (count-package package-bag12 city-loc-33 pnum0)
  (count-package package-bag12 city-loc-34 pnum0)
  (count-package package-bag12 city-loc-35 pnum0)
  (count-package package-bag12 city-loc-36 pnum0)
  (count-package package-bag12 city-loc-37 pnum0)
  (count-package package-bag12 city-loc-38 pnum0)
  (count-package package-bag12 city-loc-39 pnum0)
  (count-package package-bag12 city-loc-40 pnum0)
  (count-package package-bag12 city-loc-41 pnum0)
  (count-package package-bag12 city-loc-42 pnum0)
  (count-package package-bag12 city-loc-43 pnum0)
  (count-package package-bag12 city-loc-44 pnum0)
  (count-package package-bag12 city-loc-45 pnum0)
  (count-package package-bag12 city-loc-46 pnum0)
  (count-package package-bag12 city-loc-47 pnum0)
  (count-package package-bag12 city-loc-48 pnum0)
  (count-package package-bag12 city-loc-49 pnum0)
  (count-package package-bag12 city-loc-50 pnum0)
  (count-package package-bag12 truck-1 pnum0)
  (count-package package-bag12 truck-2 pnum0)
  (count-package package-bag12 truck-3 pnum0)
  (count-package package-bag12 truck-4 pnum0)
  (count-package package-bag13 city-loc-1 pnum0)
  (count-package package-bag13 city-loc-2 pnum0)
  (count-package package-bag13 city-loc-3 pnum0)
  (count-package package-bag13 city-loc-4 pnum0)
  (count-package package-bag13 city-loc-5 pnum0)
  (count-package package-bag13 city-loc-6 pnum0)
  (count-package package-bag13 city-loc-7 pnum0)
  (count-package package-bag13 city-loc-8 pnum0)
  (count-package package-bag13 city-loc-9 pnum0)
  (count-package package-bag13 city-loc-10 pnum0)
  (count-package package-bag13 city-loc-11 pnum0)
  (count-package package-bag13 city-loc-12 pnum0)
  (count-package package-bag13 city-loc-13 pnum0)
  (count-package package-bag13 city-loc-14 pnum0)
  (count-package package-bag13 city-loc-15 pnum0)
  (count-package package-bag13 city-loc-16 pnum0)
  (count-package package-bag13 city-loc-17 pnum0)
  (count-package package-bag13 city-loc-18 pnum0)
  (count-package package-bag13 city-loc-19 pnum0)
  (count-package package-bag13 city-loc-20 pnum0)
  (count-package package-bag13 city-loc-21 pnum0)
  (count-package package-bag13 city-loc-22 pnum0)
  (count-package package-bag13 city-loc-23 pnum0)
  (count-package package-bag13 city-loc-24 pnum0)
  (count-package package-bag13 city-loc-25 pnum0)
  (count-package package-bag13 city-loc-26 pnum0)
  (count-package package-bag13 city-loc-27 pnum0)
  (count-package package-bag13 city-loc-28 pnum0)
  (count-package package-bag13 city-loc-29 pnum0)
  (count-package package-bag13 city-loc-30 pnum0)
  (count-package package-bag13 city-loc-31 pnum0)
  (count-package package-bag13 city-loc-32 pnum0)
  (count-package package-bag13 city-loc-33 pnum0)
  (count-package package-bag13 city-loc-34 pnum0)
  (count-package package-bag13 city-loc-35 pnum0)
  (count-package package-bag13 city-loc-36 pnum0)
  (count-package package-bag13 city-loc-37 pnum0)
  (count-package package-bag13 city-loc-39 pnum0)
  (count-package package-bag13 city-loc-40 pnum0)
  (count-package package-bag13 city-loc-41 pnum0)
  (count-package package-bag13 city-loc-42 pnum0)
  (count-package package-bag13 city-loc-43 pnum0)
  (count-package package-bag13 city-loc-44 pnum0)
  (count-package package-bag13 city-loc-45 pnum0)
  (count-package package-bag13 city-loc-46 pnum0)
  (count-package package-bag13 city-loc-47 pnum0)
  (count-package package-bag13 city-loc-48 pnum0)
  (count-package package-bag13 city-loc-49 pnum0)
  (count-package package-bag13 city-loc-50 pnum0)
  (count-package package-bag13 truck-1 pnum0)
  (count-package package-bag13 truck-2 pnum0)
  (count-package package-bag13 truck-3 pnum0)
  (count-package package-bag13 truck-4 pnum0)
  (count-package package-bag14 city-loc-1 pnum0)
  (count-package package-bag14 city-loc-2 pnum0)
  (count-package package-bag14 city-loc-3 pnum0)
  (count-package package-bag14 city-loc-4 pnum0)
  (count-package package-bag14 city-loc-5 pnum0)
  (count-package package-bag14 city-loc-6 pnum0)
  (count-package package-bag14 city-loc-7 pnum0)
  (count-package package-bag14 city-loc-8 pnum0)
  (count-package package-bag14 city-loc-9 pnum0)
  (count-package package-bag14 city-loc-10 pnum0)
  (count-package package-bag14 city-loc-12 pnum0)
  (count-package package-bag14 city-loc-13 pnum0)
  (count-package package-bag14 city-loc-14 pnum0)
  (count-package package-bag14 city-loc-15 pnum0)
  (count-package package-bag14 city-loc-16 pnum0)
  (count-package package-bag14 city-loc-17 pnum0)
  (count-package package-bag14 city-loc-18 pnum0)
  (count-package package-bag14 city-loc-19 pnum0)
  (count-package package-bag14 city-loc-20 pnum0)
  (count-package package-bag14 city-loc-21 pnum0)
  (count-package package-bag14 city-loc-22 pnum0)
  (count-package package-bag14 city-loc-23 pnum0)
  (count-package package-bag14 city-loc-24 pnum0)
  (count-package package-bag14 city-loc-25 pnum0)
  (count-package package-bag14 city-loc-26 pnum0)
  (count-package package-bag14 city-loc-27 pnum0)
  (count-package package-bag14 city-loc-28 pnum0)
  (count-package package-bag14 city-loc-29 pnum0)
  (count-package package-bag14 city-loc-30 pnum0)
  (count-package package-bag14 city-loc-31 pnum0)
  (count-package package-bag14 city-loc-32 pnum0)
  (count-package package-bag14 city-loc-33 pnum0)
  (count-package package-bag14 city-loc-34 pnum0)
  (count-package package-bag14 city-loc-35 pnum0)
  (count-package package-bag14 city-loc-36 pnum0)
  (count-package package-bag14 city-loc-37 pnum0)
  (count-package package-bag14 city-loc-38 pnum0)
  (count-package package-bag14 city-loc-39 pnum0)
  (count-package package-bag14 city-loc-40 pnum0)
  (count-package package-bag14 city-loc-41 pnum0)
  (count-package package-bag14 city-loc-42 pnum0)
  (count-package package-bag14 city-loc-43 pnum0)
  (count-package package-bag14 city-loc-44 pnum0)
  (count-package package-bag14 city-loc-45 pnum0)
  (count-package package-bag14 city-loc-46 pnum0)
  (count-package package-bag14 city-loc-47 pnum0)
  (count-package package-bag14 city-loc-48 pnum0)
  (count-package package-bag14 city-loc-49 pnum0)
  (count-package package-bag14 city-loc-50 pnum0)
  (count-package package-bag14 truck-1 pnum0)
  (count-package package-bag14 truck-2 pnum0)
  (count-package package-bag14 truck-3 pnum0)
  (count-package package-bag14 truck-4 pnum0)
  (count-package package-bag15 city-loc-1 pnum0)
  (count-package package-bag15 city-loc-2 pnum0)
  (count-package package-bag15 city-loc-3 pnum0)
  (count-package package-bag15 city-loc-4 pnum0)
  (count-package package-bag15 city-loc-5 pnum0)
  (count-package package-bag15 city-loc-6 pnum0)
  (count-package package-bag15 city-loc-7 pnum0)
  (count-package package-bag15 city-loc-8 pnum0)
  (count-package package-bag15 city-loc-9 pnum0)
  (count-package package-bag15 city-loc-10 pnum0)
  (count-package package-bag15 city-loc-11 pnum0)
  (count-package package-bag15 city-loc-12 pnum0)
  (count-package package-bag15 city-loc-14 pnum0)
  (count-package package-bag15 city-loc-15 pnum0)
  (count-package package-bag15 city-loc-16 pnum0)
  (count-package package-bag15 city-loc-17 pnum0)
  (count-package package-bag15 city-loc-18 pnum0)
  (count-package package-bag15 city-loc-19 pnum0)
  (count-package package-bag15 city-loc-20 pnum0)
  (count-package package-bag15 city-loc-21 pnum0)
  (count-package package-bag15 city-loc-22 pnum0)
  (count-package package-bag15 city-loc-23 pnum0)
  (count-package package-bag15 city-loc-24 pnum0)
  (count-package package-bag15 city-loc-25 pnum0)
  (count-package package-bag15 city-loc-26 pnum0)
  (count-package package-bag15 city-loc-27 pnum0)
  (count-package package-bag15 city-loc-28 pnum0)
  (count-package package-bag15 city-loc-29 pnum0)
  (count-package package-bag15 city-loc-30 pnum0)
  (count-package package-bag15 city-loc-31 pnum0)
  (count-package package-bag15 city-loc-32 pnum0)
  (count-package package-bag15 city-loc-33 pnum0)
  (count-package package-bag15 city-loc-34 pnum0)
  (count-package package-bag15 city-loc-35 pnum0)
  (count-package package-bag15 city-loc-36 pnum0)
  (count-package package-bag15 city-loc-37 pnum0)
  (count-package package-bag15 city-loc-38 pnum0)
  (count-package package-bag15 city-loc-39 pnum0)
  (count-package package-bag15 city-loc-40 pnum0)
  (count-package package-bag15 city-loc-41 pnum0)
  (count-package package-bag15 city-loc-42 pnum0)
  (count-package package-bag15 city-loc-43 pnum0)
  (count-package package-bag15 city-loc-44 pnum0)
  (count-package package-bag15 city-loc-45 pnum0)
  (count-package package-bag15 city-loc-46 pnum0)
  (count-package package-bag15 city-loc-47 pnum0)
  (count-package package-bag15 city-loc-48 pnum0)
  (count-package package-bag15 city-loc-49 pnum0)
  (count-package package-bag15 city-loc-50 pnum0)
  (count-package package-bag15 truck-1 pnum0)
  (count-package package-bag15 truck-2 pnum0)
  (count-package package-bag15 truck-3 pnum0)
  (count-package package-bag15 truck-4 pnum0)
  (count-package package-bag16 city-loc-1 pnum0)
  (count-package package-bag16 city-loc-2 pnum0)
  (count-package package-bag16 city-loc-3 pnum0)
  (count-package package-bag16 city-loc-4 pnum0)
  (count-package package-bag16 city-loc-5 pnum0)
  (count-package package-bag16 city-loc-6 pnum0)
  (count-package package-bag16 city-loc-7 pnum0)
  (count-package package-bag16 city-loc-8 pnum0)
  (count-package package-bag16 city-loc-9 pnum0)
  (count-package package-bag16 city-loc-10 pnum0)
  (count-package package-bag16 city-loc-11 pnum0)
  (count-package package-bag16 city-loc-12 pnum0)
  (count-package package-bag16 city-loc-13 pnum0)
  (count-package package-bag16 city-loc-15 pnum0)
  (count-package package-bag16 city-loc-16 pnum0)
  (count-package package-bag16 city-loc-17 pnum0)
  (count-package package-bag16 city-loc-18 pnum0)
  (count-package package-bag16 city-loc-19 pnum0)
  (count-package package-bag16 city-loc-20 pnum0)
  (count-package package-bag16 city-loc-21 pnum0)
  (count-package package-bag16 city-loc-22 pnum0)
  (count-package package-bag16 city-loc-23 pnum0)
  (count-package package-bag16 city-loc-24 pnum0)
  (count-package package-bag16 city-loc-25 pnum0)
  (count-package package-bag16 city-loc-26 pnum0)
  (count-package package-bag16 city-loc-27 pnum0)
  (count-package package-bag16 city-loc-28 pnum0)
  (count-package package-bag16 city-loc-29 pnum0)
  (count-package package-bag16 city-loc-30 pnum0)
  (count-package package-bag16 city-loc-31 pnum0)
  (count-package package-bag16 city-loc-32 pnum0)
  (count-package package-bag16 city-loc-33 pnum0)
  (count-package package-bag16 city-loc-34 pnum0)
  (count-package package-bag16 city-loc-35 pnum0)
  (count-package package-bag16 city-loc-36 pnum0)
  (count-package package-bag16 city-loc-37 pnum0)
  (count-package package-bag16 city-loc-38 pnum0)
  (count-package package-bag16 city-loc-39 pnum0)
  (count-package package-bag16 city-loc-40 pnum0)
  (count-package package-bag16 city-loc-41 pnum0)
  (count-package package-bag16 city-loc-42 pnum0)
  (count-package package-bag16 city-loc-43 pnum0)
  (count-package package-bag16 city-loc-44 pnum0)
  (count-package package-bag16 city-loc-45 pnum0)
  (count-package package-bag16 city-loc-46 pnum0)
  (count-package package-bag16 city-loc-47 pnum0)
  (count-package package-bag16 city-loc-48 pnum0)
  (count-package package-bag16 city-loc-49 pnum0)
  (count-package package-bag16 city-loc-50 pnum0)
  (count-package package-bag16 truck-1 pnum0)
  (count-package package-bag16 truck-2 pnum0)
  (count-package package-bag16 truck-3 pnum0)
  (count-package package-bag16 truck-4 pnum0)
  (count-package package-bag17 city-loc-1 pnum0)
  (count-package package-bag17 city-loc-2 pnum0)
  (count-package package-bag17 city-loc-3 pnum0)
  (count-package package-bag17 city-loc-4 pnum0)
  (count-package package-bag17 city-loc-5 pnum0)
  (count-package package-bag17 city-loc-6 pnum0)
  (count-package package-bag17 city-loc-7 pnum0)
  (count-package package-bag17 city-loc-8 pnum0)
  (count-package package-bag17 city-loc-9 pnum0)
  (count-package package-bag17 city-loc-10 pnum0)
  (count-package package-bag17 city-loc-11 pnum0)
  (count-package package-bag17 city-loc-12 pnum0)
  (count-package package-bag17 city-loc-13 pnum0)
  (count-package package-bag17 city-loc-14 pnum0)
  (count-package package-bag17 city-loc-15 pnum0)
  (count-package package-bag17 city-loc-16 pnum0)
  (count-package package-bag17 city-loc-17 pnum0)
  (count-package package-bag17 city-loc-18 pnum0)
  (count-package package-bag17 city-loc-19 pnum0)
  (count-package package-bag17 city-loc-20 pnum0)
  (count-package package-bag17 city-loc-21 pnum0)
  (count-package package-bag17 city-loc-22 pnum0)
  (count-package package-bag17 city-loc-23 pnum0)
  (count-package package-bag17 city-loc-24 pnum0)
  (count-package package-bag17 city-loc-25 pnum0)
  (count-package package-bag17 city-loc-26 pnum0)
  (count-package package-bag17 city-loc-27 pnum0)
  (count-package package-bag17 city-loc-28 pnum0)
  (count-package package-bag17 city-loc-29 pnum0)
  (count-package package-bag17 city-loc-30 pnum0)
  (count-package package-bag17 city-loc-31 pnum0)
  (count-package package-bag17 city-loc-32 pnum0)
  (count-package package-bag17 city-loc-33 pnum0)
  (count-package package-bag17 city-loc-34 pnum0)
  (count-package package-bag17 city-loc-35 pnum0)
  (count-package package-bag17 city-loc-36 pnum0)
  (count-package package-bag17 city-loc-37 pnum0)
  (count-package package-bag17 city-loc-38 pnum0)
  (count-package package-bag17 city-loc-40 pnum0)
  (count-package package-bag17 city-loc-41 pnum0)
  (count-package package-bag17 city-loc-42 pnum0)
  (count-package package-bag17 city-loc-43 pnum0)
  (count-package package-bag17 city-loc-44 pnum0)
  (count-package package-bag17 city-loc-45 pnum0)
  (count-package package-bag17 city-loc-46 pnum0)
  (count-package package-bag17 city-loc-47 pnum0)
  (count-package package-bag17 city-loc-48 pnum0)
  (count-package package-bag17 city-loc-49 pnum0)
  (count-package package-bag17 city-loc-50 pnum0)
  (count-package package-bag17 truck-1 pnum0)
  (count-package package-bag17 truck-2 pnum0)
  (count-package package-bag17 truck-3 pnum0)
  (count-package package-bag17 truck-4 pnum0)
  (count-package package-bag18 city-loc-1 pnum0)
  (count-package package-bag18 city-loc-2 pnum0)
  (count-package package-bag18 city-loc-3 pnum0)
  (count-package package-bag18 city-loc-4 pnum0)
  (count-package package-bag18 city-loc-5 pnum0)
  (count-package package-bag18 city-loc-6 pnum0)
  (count-package package-bag18 city-loc-7 pnum0)
  (count-package package-bag18 city-loc-8 pnum0)
  (count-package package-bag18 city-loc-9 pnum0)
  (count-package package-bag18 city-loc-10 pnum0)
  (count-package package-bag18 city-loc-11 pnum0)
  (count-package package-bag18 city-loc-12 pnum0)
  (count-package package-bag18 city-loc-13 pnum0)
  (count-package package-bag18 city-loc-14 pnum0)
  (count-package package-bag18 city-loc-15 pnum0)
  (count-package package-bag18 city-loc-16 pnum0)
  (count-package package-bag18 city-loc-17 pnum0)
  (count-package package-bag18 city-loc-18 pnum0)
  (count-package package-bag18 city-loc-19 pnum0)
  (count-package package-bag18 city-loc-20 pnum0)
  (count-package package-bag18 city-loc-21 pnum0)
  (count-package package-bag18 city-loc-22 pnum0)
  (count-package package-bag18 city-loc-23 pnum0)
  (count-package package-bag18 city-loc-24 pnum0)
  (count-package package-bag18 city-loc-25 pnum0)
  (count-package package-bag18 city-loc-26 pnum0)
  (count-package package-bag18 city-loc-27 pnum0)
  (count-package package-bag18 city-loc-28 pnum0)
  (count-package package-bag18 city-loc-29 pnum0)
  (count-package package-bag18 city-loc-30 pnum0)
  (count-package package-bag18 city-loc-31 pnum0)
  (count-package package-bag18 city-loc-32 pnum0)
  (count-package package-bag18 city-loc-33 pnum0)
  (count-package package-bag18 city-loc-34 pnum0)
  (count-package package-bag18 city-loc-35 pnum0)
  (count-package package-bag18 city-loc-36 pnum0)
  (count-package package-bag18 city-loc-37 pnum0)
  (count-package package-bag18 city-loc-38 pnum0)
  (count-package package-bag18 city-loc-39 pnum0)
  (count-package package-bag18 city-loc-40 pnum0)
  (count-package package-bag18 city-loc-41 pnum0)
  (count-package package-bag18 city-loc-42 pnum0)
  (count-package package-bag18 city-loc-43 pnum0)
  (count-package package-bag18 city-loc-44 pnum0)
  (count-package package-bag18 city-loc-45 pnum0)
  (count-package package-bag18 city-loc-46 pnum0)
  (count-package package-bag18 city-loc-47 pnum0)
  (count-package package-bag18 city-loc-48 pnum0)
  (count-package package-bag18 city-loc-50 pnum0)
  (count-package package-bag18 truck-1 pnum0)
  (count-package package-bag18 truck-2 pnum0)
  (count-package package-bag18 truck-3 pnum0)
  (count-package package-bag18 truck-4 pnum0)
  S:(package-bag-size package-bag1 pnum3)
  S:(package-bag-size package-bag2 pnum3)
  S:(package-bag-size package-bag3 pnum2)
  S:(package-bag-size package-bag4 pnum2)
  S:(package-bag-size package-bag5 pnum2)
  S:(package-bag-size package-bag6 pnum1)
  S:(package-bag-size package-bag7 pnum1)
  S:(package-bag-size package-bag8 pnum1)
  S:(package-bag-size package-bag9 pnum1)
  S:(package-bag-size package-bag10 pnum1)
  S:(package-bag-size package-bag11 pnum1)
  S:(package-bag-size package-bag12 pnum1)
  S:(package-bag-size package-bag13 pnum1)
  S:(package-bag-size package-bag14 pnum1)
  S:(package-bag-size package-bag15 pnum1)
  S:(package-bag-size package-bag16 pnum1)
  S:(package-bag-size package-bag17 pnum1)
  S:(package-bag-size package-bag18 pnum1)
  S:(package-lte-sum pnum0 pnum0 pnum3)
  S:(package-lte-sum pnum0 pnum1 pnum3)
  S:(package-lte-sum pnum0 pnum2 pnum3)
  S:(package-lte-sum pnum0 pnum3 pnum3)
  S:(package-lte-sum pnum1 pnum0 pnum3)
  S:(package-lte-sum pnum1 pnum1 pnum3)
  S:(package-lte-sum pnum1 pnum2 pnum3)
  S:(package-lte-sum pnum2 pnum0 pnum3)
  S:(package-lte-sum pnum2 pnum1 pnum3)
  S:(package-lte-sum pnum3 pnum0 pnum3)
  S:(package-lte-sum pnum0 pnum0 pnum2)
  S:(package-lte-sum pnum0 pnum1 pnum2)
  S:(package-lte-sum pnum0 pnum2 pnum2)
  S:(package-lte-sum pnum1 pnum0 pnum2)
  S:(package-lte-sum pnum1 pnum1 pnum2)
  S:(package-lte-sum pnum2 pnum0 pnum2)
  S:(package-lte-sum pnum0 pnum0 pnum1)
  S:(package-lte-sum pnum0 pnum1 pnum1)
  S:(package-lte-sum pnum1 pnum0 pnum1)
Init[201]:
  (= (total-cost) 0)
  (= (road-length city-loc-8 city-loc-4) 18)
  (= (road-length city-loc-4 city-loc-8) 18)
  (= (road-length city-loc-9 city-loc-1) 17)
  (= (road-length city-loc-1 city-loc-9) 17)
  (= (road-length city-loc-9 city-loc-8) 14)
  (= (road-length city-loc-8 city-loc-9) 14)
  (= (road-length city-loc-12 city-loc-11) 18)
  (= (road-length city-loc-11 city-loc-12) 18)
  (= (road-length city-loc-13 city-loc-8) 18)
  (= (road-length city-loc-8 city-loc-13) 18)
  (= (road-length city-loc-13 city-loc-9) 16)
  (= (road-length city-loc-9 city-loc-13) 16)
  (= (road-length city-loc-14 city-loc-7) 18)
  (= (road-length city-loc-7 city-loc-14) 18)
  (= (road-length city-loc-14 city-loc-12) 16)
  (= (road-length city-loc-12 city-loc-14) 16)
  (= (road-length city-loc-15 city-loc-5) 16)
  (= (road-length city-loc-5 city-loc-15) 16)
  (= (road-length city-loc-17 city-loc-10) 17)
  (= (road-length city-loc-10 city-loc-17) 17)
  (= (road-length city-loc-17 city-loc-16) 15)
  (= (road-length city-loc-16 city-loc-17) 15)
  (= (road-length city-loc-18 city-loc-15) 12)
  (= (road-length city-loc-15 city-loc-18) 12)
  (= (road-length city-loc-19 city-loc-2) 14)
  (= (road-length city-loc-2 city-loc-19) 14)
  (= (road-length city-loc-20 city-loc-15) 11)
  (= (road-length city-loc-15 city-loc-20) 11)
  (= (road-length city-loc-20 city-loc-18) 14)
  (= (road-length city-loc-18 city-loc-20) 14)
  (= (road-length city-loc-21 city-loc-1) 18)
  (= (road-length city-loc-1 city-loc-21) 18)
  (= (road-length city-loc-21 city-loc-5) 16)
  (= (road-length city-loc-5 city-loc-21) 16)
  (= (road-length city-loc-22 city-loc-1) 16)
  (= (road-length city-loc-1 city-loc-22) 16)
  (= (road-length city-loc-22 city-loc-7) 13)
  (= (road-length city-loc-7 city-loc-22) 13)
  (= (road-length city-loc-22 city-loc-14) 17)
  (= (road-length city-loc-14 city-loc-22) 17)
  (= (road-length city-loc-23 city-loc-2) 12)
  (= (road-length city-loc-2 city-loc-23) 12)
  (= (road-length city-loc-23 city-loc-19) 16)
  (= (road-length city-loc-19 city-loc-23) 16)
  (= (road-length city-loc-24 city-loc-1) 17)
  (= (road-length city-loc-1 city-loc-24) 17)
  (= (road-length city-loc-24 city-loc-4) 14)
  (= (road-length city-loc-4 city-loc-24) 14)
  (= (road-length city-loc-24 city-loc-8) 13)
  (= (road-length city-loc-8 city-loc-24) 13)
  (= (road-length city-loc-24 city-loc-9) 13)
  (= (road-length city-loc-9 city-loc-24) 13)
  (= (road-length city-loc-26 city-loc-3) 13)
  (= (road-length city-loc-3 city-loc-26) 13)
  (= (road-length city-loc-26 city-loc-5) 19)
  (= (road-length city-loc-5 city-loc-26) 19)
  (= (road-length city-loc-26 city-loc-21) 17)
  (= (road-length city-loc-21 city-loc-26) 17)
  (= (road-length city-loc-27 city-loc-2) 18)
  (= (road-length city-loc-2 city-loc-27) 18)
  (= (road-length city-loc-27 city-loc-19) 15)
  (= (road-length city-loc-19 city-loc-27) 15)
  (= (road-length city-loc-28 city-loc-13) 13)
  (= (road-length city-loc-13 city-loc-28) 13)
  (= (road-length city-loc-29 city-loc-6) 14)
  (= (road-length city-loc-6 city-loc-29) 14)
  (= (road-length city-loc-29 city-loc-12) 16)
  (= (road-length city-loc-12 city-loc-29) 16)
  (= (road-length city-loc-30 city-loc-13) 19)
  (= (road-length city-loc-13 city-loc-30) 19)
  (= (road-length city-loc-31 city-loc-11) 13)
  (= (road-length city-loc-11 city-loc-31) 13)
  (= (road-length city-loc-32 city-loc-7) 16)
  (= (road-length city-loc-7 city-loc-32) 16)
  (= (road-length city-loc-32 city-loc-10) 14)
  (= (road-length city-loc-10 city-loc-32) 14)
  (= (road-length city-loc-33 city-loc-23) 18)
  (= (road-length city-loc-23 city-loc-33) 18)
  (= (road-length city-loc-33 city-loc-25) 18)
  (= (road-length city-loc-25 city-loc-33) 18)
  (= (road-length city-loc-34 city-loc-12) 19)
  (= (road-length city-loc-12 city-loc-34) 19)
  (= (road-length city-loc-34 city-loc-14) 11)
  (= (road-length city-loc-14 city-loc-34) 11)
  (= (road-length city-loc-34 city-loc-17) 13)
  (= (road-length city-loc-17 city-loc-34) 13)
  (= (road-length city-loc-34 city-loc-29) 17)
  (= (road-length city-loc-29 city-loc-34) 17)
  (= (road-length city-loc-35 city-loc-3) 16)
  (= (road-length city-loc-3 city-loc-35) 16)
  (= (road-length city-loc-35 city-loc-12) 19)
  (= (road-length city-loc-12 city-loc-35) 19)
  (= (road-length city-loc-36 city-loc-16) 16)
  (= (road-length city-loc-16 city-loc-36) 16)
  (= (road-length city-loc-36 city-loc-17) 17)
  (= (road-length city-loc-17 city-loc-36) 17)
  (= (road-length city-loc-37 city-loc-6) 12)
  (= (road-length city-loc-6 city-loc-37) 12)
  (= (road-length city-loc-37 city-loc-29) 15)
  (= (road-length city-loc-29 city-loc-37) 15)
  (= (road-length city-loc-38 city-loc-5) 11)
  (= (road-length city-loc-5 city-loc-38) 11)
  (= (road-length city-loc-38 city-loc-15) 13)
  (= (road-length city-loc-15 city-loc-38) 13)
  (= (road-length city-loc-39 city-loc-3) 11)
  (= (road-length city-loc-3 city-loc-39) 11)
  (= (road-length city-loc-39 city-loc-25) 16)
  (= (road-length city-loc-25 city-loc-39) 16)
  (= (road-length city-loc-39 city-loc-26) 11)
  (= (road-length city-loc-26 city-loc-39) 11)
  (= (road-length city-loc-40 city-loc-18) 16)
  (= (road-length city-loc-18 city-loc-40) 16)
  (= (road-length city-loc-40 city-loc-25) 16)
  (= (road-length city-loc-25 city-loc-40) 16)
  (= (road-length city-loc-40 city-loc-39) 17)
  (= (road-length city-loc-39 city-loc-40) 17)
  (= (road-length city-loc-41 city-loc-5) 11)
  (= (road-length city-loc-5 city-loc-41) 11)
  (= (road-length city-loc-41 city-loc-15) 14)
  (= (road-length city-loc-15 city-loc-41) 14)
  (= (road-length city-loc-41 city-loc-18) 12)
  (= (road-length city-loc-18 city-loc-41) 12)
  (= (road-length city-loc-41 city-loc-26) 13)
  (= (road-length city-loc-26 city-loc-41) 13)
  (= (road-length city-loc-41 city-loc-38) 18)
  (= (road-length city-loc-38 city-loc-41) 18)
  (= (road-length city-loc-41 city-loc-39) 19)
  (= (road-length city-loc-39 city-loc-41) 19)
  (= (road-length city-loc-42 city-loc-1) 11)
  (= (road-length city-loc-1 city-loc-42) 11)
  (= (road-length city-loc-42 city-loc-7) 15)
  (= (road-length city-loc-7 city-loc-42) 15)
  (= (road-length city-loc-42 city-loc-9) 12)
  (= (road-length city-loc-9 city-loc-42) 12)
  (= (road-length city-loc-42 city-loc-22) 17)
  (= (road-length city-loc-22 city-loc-42) 17)
  (= (road-length city-loc-42 city-loc-24) 19)
  (= (road-length city-loc-24 city-loc-42) 19)
  (= (road-length city-loc-43 city-loc-6) 18)
  (= (road-length city-loc-6 city-loc-43) 18)
  (= (road-length city-loc-43 city-loc-17) 13)
  (= (road-length city-loc-17 city-loc-43) 13)
  (= (road-length city-loc-43 city-loc-29) 14)
  (= (road-length city-loc-29 city-loc-43) 14)
  (= (road-length city-loc-43 city-loc-34) 14)
  (= (road-length city-loc-34 city-loc-43) 14)
  (= (road-length city-loc-43 city-loc-36) 14)
  (= (road-length city-loc-36 city-loc-43) 14)
  (= (road-length city-loc-44 city-loc-30) 11)
  (= (road-length city-loc-30 city-loc-44) 11)
  (= (road-length city-loc-44 city-loc-32) 11)
  (= (road-length city-loc-32 city-loc-44) 11)
  (= (road-length city-loc-45 city-loc-5) 13)
  (= (road-length city-loc-5 city-loc-45) 13)
  (= (road-length city-loc-45 city-loc-38) 11)
  (= (road-length city-loc-38 city-loc-45) 11)
  (= (road-length city-loc-46 city-loc-19) 16)
  (= (road-length city-loc-19 city-loc-46) 16)
  (= (road-length city-loc-46 city-loc-31) 11)
  (= (road-length city-loc-31 city-loc-46) 11)
  (= (road-length city-loc-46 city-loc-33) 11)
  (= (road-length city-loc-33 city-loc-46) 11)
  (= (road-length city-loc-47 city-loc-3) 12)
  (= (road-length city-loc-3 city-loc-47) 12)
  (= (road-length city-loc-47 city-loc-26) 18)
  (= (road-length city-loc-26 city-loc-47) 18)
  (= (road-length city-loc-47 city-loc-35) 11)
  (= (road-length city-loc-35 city-loc-47) 11)
  (= (road-length city-loc-48 city-loc-3) 13)
  (= (road-length city-loc-3 city-loc-48) 13)
  (= (road-length city-loc-48 city-loc-31) 11)
  (= (road-length city-loc-31 city-loc-48) 11)
  (= (road-length city-loc-48 city-loc-35) 13)
  (= (road-length city-loc-35 city-loc-48) 13)
  (= (road-length city-loc-48 city-loc-46) 18)
  (= (road-length city-loc-46 city-loc-48) 18)
  (= (road-length city-loc-48 city-loc-47) 18)
  (= (road-length city-loc-47 city-loc-48) 18)
  (= (road-length city-loc-49 city-loc-7) 19)
  (= (road-length city-loc-7 city-loc-49) 19)
  (= (road-length city-loc-49 city-loc-10) 16)
  (= (road-length city-loc-10 city-loc-49) 16)
  (= (road-length city-loc-49 city-loc-14) 11)
  (= (road-length city-loc-14 city-loc-49) 11)
  (= (road-length city-loc-49 city-loc-17) 15)
  (= (road-length city-loc-17 city-loc-49) 15)
  (= (road-length city-loc-49 city-loc-32) 14)
  (= (road-length city-loc-32 city-loc-49) 14)
  (= (road-length city-loc-49 city-loc-34) 11)
  (= (road-length city-loc-34 city-loc-49) 11)
  (= (road-length city-loc-50 city-loc-4) 14)
  (= (road-length city-loc-4 city-loc-50) 14)
  (= (road-length city-loc-50 city-loc-5) 18)
  (= (road-length city-loc-5 city-loc-50) 18)
  (= (road-length city-loc-50 city-loc-21) 13)
  (= (road-length city-loc-21 city-loc-50) 13)
  (= (road-length city-loc-50 city-loc-24) 15)
  (= (road-length city-loc-24 city-loc-50) 15)
  (= (road-length city-loc-50 city-loc-45) 13)
  (= (road-length city-loc-45 city-loc-50) 13)
Goal: (and (RW:count-package package-bag1 city-loc-3 pnum3) (RW:count-package package-bag2 city-loc-13 pnum1) (RW:count-package package-bag2 city-loc-14 pnum1) (RW:count-package package-bag2 city-loc-32 pnum1) (RW:count-package package-bag3 city-loc-37 pnum2) (RW:count-package package-bag4 city-loc-34 pnum2) (RW:count-package package-bag5 city-loc-18 pnum1) (RW:count-package package-bag5 city-loc-43 pnum1) (RW:count-package package-bag6 city-loc-2 pnum1) (RW:count-package package-bag7 city-loc-27 pnum1) (RW:count-package package-bag8 city-loc-13 pnum1) (RW:count-package package-bag9 city-loc-39 pnum1) (RW:count-package package-bag10 city-loc-40 pnum1) (RW:count-package package-bag11 city-loc-6 pnum1) (RW:count-package package-bag12 city-loc-16 pnum1) (RW:count-package package-bag13 city-loc-42 pnum1) (RW:count-package package-bag14 city-loc-15 pnum1) (RW:count-package package-bag15 city-loc-44 pnum1) (RW:count-package package-bag16 city-loc-41 pnum1) (RW:count-package package-bag17 city-loc-17 pnum1) (RW:count-package package-bag18 city-loc-23 pnum1))
Metric: 1
