RSE-Invertible facts:
0:(at p0 l0) in-fam-group
1:(at p0 l1) in-fam-group
2:(at p0 l2) in-fam-group
3:(at p0 l3) in-fam-group
4:(at p0 l4) in-fam-group
5:(at p0 l5) in-fam-group
6:(at p0 l6) in-fam-group
7:(at p1 l0) in-fam-group
8:(at p1 l1) in-fam-group
9:(at p1 l2) in-fam-group
10:(at p1 l3) in-fam-group
11:(at p1 l4) in-fam-group
12:(at p1 l5) in-fam-group
13:(at p1 l6) in-fam-group
14:(at p2 l0) in-fam-group
15:(at p2 l1) in-fam-group
16:(at p2 l2) in-fam-group
17:(at p2 l3) in-fam-group
18:(at p2 l4) in-fam-group
19:(at p2 l5) in-fam-group
20:(at p2 l6) in-fam-group
21:(at p3 l0) in-fam-group
22:(at p3 l1) in-fam-group
23:(at p3 l2) in-fam-group
24:(at p3 l3) in-fam-group
25:(at p3 l4) in-fam-group
26:(at p3 l5) in-fam-group
27:(at p3 l6) in-fam-group
28:(at p4 l0) in-fam-group
29:(at p4 l1) in-fam-group
30:(at p4 l2) in-fam-group
31:(at p4 l3) in-fam-group
32:(at p4 l4) in-fam-group
33:(at p4 l5) in-fam-group
34:(at p4 l6) in-fam-group
35:(at p5 l0) in-fam-group
36:(at p5 l1) in-fam-group
37:(at p5 l2) in-fam-group
38:(at p5 l3) in-fam-group
39:(at p5 l4) in-fam-group
40:(at p5 l5) in-fam-group
41:(at p5 l6) in-fam-group
42:(at p6 l0) in-fam-group
43:(at p6 l1) in-fam-group
44:(at p6 l2) in-fam-group
45:(at p6 l3) in-fam-group
46:(at p6 l4) in-fam-group
47:(at p6 l5) in-fam-group
48:(at p6 l6) in-fam-group
49:(at t0 l0) in-fam-group
50:(at t0 l1) in-fam-group
51:(at t0 l2) in-fam-group
52:(at t0 l3) in-fam-group
53:(at t0 l4) in-fam-group
54:(at t0 l5) in-fam-group
55:(at t0 l6) in-fam-group
174:(in p0 t0) in-fam-group
175:(in p1 t0) in-fam-group
176:(in p2 t0) in-fam-group
177:(in p3 t0) in-fam-group
178:(in p4 t0) in-fam-group
179:(in p5 t0) in-fam-group
180:(in p6 t0) in-fam-group
