Symmetric facts:
 (free pos-0-2) (free pos-0-4) (free pos-2-0) (free pos-2-6) (free pos-4-0) (free pos-4-6) (free pos-6-2) (free pos-6-4)
 (free pos-0-3) (free pos-3-0) (free pos-3-6) (free pos-6-3)
 (free pos-1-2) (free pos-1-4) (free pos-2-1) (free pos-2-5) (free pos-4-1) (free pos-4-5) (free pos-5-2) (free pos-5-4)
 (free pos-1-3) (free pos-3-1) (free pos-3-5) (free pos-5-3)
 (free pos-2-2) (free pos-2-4) (free pos-4-2) (free pos-4-4)
 (free pos-2-3) (free pos-3-2) (free pos-3-4) (free pos-4-3)
 (occupied pos-0-2) (occupied pos-0-4) (occupied pos-2-0) (occupied pos-2-6) (occupied pos-4-0) (occupied pos-4-6) (occupied pos-6-2) (occupied pos-6-4)
 (occupied pos-0-3) (occupied pos-3-0) (occupied pos-3-6) (occupied pos-6-3)
 (occupied pos-1-2) (occupied pos-1-4) (occupied pos-2-1) (occupied pos-2-5) (occupied pos-4-1) (occupied pos-4-5) (occupied pos-5-2) (occupied pos-5-4)
 (occupied pos-1-3) (occupied pos-3-1) (occupied pos-3-5) (occupied pos-5-3)
 (occupied pos-2-2) (occupied pos-2-4) (occupied pos-4-2) (occupied pos-4-4)
 (occupied pos-2-3) (occupied pos-3-2) (occupied pos-3-4) (occupied pos-4-3)
Symmetric ops:
 (jump pos-0-2 pos-0-3 pos-0-4) (jump pos-0-4 pos-0-3 pos-0-2) (jump pos-2-0 pos-3-0 pos-4-0) (jump pos-2-6 pos-3-6 pos-4-6) (jump pos-4-0 pos-3-0 pos-2-0) (jump pos-4-6 pos-3-6 pos-2-6) (jump pos-6-2 pos-6-3 pos-6-4) (jump pos-6-4 pos-6-3 pos-6-2)
 (jump pos-0-2 pos-1-2 pos-2-2) (jump pos-0-4 pos-1-4 pos-2-4) (jump pos-2-0 pos-2-1 pos-2-2) (jump pos-2-6 pos-2-5 pos-2-4) (jump pos-4-0 pos-4-1 pos-4-2) (jump pos-4-6 pos-4-5 pos-4-4) (jump pos-6-2 pos-5-2 pos-4-2) (jump pos-6-4 pos-5-4 pos-4-4)
 (jump pos-0-3 pos-1-3 pos-2-3) (jump pos-3-0 pos-3-1 pos-3-2) (jump pos-3-6 pos-3-5 pos-3-4) (jump pos-6-3 pos-5-3 pos-4-3)
 (jump pos-1-2 pos-1-3 pos-1-4) (jump pos-1-4 pos-1-3 pos-1-2) (jump pos-2-1 pos-3-1 pos-4-1) (jump pos-2-5 pos-3-5 pos-4-5) (jump pos-4-1 pos-3-1 pos-2-1) (jump pos-4-5 pos-3-5 pos-2-5) (jump pos-5-2 pos-5-3 pos-5-4) (jump pos-5-4 pos-5-3 pos-5-2)
 (jump pos-1-2 pos-2-2 pos-3-2) (jump pos-1-4 pos-2-4 pos-3-4) (jump pos-2-1 pos-2-2 pos-2-3) (jump pos-2-5 pos-2-4 pos-2-3) (jump pos-4-1 pos-4-2 pos-4-3) (jump pos-4-5 pos-4-4 pos-4-3) (jump pos-5-2 pos-4-2 pos-3-2) (jump pos-5-4 pos-4-4 pos-3-4)
 (jump pos-1-3 pos-2-3 pos-3-3) (jump pos-3-1 pos-3-2 pos-3-3) (jump pos-3-5 pos-3-4 pos-3-3) (jump pos-5-3 pos-4-3 pos-3-3)
 (jump pos-2-2 pos-1-2 pos-0-2) (jump pos-2-2 pos-2-1 pos-2-0) (jump pos-2-4 pos-1-4 pos-0-4) (jump pos-2-4 pos-2-5 pos-2-6) (jump pos-4-2 pos-4-1 pos-4-0) (jump pos-4-2 pos-5-2 pos-6-2) (jump pos-4-4 pos-4-5 pos-4-6) (jump pos-4-4 pos-5-4 pos-6-4)
 (jump pos-2-2 pos-2-3 pos-2-4) (jump pos-2-2 pos-3-2 pos-4-2) (jump pos-2-4 pos-2-3 pos-2-2) (jump pos-2-4 pos-3-4 pos-4-4) (jump pos-4-2 pos-3-2 pos-2-2) (jump pos-4-2 pos-4-3 pos-4-4) (jump pos-4-4 pos-3-4 pos-2-4) (jump pos-4-4 pos-4-3 pos-4-2)
 (jump pos-2-3 pos-1-3 pos-0-3) (jump pos-3-2 pos-3-1 pos-3-0) (jump pos-3-4 pos-3-5 pos-3-6) (jump pos-4-3 pos-5-3 pos-6-3)
 (jump pos-2-3 pos-2-2 pos-2-1) (jump pos-2-3 pos-2-4 pos-2-5) (jump pos-3-2 pos-2-2 pos-1-2) (jump pos-3-2 pos-4-2 pos-5-2) (jump pos-3-4 pos-2-4 pos-1-4) (jump pos-3-4 pos-4-4 pos-5-4) (jump pos-4-3 pos-4-2 pos-4-1) (jump pos-4-3 pos-4-4 pos-4-5)
 (jump pos-2-3 pos-3-3 pos-4-3) (jump pos-3-2 pos-3-3 pos-3-4) (jump pos-3-4 pos-3-3 pos-3-2) (jump pos-4-3 pos-3-3 pos-2-3)
 (jump pos-3-3 pos-2-3 pos-1-3) (jump pos-3-3 pos-3-2 pos-3-1) (jump pos-3-3 pos-3-4 pos-3-5) (jump pos-3-3 pos-4-3 pos-5-3)
