Monotonicity invariants:
< {at C2:object V0:object V1:object, blank V0:object V1:object}
>
FD Mutex Groups:
< {at C2:object V0:object V1:object, blank V0:object V1:object}:=1
>
FD Goal aware:
< {at C0:object p1 p2, blank p1 p2}:=1
, {at C0:object p1 p3, blank p1 p3}:=1
, {at C0:object p2 p1, blank p2 p1}:=1
, {at C0:object p2 p2, blank p2 p2}:=1
, {at C0:object p2 p3, blank p2 p3}:=1
, {at C0:object p3 p1, blank p3 p1}:=1
, {at C0:object p3 p2, blank p3 p2}:=1
, {at C0:object p3 p3, blank p3 p3}:=1
>
