begin_version
3
end_version
begin_metric
1
end_metric
42
begin_variable
var0
-1
6
at-diver d0 l0
at-diver d0 l1
at-diver d0 l2
at-surface d0
available d0
decompressing d0
end_variable
begin_variable
var1
-1
6
at-diver d1 l0
at-diver d1 l1
at-diver d1 l2
at-surface d1
available d1
decompressing d1
end_variable
begin_variable
var2
-1
7
in-storage t0
in-storage t1
in-storage t2
in-storage t3
in-storage t4
in-storage t5
none-of-those
end_variable
begin_variable
var3
-1
5
capacity d0 four
capacity d0 one
capacity d0 three
capacity d0 two
capacity d0 zero
end_variable
begin_variable
var4
-1
5
capacity d1 four
capacity d1 one
capacity d1 three
capacity d1 two
capacity d1 zero
end_variable
begin_variable
var5
-1
2
at-tank t0 l0
none-of-those
end_variable
begin_variable
var6
-1
2
at-tank t0 l1
none-of-those
end_variable
begin_variable
var7
-1
2
at-tank t0 l2
none-of-those
end_variable
begin_variable
var8
-1
2
at-tank t1 l0
none-of-those
end_variable
begin_variable
var9
-1
2
at-tank t1 l1
none-of-those
end_variable
begin_variable
var10
-1
2
at-tank t1 l2
none-of-those
end_variable
begin_variable
var11
-1
2
at-tank t2 l0
none-of-those
end_variable
begin_variable
var12
-1
2
at-tank t2 l1
none-of-those
end_variable
begin_variable
var13
-1
2
at-tank t2 l2
none-of-those
end_variable
begin_variable
var14
-1
2
at-tank t3 l0
none-of-those
end_variable
begin_variable
var15
-1
2
at-tank t3 l1
none-of-those
end_variable
begin_variable
var16
-1
2
at-tank t3 l2
none-of-those
end_variable
begin_variable
var17
-1
2
at-tank t4 l0
none-of-those
end_variable
begin_variable
var18
-1
2
at-tank t4 l1
none-of-those
end_variable
begin_variable
var19
-1
2
at-tank t4 l2
none-of-those
end_variable
begin_variable
var20
-1
2
at-tank t5 l0
none-of-those
end_variable
begin_variable
var21
-1
2
at-tank t5 l1
none-of-those
end_variable
begin_variable
var22
-1
2
at-tank t5 l2
none-of-those
end_variable
begin_variable
var23
-1
2
full t0
none-of-those
end_variable
begin_variable
var24
-1
2
full t1
none-of-those
end_variable
begin_variable
var25
-1
2
full t2
none-of-those
end_variable
begin_variable
var26
-1
2
full t3
none-of-those
end_variable
begin_variable
var27
-1
2
full t4
none-of-those
end_variable
begin_variable
var28
-1
2
full t5
none-of-those
end_variable
begin_variable
var29
-1
2
have-photo l2
none-of-those
end_variable
begin_variable
var30
-1
2
holding d0 t0
none-of-those
end_variable
begin_variable
var31
-1
2
holding d0 t1
none-of-those
end_variable
begin_variable
var32
-1
2
holding d0 t2
none-of-those
end_variable
begin_variable
var33
-1
2
holding d0 t3
none-of-those
end_variable
begin_variable
var34
-1
2
holding d0 t4
none-of-those
end_variable
begin_variable
var35
-1
2
holding d0 t5
none-of-those
end_variable
begin_variable
var36
-1
2
holding d1 t0
none-of-those
end_variable
begin_variable
var37
-1
2
holding d1 t1
none-of-those
end_variable
begin_variable
var38
-1
2
holding d1 t2
none-of-those
end_variable
begin_variable
var39
-1
2
holding d1 t3
none-of-those
end_variable
begin_variable
var40
-1
2
holding d1 t4
none-of-those
end_variable
begin_variable
var41
-1
2
holding d1 t5
none-of-those
end_variable
11
begin_mutex_group
1
0 4
end_mutex_group
begin_mutex_group
1
1 4
end_mutex_group
begin_mutex_group
2
0 3
0 4
end_mutex_group
begin_mutex_group
2
1 3
1 4
end_mutex_group
begin_mutex_group
5
0 0
0 1
0 2
0 3
0 4
end_mutex_group
begin_mutex_group
5
1 0
1 1
1 2
1 3
1 4
end_mutex_group
begin_mutex_group
5
3 0
3 1
3 2
3 3
3 4
end_mutex_group
begin_mutex_group
5
4 0
4 1
4 2
4 3
4 4
end_mutex_group
begin_mutex_group
6
0 0
0 1
0 2
0 3
0 4
0 5
end_mutex_group
begin_mutex_group
6
1 0
1 1
1 2
1 3
1 4
1 5
end_mutex_group
begin_mutex_group
6
2 0
2 1
2 2
2 3
2 4
2 5
end_mutex_group
begin_state
4
4
0
0
0
1
1
1
1
1
1
1
1
1
1
1
1
1
1
1
1
1
1
1
1
1
1
1
1
1
1
1
1
1
1
1
1
1
1
1
1
1
end_state
begin_goal
3
0 5
1 5
29 0
end_goal
420
begin_operator
decompress d0 l0
0
1
0 0 0 5
1
end_operator
begin_operator
decompress d1 l0
0
1
0 1 0 5
1
end_operator
begin_operator
drop-tank d0 t0 l0 one two
1
0 0
3
0 3 1 3
0 5 -1 0
0 30 0 1
1
end_operator
begin_operator
drop-tank d0 t0 l0 three four
1
0 0
3
0 3 2 0
0 5 -1 0
0 30 0 1
1
end_operator
begin_operator
drop-tank d0 t0 l0 two three
1
0 0
3
0 3 3 2
0 5 -1 0
0 30 0 1
1
end_operator
begin_operator
drop-tank d0 t0 l0 zero one
1
0 0
3
0 3 4 1
0 5 -1 0
0 30 0 1
1
end_operator
begin_operator
drop-tank d0 t0 l1 one two
1
0 1
3
0 3 1 3
0 6 -1 0
0 30 0 1
1
end_operator
begin_operator
drop-tank d0 t0 l1 three four
1
0 1
3
0 3 2 0
0 6 -1 0
0 30 0 1
1
end_operator
begin_operator
drop-tank d0 t0 l1 two three
1
0 1
3
0 3 3 2
0 6 -1 0
0 30 0 1
1
end_operator
begin_operator
drop-tank d0 t0 l1 zero one
1
0 1
3
0 3 4 1
0 6 -1 0
0 30 0 1
1
end_operator
begin_operator
drop-tank d0 t0 l2 one two
1
0 2
3
0 3 1 3
0 7 -1 0
0 30 0 1
1
end_operator
begin_operator
drop-tank d0 t0 l2 three four
1
0 2
3
0 3 2 0
0 7 -1 0
0 30 0 1
1
end_operator
begin_operator
drop-tank d0 t0 l2 two three
1
0 2
3
0 3 3 2
0 7 -1 0
0 30 0 1
1
end_operator
begin_operator
drop-tank d0 t0 l2 zero one
1
0 2
3
0 3 4 1
0 7 -1 0
0 30 0 1
1
end_operator
begin_operator
drop-tank d0 t1 l0 one two
1
0 0
3
0 3 1 3
0 8 -1 0
0 31 0 1
1
end_operator
begin_operator
drop-tank d0 t1 l0 three four
1
0 0
3
0 3 2 0
0 8 -1 0
0 31 0 1
1
end_operator
begin_operator
drop-tank d0 t1 l0 two three
1
0 0
3
0 3 3 2
0 8 -1 0
0 31 0 1
1
end_operator
begin_operator
drop-tank d0 t1 l0 zero one
1
0 0
3
0 3 4 1
0 8 -1 0
0 31 0 1
1
end_operator
begin_operator
drop-tank d0 t1 l1 one two
1
0 1
3
0 3 1 3
0 9 -1 0
0 31 0 1
1
end_operator
begin_operator
drop-tank d0 t1 l1 three four
1
0 1
3
0 3 2 0
0 9 -1 0
0 31 0 1
1
end_operator
begin_operator
drop-tank d0 t1 l1 two three
1
0 1
3
0 3 3 2
0 9 -1 0
0 31 0 1
1
end_operator
begin_operator
drop-tank d0 t1 l1 zero one
1
0 1
3
0 3 4 1
0 9 -1 0
0 31 0 1
1
end_operator
begin_operator
drop-tank d0 t1 l2 one two
1
0 2
3
0 3 1 3
0 10 -1 0
0 31 0 1
1
end_operator
begin_operator
drop-tank d0 t1 l2 three four
1
0 2
3
0 3 2 0
0 10 -1 0
0 31 0 1
1
end_operator
begin_operator
drop-tank d0 t1 l2 two three
1
0 2
3
0 3 3 2
0 10 -1 0
0 31 0 1
1
end_operator
begin_operator
drop-tank d0 t1 l2 zero one
1
0 2
3
0 3 4 1
0 10 -1 0
0 31 0 1
1
end_operator
begin_operator
drop-tank d0 t2 l0 one two
1
0 0
3
0 3 1 3
0 11 -1 0
0 32 0 1
1
end_operator
begin_operator
drop-tank d0 t2 l0 three four
1
0 0
3
0 3 2 0
0 11 -1 0
0 32 0 1
1
end_operator
begin_operator
drop-tank d0 t2 l0 two three
1
0 0
3
0 3 3 2
0 11 -1 0
0 32 0 1
1
end_operator
begin_operator
drop-tank d0 t2 l0 zero one
1
0 0
3
0 3 4 1
0 11 -1 0
0 32 0 1
1
end_operator
begin_operator
drop-tank d0 t2 l1 one two
1
0 1
3
0 3 1 3
0 12 -1 0
0 32 0 1
1
end_operator
begin_operator
drop-tank d0 t2 l1 three four
1
0 1
3
0 3 2 0
0 12 -1 0
0 32 0 1
1
end_operator
begin_operator
drop-tank d0 t2 l1 two three
1
0 1
3
0 3 3 2
0 12 -1 0
0 32 0 1
1
end_operator
begin_operator
drop-tank d0 t2 l1 zero one
1
0 1
3
0 3 4 1
0 12 -1 0
0 32 0 1
1
end_operator
begin_operator
drop-tank d0 t2 l2 one two
1
0 2
3
0 3 1 3
0 13 -1 0
0 32 0 1
1
end_operator
begin_operator
drop-tank d0 t2 l2 three four
1
0 2
3
0 3 2 0
0 13 -1 0
0 32 0 1
1
end_operator
begin_operator
drop-tank d0 t2 l2 two three
1
0 2
3
0 3 3 2
0 13 -1 0
0 32 0 1
1
end_operator
begin_operator
drop-tank d0 t2 l2 zero one
1
0 2
3
0 3 4 1
0 13 -1 0
0 32 0 1
1
end_operator
begin_operator
drop-tank d0 t3 l0 one two
1
0 0
3
0 3 1 3
0 14 -1 0
0 33 0 1
1
end_operator
begin_operator
drop-tank d0 t3 l0 three four
1
0 0
3
0 3 2 0
0 14 -1 0
0 33 0 1
1
end_operator
begin_operator
drop-tank d0 t3 l0 two three
1
0 0
3
0 3 3 2
0 14 -1 0
0 33 0 1
1
end_operator
begin_operator
drop-tank d0 t3 l0 zero one
1
0 0
3
0 3 4 1
0 14 -1 0
0 33 0 1
1
end_operator
begin_operator
drop-tank d0 t3 l1 one two
1
0 1
3
0 3 1 3
0 15 -1 0
0 33 0 1
1
end_operator
begin_operator
drop-tank d0 t3 l1 three four
1
0 1
3
0 3 2 0
0 15 -1 0
0 33 0 1
1
end_operator
begin_operator
drop-tank d0 t3 l1 two three
1
0 1
3
0 3 3 2
0 15 -1 0
0 33 0 1
1
end_operator
begin_operator
drop-tank d0 t3 l1 zero one
1
0 1
3
0 3 4 1
0 15 -1 0
0 33 0 1
1
end_operator
begin_operator
drop-tank d0 t3 l2 one two
1
0 2
3
0 3 1 3
0 16 -1 0
0 33 0 1
1
end_operator
begin_operator
drop-tank d0 t3 l2 three four
1
0 2
3
0 3 2 0
0 16 -1 0
0 33 0 1
1
end_operator
begin_operator
drop-tank d0 t3 l2 two three
1
0 2
3
0 3 3 2
0 16 -1 0
0 33 0 1
1
end_operator
begin_operator
drop-tank d0 t3 l2 zero one
1
0 2
3
0 3 4 1
0 16 -1 0
0 33 0 1
1
end_operator
begin_operator
drop-tank d0 t4 l0 one two
1
0 0
3
0 3 1 3
0 17 -1 0
0 34 0 1
1
end_operator
begin_operator
drop-tank d0 t4 l0 three four
1
0 0
3
0 3 2 0
0 17 -1 0
0 34 0 1
1
end_operator
begin_operator
drop-tank d0 t4 l0 two three
1
0 0
3
0 3 3 2
0 17 -1 0
0 34 0 1
1
end_operator
begin_operator
drop-tank d0 t4 l0 zero one
1
0 0
3
0 3 4 1
0 17 -1 0
0 34 0 1
1
end_operator
begin_operator
drop-tank d0 t4 l1 one two
1
0 1
3
0 3 1 3
0 18 -1 0
0 34 0 1
1
end_operator
begin_operator
drop-tank d0 t4 l1 three four
1
0 1
3
0 3 2 0
0 18 -1 0
0 34 0 1
1
end_operator
begin_operator
drop-tank d0 t4 l1 two three
1
0 1
3
0 3 3 2
0 18 -1 0
0 34 0 1
1
end_operator
begin_operator
drop-tank d0 t4 l1 zero one
1
0 1
3
0 3 4 1
0 18 -1 0
0 34 0 1
1
end_operator
begin_operator
drop-tank d0 t4 l2 one two
1
0 2
3
0 3 1 3
0 19 -1 0
0 34 0 1
1
end_operator
begin_operator
drop-tank d0 t4 l2 three four
1
0 2
3
0 3 2 0
0 19 -1 0
0 34 0 1
1
end_operator
begin_operator
drop-tank d0 t4 l2 two three
1
0 2
3
0 3 3 2
0 19 -1 0
0 34 0 1
1
end_operator
begin_operator
drop-tank d0 t4 l2 zero one
1
0 2
3
0 3 4 1
0 19 -1 0
0 34 0 1
1
end_operator
begin_operator
drop-tank d0 t5 l0 one two
1
0 0
3
0 3 1 3
0 20 -1 0
0 35 0 1
1
end_operator
begin_operator
drop-tank d0 t5 l0 three four
1
0 0
3
0 3 2 0
0 20 -1 0
0 35 0 1
1
end_operator
begin_operator
drop-tank d0 t5 l0 two three
1
0 0
3
0 3 3 2
0 20 -1 0
0 35 0 1
1
end_operator
begin_operator
drop-tank d0 t5 l0 zero one
1
0 0
3
0 3 4 1
0 20 -1 0
0 35 0 1
1
end_operator
begin_operator
drop-tank d0 t5 l1 one two
1
0 1
3
0 3 1 3
0 21 -1 0
0 35 0 1
1
end_operator
begin_operator
drop-tank d0 t5 l1 three four
1
0 1
3
0 3 2 0
0 21 -1 0
0 35 0 1
1
end_operator
begin_operator
drop-tank d0 t5 l1 two three
1
0 1
3
0 3 3 2
0 21 -1 0
0 35 0 1
1
end_operator
begin_operator
drop-tank d0 t5 l1 zero one
1
0 1
3
0 3 4 1
0 21 -1 0
0 35 0 1
1
end_operator
begin_operator
drop-tank d0 t5 l2 one two
1
0 2
3
0 3 1 3
0 22 -1 0
0 35 0 1
1
end_operator
begin_operator
drop-tank d0 t5 l2 three four
1
0 2
3
0 3 2 0
0 22 -1 0
0 35 0 1
1
end_operator
begin_operator
drop-tank d0 t5 l2 two three
1
0 2
3
0 3 3 2
0 22 -1 0
0 35 0 1
1
end_operator
begin_operator
drop-tank d0 t5 l2 zero one
1
0 2
3
0 3 4 1
0 22 -1 0
0 35 0 1
1
end_operator
begin_operator
drop-tank d1 t0 l0 one two
1
1 0
3
0 4 1 3
0 5 -1 0
0 36 0 1
1
end_operator
begin_operator
drop-tank d1 t0 l0 three four
1
1 0
3
0 4 2 0
0 5 -1 0
0 36 0 1
1
end_operator
begin_operator
drop-tank d1 t0 l0 two three
1
1 0
3
0 4 3 2
0 5 -1 0
0 36 0 1
1
end_operator
begin_operator
drop-tank d1 t0 l0 zero one
1
1 0
3
0 4 4 1
0 5 -1 0
0 36 0 1
1
end_operator
begin_operator
drop-tank d1 t0 l1 one two
1
1 1
3
0 4 1 3
0 6 -1 0
0 36 0 1
1
end_operator
begin_operator
drop-tank d1 t0 l1 three four
1
1 1
3
0 4 2 0
0 6 -1 0
0 36 0 1
1
end_operator
begin_operator
drop-tank d1 t0 l1 two three
1
1 1
3
0 4 3 2
0 6 -1 0
0 36 0 1
1
end_operator
begin_operator
drop-tank d1 t0 l1 zero one
1
1 1
3
0 4 4 1
0 6 -1 0
0 36 0 1
1
end_operator
begin_operator
drop-tank d1 t0 l2 one two
1
1 2
3
0 4 1 3
0 7 -1 0
0 36 0 1
1
end_operator
begin_operator
drop-tank d1 t0 l2 three four
1
1 2
3
0 4 2 0
0 7 -1 0
0 36 0 1
1
end_operator
begin_operator
drop-tank d1 t0 l2 two three
1
1 2
3
0 4 3 2
0 7 -1 0
0 36 0 1
1
end_operator
begin_operator
drop-tank d1 t0 l2 zero one
1
1 2
3
0 4 4 1
0 7 -1 0
0 36 0 1
1
end_operator
begin_operator
drop-tank d1 t1 l0 one two
1
1 0
3
0 4 1 3
0 8 -1 0
0 37 0 1
1
end_operator
begin_operator
drop-tank d1 t1 l0 three four
1
1 0
3
0 4 2 0
0 8 -1 0
0 37 0 1
1
end_operator
begin_operator
drop-tank d1 t1 l0 two three
1
1 0
3
0 4 3 2
0 8 -1 0
0 37 0 1
1
end_operator
begin_operator
drop-tank d1 t1 l0 zero one
1
1 0
3
0 4 4 1
0 8 -1 0
0 37 0 1
1
end_operator
begin_operator
drop-tank d1 t1 l1 one two
1
1 1
3
0 4 1 3
0 9 -1 0
0 37 0 1
1
end_operator
begin_operator
drop-tank d1 t1 l1 three four
1
1 1
3
0 4 2 0
0 9 -1 0
0 37 0 1
1
end_operator
begin_operator
drop-tank d1 t1 l1 two three
1
1 1
3
0 4 3 2
0 9 -1 0
0 37 0 1
1
end_operator
begin_operator
drop-tank d1 t1 l1 zero one
1
1 1
3
0 4 4 1
0 9 -1 0
0 37 0 1
1
end_operator
begin_operator
drop-tank d1 t1 l2 one two
1
1 2
3
0 4 1 3
0 10 -1 0
0 37 0 1
1
end_operator
begin_operator
drop-tank d1 t1 l2 three four
1
1 2
3
0 4 2 0
0 10 -1 0
0 37 0 1
1
end_operator
begin_operator
drop-tank d1 t1 l2 two three
1
1 2
3
0 4 3 2
0 10 -1 0
0 37 0 1
1
end_operator
begin_operator
drop-tank d1 t1 l2 zero one
1
1 2
3
0 4 4 1
0 10 -1 0
0 37 0 1
1
end_operator
begin_operator
drop-tank d1 t2 l0 one two
1
1 0
3
0 4 1 3
0 11 -1 0
0 38 0 1
1
end_operator
begin_operator
drop-tank d1 t2 l0 three four
1
1 0
3
0 4 2 0
0 11 -1 0
0 38 0 1
1
end_operator
begin_operator
drop-tank d1 t2 l0 two three
1
1 0
3
0 4 3 2
0 11 -1 0
0 38 0 1
1
end_operator
begin_operator
drop-tank d1 t2 l0 zero one
1
1 0
3
0 4 4 1
0 11 -1 0
0 38 0 1
1
end_operator
begin_operator
drop-tank d1 t2 l1 one two
1
1 1
3
0 4 1 3
0 12 -1 0
0 38 0 1
1
end_operator
begin_operator
drop-tank d1 t2 l1 three four
1
1 1
3
0 4 2 0
0 12 -1 0
0 38 0 1
1
end_operator
begin_operator
drop-tank d1 t2 l1 two three
1
1 1
3
0 4 3 2
0 12 -1 0
0 38 0 1
1
end_operator
begin_operator
drop-tank d1 t2 l1 zero one
1
1 1
3
0 4 4 1
0 12 -1 0
0 38 0 1
1
end_operator
begin_operator
drop-tank d1 t2 l2 one two
1
1 2
3
0 4 1 3
0 13 -1 0
0 38 0 1
1
end_operator
begin_operator
drop-tank d1 t2 l2 three four
1
1 2
3
0 4 2 0
0 13 -1 0
0 38 0 1
1
end_operator
begin_operator
drop-tank d1 t2 l2 two three
1
1 2
3
0 4 3 2
0 13 -1 0
0 38 0 1
1
end_operator
begin_operator
drop-tank d1 t2 l2 zero one
1
1 2
3
0 4 4 1
0 13 -1 0
0 38 0 1
1
end_operator
begin_operator
drop-tank d1 t3 l0 one two
1
1 0
3
0 4 1 3
0 14 -1 0
0 39 0 1
1
end_operator
begin_operator
drop-tank d1 t3 l0 three four
1
1 0
3
0 4 2 0
0 14 -1 0
0 39 0 1
1
end_operator
begin_operator
drop-tank d1 t3 l0 two three
1
1 0
3
0 4 3 2
0 14 -1 0
0 39 0 1
1
end_operator
begin_operator
drop-tank d1 t3 l0 zero one
1
1 0
3
0 4 4 1
0 14 -1 0
0 39 0 1
1
end_operator
begin_operator
drop-tank d1 t3 l1 one two
1
1 1
3
0 4 1 3
0 15 -1 0
0 39 0 1
1
end_operator
begin_operator
drop-tank d1 t3 l1 three four
1
1 1
3
0 4 2 0
0 15 -1 0
0 39 0 1
1
end_operator
begin_operator
drop-tank d1 t3 l1 two three
1
1 1
3
0 4 3 2
0 15 -1 0
0 39 0 1
1
end_operator
begin_operator
drop-tank d1 t3 l1 zero one
1
1 1
3
0 4 4 1
0 15 -1 0
0 39 0 1
1
end_operator
begin_operator
drop-tank d1 t3 l2 one two
1
1 2
3
0 4 1 3
0 16 -1 0
0 39 0 1
1
end_operator
begin_operator
drop-tank d1 t3 l2 three four
1
1 2
3
0 4 2 0
0 16 -1 0
0 39 0 1
1
end_operator
begin_operator
drop-tank d1 t3 l2 two three
1
1 2
3
0 4 3 2
0 16 -1 0
0 39 0 1
1
end_operator
begin_operator
drop-tank d1 t3 l2 zero one
1
1 2
3
0 4 4 1
0 16 -1 0
0 39 0 1
1
end_operator
begin_operator
drop-tank d1 t4 l0 one two
1
1 0
3
0 4 1 3
0 17 -1 0
0 40 0 1
1
end_operator
begin_operator
drop-tank d1 t4 l0 three four
1
1 0
3
0 4 2 0
0 17 -1 0
0 40 0 1
1
end_operator
begin_operator
drop-tank d1 t4 l0 two three
1
1 0
3
0 4 3 2
0 17 -1 0
0 40 0 1
1
end_operator
begin_operator
drop-tank d1 t4 l0 zero one
1
1 0
3
0 4 4 1
0 17 -1 0
0 40 0 1
1
end_operator
begin_operator
drop-tank d1 t4 l1 one two
1
1 1
3
0 4 1 3
0 18 -1 0
0 40 0 1
1
end_operator
begin_operator
drop-tank d1 t4 l1 three four
1
1 1
3
0 4 2 0
0 18 -1 0
0 40 0 1
1
end_operator
begin_operator
drop-tank d1 t4 l1 two three
1
1 1
3
0 4 3 2
0 18 -1 0
0 40 0 1
1
end_operator
begin_operator
drop-tank d1 t4 l1 zero one
1
1 1
3
0 4 4 1
0 18 -1 0
0 40 0 1
1
end_operator
begin_operator
drop-tank d1 t4 l2 one two
1
1 2
3
0 4 1 3
0 19 -1 0
0 40 0 1
1
end_operator
begin_operator
drop-tank d1 t4 l2 three four
1
1 2
3
0 4 2 0
0 19 -1 0
0 40 0 1
1
end_operator
begin_operator
drop-tank d1 t4 l2 two three
1
1 2
3
0 4 3 2
0 19 -1 0
0 40 0 1
1
end_operator
begin_operator
drop-tank d1 t4 l2 zero one
1
1 2
3
0 4 4 1
0 19 -1 0
0 40 0 1
1
end_operator
begin_operator
drop-tank d1 t5 l0 one two
1
1 0
3
0 4 1 3
0 20 -1 0
0 41 0 1
1
end_operator
begin_operator
drop-tank d1 t5 l0 three four
1
1 0
3
0 4 2 0
0 20 -1 0
0 41 0 1
1
end_operator
begin_operator
drop-tank d1 t5 l0 two three
1
1 0
3
0 4 3 2
0 20 -1 0
0 41 0 1
1
end_operator
begin_operator
drop-tank d1 t5 l0 zero one
1
1 0
3
0 4 4 1
0 20 -1 0
0 41 0 1
1
end_operator
begin_operator
drop-tank d1 t5 l1 one two
1
1 1
3
0 4 1 3
0 21 -1 0
0 41 0 1
1
end_operator
begin_operator
drop-tank d1 t5 l1 three four
1
1 1
3
0 4 2 0
0 21 -1 0
0 41 0 1
1
end_operator
begin_operator
drop-tank d1 t5 l1 two three
1
1 1
3
0 4 3 2
0 21 -1 0
0 41 0 1
1
end_operator
begin_operator
drop-tank d1 t5 l1 zero one
1
1 1
3
0 4 4 1
0 21 -1 0
0 41 0 1
1
end_operator
begin_operator
drop-tank d1 t5 l2 one two
1
1 2
3
0 4 1 3
0 22 -1 0
0 41 0 1
1
end_operator
begin_operator
drop-tank d1 t5 l2 three four
1
1 2
3
0 4 2 0
0 22 -1 0
0 41 0 1
1
end_operator
begin_operator
drop-tank d1 t5 l2 two three
1
1 2
3
0 4 3 2
0 22 -1 0
0 41 0 1
1
end_operator
begin_operator
drop-tank d1 t5 l2 zero one
1
1 2
3
0 4 4 1
0 22 -1 0
0 41 0 1
1
end_operator
begin_operator
enter-water d0 l0
0
1
0 0 3 0
1
end_operator
begin_operator
enter-water d1 l0
0
1
0 1 3 0
1
end_operator
begin_operator
hire-diver-d0
0
1
0 0 4 3
1
end_operator
begin_operator
hire-diver-d1
0
1
0 1 4 3
1
end_operator
begin_operator
photograph d0 l0 t0
2
0 0
30 0
1
0 23 0 1
1
end_operator
begin_operator
photograph d0 l0 t1
2
0 0
31 0
1
0 24 0 1
1
end_operator
begin_operator
photograph d0 l0 t2
2
0 0
32 0
1
0 25 0 1
1
end_operator
begin_operator
photograph d0 l0 t3
2
0 0
33 0
1
0 26 0 1
1
end_operator
begin_operator
photograph d0 l0 t4
2
0 0
34 0
1
0 27 0 1
1
end_operator
begin_operator
photograph d0 l0 t5
2
0 0
35 0
1
0 28 0 1
1
end_operator
begin_operator
photograph d0 l1 t0
2
0 1
30 0
1
0 23 0 1
1
end_operator
begin_operator
photograph d0 l1 t1
2
0 1
31 0
1
0 24 0 1
1
end_operator
begin_operator
photograph d0 l1 t2
2
0 1
32 0
1
0 25 0 1
1
end_operator
begin_operator
photograph d0 l1 t3
2
0 1
33 0
1
0 26 0 1
1
end_operator
begin_operator
photograph d0 l1 t4
2
0 1
34 0
1
0 27 0 1
1
end_operator
begin_operator
photograph d0 l1 t5
2
0 1
35 0
1
0 28 0 1
1
end_operator
begin_operator
photograph d0 l2 t0
2
0 2
30 0
2
0 23 0 1
0 29 -1 0
1
end_operator
begin_operator
photograph d0 l2 t1
2
0 2
31 0
2
0 24 0 1
0 29 -1 0
1
end_operator
begin_operator
photograph d0 l2 t2
2
0 2
32 0
2
0 25 0 1
0 29 -1 0
1
end_operator
begin_operator
photograph d0 l2 t3
2
0 2
33 0
2
0 26 0 1
0 29 -1 0
1
end_operator
begin_operator
photograph d0 l2 t4
2
0 2
34 0
2
0 27 0 1
0 29 -1 0
1
end_operator
begin_operator
photograph d0 l2 t5
2
0 2
35 0
2
0 28 0 1
0 29 -1 0
1
end_operator
begin_operator
photograph d1 l0 t0
2
1 0
36 0
1
0 23 0 1
1
end_operator
begin_operator
photograph d1 l0 t1
2
1 0
37 0
1
0 24 0 1
1
end_operator
begin_operator
photograph d1 l0 t2
2
1 0
38 0
1
0 25 0 1
1
end_operator
begin_operator
photograph d1 l0 t3
2
1 0
39 0
1
0 26 0 1
1
end_operator
begin_operator
photograph d1 l0 t4
2
1 0
40 0
1
0 27 0 1
1
end_operator
begin_operator
photograph d1 l0 t5
2
1 0
41 0
1
0 28 0 1
1
end_operator
begin_operator
photograph d1 l1 t0
2
1 1
36 0
1
0 23 0 1
1
end_operator
begin_operator
photograph d1 l1 t1
2
1 1
37 0
1
0 24 0 1
1
end_operator
begin_operator
photograph d1 l1 t2
2
1 1
38 0
1
0 25 0 1
1
end_operator
begin_operator
photograph d1 l1 t3
2
1 1
39 0
1
0 26 0 1
1
end_operator
begin_operator
photograph d1 l1 t4
2
1 1
40 0
1
0 27 0 1
1
end_operator
begin_operator
photograph d1 l1 t5
2
1 1
41 0
1
0 28 0 1
1
end_operator
begin_operator
photograph d1 l2 t0
2
1 2
36 0
2
0 23 0 1
0 29 -1 0
1
end_operator
begin_operator
photograph d1 l2 t1
2
1 2
37 0
2
0 24 0 1
0 29 -1 0
1
end_operator
begin_operator
photograph d1 l2 t2
2
1 2
38 0
2
0 25 0 1
0 29 -1 0
1
end_operator
begin_operator
photograph d1 l2 t3
2
1 2
39 0
2
0 26 0 1
0 29 -1 0
1
end_operator
begin_operator
photograph d1 l2 t4
2
1 2
40 0
2
0 27 0 1
0 29 -1 0
1
end_operator
begin_operator
photograph d1 l2 t5
2
1 2
41 0
2
0 28 0 1
0 29 -1 0
1
end_operator
begin_operator
pickup-tank d0 t0 l0 one two
1
0 0
3
0 3 3 1
0 5 0 1
0 30 -1 0
1
end_operator
begin_operator
pickup-tank d0 t0 l0 three four
1
0 0
3
0 3 0 2
0 5 0 1
0 30 -1 0
1
end_operator
begin_operator
pickup-tank d0 t0 l0 two three
1
0 0
3
0 3 2 3
0 5 0 1
0 30 -1 0
1
end_operator
begin_operator
pickup-tank d0 t0 l0 zero one
1
0 0
3
0 3 1 4
0 5 0 1
0 30 -1 0
1
end_operator
begin_operator
pickup-tank d0 t0 l1 one two
1
0 1
3
0 3 3 1
0 6 0 1
0 30 -1 0
1
end_operator
begin_operator
pickup-tank d0 t0 l1 three four
1
0 1
3
0 3 0 2
0 6 0 1
0 30 -1 0
1
end_operator
begin_operator
pickup-tank d0 t0 l1 two three
1
0 1
3
0 3 2 3
0 6 0 1
0 30 -1 0
1
end_operator
begin_operator
pickup-tank d0 t0 l1 zero one
1
0 1
3
0 3 1 4
0 6 0 1
0 30 -1 0
1
end_operator
begin_operator
pickup-tank d0 t0 l2 one two
1
0 2
3
0 3 3 1
0 7 0 1
0 30 -1 0
1
end_operator
begin_operator
pickup-tank d0 t0 l2 three four
1
0 2
3
0 3 0 2
0 7 0 1
0 30 -1 0
1
end_operator
begin_operator
pickup-tank d0 t0 l2 two three
1
0 2
3
0 3 2 3
0 7 0 1
0 30 -1 0
1
end_operator
begin_operator
pickup-tank d0 t0 l2 zero one
1
0 2
3
0 3 1 4
0 7 0 1
0 30 -1 0
1
end_operator
begin_operator
pickup-tank d0 t1 l0 one two
1
0 0
3
0 3 3 1
0 8 0 1
0 31 -1 0
1
end_operator
begin_operator
pickup-tank d0 t1 l0 three four
1
0 0
3
0 3 0 2
0 8 0 1
0 31 -1 0
1
end_operator
begin_operator
pickup-tank d0 t1 l0 two three
1
0 0
3
0 3 2 3
0 8 0 1
0 31 -1 0
1
end_operator
begin_operator
pickup-tank d0 t1 l0 zero one
1
0 0
3
0 3 1 4
0 8 0 1
0 31 -1 0
1
end_operator
begin_operator
pickup-tank d0 t1 l1 one two
1
0 1
3
0 3 3 1
0 9 0 1
0 31 -1 0
1
end_operator
begin_operator
pickup-tank d0 t1 l1 three four
1
0 1
3
0 3 0 2
0 9 0 1
0 31 -1 0
1
end_operator
begin_operator
pickup-tank d0 t1 l1 two three
1
0 1
3
0 3 2 3
0 9 0 1
0 31 -1 0
1
end_operator
begin_operator
pickup-tank d0 t1 l1 zero one
1
0 1
3
0 3 1 4
0 9 0 1
0 31 -1 0
1
end_operator
begin_operator
pickup-tank d0 t1 l2 one two
1
0 2
3
0 3 3 1
0 10 0 1
0 31 -1 0
1
end_operator
begin_operator
pickup-tank d0 t1 l2 three four
1
0 2
3
0 3 0 2
0 10 0 1
0 31 -1 0
1
end_operator
begin_operator
pickup-tank d0 t1 l2 two three
1
0 2
3
0 3 2 3
0 10 0 1
0 31 -1 0
1
end_operator
begin_operator
pickup-tank d0 t1 l2 zero one
1
0 2
3
0 3 1 4
0 10 0 1
0 31 -1 0
1
end_operator
begin_operator
pickup-tank d0 t2 l0 one two
1
0 0
3
0 3 3 1
0 11 0 1
0 32 -1 0
1
end_operator
begin_operator
pickup-tank d0 t2 l0 three four
1
0 0
3
0 3 0 2
0 11 0 1
0 32 -1 0
1
end_operator
begin_operator
pickup-tank d0 t2 l0 two three
1
0 0
3
0 3 2 3
0 11 0 1
0 32 -1 0
1
end_operator
begin_operator
pickup-tank d0 t2 l0 zero one
1
0 0
3
0 3 1 4
0 11 0 1
0 32 -1 0
1
end_operator
begin_operator
pickup-tank d0 t2 l1 one two
1
0 1
3
0 3 3 1
0 12 0 1
0 32 -1 0
1
end_operator
begin_operator
pickup-tank d0 t2 l1 three four
1
0 1
3
0 3 0 2
0 12 0 1
0 32 -1 0
1
end_operator
begin_operator
pickup-tank d0 t2 l1 two three
1
0 1
3
0 3 2 3
0 12 0 1
0 32 -1 0
1
end_operator
begin_operator
pickup-tank d0 t2 l1 zero one
1
0 1
3
0 3 1 4
0 12 0 1
0 32 -1 0
1
end_operator
begin_operator
pickup-tank d0 t2 l2 one two
1
0 2
3
0 3 3 1
0 13 0 1
0 32 -1 0
1
end_operator
begin_operator
pickup-tank d0 t2 l2 three four
1
0 2
3
0 3 0 2
0 13 0 1
0 32 -1 0
1
end_operator
begin_operator
pickup-tank d0 t2 l2 two three
1
0 2
3
0 3 2 3
0 13 0 1
0 32 -1 0
1
end_operator
begin_operator
pickup-tank d0 t2 l2 zero one
1
0 2
3
0 3 1 4
0 13 0 1
0 32 -1 0
1
end_operator
begin_operator
pickup-tank d0 t3 l0 one two
1
0 0
3
0 3 3 1
0 14 0 1
0 33 -1 0
1
end_operator
begin_operator
pickup-tank d0 t3 l0 three four
1
0 0
3
0 3 0 2
0 14 0 1
0 33 -1 0
1
end_operator
begin_operator
pickup-tank d0 t3 l0 two three
1
0 0
3
0 3 2 3
0 14 0 1
0 33 -1 0
1
end_operator
begin_operator
pickup-tank d0 t3 l0 zero one
1
0 0
3
0 3 1 4
0 14 0 1
0 33 -1 0
1
end_operator
begin_operator
pickup-tank d0 t3 l1 one two
1
0 1
3
0 3 3 1
0 15 0 1
0 33 -1 0
1
end_operator
begin_operator
pickup-tank d0 t3 l1 three four
1
0 1
3
0 3 0 2
0 15 0 1
0 33 -1 0
1
end_operator
begin_operator
pickup-tank d0 t3 l1 two three
1
0 1
3
0 3 2 3
0 15 0 1
0 33 -1 0
1
end_operator
begin_operator
pickup-tank d0 t3 l1 zero one
1
0 1
3
0 3 1 4
0 15 0 1
0 33 -1 0
1
end_operator
begin_operator
pickup-tank d0 t3 l2 one two
1
0 2
3
0 3 3 1
0 16 0 1
0 33 -1 0
1
end_operator
begin_operator
pickup-tank d0 t3 l2 three four
1
0 2
3
0 3 0 2
0 16 0 1
0 33 -1 0
1
end_operator
begin_operator
pickup-tank d0 t3 l2 two three
1
0 2
3
0 3 2 3
0 16 0 1
0 33 -1 0
1
end_operator
begin_operator
pickup-tank d0 t3 l2 zero one
1
0 2
3
0 3 1 4
0 16 0 1
0 33 -1 0
1
end_operator
begin_operator
pickup-tank d0 t4 l0 one two
1
0 0
3
0 3 3 1
0 17 0 1
0 34 -1 0
1
end_operator
begin_operator
pickup-tank d0 t4 l0 three four
1
0 0
3
0 3 0 2
0 17 0 1
0 34 -1 0
1
end_operator
begin_operator
pickup-tank d0 t4 l0 two three
1
0 0
3
0 3 2 3
0 17 0 1
0 34 -1 0
1
end_operator
begin_operator
pickup-tank d0 t4 l0 zero one
1
0 0
3
0 3 1 4
0 17 0 1
0 34 -1 0
1
end_operator
begin_operator
pickup-tank d0 t4 l1 one two
1
0 1
3
0 3 3 1
0 18 0 1
0 34 -1 0
1
end_operator
begin_operator
pickup-tank d0 t4 l1 three four
1
0 1
3
0 3 0 2
0 18 0 1
0 34 -1 0
1
end_operator
begin_operator
pickup-tank d0 t4 l1 two three
1
0 1
3
0 3 2 3
0 18 0 1
0 34 -1 0
1
end_operator
begin_operator
pickup-tank d0 t4 l1 zero one
1
0 1
3
0 3 1 4
0 18 0 1
0 34 -1 0
1
end_operator
begin_operator
pickup-tank d0 t4 l2 one two
1
0 2
3
0 3 3 1
0 19 0 1
0 34 -1 0
1
end_operator
begin_operator
pickup-tank d0 t4 l2 three four
1
0 2
3
0 3 0 2
0 19 0 1
0 34 -1 0
1
end_operator
begin_operator
pickup-tank d0 t4 l2 two three
1
0 2
3
0 3 2 3
0 19 0 1
0 34 -1 0
1
end_operator
begin_operator
pickup-tank d0 t4 l2 zero one
1
0 2
3
0 3 1 4
0 19 0 1
0 34 -1 0
1
end_operator
begin_operator
pickup-tank d0 t5 l0 one two
1
0 0
3
0 3 3 1
0 20 0 1
0 35 -1 0
1
end_operator
begin_operator
pickup-tank d0 t5 l0 three four
1
0 0
3
0 3 0 2
0 20 0 1
0 35 -1 0
1
end_operator
begin_operator
pickup-tank d0 t5 l0 two three
1
0 0
3
0 3 2 3
0 20 0 1
0 35 -1 0
1
end_operator
begin_operator
pickup-tank d0 t5 l0 zero one
1
0 0
3
0 3 1 4
0 20 0 1
0 35 -1 0
1
end_operator
begin_operator
pickup-tank d0 t5 l1 one two
1
0 1
3
0 3 3 1
0 21 0 1
0 35 -1 0
1
end_operator
begin_operator
pickup-tank d0 t5 l1 three four
1
0 1
3
0 3 0 2
0 21 0 1
0 35 -1 0
1
end_operator
begin_operator
pickup-tank d0 t5 l1 two three
1
0 1
3
0 3 2 3
0 21 0 1
0 35 -1 0
1
end_operator
begin_operator
pickup-tank d0 t5 l1 zero one
1
0 1
3
0 3 1 4
0 21 0 1
0 35 -1 0
1
end_operator
begin_operator
pickup-tank d0 t5 l2 one two
1
0 2
3
0 3 3 1
0 22 0 1
0 35 -1 0
1
end_operator
begin_operator
pickup-tank d0 t5 l2 three four
1
0 2
3
0 3 0 2
0 22 0 1
0 35 -1 0
1
end_operator
begin_operator
pickup-tank d0 t5 l2 two three
1
0 2
3
0 3 2 3
0 22 0 1
0 35 -1 0
1
end_operator
begin_operator
pickup-tank d0 t5 l2 zero one
1
0 2
3
0 3 1 4
0 22 0 1
0 35 -1 0
1
end_operator
begin_operator
pickup-tank d1 t0 l0 one two
1
1 0
3
0 4 3 1
0 5 0 1
0 36 -1 0
1
end_operator
begin_operator
pickup-tank d1 t0 l0 three four
1
1 0
3
0 4 0 2
0 5 0 1
0 36 -1 0
1
end_operator
begin_operator
pickup-tank d1 t0 l0 two three
1
1 0
3
0 4 2 3
0 5 0 1
0 36 -1 0
1
end_operator
begin_operator
pickup-tank d1 t0 l0 zero one
1
1 0
3
0 4 1 4
0 5 0 1
0 36 -1 0
1
end_operator
begin_operator
pickup-tank d1 t0 l1 one two
1
1 1
3
0 4 3 1
0 6 0 1
0 36 -1 0
1
end_operator
begin_operator
pickup-tank d1 t0 l1 three four
1
1 1
3
0 4 0 2
0 6 0 1
0 36 -1 0
1
end_operator
begin_operator
pickup-tank d1 t0 l1 two three
1
1 1
3
0 4 2 3
0 6 0 1
0 36 -1 0
1
end_operator
begin_operator
pickup-tank d1 t0 l1 zero one
1
1 1
3
0 4 1 4
0 6 0 1
0 36 -1 0
1
end_operator
begin_operator
pickup-tank d1 t0 l2 one two
1
1 2
3
0 4 3 1
0 7 0 1
0 36 -1 0
1
end_operator
begin_operator
pickup-tank d1 t0 l2 three four
1
1 2
3
0 4 0 2
0 7 0 1
0 36 -1 0
1
end_operator
begin_operator
pickup-tank d1 t0 l2 two three
1
1 2
3
0 4 2 3
0 7 0 1
0 36 -1 0
1
end_operator
begin_operator
pickup-tank d1 t0 l2 zero one
1
1 2
3
0 4 1 4
0 7 0 1
0 36 -1 0
1
end_operator
begin_operator
pickup-tank d1 t1 l0 one two
1
1 0
3
0 4 3 1
0 8 0 1
0 37 -1 0
1
end_operator
begin_operator
pickup-tank d1 t1 l0 three four
1
1 0
3
0 4 0 2
0 8 0 1
0 37 -1 0
1
end_operator
begin_operator
pickup-tank d1 t1 l0 two three
1
1 0
3
0 4 2 3
0 8 0 1
0 37 -1 0
1
end_operator
begin_operator
pickup-tank d1 t1 l0 zero one
1
1 0
3
0 4 1 4
0 8 0 1
0 37 -1 0
1
end_operator
begin_operator
pickup-tank d1 t1 l1 one two
1
1 1
3
0 4 3 1
0 9 0 1
0 37 -1 0
1
end_operator
begin_operator
pickup-tank d1 t1 l1 three four
1
1 1
3
0 4 0 2
0 9 0 1
0 37 -1 0
1
end_operator
begin_operator
pickup-tank d1 t1 l1 two three
1
1 1
3
0 4 2 3
0 9 0 1
0 37 -1 0
1
end_operator
begin_operator
pickup-tank d1 t1 l1 zero one
1
1 1
3
0 4 1 4
0 9 0 1
0 37 -1 0
1
end_operator
begin_operator
pickup-tank d1 t1 l2 one two
1
1 2
3
0 4 3 1
0 10 0 1
0 37 -1 0
1
end_operator
begin_operator
pickup-tank d1 t1 l2 three four
1
1 2
3
0 4 0 2
0 10 0 1
0 37 -1 0
1
end_operator
begin_operator
pickup-tank d1 t1 l2 two three
1
1 2
3
0 4 2 3
0 10 0 1
0 37 -1 0
1
end_operator
begin_operator
pickup-tank d1 t1 l2 zero one
1
1 2
3
0 4 1 4
0 10 0 1
0 37 -1 0
1
end_operator
begin_operator
pickup-tank d1 t2 l0 one two
1
1 0
3
0 4 3 1
0 11 0 1
0 38 -1 0
1
end_operator
begin_operator
pickup-tank d1 t2 l0 three four
1
1 0
3
0 4 0 2
0 11 0 1
0 38 -1 0
1
end_operator
begin_operator
pickup-tank d1 t2 l0 two three
1
1 0
3
0 4 2 3
0 11 0 1
0 38 -1 0
1
end_operator
begin_operator
pickup-tank d1 t2 l0 zero one
1
1 0
3
0 4 1 4
0 11 0 1
0 38 -1 0
1
end_operator
begin_operator
pickup-tank d1 t2 l1 one two
1
1 1
3
0 4 3 1
0 12 0 1
0 38 -1 0
1
end_operator
begin_operator
pickup-tank d1 t2 l1 three four
1
1 1
3
0 4 0 2
0 12 0 1
0 38 -1 0
1
end_operator
begin_operator
pickup-tank d1 t2 l1 two three
1
1 1
3
0 4 2 3
0 12 0 1
0 38 -1 0
1
end_operator
begin_operator
pickup-tank d1 t2 l1 zero one
1
1 1
3
0 4 1 4
0 12 0 1
0 38 -1 0
1
end_operator
begin_operator
pickup-tank d1 t2 l2 one two
1
1 2
3
0 4 3 1
0 13 0 1
0 38 -1 0
1
end_operator
begin_operator
pickup-tank d1 t2 l2 three four
1
1 2
3
0 4 0 2
0 13 0 1
0 38 -1 0
1
end_operator
begin_operator
pickup-tank d1 t2 l2 two three
1
1 2
3
0 4 2 3
0 13 0 1
0 38 -1 0
1
end_operator
begin_operator
pickup-tank d1 t2 l2 zero one
1
1 2
3
0 4 1 4
0 13 0 1
0 38 -1 0
1
end_operator
begin_operator
pickup-tank d1 t3 l0 one two
1
1 0
3
0 4 3 1
0 14 0 1
0 39 -1 0
1
end_operator
begin_operator
pickup-tank d1 t3 l0 three four
1
1 0
3
0 4 0 2
0 14 0 1
0 39 -1 0
1
end_operator
begin_operator
pickup-tank d1 t3 l0 two three
1
1 0
3
0 4 2 3
0 14 0 1
0 39 -1 0
1
end_operator
begin_operator
pickup-tank d1 t3 l0 zero one
1
1 0
3
0 4 1 4
0 14 0 1
0 39 -1 0
1
end_operator
begin_operator
pickup-tank d1 t3 l1 one two
1
1 1
3
0 4 3 1
0 15 0 1
0 39 -1 0
1
end_operator
begin_operator
pickup-tank d1 t3 l1 three four
1
1 1
3
0 4 0 2
0 15 0 1
0 39 -1 0
1
end_operator
begin_operator
pickup-tank d1 t3 l1 two three
1
1 1
3
0 4 2 3
0 15 0 1
0 39 -1 0
1
end_operator
begin_operator
pickup-tank d1 t3 l1 zero one
1
1 1
3
0 4 1 4
0 15 0 1
0 39 -1 0
1
end_operator
begin_operator
pickup-tank d1 t3 l2 one two
1
1 2
3
0 4 3 1
0 16 0 1
0 39 -1 0
1
end_operator
begin_operator
pickup-tank d1 t3 l2 three four
1
1 2
3
0 4 0 2
0 16 0 1
0 39 -1 0
1
end_operator
begin_operator
pickup-tank d1 t3 l2 two three
1
1 2
3
0 4 2 3
0 16 0 1
0 39 -1 0
1
end_operator
begin_operator
pickup-tank d1 t3 l2 zero one
1
1 2
3
0 4 1 4
0 16 0 1
0 39 -1 0
1
end_operator
begin_operator
pickup-tank d1 t4 l0 one two
1
1 0
3
0 4 3 1
0 17 0 1
0 40 -1 0
1
end_operator
begin_operator
pickup-tank d1 t4 l0 three four
1
1 0
3
0 4 0 2
0 17 0 1
0 40 -1 0
1
end_operator
begin_operator
pickup-tank d1 t4 l0 two three
1
1 0
3
0 4 2 3
0 17 0 1
0 40 -1 0
1
end_operator
begin_operator
pickup-tank d1 t4 l0 zero one
1
1 0
3
0 4 1 4
0 17 0 1
0 40 -1 0
1
end_operator
begin_operator
pickup-tank d1 t4 l1 one two
1
1 1
3
0 4 3 1
0 18 0 1
0 40 -1 0
1
end_operator
begin_operator
pickup-tank d1 t4 l1 three four
1
1 1
3
0 4 0 2
0 18 0 1
0 40 -1 0
1
end_operator
begin_operator
pickup-tank d1 t4 l1 two three
1
1 1
3
0 4 2 3
0 18 0 1
0 40 -1 0
1
end_operator
begin_operator
pickup-tank d1 t4 l1 zero one
1
1 1
3
0 4 1 4
0 18 0 1
0 40 -1 0
1
end_operator
begin_operator
pickup-tank d1 t4 l2 one two
1
1 2
3
0 4 3 1
0 19 0 1
0 40 -1 0
1
end_operator
begin_operator
pickup-tank d1 t4 l2 three four
1
1 2
3
0 4 0 2
0 19 0 1
0 40 -1 0
1
end_operator
begin_operator
pickup-tank d1 t4 l2 two three
1
1 2
3
0 4 2 3
0 19 0 1
0 40 -1 0
1
end_operator
begin_operator
pickup-tank d1 t4 l2 zero one
1
1 2
3
0 4 1 4
0 19 0 1
0 40 -1 0
1
end_operator
begin_operator
pickup-tank d1 t5 l0 one two
1
1 0
3
0 4 3 1
0 20 0 1
0 41 -1 0
1
end_operator
begin_operator
pickup-tank d1 t5 l0 three four
1
1 0
3
0 4 0 2
0 20 0 1
0 41 -1 0
1
end_operator
begin_operator
pickup-tank d1 t5 l0 two three
1
1 0
3
0 4 2 3
0 20 0 1
0 41 -1 0
1
end_operator
begin_operator
pickup-tank d1 t5 l0 zero one
1
1 0
3
0 4 1 4
0 20 0 1
0 41 -1 0
1
end_operator
begin_operator
pickup-tank d1 t5 l1 one two
1
1 1
3
0 4 3 1
0 21 0 1
0 41 -1 0
1
end_operator
begin_operator
pickup-tank d1 t5 l1 three four
1
1 1
3
0 4 0 2
0 21 0 1
0 41 -1 0
1
end_operator
begin_operator
pickup-tank d1 t5 l1 two three
1
1 1
3
0 4 2 3
0 21 0 1
0 41 -1 0
1
end_operator
begin_operator
pickup-tank d1 t5 l1 zero one
1
1 1
3
0 4 1 4
0 21 0 1
0 41 -1 0
1
end_operator
begin_operator
pickup-tank d1 t5 l2 one two
1
1 2
3
0 4 3 1
0 22 0 1
0 41 -1 0
1
end_operator
begin_operator
pickup-tank d1 t5 l2 three four
1
1 2
3
0 4 0 2
0 22 0 1
0 41 -1 0
1
end_operator
begin_operator
pickup-tank d1 t5 l2 two three
1
1 2
3
0 4 2 3
0 22 0 1
0 41 -1 0
1
end_operator
begin_operator
pickup-tank d1 t5 l2 zero one
1
1 2
3
0 4 1 4
0 22 0 1
0 41 -1 0
1
end_operator
begin_operator
prepare-tank d0 t0 t1 three four
1
0 3
4
0 2 0 1
0 3 0 2
0 23 -1 0
0 30 -1 0
1
end_operator
begin_operator
prepare-tank d0 t1 t2 one two
1
0 3
4
0 2 1 2
0 3 3 1
0 24 -1 0
0 31 -1 0
1
end_operator
begin_operator
prepare-tank d0 t1 t2 three four
1
0 3
4
0 2 1 2
0 3 0 2
0 24 -1 0
0 31 -1 0
1
end_operator
begin_operator
prepare-tank d0 t1 t2 two three
1
0 3
4
0 2 1 2
0 3 2 3
0 24 -1 0
0 31 -1 0
1
end_operator
begin_operator
prepare-tank d0 t1 t2 zero one
1
0 3
4
0 2 1 2
0 3 1 4
0 24 -1 0
0 31 -1 0
1
end_operator
begin_operator
prepare-tank d0 t2 t3 one two
1
0 3
4
0 2 2 3
0 3 3 1
0 25 -1 0
0 32 -1 0
1
end_operator
begin_operator
prepare-tank d0 t2 t3 three four
1
0 3
4
0 2 2 3
0 3 0 2
0 25 -1 0
0 32 -1 0
1
end_operator
begin_operator
prepare-tank d0 t2 t3 two three
1
0 3
4
0 2 2 3
0 3 2 3
0 25 -1 0
0 32 -1 0
1
end_operator
begin_operator
prepare-tank d0 t2 t3 zero one
1
0 3
4
0 2 2 3
0 3 1 4
0 25 -1 0
0 32 -1 0
1
end_operator
begin_operator
prepare-tank d0 t3 t4 one two
1
0 3
4
0 2 3 4
0 3 3 1
0 26 -1 0
0 33 -1 0
1
end_operator
begin_operator
prepare-tank d0 t3 t4 three four
1
0 3
4
0 2 3 4
0 3 0 2
0 26 -1 0
0 33 -1 0
1
end_operator
begin_operator
prepare-tank d0 t3 t4 two three
1
0 3
4
0 2 3 4
0 3 2 3
0 26 -1 0
0 33 -1 0
1
end_operator
begin_operator
prepare-tank d0 t3 t4 zero one
1
0 3
4
0 2 3 4
0 3 1 4
0 26 -1 0
0 33 -1 0
1
end_operator
begin_operator
prepare-tank d0 t4 t5 one two
1
0 3
4
0 2 4 5
0 3 3 1
0 27 -1 0
0 34 -1 0
1
end_operator
begin_operator
prepare-tank d0 t4 t5 three four
1
0 3
4
0 2 4 5
0 3 0 2
0 27 -1 0
0 34 -1 0
1
end_operator
begin_operator
prepare-tank d0 t4 t5 two three
1
0 3
4
0 2 4 5
0 3 2 3
0 27 -1 0
0 34 -1 0
1
end_operator
begin_operator
prepare-tank d0 t4 t5 zero one
1
0 3
4
0 2 4 5
0 3 1 4
0 27 -1 0
0 34 -1 0
1
end_operator
begin_operator
prepare-tank d0 t5 dummy one two
1
0 3
4
0 2 5 6
0 3 3 1
0 28 -1 0
0 35 -1 0
1
end_operator
begin_operator
prepare-tank d0 t5 dummy three four
1
0 3
4
0 2 5 6
0 3 0 2
0 28 -1 0
0 35 -1 0
1
end_operator
begin_operator
prepare-tank d0 t5 dummy two three
1
0 3
4
0 2 5 6
0 3 2 3
0 28 -1 0
0 35 -1 0
1
end_operator
begin_operator
prepare-tank d0 t5 dummy zero one
1
0 3
4
0 2 5 6
0 3 1 4
0 28 -1 0
0 35 -1 0
1
end_operator
begin_operator
prepare-tank d1 t0 t1 three four
1
1 3
4
0 2 0 1
0 4 0 2
0 23 -1 0
0 36 -1 0
1
end_operator
begin_operator
prepare-tank d1 t1 t2 one two
1
1 3
4
0 2 1 2
0 4 3 1
0 24 -1 0
0 37 -1 0
1
end_operator
begin_operator
prepare-tank d1 t1 t2 three four
1
1 3
4
0 2 1 2
0 4 0 2
0 24 -1 0
0 37 -1 0
1
end_operator
begin_operator
prepare-tank d1 t1 t2 two three
1
1 3
4
0 2 1 2
0 4 2 3
0 24 -1 0
0 37 -1 0
1
end_operator
begin_operator
prepare-tank d1 t1 t2 zero one
1
1 3
4
0 2 1 2
0 4 1 4
0 24 -1 0
0 37 -1 0
1
end_operator
begin_operator
prepare-tank d1 t2 t3 one two
1
1 3
4
0 2 2 3
0 4 3 1
0 25 -1 0
0 38 -1 0
1
end_operator
begin_operator
prepare-tank d1 t2 t3 three four
1
1 3
4
0 2 2 3
0 4 0 2
0 25 -1 0
0 38 -1 0
1
end_operator
begin_operator
prepare-tank d1 t2 t3 two three
1
1 3
4
0 2 2 3
0 4 2 3
0 25 -1 0
0 38 -1 0
1
end_operator
begin_operator
prepare-tank d1 t2 t3 zero one
1
1 3
4
0 2 2 3
0 4 1 4
0 25 -1 0
0 38 -1 0
1
end_operator
begin_operator
prepare-tank d1 t3 t4 one two
1
1 3
4
0 2 3 4
0 4 3 1
0 26 -1 0
0 39 -1 0
1
end_operator
begin_operator
prepare-tank d1 t3 t4 three four
1
1 3
4
0 2 3 4
0 4 0 2
0 26 -1 0
0 39 -1 0
1
end_operator
begin_operator
prepare-tank d1 t3 t4 two three
1
1 3
4
0 2 3 4
0 4 2 3
0 26 -1 0
0 39 -1 0
1
end_operator
begin_operator
prepare-tank d1 t3 t4 zero one
1
1 3
4
0 2 3 4
0 4 1 4
0 26 -1 0
0 39 -1 0
1
end_operator
begin_operator
prepare-tank d1 t4 t5 one two
1
1 3
4
0 2 4 5
0 4 3 1
0 27 -1 0
0 40 -1 0
1
end_operator
begin_operator
prepare-tank d1 t4 t5 three four
1
1 3
4
0 2 4 5
0 4 0 2
0 27 -1 0
0 40 -1 0
1
end_operator
begin_operator
prepare-tank d1 t4 t5 two three
1
1 3
4
0 2 4 5
0 4 2 3
0 27 -1 0
0 40 -1 0
1
end_operator
begin_operator
prepare-tank d1 t4 t5 zero one
1
1 3
4
0 2 4 5
0 4 1 4
0 27 -1 0
0 40 -1 0
1
end_operator
begin_operator
prepare-tank d1 t5 dummy one two
1
1 3
4
0 2 5 6
0 4 3 1
0 28 -1 0
0 41 -1 0
1
end_operator
begin_operator
prepare-tank d1 t5 dummy three four
1
1 3
4
0 2 5 6
0 4 0 2
0 28 -1 0
0 41 -1 0
1
end_operator
begin_operator
prepare-tank d1 t5 dummy two three
1
1 3
4
0 2 5 6
0 4 2 3
0 28 -1 0
0 41 -1 0
1
end_operator
begin_operator
prepare-tank d1 t5 dummy zero one
1
1 3
4
0 2 5 6
0 4 1 4
0 28 -1 0
0 41 -1 0
1
end_operator
begin_operator
swim d0 t0 l0 l1
1
30 0
2
0 0 0 1
0 23 0 1
1
end_operator
begin_operator
swim d0 t0 l1 l0
1
30 0
2
0 0 1 0
0 23 0 1
1
end_operator
begin_operator
swim d0 t0 l1 l2
1
30 0
2
0 0 1 2
0 23 0 1
1
end_operator
begin_operator
swim d0 t0 l2 l1
1
30 0
2
0 0 2 1
0 23 0 1
1
end_operator
begin_operator
swim d0 t1 l0 l1
1
31 0
2
0 0 0 1
0 24 0 1
1
end_operator
begin_operator
swim d0 t1 l1 l0
1
31 0
2
0 0 1 0
0 24 0 1
1
end_operator
begin_operator
swim d0 t1 l1 l2
1
31 0
2
0 0 1 2
0 24 0 1
1
end_operator
begin_operator
swim d0 t1 l2 l1
1
31 0
2
0 0 2 1
0 24 0 1
1
end_operator
begin_operator
swim d0 t2 l0 l1
1
32 0
2
0 0 0 1
0 25 0 1
1
end_operator
begin_operator
swim d0 t2 l1 l0
1
32 0
2
0 0 1 0
0 25 0 1
1
end_operator
begin_operator
swim d0 t2 l1 l2
1
32 0
2
0 0 1 2
0 25 0 1
1
end_operator
begin_operator
swim d0 t2 l2 l1
1
32 0
2
0 0 2 1
0 25 0 1
1
end_operator
begin_operator
swim d0 t3 l0 l1
1
33 0
2
0 0 0 1
0 26 0 1
1
end_operator
begin_operator
swim d0 t3 l1 l0
1
33 0
2
0 0 1 0
0 26 0 1
1
end_operator
begin_operator
swim d0 t3 l1 l2
1
33 0
2
0 0 1 2
0 26 0 1
1
end_operator
begin_operator
swim d0 t3 l2 l1
1
33 0
2
0 0 2 1
0 26 0 1
1
end_operator
begin_operator
swim d0 t4 l0 l1
1
34 0
2
0 0 0 1
0 27 0 1
1
end_operator
begin_operator
swim d0 t4 l1 l0
1
34 0
2
0 0 1 0
0 27 0 1
1
end_operator
begin_operator
swim d0 t4 l1 l2
1
34 0
2
0 0 1 2
0 27 0 1
1
end_operator
begin_operator
swim d0 t4 l2 l1
1
34 0
2
0 0 2 1
0 27 0 1
1
end_operator
begin_operator
swim d0 t5 l0 l1
1
35 0
2
0 0 0 1
0 28 0 1
1
end_operator
begin_operator
swim d0 t5 l1 l0
1
35 0
2
0 0 1 0
0 28 0 1
1
end_operator
begin_operator
swim d0 t5 l1 l2
1
35 0
2
0 0 1 2
0 28 0 1
1
end_operator
begin_operator
swim d0 t5 l2 l1
1
35 0
2
0 0 2 1
0 28 0 1
1
end_operator
begin_operator
swim d1 t0 l0 l1
1
36 0
2
0 1 0 1
0 23 0 1
1
end_operator
begin_operator
swim d1 t0 l1 l0
1
36 0
2
0 1 1 0
0 23 0 1
1
end_operator
begin_operator
swim d1 t0 l1 l2
1
36 0
2
0 1 1 2
0 23 0 1
1
end_operator
begin_operator
swim d1 t0 l2 l1
1
36 0
2
0 1 2 1
0 23 0 1
1
end_operator
begin_operator
swim d1 t1 l0 l1
1
37 0
2
0 1 0 1
0 24 0 1
1
end_operator
begin_operator
swim d1 t1 l1 l0
1
37 0
2
0 1 1 0
0 24 0 1
1
end_operator
begin_operator
swim d1 t1 l1 l2
1
37 0
2
0 1 1 2
0 24 0 1
1
end_operator
begin_operator
swim d1 t1 l2 l1
1
37 0
2
0 1 2 1
0 24 0 1
1
end_operator
begin_operator
swim d1 t2 l0 l1
1
38 0
2
0 1 0 1
0 25 0 1
1
end_operator
begin_operator
swim d1 t2 l1 l0
1
38 0
2
0 1 1 0
0 25 0 1
1
end_operator
begin_operator
swim d1 t2 l1 l2
1
38 0
2
0 1 1 2
0 25 0 1
1
end_operator
begin_operator
swim d1 t2 l2 l1
1
38 0
2
0 1 2 1
0 25 0 1
1
end_operator
begin_operator
swim d1 t3 l0 l1
1
39 0
2
0 1 0 1
0 26 0 1
1
end_operator
begin_operator
swim d1 t3 l1 l0
1
39 0
2
0 1 1 0
0 26 0 1
1
end_operator
begin_operator
swim d1 t3 l1 l2
1
39 0
2
0 1 1 2
0 26 0 1
1
end_operator
begin_operator
swim d1 t3 l2 l1
1
39 0
2
0 1 2 1
0 26 0 1
1
end_operator
begin_operator
swim d1 t4 l0 l1
1
40 0
2
0 1 0 1
0 27 0 1
1
end_operator
begin_operator
swim d1 t4 l1 l0
1
40 0
2
0 1 1 0
0 27 0 1
1
end_operator
begin_operator
swim d1 t4 l1 l2
1
40 0
2
0 1 1 2
0 27 0 1
1
end_operator
begin_operator
swim d1 t4 l2 l1
1
40 0
2
0 1 2 1
0 27 0 1
1
end_operator
begin_operator
swim d1 t5 l0 l1
1
41 0
2
0 1 0 1
0 28 0 1
1
end_operator
begin_operator
swim d1 t5 l1 l0
1
41 0
2
0 1 1 0
0 28 0 1
1
end_operator
begin_operator
swim d1 t5 l1 l2
1
41 0
2
0 1 1 2
0 28 0 1
1
end_operator
begin_operator
swim d1 t5 l2 l1
1
41 0
2
0 1 2 1
0 28 0 1
1
end_operator
0
