Maximal 34:
 (at document1 depot) (at document1 office1) (at document1 office10) (at document1 office11) (at document1 office12) (at document1 office13) (at document1 office14) (at document1 office15) (at document1 office16) (at document1 office17) (at document1 office18) (at document1 office19) (at document1 office2) (at document1 office20) (at document1 office21) (at document1 office22) (at document1 office23) (at document1 office24) (at document1 office25) (at document1 office3) (at document1 office4) (at document1 office5) (at document1 office6) (at document1 office7) (at document1 office8) (at document1 office9) (in-train document1):fam:G
 (at document19 depot) (at document19 office1) (at document19 office10) (at document19 office11) (at document19 office12) (at document19 office13) (at document19 office14) (at document19 office15) (at document19 office16) (at document19 office17) (at document19 office18) (at document19 office19) (at document19 office2) (at document19 office20) (at document19 office21) (at document19 office22) (at document19 office23) (at document19 office24) (at document19 office25) (at document19 office3) (at document19 office4) (at document19 office5) (at document19 office6) (at document19 office7) (at document19 office8) (at document19 office9) (in-train document19):fam:G
 (at document28 depot) (at document28 office1) (at document28 office10) (at document28 office11) (at document28 office12) (at document28 office13) (at document28 office14) (at document28 office15) (at document28 office16) (at document28 office17) (at document28 office18) (at document28 office19) (at document28 office2) (at document28 office20) (at document28 office21) (at document28 office22) (at document28 office23) (at document28 office24) (at document28 office25) (at document28 office3) (at document28 office4) (at document28 office5) (at document28 office6) (at document28 office7) (at document28 office8) (at document28 office9) (in-train document28):fam:G
 (at document9 depot) (at document9 office1) (at document9 office10) (at document9 office11) (at document9 office12) (at document9 office13) (at document9 office14) (at document9 office15) (at document9 office16) (at document9 office17) (at document9 office18) (at document9 office19) (at document9 office2) (at document9 office20) (at document9 office21) (at document9 office22) (at document9 office23) (at document9 office24) (at document9 office25) (at document9 office3) (at document9 office4) (at document9 office5) (at document9 office6) (at document9 office7) (at document9 office8) (at document9 office9) (in-train document9):fam:G
 (at document2 depot) (at document2 office1) (at document2 office10) (at document2 office11) (at document2 office12) (at document2 office13) (at document2 office14) (at document2 office15) (at document2 office16) (at document2 office17) (at document2 office18) (at document2 office19) (at document2 office2) (at document2 office20) (at document2 office21) (at document2 office22) (at document2 office23) (at document2 office24) (at document2 office25) (at document2 office3) (at document2 office4) (at document2 office5) (at document2 office6) (at document2 office7) (at document2 office8) (at document2 office9) (in-train document2):fam:G
 (at document20 depot) (at document20 office1) (at document20 office10) (at document20 office11) (at document20 office12) (at document20 office13) (at document20 office14) (at document20 office15) (at document20 office16) (at document20 office17) (at document20 office18) (at document20 office19) (at document20 office2) (at document20 office20) (at document20 office21) (at document20 office22) (at document20 office23) (at document20 office24) (at document20 office25) (at document20 office3) (at document20 office4) (at document20 office5) (at document20 office6) (at document20 office7) (at document20 office8) (at document20 office9) (in-train document20):fam:G
 (at document3 depot) (at document3 office1) (at document3 office10) (at document3 office11) (at document3 office12) (at document3 office13) (at document3 office14) (at document3 office15) (at document3 office16) (at document3 office17) (at document3 office18) (at document3 office19) (at document3 office2) (at document3 office20) (at document3 office21) (at document3 office22) (at document3 office23) (at document3 office24) (at document3 office25) (at document3 office3) (at document3 office4) (at document3 office5) (at document3 office6) (at document3 office7) (at document3 office8) (at document3 office9) (in-train document3):fam:G
 (at document21 depot) (at document21 office1) (at document21 office10) (at document21 office11) (at document21 office12) (at document21 office13) (at document21 office14) (at document21 office15) (at document21 office16) (at document21 office17) (at document21 office18) (at document21 office19) (at document21 office2) (at document21 office20) (at document21 office21) (at document21 office22) (at document21 office23) (at document21 office24) (at document21 office25) (at document21 office3) (at document21 office4) (at document21 office5) (at document21 office6) (at document21 office7) (at document21 office8) (at document21 office9) (in-train document21):fam:G
 (at document30 depot) (at document30 office1) (at document30 office10) (at document30 office11) (at document30 office12) (at document30 office13) (at document30 office14) (at document30 office15) (at document30 office16) (at document30 office17) (at document30 office18) (at document30 office19) (at document30 office2) (at document30 office20) (at document30 office21) (at document30 office22) (at document30 office23) (at document30 office24) (at document30 office25) (at document30 office3) (at document30 office4) (at document30 office5) (at document30 office6) (at document30 office7) (at document30 office8) (at document30 office9) (in-train document30):fam:G
 (at document13 depot) (at document13 office1) (at document13 office10) (at document13 office11) (at document13 office12) (at document13 office13) (at document13 office14) (at document13 office15) (at document13 office16) (at document13 office17) (at document13 office18) (at document13 office19) (at document13 office2) (at document13 office20) (at document13 office21) (at document13 office22) (at document13 office23) (at document13 office24) (at document13 office25) (at document13 office3) (at document13 office4) (at document13 office5) (at document13 office6) (at document13 office7) (at document13 office8) (at document13 office9) (in-train document13):fam:G
 (at document14 depot) (at document14 office1) (at document14 office10) (at document14 office11) (at document14 office12) (at document14 office13) (at document14 office14) (at document14 office15) (at document14 office16) (at document14 office17) (at document14 office18) (at document14 office19) (at document14 office2) (at document14 office20) (at document14 office21) (at document14 office22) (at document14 office23) (at document14 office24) (at document14 office25) (at document14 office3) (at document14 office4) (at document14 office5) (at document14 office6) (at document14 office7) (at document14 office8) (at document14 office9) (in-train document14):fam:G
 (train-at depot) (train-at office) (train-at office1) (train-at office10) (train-at office11) (train-at office12) (train-at office13) (train-at office14) (train-at office15) (train-at office16) (train-at office17) (train-at office18) (train-at office19) (train-at office2) (train-at office20) (train-at office21) (train-at office22) (train-at office23) (train-at office24) (train-at office25) (train-at office3) (train-at office4) (train-at office5) (train-at office6) (train-at office7) (train-at office8) (train-at office9):=1:fam
 (at document23 depot) (at document23 office1) (at document23 office10) (at document23 office11) (at document23 office12) (at document23 office13) (at document23 office14) (at document23 office15) (at document23 office16) (at document23 office17) (at document23 office18) (at document23 office19) (at document23 office2) (at document23 office20) (at document23 office21) (at document23 office22) (at document23 office23) (at document23 office24) (at document23 office25) (at document23 office3) (at document23 office4) (at document23 office5) (at document23 office6) (at document23 office7) (at document23 office8) (at document23 office9) (in-train document23):fam:G
 (at document4 depot) (at document4 office1) (at document4 office10) (at document4 office11) (at document4 office12) (at document4 office13) (at document4 office14) (at document4 office15) (at document4 office16) (at document4 office17) (at document4 office18) (at document4 office19) (at document4 office2) (at document4 office20) (at document4 office21) (at document4 office22) (at document4 office23) (at document4 office24) (at document4 office25) (at document4 office3) (at document4 office4) (at document4 office5) (at document4 office6) (at document4 office7) (at document4 office8) (at document4 office9) (in-train document4):fam:G
 (at document24 depot) (at document24 office1) (at document24 office10) (at document24 office11) (at document24 office12) (at document24 office13) (at document24 office14) (at document24 office15) (at document24 office16) (at document24 office17) (at document24 office18) (at document24 office19) (at document24 office2) (at document24 office20) (at document24 office21) (at document24 office22) (at document24 office23) (at document24 office24) (at document24 office25) (at document24 office3) (at document24 office4) (at document24 office5) (at document24 office6) (at document24 office7) (at document24 office8) (at document24 office9) (in-train document24):fam:G
 (at document16 depot) (at document16 office1) (at document16 office10) (at document16 office11) (at document16 office12) (at document16 office13) (at document16 office14) (at document16 office15) (at document16 office16) (at document16 office17) (at document16 office18) (at document16 office19) (at document16 office2) (at document16 office20) (at document16 office21) (at document16 office22) (at document16 office23) (at document16 office24) (at document16 office25) (at document16 office3) (at document16 office4) (at document16 office5) (at document16 office6) (at document16 office7) (at document16 office8) (at document16 office9) (in-train document16):fam:G
 (at document25 depot) (at document25 office1) (at document25 office10) (at document25 office11) (at document25 office12) (at document25 office13) (at document25 office14) (at document25 office15) (at document25 office16) (at document25 office17) (at document25 office18) (at document25 office19) (at document25 office2) (at document25 office20) (at document25 office21) (at document25 office22) (at document25 office23) (at document25 office24) (at document25 office25) (at document25 office3) (at document25 office4) (at document25 office5) (at document25 office6) (at document25 office7) (at document25 office8) (at document25 office9) (in-train document25):fam:G
 (at document26 depot) (at document26 office1) (at document26 office10) (at document26 office11) (at document26 office12) (at document26 office13) (at document26 office14) (at document26 office15) (at document26 office16) (at document26 office17) (at document26 office18) (at document26 office19) (at document26 office2) (at document26 office20) (at document26 office21) (at document26 office22) (at document26 office23) (at document26 office24) (at document26 office25) (at document26 office3) (at document26 office4) (at document26 office5) (at document26 office6) (at document26 office7) (at document26 office8) (at document26 office9) (in-train document26):fam:G
 (at document7 depot) (at document7 office1) (at document7 office10) (at document7 office11) (at document7 office12) (at document7 office13) (at document7 office14) (at document7 office15) (at document7 office16) (at document7 office17) (at document7 office18) (at document7 office19) (at document7 office2) (at document7 office20) (at document7 office21) (at document7 office22) (at document7 office23) (at document7 office24) (at document7 office25) (at document7 office3) (at document7 office4) (at document7 office5) (at document7 office6) (at document7 office7) (at document7 office8) (at document7 office9) (in-train document7):fam:G
 (at document27 depot) (at document27 office1) (at document27 office10) (at document27 office11) (at document27 office12) (at document27 office13) (at document27 office14) (at document27 office15) (at document27 office16) (at document27 office17) (at document27 office18) (at document27 office19) (at document27 office2) (at document27 office20) (at document27 office21) (at document27 office22) (at document27 office23) (at document27 office24) (at document27 office25) (at document27 office3) (at document27 office4) (at document27 office5) (at document27 office6) (at document27 office7) (at document27 office8) (at document27 office9) (in-train document27):fam:G
 (at document10 depot) (at document10 office) (at document10 office1) (at document10 office10) (at document10 office11) (at document10 office12) (at document10 office13) (at document10 office14) (at document10 office15) (at document10 office16) (at document10 office17) (at document10 office18) (at document10 office19) (at document10 office2) (at document10 office20) (at document10 office21) (at document10 office22) (at document10 office23) (at document10 office24) (at document10 office25) (at document10 office3) (at document10 office4) (at document10 office5) (at document10 office6) (at document10 office7) (at document10 office8) (at document10 office9) (in-train document10):fam
 (at document29 depot) (at document29 office) (at document29 office1) (at document29 office10) (at document29 office11) (at document29 office12) (at document29 office13) (at document29 office14) (at document29 office15) (at document29 office16) (at document29 office17) (at document29 office18) (at document29 office19) (at document29 office2) (at document29 office20) (at document29 office21) (at document29 office22) (at document29 office23) (at document29 office24) (at document29 office25) (at document29 office3) (at document29 office4) (at document29 office5) (at document29 office6) (at document29 office7) (at document29 office8) (at document29 office9) (in-train document29):fam
 (at fuel1 depot) (at fuel1 office) (at fuel1 office1) (at fuel1 office10) (at fuel1 office11) (at fuel1 office12) (at fuel1 office13) (at fuel1 office14) (at fuel1 office15) (at fuel1 office16) (at fuel1 office17) (at fuel1 office18) (at fuel1 office19) (at fuel1 office2) (at fuel1 office20) (at fuel1 office21) (at fuel1 office22) (at fuel1 office23) (at fuel1 office24) (at fuel1 office25) (at fuel1 office3) (at fuel1 office4) (at fuel1 office5) (at fuel1 office6) (at fuel1 office7) (at fuel1 office8) (at fuel1 office9) (in-train fuel1):fam
 (at document11 depot) (at document11 office) (at document11 office1) (at document11 office10) (at document11 office11) (at document11 office12) (at document11 office13) (at document11 office14) (at document11 office15) (at document11 office16) (at document11 office17) (at document11 office18) (at document11 office19) (at document11 office2) (at document11 office20) (at document11 office21) (at document11 office22) (at document11 office23) (at document11 office24) (at document11 office25) (at document11 office3) (at document11 office4) (at document11 office5) (at document11 office6) (at document11 office7) (at document11 office8) (at document11 office9) (in-train document11):fam
 (at fuel2 depot) (at fuel2 office) (at fuel2 office1) (at fuel2 office10) (at fuel2 office11) (at fuel2 office12) (at fuel2 office13) (at fuel2 office14) (at fuel2 office15) (at fuel2 office16) (at fuel2 office17) (at fuel2 office18) (at fuel2 office19) (at fuel2 office2) (at fuel2 office20) (at fuel2 office21) (at fuel2 office22) (at fuel2 office23) (at fuel2 office24) (at fuel2 office25) (at fuel2 office3) (at fuel2 office4) (at fuel2 office5) (at fuel2 office6) (at fuel2 office7) (at fuel2 office8) (at fuel2 office9) (in-train fuel2):fam
 (at document12 depot) (at document12 office) (at document12 office1) (at document12 office10) (at document12 office11) (at document12 office12) (at document12 office13) (at document12 office14) (at document12 office15) (at document12 office16) (at document12 office17) (at document12 office18) (at document12 office19) (at document12 office2) (at document12 office20) (at document12 office21) (at document12 office22) (at document12 office23) (at document12 office24) (at document12 office25) (at document12 office3) (at document12 office4) (at document12 office5) (at document12 office6) (at document12 office7) (at document12 office8) (at document12 office9) (in-train document12):fam
 (at document22 depot) (at document22 office) (at document22 office1) (at document22 office10) (at document22 office11) (at document22 office12) (at document22 office13) (at document22 office14) (at document22 office15) (at document22 office16) (at document22 office17) (at document22 office18) (at document22 office19) (at document22 office2) (at document22 office20) (at document22 office21) (at document22 office22) (at document22 office23) (at document22 office24) (at document22 office25) (at document22 office3) (at document22 office4) (at document22 office5) (at document22 office6) (at document22 office7) (at document22 office8) (at document22 office9) (in-train document22):fam
 (at document31 depot) (at document31 office) (at document31 office1) (at document31 office10) (at document31 office11) (at document31 office12) (at document31 office13) (at document31 office14) (at document31 office15) (at document31 office16) (at document31 office17) (at document31 office18) (at document31 office19) (at document31 office2) (at document31 office20) (at document31 office21) (at document31 office22) (at document31 office23) (at document31 office24) (at document31 office25) (at document31 office3) (at document31 office4) (at document31 office5) (at document31 office6) (at document31 office7) (at document31 office8) (at document31 office9) (in-train document31):fam
 (at document15 depot) (at document15 office) (at document15 office1) (at document15 office10) (at document15 office11) (at document15 office12) (at document15 office13) (at document15 office14) (at document15 office15) (at document15 office16) (at document15 office17) (at document15 office18) (at document15 office19) (at document15 office2) (at document15 office20) (at document15 office21) (at document15 office22) (at document15 office23) (at document15 office24) (at document15 office25) (at document15 office3) (at document15 office4) (at document15 office5) (at document15 office6) (at document15 office7) (at document15 office8) (at document15 office9) (in-train document15):fam
 (at document5 depot) (at document5 office) (at document5 office1) (at document5 office10) (at document5 office11) (at document5 office12) (at document5 office13) (at document5 office14) (at document5 office15) (at document5 office16) (at document5 office17) (at document5 office18) (at document5 office19) (at document5 office2) (at document5 office20) (at document5 office21) (at document5 office22) (at document5 office23) (at document5 office24) (at document5 office25) (at document5 office3) (at document5 office4) (at document5 office5) (at document5 office6) (at document5 office7) (at document5 office8) (at document5 office9) (in-train document5):fam
 (at document6 depot) (at document6 office) (at document6 office1) (at document6 office10) (at document6 office11) (at document6 office12) (at document6 office13) (at document6 office14) (at document6 office15) (at document6 office16) (at document6 office17) (at document6 office18) (at document6 office19) (at document6 office2) (at document6 office20) (at document6 office21) (at document6 office22) (at document6 office23) (at document6 office24) (at document6 office25) (at document6 office3) (at document6 office4) (at document6 office5) (at document6 office6) (at document6 office7) (at document6 office8) (at document6 office9) (in-train document6):fam
 (at document17 depot) (at document17 office) (at document17 office1) (at document17 office10) (at document17 office11) (at document17 office12) (at document17 office13) (at document17 office14) (at document17 office15) (at document17 office16) (at document17 office17) (at document17 office18) (at document17 office19) (at document17 office2) (at document17 office20) (at document17 office21) (at document17 office22) (at document17 office23) (at document17 office24) (at document17 office25) (at document17 office3) (at document17 office4) (at document17 office5) (at document17 office6) (at document17 office7) (at document17 office8) (at document17 office9) (in-train document17):fam
 (at document18 depot) (at document18 office) (at document18 office1) (at document18 office10) (at document18 office11) (at document18 office12) (at document18 office13) (at document18 office14) (at document18 office15) (at document18 office16) (at document18 office17) (at document18 office18) (at document18 office19) (at document18 office2) (at document18 office20) (at document18 office21) (at document18 office22) (at document18 office23) (at document18 office24) (at document18 office25) (at document18 office3) (at document18 office4) (at document18 office5) (at document18 office6) (at document18 office7) (at document18 office8) (at document18 office9) (in-train document18):fam
 (at document8 depot) (at document8 office) (at document8 office1) (at document8 office10) (at document8 office11) (at document8 office12) (at document8 office13) (at document8 office14) (at document8 office15) (at document8 office16) (at document8 office17) (at document8 office18) (at document8 office19) (at document8 office2) (at document8 office20) (at document8 office21) (at document8 office22) (at document8 office23) (at document8 office24) (at document8 office25) (at document8 office3) (at document8 office4) (at document8 office5) (at document8 office6) (at document8 office7) (at document8 office8) (at document8 office9) (in-train document8):fam


Mutex Group Cover Number: 34
