Reduced 17 -> 7
Domain: resources
Problem: grid-prob-4-1
Require: ff
Type[1]:
    [0]: object, parent: -1
Obj-by-Type:
    [0]: 0 1 2 3 4 5 6
Obj[7]:
    [0]: p0, type: 0, is-constant: 0, is-private: 0, owner: -1, is-agent: 0
    [1]: p1, type: 0, is-constant: 0, is-private: 0, owner: -1, is-agent: 0
    [2]: p2, type: 0, is-constant: 0, is-private: 0, owner: -1, is-agent: 0
    [3]: loc-0-2, type: 0, is-constant: 0, is-private: 0, owner: -1, is-agent: 0
    [4]: loc-1-1, type: 0, is-constant: 0, is-private: 0, owner: -1, is-agent: 0
    [5]: loc-1-3, type: 0, is-constant: 0, is-private: 0, owner: -1, is-agent: 0
    [6]: loc-3-0, type: 0, is-constant: 0, is-private: 0, owner: -1, is-agent: 0
Predicate[6]:
    =: 0 0 :: is-private: 0, owner-param: -1, read: 0, write: 0
    location: 0 :: is-private: 0, owner-param: -1, read: 1, write: 0
    person: 0 :: is-private: 0, owner-param: -1, read: 1, write: 0
    person-at: 0 0 :: is-private: 0, owner-param: -1, read: 1, write: 1
    connected: 0 0 :: is-private: 0, owner-param: -1, read: 1, write: 0
    active: 0 :: is-private: 0, owner-param: -1, read: 1, write: 1
Function[0]:
Action[1]:
    move: ?p:0 ?l1:0 ?l2:0
        pre: (and (R:person ?p) (RW:person-at ?p ?l1) (R:location ?l1) (R:location ?l2) (R:connected ?l1 ?l2) (RW:active ?l2))
        eff: (and (RW:person-at ?p ?l2))
Init[60]:
  S:(person p0)
  S:(person p1)
  S:(person p2)
  S:(person p1)
  S:(location p2)
  S:(location p1)
  S:(location loc-0-2)
  S:(location p0)
  S:(location p1)
  S:(location loc-1-1)
  S:(location loc-0-2)
  S:(location loc-1-3)
  S:(location p1)
  S:(location loc-3-0)
  S:(location loc-0-2)
  S:(location p1)
  S:(location p1)
  (active p1)
  (active loc-1-1)
  (active loc-0-2)
  (active loc-1-3)
  (active p1)
  (active loc-3-0)
  (active loc-0-2)
  (active p1)
  (active p1)
  S:(connected p2 p1)
  S:(connected p1 loc-1-1)
  S:(connected loc-0-2 loc-0-2)
  S:(connected p0 loc-1-3)
  S:(connected p1 p1)
  S:(connected p1 loc-3-0)
  S:(connected p1 p2)
  S:(connected loc-1-1 p1)
  S:(connected loc-0-2 loc-0-2)
  S:(connected loc-1-3 p0)
  S:(connected p1 p1)
  S:(connected loc-3-0 p1)
  S:(connected p2 p1)
  S:(connected p1 loc-0-2)
  S:(connected loc-0-2 p0)
  S:(connected p1 loc-1-1)
  S:(connected loc-1-1 loc-0-2)
  S:(connected loc-0-2 loc-1-3)
  S:(connected loc-3-0 loc-0-2)
  S:(connected loc-0-2 p1)
  S:(connected p1 p1)
  S:(connected p1 p2)
  S:(connected loc-0-2 p1)
  S:(connected p0 loc-0-2)
  S:(connected loc-1-1 p1)
  S:(connected loc-0-2 loc-1-1)
  S:(connected loc-1-3 loc-0-2)
  S:(connected loc-0-2 loc-3-0)
  S:(connected p1 loc-0-2)
  S:(connected p1 p1)
  (person-at p0 p2)
  (person-at p1 p1)
  (person-at p2 loc-0-2)
  (person-at p1 p0)
Init[0]:
Goal: (and (RW:person-at p0 loc-3-0) (RW:person-at p1 loc-0-2) (RW:person-at p2 p1) (RW:person-at p1 p1))
Metric: 0
