Domain: rover
Problem: roverprob--s1026--m25--r2--w5--o3--c3--g5--p0--p1--c9
Require: ff
Type[9]:
    [0]: object, parent: -1
    [1]: rover, parent: 0
    [2]: waypoint, parent: 0
    [3]: store, parent: 0
    [4]: camera, parent: 0
    [5]: mode, parent: 0
    [6]: lander, parent: 0
    [7]: objective, parent: 0
    [8]: energylevel, parent: 0
Obj-by-Type:
    [0]: 0 1 2 3 4 5 6 7 8 9 10 11 12 13 14 15 16 17 18 19 20 21 22 23 24 25 26 27 28 29 30 31 32 33 34 35 36 37 38 39 40 41 42 43 44 45 46 47 48 49 50 51 52 53 54 55
    [1]: 4 5
    [2]: 8 9 10 11 12
    [3]: 6 7
    [4]: 13 14 15 16 17 18
    [5]: 1 2 3
    [6]: 0
    [7]: 19 20 21
    [8]: 22 23 24 25 26 27 28 29 30 31 32 33 34 35 36 37 38 39 40 41 42 43 44 45 46 47 48 49 50 51 52 53 54 55
Obj[56]:
    [0]: general, type: 6, is-constant: 0, is-private: 0, owner: -1, is-agent: 0
    [1]: colour, type: 5, is-constant: 0, is-private: 0, owner: -1, is-agent: 0
    [2]: high_res, type: 5, is-constant: 0, is-private: 0, owner: -1, is-agent: 0
    [3]: low_res, type: 5, is-constant: 0, is-private: 0, owner: -1, is-agent: 0
    [4]: rover0, type: 1, is-constant: 0, is-private: 0, owner: -1, is-agent: 0
    [5]: rover1, type: 1, is-constant: 0, is-private: 0, owner: -1, is-agent: 0
    [6]: rover0store, type: 3, is-constant: 0, is-private: 0, owner: -1, is-agent: 0
    [7]: rover1store, type: 3, is-constant: 0, is-private: 0, owner: -1, is-agent: 0
    [8]: waypoint0, type: 2, is-constant: 0, is-private: 0, owner: -1, is-agent: 0
    [9]: waypoint1, type: 2, is-constant: 0, is-private: 0, owner: -1, is-agent: 0
    [10]: waypoint2, type: 2, is-constant: 0, is-private: 0, owner: -1, is-agent: 0
    [11]: waypoint3, type: 2, is-constant: 0, is-private: 0, owner: -1, is-agent: 0
    [12]: waypoint4, type: 2, is-constant: 0, is-private: 0, owner: -1, is-agent: 0
    [13]: camera0, type: 4, is-constant: 0, is-private: 0, owner: -1, is-agent: 0
    [14]: camera1, type: 4, is-constant: 0, is-private: 0, owner: -1, is-agent: 0
    [15]: camera2, type: 4, is-constant: 0, is-private: 0, owner: -1, is-agent: 0
    [16]: camera3, type: 4, is-constant: 0, is-private: 0, owner: -1, is-agent: 0
    [17]: camera4, type: 4, is-constant: 0, is-private: 0, owner: -1, is-agent: 0
    [18]: camera5, type: 4, is-constant: 0, is-private: 0, owner: -1, is-agent: 0
    [19]: objective0, type: 7, is-constant: 0, is-private: 0, owner: -1, is-agent: 0
    [20]: objective1, type: 7, is-constant: 0, is-private: 0, owner: -1, is-agent: 0
    [21]: objective2, type: 7, is-constant: 0, is-private: 0, owner: -1, is-agent: 0
    [22]: level0, type: 8, is-constant: 0, is-private: 0, owner: -1, is-agent: 0
    [23]: level1, type: 8, is-constant: 0, is-private: 0, owner: -1, is-agent: 0
    [24]: level2, type: 8, is-constant: 0, is-private: 0, owner: -1, is-agent: 0
    [25]: level3, type: 8, is-constant: 0, is-private: 0, owner: -1, is-agent: 0
    [26]: level4, type: 8, is-constant: 0, is-private: 0, owner: -1, is-agent: 0
    [27]: level5, type: 8, is-constant: 0, is-private: 0, owner: -1, is-agent: 0
    [28]: level6, type: 8, is-constant: 0, is-private: 0, owner: -1, is-agent: 0
    [29]: level7, type: 8, is-constant: 0, is-private: 0, owner: -1, is-agent: 0
    [30]: level8, type: 8, is-constant: 0, is-private: 0, owner: -1, is-agent: 0
    [31]: level9, type: 8, is-constant: 0, is-private: 0, owner: -1, is-agent: 0
    [32]: level10, type: 8, is-constant: 0, is-private: 0, owner: -1, is-agent: 0
    [33]: level11, type: 8, is-constant: 0, is-private: 0, owner: -1, is-agent: 0
    [34]: level12, type: 8, is-constant: 0, is-private: 0, owner: -1, is-agent: 0
    [35]: level13, type: 8, is-constant: 0, is-private: 0, owner: -1, is-agent: 0
    [36]: level14, type: 8, is-constant: 0, is-private: 0, owner: -1, is-agent: 0
    [37]: level15, type: 8, is-constant: 0, is-private: 0, owner: -1, is-agent: 0
    [38]: level16, type: 8, is-constant: 0, is-private: 0, owner: -1, is-agent: 0
    [39]: level17, type: 8, is-constant: 0, is-private: 0, owner: -1, is-agent: 0
    [40]: level18, type: 8, is-constant: 0, is-private: 0, owner: -1, is-agent: 0
    [41]: level19, type: 8, is-constant: 0, is-private: 0, owner: -1, is-agent: 0
    [42]: level20, type: 8, is-constant: 0, is-private: 0, owner: -1, is-agent: 0
    [43]: level21, type: 8, is-constant: 0, is-private: 0, owner: -1, is-agent: 0
    [44]: level22, type: 8, is-constant: 0, is-private: 0, owner: -1, is-agent: 0
    [45]: level23, type: 8, is-constant: 0, is-private: 0, owner: -1, is-agent: 0
    [46]: level24, type: 8, is-constant: 0, is-private: 0, owner: -1, is-agent: 0
    [47]: level25, type: 8, is-constant: 0, is-private: 0, owner: -1, is-agent: 0
    [48]: level26, type: 8, is-constant: 0, is-private: 0, owner: -1, is-agent: 0
    [49]: level27, type: 8, is-constant: 0, is-private: 0, owner: -1, is-agent: 0
    [50]: level28, type: 8, is-constant: 0, is-private: 0, owner: -1, is-agent: 0
    [51]: level29, type: 8, is-constant: 0, is-private: 0, owner: -1, is-agent: 0
    [52]: level30, type: 8, is-constant: 0, is-private: 0, owner: -1, is-agent: 0
    [53]: level31, type: 8, is-constant: 0, is-private: 0, owner: -1, is-agent: 0
    [54]: level32, type: 8, is-constant: 0, is-private: 0, owner: -1, is-agent: 0
    [55]: level33, type: 8, is-constant: 0, is-private: 0, owner: -1, is-agent: 0
Predicate[29]:
    =: 0 0 :: is-private: 0, owner-param: -1, read: 0, write: 0
    at: 1 2 :: is-private: 0, owner-param: -1, read: 1, write: 1
    at_lander: 6 2 :: is-private: 0, owner-param: -1, read: 1, write: 0
    can_traverse: 1 2 2 :: is-private: 0, owner-param: -1, read: 1, write: 0
    equipped_for_soil_analysis: 1 :: is-private: 0, owner-param: -1, read: 1, write: 0
    equipped_for_rock_analysis: 1 :: is-private: 0, owner-param: -1, read: 1, write: 0
    equipped_for_imaging: 1 :: is-private: 0, owner-param: -1, read: 1, write: 0
    empty: 3 :: is-private: 0, owner-param: -1, read: 1, write: 1
    have_rock_analysis: 1 2 :: is-private: 0, owner-param: -1, read: 1, write: 1
    have_soil_analysis: 1 2 :: is-private: 0, owner-param: -1, read: 1, write: 1
    full: 3 :: is-private: 0, owner-param: -1, read: 1, write: 1
    calibrated: 4 1 :: is-private: 0, owner-param: -1, read: 1, write: 1
    supports: 4 5 :: is-private: 0, owner-param: -1, read: 1, write: 0
    available: 1 :: is-private: 0, owner-param: -1, read: 1, write: 1
    visible: 2 2 :: is-private: 0, owner-param: -1, read: 1, write: 0
    have_image: 1 7 5 :: is-private: 0, owner-param: -1, read: 1, write: 1
    communicated_soil_data: 2 :: is-private: 0, owner-param: -1, read: 0, write: 1
    communicated_rock_data: 2 :: is-private: 0, owner-param: -1, read: 0, write: 1
    communicated_image_data: 7 5 :: is-private: 0, owner-param: -1, read: 0, write: 1
    at_soil_sample: 2 :: is-private: 0, owner-param: -1, read: 1, write: 1
    at_rock_sample: 2 :: is-private: 0, owner-param: -1, read: 1, write: 1
    visible_from: 7 2 :: is-private: 0, owner-param: -1, read: 1, write: 0
    store_of: 3 1 :: is-private: 0, owner-param: -1, read: 1, write: 0
    calibration_target: 4 7 :: is-private: 0, owner-param: -1, read: 1, write: 0
    on_board: 4 1 :: is-private: 0, owner-param: -1, read: 1, write: 0
    channel_free: 6 :: is-private: 0, owner-param: -1, read: 1, write: 1
    energy: 1 8 :: is-private: 0, owner-param: -1, read: 1, write: 1
    energycost: 8 2 2 :: is-private: 0, owner-param: -1, read: 1, write: 0
    sum: 8 8 8 :: is-private: 0, owner-param: -1, read: 1, write: 0
Function[0]:
Action[9]:
    navigate: ?x:1 ?y:2 ?z:2 ?energypost:8 ?energydelta:8 ?energypre:8
        pre: (and (R:can_traverse ?x ?y ?z) (RW:available ?x) (RW:at ?x ?y) (R:visible ?y ?z) (R:energycost ?energydelta ?y ?z) (RW:energy ?x ?energypre) (R:sum ?energypost ?energydelta ?energypre))
        eff: (and (N:RW:energy ?x ?energypre) (RW:energy ?x ?energypost) (N:RW:at ?x ?y) (RW:at ?x ?z))
    sample_soil: ?x:1 ?s:3 ?p:2
        pre: (and (RW:at ?x ?p) (RW:at_soil_sample ?p) (R:equipped_for_soil_analysis ?x) (R:store_of ?s ?x) (RW:empty ?s))
        eff: (and (N:RW:empty ?s) (RW:full ?s) (RW:have_soil_analysis ?x ?p) (N:RW:at_soil_sample ?p))
    sample_rock: ?x:1 ?s:3 ?p:2
        pre: (and (RW:at ?x ?p) (RW:at_rock_sample ?p) (R:equipped_for_rock_analysis ?x) (R:store_of ?s ?x) (RW:empty ?s))
        eff: (and (N:RW:empty ?s) (RW:full ?s) (RW:have_rock_analysis ?x ?p) (N:RW:at_rock_sample ?p))
    drop: ?x:1 ?y:3
        pre: (and (R:store_of ?y ?x) (RW:full ?y))
        eff: (and (N:RW:full ?y) (RW:empty ?y))
    calibrate: ?r:1 ?i:4 ?t:7 ?w:2
        pre: (and (R:equipped_for_imaging ?r) (R:calibration_target ?i ?t) (RW:at ?r ?w) (R:visible_from ?t ?w) (R:on_board ?i ?r))
        eff: (and (RW:calibrated ?i ?r))
    take_image: ?r:1 ?p:2 ?o:7 ?i:4 ?m:5
        pre: (and (RW:calibrated ?i ?r) (R:on_board ?i ?r) (R:equipped_for_imaging ?r) (R:supports ?i ?m) (R:visible_from ?o ?p) (RW:at ?r ?p))
        eff: (and (RW:have_image ?r ?o ?m) (N:RW:calibrated ?i ?r))
    communicate_soil_data: ?r:1 ?l:6 ?p:2 ?x:2 ?y:2
        pre: (and (RW:at ?r ?x) (R:at_lander ?l ?y) (RW:have_soil_analysis ?r ?p) (R:visible ?x ?y) (RW:available ?r) (RW:channel_free ?l))
        eff: (and (RW:channel_free ?l) (W:communicated_soil_data ?p) (RW:available ?r))
    communicate_rock_data: ?r:1 ?l:6 ?p:2 ?x:2 ?y:2
        pre: (and (RW:at ?r ?x) (R:at_lander ?l ?y) (RW:have_rock_analysis ?r ?p) (R:visible ?x ?y) (RW:available ?r) (RW:channel_free ?l))
        eff: (and (RW:channel_free ?l) (W:communicated_rock_data ?p) (RW:available ?r))
    communicate_image_data: ?r:1 ?l:6 ?o:7 ?m:5 ?x:2 ?y:2
        pre: (and (RW:at ?r ?x) (R:at_lander ?l ?y) (RW:have_image ?r ?o ?m) (R:visible ?x ?y) (RW:available ?r) (RW:channel_free ?l))
        eff: (and (RW:channel_free ?l) (W:communicated_image_data ?o ?m) (RW:available ?r))
Init[710]:
  S:(visible waypoint0 waypoint2)
  S:(visible waypoint2 waypoint0)
  S:(visible waypoint0 waypoint3)
  S:(visible waypoint3 waypoint0)
  S:(visible waypoint1 waypoint0)
  S:(visible waypoint0 waypoint1)
  S:(visible waypoint1 waypoint2)
  S:(visible waypoint2 waypoint1)
  S:(visible waypoint1 waypoint4)
  S:(visible waypoint4 waypoint1)
  S:(visible waypoint3 waypoint1)
  S:(visible waypoint1 waypoint3)
  S:(visible waypoint3 waypoint2)
  S:(visible waypoint2 waypoint3)
  S:(visible waypoint4 waypoint0)
  S:(visible waypoint0 waypoint4)
  S:(visible waypoint4 waypoint2)
  S:(visible waypoint2 waypoint4)
  S:(visible waypoint4 waypoint3)
  S:(visible waypoint3 waypoint4)
  S:(energycost level14 waypoint0 waypoint1)
  S:(energycost level14 waypoint1 waypoint0)
  S:(energycost level16 waypoint0 waypoint2)
  S:(energycost level16 waypoint2 waypoint0)
  S:(energycost level14 waypoint0 waypoint3)
  S:(energycost level14 waypoint3 waypoint0)
  S:(energycost level17 waypoint0 waypoint4)
  S:(energycost level17 waypoint4 waypoint0)
  S:(energycost level18 waypoint1 waypoint2)
  S:(energycost level18 waypoint2 waypoint1)
  S:(energycost level7 waypoint1 waypoint3)
  S:(energycost level7 waypoint3 waypoint1)
  S:(energycost level4 waypoint1 waypoint4)
  S:(energycost level4 waypoint4 waypoint1)
  S:(energycost level23 waypoint2 waypoint3)
  S:(energycost level23 waypoint3 waypoint2)
  S:(energycost level24 waypoint2 waypoint4)
  S:(energycost level24 waypoint4 waypoint2)
  S:(energycost level21 waypoint3 waypoint4)
  S:(energycost level21 waypoint4 waypoint3)
  S:(sum level0 level0 level0)
  S:(sum level0 level1 level1)
  S:(sum level0 level2 level2)
  S:(sum level0 level3 level3)
  S:(sum level0 level4 level4)
  S:(sum level0 level5 level5)
  S:(sum level0 level6 level6)
  S:(sum level0 level7 level7)
  S:(sum level0 level8 level8)
  S:(sum level0 level9 level9)
  S:(sum level0 level10 level10)
  S:(sum level0 level11 level11)
  S:(sum level0 level12 level12)
  S:(sum level0 level13 level13)
  S:(sum level0 level14 level14)
  S:(sum level0 level15 level15)
  S:(sum level0 level16 level16)
  S:(sum level0 level17 level17)
  S:(sum level0 level18 level18)
  S:(sum level0 level19 level19)
  S:(sum level0 level20 level20)
  S:(sum level0 level21 level21)
  S:(sum level0 level22 level22)
  S:(sum level0 level23 level23)
  S:(sum level0 level24 level24)
  S:(sum level0 level25 level25)
  S:(sum level0 level26 level26)
  S:(sum level0 level27 level27)
  S:(sum level0 level28 level28)
  S:(sum level0 level29 level29)
  S:(sum level0 level30 level30)
  S:(sum level0 level31 level31)
  S:(sum level0 level32 level32)
  S:(sum level0 level33 level33)
  S:(sum level1 level0 level1)
  S:(sum level1 level1 level2)
  S:(sum level1 level2 level3)
  S:(sum level1 level3 level4)
  S:(sum level1 level4 level5)
  S:(sum level1 level5 level6)
  S:(sum level1 level6 level7)
  S:(sum level1 level7 level8)
  S:(sum level1 level8 level9)
  S:(sum level1 level9 level10)
  S:(sum level1 level10 level11)
  S:(sum level1 level11 level12)
  S:(sum level1 level12 level13)
  S:(sum level1 level13 level14)
  S:(sum level1 level14 level15)
  S:(sum level1 level15 level16)
  S:(sum level1 level16 level17)
  S:(sum level1 level17 level18)
  S:(sum level1 level18 level19)
  S:(sum level1 level19 level20)
  S:(sum level1 level20 level21)
  S:(sum level1 level21 level22)
  S:(sum level1 level22 level23)
  S:(sum level1 level23 level24)
  S:(sum level1 level24 level25)
  S:(sum level1 level25 level26)
  S:(sum level1 level26 level27)
  S:(sum level1 level27 level28)
  S:(sum level1 level28 level29)
  S:(sum level1 level29 level30)
  S:(sum level1 level30 level31)
  S:(sum level1 level31 level32)
  S:(sum level1 level32 level33)
  S:(sum level2 level0 level2)
  S:(sum level2 level1 level3)
  S:(sum level2 level2 level4)
  S:(sum level2 level3 level5)
  S:(sum level2 level4 level6)
  S:(sum level2 level5 level7)
  S:(sum level2 level6 level8)
  S:(sum level2 level7 level9)
  S:(sum level2 level8 level10)
  S:(sum level2 level9 level11)
  S:(sum level2 level10 level12)
  S:(sum level2 level11 level13)
  S:(sum level2 level12 level14)
  S:(sum level2 level13 level15)
  S:(sum level2 level14 level16)
  S:(sum level2 level15 level17)
  S:(sum level2 level16 level18)
  S:(sum level2 level17 level19)
  S:(sum level2 level18 level20)
  S:(sum level2 level19 level21)
  S:(sum level2 level20 level22)
  S:(sum level2 level21 level23)
  S:(sum level2 level22 level24)
  S:(sum level2 level23 level25)
  S:(sum level2 level24 level26)
  S:(sum level2 level25 level27)
  S:(sum level2 level26 level28)
  S:(sum level2 level27 level29)
  S:(sum level2 level28 level30)
  S:(sum level2 level29 level31)
  S:(sum level2 level30 level32)
  S:(sum level2 level31 level33)
  S:(sum level3 level0 level3)
  S:(sum level3 level1 level4)
  S:(sum level3 level2 level5)
  S:(sum level3 level3 level6)
  S:(sum level3 level4 level7)
  S:(sum level3 level5 level8)
  S:(sum level3 level6 level9)
  S:(sum level3 level7 level10)
  S:(sum level3 level8 level11)
  S:(sum level3 level9 level12)
  S:(sum level3 level10 level13)
  S:(sum level3 level11 level14)
  S:(sum level3 level12 level15)
  S:(sum level3 level13 level16)
  S:(sum level3 level14 level17)
  S:(sum level3 level15 level18)
  S:(sum level3 level16 level19)
  S:(sum level3 level17 level20)
  S:(sum level3 level18 level21)
  S:(sum level3 level19 level22)
  S:(sum level3 level20 level23)
  S:(sum level3 level21 level24)
  S:(sum level3 level22 level25)
  S:(sum level3 level23 level26)
  S:(sum level3 level24 level27)
  S:(sum level3 level25 level28)
  S:(sum level3 level26 level29)
  S:(sum level3 level27 level30)
  S:(sum level3 level28 level31)
  S:(sum level3 level29 level32)
  S:(sum level3 level30 level33)
  S:(sum level4 level0 level4)
  S:(sum level4 level1 level5)
  S:(sum level4 level2 level6)
  S:(sum level4 level3 level7)
  S:(sum level4 level4 level8)
  S:(sum level4 level5 level9)
  S:(sum level4 level6 level10)
  S:(sum level4 level7 level11)
  S:(sum level4 level8 level12)
  S:(sum level4 level9 level13)
  S:(sum level4 level10 level14)
  S:(sum level4 level11 level15)
  S:(sum level4 level12 level16)
  S:(sum level4 level13 level17)
  S:(sum level4 level14 level18)
  S:(sum level4 level15 level19)
  S:(sum level4 level16 level20)
  S:(sum level4 level17 level21)
  S:(sum level4 level18 level22)
  S:(sum level4 level19 level23)
  S:(sum level4 level20 level24)
  S:(sum level4 level21 level25)
  S:(sum level4 level22 level26)
  S:(sum level4 level23 level27)
  S:(sum level4 level24 level28)
  S:(sum level4 level25 level29)
  S:(sum level4 level26 level30)
  S:(sum level4 level27 level31)
  S:(sum level4 level28 level32)
  S:(sum level4 level29 level33)
  S:(sum level5 level0 level5)
  S:(sum level5 level1 level6)
  S:(sum level5 level2 level7)
  S:(sum level5 level3 level8)
  S:(sum level5 level4 level9)
  S:(sum level5 level5 level10)
  S:(sum level5 level6 level11)
  S:(sum level5 level7 level12)
  S:(sum level5 level8 level13)
  S:(sum level5 level9 level14)
  S:(sum level5 level10 level15)
  S:(sum level5 level11 level16)
  S:(sum level5 level12 level17)
  S:(sum level5 level13 level18)
  S:(sum level5 level14 level19)
  S:(sum level5 level15 level20)
  S:(sum level5 level16 level21)
  S:(sum level5 level17 level22)
  S:(sum level5 level18 level23)
  S:(sum level5 level19 level24)
  S:(sum level5 level20 level25)
  S:(sum level5 level21 level26)
  S:(sum level5 level22 level27)
  S:(sum level5 level23 level28)
  S:(sum level5 level24 level29)
  S:(sum level5 level25 level30)
  S:(sum level5 level26 level31)
  S:(sum level5 level27 level32)
  S:(sum level5 level28 level33)
  S:(sum level6 level0 level6)
  S:(sum level6 level1 level7)
  S:(sum level6 level2 level8)
  S:(sum level6 level3 level9)
  S:(sum level6 level4 level10)
  S:(sum level6 level5 level11)
  S:(sum level6 level6 level12)
  S:(sum level6 level7 level13)
  S:(sum level6 level8 level14)
  S:(sum level6 level9 level15)
  S:(sum level6 level10 level16)
  S:(sum level6 level11 level17)
  S:(sum level6 level12 level18)
  S:(sum level6 level13 level19)
  S:(sum level6 level14 level20)
  S:(sum level6 level15 level21)
  S:(sum level6 level16 level22)
  S:(sum level6 level17 level23)
  S:(sum level6 level18 level24)
  S:(sum level6 level19 level25)
  S:(sum level6 level20 level26)
  S:(sum level6 level21 level27)
  S:(sum level6 level22 level28)
  S:(sum level6 level23 level29)
  S:(sum level6 level24 level30)
  S:(sum level6 level25 level31)
  S:(sum level6 level26 level32)
  S:(sum level6 level27 level33)
  S:(sum level7 level0 level7)
  S:(sum level7 level1 level8)
  S:(sum level7 level2 level9)
  S:(sum level7 level3 level10)
  S:(sum level7 level4 level11)
  S:(sum level7 level5 level12)
  S:(sum level7 level6 level13)
  S:(sum level7 level7 level14)
  S:(sum level7 level8 level15)
  S:(sum level7 level9 level16)
  S:(sum level7 level10 level17)
  S:(sum level7 level11 level18)
  S:(sum level7 level12 level19)
  S:(sum level7 level13 level20)
  S:(sum level7 level14 level21)
  S:(sum level7 level15 level22)
  S:(sum level7 level16 level23)
  S:(sum level7 level17 level24)
  S:(sum level7 level18 level25)
  S:(sum level7 level19 level26)
  S:(sum level7 level20 level27)
  S:(sum level7 level21 level28)
  S:(sum level7 level22 level29)
  S:(sum level7 level23 level30)
  S:(sum level7 level24 level31)
  S:(sum level7 level25 level32)
  S:(sum level7 level26 level33)
  S:(sum level8 level0 level8)
  S:(sum level8 level1 level9)
  S:(sum level8 level2 level10)
  S:(sum level8 level3 level11)
  S:(sum level8 level4 level12)
  S:(sum level8 level5 level13)
  S:(sum level8 level6 level14)
  S:(sum level8 level7 level15)
  S:(sum level8 level8 level16)
  S:(sum level8 level9 level17)
  S:(sum level8 level10 level18)
  S:(sum level8 level11 level19)
  S:(sum level8 level12 level20)
  S:(sum level8 level13 level21)
  S:(sum level8 level14 level22)
  S:(sum level8 level15 level23)
  S:(sum level8 level16 level24)
  S:(sum level8 level17 level25)
  S:(sum level8 level18 level26)
  S:(sum level8 level19 level27)
  S:(sum level8 level20 level28)
  S:(sum level8 level21 level29)
  S:(sum level8 level22 level30)
  S:(sum level8 level23 level31)
  S:(sum level8 level24 level32)
  S:(sum level8 level25 level33)
  S:(sum level9 level0 level9)
  S:(sum level9 level1 level10)
  S:(sum level9 level2 level11)
  S:(sum level9 level3 level12)
  S:(sum level9 level4 level13)
  S:(sum level9 level5 level14)
  S:(sum level9 level6 level15)
  S:(sum level9 level7 level16)
  S:(sum level9 level8 level17)
  S:(sum level9 level9 level18)
  S:(sum level9 level10 level19)
  S:(sum level9 level11 level20)
  S:(sum level9 level12 level21)
  S:(sum level9 level13 level22)
  S:(sum level9 level14 level23)
  S:(sum level9 level15 level24)
  S:(sum level9 level16 level25)
  S:(sum level9 level17 level26)
  S:(sum level9 level18 level27)
  S:(sum level9 level19 level28)
  S:(sum level9 level20 level29)
  S:(sum level9 level21 level30)
  S:(sum level9 level22 level31)
  S:(sum level9 level23 level32)
  S:(sum level9 level24 level33)
  S:(sum level10 level0 level10)
  S:(sum level10 level1 level11)
  S:(sum level10 level2 level12)
  S:(sum level10 level3 level13)
  S:(sum level10 level4 level14)
  S:(sum level10 level5 level15)
  S:(sum level10 level6 level16)
  S:(sum level10 level7 level17)
  S:(sum level10 level8 level18)
  S:(sum level10 level9 level19)
  S:(sum level10 level10 level20)
  S:(sum level10 level11 level21)
  S:(sum level10 level12 level22)
  S:(sum level10 level13 level23)
  S:(sum level10 level14 level24)
  S:(sum level10 level15 level25)
  S:(sum level10 level16 level26)
  S:(sum level10 level17 level27)
  S:(sum level10 level18 level28)
  S:(sum level10 level19 level29)
  S:(sum level10 level20 level30)
  S:(sum level10 level21 level31)
  S:(sum level10 level22 level32)
  S:(sum level10 level23 level33)
  S:(sum level11 level0 level11)
  S:(sum level11 level1 level12)
  S:(sum level11 level2 level13)
  S:(sum level11 level3 level14)
  S:(sum level11 level4 level15)
  S:(sum level11 level5 level16)
  S:(sum level11 level6 level17)
  S:(sum level11 level7 level18)
  S:(sum level11 level8 level19)
  S:(sum level11 level9 level20)
  S:(sum level11 level10 level21)
  S:(sum level11 level11 level22)
  S:(sum level11 level12 level23)
  S:(sum level11 level13 level24)
  S:(sum level11 level14 level25)
  S:(sum level11 level15 level26)
  S:(sum level11 level16 level27)
  S:(sum level11 level17 level28)
  S:(sum level11 level18 level29)
  S:(sum level11 level19 level30)
  S:(sum level11 level20 level31)
  S:(sum level11 level21 level32)
  S:(sum level11 level22 level33)
  S:(sum level12 level0 level12)
  S:(sum level12 level1 level13)
  S:(sum level12 level2 level14)
  S:(sum level12 level3 level15)
  S:(sum level12 level4 level16)
  S:(sum level12 level5 level17)
  S:(sum level12 level6 level18)
  S:(sum level12 level7 level19)
  S:(sum level12 level8 level20)
  S:(sum level12 level9 level21)
  S:(sum level12 level10 level22)
  S:(sum level12 level11 level23)
  S:(sum level12 level12 level24)
  S:(sum level12 level13 level25)
  S:(sum level12 level14 level26)
  S:(sum level12 level15 level27)
  S:(sum level12 level16 level28)
  S:(sum level12 level17 level29)
  S:(sum level12 level18 level30)
  S:(sum level12 level19 level31)
  S:(sum level12 level20 level32)
  S:(sum level12 level21 level33)
  S:(sum level13 level0 level13)
  S:(sum level13 level1 level14)
  S:(sum level13 level2 level15)
  S:(sum level13 level3 level16)
  S:(sum level13 level4 level17)
  S:(sum level13 level5 level18)
  S:(sum level13 level6 level19)
  S:(sum level13 level7 level20)
  S:(sum level13 level8 level21)
  S:(sum level13 level9 level22)
  S:(sum level13 level10 level23)
  S:(sum level13 level11 level24)
  S:(sum level13 level12 level25)
  S:(sum level13 level13 level26)
  S:(sum level13 level14 level27)
  S:(sum level13 level15 level28)
  S:(sum level13 level16 level29)
  S:(sum level13 level17 level30)
  S:(sum level13 level18 level31)
  S:(sum level13 level19 level32)
  S:(sum level13 level20 level33)
  S:(sum level14 level0 level14)
  S:(sum level14 level1 level15)
  S:(sum level14 level2 level16)
  S:(sum level14 level3 level17)
  S:(sum level14 level4 level18)
  S:(sum level14 level5 level19)
  S:(sum level14 level6 level20)
  S:(sum level14 level7 level21)
  S:(sum level14 level8 level22)
  S:(sum level14 level9 level23)
  S:(sum level14 level10 level24)
  S:(sum level14 level11 level25)
  S:(sum level14 level12 level26)
  S:(sum level14 level13 level27)
  S:(sum level14 level14 level28)
  S:(sum level14 level15 level29)
  S:(sum level14 level16 level30)
  S:(sum level14 level17 level31)
  S:(sum level14 level18 level32)
  S:(sum level14 level19 level33)
  S:(sum level15 level0 level15)
  S:(sum level15 level1 level16)
  S:(sum level15 level2 level17)
  S:(sum level15 level3 level18)
  S:(sum level15 level4 level19)
  S:(sum level15 level5 level20)
  S:(sum level15 level6 level21)
  S:(sum level15 level7 level22)
  S:(sum level15 level8 level23)
  S:(sum level15 level9 level24)
  S:(sum level15 level10 level25)
  S:(sum level15 level11 level26)
  S:(sum level15 level12 level27)
  S:(sum level15 level13 level28)
  S:(sum level15 level14 level29)
  S:(sum level15 level15 level30)
  S:(sum level15 level16 level31)
  S:(sum level15 level17 level32)
  S:(sum level15 level18 level33)
  S:(sum level16 level0 level16)
  S:(sum level16 level1 level17)
  S:(sum level16 level2 level18)
  S:(sum level16 level3 level19)
  S:(sum level16 level4 level20)
  S:(sum level16 level5 level21)
  S:(sum level16 level6 level22)
  S:(sum level16 level7 level23)
  S:(sum level16 level8 level24)
  S:(sum level16 level9 level25)
  S:(sum level16 level10 level26)
  S:(sum level16 level11 level27)
  S:(sum level16 level12 level28)
  S:(sum level16 level13 level29)
  S:(sum level16 level14 level30)
  S:(sum level16 level15 level31)
  S:(sum level16 level16 level32)
  S:(sum level16 level17 level33)
  S:(sum level17 level0 level17)
  S:(sum level17 level1 level18)
  S:(sum level17 level2 level19)
  S:(sum level17 level3 level20)
  S:(sum level17 level4 level21)
  S:(sum level17 level5 level22)
  S:(sum level17 level6 level23)
  S:(sum level17 level7 level24)
  S:(sum level17 level8 level25)
  S:(sum level17 level9 level26)
  S:(sum level17 level10 level27)
  S:(sum level17 level11 level28)
  S:(sum level17 level12 level29)
  S:(sum level17 level13 level30)
  S:(sum level17 level14 level31)
  S:(sum level17 level15 level32)
  S:(sum level17 level16 level33)
  S:(sum level18 level0 level18)
  S:(sum level18 level1 level19)
  S:(sum level18 level2 level20)
  S:(sum level18 level3 level21)
  S:(sum level18 level4 level22)
  S:(sum level18 level5 level23)
  S:(sum level18 level6 level24)
  S:(sum level18 level7 level25)
  S:(sum level18 level8 level26)
  S:(sum level18 level9 level27)
  S:(sum level18 level10 level28)
  S:(sum level18 level11 level29)
  S:(sum level18 level12 level30)
  S:(sum level18 level13 level31)
  S:(sum level18 level14 level32)
  S:(sum level18 level15 level33)
  S:(sum level19 level0 level19)
  S:(sum level19 level1 level20)
  S:(sum level19 level2 level21)
  S:(sum level19 level3 level22)
  S:(sum level19 level4 level23)
  S:(sum level19 level5 level24)
  S:(sum level19 level6 level25)
  S:(sum level19 level7 level26)
  S:(sum level19 level8 level27)
  S:(sum level19 level9 level28)
  S:(sum level19 level10 level29)
  S:(sum level19 level11 level30)
  S:(sum level19 level12 level31)
  S:(sum level19 level13 level32)
  S:(sum level19 level14 level33)
  S:(sum level20 level0 level20)
  S:(sum level20 level1 level21)
  S:(sum level20 level2 level22)
  S:(sum level20 level3 level23)
  S:(sum level20 level4 level24)
  S:(sum level20 level5 level25)
  S:(sum level20 level6 level26)
  S:(sum level20 level7 level27)
  S:(sum level20 level8 level28)
  S:(sum level20 level9 level29)
  S:(sum level20 level10 level30)
  S:(sum level20 level11 level31)
  S:(sum level20 level12 level32)
  S:(sum level20 level13 level33)
  S:(sum level21 level0 level21)
  S:(sum level21 level1 level22)
  S:(sum level21 level2 level23)
  S:(sum level21 level3 level24)
  S:(sum level21 level4 level25)
  S:(sum level21 level5 level26)
  S:(sum level21 level6 level27)
  S:(sum level21 level7 level28)
  S:(sum level21 level8 level29)
  S:(sum level21 level9 level30)
  S:(sum level21 level10 level31)
  S:(sum level21 level11 level32)
  S:(sum level21 level12 level33)
  S:(sum level22 level0 level22)
  S:(sum level22 level1 level23)
  S:(sum level22 level2 level24)
  S:(sum level22 level3 level25)
  S:(sum level22 level4 level26)
  S:(sum level22 level5 level27)
  S:(sum level22 level6 level28)
  S:(sum level22 level7 level29)
  S:(sum level22 level8 level30)
  S:(sum level22 level9 level31)
  S:(sum level22 level10 level32)
  S:(sum level22 level11 level33)
  S:(sum level23 level0 level23)
  S:(sum level23 level1 level24)
  S:(sum level23 level2 level25)
  S:(sum level23 level3 level26)
  S:(sum level23 level4 level27)
  S:(sum level23 level5 level28)
  S:(sum level23 level6 level29)
  S:(sum level23 level7 level30)
  S:(sum level23 level8 level31)
  S:(sum level23 level9 level32)
  S:(sum level23 level10 level33)
  S:(sum level24 level0 level24)
  S:(sum level24 level1 level25)
  S:(sum level24 level2 level26)
  S:(sum level24 level3 level27)
  S:(sum level24 level4 level28)
  S:(sum level24 level5 level29)
  S:(sum level24 level6 level30)
  S:(sum level24 level7 level31)
  S:(sum level24 level8 level32)
  S:(sum level24 level9 level33)
  S:(sum level25 level0 level25)
  S:(sum level25 level1 level26)
  S:(sum level25 level2 level27)
  S:(sum level25 level3 level28)
  S:(sum level25 level4 level29)
  S:(sum level25 level5 level30)
  S:(sum level25 level6 level31)
  S:(sum level25 level7 level32)
  S:(sum level25 level8 level33)
  S:(sum level26 level0 level26)
  S:(sum level26 level1 level27)
  S:(sum level26 level2 level28)
  S:(sum level26 level3 level29)
  S:(sum level26 level4 level30)
  S:(sum level26 level5 level31)
  S:(sum level26 level6 level32)
  S:(sum level26 level7 level33)
  S:(sum level27 level0 level27)
  S:(sum level27 level1 level28)
  S:(sum level27 level2 level29)
  S:(sum level27 level3 level30)
  S:(sum level27 level4 level31)
  S:(sum level27 level5 level32)
  S:(sum level27 level6 level33)
  S:(sum level28 level0 level28)
  S:(sum level28 level1 level29)
  S:(sum level28 level2 level30)
  S:(sum level28 level3 level31)
  S:(sum level28 level4 level32)
  S:(sum level28 level5 level33)
  S:(sum level29 level0 level29)
  S:(sum level29 level1 level30)
  S:(sum level29 level2 level31)
  S:(sum level29 level3 level32)
  S:(sum level29 level4 level33)
  S:(sum level30 level0 level30)
  S:(sum level30 level1 level31)
  S:(sum level30 level2 level32)
  S:(sum level30 level3 level33)
  S:(sum level31 level0 level31)
  S:(sum level31 level1 level32)
  S:(sum level31 level2 level33)
  S:(sum level32 level0 level32)
  S:(sum level32 level1 level33)
  S:(sum level33 level0 level33)
  (at_soil_sample waypoint1)
  (at_soil_sample waypoint2)
  (at_soil_sample waypoint3)
  (at_rock_sample waypoint3)
  (at_soil_sample waypoint4)
  (at_rock_sample waypoint4)
  S:(at_lander general waypoint1)
  (channel_free general)
  (energy rover0 level33)
  (at rover0 waypoint4)
  (available rover0)
  S:(store_of rover0store rover0)
  (empty rover0store)
  S:(equipped_for_soil_analysis rover0)
  S:(equipped_for_rock_analysis rover0)
  S:(equipped_for_imaging rover0)
  S:(can_traverse rover0 waypoint0 waypoint2)
  S:(can_traverse rover0 waypoint2 waypoint0)
  S:(can_traverse rover0 waypoint0 waypoint3)
  S:(can_traverse rover0 waypoint3 waypoint0)
  S:(can_traverse rover0 waypoint1 waypoint0)
  S:(can_traverse rover0 waypoint0 waypoint1)
  S:(can_traverse rover0 waypoint1 waypoint2)
  S:(can_traverse rover0 waypoint2 waypoint1)
  S:(can_traverse rover0 waypoint1 waypoint4)
  S:(can_traverse rover0 waypoint4 waypoint1)
  S:(can_traverse rover0 waypoint3 waypoint1)
  S:(can_traverse rover0 waypoint1 waypoint3)
  S:(can_traverse rover0 waypoint3 waypoint2)
  S:(can_traverse rover0 waypoint2 waypoint3)
  S:(can_traverse rover0 waypoint4 waypoint0)
  S:(can_traverse rover0 waypoint0 waypoint4)
  S:(can_traverse rover0 waypoint4 waypoint2)
  S:(can_traverse rover0 waypoint2 waypoint4)
  S:(can_traverse rover0 waypoint4 waypoint3)
  S:(can_traverse rover0 waypoint3 waypoint4)
  S:(on_board camera0 rover0)
  S:(calibration_target camera0 objective0)
  S:(calibration_target camera0 objective1)
  S:(calibration_target camera0 objective2)
  S:(supports camera0 high_res)
  S:(supports camera0 low_res)
  S:(on_board camera1 rover0)
  S:(calibration_target camera1 objective0)
  S:(calibration_target camera1 objective1)
  S:(calibration_target camera1 objective2)
  S:(supports camera1 low_res)
  S:(on_board camera2 rover0)
  S:(calibration_target camera2 objective0)
  S:(calibration_target camera2 objective1)
  S:(calibration_target camera2 objective2)
  S:(supports camera2 high_res)
  S:(on_board camera3 rover1)
  S:(calibration_target camera3 objective0)
  S:(calibration_target camera3 objective1)
  S:(calibration_target camera3 objective2)
  S:(supports camera3 high_res)
  S:(supports camera3 low_res)
  S:(on_board camera4 rover1)
  S:(calibration_target camera4 objective0)
  S:(calibration_target camera4 objective1)
  S:(calibration_target camera4 objective2)
  S:(supports camera4 low_res)
  S:(on_board camera5 rover1)
  S:(calibration_target camera5 objective0)
  S:(calibration_target camera5 objective1)
  S:(calibration_target camera5 objective2)
  S:(supports camera5 high_res)
  S:(visible_from objective0 waypoint1)
  S:(visible_from objective1 waypoint3)
  S:(visible_from objective1 waypoint1)
  S:(visible_from objective1 waypoint2)
  S:(visible_from objective1 waypoint0)
  S:(visible_from objective1 waypoint4)
  S:(visible_from objective2 waypoint1)
Init[0]:
Goal: (and (W:communicated_soil_data waypoint4) (W:communicated_soil_data waypoint3) (W:communicated_soil_data waypoint2) (W:communicated_soil_data waypoint1) (W:communicated_rock_data waypoint3) (W:communicated_rock_data waypoint4) (W:communicated_image_data objective1 high_res) (W:communicated_image_data objective1 low_res))
Metric: 0
