begin_version
3
end_version
begin_metric
1
end_metric
3
begin_variable
var0
-1
2
I
none-of-those
end_variable
begin_variable
var1
-1
2
G
none-of-those
end_variable
begin_variable
var2
-1
2
P
none-of-those
end_variable
0
begin_state
0
1
1
end_state
begin_goal
1
1 0
end_goal
1
begin_operator
unreachable-op
1
2 0
1
0 1 -1 0
0
end_operator
0
