(buy truck0 goods0 market4 level21 level18 level3)
   (money level21) (on-sale goods0 market4)
   + (on-sale goods0 market5)
(buy truck0 goods0 market4 level23 level18 level5)
   (money level23) (on-sale goods0 market4)
   + (on-sale goods0 market5)
(buy truck0 goods0 market4 level25 level18 level7)
   (money level25) (on-sale goods0 market4)
   + (on-sale goods0 market5)
(buy truck0 goods0 market4 level26 level18 level8)
   (money level26) (on-sale goods0 market4)
   + (at truck0 market3) (on-sale goods0 market5)
(buy truck0 goods0 market4 level27 level18 level9)
   (money level27) (on-sale goods0 market4)
   + (on-sale goods0 market5)
(buy truck0 goods0 market4 level28 level18 level10)
   (money level28) (on-sale goods0 market4)
   + (at truck0 depot0) (on-sale goods0 market5)
(buy truck0 goods0 market4 level29 level18 level11)
   (money level29) (on-sale goods0 market4)
   + (on-sale goods0 market5)
(buy truck0 goods0 market4 level31 level18 level13)
   (money level31) (on-sale goods0 market4)
   + (at truck0 market3) (on-sale goods0 market5)
(buy truck0 goods0 market4 level33 level18 level15)
   (money level33) (on-sale goods0 market4)
   + (at truck0 depot0) (on-sale goods0 market5)
(buy truck0 goods0 market5 level26 level9 level17)
   (money level26) (on-sale goods0 market5)
   + (at truck0 market3)
(buy truck0 goods0 market5 level28 level9 level19)
   (money level28) (on-sale goods0 market5)
   + (at truck0 depot0)
(buy truck0 goods0 market5 level31 level9 level22)
   (money level31) (on-sale goods0 market5)
   + (at truck0 market3)
(buy truck0 goods0 market5 level33 level9 level24)
   (money level33) (on-sale goods0 market5)
   + (at truck0 depot0)
(buy truck0 goods0 market6 level21 level8 level13)
   (money level21) (on-sale goods0 market6)
   + (on-sale goods0 market5)
(buy truck0 goods0 market6 level23 level8 level15)
   (money level23) (on-sale goods0 market6)
   + (on-sale goods0 market5)
(buy truck0 goods0 market6 level25 level8 level17)
   (money level25) (on-sale goods0 market6)
   + (on-sale goods0 market5)
(buy truck0 goods0 market6 level26 level8 level18)
   (money level26) (on-sale goods0 market6)
   + (at truck0 market3) (on-sale goods0 market5)
(buy truck0 goods0 market6 level27 level8 level19)
   (money level27) (on-sale goods0 market6)
   + (on-sale goods0 market5)
(buy truck0 goods0 market6 level28 level8 level20)
   (money level28) (on-sale goods0 market6)
   + (at truck0 depot0) (on-sale goods0 market5)
(buy truck0 goods0 market6 level29 level8 level21)
   (money level29) (on-sale goods0 market6)
   + (on-sale goods0 market5)
(buy truck0 goods0 market6 level31 level8 level23)
   (money level31) (on-sale goods0 market6)
   + (at truck0 market3) (on-sale goods0 market5)
(buy truck0 goods0 market6 level33 level8 level25)
   (money level33) (on-sale goods0 market6)
   + (at truck0 depot0) (on-sale goods0 market5)
(buy truck0 goods1 market1 level21 level5 level16)
   (money level21) (on-sale goods1 market1)
   + (on-sale goods0 market5)
(buy truck0 goods1 market1 level23 level5 level18)
   (money level23) (on-sale goods1 market1)
   + (on-sale goods0 market5)
(buy truck0 goods1 market1 level25 level5 level20)
   (money level25) (on-sale goods1 market1)
   + (on-sale goods0 market5)
(buy truck0 goods1 market1 level27 level5 level22)
   (money level27) (on-sale goods1 market1)
   + (on-sale goods0 market5)
(buy truck0 goods1 market1 level29 level5 level24)
   (money level29) (on-sale goods1 market1)
   + (on-sale goods0 market5)
(buy truck0 goods1 market1 level31 level5 level26)
   (money level31) (on-sale goods1 market1)
   + (at truck0 market3) (on-sale goods0 market5)
(buy truck0 goods1 market1 level33 level5 level28)
   (money level33) (on-sale goods1 market1)
   + (at truck0 depot0) (on-sale goods0 market5)
(buy truck0 goods2 market3 level21 level6 level15)
   (money level21) (on-sale goods2 market3)
   + (on-sale goods0 market5)
(buy truck0 goods2 market3 level23 level6 level17)
   (money level23) (on-sale goods2 market3)
   + (on-sale goods0 market5)
(buy truck0 goods2 market3 level25 level6 level19)
   (money level25) (on-sale goods2 market3)
   + (on-sale goods0 market5)
(buy truck0 goods2 market3 level26 level6 level20)
   (money level26) (on-sale goods2 market3)
   + (at truck0 market3) (on-sale goods0 market5)
(buy truck0 goods2 market3 level27 level6 level21)
   (money level27) (on-sale goods2 market3)
   + (on-sale goods0 market5)
(buy truck0 goods2 market3 level28 level6 level22)
   (money level28) (on-sale goods2 market3)
   + (at truck0 depot0) (on-sale goods0 market5)
(buy truck0 goods2 market3 level29 level6 level23)
   (money level29) (on-sale goods2 market3)
   + (on-sale goods0 market5)
(buy truck0 goods2 market3 level31 level6 level25)
   (money level31) (on-sale goods2 market3)
   + (at truck0 market3) (on-sale goods0 market5)
(buy truck0 goods2 market3 level33 level6 level27)
   (money level33) (on-sale goods2 market3)
   + (at truck0 depot0) (on-sale goods0 market5)
(buy truck0 goods2 market6 level21 level18 level3)
   (money level21) (on-sale goods2 market6)
   + (on-sale goods0 market5)
(buy truck0 goods2 market6 level23 level18 level5)
   (money level23) (on-sale goods2 market6)
   + (on-sale goods0 market5)
(buy truck0 goods2 market6 level25 level18 level7)
   (money level25) (on-sale goods2 market6)
   + (on-sale goods0 market5)
(buy truck0 goods2 market6 level26 level18 level8)
   (money level26) (on-sale goods2 market6)
   + (at truck0 market3) (on-sale goods0 market5)
(buy truck0 goods2 market6 level27 level18 level9)
   (money level27) (on-sale goods2 market6)
   + (on-sale goods0 market5)
(buy truck0 goods2 market6 level28 level18 level10)
   (money level28) (on-sale goods2 market6)
   + (at truck0 depot0) (on-sale goods0 market5)
(buy truck0 goods2 market6 level29 level18 level11)
   (money level29) (on-sale goods2 market6)
   + (on-sale goods0 market5)
(buy truck0 goods2 market6 level31 level18 level13)
   (money level31) (on-sale goods2 market6)
   + (at truck0 market3) (on-sale goods0 market5)
(buy truck0 goods2 market6 level33 level18 level15)
   (money level33) (on-sale goods2 market6)
   + (at truck0 depot0) (on-sale goods0 market5)
(drive truck0 depot0 market3 level21 level2 level19)
   (at truck0 depot0) (money level21)
   + (on-sale goods0 market5)
(drive truck0 depot0 market3 level23 level2 level21)
   (at truck0 depot0) (money level23)
   + (on-sale goods0 market5)
(drive truck0 depot0 market3 level25 level2 level23)
   (at truck0 depot0) (money level25)
   + (on-sale goods0 market5)
(drive truck0 depot0 market3 level27 level2 level25)
   (at truck0 depot0) (money level27)
   + (on-sale goods0 market5)
(drive truck0 depot0 market3 level28 level2 level26)
   (at truck0 depot0) (money level28)
   + (on-sale goods0 market5)
(drive truck0 depot0 market3 level29 level2 level27)
   (at truck0 depot0) (money level29)
   + (on-sale goods0 market5)
(drive truck0 depot0 market3 level33 level2 level31)
   (at truck0 depot0) (money level33)
   + (on-sale goods0 market5)
(drive truck0 depot0 market4 level21 level4 level17)
   (at truck0 depot0) (money level21)
   + (on-sale goods0 market5)
(drive truck0 depot0 market4 level23 level4 level19)
   (at truck0 depot0) (money level23)
   + (on-sale goods0 market5)
(drive truck0 depot0 market4 level25 level4 level21)
   (at truck0 depot0) (money level25)
   + (on-sale goods0 market5)
(drive truck0 depot0 market4 level27 level4 level23)
   (at truck0 depot0) (money level27)
   + (on-sale goods0 market5)
(drive truck0 depot0 market4 level28 level4 level24)
   (at truck0 depot0) (money level28)
   + (on-sale goods0 market5)
(drive truck0 depot0 market4 level29 level4 level25)
   (at truck0 depot0) (money level29)
   + (on-sale goods0 market5)
(drive truck0 depot0 market4 level33 level4 level29)
   (at truck0 depot0) (money level33)
   + (on-sale goods0 market5)
(drive truck0 depot0 market6 level21 level9 level12)
   (at truck0 depot0) (money level21)
   + (on-sale goods0 market5)
(drive truck0 depot0 market6 level23 level9 level14)
   (at truck0 depot0) (money level23)
   + (on-sale goods0 market5)
(drive truck0 depot0 market6 level25 level9 level16)
   (at truck0 depot0) (money level25)
   + (on-sale goods0 market5)
(drive truck0 depot0 market6 level27 level9 level18)
   (at truck0 depot0) (money level27)
   + (on-sale goods0 market5)
(drive truck0 depot0 market6 level28 level9 level19)
   (at truck0 depot0) (money level28)
   + (on-sale goods0 market5)
(drive truck0 depot0 market6 level29 level9 level20)
   (at truck0 depot0) (money level29)
   + (on-sale goods0 market5)
(drive truck0 depot0 market6 level33 level9 level24)
   (at truck0 depot0) (money level33)
   + (on-sale goods0 market5)
(drive truck0 market2 market3 level21 level2 level19)
   (at truck0 market2) (money level21)
   + (on-sale goods0 market5)
(drive truck0 market2 market3 level23 level2 level21)
   (at truck0 market2) (money level23)
   + (on-sale goods0 market5)
(drive truck0 market2 market3 level25 level2 level23)
   (at truck0 market2) (money level25)
   + (on-sale goods0 market5)
(drive truck0 market2 market3 level29 level2 level27)
   (at truck0 market2) (money level29)
   + (on-sale goods0 market5)
(drive truck0 market3 depot0 level21 level2 level19)
   (at truck0 market3) (money level21)
   + (on-sale goods0 market5)
(drive truck0 market3 depot0 level23 level2 level21)
   (at truck0 market3) (money level23)
   + (on-sale goods0 market5)
(drive truck0 market3 depot0 level25 level2 level23)
   (at truck0 market3) (money level25)
   + (on-sale goods0 market5)
(drive truck0 market3 depot0 level26 level2 level24)
   (at truck0 market3) (money level26)
   + (on-sale goods0 market5)
(drive truck0 market3 depot0 level27 level2 level25)
   (at truck0 market3) (money level27)
   + (on-sale goods0 market5)
(drive truck0 market3 depot0 level31 level2 level29)
   (at truck0 market3) (money level31)
   + (on-sale goods0 market5)
(drive truck0 market3 market2 level21 level2 level19)
   (at truck0 market3) (money level21)
   + (on-sale goods0 market5)
(drive truck0 market3 market2 level23 level2 level21)
   (at truck0 market3) (money level23)
   + (on-sale goods0 market5)
(drive truck0 market3 market2 level25 level2 level23)
   (at truck0 market3) (money level25)
   + (on-sale goods0 market5)
(drive truck0 market3 market2 level26 level2 level24)
   (at truck0 market3) (money level26)
   + (on-sale goods0 market5)
(drive truck0 market3 market2 level27 level2 level25)
   (at truck0 market3) (money level27)
   + (on-sale goods0 market5)
(drive truck0 market3 market2 level31 level2 level29)
   (at truck0 market3) (money level31)
   + (on-sale goods0 market5)
(drive truck0 market4 depot0 level21 level4 level17)
   (at truck0 market4) (money level21)
   + (on-sale goods0 market5)
(drive truck0 market4 depot0 level23 level4 level19)
   (at truck0 market4) (money level23)
   + (on-sale goods0 market5)
(drive truck0 market4 depot0 level25 level4 level21)
   (at truck0 market4) (money level25)
   + (on-sale goods0 market5)
(drive truck0 market4 depot0 level29 level4 level25)
   (at truck0 market4) (money level29)
   + (on-sale goods0 market5)
(drive truck0 market4 market1 level21 level14 level7)
   (at truck0 market4) (money level21)
   + (on-sale goods0 market5)
(drive truck0 market4 market1 level23 level14 level9)
   (at truck0 market4) (money level23)
   + (on-sale goods0 market5)
(drive truck0 market4 market1 level25 level14 level11)
   (at truck0 market4) (money level25)
   + (on-sale goods0 market5)
(drive truck0 market4 market1 level29 level14 level15)
   (at truck0 market4) (money level29)
   + (on-sale goods0 market5)
