Mutex groups: 38
 (available goods0 market4) (on-sale goods0 market4) (stored goods1)
 (available goods0 market5) (on-sale goods0 market5) (stored goods1)
 (available goods0 market6) (on-sale goods0 market6) (stored goods1)
 (available goods2 market6) (on-sale goods2 market6) (stored goods1)
 (available goods1 market1) (loaded goods1 truck0) (on-sale goods1 market1) (stored goods1)
 (available goods2 market3) (on-sale goods2 market3) (stored goods1) (stored goods2)
 (loaded goods1 truck0) (money level26) (money level28) (on-sale goods1 market1) (stored goods1)
 (at truck0 depot0) (at truck0 market1) (at truck0 market2) (at truck0 market3) (at truck0 market4) (at truck0 market6) (stored goods1)
 (at truck0 depot0) (at truck0 market2) (at truck0 market3) (at truck0 market4) (at truck0 market6) (loaded goods1 truck0) (stored goods1)
 (at truck0 market1) (at truck0 market3) (at truck0 market6) (money level28) (money level29) (money level33) (stored goods1)
 (at truck0 market1) (at truck0 market3) (money level24) (money level28) (money level29) (money level33) (stored goods1)
 (at truck0 market3) (at truck0 market6) (loaded goods1 truck0) (money level28) (money level29) (money level33) (stored goods1)
 (at truck0 market3) (loaded goods1 truck0) (money level24) (money level28) (money level29) (money level33) (stored goods1)
 (at truck0 depot0) (at truck0 market1) (at truck0 market2) (at truck0 market4) (at truck0 market6) (money level26) (money level31) (stored goods1)
 (at truck0 depot0) (at truck0 market2) (at truck0 market4) (at truck0 market6) (loaded goods1 truck0) (money level26) (money level31) (stored goods1)
 (at truck0 market1) (at truck0 market2) (at truck0 market3) (at truck0 market4) (at truck0 market6) (money level28) (money level33) (stored goods1)
 (at truck0 market2) (at truck0 market3) (at truck0 market4) (at truck0 market6) (loaded goods1 truck0) (money level28) (money level33) (stored goods1)
 (available goods2 market3) (money level24) (money level26) (money level28) (money level29) (money level31) (money level33) (stored goods1) (stored goods2)
 (available goods0 market6) (money level22) (money level24) (money level26) (money level27) (money level28) (money level29) (money level31) (money level33) (stored goods1)
 (available goods1 market1) (loaded goods1 truck0) (money level21) (money level23) (money level25) (money level27) (money level29) (money level31) (money level33) (stored goods1)
 (loaded goods2 truck0) (money level22) (money level24) (money level26) (money level27) (money level28) (money level29) (money level31) (money level33) (stored goods1)
 (at truck0 market1) (at truck0 market2) (at truck0 market4) (at truck0 market6) (money level22) (money level26) (money level27) (money level28) (money level31) (money level33) (stored goods1)
 (at truck0 market2) (at truck0 market4) (at truck0 market6) (loaded goods1 truck0) (money level22) (money level26) (money level27) (money level28) (money level31) (money level33) (stored goods1)
 (available goods0 market5) (money level21) (money level23) (money level25) (money level26) (money level27) (money level28) (money level29) (money level31) (money level33) (stored goods1)
 (money level20) (money level22) (money level24) (money level25) (money level26) (money level27) (money level28) (money level29) (money level31) (money level33) (stored goods1) (stored goods2)
 (at truck0 market1) (at truck0 market6) (money level17) (money level21) (money level22) (money level23) (money level25) (money level26) (money level27) (money level28) (money level29) (money level31) (money level33) (stored goods0) (stored goods1)
 (at truck0 market6) (loaded goods1 truck0) (money level17) (money level21) (money level22) (money level23) (money level25) (money level26) (money level27) (money level28) (money level29) (money level31) (money level33) (stored goods0) (stored goods1)
 (at truck0 market1) (loaded goods0 truck0) (money level13) (money level14) (money level17) (money level18) (money level19) (money level20) (money level21) (money level22) (money level23) (money level24) (money level25) (money level26) (money level27) (money level28) (money level29) (money level31) (money level33) (stored goods0) (stored goods1)
 (at truck0 market1) (available goods0 market4) (available goods2 market6) (loaded goods0 truck0) (money level14) (money level17) (money level18) (money level19) (money level20) (money level21) (money level22) (money level23) (money level24) (money level25) (money level26) (money level27) (money level28) (money level29) (money level31) (money level33) (stored goods0) (stored goods1)
 (available goods0 market4) (available goods2 market6) (loaded goods0 truck0) (loaded goods1 truck0) (money level14) (money level17) (money level18) (money level19) (money level20) (money level21) (money level22) (money level23) (money level24) (money level25) (money level26) (money level27) (money level28) (money level29) (money level31) (money level33) (stored goods0) (stored goods1)
 (at truck0 market1) (available goods0 market4) (available goods2 market6) (money level12) (money level14) (money level16) (money level17) (money level18) (money level19) (money level20) (money level21) (money level22) (money level23) (money level24) (money level25) (money level26) (money level27) (money level28) (money level29) (money level31) (money level33) (stored goods0) (stored goods1)
 (at truck0 market1) (money level12) (money level13) (money level14) (money level16) (money level17) (money level18) (money level19) (money level20) (money level21) (money level22) (money level23) (money level24) (money level25) (money level26) (money level27) (money level28) (money level29) (money level31) (money level33) (money level8) (stored goods0) (stored goods1)
 (available goods0 market4) (available goods2 market6) (loaded goods1 truck0) (money level12) (money level14) (money level16) (money level17) (money level18) (money level19) (money level20) (money level21) (money level22) (money level23) (money level24) (money level25) (money level26) (money level27) (money level28) (money level29) (money level31) (money level33) (stored goods0) (stored goods1)
 (loaded goods0 truck0) (loaded goods1 truck0) (money level13) (money level14) (money level15) (money level17) (money level18) (money level19) (money level20) (money level21) (money level22) (money level23) (money level24) (money level25) (money level26) (money level27) (money level28) (money level29) (money level31) (money level33) (money level9) (stored goods0) (stored goods1)
 (loaded goods1 truck0) (money level11) (money level12) (money level13) (money level14) (money level15) (money level16) (money level17) (money level18) (money level19) (money level20) (money level21) (money level22) (money level23) (money level24) (money level25) (money level26) (money level27) (money level28) (money level29) (money level31) (money level33) (money level8) (money level9) (stored goods0) (stored goods1)
 (loaded goods1 truck0) (money level11) (money level12) (money level13) (money level14) (money level15) (money level16) (money level17) (money level18) (money level19) (money level20) (money level21) (money level22) (money level23) (money level24) (money level25) (money level26) (money level27) (money level28) (money level29) (money level3) (money level31) (money level33) (money level5) (money level7) (money level8) (money level9) (stored goods1)
 (money level10) (money level11) (money level12) (money level13) (money level14) (money level15) (money level16) (money level17) (money level18) (money level19) (money level20) (money level21) (money level22) (money level23) (money level24) (money level25) (money level26) (money level27) (money level28) (money level29) (money level31) (money level33) (money level4) (money level6) (money level8) (money level9) (stored goods0) (stored goods1)
 (money level10) (money level11) (money level12) (money level13) (money level14) (money level15) (money level16) (money level17) (money level18) (money level19) (money level2) (money level20) (money level21) (money level22) (money level23) (money level24) (money level25) (money level26) (money level27) (money level28) (money level29) (money level3) (money level31) (money level33) (money level4) (money level5) (money level6) (money level7) (money level8) (money level9) (stored goods1)

