Reduced 0 -> 0
Domain: appn-pls
Problem: hyptest-test10-s2-99-s4
Require: ff
Type[1]:
    [0]: object, parent: -1
Obj-by-Type:
    [0]:
Obj[0]:
Predicate[163]:
    =: 0 0 :: is-private: 0, owner-param: -1, read: 0, write: 0
    breaker-state-is-unknown_breaker_x5_x6: :: is-private: 0, owner-param: -1, read: 1, write: 1
    breaker-state-is-open_breaker_x5_x6: :: is-private: 0, owner-param: -1, read: 1, write: 1
    breaker-state-is-unknown_breaker_x11_x12: :: is-private: 0, owner-param: -1, read: 1, write: 1
    breaker-state-is-open_breaker_x11_x12: :: is-private: 0, owner-param: -1, read: 1, write: 1
    breaker-state-is-unknown_breaker_x17_x18: :: is-private: 0, owner-param: -1, read: 1, write: 1
    breaker-state-is-open_breaker_x17_x18: :: is-private: 0, owner-param: -1, read: 1, write: 1
    breaker-state-is-unknown_breaker_x19_x20: :: is-private: 0, owner-param: -1, read: 1, write: 1
    breaker-state-is-open_breaker_x19_x20: :: is-private: 0, owner-param: -1, read: 1, write: 1
    breaker-state-is-unknown_breaker_x22_x23: :: is-private: 0, owner-param: -1, read: 1, write: 1
    breaker-state-is-open_breaker_x22_x23: :: is-private: 0, owner-param: -1, read: 1, write: 1
    breaker-state-is-unknown_breaker_x26_x27: :: is-private: 0, owner-param: -1, read: 1, write: 1
    breaker-state-is-open_breaker_x26_x27: :: is-private: 0, owner-param: -1, read: 1, write: 1
    breaker-state-is-unknown_breaker_x28_x29: :: is-private: 0, owner-param: -1, read: 1, write: 1
    breaker-state-is-open_breaker_x28_x29: :: is-private: 0, owner-param: -1, read: 1, write: 1
    breaker-state-is-closed_breaker_x5_x6: :: is-private: 0, owner-param: -1, read: 1, write: 1
    breaker-state-is-closed_breaker_x11_x12: :: is-private: 0, owner-param: -1, read: 1, write: 1
    breaker-state-is-closed_breaker_x17_x18: :: is-private: 0, owner-param: -1, read: 1, write: 1
    breaker-state-is-closed_breaker_x19_x20: :: is-private: 0, owner-param: -1, read: 1, write: 1
    breaker-state-is-closed_breaker_x22_x23: :: is-private: 0, owner-param: -1, read: 0, write: 1
    breaker-state-is-closed_breaker_x26_x27: :: is-private: 0, owner-param: -1, read: 0, write: 1
    breaker-state-is-closed_breaker_x28_x29: :: is-private: 0, owner-param: -1, read: 0, write: 1
    breaker-ar-status-is-unknown_breaker_x11_x12: :: is-private: 0, owner-param: -1, read: 1, write: 1
    breaker-ar-status-is-auto_breaker_x11_x12: :: is-private: 0, owner-param: -1, read: 1, write: 1
    breaker-ar-status-is-unknown_breaker_x17_x18: :: is-private: 0, owner-param: -1, read: 1, write: 1
    breaker-ar-status-is-auto_breaker_x17_x18: :: is-private: 0, owner-param: -1, read: 1, write: 1
    breaker-ar-status-is-unknown_breaker_x19_x20: :: is-private: 0, owner-param: -1, read: 1, write: 1
    breaker-ar-status-is-auto_breaker_x19_x20: :: is-private: 0, owner-param: -1, read: 1, write: 1
    breaker-ar-status-is-non-auto_breaker_x11_x12: :: is-private: 0, owner-param: -1, read: 1, write: 1
    breaker-ar-status-is-non-auto_breaker_x17_x18: :: is-private: 0, owner-param: -1, read: 1, write: 1
    breaker-ar-status-is-non-auto_breaker_x19_x20: :: is-private: 0, owner-param: -1, read: 1, write: 1
    pending_obs1410: :: is-private: 0, owner-param: -1, read: 1, write: 1
    fault-count-2_count-as-fault_breaker_x11_x12_n0: :: is-private: 0, owner-param: -1, read: 1, write: 1
    observed_obs1410: :: is-private: 0, owner-param: -1, read: 1, write: 1
    fault-count-2_count-as-fault_breaker_x11_x12_n1: :: is-private: 0, owner-param: -1, read: 1, write: 1
    line-iso-state-may-have-changed_line_x13_x14_obs1410: :: is-private: 0, owner-param: -1, read: 1, write: 1
    dominates-2_hyp3_count-as-fault_breaker_x11_x12: :: is-private: 0, owner-param: -1, read: 0, write: 1
    dominates-2_hyp2_count-as-fault_breaker_x11_x12: :: is-private: 0, owner-param: -1, read: 0, write: 1
    dominates-2_hyp1_count-as-fault_breaker_x11_x12: :: is-private: 0, owner-param: -1, read: 0, write: 1
    pending_obs1407: :: is-private: 0, owner-param: -1, read: 1, write: 1
    fault-count-2_count-as-fault_breaker_x17_x18_n0: :: is-private: 0, owner-param: -1, read: 1, write: 1
    observed_obs1407: :: is-private: 0, owner-param: -1, read: 1, write: 1
    fault-count-2_count-as-fault_breaker_x17_x18_n1: :: is-private: 0, owner-param: -1, read: 0, write: 1
    line-iso-state-may-have-changed_line_x15_x16_obs1407: :: is-private: 0, owner-param: -1, read: 1, write: 1
    dominates-2_hyp2_count-as-fault_breaker_x17_x18: :: is-private: 0, owner-param: -1, read: 1, write: 1
    dominates-2_hyp1_count-as-fault_breaker_x17_x18: :: is-private: 0, owner-param: -1, read: 1, write: 1
    pending_obs1412: :: is-private: 0, owner-param: -1, read: 1, write: 1
    fault-count-2_count-as-fault_breaker_x19_x20_n0: :: is-private: 0, owner-param: -1, read: 1, write: 1
    observed_obs1412: :: is-private: 0, owner-param: -1, read: 1, write: 1
    fault-count-2_count-as-fault_breaker_x19_x20_n1: :: is-private: 0, owner-param: -1, read: 1, write: 1
    line-iso-state-may-have-changed_line_x13_x14_obs1412: :: is-private: 0, owner-param: -1, read: 1, write: 1
    dominates-2_hyp3_count-as-fault_breaker_x19_x20: :: is-private: 0, owner-param: -1, read: 1, write: 1
    dominates-2_hyp2_count-as-fault_breaker_x19_x20: :: is-private: 0, owner-param: -1, read: 1, write: 1
    breaker-auto-reclose-wait_breaker_x19_x20_obs1412: :: is-private: 0, owner-param: -1, read: 1, write: 1
    pending_obs1415: :: is-private: 0, owner-param: -1, read: 1, write: 1
    fault-count-2_count-as-fault_breaker_x5_x6_n0: :: is-private: 0, owner-param: -1, read: 1, write: 1
    observed_obs1415: :: is-private: 0, owner-param: -1, read: 1, write: 1
    fault-count-2_count-as-fault_breaker_x5_x6_n1: :: is-private: 0, owner-param: -1, read: 0, write: 1
    line-iso-state-may-have-changed_line_x15_x16_obs1415: :: is-private: 0, owner-param: -1, read: 1, write: 1
    dominates-2_hyp3_count-as-fault_breaker_x5_x6: :: is-private: 0, owner-param: -1, read: 0, write: 1
    dominates-2_hyp2_count-as-fault_breaker_x5_x6: :: is-private: 0, owner-param: -1, read: 0, write: 1
    dominates-2_hyp1_count-as-fault_breaker_x5_x6: :: is-private: 0, owner-param: -1, read: 0, write: 1
    pending_obs1416: :: is-private: 0, owner-param: -1, read: 1, write: 1
    observed_obs1416: :: is-private: 0, owner-param: -1, read: 1, write: 1
    line-iso-state-may-have-changed_line_x13_x14_obs1416: :: is-private: 0, owner-param: -1, read: 1, write: 1
    breaker-auto-reopen-wait_breaker_x19_x20_obs1416: :: is-private: 0, owner-param: -1, read: 0, write: 1
    pending_obs1405: :: is-private: 0, owner-param: -1, read: 1, write: 1
    observed_obs1405: :: is-private: 0, owner-param: -1, read: 1, write: 1
    pending_obs1414: :: is-private: 0, owner-param: -1, read: 1, write: 1
    observed_obs1414: :: is-private: 0, owner-param: -1, read: 1, write: 1
    pending_obs1406: :: is-private: 0, owner-param: -1, read: 1, write: 1
    breaker-commanded-open_breaker_x11_x12_obs1406: :: is-private: 0, owner-param: -1, read: 1, write: 1
    observed_obs1406: :: is-private: 0, owner-param: -1, read: 1, write: 1
    pending_obs1398: :: is-private: 0, owner-param: -1, read: 1, write: 1
    breaker-commanded-open_breaker_x19_x20_obs1398: :: is-private: 0, owner-param: -1, read: 1, write: 1
    observed_obs1398: :: is-private: 0, owner-param: -1, read: 1, write: 1
    pending_obs1417: :: is-private: 0, owner-param: -1, read: 1, write: 1
    observed_obs1417: :: is-private: 0, owner-param: -1, read: 1, write: 1
    pending_obs1401: :: is-private: 0, owner-param: -1, read: 1, write: 1
    breaker-commanded-ar-non-auto_breaker_x7_x8_obs1401: :: is-private: 0, owner-param: -1, read: 1, write: 1
    observed_obs1401: :: is-private: 0, owner-param: -1, read: 1, write: 1
    pending_obs1402: :: is-private: 0, owner-param: -1, read: 1, write: 1
    breaker-commanded-ar-non-auto_breaker_x9_x10_obs1402: :: is-private: 0, owner-param: -1, read: 1, write: 1
    observed_obs1402: :: is-private: 0, owner-param: -1, read: 1, write: 1
    pending_obs1411: :: is-private: 0, owner-param: -1, read: 1, write: 1
    breaker-commanded-ar-non-auto_breaker_x11_x12_obs1411: :: is-private: 0, owner-param: -1, read: 0, write: 1
    observed_obs1411: :: is-private: 0, owner-param: -1, read: 1, write: 1
    pending_obs1408: :: is-private: 0, owner-param: -1, read: 1, write: 1
    observed_obs1408: :: is-private: 0, owner-param: -1, read: 1, write: 1
    pending_obs1403: :: is-private: 0, owner-param: -1, read: 1, write: 1
    observed_obs1403: :: is-private: 0, owner-param: -1, read: 1, write: 1
    pending_obs1404: :: is-private: 0, owner-param: -1, read: 1, write: 1
    observed_obs1404: :: is-private: 0, owner-param: -1, read: 1, write: 1
    pending_obs1400: :: is-private: 0, owner-param: -1, read: 1, write: 1
    observed_obs1400: :: is-private: 0, owner-param: -1, read: 1, write: 1
    fault-count-2_count-as-fault_breaker_x3_x4_n0: :: is-private: 0, owner-param: -1, read: 1, write: 1
    fault-count-2_count-as-fault_breaker_x3_x4_n1: :: is-private: 0, owner-param: -1, read: 0, write: 1
    dominates-2_hyp3_count-as-fault_breaker_x3_x4: :: is-private: 0, owner-param: -1, read: 0, write: 1
    dominates-2_hyp2_count-as-fault_breaker_x3_x4: :: is-private: 0, owner-param: -1, read: 0, write: 1
    dominates-2_hyp1_count-as-fault_breaker_x3_x4: :: is-private: 0, owner-param: -1, read: 0, write: 1
    fault-count-2_count-as-fault_breaker_x7_x8_n0: :: is-private: 0, owner-param: -1, read: 1, write: 1
    fault-count-2_count-as-fault_breaker_x7_x8_n1: :: is-private: 0, owner-param: -1, read: 0, write: 1
    fault-count-2_count-as-fault_breaker_x9_x10_n0: :: is-private: 0, owner-param: -1, read: 1, write: 1
    fault-count-2_count-as-fault_breaker_x9_x10_n1: :: is-private: 0, owner-param: -1, read: 0, write: 1
    pending_obs1413: :: is-private: 0, owner-param: -1, read: 1, write: 1
    fault-count-2_count-as-fault_bus_x21_n0: :: is-private: 0, owner-param: -1, read: 1, write: 1
    observed_obs1413: :: is-private: 0, owner-param: -1, read: 1, write: 1
    fault-count-2_count-as-fault_bus_x21_n1: :: is-private: 0, owner-param: -1, read: 0, write: 1
    dominates-2_hyp3_count-as-fault_bus_x21: :: is-private: 0, owner-param: -1, read: 0, write: 1
    dominates-2_hyp2_count-as-fault_bus_x21: :: is-private: 0, owner-param: -1, read: 0, write: 1
    dominates-2_hyp1_count-as-fault_bus_x21: :: is-private: 0, owner-param: -1, read: 0, write: 1
    fault-count-2_count-as-fault_line_x13_x14_n0: :: is-private: 0, owner-param: -1, read: 1, write: 1
    not_line-isolated_line_x13_x14: :: is-private: 0, owner-param: -1, read: 1, write: 1
    line-iso-trip-in-progress_line_x13_x14_obs1410: :: is-private: 0, owner-param: -1, read: 1, write: 1
    not_line-iso-trip-in-progress_line_x13_x14_obs1410: :: is-private: 0, owner-param: -1, read: 1, write: 1
    fault-count-2_count-as-fault_line_x13_x14_n1: :: is-private: 0, owner-param: -1, read: 1, write: 1
    dominates-2_hyp3_count-as-fault_line_x13_x14: :: is-private: 0, owner-param: -1, read: 0, write: 1
    dominates-2_hyp2_count-as-fault_line_x13_x14: :: is-private: 0, owner-param: -1, read: 0, write: 1
    dominates-2_hyp1_count-as-fault_line_x13_x14: :: is-private: 0, owner-param: -1, read: 1, write: 1
    line-iso-trip-in-progress_line_x13_x14_obs1412: :: is-private: 0, owner-param: -1, read: 1, write: 1
    not_line-iso-trip-in-progress_line_x13_x14_obs1412: :: is-private: 0, owner-param: -1, read: 1, write: 1
    fault-count-2_count-as-fault_line_x15_x16_n0: :: is-private: 0, owner-param: -1, read: 1, write: 1
    not_line-isolated_line_x15_x16: :: is-private: 0, owner-param: -1, read: 1, write: 1
    line-iso-trip-in-progress_line_x15_x16_obs1407: :: is-private: 0, owner-param: -1, read: 1, write: 1
    not_line-iso-trip-in-progress_line_x15_x16_obs1407: :: is-private: 0, owner-param: -1, read: 1, write: 1
    fault-count-2_count-as-fault_line_x15_x16_n1: :: is-private: 0, owner-param: -1, read: 1, write: 1
    dominates-2_hyp3_count-as-fault_line_x15_x16: :: is-private: 0, owner-param: -1, read: 1, write: 1
    line-isolated_line_x13_x14: :: is-private: 0, owner-param: -1, read: 1, write: 1
    line-iso-state-changed_line_x13_x14_obs1410: :: is-private: 0, owner-param: -1, read: 0, write: 1
    line-iso-state-changed_line_x13_x14_obs1412: :: is-private: 0, owner-param: -1, read: 0, write: 1
    line-iso-state-changed_line_x13_x14_obs1416: :: is-private: 0, owner-param: -1, read: 0, write: 1
    line-isolated_line_x15_x16: :: is-private: 0, owner-param: -1, read: 1, write: 1
    line-iso-state-changed_line_x15_x16_obs1407: :: is-private: 0, owner-param: -1, read: 1, write: 1
    line-iso-state-changed_line_x15_x16_obs1415: :: is-private: 0, owner-param: -1, read: 0, write: 1
    pending_obs1399: :: is-private: 0, owner-param: -1, read: 1, write: 1
    observed_obs1399: :: is-private: 0, owner-param: -1, read: 1, write: 1
    pending_obs1409: :: is-private: 0, owner-param: -1, read: 1, write: 1
    observed_obs1409: :: is-private: 0, owner-param: -1, read: 1, write: 1
    future_obs1400: :: is-private: 0, owner-param: -1, read: 1, write: 1
    future_obs1401: :: is-private: 0, owner-param: -1, read: 1, write: 1
    future_obs1402: :: is-private: 0, owner-param: -1, read: 1, write: 1
    future_obs1403: :: is-private: 0, owner-param: -1, read: 1, write: 1
    future_obs1404: :: is-private: 0, owner-param: -1, read: 1, write: 1
    future_obs1405: :: is-private: 0, owner-param: -1, read: 1, write: 1
    future_obs1406: :: is-private: 0, owner-param: -1, read: 1, write: 1
    future_obs1407: :: is-private: 0, owner-param: -1, read: 1, write: 1
    future_obs1408: :: is-private: 0, owner-param: -1, read: 1, write: 1
    future_obs1409: :: is-private: 0, owner-param: -1, read: 1, write: 1
    future_obs1410: :: is-private: 0, owner-param: -1, read: 1, write: 1
    future_obs1411: :: is-private: 0, owner-param: -1, read: 1, write: 1
    future_obs1412: :: is-private: 0, owner-param: -1, read: 1, write: 1
    future_obs1413: :: is-private: 0, owner-param: -1, read: 1, write: 1
    future_obs1414: :: is-private: 0, owner-param: -1, read: 1, write: 1
    future_obs1415: :: is-private: 0, owner-param: -1, read: 1, write: 1
    future_obs1416: :: is-private: 0, owner-param: -1, read: 1, write: 1
    future_obs1417: :: is-private: 0, owner-param: -1, read: 1, write: 1
    not_at_end_constraint0: :: is-private: 0, owner-param: -1, read: 1, write: 1
    achieved_constraint0: :: is-private: 0, owner-param: -1, read: 1, write: 1
    not_at_end_constraint1: :: is-private: 0, owner-param: -1, read: 1, write: 1
    achieved_constraint1: :: is-private: 0, owner-param: -1, read: 1, write: 1
    not_at_end_constraint2: :: is-private: 0, owner-param: -1, read: 1, write: 1
    achieved_constraint2: :: is-private: 0, owner-param: -1, read: 0, write: 1
    static-true: :: is-private: 0, owner-param: -1, read: 0, write: 0
Function[0]:
Action[94]:
    breaker-init-state-was-open_breaker_x5_x6: 
        pre: (and (RW:breaker-state-is-unknown_breaker_x5_x6) (RW:not_at_end_constraint0) (RW:not_at_end_constraint1) (RW:not_at_end_constraint2))
        eff: (and (RW:breaker-state-is-open_breaker_x5_x6) (N:RW:breaker-state-is-unknown_breaker_x5_x6))
    breaker-init-state-was-open_breaker_x11_x12: 
        pre: (and (RW:breaker-state-is-unknown_breaker_x11_x12) (RW:not_at_end_constraint0) (RW:not_at_end_constraint1) (RW:not_at_end_constraint2))
        eff: (and (RW:breaker-state-is-open_breaker_x11_x12) (N:RW:breaker-state-is-unknown_breaker_x11_x12))
    breaker-init-state-was-open_breaker_x17_x18: 
        pre: (and (RW:breaker-state-is-unknown_breaker_x17_x18) (RW:not_at_end_constraint0) (RW:not_at_end_constraint1) (RW:not_at_end_constraint2))
        eff: (and (RW:breaker-state-is-open_breaker_x17_x18) (N:RW:breaker-state-is-unknown_breaker_x17_x18))
    breaker-init-state-was-open_breaker_x19_x20: 
        pre: (and (RW:breaker-state-is-unknown_breaker_x19_x20) (RW:not_at_end_constraint0) (RW:not_at_end_constraint1) (RW:not_at_end_constraint2))
        eff: (and (RW:breaker-state-is-open_breaker_x19_x20) (N:RW:breaker-state-is-unknown_breaker_x19_x20))
    breaker-init-state-was-open_breaker_x22_x23: 
        pre: (and (RW:breaker-state-is-unknown_breaker_x22_x23) (RW:not_at_end_constraint0) (RW:not_at_end_constraint1) (RW:not_at_end_constraint2))
        eff: (and (RW:breaker-state-is-open_breaker_x22_x23) (N:RW:breaker-state-is-unknown_breaker_x22_x23))
    breaker-init-state-was-open_breaker_x26_x27: 
        pre: (and (RW:breaker-state-is-unknown_breaker_x26_x27) (RW:not_at_end_constraint0) (RW:not_at_end_constraint1) (RW:not_at_end_constraint2))
        eff: (and (RW:breaker-state-is-open_breaker_x26_x27) (N:RW:breaker-state-is-unknown_breaker_x26_x27))
    breaker-init-state-was-open_breaker_x28_x29: 
        pre: (and (RW:breaker-state-is-unknown_breaker_x28_x29) (RW:not_at_end_constraint0) (RW:not_at_end_constraint1) (RW:not_at_end_constraint2))
        eff: (and (RW:breaker-state-is-open_breaker_x28_x29) (N:RW:breaker-state-is-unknown_breaker_x28_x29))
    breaker-init-state-was-closed_breaker_x5_x6: 
        pre: (and (RW:breaker-state-is-unknown_breaker_x5_x6) (RW:not_at_end_constraint0) (RW:not_at_end_constraint1) (RW:not_at_end_constraint2))
        eff: (and (RW:breaker-state-is-closed_breaker_x5_x6) (N:RW:breaker-state-is-unknown_breaker_x5_x6))
    breaker-init-state-was-closed_breaker_x11_x12: 
        pre: (and (RW:breaker-state-is-unknown_breaker_x11_x12) (RW:not_at_end_constraint0) (RW:not_at_end_constraint1) (RW:not_at_end_constraint2))
        eff: (and (RW:breaker-state-is-closed_breaker_x11_x12) (N:RW:breaker-state-is-unknown_breaker_x11_x12))
    breaker-init-state-was-closed_breaker_x17_x18: 
        pre: (and (RW:breaker-state-is-unknown_breaker_x17_x18) (RW:not_at_end_constraint0) (RW:not_at_end_constraint1) (RW:not_at_end_constraint2))
        eff: (and (RW:breaker-state-is-closed_breaker_x17_x18) (N:RW:breaker-state-is-unknown_breaker_x17_x18))
    breaker-init-state-was-closed_breaker_x19_x20: 
        pre: (and (RW:breaker-state-is-unknown_breaker_x19_x20) (RW:not_at_end_constraint0) (RW:not_at_end_constraint1) (RW:not_at_end_constraint2))
        eff: (and (RW:breaker-state-is-closed_breaker_x19_x20) (N:RW:breaker-state-is-unknown_breaker_x19_x20))
    breaker-init-state-was-closed_breaker_x22_x23: 
        pre: (and (RW:breaker-state-is-unknown_breaker_x22_x23) (RW:not_at_end_constraint0) (RW:not_at_end_constraint1) (RW:not_at_end_constraint2))
        eff: (and (W:breaker-state-is-closed_breaker_x22_x23) (N:RW:breaker-state-is-unknown_breaker_x22_x23))
    breaker-init-state-was-closed_breaker_x26_x27: 
        pre: (and (RW:breaker-state-is-unknown_breaker_x26_x27) (RW:not_at_end_constraint0) (RW:not_at_end_constraint1) (RW:not_at_end_constraint2))
        eff: (and (W:breaker-state-is-closed_breaker_x26_x27) (N:RW:breaker-state-is-unknown_breaker_x26_x27))
    breaker-init-state-was-closed_breaker_x28_x29: 
        pre: (and (RW:breaker-state-is-unknown_breaker_x28_x29) (RW:not_at_end_constraint0) (RW:not_at_end_constraint1) (RW:not_at_end_constraint2))
        eff: (and (W:breaker-state-is-closed_breaker_x28_x29) (N:RW:breaker-state-is-unknown_breaker_x28_x29))
    breaker-init-ar-status-was-auto_breaker_x11_x12: 
        pre: (and (RW:breaker-ar-status-is-unknown_breaker_x11_x12) (RW:not_at_end_constraint0) (RW:not_at_end_constraint1) (RW:not_at_end_constraint2))
        eff: (and (RW:breaker-ar-status-is-auto_breaker_x11_x12) (N:RW:breaker-ar-status-is-unknown_breaker_x11_x12))
    breaker-init-ar-status-was-auto_breaker_x17_x18: 
        pre: (and (RW:breaker-ar-status-is-unknown_breaker_x17_x18) (RW:not_at_end_constraint0) (RW:not_at_end_constraint1) (RW:not_at_end_constraint2))
        eff: (and (RW:breaker-ar-status-is-auto_breaker_x17_x18) (N:RW:breaker-ar-status-is-unknown_breaker_x17_x18))
    breaker-init-ar-status-was-auto_breaker_x19_x20: 
        pre: (and (RW:breaker-ar-status-is-unknown_breaker_x19_x20) (RW:not_at_end_constraint0) (RW:not_at_end_constraint1) (RW:not_at_end_constraint2))
        eff: (and (RW:breaker-ar-status-is-auto_breaker_x19_x20) (N:RW:breaker-ar-status-is-unknown_breaker_x19_x20))
    breaker-init-ar-status-was-non-auto_breaker_x11_x12: 
        pre: (and (RW:breaker-ar-status-is-unknown_breaker_x11_x12) (RW:not_at_end_constraint0) (RW:not_at_end_constraint1) (RW:not_at_end_constraint2))
        eff: (and (RW:breaker-ar-status-is-non-auto_breaker_x11_x12) (N:RW:breaker-ar-status-is-unknown_breaker_x11_x12))
    breaker-init-ar-status-was-non-auto_breaker_x17_x18: 
        pre: (and (RW:breaker-ar-status-is-unknown_breaker_x17_x18) (RW:not_at_end_constraint0) (RW:not_at_end_constraint1) (RW:not_at_end_constraint2))
        eff: (and (RW:breaker-ar-status-is-non-auto_breaker_x17_x18) (N:RW:breaker-ar-status-is-unknown_breaker_x17_x18))
    breaker-init-ar-status-was-non-auto_breaker_x19_x20: 
        pre: (and (RW:breaker-ar-status-is-unknown_breaker_x19_x20) (RW:not_at_end_constraint0) (RW:not_at_end_constraint1) (RW:not_at_end_constraint2))
        eff: (and (RW:breaker-ar-status-is-non-auto_breaker_x19_x20) (N:RW:breaker-ar-status-is-unknown_breaker_x19_x20))
    breaker-open-unexplained_breaker_x11_x12_obs1410_n1_n2: 
        pre: (and (RW:breaker-state-is-closed_breaker_x11_x12) (RW:pending_obs1410) (RW:fault-count-2_count-as-fault_breaker_x11_x12_n1) (RW:not_at_end_constraint0) (RW:not_at_end_constraint1) (RW:not_at_end_constraint2))
        eff: (and (RW:breaker-state-is-open_breaker_x11_x12) (RW:observed_obs1410) (RW:line-iso-state-may-have-changed_line_x13_x14_obs1410) (N:RW:breaker-state-is-closed_breaker_x11_x12) (N:RW:pending_obs1410) (N:RW:fault-count-2_count-as-fault_breaker_x11_x12_n1))
    breaker-open-unexplained_breaker_x17_x18_obs1407_n0_n1: 
        pre: (and (RW:breaker-state-is-closed_breaker_x17_x18) (RW:pending_obs1407) (RW:fault-count-2_count-as-fault_breaker_x17_x18_n0) (RW:not_at_end_constraint0) (RW:not_at_end_constraint1) (RW:not_at_end_constraint2))
        eff: (and (RW:breaker-state-is-open_breaker_x17_x18) (RW:observed_obs1407) (W:fault-count-2_count-as-fault_breaker_x17_x18_n1) (RW:line-iso-state-may-have-changed_line_x15_x16_obs1407) (N:RW:breaker-state-is-closed_breaker_x17_x18) (N:RW:pending_obs1407) (N:RW:fault-count-2_count-as-fault_breaker_x17_x18_n0) (N:RW:dominates-2_hyp2_count-as-fault_breaker_x17_x18) (N:RW:dominates-2_hyp1_count-as-fault_breaker_x17_x18))
    breaker-open-unexplained_breaker_x19_x20_obs1412_n0_n1: 
        pre: (and (RW:breaker-state-is-closed_breaker_x19_x20) (RW:pending_obs1412) (RW:fault-count-2_count-as-fault_breaker_x19_x20_n0) (RW:not_at_end_constraint0) (RW:not_at_end_constraint1) (RW:not_at_end_constraint2))
        eff: (and (RW:breaker-state-is-open_breaker_x19_x20) (RW:observed_obs1412) (RW:fault-count-2_count-as-fault_breaker_x19_x20_n1) (RW:line-iso-state-may-have-changed_line_x13_x14_obs1412) (N:RW:breaker-state-is-closed_breaker_x19_x20) (N:RW:pending_obs1412) (N:RW:fault-count-2_count-as-fault_breaker_x19_x20_n0) (N:RW:dominates-2_hyp3_count-as-fault_breaker_x19_x20) (N:RW:dominates-2_hyp2_count-as-fault_breaker_x19_x20))
    breaker-trip-unexplained_breaker_x11_x12_obs1410_n1_n2: 
        pre: (and (RW:breaker-state-is-closed_breaker_x11_x12) (RW:breaker-ar-status-is-auto_breaker_x11_x12) (RW:pending_obs1410) (RW:fault-count-2_count-as-fault_breaker_x11_x12_n1) (RW:not_at_end_constraint0) (RW:not_at_end_constraint1) (RW:not_at_end_constraint2))
        eff: (and (RW:breaker-state-is-open_breaker_x11_x12) (RW:observed_obs1410) (RW:line-iso-state-may-have-changed_line_x13_x14_obs1410) (N:RW:breaker-state-is-closed_breaker_x11_x12) (N:RW:pending_obs1410) (N:RW:fault-count-2_count-as-fault_breaker_x11_x12_n1))
    breaker-trip-unexplained_breaker_x17_x18_obs1407_n0_n1: 
        pre: (and (RW:breaker-state-is-closed_breaker_x17_x18) (RW:breaker-ar-status-is-auto_breaker_x17_x18) (RW:pending_obs1407) (RW:fault-count-2_count-as-fault_breaker_x17_x18_n0) (RW:not_at_end_constraint0) (RW:not_at_end_constraint1) (RW:not_at_end_constraint2))
        eff: (and (RW:breaker-state-is-open_breaker_x17_x18) (RW:observed_obs1407) (W:fault-count-2_count-as-fault_breaker_x17_x18_n1) (RW:line-iso-state-may-have-changed_line_x15_x16_obs1407) (N:RW:breaker-state-is-closed_breaker_x17_x18) (N:RW:pending_obs1407) (N:RW:fault-count-2_count-as-fault_breaker_x17_x18_n0) (N:RW:dominates-2_hyp2_count-as-fault_breaker_x17_x18) (N:RW:dominates-2_hyp1_count-as-fault_breaker_x17_x18))
    breaker-trip-unexplained_breaker_x19_x20_obs1412_n0_n1: 
        pre: (and (RW:breaker-state-is-closed_breaker_x19_x20) (RW:breaker-ar-status-is-auto_breaker_x19_x20) (RW:pending_obs1412) (RW:fault-count-2_count-as-fault_breaker_x19_x20_n0) (RW:not_at_end_constraint0) (RW:not_at_end_constraint1) (RW:not_at_end_constraint2))
        eff: (and (RW:breaker-state-is-open_breaker_x19_x20) (RW:observed_obs1412) (RW:fault-count-2_count-as-fault_breaker_x19_x20_n1) (RW:line-iso-state-may-have-changed_line_x13_x14_obs1412) (RW:breaker-auto-reclose-wait_breaker_x19_x20_obs1412) (N:RW:breaker-state-is-closed_breaker_x19_x20) (N:RW:pending_obs1412) (N:RW:fault-count-2_count-as-fault_breaker_x19_x20_n0) (N:RW:dominates-2_hyp3_count-as-fault_breaker_x19_x20) (N:RW:dominates-2_hyp2_count-as-fault_breaker_x19_x20))
    breaker-close-unexplained_breaker_x5_x6_obs1415_n0_n1: 
        pre: (and (RW:breaker-state-is-open_breaker_x5_x6) (RW:pending_obs1415) (RW:fault-count-2_count-as-fault_breaker_x5_x6_n0) (RW:not_at_end_constraint0) (RW:not_at_end_constraint1) (RW:not_at_end_constraint2))
        eff: (and (RW:breaker-state-is-closed_breaker_x5_x6) (RW:observed_obs1415) (W:fault-count-2_count-as-fault_breaker_x5_x6_n1) (RW:line-iso-state-may-have-changed_line_x15_x16_obs1415) (N:RW:breaker-state-is-open_breaker_x5_x6) (N:RW:pending_obs1415) (N:RW:fault-count-2_count-as-fault_breaker_x5_x6_n0) (N:W:dominates-2_hyp3_count-as-fault_breaker_x5_x6) (N:W:dominates-2_hyp2_count-as-fault_breaker_x5_x6) (N:W:dominates-2_hyp1_count-as-fault_breaker_x5_x6))
    breaker-close-unexplained_breaker_x19_x20_obs1416_n0_n1: 
        pre: (and (RW:breaker-state-is-open_breaker_x19_x20) (RW:fault-count-2_count-as-fault_breaker_x19_x20_n0) (RW:pending_obs1416) (RW:not_at_end_constraint0) (RW:not_at_end_constraint1) (RW:not_at_end_constraint2))
        eff: (and (RW:breaker-state-is-closed_breaker_x19_x20) (RW:fault-count-2_count-as-fault_breaker_x19_x20_n1) (RW:observed_obs1416) (RW:line-iso-state-may-have-changed_line_x13_x14_obs1416) (N:RW:breaker-state-is-open_breaker_x19_x20) (N:RW:fault-count-2_count-as-fault_breaker_x19_x20_n0) (N:RW:dominates-2_hyp3_count-as-fault_breaker_x19_x20) (N:RW:dominates-2_hyp2_count-as-fault_breaker_x19_x20) (N:RW:pending_obs1416))
    breaker-close-unexplained_breaker_x19_x20_obs1416_n1_n2: 
        pre: (and (RW:breaker-state-is-open_breaker_x19_x20) (RW:fault-count-2_count-as-fault_breaker_x19_x20_n1) (RW:pending_obs1416) (RW:not_at_end_constraint0) (RW:not_at_end_constraint1) (RW:not_at_end_constraint2))
        eff: (and (RW:breaker-state-is-closed_breaker_x19_x20) (RW:observed_obs1416) (RW:line-iso-state-may-have-changed_line_x13_x14_obs1416) (N:RW:breaker-state-is-open_breaker_x19_x20) (N:RW:fault-count-2_count-as-fault_breaker_x19_x20_n1) (N:RW:pending_obs1416))
    breaker-reclose_breaker_x19_x20_obs1416_obs1412: 
        pre: (and (RW:breaker-state-is-open_breaker_x19_x20) (RW:breaker-auto-reclose-wait_breaker_x19_x20_obs1412) (RW:pending_obs1416) (RW:not_at_end_constraint0) (RW:not_at_end_constraint1) (RW:not_at_end_constraint2))
        eff: (and (RW:breaker-state-is-closed_breaker_x19_x20) (RW:observed_obs1416) (RW:line-iso-state-may-have-changed_line_x13_x14_obs1416) (W:breaker-auto-reopen-wait_breaker_x19_x20_obs1416) (N:RW:breaker-state-is-open_breaker_x19_x20) (N:RW:pending_obs1416))
    breaker-command-open_breaker_x7_x8_obs1405: 
        pre: (and (RW:pending_obs1405) (RW:not_at_end_constraint0) (RW:not_at_end_constraint1) (RW:not_at_end_constraint2))
        eff: (and (RW:observed_obs1405) (N:RW:pending_obs1405))
    breaker-command-open_breaker_x9_x10_obs1414: 
        pre: (and (RW:pending_obs1414) (RW:not_at_end_constraint0) (RW:not_at_end_constraint1) (RW:not_at_end_constraint2))
        eff: (and (RW:observed_obs1414) (N:RW:pending_obs1414))
    breaker-command-open_breaker_x11_x12_obs1406: 
        pre: (and (RW:pending_obs1406) (RW:not_at_end_constraint0) (RW:not_at_end_constraint1) (RW:not_at_end_constraint2))
        eff: (and (RW:breaker-commanded-open_breaker_x11_x12_obs1406) (RW:observed_obs1406) (N:RW:pending_obs1406))
    breaker-command-open_breaker_x19_x20_obs1398: 
        pre: (and (RW:pending_obs1398) (RW:not_at_end_constraint0) (RW:not_at_end_constraint1) (RW:not_at_end_constraint2))
        eff: (and (RW:breaker-commanded-open_breaker_x19_x20_obs1398) (RW:observed_obs1398) (N:RW:pending_obs1398))
    breaker-open-on-command_breaker_x11_x12_obs1410_obs1406: 
        pre: (and (RW:pending_obs1410) (RW:breaker-commanded-open_breaker_x11_x12_obs1406) (RW:not_at_end_constraint0) (RW:not_at_end_constraint1) (RW:not_at_end_constraint2))
        eff: (and (RW:breaker-state-is-open_breaker_x11_x12) (RW:observed_obs1410) (RW:line-iso-state-may-have-changed_line_x13_x14_obs1410) (N:RW:breaker-state-is-unknown_breaker_x11_x12) (N:RW:breaker-state-is-closed_breaker_x11_x12) (N:RW:pending_obs1410))
    breaker-open-on-command_breaker_x19_x20_obs1412_obs1398: 
        pre: (and (RW:pending_obs1412) (RW:breaker-commanded-open_breaker_x19_x20_obs1398) (RW:not_at_end_constraint0) (RW:not_at_end_constraint1) (RW:not_at_end_constraint2))
        eff: (and (RW:breaker-state-is-open_breaker_x19_x20) (RW:observed_obs1412) (RW:line-iso-state-may-have-changed_line_x13_x14_obs1412) (N:RW:breaker-state-is-unknown_breaker_x19_x20) (N:RW:breaker-state-is-closed_breaker_x19_x20) (N:RW:pending_obs1412))
    breaker-command-ar-non-auto-1_breaker_x1_x2_obs1417: 
        pre: (and (RW:pending_obs1417) (RW:not_at_end_constraint0) (RW:not_at_end_constraint1) (RW:not_at_end_constraint2))
        eff: (and (RW:observed_obs1417) (N:RW:pending_obs1417))
    breaker-command-ar-non-auto-1_breaker_x7_x8_obs1401: 
        pre: (and (RW:pending_obs1401) (RW:not_at_end_constraint0) (RW:not_at_end_constraint1) (RW:not_at_end_constraint2))
        eff: (and (RW:breaker-commanded-ar-non-auto_breaker_x7_x8_obs1401) (RW:observed_obs1401) (N:RW:pending_obs1401))
    breaker-command-ar-non-auto-1_breaker_x9_x10_obs1402: 
        pre: (and (RW:pending_obs1402) (RW:not_at_end_constraint0) (RW:not_at_end_constraint1) (RW:not_at_end_constraint2))
        eff: (and (RW:breaker-commanded-ar-non-auto_breaker_x9_x10_obs1402) (RW:observed_obs1402) (N:RW:pending_obs1402))
    breaker-command-ar-non-auto-1_breaker_x11_x12_obs1411: 
        pre: (and (RW:pending_obs1411) (RW:not_at_end_constraint0) (RW:not_at_end_constraint1) (RW:not_at_end_constraint2))
        eff: (and (W:breaker-commanded-ar-non-auto_breaker_x11_x12_obs1411) (RW:observed_obs1411) (N:RW:pending_obs1411))
    breaker-ar-status-non-auto-1_breaker_x7_x8_obs1403_obs1401: 
        pre: (and (RW:breaker-commanded-ar-non-auto_breaker_x7_x8_obs1401) (RW:pending_obs1403) (RW:not_at_end_constraint0) (RW:not_at_end_constraint1) (RW:not_at_end_constraint2))
        eff: (and (RW:observed_obs1403) (N:RW:pending_obs1403))
    breaker-ar-status-non-auto-1_breaker_x9_x10_obs1404_obs1402: 
        pre: (and (RW:breaker-commanded-ar-non-auto_breaker_x9_x10_obs1402) (RW:pending_obs1404) (RW:not_at_end_constraint0) (RW:not_at_end_constraint1) (RW:not_at_end_constraint2))
        eff: (and (RW:observed_obs1404) (N:RW:pending_obs1404))
    breaker-ar-status-non-auto-unexplained-1_breaker_x3_x4_obs1408_n0_n1: 
        pre: (and (RW:pending_obs1408) (RW:fault-count-2_count-as-fault_breaker_x3_x4_n0) (RW:not_at_end_constraint0) (RW:not_at_end_constraint1) (RW:not_at_end_constraint2))
        eff: (and (RW:observed_obs1408) (W:fault-count-2_count-as-fault_breaker_x3_x4_n1) (N:RW:pending_obs1408) (N:RW:fault-count-2_count-as-fault_breaker_x3_x4_n0) (N:W:dominates-2_hyp3_count-as-fault_breaker_x3_x4) (N:W:dominates-2_hyp2_count-as-fault_breaker_x3_x4) (N:W:dominates-2_hyp1_count-as-fault_breaker_x3_x4))
    breaker-ar-status-non-auto-unexplained-1_breaker_x7_x8_obs1403_n0_n1: 
        pre: (and (RW:pending_obs1403) (RW:fault-count-2_count-as-fault_breaker_x7_x8_n0) (RW:not_at_end_constraint0) (RW:not_at_end_constraint1) (RW:not_at_end_constraint2))
        eff: (and (RW:observed_obs1403) (W:fault-count-2_count-as-fault_breaker_x7_x8_n1) (N:RW:pending_obs1403) (N:RW:fault-count-2_count-as-fault_breaker_x7_x8_n0))
    breaker-ar-status-non-auto-unexplained-1_breaker_x9_x10_obs1404_n0_n1: 
        pre: (and (RW:pending_obs1404) (RW:fault-count-2_count-as-fault_breaker_x9_x10_n0) (RW:not_at_end_constraint0) (RW:not_at_end_constraint1) (RW:not_at_end_constraint2))
        eff: (and (RW:observed_obs1404) (W:fault-count-2_count-as-fault_breaker_x9_x10_n1) (N:RW:pending_obs1404) (N:RW:fault-count-2_count-as-fault_breaker_x9_x10_n0))
    breaker-ar-status-non-auto-unexplained-1_breaker_x11_x12_obs1400_n0_n1: 
        pre: (and (RW:fault-count-2_count-as-fault_breaker_x11_x12_n0) (RW:pending_obs1400) (RW:not_at_end_constraint0) (RW:not_at_end_constraint1) (RW:not_at_end_constraint2))
        eff: (and (RW:breaker-ar-status-is-non-auto_breaker_x11_x12) (RW:fault-count-2_count-as-fault_breaker_x11_x12_n1) (RW:observed_obs1400) (N:RW:breaker-ar-status-is-auto_breaker_x11_x12) (N:RW:fault-count-2_count-as-fault_breaker_x11_x12_n0) (N:W:dominates-2_hyp3_count-as-fault_breaker_x11_x12) (N:W:dominates-2_hyp2_count-as-fault_breaker_x11_x12) (N:W:dominates-2_hyp1_count-as-fault_breaker_x11_x12) (N:RW:pending_obs1400))
    bus-voltage-goes-normal-unexplained_bus_x21_obs1413_n0_n1: 
        pre: (and (RW:pending_obs1413) (RW:fault-count-2_count-as-fault_bus_x21_n0) (RW:not_at_end_constraint0) (RW:not_at_end_constraint1) (RW:not_at_end_constraint2))
        eff: (and (RW:observed_obs1413) (W:fault-count-2_count-as-fault_bus_x21_n1) (N:RW:pending_obs1413) (N:RW:fault-count-2_count-as-fault_bus_x21_n0) (N:W:dominates-2_hyp3_count-as-fault_bus_x21) (N:W:dominates-2_hyp2_count-as-fault_bus_x21) (N:W:dominates-2_hyp1_count-as-fault_bus_x21))
    line-iso-trip-first-breaker-simple-trip-1_line_x13_x14_breaker_x11_x12_breaker_x11_x12_obs1410_n1_n2: 
        pre: (and (RW:breaker-state-is-closed_breaker_x11_x12) (RW:breaker-ar-status-is-auto_breaker_x11_x12) (RW:pending_obs1410) (RW:not_line-isolated_line_x13_x14) (RW:fault-count-2_count-as-fault_line_x13_x14_n1) (RW:not_at_end_constraint0) (RW:not_at_end_constraint1) (RW:not_at_end_constraint2))
        eff: (and (RW:breaker-state-is-open_breaker_x11_x12) (RW:observed_obs1410) (RW:line-iso-trip-in-progress_line_x13_x14_obs1410) (N:RW:breaker-state-is-closed_breaker_x11_x12) (N:RW:pending_obs1410) (N:RW:not_line-iso-trip-in-progress_line_x13_x14_obs1410) (N:RW:fault-count-2_count-as-fault_line_x13_x14_n1) (N:RW:dominates-2_hyp1_count-as-fault_line_x13_x14))
    line-iso-trip-first-breaker-simple-trip-1_line_x13_x14_breaker_x19_x20_breaker_x19_x20_obs1412_n1_n2: 
        pre: (and (RW:breaker-state-is-closed_breaker_x19_x20) (RW:breaker-ar-status-is-auto_breaker_x19_x20) (RW:pending_obs1412) (RW:not_line-isolated_line_x13_x14) (RW:fault-count-2_count-as-fault_line_x13_x14_n1) (RW:not_at_end_constraint0) (RW:not_at_end_constraint1) (RW:not_at_end_constraint2))
        eff: (and (RW:breaker-state-is-open_breaker_x19_x20) (RW:observed_obs1412) (RW:breaker-auto-reclose-wait_breaker_x19_x20_obs1412) (RW:line-iso-trip-in-progress_line_x13_x14_obs1412) (N:RW:breaker-state-is-closed_breaker_x19_x20) (N:RW:pending_obs1412) (N:RW:fault-count-2_count-as-fault_line_x13_x14_n1) (N:RW:dominates-2_hyp1_count-as-fault_line_x13_x14) (N:RW:not_line-iso-trip-in-progress_line_x13_x14_obs1412))
    line-iso-trip-first-breaker-simple-trip-1_line_x15_x16_breaker_x17_x18_breaker_x17_x18_obs1407_n0_n1: 
        pre: (and (RW:breaker-state-is-closed_breaker_x17_x18) (RW:breaker-ar-status-is-auto_breaker_x17_x18) (RW:pending_obs1407) (RW:fault-count-2_count-as-fault_line_x15_x16_n0) (RW:not_line-isolated_line_x15_x16) (RW:not_at_end_constraint0) (RW:not_at_end_constraint1) (RW:not_at_end_constraint2))
        eff: (and (RW:breaker-state-is-open_breaker_x17_x18) (RW:observed_obs1407) (RW:line-iso-trip-in-progress_line_x15_x16_obs1407) (RW:fault-count-2_count-as-fault_line_x15_x16_n1) (N:RW:breaker-state-is-closed_breaker_x17_x18) (N:RW:pending_obs1407) (N:RW:fault-count-2_count-as-fault_line_x15_x16_n0) (N:RW:not_line-iso-trip-in-progress_line_x15_x16_obs1407) (N:RW:dominates-2_hyp3_count-as-fault_line_x15_x16))
    line-iso-trip-first-breaker-simple-trip-2_line_x13_x14_breaker_x11_x12_breaker_x11_x12_obs1410_n1_n2: 
        pre: (and (RW:breaker-state-is-closed_breaker_x11_x12) (RW:breaker-ar-status-is-non-auto_breaker_x11_x12) (RW:pending_obs1410) (RW:not_line-isolated_line_x13_x14) (RW:fault-count-2_count-as-fault_line_x13_x14_n1) (RW:not_at_end_constraint0) (RW:not_at_end_constraint1) (RW:not_at_end_constraint2))
        eff: (and (RW:breaker-state-is-open_breaker_x11_x12) (RW:observed_obs1410) (RW:line-iso-trip-in-progress_line_x13_x14_obs1410) (N:RW:breaker-state-is-closed_breaker_x11_x12) (N:RW:pending_obs1410) (N:RW:not_line-iso-trip-in-progress_line_x13_x14_obs1410) (N:RW:fault-count-2_count-as-fault_line_x13_x14_n1) (N:RW:dominates-2_hyp1_count-as-fault_line_x13_x14))
    line-iso-trip-first-breaker-simple-trip-2_line_x13_x14_breaker_x19_x20_breaker_x19_x20_obs1412_n1_n2: 
        pre: (and (RW:breaker-state-is-closed_breaker_x19_x20) (RW:breaker-ar-status-is-non-auto_breaker_x19_x20) (RW:pending_obs1412) (RW:not_line-isolated_line_x13_x14) (RW:fault-count-2_count-as-fault_line_x13_x14_n1) (RW:not_at_end_constraint0) (RW:not_at_end_constraint1) (RW:not_at_end_constraint2))
        eff: (and (RW:breaker-state-is-open_breaker_x19_x20) (RW:observed_obs1412) (RW:line-iso-trip-in-progress_line_x13_x14_obs1412) (N:RW:breaker-state-is-closed_breaker_x19_x20) (N:RW:pending_obs1412) (N:RW:fault-count-2_count-as-fault_line_x13_x14_n1) (N:RW:dominates-2_hyp1_count-as-fault_line_x13_x14) (N:RW:not_line-iso-trip-in-progress_line_x13_x14_obs1412))
    line-iso-trip-first-breaker-simple-trip-2_line_x15_x16_breaker_x17_x18_breaker_x17_x18_obs1407_n0_n1: 
        pre: (and (RW:breaker-state-is-closed_breaker_x17_x18) (RW:breaker-ar-status-is-non-auto_breaker_x17_x18) (RW:pending_obs1407) (RW:fault-count-2_count-as-fault_line_x15_x16_n0) (RW:not_line-isolated_line_x15_x16) (RW:not_at_end_constraint0) (RW:not_at_end_constraint1) (RW:not_at_end_constraint2))
        eff: (and (RW:breaker-state-is-open_breaker_x17_x18) (RW:observed_obs1407) (RW:line-iso-trip-in-progress_line_x15_x16_obs1407) (RW:fault-count-2_count-as-fault_line_x15_x16_n1) (N:RW:breaker-state-is-closed_breaker_x17_x18) (N:RW:pending_obs1407) (N:RW:fault-count-2_count-as-fault_line_x15_x16_n0) (N:RW:not_line-iso-trip-in-progress_line_x15_x16_obs1407) (N:RW:dominates-2_hyp3_count-as-fault_line_x15_x16))
    line-finish-iso-trip-3_line_x13_x14_breaker_x22_x23_breaker_x11_x12_breaker_x19_x20_obs1410: 
        pre: (and (RW:breaker-state-is-open_breaker_x11_x12) (RW:breaker-state-is-open_breaker_x19_x20) (RW:breaker-state-is-open_breaker_x22_x23) (RW:line-iso-trip-in-progress_line_x13_x14_obs1410) (RW:not_at_end_constraint0) (RW:not_at_end_constraint1) (RW:not_at_end_constraint2))
        eff: (and (RW:not_line-iso-trip-in-progress_line_x13_x14_obs1410) (RW:line-isolated_line_x13_x14) (W:line-iso-state-changed_line_x13_x14_obs1410) (N:RW:not_line-isolated_line_x13_x14) (N:RW:line-iso-trip-in-progress_line_x13_x14_obs1410))
    line-finish-iso-trip-3_line_x13_x14_breaker_x22_x23_breaker_x11_x12_breaker_x19_x20_obs1412: 
        pre: (and (RW:breaker-state-is-open_breaker_x11_x12) (RW:breaker-state-is-open_breaker_x19_x20) (RW:breaker-state-is-open_breaker_x22_x23) (RW:line-iso-trip-in-progress_line_x13_x14_obs1412) (RW:not_at_end_constraint0) (RW:not_at_end_constraint1) (RW:not_at_end_constraint2))
        eff: (and (RW:not_line-iso-trip-in-progress_line_x13_x14_obs1412) (RW:line-isolated_line_x13_x14) (W:line-iso-state-changed_line_x13_x14_obs1412) (N:RW:not_line-isolated_line_x13_x14) (N:RW:line-iso-trip-in-progress_line_x13_x14_obs1412))
    line-finish-iso-trip-4_line_x15_x16_breaker_x17_x18_breaker_x26_x27_breaker_x28_x29_breaker_x5_x6_obs1407: 
        pre: (and (RW:breaker-state-is-open_breaker_x5_x6) (RW:breaker-state-is-open_breaker_x17_x18) (RW:breaker-state-is-open_breaker_x26_x27) (RW:breaker-state-is-open_breaker_x28_x29) (RW:line-iso-trip-in-progress_line_x15_x16_obs1407) (RW:not_at_end_constraint0) (RW:not_at_end_constraint1) (RW:not_at_end_constraint2))
        eff: (and (RW:not_line-iso-trip-in-progress_line_x15_x16_obs1407) (RW:line-isolated_line_x15_x16) (RW:line-iso-state-changed_line_x15_x16_obs1407) (N:RW:not_line-isolated_line_x15_x16) (N:RW:line-iso-trip-in-progress_line_x15_x16_obs1407))
    line-set-state-isolated-3_line_x13_x14_breaker_x22_x23_breaker_x11_x12_breaker_x19_x20_obs1410: 
        pre: (and (RW:breaker-state-is-open_breaker_x11_x12) (RW:breaker-state-is-open_breaker_x19_x20) (RW:breaker-state-is-open_breaker_x22_x23) (RW:line-iso-state-may-have-changed_line_x13_x14_obs1410) (RW:not_at_end_constraint0) (RW:not_at_end_constraint1) (RW:not_at_end_constraint2))
        eff: (and (RW:line-isolated_line_x13_x14) (W:line-iso-state-changed_line_x13_x14_obs1410) (N:RW:not_line-isolated_line_x13_x14))
    line-set-state-isolated-3_line_x13_x14_breaker_x22_x23_breaker_x11_x12_breaker_x19_x20_obs1412: 
        pre: (and (RW:breaker-state-is-open_breaker_x11_x12) (RW:breaker-state-is-open_breaker_x19_x20) (RW:breaker-state-is-open_breaker_x22_x23) (RW:line-iso-state-may-have-changed_line_x13_x14_obs1412) (RW:not_at_end_constraint0) (RW:not_at_end_constraint1) (RW:not_at_end_constraint2))
        eff: (and (RW:line-isolated_line_x13_x14) (W:line-iso-state-changed_line_x13_x14_obs1412) (N:RW:not_line-isolated_line_x13_x14))
    line-set-state-isolated-4_line_x15_x16_breaker_x17_x18_breaker_x26_x27_breaker_x28_x29_breaker_x5_x6_obs1407: 
        pre: (and (RW:breaker-state-is-open_breaker_x5_x6) (RW:breaker-state-is-open_breaker_x17_x18) (RW:breaker-state-is-open_breaker_x26_x27) (RW:breaker-state-is-open_breaker_x28_x29) (RW:line-iso-state-may-have-changed_line_x15_x16_obs1407) (RW:not_at_end_constraint0) (RW:not_at_end_constraint1) (RW:not_at_end_constraint2))
        eff: (and (RW:line-isolated_line_x15_x16) (RW:line-iso-state-changed_line_x15_x16_obs1407) (N:RW:not_line-isolated_line_x15_x16))
    line-re-energise-isolated-3c_line_x13_x14_breaker_x22_x23_breaker_x11_x12_breaker_x19_x20_obs1410: 
        pre: (and (RW:breaker-state-is-closed_breaker_x19_x20) (RW:line-iso-state-may-have-changed_line_x13_x14_obs1410) (RW:line-isolated_line_x13_x14) (RW:not_at_end_constraint0) (RW:not_at_end_constraint1) (RW:not_at_end_constraint2))
        eff: (and (RW:not_line-isolated_line_x13_x14) (W:line-iso-state-changed_line_x13_x14_obs1410) (N:RW:line-isolated_line_x13_x14))
    line-re-energise-isolated-3c_line_x13_x14_breaker_x22_x23_breaker_x11_x12_breaker_x19_x20_obs1412: 
        pre: (and (RW:breaker-state-is-closed_breaker_x19_x20) (RW:line-iso-state-may-have-changed_line_x13_x14_obs1412) (RW:line-isolated_line_x13_x14) (RW:not_at_end_constraint0) (RW:not_at_end_constraint1) (RW:not_at_end_constraint2))
        eff: (and (RW:not_line-isolated_line_x13_x14) (W:line-iso-state-changed_line_x13_x14_obs1412) (N:RW:line-isolated_line_x13_x14))
    line-re-energise-isolated-3c_line_x13_x14_breaker_x22_x23_breaker_x11_x12_breaker_x19_x20_obs1416: 
        pre: (and (RW:breaker-state-is-closed_breaker_x19_x20) (RW:line-iso-state-may-have-changed_line_x13_x14_obs1416) (RW:line-isolated_line_x13_x14) (RW:not_at_end_constraint0) (RW:not_at_end_constraint1) (RW:not_at_end_constraint2))
        eff: (and (RW:not_line-isolated_line_x13_x14) (W:line-iso-state-changed_line_x13_x14_obs1416) (N:RW:line-isolated_line_x13_x14))
    line-re-energise-isolated-4d_line_x15_x16_breaker_x17_x18_breaker_x26_x27_breaker_x28_x29_breaker_x5_x6_obs1407: 
        pre: (and (RW:breaker-state-is-closed_breaker_x5_x6) (RW:line-iso-state-may-have-changed_line_x15_x16_obs1407) (RW:line-isolated_line_x15_x16) (RW:not_at_end_constraint0) (RW:not_at_end_constraint1) (RW:not_at_end_constraint2))
        eff: (and (RW:not_line-isolated_line_x15_x16) (RW:line-iso-state-changed_line_x15_x16_obs1407) (N:RW:line-isolated_line_x15_x16))
    line-re-energise-isolated-4d_line_x15_x16_breaker_x17_x18_breaker_x26_x27_breaker_x28_x29_breaker_x5_x6_obs1415: 
        pre: (and (RW:breaker-state-is-closed_breaker_x5_x6) (RW:line-iso-state-may-have-changed_line_x15_x16_obs1415) (RW:line-isolated_line_x15_x16) (RW:not_at_end_constraint0) (RW:not_at_end_constraint1) (RW:not_at_end_constraint2))
        eff: (and (RW:not_line-isolated_line_x15_x16) (W:line-iso-state-changed_line_x15_x16_obs1415) (N:RW:line-isolated_line_x15_x16))
    line-init-state-isolated-3_line_x13_x14_breaker_x22_x23_breaker_x11_x12_breaker_x19_x20: 
        pre: (and (RW:breaker-state-is-open_breaker_x11_x12) (RW:breaker-state-is-open_breaker_x19_x20) (RW:breaker-state-is-open_breaker_x22_x23) (RW:not_at_end_constraint0) (RW:not_at_end_constraint1) (RW:not_at_end_constraint2))
        eff: (and (RW:line-isolated_line_x13_x14) (N:RW:not_line-isolated_line_x13_x14))
    line-init-state-isolated-4_line_x15_x16_breaker_x17_x18_breaker_x26_x27_breaker_x28_x29_breaker_x5_x6: 
        pre: (and (RW:breaker-state-is-open_breaker_x5_x6) (RW:breaker-state-is-open_breaker_x17_x18) (RW:breaker-state-is-open_breaker_x26_x27) (RW:breaker-state-is-open_breaker_x28_x29) (RW:not_at_end_constraint0) (RW:not_at_end_constraint1) (RW:not_at_end_constraint2))
        eff: (and (RW:line-isolated_line_x15_x16) (N:RW:not_line-isolated_line_x15_x16))
    line-voltage-goes-to-zero-unexplained-1_line_x13_x14_obs1399_n0_n1: 
        pre: (and (RW:fault-count-2_count-as-fault_line_x13_x14_n0) (RW:pending_obs1399) (RW:not_at_end_constraint0) (RW:not_at_end_constraint1) (RW:not_at_end_constraint2))
        eff: (and (RW:fault-count-2_count-as-fault_line_x13_x14_n1) (RW:observed_obs1399) (N:RW:fault-count-2_count-as-fault_line_x13_x14_n0) (N:W:dominates-2_hyp3_count-as-fault_line_x13_x14) (N:W:dominates-2_hyp2_count-as-fault_line_x13_x14) (N:RW:pending_obs1399))
    line-voltage-goes-to-zero-unexplained-1_line_x15_x16_obs1409_n0_n1: 
        pre: (and (RW:fault-count-2_count-as-fault_line_x15_x16_n0) (RW:pending_obs1409) (RW:not_at_end_constraint0) (RW:not_at_end_constraint1) (RW:not_at_end_constraint2))
        eff: (and (RW:fault-count-2_count-as-fault_line_x15_x16_n1) (RW:observed_obs1409) (N:RW:fault-count-2_count-as-fault_line_x15_x16_n0) (N:RW:dominates-2_hyp3_count-as-fault_line_x15_x16) (N:RW:pending_obs1409))
    line-voltage-goes-to-zero-unexplained-1_line_x15_x16_obs1409_n1_n2: 
        pre: (and (RW:fault-count-2_count-as-fault_line_x15_x16_n1) (RW:pending_obs1409) (RW:not_at_end_constraint0) (RW:not_at_end_constraint1) (RW:not_at_end_constraint2))
        eff: (and (RW:observed_obs1409) (N:RW:fault-count-2_count-as-fault_line_x15_x16_n1) (N:RW:pending_obs1409))
    line-voltage-goes-to-zero-when-isolated-1_line_x15_x16_obs1409_obs1407: 
        pre: (and (RW:line-isolated_line_x15_x16) (RW:line-iso-state-changed_line_x15_x16_obs1407) (RW:pending_obs1409) (RW:not_at_end_constraint0) (RW:not_at_end_constraint1) (RW:not_at_end_constraint2))
        eff: (and (RW:observed_obs1409) (N:RW:pending_obs1409))
    advance-to-obs_obs1400: 
        pre: (and (RW:observed_obs1398) (RW:observed_obs1399) (RW:future_obs1400) (RW:not_at_end_constraint0) (RW:not_at_end_constraint1) (RW:not_at_end_constraint2))
        eff: (and (RW:pending_obs1400) (N:RW:future_obs1400))
    advance-to-obs_obs1401: 
        pre: (and (RW:observed_obs1400) (RW:future_obs1401) (RW:not_at_end_constraint0) (RW:not_at_end_constraint1) (RW:not_at_end_constraint2))
        eff: (and (RW:pending_obs1401) (N:RW:future_obs1401))
    advance-to-obs_obs1402: 
        pre: (and (RW:observed_obs1400) (RW:future_obs1402) (RW:not_at_end_constraint0) (RW:not_at_end_constraint1) (RW:not_at_end_constraint2))
        eff: (and (RW:pending_obs1402) (N:RW:future_obs1402))
    advance-to-obs_obs1403: 
        pre: (and (RW:observed_obs1401) (RW:observed_obs1402) (RW:future_obs1403) (RW:not_at_end_constraint0) (RW:not_at_end_constraint1) (RW:not_at_end_constraint2))
        eff: (and (RW:pending_obs1403) (N:RW:future_obs1403))
    advance-to-obs_obs1404: 
        pre: (and (RW:observed_obs1403) (RW:future_obs1404) (RW:not_at_end_constraint0) (RW:not_at_end_constraint1) (RW:not_at_end_constraint2))
        eff: (and (RW:pending_obs1404) (N:RW:future_obs1404))
    advance-to-obs_obs1405: 
        pre: (and (RW:observed_obs1404) (RW:future_obs1405) (RW:not_at_end_constraint0) (RW:not_at_end_constraint1) (RW:not_at_end_constraint2))
        eff: (and (RW:pending_obs1405) (N:RW:future_obs1405))
    advance-to-obs_obs1406: 
        pre: (and (RW:observed_obs1405) (RW:future_obs1406) (RW:not_at_end_constraint0) (RW:not_at_end_constraint1) (RW:not_at_end_constraint2))
        eff: (and (RW:pending_obs1406) (N:RW:future_obs1406))
    advance-to-obs_obs1407: 
        pre: (and (RW:observed_obs1406) (RW:future_obs1407) (RW:not_at_end_constraint0) (RW:not_at_end_constraint1) (RW:not_at_end_constraint2))
        eff: (and (RW:pending_obs1407) (N:RW:future_obs1407))
    advance-to-obs_obs1408: 
        pre: (and (RW:observed_obs1407) (RW:future_obs1408) (RW:not_at_end_constraint0) (RW:not_at_end_constraint1) (RW:not_at_end_constraint2))
        eff: (and (RW:pending_obs1408) (N:RW:future_obs1408))
    advance-to-obs_obs1409: 
        pre: (and (RW:observed_obs1408) (RW:not_line-iso-trip-in-progress_line_x15_x16_obs1407) (RW:future_obs1409) (RW:not_at_end_constraint0) (RW:not_at_end_constraint1) (RW:not_at_end_constraint2))
        eff: (and (RW:pending_obs1409) (N:RW:future_obs1409))
    advance-to-obs_obs1410: 
        pre: (and (RW:observed_obs1409) (RW:future_obs1410) (RW:not_at_end_constraint0) (RW:not_at_end_constraint1) (RW:not_at_end_constraint2))
        eff: (and (RW:pending_obs1410) (N:RW:future_obs1410))
    advance-to-obs_obs1411: 
        pre: (and (RW:observed_obs1410) (RW:not_line-iso-trip-in-progress_line_x13_x14_obs1410) (RW:future_obs1411) (RW:not_at_end_constraint0) (RW:not_at_end_constraint1) (RW:not_at_end_constraint2))
        eff: (and (RW:pending_obs1411) (N:RW:future_obs1411))
    advance-to-obs_obs1412: 
        pre: (and (RW:observed_obs1410) (RW:not_line-iso-trip-in-progress_line_x13_x14_obs1410) (RW:future_obs1412) (RW:not_at_end_constraint0) (RW:not_at_end_constraint1) (RW:not_at_end_constraint2))
        eff: (and (RW:pending_obs1412) (N:RW:future_obs1412))
    advance-to-obs_obs1413: 
        pre: (and (RW:observed_obs1410) (RW:not_line-iso-trip-in-progress_line_x13_x14_obs1410) (RW:future_obs1413) (RW:not_at_end_constraint0) (RW:not_at_end_constraint1) (RW:not_at_end_constraint2))
        eff: (and (RW:pending_obs1413) (N:RW:future_obs1413))
    advance-to-obs_obs1414: 
        pre: (and (RW:observed_obs1412) (RW:observed_obs1411) (RW:observed_obs1413) (RW:not_line-iso-trip-in-progress_line_x13_x14_obs1412) (RW:future_obs1414) (RW:not_at_end_constraint0) (RW:not_at_end_constraint1) (RW:not_at_end_constraint2))
        eff: (and (RW:pending_obs1414) (N:RW:future_obs1414))
    advance-to-obs_obs1415: 
        pre: (and (RW:observed_obs1414) (RW:future_obs1415) (RW:not_at_end_constraint0) (RW:not_at_end_constraint1) (RW:not_at_end_constraint2))
        eff: (and (RW:pending_obs1415) (N:RW:line-iso-state-may-have-changed_line_x15_x16_obs1407) (N:RW:line-iso-state-changed_line_x15_x16_obs1407) (N:RW:future_obs1415))
    advance-to-obs_obs1416: 
        pre: (and (RW:observed_obs1415) (RW:future_obs1416) (RW:not_at_end_constraint0) (RW:not_at_end_constraint1) (RW:not_at_end_constraint2))
        eff: (and (RW:pending_obs1416) (N:RW:line-iso-state-may-have-changed_line_x13_x14_obs1410) (N:W:line-iso-state-changed_line_x13_x14_obs1410) (N:RW:future_obs1416))
    advance-to-obs_obs1417: 
        pre: (and (RW:observed_obs1416) (RW:future_obs1417) (RW:not_at_end_constraint0) (RW:not_at_end_constraint1) (RW:not_at_end_constraint2))
        eff: (and (RW:pending_obs1417) (N:RW:line-iso-state-may-have-changed_line_x13_x14_obs1412) (N:W:breaker-auto-reopen-wait_breaker_x19_x20_obs1416) (N:W:line-iso-state-changed_line_x13_x14_obs1412) (N:RW:future_obs1417))
    set_goal_1_constraint0: 
        pre: (and (RW:observed_obs1410) (RW:observed_obs1407) (RW:observed_obs1412) (RW:dominates-2_hyp3_count-as-fault_breaker_x19_x20) (RW:observed_obs1415) (RW:observed_obs1416) (RW:observed_obs1405) (RW:observed_obs1414) (RW:observed_obs1406) (RW:observed_obs1398) (RW:observed_obs1417) (RW:observed_obs1401) (RW:observed_obs1402) (RW:observed_obs1411) (RW:observed_obs1408) (RW:observed_obs1403) (RW:observed_obs1404) (RW:observed_obs1400) (RW:observed_obs1413) (RW:observed_obs1399) (RW:observed_obs1409) (RW:not_at_end_constraint0) (RW:not_at_end_constraint1) (RW:not_at_end_constraint2))
        eff: (and (RW:achieved_constraint0) (N:RW:not_at_end_constraint0))
    set_goal_6_constraint0: 
        pre: (and (RW:observed_obs1410) (RW:observed_obs1407) (RW:observed_obs1412) (RW:observed_obs1415) (RW:observed_obs1416) (RW:observed_obs1405) (RW:observed_obs1414) (RW:observed_obs1406) (RW:observed_obs1398) (RW:observed_obs1417) (RW:observed_obs1401) (RW:observed_obs1402) (RW:observed_obs1411) (RW:observed_obs1408) (RW:observed_obs1403) (RW:observed_obs1404) (RW:observed_obs1400) (RW:observed_obs1413) (RW:dominates-2_hyp3_count-as-fault_line_x15_x16) (RW:observed_obs1399) (RW:observed_obs1409) (RW:not_at_end_constraint0) (RW:not_at_end_constraint1) (RW:not_at_end_constraint2))
        eff: (and (RW:achieved_constraint0) (N:RW:not_at_end_constraint0))
    set_goal_1_constraint1: 
        pre: (and (RW:observed_obs1410) (RW:observed_obs1407) (RW:dominates-2_hyp2_count-as-fault_breaker_x17_x18) (RW:observed_obs1412) (RW:observed_obs1415) (RW:observed_obs1416) (RW:observed_obs1405) (RW:observed_obs1414) (RW:observed_obs1406) (RW:observed_obs1398) (RW:observed_obs1417) (RW:observed_obs1401) (RW:observed_obs1402) (RW:observed_obs1411) (RW:observed_obs1408) (RW:observed_obs1403) (RW:observed_obs1404) (RW:observed_obs1400) (RW:observed_obs1413) (RW:observed_obs1399) (RW:observed_obs1409) (RW:achieved_constraint0) (RW:not_at_end_constraint1) (RW:not_at_end_constraint2))
        eff: (and (RW:achieved_constraint1) (N:RW:not_at_end_constraint1))
    set_goal_2_constraint1: 
        pre: (and (RW:observed_obs1410) (RW:observed_obs1407) (RW:observed_obs1412) (RW:dominates-2_hyp2_count-as-fault_breaker_x19_x20) (RW:observed_obs1415) (RW:observed_obs1416) (RW:observed_obs1405) (RW:observed_obs1414) (RW:observed_obs1406) (RW:observed_obs1398) (RW:observed_obs1417) (RW:observed_obs1401) (RW:observed_obs1402) (RW:observed_obs1411) (RW:observed_obs1408) (RW:observed_obs1403) (RW:observed_obs1404) (RW:observed_obs1400) (RW:observed_obs1413) (RW:observed_obs1399) (RW:observed_obs1409) (RW:achieved_constraint0) (RW:not_at_end_constraint1) (RW:not_at_end_constraint2))
        eff: (and (RW:achieved_constraint1) (N:RW:not_at_end_constraint1))
    set_goal_1_constraint2: 
        pre: (and (RW:observed_obs1410) (RW:observed_obs1407) (RW:dominates-2_hyp1_count-as-fault_breaker_x17_x18) (RW:observed_obs1412) (RW:observed_obs1415) (RW:observed_obs1416) (RW:observed_obs1405) (RW:observed_obs1414) (RW:observed_obs1406) (RW:observed_obs1398) (RW:observed_obs1417) (RW:observed_obs1401) (RW:observed_obs1402) (RW:observed_obs1411) (RW:observed_obs1408) (RW:observed_obs1403) (RW:observed_obs1404) (RW:observed_obs1400) (RW:observed_obs1413) (RW:observed_obs1399) (RW:observed_obs1409) (RW:achieved_constraint0) (RW:achieved_constraint1) (RW:not_at_end_constraint2))
        eff: (and (W:achieved_constraint2) (N:RW:not_at_end_constraint2))
    set_goal_5_constraint2: 
        pre: (and (RW:observed_obs1410) (RW:observed_obs1407) (RW:observed_obs1412) (RW:observed_obs1415) (RW:observed_obs1416) (RW:observed_obs1405) (RW:observed_obs1414) (RW:observed_obs1406) (RW:observed_obs1398) (RW:observed_obs1417) (RW:observed_obs1401) (RW:observed_obs1402) (RW:observed_obs1411) (RW:observed_obs1408) (RW:observed_obs1403) (RW:observed_obs1404) (RW:observed_obs1400) (RW:observed_obs1413) (RW:dominates-2_hyp1_count-as-fault_line_x13_x14) (RW:observed_obs1399) (RW:observed_obs1409) (RW:achieved_constraint0) (RW:achieved_constraint1) (RW:not_at_end_constraint2))
        eff: (and (W:achieved_constraint2) (N:RW:not_at_end_constraint2))
Init[69]:
  (breaker-state-is-unknown_breaker_x5_x6)
  (breaker-state-is-unknown_breaker_x11_x12)
  (breaker-state-is-unknown_breaker_x17_x18)
  (breaker-state-is-unknown_breaker_x19_x20)
  (breaker-state-is-unknown_breaker_x22_x23)
  (breaker-state-is-unknown_breaker_x26_x27)
  (breaker-state-is-unknown_breaker_x28_x29)
  (breaker-ar-status-is-unknown_breaker_x11_x12)
  (breaker-ar-status-is-unknown_breaker_x17_x18)
  (breaker-ar-status-is-unknown_breaker_x19_x20)
  (fault-count-2_count-as-fault_breaker_x11_x12_n0)
  (dominates-2_hyp3_count-as-fault_breaker_x11_x12)
  (dominates-2_hyp2_count-as-fault_breaker_x11_x12)
  (dominates-2_hyp1_count-as-fault_breaker_x11_x12)
  (fault-count-2_count-as-fault_breaker_x17_x18_n0)
  (dominates-2_hyp2_count-as-fault_breaker_x17_x18)
  (dominates-2_hyp1_count-as-fault_breaker_x17_x18)
  (fault-count-2_count-as-fault_breaker_x19_x20_n0)
  (dominates-2_hyp3_count-as-fault_breaker_x19_x20)
  (dominates-2_hyp2_count-as-fault_breaker_x19_x20)
  (fault-count-2_count-as-fault_breaker_x5_x6_n0)
  (dominates-2_hyp3_count-as-fault_breaker_x5_x6)
  (dominates-2_hyp2_count-as-fault_breaker_x5_x6)
  (dominates-2_hyp1_count-as-fault_breaker_x5_x6)
  (pending_obs1398)
  (fault-count-2_count-as-fault_breaker_x3_x4_n0)
  (dominates-2_hyp3_count-as-fault_breaker_x3_x4)
  (dominates-2_hyp2_count-as-fault_breaker_x3_x4)
  (dominates-2_hyp1_count-as-fault_breaker_x3_x4)
  (fault-count-2_count-as-fault_breaker_x7_x8_n0)
  (fault-count-2_count-as-fault_breaker_x9_x10_n0)
  (fault-count-2_count-as-fault_bus_x21_n0)
  (dominates-2_hyp3_count-as-fault_bus_x21)
  (dominates-2_hyp2_count-as-fault_bus_x21)
  (dominates-2_hyp1_count-as-fault_bus_x21)
  (fault-count-2_count-as-fault_line_x13_x14_n0)
  (not_line-isolated_line_x13_x14)
  (not_line-iso-trip-in-progress_line_x13_x14_obs1410)
  (dominates-2_hyp3_count-as-fault_line_x13_x14)
  (dominates-2_hyp2_count-as-fault_line_x13_x14)
  (dominates-2_hyp1_count-as-fault_line_x13_x14)
  (not_line-iso-trip-in-progress_line_x13_x14_obs1412)
  (fault-count-2_count-as-fault_line_x15_x16_n0)
  (not_line-isolated_line_x15_x16)
  (not_line-iso-trip-in-progress_line_x15_x16_obs1407)
  (dominates-2_hyp3_count-as-fault_line_x15_x16)
  (pending_obs1399)
  (future_obs1400)
  (future_obs1401)
  (future_obs1402)
  (future_obs1403)
  (future_obs1404)
  (future_obs1405)
  (future_obs1406)
  (future_obs1407)
  (future_obs1408)
  (future_obs1409)
  (future_obs1410)
  (future_obs1411)
  (future_obs1412)
  (future_obs1413)
  (future_obs1414)
  (future_obs1415)
  (future_obs1416)
  (future_obs1417)
  (not_at_end_constraint0)
  (not_at_end_constraint1)
  (not_at_end_constraint2)
  S:(static-true)
Init[0]:
Goal: (and (RW:observed_obs1410) (RW:observed_obs1407) (RW:observed_obs1412) (RW:observed_obs1415) (RW:observed_obs1416) (RW:observed_obs1405) (RW:observed_obs1414) (RW:observed_obs1406) (RW:observed_obs1398) (RW:observed_obs1417) (RW:observed_obs1401) (RW:observed_obs1402) (RW:observed_obs1411) (RW:observed_obs1408) (RW:observed_obs1403) (RW:observed_obs1404) (RW:observed_obs1400) (RW:observed_obs1413) (RW:observed_obs1399) (RW:observed_obs1409) (RW:achieved_constraint0) (RW:achieved_constraint1) (W:achieved_constraint2))
Metric: 0
