 (at document1 office) (train-at depot) (train-at office1) (train-at office10) (train-at office11) (train-at office2) (train-at office3) (train-at office4) (train-at office5) (train-at office6) (train-at office7) (train-at office8) (train-at office9)
 (at document2 office) (train-at depot) (train-at office1) (train-at office10) (train-at office11) (train-at office2) (train-at office3) (train-at office4) (train-at office5) (train-at office6) (train-at office7) (train-at office8) (train-at office9)
 (at document3 office) (train-at depot) (train-at office1) (train-at office10) (train-at office11) (train-at office2) (train-at office3) (train-at office4) (train-at office5) (train-at office6) (train-at office7) (train-at office8) (train-at office9)
 (at document4 office) (train-at depot) (train-at office1) (train-at office10) (train-at office11) (train-at office2) (train-at office3) (train-at office4) (train-at office5) (train-at office6) (train-at office7) (train-at office8) (train-at office9)
 (at document5 depot) (at document5 office1) (at document5 office10) (at document5 office11) (at document5 office2) (at document5 office3) (at document5 office4) (at document5 office5) (at document5 office6) (at document5 office7) (at document5 office8) (at document5 office9) (in-train document5):G
 (at document6 depot) (at document6 office1) (at document6 office10) (at document6 office11) (at document6 office2) (at document6 office3) (at document6 office4) (at document6 office5) (at document6 office6) (at document6 office7) (at document6 office8) (at document6 office9) (in-train document6):G
 (at document7 office) (train-at depot) (train-at office1) (train-at office10) (train-at office11) (train-at office2) (train-at office3) (train-at office4) (train-at office5) (train-at office6) (train-at office7) (train-at office8) (train-at office9)
 (at document8 office) (train-at depot) (train-at office1) (train-at office10) (train-at office11) (train-at office2) (train-at office3) (train-at office4) (train-at office5) (train-at office6) (train-at office7) (train-at office8) (train-at office9)
 (at fuel1 office) (train-at depot) (train-at office1) (train-at office10) (train-at office11) (train-at office2) (train-at office3) (train-at office4) (train-at office5) (train-at office6) (train-at office7) (train-at office8) (train-at office9)
 (at fuel2 office) (train-at depot) (train-at office1) (train-at office10) (train-at office11) (train-at office2) (train-at office3) (train-at office4) (train-at office5) (train-at office6) (train-at office7) (train-at office8) (train-at office9)
 (train-at depot) (train-at office) (train-at office1) (train-at office10) (train-at office11) (train-at office2) (train-at office3) (train-at office4) (train-at office5) (train-at office6) (train-at office7) (train-at office8) (train-at office9):=1
 (at document1 depot) (at document1 office) (at document1 office1) (at document1 office10) (at document1 office11) (at document1 office2) (at document1 office3) (at document1 office4) (at document1 office5) (at document1 office6) (at document1 office7) (at document1 office8) (at document1 office9) (in-train document1)
 (at document2 depot) (at document2 office) (at document2 office1) (at document2 office10) (at document2 office11) (at document2 office2) (at document2 office3) (at document2 office4) (at document2 office5) (at document2 office6) (at document2 office7) (at document2 office8) (at document2 office9) (in-train document2)
 (at document3 depot) (at document3 office) (at document3 office1) (at document3 office10) (at document3 office11) (at document3 office2) (at document3 office3) (at document3 office4) (at document3 office5) (at document3 office6) (at document3 office7) (at document3 office8) (at document3 office9) (in-train document3)
 (at document4 depot) (at document4 office) (at document4 office1) (at document4 office10) (at document4 office11) (at document4 office2) (at document4 office3) (at document4 office4) (at document4 office5) (at document4 office6) (at document4 office7) (at document4 office8) (at document4 office9) (in-train document4)
 (at document7 depot) (at document7 office) (at document7 office1) (at document7 office10) (at document7 office11) (at document7 office2) (at document7 office3) (at document7 office4) (at document7 office5) (at document7 office6) (at document7 office7) (at document7 office8) (at document7 office9) (in-train document7)
 (at document8 depot) (at document8 office) (at document8 office1) (at document8 office10) (at document8 office11) (at document8 office2) (at document8 office3) (at document8 office4) (at document8 office5) (at document8 office6) (at document8 office7) (at document8 office8) (at document8 office9) (in-train document8)
 (at fuel1 depot) (at fuel1 office) (at fuel1 office1) (at fuel1 office10) (at fuel1 office11) (at fuel1 office2) (at fuel1 office3) (at fuel1 office4) (at fuel1 office5) (at fuel1 office6) (at fuel1 office7) (at fuel1 office8) (at fuel1 office9) (in-train fuel1)
 (at fuel2 depot) (at fuel2 office) (at fuel2 office1) (at fuel2 office10) (at fuel2 office11) (at fuel2 office2) (at fuel2 office3) (at fuel2 office4) (at fuel2 office5) (at fuel2 office6) (at fuel2 office7) (at fuel2 office8) (at fuel2 office9) (in-train fuel2)

