Reduced 33 -> 32
Domain: pegsolitaire-netbenefit
Problem: pegsolitaire-sequential-105
Require: ff
Type[2]:
    [0]: object, parent: -1
    [1]: location, parent: 0
Obj-by-Type:
    [0]: 0 1 2 3 4 5 6 7 8 9 10 11 12 13 14 15 16 17 18 19 20 21 22 23 24 25 26 27 28 29 30 31
    [1]: 0 1 2 3 4 5 6 7 8 9 10 11 12 13 14 15 16 17 18 19 20 21 22 23 24 25 26 27 28 29 30 31
Obj[32]:
    [0]: pos-0-2, type: 1, is-constant: 0, is-private: 0, owner: -1, is-agent: 0
    [1]: pos-0-3, type: 1, is-constant: 0, is-private: 0, owner: -1, is-agent: 0
    [2]: pos-0-4, type: 1, is-constant: 0, is-private: 0, owner: -1, is-agent: 0
    [3]: pos-1-2, type: 1, is-constant: 0, is-private: 0, owner: -1, is-agent: 0
    [4]: pos-1-3, type: 1, is-constant: 0, is-private: 0, owner: -1, is-agent: 0
    [5]: pos-1-4, type: 1, is-constant: 0, is-private: 0, owner: -1, is-agent: 0
    [6]: pos-2-0, type: 1, is-constant: 0, is-private: 0, owner: -1, is-agent: 0
    [7]: pos-2-1, type: 1, is-constant: 0, is-private: 0, owner: -1, is-agent: 0
    [8]: pos-2-2, type: 1, is-constant: 0, is-private: 0, owner: -1, is-agent: 0
    [9]: pos-2-3, type: 1, is-constant: 0, is-private: 0, owner: -1, is-agent: 0
    [10]: pos-2-4, type: 1, is-constant: 0, is-private: 0, owner: -1, is-agent: 0
    [11]: pos-2-5, type: 1, is-constant: 0, is-private: 0, owner: -1, is-agent: 0
    [12]: pos-2-6, type: 1, is-constant: 0, is-private: 0, owner: -1, is-agent: 0
    [13]: pos-3-0, type: 1, is-constant: 0, is-private: 0, owner: -1, is-agent: 0
    [14]: pos-3-1, type: 1, is-constant: 0, is-private: 0, owner: -1, is-agent: 0
    [15]: pos-3-2, type: 1, is-constant: 0, is-private: 0, owner: -1, is-agent: 0
    [16]: pos-3-4, type: 1, is-constant: 0, is-private: 0, owner: -1, is-agent: 0
    [17]: pos-3-5, type: 1, is-constant: 0, is-private: 0, owner: -1, is-agent: 0
    [18]: pos-3-6, type: 1, is-constant: 0, is-private: 0, owner: -1, is-agent: 0
    [19]: pos-4-0, type: 1, is-constant: 0, is-private: 0, owner: -1, is-agent: 0
    [20]: pos-4-1, type: 1, is-constant: 0, is-private: 0, owner: -1, is-agent: 0
    [21]: pos-4-2, type: 1, is-constant: 0, is-private: 0, owner: -1, is-agent: 0
    [22]: pos-4-3, type: 1, is-constant: 0, is-private: 0, owner: -1, is-agent: 0
    [23]: pos-4-4, type: 1, is-constant: 0, is-private: 0, owner: -1, is-agent: 0
    [24]: pos-4-5, type: 1, is-constant: 0, is-private: 0, owner: -1, is-agent: 0
    [25]: pos-4-6, type: 1, is-constant: 0, is-private: 0, owner: -1, is-agent: 0
    [26]: pos-5-2, type: 1, is-constant: 0, is-private: 0, owner: -1, is-agent: 0
    [27]: pos-5-3, type: 1, is-constant: 0, is-private: 0, owner: -1, is-agent: 0
    [28]: pos-5-4, type: 1, is-constant: 0, is-private: 0, owner: -1, is-agent: 0
    [29]: pos-6-2, type: 1, is-constant: 0, is-private: 0, owner: -1, is-agent: 0
    [30]: pos-6-3, type: 1, is-constant: 0, is-private: 0, owner: -1, is-agent: 0
    [31]: pos-6-4, type: 1, is-constant: 0, is-private: 0, owner: -1, is-agent: 0
Predicate[4]:
    =: 0 0 :: is-private: 0, owner-param: -1, read: 0, write: 0
    in-line: 1 1 1 :: is-private: 0, owner-param: -1, read: 1, write: 0
    occupied: 1 :: is-private: 0, owner-param: -1, read: 1, write: 1
    free: 1 :: is-private: 0, owner-param: -1, read: 1, write: 1
Function[0]:
Action[1]:
    jump: ?from:1 ?over:1 ?to:1
        pre: (and (R:in-line ?from ?over ?to) (RW:occupied ?from) (RW:occupied ?over) (RW:free ?to))
        eff: (and (RW:free ?from) (RW:free ?over) (RW:occupied ?to))
Init[109]:
  S:(in-line pos-0-2 pos-0-3 pos-0-4)
  S:(in-line pos-0-4 pos-0-3 pos-0-2)
  S:(in-line pos-0-2 pos-1-2 pos-2-2)
  S:(in-line pos-2-2 pos-1-2 pos-0-2)
  S:(in-line pos-0-3 pos-1-3 pos-2-3)
  S:(in-line pos-2-3 pos-1-3 pos-0-3)
  S:(in-line pos-0-4 pos-1-4 pos-2-4)
  S:(in-line pos-2-4 pos-1-4 pos-0-4)
  S:(in-line pos-1-2 pos-1-3 pos-1-4)
  S:(in-line pos-1-4 pos-1-3 pos-1-2)
  S:(in-line pos-1-2 pos-2-2 pos-3-2)
  S:(in-line pos-3-2 pos-2-2 pos-1-2)
  S:(in-line pos-1-3 pos-2-3 pos-0-2)
  S:(in-line pos-0-2 pos-2-3 pos-1-3)
  S:(in-line pos-1-4 pos-2-4 pos-3-4)
  S:(in-line pos-3-4 pos-2-4 pos-1-4)
  S:(in-line pos-2-0 pos-2-1 pos-2-2)
  S:(in-line pos-2-2 pos-2-1 pos-2-0)
  S:(in-line pos-2-0 pos-3-0 pos-4-0)
  S:(in-line pos-4-0 pos-3-0 pos-2-0)
  S:(in-line pos-2-1 pos-2-2 pos-2-3)
  S:(in-line pos-2-3 pos-2-2 pos-2-1)
  S:(in-line pos-2-1 pos-3-1 pos-4-1)
  S:(in-line pos-4-1 pos-3-1 pos-2-1)
  S:(in-line pos-2-2 pos-2-3 pos-2-4)
  S:(in-line pos-2-4 pos-2-3 pos-2-2)
  S:(in-line pos-2-2 pos-3-2 pos-4-2)
  S:(in-line pos-4-2 pos-3-2 pos-2-2)
  S:(in-line pos-2-3 pos-2-4 pos-2-5)
  S:(in-line pos-2-5 pos-2-4 pos-2-3)
  S:(in-line pos-2-3 pos-0-2 pos-4-3)
  S:(in-line pos-4-3 pos-0-2 pos-2-3)
  S:(in-line pos-2-4 pos-2-5 pos-2-6)
  S:(in-line pos-2-6 pos-2-5 pos-2-4)
  S:(in-line pos-2-4 pos-3-4 pos-4-4)
  S:(in-line pos-4-4 pos-3-4 pos-2-4)
  S:(in-line pos-2-5 pos-3-5 pos-4-5)
  S:(in-line pos-4-5 pos-3-5 pos-2-5)
  S:(in-line pos-2-6 pos-3-6 pos-4-6)
  S:(in-line pos-4-6 pos-3-6 pos-2-6)
  S:(in-line pos-3-0 pos-3-1 pos-3-2)
  S:(in-line pos-3-2 pos-3-1 pos-3-0)
  S:(in-line pos-3-1 pos-3-2 pos-0-2)
  S:(in-line pos-0-2 pos-3-2 pos-3-1)
  S:(in-line pos-3-2 pos-0-2 pos-3-4)
  S:(in-line pos-3-4 pos-0-2 pos-3-2)
  S:(in-line pos-3-2 pos-4-2 pos-5-2)
  S:(in-line pos-5-2 pos-4-2 pos-3-2)
  S:(in-line pos-0-2 pos-3-4 pos-3-5)
  S:(in-line pos-3-5 pos-3-4 pos-0-2)
  S:(in-line pos-0-2 pos-4-3 pos-5-3)
  S:(in-line pos-5-3 pos-4-3 pos-0-2)
  S:(in-line pos-3-4 pos-3-5 pos-3-6)
  S:(in-line pos-3-6 pos-3-5 pos-3-4)
  S:(in-line pos-3-4 pos-4-4 pos-5-4)
  S:(in-line pos-5-4 pos-4-4 pos-3-4)
  S:(in-line pos-4-0 pos-4-1 pos-4-2)
  S:(in-line pos-4-2 pos-4-1 pos-4-0)
  S:(in-line pos-4-1 pos-4-2 pos-4-3)
  S:(in-line pos-4-3 pos-4-2 pos-4-1)
  S:(in-line pos-4-2 pos-4-3 pos-4-4)
  S:(in-line pos-4-4 pos-4-3 pos-4-2)
  S:(in-line pos-4-2 pos-5-2 pos-6-2)
  S:(in-line pos-6-2 pos-5-2 pos-4-2)
  S:(in-line pos-4-3 pos-4-4 pos-4-5)
  S:(in-line pos-4-5 pos-4-4 pos-4-3)
  S:(in-line pos-4-3 pos-5-3 pos-6-3)
  S:(in-line pos-6-3 pos-5-3 pos-4-3)
  S:(in-line pos-4-4 pos-4-5 pos-4-6)
  S:(in-line pos-4-6 pos-4-5 pos-4-4)
  S:(in-line pos-4-4 pos-5-4 pos-6-4)
  S:(in-line pos-6-4 pos-5-4 pos-4-4)
  S:(in-line pos-5-2 pos-5-3 pos-5-4)
  S:(in-line pos-5-4 pos-5-3 pos-5-2)
  S:(in-line pos-6-2 pos-6-3 pos-6-4)
  S:(in-line pos-6-4 pos-6-3 pos-6-2)
  (free pos-0-2)
  (occupied pos-0-2)
  (occupied pos-0-3)
  (occupied pos-0-4)
  (occupied pos-1-2)
  (occupied pos-1-3)
  (occupied pos-1-4)
  (occupied pos-2-0)
  (occupied pos-2-1)
  (occupied pos-2-2)
  (occupied pos-2-3)
  (occupied pos-2-4)
  (occupied pos-2-5)
  (occupied pos-2-6)
  (occupied pos-3-0)
  (occupied pos-3-1)
  (occupied pos-3-2)
  (occupied pos-3-4)
  (occupied pos-3-5)
  (occupied pos-3-6)
  (occupied pos-4-0)
  (occupied pos-4-1)
  (occupied pos-4-2)
  (occupied pos-4-3)
  (occupied pos-4-4)
  (occupied pos-4-5)
  (occupied pos-4-6)
  (occupied pos-5-2)
  (occupied pos-5-3)
  (occupied pos-5-4)
  (occupied pos-6-2)
  (occupied pos-6-3)
  (occupied pos-6-4)
Init[0]:
Goal: (and (RW:free pos-0-2) (RW:free pos-0-3) (RW:free pos-0-4) (RW:free pos-1-2) (RW:free pos-1-3) (RW:free pos-1-4) (RW:free pos-2-0) (RW:free pos-2-1) (RW:free pos-2-2) (RW:free pos-2-3) (RW:free pos-2-4) (RW:free pos-2-5) (RW:free pos-2-6) (RW:free pos-3-0) (RW:free pos-3-1) (RW:free pos-3-2) (RW:free pos-3-4) (RW:free pos-3-5) (RW:free pos-3-6) (RW:free pos-4-0) (RW:free pos-4-1) (RW:free pos-4-2) (RW:free pos-4-3) (RW:free pos-4-4) (RW:free pos-4-5) (RW:free pos-4-6) (RW:free pos-5-2) (RW:free pos-5-3) (RW:free pos-5-4) (RW:free pos-6-2) (RW:free pos-6-3) (RW:free pos-6-4) (RW:occupied pos-0-2))
Metric: 0
