RSE-Invertible facts:
1:(at-diver d0 l1) in-fam-group
2:(at-diver d0 l2) in-fam-group
4:(at-diver d1 l1) in-fam-group
5:(at-diver d1 l2) in-fam-group
8:(at-tank t0 l0)
9:(at-tank t0 l1)
10:(at-tank t0 l2)
11:(at-tank t1 l0)
12:(at-tank t1 l1)
13:(at-tank t1 l2)
14:(at-tank t2 l0)
15:(at-tank t2 l1)
16:(at-tank t2 l2)
17:(at-tank t3 l0)
18:(at-tank t3 l1)
19:(at-tank t3 l2)
20:(at-tank t4 l0)
21:(at-tank t4 l1)
22:(at-tank t4 l2)
23:(at-tank t5 l0)
24:(at-tank t5 l1)
25:(at-tank t5 l2)
