Symmetric facts:
 (free pos-0-1) (free pos-1-0)
 (free pos-0-2) (free pos-2-0)
 (free pos-0-3) (free pos-3-0)
 (free pos-0-4) (free pos-4-0)
 (free pos-1-2) (free pos-2-1)
 (free pos-1-3) (free pos-3-1)
 (free pos-1-4) (free pos-4-1)
 (free pos-2-3) (free pos-3-2)
 (free pos-2-4) (free pos-4-2)
 (free pos-3-4) (free pos-4-3)
 (occupied pos-0-1) (occupied pos-1-0)
 (occupied pos-0-2) (occupied pos-2-0)
 (occupied pos-0-3) (occupied pos-3-0)
 (occupied pos-1-2) (occupied pos-2-1)
 (occupied pos-1-3) (occupied pos-3-1)
 (occupied pos-2-3) (occupied pos-3-2)
Symmetric ops:
 (move pos-0-1 pos-1-1 pos-0-2) (move pos-1-0 pos-2-0 pos-1-1)
 (move pos-0-2 pos-1-2 pos-0-3) (move pos-2-0 pos-3-0 pos-2-1)
 (move pos-0-3 pos-1-3 pos-0-4) (move pos-3-0 pos-4-0 pos-3-1)
 (move pos-1-2 pos-2-2 pos-1-3) (move pos-2-1 pos-3-1 pos-2-2)
 (move pos-1-3 pos-2-3 pos-1-4) (move pos-3-1 pos-4-1 pos-3-2)
 (move pos-2-3 pos-3-3 pos-2-4) (move pos-3-2 pos-4-2 pos-3-3)
