Reduced 50 -> 40
Domain: pegsolitaire-invasion
Problem: pegsolitaire-invasion-5
Require: ff
Type[2]:
    [0]: object, parent: -1
    [1]: location, parent: 0
Obj-by-Type:
    [0]: 0 1 2 3 4 5 6 7 8 9 10 11 12 13 14 15 16 17 18 19 20 21 22 23 24 25 26 27 28 29 30 31 32 33 34 35 36 37 38 39
    [1]: 0 1 2 3 4 5 6 7 8 9 10 11 12 13 14 15 16 17 18 19 20 21 22 23 24 25 26 27 28 29 30 31 32 33 34 35 36 37 38 39
Obj[40]:
    [0]: pos-0-0, type: 1, is-constant: 0, is-private: 0, owner: -1, is-agent: 0
    [1]: pos-0-1, type: 1, is-constant: 0, is-private: 0, owner: -1, is-agent: 0
    [2]: pos-0-2, type: 1, is-constant: 0, is-private: 0, owner: -1, is-agent: 0
    [3]: pos-0-3, type: 1, is-constant: 0, is-private: 0, owner: -1, is-agent: 0
    [4]: pos-0-4, type: 1, is-constant: 0, is-private: 0, owner: -1, is-agent: 0
    [5]: pos-0-5, type: 1, is-constant: 0, is-private: 0, owner: -1, is-agent: 0
    [6]: pos-0-6, type: 1, is-constant: 0, is-private: 0, owner: -1, is-agent: 0
    [7]: pos-0-7, type: 1, is-constant: 0, is-private: 0, owner: -1, is-agent: 0
    [8]: pos-0-8, type: 1, is-constant: 0, is-private: 0, owner: -1, is-agent: 0
    [9]: pos-0-9, type: 1, is-constant: 0, is-private: 0, owner: -1, is-agent: 0
    [10]: pos-1-0, type: 1, is-constant: 0, is-private: 0, owner: -1, is-agent: 0
    [11]: pos-1-1, type: 1, is-constant: 0, is-private: 0, owner: -1, is-agent: 0
    [12]: pos-1-4, type: 1, is-constant: 0, is-private: 0, owner: -1, is-agent: 0
    [13]: pos-1-5, type: 1, is-constant: 0, is-private: 0, owner: -1, is-agent: 0
    [14]: pos-1-6, type: 1, is-constant: 0, is-private: 0, owner: -1, is-agent: 0
    [15]: pos-1-8, type: 1, is-constant: 0, is-private: 0, owner: -1, is-agent: 0
    [16]: pos-1-9, type: 1, is-constant: 0, is-private: 0, owner: -1, is-agent: 0
    [17]: pos-2-0, type: 1, is-constant: 0, is-private: 0, owner: -1, is-agent: 0
    [18]: pos-2-1, type: 1, is-constant: 0, is-private: 0, owner: -1, is-agent: 0
    [19]: pos-2-2, type: 1, is-constant: 0, is-private: 0, owner: -1, is-agent: 0
    [20]: pos-2-5, type: 1, is-constant: 0, is-private: 0, owner: -1, is-agent: 0
    [21]: pos-2-6, type: 1, is-constant: 0, is-private: 0, owner: -1, is-agent: 0
    [22]: pos-2-7, type: 1, is-constant: 0, is-private: 0, owner: -1, is-agent: 0
    [23]: pos-2-8, type: 1, is-constant: 0, is-private: 0, owner: -1, is-agent: 0
    [24]: pos-2-9, type: 1, is-constant: 0, is-private: 0, owner: -1, is-agent: 0
    [25]: pos-3-1, type: 1, is-constant: 0, is-private: 0, owner: -1, is-agent: 0
    [26]: pos-3-2, type: 1, is-constant: 0, is-private: 0, owner: -1, is-agent: 0
    [27]: pos-3-3, type: 1, is-constant: 0, is-private: 0, owner: -1, is-agent: 0
    [28]: pos-3-4, type: 1, is-constant: 0, is-private: 0, owner: -1, is-agent: 0
    [29]: pos-3-5, type: 1, is-constant: 0, is-private: 0, owner: -1, is-agent: 0
    [30]: pos-3-6, type: 1, is-constant: 0, is-private: 0, owner: -1, is-agent: 0
    [31]: pos-3-7, type: 1, is-constant: 0, is-private: 0, owner: -1, is-agent: 0
    [32]: pos-3-8, type: 1, is-constant: 0, is-private: 0, owner: -1, is-agent: 0
    [33]: pos-3-9, type: 1, is-constant: 0, is-private: 0, owner: -1, is-agent: 0
    [34]: pos-4-0, type: 1, is-constant: 0, is-private: 0, owner: -1, is-agent: 0
    [35]: pos-4-4, type: 1, is-constant: 0, is-private: 0, owner: -1, is-agent: 0
    [36]: pos-4-5, type: 1, is-constant: 0, is-private: 0, owner: -1, is-agent: 0
    [37]: pos-4-6, type: 1, is-constant: 0, is-private: 0, owner: -1, is-agent: 0
    [38]: pos-4-7, type: 1, is-constant: 0, is-private: 0, owner: -1, is-agent: 0
    [39]: pos-4-9, type: 1, is-constant: 0, is-private: 0, owner: -1, is-agent: 0
Predicate[4]:
    =: 0 0 :: is-private: 0, owner-param: -1, read: 0, write: 0
    in-line: 1 1 1 :: is-private: 0, owner-param: -1, read: 1, write: 0
    occupied: 1 :: is-private: 0, owner-param: -1, read: 1, write: 1
    free: 1 :: is-private: 0, owner-param: -1, read: 1, write: 1
Function[0]:
Action[1]:
    jump: ?from:1 ?over:1 ?to:1
        pre: (and (R:in-line ?from ?over ?to) (RW:occupied ?from) (RW:occupied ?over) (RW:free ?to))
        eff: (and (RW:free ?from) (RW:free ?over) (RW:occupied ?to))
Init[190]:
  S:(in-line pos-0-0 pos-0-1 pos-0-2)
  S:(in-line pos-0-1 pos-0-2 pos-0-3)
  S:(in-line pos-0-2 pos-0-3 pos-0-4)
  S:(in-line pos-0-3 pos-0-4 pos-0-5)
  S:(in-line pos-0-4 pos-0-5 pos-0-6)
  S:(in-line pos-0-5 pos-0-6 pos-0-7)
  S:(in-line pos-0-6 pos-0-7 pos-0-8)
  S:(in-line pos-0-7 pos-0-8 pos-0-9)
  S:(in-line pos-1-0 pos-1-1 pos-0-6)
  S:(in-line pos-1-1 pos-0-6 pos-0-8)
  S:(in-line pos-0-6 pos-0-8 pos-1-4)
  S:(in-line pos-0-8 pos-1-4 pos-1-5)
  S:(in-line pos-1-4 pos-1-5 pos-1-6)
  S:(in-line pos-1-5 pos-1-6 pos-0-4)
  S:(in-line pos-1-6 pos-0-4 pos-1-8)
  S:(in-line pos-0-4 pos-1-8 pos-1-9)
  S:(in-line pos-2-0 pos-2-1 pos-2-2)
  S:(in-line pos-2-1 pos-2-2 pos-0-0)
  S:(in-line pos-2-2 pos-0-0 pos-0-9)
  S:(in-line pos-0-0 pos-0-9 pos-2-5)
  S:(in-line pos-0-9 pos-2-5 pos-2-6)
  S:(in-line pos-2-5 pos-2-6 pos-2-7)
  S:(in-line pos-2-6 pos-2-7 pos-2-8)
  S:(in-line pos-2-7 pos-2-8 pos-2-9)
  S:(in-line pos-2-1 pos-3-1 pos-3-2)
  S:(in-line pos-3-1 pos-3-2 pos-3-3)
  S:(in-line pos-3-2 pos-3-3 pos-3-4)
  S:(in-line pos-3-3 pos-3-4 pos-3-5)
  S:(in-line pos-3-4 pos-3-5 pos-3-6)
  S:(in-line pos-3-5 pos-3-6 pos-3-7)
  S:(in-line pos-3-6 pos-3-7 pos-3-8)
  S:(in-line pos-3-7 pos-3-8 pos-3-9)
  S:(in-line pos-4-0 pos-3-1 pos-0-6)
  S:(in-line pos-3-1 pos-0-6 pos-3-8)
  S:(in-line pos-0-6 pos-3-8 pos-4-4)
  S:(in-line pos-3-8 pos-4-4 pos-4-5)
  S:(in-line pos-4-4 pos-4-5 pos-4-6)
  S:(in-line pos-4-5 pos-4-6 pos-4-7)
  S:(in-line pos-4-6 pos-4-7 pos-3-9)
  S:(in-line pos-4-7 pos-3-9 pos-4-9)
  S:(in-line pos-0-2 pos-0-1 pos-0-0)
  S:(in-line pos-0-3 pos-0-2 pos-0-1)
  S:(in-line pos-0-4 pos-0-3 pos-0-2)
  S:(in-line pos-0-5 pos-0-4 pos-0-3)
  S:(in-line pos-0-6 pos-0-5 pos-0-4)
  S:(in-line pos-0-7 pos-0-6 pos-0-5)
  S:(in-line pos-0-8 pos-0-7 pos-0-6)
  S:(in-line pos-0-9 pos-0-8 pos-0-7)
  S:(in-line pos-0-6 pos-1-1 pos-1-0)
  S:(in-line pos-0-8 pos-0-6 pos-1-1)
  S:(in-line pos-1-4 pos-0-8 pos-0-6)
  S:(in-line pos-1-5 pos-1-4 pos-0-8)
  S:(in-line pos-1-6 pos-1-5 pos-1-4)
  S:(in-line pos-0-4 pos-1-6 pos-1-5)
  S:(in-line pos-1-8 pos-0-4 pos-1-6)
  S:(in-line pos-1-9 pos-1-8 pos-0-4)
  S:(in-line pos-2-2 pos-2-1 pos-2-0)
  S:(in-line pos-0-0 pos-2-2 pos-2-1)
  S:(in-line pos-0-9 pos-0-0 pos-2-2)
  S:(in-line pos-2-5 pos-0-9 pos-0-0)
  S:(in-line pos-2-6 pos-2-5 pos-0-9)
  S:(in-line pos-2-7 pos-2-6 pos-2-5)
  S:(in-line pos-2-8 pos-2-7 pos-2-6)
  S:(in-line pos-2-9 pos-2-8 pos-2-7)
  S:(in-line pos-3-2 pos-3-1 pos-2-1)
  S:(in-line pos-3-3 pos-3-2 pos-3-1)
  S:(in-line pos-3-4 pos-3-3 pos-3-2)
  S:(in-line pos-3-5 pos-3-4 pos-3-3)
  S:(in-line pos-3-6 pos-3-5 pos-3-4)
  S:(in-line pos-3-7 pos-3-6 pos-3-5)
  S:(in-line pos-3-8 pos-3-7 pos-3-6)
  S:(in-line pos-3-9 pos-3-8 pos-3-7)
  S:(in-line pos-0-6 pos-3-1 pos-4-0)
  S:(in-line pos-3-8 pos-0-6 pos-3-1)
  S:(in-line pos-4-4 pos-3-8 pos-0-6)
  S:(in-line pos-4-5 pos-4-4 pos-3-8)
  S:(in-line pos-4-6 pos-4-5 pos-4-4)
  S:(in-line pos-4-7 pos-4-6 pos-4-5)
  S:(in-line pos-3-9 pos-4-7 pos-4-6)
  S:(in-line pos-4-9 pos-3-9 pos-4-7)
  S:(in-line pos-0-0 pos-1-0 pos-2-0)
  S:(in-line pos-0-1 pos-1-1 pos-2-1)
  S:(in-line pos-0-2 pos-0-6 pos-2-2)
  S:(in-line pos-0-3 pos-0-8 pos-0-0)
  S:(in-line pos-0-4 pos-1-4 pos-0-9)
  S:(in-line pos-0-5 pos-1-5 pos-2-5)
  S:(in-line pos-0-6 pos-1-6 pos-2-6)
  S:(in-line pos-0-7 pos-0-4 pos-2-7)
  S:(in-line pos-0-8 pos-1-8 pos-2-8)
  S:(in-line pos-0-9 pos-1-9 pos-2-9)
  S:(in-line pos-1-0 pos-2-0 pos-2-1)
  S:(in-line pos-1-1 pos-2-1 pos-3-1)
  S:(in-line pos-0-6 pos-2-2 pos-3-2)
  S:(in-line pos-0-8 pos-0-0 pos-3-3)
  S:(in-line pos-1-4 pos-0-9 pos-3-4)
  S:(in-line pos-1-5 pos-2-5 pos-3-5)
  S:(in-line pos-1-6 pos-2-6 pos-3-6)
  S:(in-line pos-0-4 pos-2-7 pos-3-7)
  S:(in-line pos-1-8 pos-2-8 pos-3-8)
  S:(in-line pos-1-9 pos-2-9 pos-3-9)
  S:(in-line pos-2-0 pos-2-1 pos-4-0)
  S:(in-line pos-2-1 pos-3-1 pos-3-1)
  S:(in-line pos-2-2 pos-3-2 pos-0-6)
  S:(in-line pos-0-0 pos-3-3 pos-3-8)
  S:(in-line pos-0-9 pos-3-4 pos-4-4)
  S:(in-line pos-2-5 pos-3-5 pos-4-5)
  S:(in-line pos-2-6 pos-3-6 pos-4-6)
  S:(in-line pos-2-7 pos-3-7 pos-4-7)
  S:(in-line pos-2-8 pos-3-8 pos-3-9)
  S:(in-line pos-2-9 pos-3-9 pos-4-9)
  S:(in-line pos-2-0 pos-1-0 pos-0-0)
  S:(in-line pos-2-1 pos-1-1 pos-0-1)
  S:(in-line pos-2-2 pos-0-6 pos-0-2)
  S:(in-line pos-0-0 pos-0-8 pos-0-3)
  S:(in-line pos-0-9 pos-1-4 pos-0-4)
  S:(in-line pos-2-5 pos-1-5 pos-0-5)
  S:(in-line pos-2-6 pos-1-6 pos-0-6)
  S:(in-line pos-2-7 pos-0-4 pos-0-7)
  S:(in-line pos-2-8 pos-1-8 pos-0-8)
  S:(in-line pos-2-9 pos-1-9 pos-0-9)
  S:(in-line pos-2-1 pos-2-0 pos-1-0)
  S:(in-line pos-3-1 pos-2-1 pos-1-1)
  S:(in-line pos-3-2 pos-2-2 pos-0-6)
  S:(in-line pos-3-3 pos-0-0 pos-0-8)
  S:(in-line pos-3-4 pos-0-9 pos-1-4)
  S:(in-line pos-3-5 pos-2-5 pos-1-5)
  S:(in-line pos-3-6 pos-2-6 pos-1-6)
  S:(in-line pos-3-7 pos-2-7 pos-0-4)
  S:(in-line pos-3-8 pos-2-8 pos-1-8)
  S:(in-line pos-3-9 pos-2-9 pos-1-9)
  S:(in-line pos-4-0 pos-2-1 pos-2-0)
  S:(in-line pos-3-1 pos-3-1 pos-2-1)
  S:(in-line pos-0-6 pos-3-2 pos-2-2)
  S:(in-line pos-3-8 pos-3-3 pos-0-0)
  S:(in-line pos-4-4 pos-3-4 pos-0-9)
  S:(in-line pos-4-5 pos-3-5 pos-2-5)
  S:(in-line pos-4-6 pos-3-6 pos-2-6)
  S:(in-line pos-4-7 pos-3-7 pos-2-7)
  S:(in-line pos-3-9 pos-3-8 pos-2-8)
  S:(in-line pos-4-9 pos-3-9 pos-2-9)
  (free pos-0-5)
  (free pos-0-6)
  (free pos-0-7)
  (free pos-0-8)
  (free pos-0-9)
  (free pos-1-5)
  (free pos-1-6)
  (free pos-0-4)
  (free pos-1-8)
  (free pos-1-9)
  (free pos-2-5)
  (free pos-2-6)
  (free pos-2-7)
  (free pos-2-8)
  (free pos-2-9)
  (free pos-3-5)
  (free pos-3-6)
  (free pos-3-7)
  (free pos-3-8)
  (free pos-3-9)
  (free pos-4-5)
  (free pos-4-6)
  (free pos-4-7)
  (free pos-3-9)
  (free pos-4-9)
  (occupied pos-0-0)
  (occupied pos-0-1)
  (occupied pos-0-2)
  (occupied pos-0-3)
  (occupied pos-0-4)
  (occupied pos-1-0)
  (occupied pos-1-1)
  (occupied pos-0-6)
  (occupied pos-0-8)
  (occupied pos-1-4)
  (occupied pos-2-0)
  (occupied pos-2-1)
  (occupied pos-2-2)
  (occupied pos-0-0)
  (occupied pos-0-9)
  (occupied pos-2-1)
  (occupied pos-3-1)
  (occupied pos-3-2)
  (occupied pos-3-3)
  (occupied pos-3-4)
  (occupied pos-4-0)
  (occupied pos-3-1)
  (occupied pos-0-6)
  (occupied pos-3-8)
  (occupied pos-4-4)
Init[0]:
Goal: (RW:occupied pos-2-9)
Metric: 0
