begin_version
3
end_version
begin_metric
1
end_metric
14
begin_variable
var0
-1
31
money level10
money level11
money level12
money level13
money level14
money level15
money level16
money level17
money level18
money level19
money level2
money level20
money level21
money level22
money level23
money level24
money level25
money level26
money level27
money level28
money level29
money level3
money level31
money level33
money level4
money level5
money level6
money level7
money level8
money level9
none-of-those
end_variable
begin_variable
var1
-1
6
at truck0 depot0
at truck0 market1
at truck0 market2
at truck0 market3
at truck0 market4
at truck0 market6
end_variable
begin_variable
var2
-1
3
available goods0 market4
on-sale goods0 market4
none-of-those
end_variable
begin_variable
var3
-1
2
available goods0 market5
on-sale goods0 market5
end_variable
begin_variable
var4
-1
3
available goods0 market6
on-sale goods0 market6
none-of-those
end_variable
begin_variable
var5
-1
3
available goods1 market1
on-sale goods1 market1
none-of-those
end_variable
begin_variable
var6
-1
3
available goods2 market3
on-sale goods2 market3
none-of-those
end_variable
begin_variable
var7
-1
3
available goods2 market6
on-sale goods2 market6
none-of-those
end_variable
begin_variable
var8
-1
2
loaded goods0 truck0
none-of-those
end_variable
begin_variable
var9
-1
2
loaded goods1 truck0
none-of-those
end_variable
begin_variable
var10
-1
2
loaded goods2 truck0
none-of-those
end_variable
begin_variable
var11
-1
2
stored goods0
none-of-those
end_variable
begin_variable
var12
-1
2
stored goods1
none-of-those
end_variable
begin_variable
var13
-1
2
stored goods2
none-of-those
end_variable
14
begin_mutex_group
1
2 1
end_mutex_group
begin_mutex_group
1
3 1
end_mutex_group
begin_mutex_group
1
4 1
end_mutex_group
begin_mutex_group
1
5 1
end_mutex_group
begin_mutex_group
1
6 1
end_mutex_group
begin_mutex_group
1
7 1
end_mutex_group
begin_mutex_group
2
2 0
2 1
end_mutex_group
begin_mutex_group
2
3 0
3 1
end_mutex_group
begin_mutex_group
2
4 0
4 1
end_mutex_group
begin_mutex_group
2
5 0
5 1
end_mutex_group
begin_mutex_group
2
6 0
6 1
end_mutex_group
begin_mutex_group
2
7 0
7 1
end_mutex_group
begin_mutex_group
6
1 0
1 1
1 2
1 3
1 4
1 5
end_mutex_group
begin_mutex_group
30
0 0
0 1
0 2
0 3
0 4
0 5
0 6
0 7
0 8
0 9
0 10
0 11
0 12
0 13
0 14
0 15
0 16
0 17
0 18
0 19
0 20
0 21
0 22
0 23
0 24
0 25
0 26
0 27
0 28
0 29
end_mutex_group
begin_state
23
0
1
1
1
1
1
1
1
1
1
1
1
1
end_state
begin_goal
3
11 0
12 0
13 0
end_goal
336
begin_operator
buy truck0 goods0 market4 level18 level18 level0
0
2
0 0 8 30
0 2 1 0
1
end_operator
begin_operator
buy truck0 goods0 market4 level19 level18 level1
0
2
0 0 9 30
0 2 1 0
1
end_operator
begin_operator
buy truck0 goods0 market4 level20 level18 level2
0
2
0 0 11 10
0 2 1 0
1
end_operator
begin_operator
buy truck0 goods0 market4 level21 level18 level3
0
2
0 0 12 21
0 2 1 0
1
end_operator
begin_operator
buy truck0 goods0 market4 level22 level18 level4
0
2
0 0 13 24
0 2 1 0
1
end_operator
begin_operator
buy truck0 goods0 market4 level23 level18 level5
0
2
0 0 14 25
0 2 1 0
1
end_operator
begin_operator
buy truck0 goods0 market4 level24 level18 level6
0
2
0 0 15 26
0 2 1 0
1
end_operator
begin_operator
buy truck0 goods0 market4 level25 level18 level7
0
2
0 0 16 27
0 2 1 0
1
end_operator
begin_operator
buy truck0 goods0 market4 level26 level18 level8
0
2
0 0 17 28
0 2 1 0
1
end_operator
begin_operator
buy truck0 goods0 market4 level27 level18 level9
0
2
0 0 18 29
0 2 1 0
1
end_operator
begin_operator
buy truck0 goods0 market4 level28 level18 level10
0
2
0 0 19 0
0 2 1 0
1
end_operator
begin_operator
buy truck0 goods0 market4 level29 level18 level11
0
2
0 0 20 1
0 2 1 0
1
end_operator
begin_operator
buy truck0 goods0 market4 level31 level18 level13
0
2
0 0 22 3
0 2 1 0
1
end_operator
begin_operator
buy truck0 goods0 market4 level33 level18 level15
0
2
0 0 23 5
0 2 1 0
1
end_operator
begin_operator
buy truck0 goods0 market5 level10 level9 level1
0
2
0 0 0 30
0 3 1 0
1
end_operator
begin_operator
buy truck0 goods0 market5 level11 level9 level2
0
2
0 0 1 10
0 3 1 0
1
end_operator
begin_operator
buy truck0 goods0 market5 level12 level9 level3
0
2
0 0 2 21
0 3 1 0
1
end_operator
begin_operator
buy truck0 goods0 market5 level13 level9 level4
0
2
0 0 3 24
0 3 1 0
1
end_operator
begin_operator
buy truck0 goods0 market5 level14 level9 level5
0
2
0 0 4 25
0 3 1 0
1
end_operator
begin_operator
buy truck0 goods0 market5 level15 level9 level6
0
2
0 0 5 26
0 3 1 0
1
end_operator
begin_operator
buy truck0 goods0 market5 level16 level9 level7
0
2
0 0 6 27
0 3 1 0
1
end_operator
begin_operator
buy truck0 goods0 market5 level17 level9 level8
0
2
0 0 7 28
0 3 1 0
1
end_operator
begin_operator
buy truck0 goods0 market5 level18 level9 level9
0
2
0 0 8 29
0 3 1 0
1
end_operator
begin_operator
buy truck0 goods0 market5 level19 level9 level10
0
2
0 0 9 0
0 3 1 0
1
end_operator
begin_operator
buy truck0 goods0 market5 level20 level9 level11
0
2
0 0 11 1
0 3 1 0
1
end_operator
begin_operator
buy truck0 goods0 market5 level21 level9 level12
0
2
0 0 12 2
0 3 1 0
1
end_operator
begin_operator
buy truck0 goods0 market5 level22 level9 level13
0
2
0 0 13 3
0 3 1 0
1
end_operator
begin_operator
buy truck0 goods0 market5 level23 level9 level14
0
2
0 0 14 4
0 3 1 0
1
end_operator
begin_operator
buy truck0 goods0 market5 level24 level9 level15
0
2
0 0 15 5
0 3 1 0
1
end_operator
begin_operator
buy truck0 goods0 market5 level25 level9 level16
0
2
0 0 16 6
0 3 1 0
1
end_operator
begin_operator
buy truck0 goods0 market5 level26 level9 level17
0
2
0 0 17 7
0 3 1 0
1
end_operator
begin_operator
buy truck0 goods0 market5 level27 level9 level18
0
2
0 0 18 8
0 3 1 0
1
end_operator
begin_operator
buy truck0 goods0 market5 level28 level9 level19
0
2
0 0 19 9
0 3 1 0
1
end_operator
begin_operator
buy truck0 goods0 market5 level29 level9 level20
0
2
0 0 20 11
0 3 1 0
1
end_operator
begin_operator
buy truck0 goods0 market5 level31 level9 level22
0
2
0 0 22 13
0 3 1 0
1
end_operator
begin_operator
buy truck0 goods0 market5 level33 level9 level24
0
2
0 0 23 15
0 3 1 0
1
end_operator
begin_operator
buy truck0 goods0 market5 level9 level9 level0
0
2
0 0 29 30
0 3 1 0
1
end_operator
begin_operator
buy truck0 goods0 market6 level10 level8 level2
0
2
0 0 0 10
0 4 1 0
1
end_operator
begin_operator
buy truck0 goods0 market6 level11 level8 level3
0
2
0 0 1 21
0 4 1 0
1
end_operator
begin_operator
buy truck0 goods0 market6 level12 level8 level4
0
2
0 0 2 24
0 4 1 0
1
end_operator
begin_operator
buy truck0 goods0 market6 level13 level8 level5
0
2
0 0 3 25
0 4 1 0
1
end_operator
begin_operator
buy truck0 goods0 market6 level14 level8 level6
0
2
0 0 4 26
0 4 1 0
1
end_operator
begin_operator
buy truck0 goods0 market6 level15 level8 level7
0
2
0 0 5 27
0 4 1 0
1
end_operator
begin_operator
buy truck0 goods0 market6 level16 level8 level8
0
2
0 0 6 28
0 4 1 0
1
end_operator
begin_operator
buy truck0 goods0 market6 level17 level8 level9
0
2
0 0 7 29
0 4 1 0
1
end_operator
begin_operator
buy truck0 goods0 market6 level18 level8 level10
0
2
0 0 8 0
0 4 1 0
1
end_operator
begin_operator
buy truck0 goods0 market6 level19 level8 level11
0
2
0 0 9 1
0 4 1 0
1
end_operator
begin_operator
buy truck0 goods0 market6 level20 level8 level12
0
2
0 0 11 2
0 4 1 0
1
end_operator
begin_operator
buy truck0 goods0 market6 level21 level8 level13
0
2
0 0 12 3
0 4 1 0
1
end_operator
begin_operator
buy truck0 goods0 market6 level22 level8 level14
0
2
0 0 13 4
0 4 1 0
1
end_operator
begin_operator
buy truck0 goods0 market6 level23 level8 level15
0
2
0 0 14 5
0 4 1 0
1
end_operator
begin_operator
buy truck0 goods0 market6 level24 level8 level16
0
2
0 0 15 6
0 4 1 0
1
end_operator
begin_operator
buy truck0 goods0 market6 level25 level8 level17
0
2
0 0 16 7
0 4 1 0
1
end_operator
begin_operator
buy truck0 goods0 market6 level26 level8 level18
0
2
0 0 17 8
0 4 1 0
1
end_operator
begin_operator
buy truck0 goods0 market6 level27 level8 level19
0
2
0 0 18 9
0 4 1 0
1
end_operator
begin_operator
buy truck0 goods0 market6 level28 level8 level20
0
2
0 0 19 11
0 4 1 0
1
end_operator
begin_operator
buy truck0 goods0 market6 level29 level8 level21
0
2
0 0 20 12
0 4 1 0
1
end_operator
begin_operator
buy truck0 goods0 market6 level31 level8 level23
0
2
0 0 22 14
0 4 1 0
1
end_operator
begin_operator
buy truck0 goods0 market6 level33 level8 level25
0
2
0 0 23 16
0 4 1 0
1
end_operator
begin_operator
buy truck0 goods0 market6 level8 level8 level0
0
2
0 0 28 30
0 4 1 0
1
end_operator
begin_operator
buy truck0 goods0 market6 level9 level8 level1
0
2
0 0 29 30
0 4 1 0
1
end_operator
begin_operator
buy truck0 goods1 market1 level10 level5 level5
0
2
0 0 0 25
0 5 1 0
1
end_operator
begin_operator
buy truck0 goods1 market1 level11 level5 level6
0
2
0 0 1 26
0 5 1 0
1
end_operator
begin_operator
buy truck0 goods1 market1 level12 level5 level7
0
2
0 0 2 27
0 5 1 0
1
end_operator
begin_operator
buy truck0 goods1 market1 level13 level5 level8
0
2
0 0 3 28
0 5 1 0
1
end_operator
begin_operator
buy truck0 goods1 market1 level14 level5 level9
0
2
0 0 4 29
0 5 1 0
1
end_operator
begin_operator
buy truck0 goods1 market1 level15 level5 level10
0
2
0 0 5 0
0 5 1 0
1
end_operator
begin_operator
buy truck0 goods1 market1 level16 level5 level11
0
2
0 0 6 1
0 5 1 0
1
end_operator
begin_operator
buy truck0 goods1 market1 level17 level5 level12
0
2
0 0 7 2
0 5 1 0
1
end_operator
begin_operator
buy truck0 goods1 market1 level18 level5 level13
0
2
0 0 8 3
0 5 1 0
1
end_operator
begin_operator
buy truck0 goods1 market1 level19 level5 level14
0
2
0 0 9 4
0 5 1 0
1
end_operator
begin_operator
buy truck0 goods1 market1 level20 level5 level15
0
2
0 0 11 5
0 5 1 0
1
end_operator
begin_operator
buy truck0 goods1 market1 level21 level5 level16
0
2
0 0 12 6
0 5 1 0
1
end_operator
begin_operator
buy truck0 goods1 market1 level22 level5 level17
0
2
0 0 13 7
0 5 1 0
1
end_operator
begin_operator
buy truck0 goods1 market1 level23 level5 level18
0
2
0 0 14 8
0 5 1 0
1
end_operator
begin_operator
buy truck0 goods1 market1 level24 level5 level19
0
2
0 0 15 9
0 5 1 0
1
end_operator
begin_operator
buy truck0 goods1 market1 level25 level5 level20
0
2
0 0 16 11
0 5 1 0
1
end_operator
begin_operator
buy truck0 goods1 market1 level27 level5 level22
0
2
0 0 18 13
0 5 1 0
1
end_operator
begin_operator
buy truck0 goods1 market1 level29 level5 level24
0
2
0 0 20 15
0 5 1 0
1
end_operator
begin_operator
buy truck0 goods1 market1 level31 level5 level26
0
2
0 0 22 17
0 5 1 0
1
end_operator
begin_operator
buy truck0 goods1 market1 level33 level5 level28
0
2
0 0 23 19
0 5 1 0
1
end_operator
begin_operator
buy truck0 goods1 market1 level5 level5 level0
0
2
0 0 25 30
0 5 1 0
1
end_operator
begin_operator
buy truck0 goods1 market1 level6 level5 level1
0
2
0 0 26 30
0 5 1 0
1
end_operator
begin_operator
buy truck0 goods1 market1 level7 level5 level2
0
2
0 0 27 10
0 5 1 0
1
end_operator
begin_operator
buy truck0 goods1 market1 level8 level5 level3
0
2
0 0 28 21
0 5 1 0
1
end_operator
begin_operator
buy truck0 goods1 market1 level9 level5 level4
0
2
0 0 29 24
0 5 1 0
1
end_operator
begin_operator
buy truck0 goods2 market3 level10 level6 level4
0
2
0 0 0 24
0 6 1 0
1
end_operator
begin_operator
buy truck0 goods2 market3 level11 level6 level5
0
2
0 0 1 25
0 6 1 0
1
end_operator
begin_operator
buy truck0 goods2 market3 level12 level6 level6
0
2
0 0 2 26
0 6 1 0
1
end_operator
begin_operator
buy truck0 goods2 market3 level13 level6 level7
0
2
0 0 3 27
0 6 1 0
1
end_operator
begin_operator
buy truck0 goods2 market3 level14 level6 level8
0
2
0 0 4 28
0 6 1 0
1
end_operator
begin_operator
buy truck0 goods2 market3 level15 level6 level9
0
2
0 0 5 29
0 6 1 0
1
end_operator
begin_operator
buy truck0 goods2 market3 level16 level6 level10
0
2
0 0 6 0
0 6 1 0
1
end_operator
begin_operator
buy truck0 goods2 market3 level17 level6 level11
0
2
0 0 7 1
0 6 1 0
1
end_operator
begin_operator
buy truck0 goods2 market3 level18 level6 level12
0
2
0 0 8 2
0 6 1 0
1
end_operator
begin_operator
buy truck0 goods2 market3 level19 level6 level13
0
2
0 0 9 3
0 6 1 0
1
end_operator
begin_operator
buy truck0 goods2 market3 level20 level6 level14
0
2
0 0 11 4
0 6 1 0
1
end_operator
begin_operator
buy truck0 goods2 market3 level21 level6 level15
0
2
0 0 12 5
0 6 1 0
1
end_operator
begin_operator
buy truck0 goods2 market3 level22 level6 level16
0
2
0 0 13 6
0 6 1 0
1
end_operator
begin_operator
buy truck0 goods2 market3 level23 level6 level17
0
2
0 0 14 7
0 6 1 0
1
end_operator
begin_operator
buy truck0 goods2 market3 level24 level6 level18
0
2
0 0 15 8
0 6 1 0
1
end_operator
begin_operator
buy truck0 goods2 market3 level25 level6 level19
0
2
0 0 16 9
0 6 1 0
1
end_operator
begin_operator
buy truck0 goods2 market3 level26 level6 level20
0
2
0 0 17 11
0 6 1 0
1
end_operator
begin_operator
buy truck0 goods2 market3 level27 level6 level21
0
2
0 0 18 12
0 6 1 0
1
end_operator
begin_operator
buy truck0 goods2 market3 level28 level6 level22
0
2
0 0 19 13
0 6 1 0
1
end_operator
begin_operator
buy truck0 goods2 market3 level29 level6 level23
0
2
0 0 20 14
0 6 1 0
1
end_operator
begin_operator
buy truck0 goods2 market3 level31 level6 level25
0
2
0 0 22 16
0 6 1 0
1
end_operator
begin_operator
buy truck0 goods2 market3 level33 level6 level27
0
2
0 0 23 18
0 6 1 0
1
end_operator
begin_operator
buy truck0 goods2 market3 level6 level6 level0
0
2
0 0 26 30
0 6 1 0
1
end_operator
begin_operator
buy truck0 goods2 market3 level7 level6 level1
0
2
0 0 27 30
0 6 1 0
1
end_operator
begin_operator
buy truck0 goods2 market3 level8 level6 level2
0
2
0 0 28 10
0 6 1 0
1
end_operator
begin_operator
buy truck0 goods2 market3 level9 level6 level3
0
2
0 0 29 21
0 6 1 0
1
end_operator
begin_operator
buy truck0 goods2 market6 level18 level18 level0
0
2
0 0 8 30
0 7 1 0
1
end_operator
begin_operator
buy truck0 goods2 market6 level19 level18 level1
0
2
0 0 9 30
0 7 1 0
1
end_operator
begin_operator
buy truck0 goods2 market6 level20 level18 level2
0
2
0 0 11 10
0 7 1 0
1
end_operator
begin_operator
buy truck0 goods2 market6 level21 level18 level3
0
2
0 0 12 21
0 7 1 0
1
end_operator
begin_operator
buy truck0 goods2 market6 level22 level18 level4
0
2
0 0 13 24
0 7 1 0
1
end_operator
begin_operator
buy truck0 goods2 market6 level23 level18 level5
0
2
0 0 14 25
0 7 1 0
1
end_operator
begin_operator
buy truck0 goods2 market6 level24 level18 level6
0
2
0 0 15 26
0 7 1 0
1
end_operator
begin_operator
buy truck0 goods2 market6 level25 level18 level7
0
2
0 0 16 27
0 7 1 0
1
end_operator
begin_operator
buy truck0 goods2 market6 level26 level18 level8
0
2
0 0 17 28
0 7 1 0
1
end_operator
begin_operator
buy truck0 goods2 market6 level27 level18 level9
0
2
0 0 18 29
0 7 1 0
1
end_operator
begin_operator
buy truck0 goods2 market6 level28 level18 level10
0
2
0 0 19 0
0 7 1 0
1
end_operator
begin_operator
buy truck0 goods2 market6 level29 level18 level11
0
2
0 0 20 1
0 7 1 0
1
end_operator
begin_operator
buy truck0 goods2 market6 level31 level18 level13
0
2
0 0 22 3
0 7 1 0
1
end_operator
begin_operator
buy truck0 goods2 market6 level33 level18 level15
0
2
0 0 23 5
0 7 1 0
1
end_operator
begin_operator
drive truck0 depot0 market3 level10 level2 level8
0
2
0 0 0 28
0 1 0 3
1
end_operator
begin_operator
drive truck0 depot0 market3 level11 level2 level9
0
2
0 0 1 29
0 1 0 3
1
end_operator
begin_operator
drive truck0 depot0 market3 level12 level2 level10
0
2
0 0 2 0
0 1 0 3
1
end_operator
begin_operator
drive truck0 depot0 market3 level13 level2 level11
0
2
0 0 3 1
0 1 0 3
1
end_operator
begin_operator
drive truck0 depot0 market3 level14 level2 level12
0
2
0 0 4 2
0 1 0 3
1
end_operator
begin_operator
drive truck0 depot0 market3 level15 level2 level13
0
2
0 0 5 3
0 1 0 3
1
end_operator
begin_operator
drive truck0 depot0 market3 level16 level2 level14
0
2
0 0 6 4
0 1 0 3
1
end_operator
begin_operator
drive truck0 depot0 market3 level17 level2 level15
0
2
0 0 7 5
0 1 0 3
1
end_operator
begin_operator
drive truck0 depot0 market3 level18 level2 level16
0
2
0 0 8 6
0 1 0 3
1
end_operator
begin_operator
drive truck0 depot0 market3 level19 level2 level17
0
2
0 0 9 7
0 1 0 3
1
end_operator
begin_operator
drive truck0 depot0 market3 level2 level2 level0
0
2
0 0 10 30
0 1 0 3
1
end_operator
begin_operator
drive truck0 depot0 market3 level20 level2 level18
0
2
0 0 11 8
0 1 0 3
1
end_operator
begin_operator
drive truck0 depot0 market3 level21 level2 level19
0
2
0 0 12 9
0 1 0 3
1
end_operator
begin_operator
drive truck0 depot0 market3 level22 level2 level20
0
2
0 0 13 11
0 1 0 3
1
end_operator
begin_operator
drive truck0 depot0 market3 level23 level2 level21
0
2
0 0 14 12
0 1 0 3
1
end_operator
begin_operator
drive truck0 depot0 market3 level24 level2 level22
0
2
0 0 15 13
0 1 0 3
1
end_operator
begin_operator
drive truck0 depot0 market3 level25 level2 level23
0
2
0 0 16 14
0 1 0 3
1
end_operator
begin_operator
drive truck0 depot0 market3 level27 level2 level25
0
2
0 0 18 16
0 1 0 3
1
end_operator
begin_operator
drive truck0 depot0 market3 level28 level2 level26
0
2
0 0 19 17
0 1 0 3
1
end_operator
begin_operator
drive truck0 depot0 market3 level29 level2 level27
0
2
0 0 20 18
0 1 0 3
1
end_operator
begin_operator
drive truck0 depot0 market3 level3 level2 level1
0
2
0 0 21 30
0 1 0 3
1
end_operator
begin_operator
drive truck0 depot0 market3 level33 level2 level31
0
2
0 0 23 22
0 1 0 3
1
end_operator
begin_operator
drive truck0 depot0 market3 level4 level2 level2
0
2
0 0 24 10
0 1 0 3
1
end_operator
begin_operator
drive truck0 depot0 market3 level5 level2 level3
0
2
0 0 25 21
0 1 0 3
1
end_operator
begin_operator
drive truck0 depot0 market3 level6 level2 level4
0
2
0 0 26 24
0 1 0 3
1
end_operator
begin_operator
drive truck0 depot0 market3 level7 level2 level5
0
2
0 0 27 25
0 1 0 3
1
end_operator
begin_operator
drive truck0 depot0 market3 level8 level2 level6
0
2
0 0 28 26
0 1 0 3
1
end_operator
begin_operator
drive truck0 depot0 market3 level9 level2 level7
0
2
0 0 29 27
0 1 0 3
1
end_operator
begin_operator
drive truck0 depot0 market4 level10 level4 level6
0
2
0 0 0 26
0 1 0 4
1
end_operator
begin_operator
drive truck0 depot0 market4 level11 level4 level7
0
2
0 0 1 27
0 1 0 4
1
end_operator
begin_operator
drive truck0 depot0 market4 level12 level4 level8
0
2
0 0 2 28
0 1 0 4
1
end_operator
begin_operator
drive truck0 depot0 market4 level13 level4 level9
0
2
0 0 3 29
0 1 0 4
1
end_operator
begin_operator
drive truck0 depot0 market4 level14 level4 level10
0
2
0 0 4 0
0 1 0 4
1
end_operator
begin_operator
drive truck0 depot0 market4 level15 level4 level11
0
2
0 0 5 1
0 1 0 4
1
end_operator
begin_operator
drive truck0 depot0 market4 level16 level4 level12
0
2
0 0 6 2
0 1 0 4
1
end_operator
begin_operator
drive truck0 depot0 market4 level17 level4 level13
0
2
0 0 7 3
0 1 0 4
1
end_operator
begin_operator
drive truck0 depot0 market4 level18 level4 level14
0
2
0 0 8 4
0 1 0 4
1
end_operator
begin_operator
drive truck0 depot0 market4 level19 level4 level15
0
2
0 0 9 5
0 1 0 4
1
end_operator
begin_operator
drive truck0 depot0 market4 level20 level4 level16
0
2
0 0 11 6
0 1 0 4
1
end_operator
begin_operator
drive truck0 depot0 market4 level21 level4 level17
0
2
0 0 12 7
0 1 0 4
1
end_operator
begin_operator
drive truck0 depot0 market4 level22 level4 level18
0
2
0 0 13 8
0 1 0 4
1
end_operator
begin_operator
drive truck0 depot0 market4 level23 level4 level19
0
2
0 0 14 9
0 1 0 4
1
end_operator
begin_operator
drive truck0 depot0 market4 level24 level4 level20
0
2
0 0 15 11
0 1 0 4
1
end_operator
begin_operator
drive truck0 depot0 market4 level25 level4 level21
0
2
0 0 16 12
0 1 0 4
1
end_operator
begin_operator
drive truck0 depot0 market4 level27 level4 level23
0
2
0 0 18 14
0 1 0 4
1
end_operator
begin_operator
drive truck0 depot0 market4 level28 level4 level24
0
2
0 0 19 15
0 1 0 4
1
end_operator
begin_operator
drive truck0 depot0 market4 level29 level4 level25
0
2
0 0 20 16
0 1 0 4
1
end_operator
begin_operator
drive truck0 depot0 market4 level33 level4 level29
0
2
0 0 23 20
0 1 0 4
1
end_operator
begin_operator
drive truck0 depot0 market4 level4 level4 level0
0
2
0 0 24 30
0 1 0 4
1
end_operator
begin_operator
drive truck0 depot0 market4 level5 level4 level1
0
2
0 0 25 30
0 1 0 4
1
end_operator
begin_operator
drive truck0 depot0 market4 level6 level4 level2
0
2
0 0 26 10
0 1 0 4
1
end_operator
begin_operator
drive truck0 depot0 market4 level7 level4 level3
0
2
0 0 27 21
0 1 0 4
1
end_operator
begin_operator
drive truck0 depot0 market4 level8 level4 level4
0
2
0 0 28 24
0 1 0 4
1
end_operator
begin_operator
drive truck0 depot0 market4 level9 level4 level5
0
2
0 0 29 25
0 1 0 4
1
end_operator
begin_operator
drive truck0 depot0 market6 level10 level9 level1
0
2
0 0 0 30
0 1 0 5
1
end_operator
begin_operator
drive truck0 depot0 market6 level11 level9 level2
0
2
0 0 1 10
0 1 0 5
1
end_operator
begin_operator
drive truck0 depot0 market6 level12 level9 level3
0
2
0 0 2 21
0 1 0 5
1
end_operator
begin_operator
drive truck0 depot0 market6 level13 level9 level4
0
2
0 0 3 24
0 1 0 5
1
end_operator
begin_operator
drive truck0 depot0 market6 level14 level9 level5
0
2
0 0 4 25
0 1 0 5
1
end_operator
begin_operator
drive truck0 depot0 market6 level15 level9 level6
0
2
0 0 5 26
0 1 0 5
1
end_operator
begin_operator
drive truck0 depot0 market6 level16 level9 level7
0
2
0 0 6 27
0 1 0 5
1
end_operator
begin_operator
drive truck0 depot0 market6 level17 level9 level8
0
2
0 0 7 28
0 1 0 5
1
end_operator
begin_operator
drive truck0 depot0 market6 level18 level9 level9
0
2
0 0 8 29
0 1 0 5
1
end_operator
begin_operator
drive truck0 depot0 market6 level19 level9 level10
0
2
0 0 9 0
0 1 0 5
1
end_operator
begin_operator
drive truck0 depot0 market6 level20 level9 level11
0
2
0 0 11 1
0 1 0 5
1
end_operator
begin_operator
drive truck0 depot0 market6 level21 level9 level12
0
2
0 0 12 2
0 1 0 5
1
end_operator
begin_operator
drive truck0 depot0 market6 level22 level9 level13
0
2
0 0 13 3
0 1 0 5
1
end_operator
begin_operator
drive truck0 depot0 market6 level23 level9 level14
0
2
0 0 14 4
0 1 0 5
1
end_operator
begin_operator
drive truck0 depot0 market6 level24 level9 level15
0
2
0 0 15 5
0 1 0 5
1
end_operator
begin_operator
drive truck0 depot0 market6 level25 level9 level16
0
2
0 0 16 6
0 1 0 5
1
end_operator
begin_operator
drive truck0 depot0 market6 level27 level9 level18
0
2
0 0 18 8
0 1 0 5
1
end_operator
begin_operator
drive truck0 depot0 market6 level28 level9 level19
0
2
0 0 19 9
0 1 0 5
1
end_operator
begin_operator
drive truck0 depot0 market6 level29 level9 level20
0
2
0 0 20 11
0 1 0 5
1
end_operator
begin_operator
drive truck0 depot0 market6 level33 level9 level24
0
2
0 0 23 15
0 1 0 5
1
end_operator
begin_operator
drive truck0 depot0 market6 level9 level9 level0
0
2
0 0 29 30
0 1 0 5
1
end_operator
begin_operator
drive truck0 market1 market4 level15 level14 level1
0
2
0 0 5 30
0 1 1 4
1
end_operator
begin_operator
drive truck0 market2 market3 level10 level2 level8
0
2
0 0 0 28
0 1 2 3
1
end_operator
begin_operator
drive truck0 market2 market3 level11 level2 level9
0
2
0 0 1 29
0 1 2 3
1
end_operator
begin_operator
drive truck0 market2 market3 level12 level2 level10
0
2
0 0 2 0
0 1 2 3
1
end_operator
begin_operator
drive truck0 market2 market3 level13 level2 level11
0
2
0 0 3 1
0 1 2 3
1
end_operator
begin_operator
drive truck0 market2 market3 level14 level2 level12
0
2
0 0 4 2
0 1 2 3
1
end_operator
begin_operator
drive truck0 market2 market3 level15 level2 level13
0
2
0 0 5 3
0 1 2 3
1
end_operator
begin_operator
drive truck0 market2 market3 level16 level2 level14
0
2
0 0 6 4
0 1 2 3
1
end_operator
begin_operator
drive truck0 market2 market3 level17 level2 level15
0
2
0 0 7 5
0 1 2 3
1
end_operator
begin_operator
drive truck0 market2 market3 level18 level2 level16
0
2
0 0 8 6
0 1 2 3
1
end_operator
begin_operator
drive truck0 market2 market3 level19 level2 level17
0
2
0 0 9 7
0 1 2 3
1
end_operator
begin_operator
drive truck0 market2 market3 level2 level2 level0
0
2
0 0 10 30
0 1 2 3
1
end_operator
begin_operator
drive truck0 market2 market3 level20 level2 level18
0
2
0 0 11 8
0 1 2 3
1
end_operator
begin_operator
drive truck0 market2 market3 level21 level2 level19
0
2
0 0 12 9
0 1 2 3
1
end_operator
begin_operator
drive truck0 market2 market3 level23 level2 level21
0
2
0 0 14 12
0 1 2 3
1
end_operator
begin_operator
drive truck0 market2 market3 level24 level2 level22
0
2
0 0 15 13
0 1 2 3
1
end_operator
begin_operator
drive truck0 market2 market3 level25 level2 level23
0
2
0 0 16 14
0 1 2 3
1
end_operator
begin_operator
drive truck0 market2 market3 level29 level2 level27
0
2
0 0 20 18
0 1 2 3
1
end_operator
begin_operator
drive truck0 market2 market3 level3 level2 level1
0
2
0 0 21 30
0 1 2 3
1
end_operator
begin_operator
drive truck0 market2 market3 level4 level2 level2
0
2
0 0 24 10
0 1 2 3
1
end_operator
begin_operator
drive truck0 market2 market3 level5 level2 level3
0
2
0 0 25 21
0 1 2 3
1
end_operator
begin_operator
drive truck0 market2 market3 level6 level2 level4
0
2
0 0 26 24
0 1 2 3
1
end_operator
begin_operator
drive truck0 market2 market3 level7 level2 level5
0
2
0 0 27 25
0 1 2 3
1
end_operator
begin_operator
drive truck0 market2 market3 level8 level2 level6
0
2
0 0 28 26
0 1 2 3
1
end_operator
begin_operator
drive truck0 market2 market3 level9 level2 level7
0
2
0 0 29 27
0 1 2 3
1
end_operator
begin_operator
drive truck0 market3 depot0 level10 level2 level8
0
2
0 0 0 28
0 1 3 0
1
end_operator
begin_operator
drive truck0 market3 depot0 level11 level2 level9
0
2
0 0 1 29
0 1 3 0
1
end_operator
begin_operator
drive truck0 market3 depot0 level12 level2 level10
0
2
0 0 2 0
0 1 3 0
1
end_operator
begin_operator
drive truck0 market3 depot0 level13 level2 level11
0
2
0 0 3 1
0 1 3 0
1
end_operator
begin_operator
drive truck0 market3 depot0 level14 level2 level12
0
2
0 0 4 2
0 1 3 0
1
end_operator
begin_operator
drive truck0 market3 depot0 level15 level2 level13
0
2
0 0 5 3
0 1 3 0
1
end_operator
begin_operator
drive truck0 market3 depot0 level16 level2 level14
0
2
0 0 6 4
0 1 3 0
1
end_operator
begin_operator
drive truck0 market3 depot0 level17 level2 level15
0
2
0 0 7 5
0 1 3 0
1
end_operator
begin_operator
drive truck0 market3 depot0 level18 level2 level16
0
2
0 0 8 6
0 1 3 0
1
end_operator
begin_operator
drive truck0 market3 depot0 level19 level2 level17
0
2
0 0 9 7
0 1 3 0
1
end_operator
begin_operator
drive truck0 market3 depot0 level2 level2 level0
0
2
0 0 10 30
0 1 3 0
1
end_operator
begin_operator
drive truck0 market3 depot0 level20 level2 level18
0
2
0 0 11 8
0 1 3 0
1
end_operator
begin_operator
drive truck0 market3 depot0 level21 level2 level19
0
2
0 0 12 9
0 1 3 0
1
end_operator
begin_operator
drive truck0 market3 depot0 level22 level2 level20
0
2
0 0 13 11
0 1 3 0
1
end_operator
begin_operator
drive truck0 market3 depot0 level23 level2 level21
0
2
0 0 14 12
0 1 3 0
1
end_operator
begin_operator
drive truck0 market3 depot0 level25 level2 level23
0
2
0 0 16 14
0 1 3 0
1
end_operator
begin_operator
drive truck0 market3 depot0 level26 level2 level24
0
2
0 0 17 15
0 1 3 0
1
end_operator
begin_operator
drive truck0 market3 depot0 level27 level2 level25
0
2
0 0 18 16
0 1 3 0
1
end_operator
begin_operator
drive truck0 market3 depot0 level3 level2 level1
0
2
0 0 21 30
0 1 3 0
1
end_operator
begin_operator
drive truck0 market3 depot0 level31 level2 level29
0
2
0 0 22 20
0 1 3 0
1
end_operator
begin_operator
drive truck0 market3 depot0 level4 level2 level2
0
2
0 0 24 10
0 1 3 0
1
end_operator
begin_operator
drive truck0 market3 depot0 level5 level2 level3
0
2
0 0 25 21
0 1 3 0
1
end_operator
begin_operator
drive truck0 market3 depot0 level6 level2 level4
0
2
0 0 26 24
0 1 3 0
1
end_operator
begin_operator
drive truck0 market3 depot0 level7 level2 level5
0
2
0 0 27 25
0 1 3 0
1
end_operator
begin_operator
drive truck0 market3 depot0 level8 level2 level6
0
2
0 0 28 26
0 1 3 0
1
end_operator
begin_operator
drive truck0 market3 depot0 level9 level2 level7
0
2
0 0 29 27
0 1 3 0
1
end_operator
begin_operator
drive truck0 market3 market2 level10 level2 level8
0
2
0 0 0 28
0 1 3 2
1
end_operator
begin_operator
drive truck0 market3 market2 level11 level2 level9
0
2
0 0 1 29
0 1 3 2
1
end_operator
begin_operator
drive truck0 market3 market2 level12 level2 level10
0
2
0 0 2 0
0 1 3 2
1
end_operator
begin_operator
drive truck0 market3 market2 level13 level2 level11
0
2
0 0 3 1
0 1 3 2
1
end_operator
begin_operator
drive truck0 market3 market2 level14 level2 level12
0
2
0 0 4 2
0 1 3 2
1
end_operator
begin_operator
drive truck0 market3 market2 level15 level2 level13
0
2
0 0 5 3
0 1 3 2
1
end_operator
begin_operator
drive truck0 market3 market2 level16 level2 level14
0
2
0 0 6 4
0 1 3 2
1
end_operator
begin_operator
drive truck0 market3 market2 level17 level2 level15
0
2
0 0 7 5
0 1 3 2
1
end_operator
begin_operator
drive truck0 market3 market2 level18 level2 level16
0
2
0 0 8 6
0 1 3 2
1
end_operator
begin_operator
drive truck0 market3 market2 level19 level2 level17
0
2
0 0 9 7
0 1 3 2
1
end_operator
begin_operator
drive truck0 market3 market2 level2 level2 level0
0
2
0 0 10 30
0 1 3 2
1
end_operator
begin_operator
drive truck0 market3 market2 level20 level2 level18
0
2
0 0 11 8
0 1 3 2
1
end_operator
begin_operator
drive truck0 market3 market2 level21 level2 level19
0
2
0 0 12 9
0 1 3 2
1
end_operator
begin_operator
drive truck0 market3 market2 level22 level2 level20
0
2
0 0 13 11
0 1 3 2
1
end_operator
begin_operator
drive truck0 market3 market2 level23 level2 level21
0
2
0 0 14 12
0 1 3 2
1
end_operator
begin_operator
drive truck0 market3 market2 level25 level2 level23
0
2
0 0 16 14
0 1 3 2
1
end_operator
begin_operator
drive truck0 market3 market2 level26 level2 level24
0
2
0 0 17 15
0 1 3 2
1
end_operator
begin_operator
drive truck0 market3 market2 level27 level2 level25
0
2
0 0 18 16
0 1 3 2
1
end_operator
begin_operator
drive truck0 market3 market2 level3 level2 level1
0
2
0 0 21 30
0 1 3 2
1
end_operator
begin_operator
drive truck0 market3 market2 level31 level2 level29
0
2
0 0 22 20
0 1 3 2
1
end_operator
begin_operator
drive truck0 market3 market2 level4 level2 level2
0
2
0 0 24 10
0 1 3 2
1
end_operator
begin_operator
drive truck0 market3 market2 level5 level2 level3
0
2
0 0 25 21
0 1 3 2
1
end_operator
begin_operator
drive truck0 market3 market2 level6 level2 level4
0
2
0 0 26 24
0 1 3 2
1
end_operator
begin_operator
drive truck0 market3 market2 level7 level2 level5
0
2
0 0 27 25
0 1 3 2
1
end_operator
begin_operator
drive truck0 market3 market2 level8 level2 level6
0
2
0 0 28 26
0 1 3 2
1
end_operator
begin_operator
drive truck0 market3 market2 level9 level2 level7
0
2
0 0 29 27
0 1 3 2
1
end_operator
begin_operator
drive truck0 market4 depot0 level10 level4 level6
0
2
0 0 0 26
0 1 4 0
1
end_operator
begin_operator
drive truck0 market4 depot0 level11 level4 level7
0
2
0 0 1 27
0 1 4 0
1
end_operator
begin_operator
drive truck0 market4 depot0 level12 level4 level8
0
2
0 0 2 28
0 1 4 0
1
end_operator
begin_operator
drive truck0 market4 depot0 level13 level4 level9
0
2
0 0 3 29
0 1 4 0
1
end_operator
begin_operator
drive truck0 market4 depot0 level14 level4 level10
0
2
0 0 4 0
0 1 4 0
1
end_operator
begin_operator
drive truck0 market4 depot0 level15 level4 level11
0
2
0 0 5 1
0 1 4 0
1
end_operator
begin_operator
drive truck0 market4 depot0 level16 level4 level12
0
2
0 0 6 2
0 1 4 0
1
end_operator
begin_operator
drive truck0 market4 depot0 level17 level4 level13
0
2
0 0 7 3
0 1 4 0
1
end_operator
begin_operator
drive truck0 market4 depot0 level18 level4 level14
0
2
0 0 8 4
0 1 4 0
1
end_operator
begin_operator
drive truck0 market4 depot0 level19 level4 level15
0
2
0 0 9 5
0 1 4 0
1
end_operator
begin_operator
drive truck0 market4 depot0 level20 level4 level16
0
2
0 0 11 6
0 1 4 0
1
end_operator
begin_operator
drive truck0 market4 depot0 level21 level4 level17
0
2
0 0 12 7
0 1 4 0
1
end_operator
begin_operator
drive truck0 market4 depot0 level23 level4 level19
0
2
0 0 14 9
0 1 4 0
1
end_operator
begin_operator
drive truck0 market4 depot0 level24 level4 level20
0
2
0 0 15 11
0 1 4 0
1
end_operator
begin_operator
drive truck0 market4 depot0 level25 level4 level21
0
2
0 0 16 12
0 1 4 0
1
end_operator
begin_operator
drive truck0 market4 depot0 level29 level4 level25
0
2
0 0 20 16
0 1 4 0
1
end_operator
begin_operator
drive truck0 market4 depot0 level4 level4 level0
0
2
0 0 24 30
0 1 4 0
1
end_operator
begin_operator
drive truck0 market4 depot0 level5 level4 level1
0
2
0 0 25 30
0 1 4 0
1
end_operator
begin_operator
drive truck0 market4 depot0 level6 level4 level2
0
2
0 0 26 10
0 1 4 0
1
end_operator
begin_operator
drive truck0 market4 depot0 level7 level4 level3
0
2
0 0 27 21
0 1 4 0
1
end_operator
begin_operator
drive truck0 market4 depot0 level8 level4 level4
0
2
0 0 28 24
0 1 4 0
1
end_operator
begin_operator
drive truck0 market4 depot0 level9 level4 level5
0
2
0 0 29 25
0 1 4 0
1
end_operator
begin_operator
drive truck0 market4 market1 level14 level14 level0
0
2
0 0 4 30
0 1 4 1
1
end_operator
begin_operator
drive truck0 market4 market1 level15 level14 level1
0
2
0 0 5 30
0 1 4 1
1
end_operator
begin_operator
drive truck0 market4 market1 level16 level14 level2
0
2
0 0 6 10
0 1 4 1
1
end_operator
begin_operator
drive truck0 market4 market1 level17 level14 level3
0
2
0 0 7 21
0 1 4 1
1
end_operator
begin_operator
drive truck0 market4 market1 level18 level14 level4
0
2
0 0 8 24
0 1 4 1
1
end_operator
begin_operator
drive truck0 market4 market1 level19 level14 level5
0
2
0 0 9 25
0 1 4 1
1
end_operator
begin_operator
drive truck0 market4 market1 level20 level14 level6
0
2
0 0 11 26
0 1 4 1
1
end_operator
begin_operator
drive truck0 market4 market1 level21 level14 level7
0
2
0 0 12 27
0 1 4 1
1
end_operator
begin_operator
drive truck0 market4 market1 level23 level14 level9
0
2
0 0 14 29
0 1 4 1
1
end_operator
begin_operator
drive truck0 market4 market1 level24 level14 level10
0
2
0 0 15 0
0 1 4 1
1
end_operator
begin_operator
drive truck0 market4 market1 level25 level14 level11
0
2
0 0 16 1
0 1 4 1
1
end_operator
begin_operator
drive truck0 market4 market1 level29 level14 level15
0
2
0 0 20 5
0 1 4 1
1
end_operator
begin_operator
drive truck0 market6 depot0 level10 level9 level1
0
2
0 0 0 30
0 1 5 0
1
end_operator
begin_operator
drive truck0 market6 depot0 level11 level9 level2
0
2
0 0 1 10
0 1 5 0
1
end_operator
begin_operator
drive truck0 market6 depot0 level12 level9 level3
0
2
0 0 2 21
0 1 5 0
1
end_operator
begin_operator
drive truck0 market6 depot0 level13 level9 level4
0
2
0 0 3 24
0 1 5 0
1
end_operator
begin_operator
drive truck0 market6 depot0 level14 level9 level5
0
2
0 0 4 25
0 1 5 0
1
end_operator
begin_operator
drive truck0 market6 depot0 level15 level9 level6
0
2
0 0 5 26
0 1 5 0
1
end_operator
begin_operator
drive truck0 market6 depot0 level16 level9 level7
0
2
0 0 6 27
0 1 5 0
1
end_operator
begin_operator
drive truck0 market6 depot0 level18 level9 level9
0
2
0 0 8 29
0 1 5 0
1
end_operator
begin_operator
drive truck0 market6 depot0 level19 level9 level10
0
2
0 0 9 0
0 1 5 0
1
end_operator
begin_operator
drive truck0 market6 depot0 level20 level9 level11
0
2
0 0 11 1
0 1 5 0
1
end_operator
begin_operator
drive truck0 market6 depot0 level24 level9 level15
0
2
0 0 15 5
0 1 5 0
1
end_operator
begin_operator
drive truck0 market6 depot0 level9 level9 level0
0
2
0 0 29 30
0 1 5 0
1
end_operator
begin_operator
drive truck0 market6 market1 level18 level17 level1
0
2
0 0 8 30
0 1 5 1
1
end_operator
begin_operator
drive truck0 market6 market1 level19 level17 level2
0
2
0 0 9 10
0 1 5 1
1
end_operator
begin_operator
drive truck0 market6 market1 level20 level17 level3
0
2
0 0 11 21
0 1 5 1
1
end_operator
begin_operator
drive truck0 market6 market1 level24 level17 level7
0
2
0 0 15 27
0 1 5 1
1
end_operator
begin_operator
load goods0 truck0 market4
1
1 4
2
0 2 0 2
0 8 -1 0
1
end_operator
begin_operator
load goods0 truck0 market6
1
1 5
2
0 4 0 2
0 8 -1 0
1
end_operator
begin_operator
load goods1 truck0 market1
1
1 1
2
0 5 0 2
0 9 -1 0
1
end_operator
begin_operator
load goods2 truck0 market3
1
1 3
2
0 6 0 2
0 10 -1 0
1
end_operator
begin_operator
load goods2 truck0 market6
1
1 5
2
0 7 0 2
0 10 -1 0
1
end_operator
begin_operator
unload truck0 goods0 depot0
1
1 0
2
0 8 0 1
0 11 -1 0
1
end_operator
begin_operator
unload truck0 goods1 depot0
1
1 0
2
0 9 0 1
0 12 -1 0
1
end_operator
begin_operator
unload truck0 goods2 depot0
1
1 0
2
0 10 0 1
0 13 -1 0
1
end_operator
0
