Monotonicity invariants:
< {occupied C0:location}
, {occupied V0:location, free V0:location}
>
FD Mutex Groups:
< {occupied V0:location, free V0:location}:=1
>
FD Goal aware:
< {occupied pos-0-2, free pos-0-2}:=1
, {occupied pos-0-3, free pos-0-3}:=1
, {occupied pos-0-4, free pos-0-4}:=1
, {occupied pos-1-2, free pos-1-2}:=1
, {occupied pos-1-3, free pos-1-3}:=1
, {occupied pos-1-4, free pos-1-4}:=1
, {occupied pos-2-0, free pos-2-0}:=1
, {occupied pos-2-1, free pos-2-1}:=1
, {occupied pos-2-2, free pos-2-2}:=1
, {occupied pos-2-3, free pos-2-3}:=1
, {occupied pos-2-4, free pos-2-4}:=1
, {occupied pos-2-5, free pos-2-5}:=1
, {occupied pos-2-6, free pos-2-6}:=1
, {occupied pos-3-0, free pos-3-0}:=1
, {occupied pos-3-1, free pos-3-1}:=1
, {occupied pos-3-2, free pos-3-2}:=1
, {occupied pos-3-3, free pos-3-3}:=1
, {occupied pos-3-4, free pos-3-4}:=1
, {occupied pos-3-5, free pos-3-5}:=1
, {occupied pos-3-6, free pos-3-6}:=1
, {occupied pos-4-0, free pos-4-0}:=1
, {occupied pos-4-1, free pos-4-1}:=1
, {occupied pos-4-2, free pos-4-2}:=1
, {occupied pos-4-3, free pos-4-3}:=1
, {occupied pos-4-4, free pos-4-4}:=1
, {occupied pos-4-5, free pos-4-5}:=1
, {occupied pos-4-6, free pos-4-6}:=1
, {occupied pos-5-2, free pos-5-2}:=1
, {occupied pos-5-3, free pos-5-3}:=1
, {occupied pos-5-4, free pos-5-4}:=1
, {occupied pos-6-2, free pos-6-2}:=1
, {occupied pos-6-3, free pos-6-3}:=1
, {occupied pos-6-4, free pos-6-4}:=1
>
