Reduced 19 -> 17
Domain: tetris
Problem: tetris-4-4-4809329
Require: 200ff
Type[5]:
    [0]: object, parent: -1
    [1]: one_square, parent: 0
    [2]: two_straight, parent: 0
    [3]: right_l, parent: 0
    [4]: position, parent: 0
Obj-by-Type:
    [0]: 0 1 2 3 4 5 6 7 8 9 10 11 12 13 14 15 16
    [1]: 14
    [2]: 15
    [3]: 16
    [4]: 0 1 2 3 4 5 6 7 8 9 10 11 12 13
Obj[17]:
    [0]: f0-0f, type: 4, is-constant: 0, is-private: 0, owner: -1, is-agent: 0
    [1]: f0-1f, type: 4, is-constant: 0, is-private: 0, owner: -1, is-agent: 0
    [2]: f0-2f, type: 4, is-constant: 0, is-private: 0, owner: -1, is-agent: 0
    [3]: f0-3f, type: 4, is-constant: 0, is-private: 0, owner: -1, is-agent: 0
    [4]: f1-0f, type: 4, is-constant: 0, is-private: 0, owner: -1, is-agent: 0
    [5]: f1-1f, type: 4, is-constant: 0, is-private: 0, owner: -1, is-agent: 0
    [6]: f1-2f, type: 4, is-constant: 0, is-private: 0, owner: -1, is-agent: 0
    [7]: f1-3f, type: 4, is-constant: 0, is-private: 0, owner: -1, is-agent: 0
    [8]: f2-0f, type: 4, is-constant: 0, is-private: 0, owner: -1, is-agent: 0
    [9]: f2-1f, type: 4, is-constant: 0, is-private: 0, owner: -1, is-agent: 0
    [10]: f2-2f, type: 4, is-constant: 0, is-private: 0, owner: -1, is-agent: 0
    [11]: f2-3f, type: 4, is-constant: 0, is-private: 0, owner: -1, is-agent: 0
    [12]: f3-2f, type: 4, is-constant: 0, is-private: 0, owner: -1, is-agent: 0
    [13]: f3-3f, type: 4, is-constant: 0, is-private: 0, owner: -1, is-agent: 0
    [14]: square0, type: 1, is-constant: 0, is-private: 0, owner: -1, is-agent: 0
    [15]: straight0, type: 2, is-constant: 0, is-private: 0, owner: -1, is-agent: 0
    [16]: rightl0, type: 3, is-constant: 0, is-private: 0, owner: -1, is-agent: 0
Predicate[6]:
    =: 0 0 :: is-private: 0, owner-param: -1, read: 1, write: 0
    clear: 4 :: is-private: 0, owner-param: -1, read: 1, write: 1
    connected: 4 4 :: is-private: 0, owner-param: -1, read: 1, write: 0
    at_square: 1 4 :: is-private: 0, owner-param: -1, read: 1, write: 1
    at_two: 2 4 4 :: is-private: 0, owner-param: -1, read: 1, write: 1
    at_right_l: 3 4 4 4 :: is-private: 0, owner-param: -1, read: 1, write: 1
Function[1]:
    total-cost: :: is-private: 0, owner-param: -1, read: 0, write: 0
Action[6]:
    move_square: ?xy_initial:4 ?xy_final:4 ?element:1
        pre: (and (RW:clear ?xy_final) (RW:at_square ?element ?xy_initial) (R:connected ?xy_initial ?xy_final) (R:connected ?xy_final ?xy_initial))
        eff: (and (RW:clear ?xy_initial) (RW:at_square ?element ?xy_final) (increase (total-cost) 1))
    move_two: ?xy_initial1:4 ?xy_initial2:4 ?xy_final:4 ?element:2
        pre: (and (RW:clear ?xy_final) (RW:at_two ?element ?xy_initial1 ?xy_initial2) (R:connected ?xy_initial2 ?xy_final))
        eff: (and (RW:clear ?xy_initial1) (RW:at_two ?element ?xy_initial2 ?xy_final) (increase (total-cost) 2))
    move_l_right: ?xy_initial1:4 ?xy_initial2:4 ?xy_initial3:4 ?xy_final:4 ?xy_final2:4 ?xy_between_final:4 ?element:3
        pre: (and (RW:clear ?xy_final) (RW:clear ?xy_final2) (RW:at_right_l ?element ?xy_initial1 ?xy_initial2 ?xy_initial3) (R:connected ?xy_initial1 ?xy_final) (R:connected ?xy_initial3 ?xy_final2) (R:connected ?xy_initial3 ?xy_final) (R:connected ?xy_final ?xy_between_final) (R:connected ?xy_final2 ?xy_between_final))
        eff: (and (RW:clear ?xy_initial2) (RW:clear ?xy_initial1) (RW:at_right_l ?element ?xy_final ?xy_initial3 ?xy_final2) (increase (total-cost) 3))
    move_l_left: ?xy_initial1:4 ?xy_initial2:4 ?xy_initial3:4 ?xy_final:4 ?xy_final2:4 ?element:3
        pre: (and (RW:clear ?xy_final) (RW:clear ?xy_final2) (RW:at_right_l ?element ?xy_initial1 ?xy_initial2 ?xy_initial3) (R:connected ?xy_initial1 ?xy_final) (R:connected ?xy_initial2 ?xy_final2) (R:connected ?xy_final2 ?xy_final))
        eff: (and (RW:clear ?xy_initial3) (RW:clear ?xy_initial1) (RW:at_right_l ?element ?xy_final ?xy_final2 ?xy_initial2) (increase (total-cost) 3))
    move_l_up: ?xy_initial1:4 ?xy_initial2:4 ?xy_initial3:4 ?xy_final:4 ?xy_final2:4 ?xy_between_final:4 ?element:3
        pre: (and (RW:clear ?xy_final) (RW:clear ?xy_final2) (RW:at_right_l ?element ?xy_initial1 ?xy_initial2 ?xy_initial3) (R:connected ?xy_initial1 ?xy_final) (R:connected ?xy_initial3 ?xy_final2) (R:connected ?xy_initial1 ?xy_final2) (R:connected ?xy_final ?xy_between_final) (R:connected ?xy_final2 ?xy_between_final))
        eff: (and (RW:clear ?xy_initial2) (RW:clear ?xy_initial3) (RW:at_right_l ?element ?xy_final ?xy_initial1 ?xy_final2) (increase (total-cost) 3))
    move_l_down: ?xy_initial1:4 ?xy_initial2:4 ?xy_initial3:4 ?xy_final:4 ?xy_final2:4 ?element:3
        pre: (and (RW:clear ?xy_final) (RW:clear ?xy_final2) (RW:at_right_l ?element ?xy_initial1 ?xy_initial2 ?xy_initial3) (R:connected ?xy_initial2 ?xy_final) (R:connected ?xy_initial3 ?xy_final2) (R:connected ?xy_final2 ?xy_final))
        eff: (and (RW:clear ?xy_initial3) (RW:clear ?xy_initial1) (RW:at_right_l ?element ?xy_initial2 ?xy_final ?xy_final2) (increase (total-cost) 3))
Init[61]:
  S:(connected f0-0f f0-1f)
  S:(connected f0-1f f0-0f)
  S:(connected f0-1f f0-2f)
  S:(connected f0-2f f0-1f)
  S:(connected f0-2f f0-3f)
  S:(connected f0-3f f0-2f)
  S:(connected f1-0f f1-1f)
  S:(connected f1-1f f1-0f)
  S:(connected f1-1f f1-2f)
  S:(connected f1-2f f1-1f)
  S:(connected f1-2f f1-3f)
  S:(connected f1-3f f1-2f)
  S:(connected f2-0f f2-1f)
  S:(connected f2-1f f2-0f)
  S:(connected f2-1f f2-2f)
  S:(connected f2-2f f2-1f)
  S:(connected f2-2f f2-3f)
  S:(connected f2-3f f2-2f)
  S:(connected f2-2f f0-0f)
  S:(connected f0-0f f2-2f)
  S:(connected f0-0f f3-2f)
  S:(connected f3-2f f0-0f)
  S:(connected f3-2f f3-3f)
  S:(connected f3-3f f3-2f)
  S:(connected f0-0f f1-0f)
  S:(connected f1-0f f0-0f)
  S:(connected f0-1f f1-1f)
  S:(connected f1-1f f0-1f)
  S:(connected f0-2f f1-2f)
  S:(connected f1-2f f0-2f)
  S:(connected f0-3f f1-3f)
  S:(connected f1-3f f0-3f)
  S:(connected f1-0f f2-0f)
  S:(connected f2-0f f1-0f)
  S:(connected f1-1f f2-1f)
  S:(connected f2-1f f1-1f)
  S:(connected f1-2f f2-2f)
  S:(connected f2-2f f1-2f)
  S:(connected f1-3f f2-3f)
  S:(connected f2-3f f1-3f)
  S:(connected f2-0f f2-2f)
  S:(connected f2-2f f2-0f)
  S:(connected f2-1f f0-0f)
  S:(connected f0-0f f2-1f)
  S:(connected f2-2f f3-2f)
  S:(connected f3-2f f2-2f)
  S:(connected f2-3f f3-3f)
  S:(connected f3-3f f2-3f)
  (clear f0-1f)
  (clear f0-2f)
  (clear f0-3f)
  (clear f1-3f)
  (clear f2-0f)
  (clear f2-1f)
  (clear f2-3f)
  (clear f2-2f)
  (clear f3-2f)
  (clear f3-3f)
  (at_right_l rightl0 f0-0f f1-0f f1-1f)
  (at_two straight0 f1-2f f2-2f)
  (at_square square0 f0-0f)
Init[0]:
Goal: (and (RW:clear f0-0f) (RW:clear f0-1f) (RW:clear f0-2f) (RW:clear f0-3f) (RW:clear f1-0f) (RW:clear f1-1f) (RW:clear f1-2f) (RW:clear f1-3f) (RW:clear f2-0f) (RW:clear f2-1f) (RW:clear f2-2f) (RW:clear f2-3f))
Metric: 0
