Collapsing type 1:location with 484 objects
Reduced 484 -> 1
Domain: pebbling
Problem: pebbling-22
Require: ff
Type[2]:
    [0]: object, parent: -1
    [1]: location, parent: 0
Obj-by-Type:
    [0]: 0
    [1]: 0
Obj[1]:
    [0]: pos-0-0, type: 1, is-constant: 0, is-private: 0, owner: -1, is-agent: 0
Predicate[5]:
    =: 0 0 :: is-private: 0, owner-param: -1, read: 0, write: 0
    x-succ: 1 1 :: is-private: 0, owner-param: -1, read: 1, write: 0
    y-succ: 1 1 :: is-private: 0, owner-param: -1, read: 1, write: 0
    occupied: 1 :: is-private: 0, owner-param: -1, read: 1, write: 1
    free: 1 :: is-private: 0, owner-param: -1, read: 1, write: 1
Function[0]:
Action[1]:
    move: ?from:1 ?xsucc:1 ?ysucc:1
        pre: (and (R:x-succ ?from ?xsucc) (R:y-succ ?from ?ysucc) (RW:occupied ?from) (RW:free ?xsucc) (RW:free ?ysucc))
        eff: (and (RW:free ?from) (RW:occupied ?xsucc) (RW:occupied ?ysucc))
Init[1408]:
  S:(x-succ pos-0-0 pos-0-0)
  S:(x-succ pos-0-0 pos-0-0)
  S:(x-succ pos-0-0 pos-0-0)
  S:(x-succ pos-0-0 pos-0-0)
  S:(x-succ pos-0-0 pos-0-0)
  S:(x-succ pos-0-0 pos-0-0)
  S:(x-succ pos-0-0 pos-0-0)
  S:(x-succ pos-0-0 pos-0-0)
  S:(x-succ pos-0-0 pos-0-0)
  S:(x-succ pos-0-0 pos-0-0)
  S:(x-succ pos-0-0 pos-0-0)
  S:(x-succ pos-0-0 pos-0-0)
  S:(x-succ pos-0-0 pos-0-0)
  S:(x-succ pos-0-0 pos-0-0)
  S:(x-succ pos-0-0 pos-0-0)
  S:(x-succ pos-0-0 pos-0-0)
  S:(x-succ pos-0-0 pos-0-0)
  S:(x-succ pos-0-0 pos-0-0)
  S:(x-succ pos-0-0 pos-0-0)
  S:(x-succ pos-0-0 pos-0-0)
  S:(x-succ pos-0-0 pos-0-0)
  S:(x-succ pos-0-0 pos-0-0)
  S:(x-succ pos-0-0 pos-0-0)
  S:(x-succ pos-0-0 pos-0-0)
  S:(x-succ pos-0-0 pos-0-0)
  S:(x-succ pos-0-0 pos-0-0)
  S:(x-succ pos-0-0 pos-0-0)
  S:(x-succ pos-0-0 pos-0-0)
  S:(x-succ pos-0-0 pos-0-0)
  S:(x-succ pos-0-0 pos-0-0)
  S:(x-succ pos-0-0 pos-0-0)
  S:(x-succ pos-0-0 pos-0-0)
  S:(x-succ pos-0-0 pos-0-0)
  S:(x-succ pos-0-0 pos-0-0)
  S:(x-succ pos-0-0 pos-0-0)
  S:(x-succ pos-0-0 pos-0-0)
  S:(x-succ pos-0-0 pos-0-0)
  S:(x-succ pos-0-0 pos-0-0)
  S:(x-succ pos-0-0 pos-0-0)
  S:(x-succ pos-0-0 pos-0-0)
  S:(x-succ pos-0-0 pos-0-0)
  S:(x-succ pos-0-0 pos-0-0)
  S:(x-succ pos-0-0 pos-0-0)
  S:(x-succ pos-0-0 pos-0-0)
  S:(x-succ pos-0-0 pos-0-0)
  S:(x-succ pos-0-0 pos-0-0)
  S:(x-succ pos-0-0 pos-0-0)
  S:(x-succ pos-0-0 pos-0-0)
  S:(x-succ pos-0-0 pos-0-0)
  S:(x-succ pos-0-0 pos-0-0)
  S:(x-succ pos-0-0 pos-0-0)
  S:(x-succ pos-0-0 pos-0-0)
  S:(x-succ pos-0-0 pos-0-0)
  S:(x-succ pos-0-0 pos-0-0)
  S:(x-succ pos-0-0 pos-0-0)
  S:(x-succ pos-0-0 pos-0-0)
  S:(x-succ pos-0-0 pos-0-0)
  S:(x-succ pos-0-0 pos-0-0)
  S:(x-succ pos-0-0 pos-0-0)
  S:(x-succ pos-0-0 pos-0-0)
  S:(x-succ pos-0-0 pos-0-0)
  S:(x-succ pos-0-0 pos-0-0)
  S:(x-succ pos-0-0 pos-0-0)
  S:(x-succ pos-0-0 pos-0-0)
  S:(x-succ pos-0-0 pos-0-0)
  S:(x-succ pos-0-0 pos-0-0)
  S:(x-succ pos-0-0 pos-0-0)
  S:(x-succ pos-0-0 pos-0-0)
  S:(x-succ pos-0-0 pos-0-0)
  S:(x-succ pos-0-0 pos-0-0)
  S:(x-succ pos-0-0 pos-0-0)
  S:(x-succ pos-0-0 pos-0-0)
  S:(x-succ pos-0-0 pos-0-0)
  S:(x-succ pos-0-0 pos-0-0)
  S:(x-succ pos-0-0 pos-0-0)
  S:(x-succ pos-0-0 pos-0-0)
  S:(x-succ pos-0-0 pos-0-0)
  S:(x-succ pos-0-0 pos-0-0)
  S:(x-succ pos-0-0 pos-0-0)
  S:(x-succ pos-0-0 pos-0-0)
  S:(x-succ pos-0-0 pos-0-0)
  S:(x-succ pos-0-0 pos-0-0)
  S:(x-succ pos-0-0 pos-0-0)
  S:(x-succ pos-0-0 pos-0-0)
  S:(x-succ pos-0-0 pos-0-0)
  S:(x-succ pos-0-0 pos-0-0)
  S:(x-succ pos-0-0 pos-0-0)
  S:(x-succ pos-0-0 pos-0-0)
  S:(x-succ pos-0-0 pos-0-0)
  S:(x-succ pos-0-0 pos-0-0)
  S:(x-succ pos-0-0 pos-0-0)
  S:(x-succ pos-0-0 pos-0-0)
  S:(x-succ pos-0-0 pos-0-0)
  S:(x-succ pos-0-0 pos-0-0)
  S:(x-succ pos-0-0 pos-0-0)
  S:(x-succ pos-0-0 pos-0-0)
  S:(x-succ pos-0-0 pos-0-0)
  S:(x-succ pos-0-0 pos-0-0)
  S:(x-succ pos-0-0 pos-0-0)
  S:(x-succ pos-0-0 pos-0-0)
  S:(x-succ pos-0-0 pos-0-0)
  S:(x-succ pos-0-0 pos-0-0)
  S:(x-succ pos-0-0 pos-0-0)
  S:(x-succ pos-0-0 pos-0-0)
  S:(x-succ pos-0-0 pos-0-0)
  S:(x-succ pos-0-0 pos-0-0)
  S:(x-succ pos-0-0 pos-0-0)
  S:(x-succ pos-0-0 pos-0-0)
  S:(x-succ pos-0-0 pos-0-0)
  S:(x-succ pos-0-0 pos-0-0)
  S:(x-succ pos-0-0 pos-0-0)
  S:(x-succ pos-0-0 pos-0-0)
  S:(x-succ pos-0-0 pos-0-0)
  S:(x-succ pos-0-0 pos-0-0)
  S:(x-succ pos-0-0 pos-0-0)
  S:(x-succ pos-0-0 pos-0-0)
  S:(x-succ pos-0-0 pos-0-0)
  S:(x-succ pos-0-0 pos-0-0)
  S:(x-succ pos-0-0 pos-0-0)
  S:(x-succ pos-0-0 pos-0-0)
  S:(x-succ pos-0-0 pos-0-0)
  S:(x-succ pos-0-0 pos-0-0)
  S:(x-succ pos-0-0 pos-0-0)
  S:(x-succ pos-0-0 pos-0-0)
  S:(x-succ pos-0-0 pos-0-0)
  S:(x-succ pos-0-0 pos-0-0)
  S:(x-succ pos-0-0 pos-0-0)
  S:(x-succ pos-0-0 pos-0-0)
  S:(x-succ pos-0-0 pos-0-0)
  S:(x-succ pos-0-0 pos-0-0)
  S:(x-succ pos-0-0 pos-0-0)
  S:(x-succ pos-0-0 pos-0-0)
  S:(x-succ pos-0-0 pos-0-0)
  S:(x-succ pos-0-0 pos-0-0)
  S:(x-succ pos-0-0 pos-0-0)
  S:(x-succ pos-0-0 pos-0-0)
  S:(x-succ pos-0-0 pos-0-0)
  S:(x-succ pos-0-0 pos-0-0)
  S:(x-succ pos-0-0 pos-0-0)
  S:(x-succ pos-0-0 pos-0-0)
  S:(x-succ pos-0-0 pos-0-0)
  S:(x-succ pos-0-0 pos-0-0)
  S:(x-succ pos-0-0 pos-0-0)
  S:(x-succ pos-0-0 pos-0-0)
  S:(x-succ pos-0-0 pos-0-0)
  S:(x-succ pos-0-0 pos-0-0)
  S:(x-succ pos-0-0 pos-0-0)
  S:(x-succ pos-0-0 pos-0-0)
  S:(x-succ pos-0-0 pos-0-0)
  S:(x-succ pos-0-0 pos-0-0)
  S:(x-succ pos-0-0 pos-0-0)
  S:(x-succ pos-0-0 pos-0-0)
  S:(x-succ pos-0-0 pos-0-0)
  S:(x-succ pos-0-0 pos-0-0)
  S:(x-succ pos-0-0 pos-0-0)
  S:(x-succ pos-0-0 pos-0-0)
  S:(x-succ pos-0-0 pos-0-0)
  S:(x-succ pos-0-0 pos-0-0)
  S:(x-succ pos-0-0 pos-0-0)
  S:(x-succ pos-0-0 pos-0-0)
  S:(x-succ pos-0-0 pos-0-0)
  S:(x-succ pos-0-0 pos-0-0)
  S:(x-succ pos-0-0 pos-0-0)
  S:(x-succ pos-0-0 pos-0-0)
  S:(x-succ pos-0-0 pos-0-0)
  S:(x-succ pos-0-0 pos-0-0)
  S:(x-succ pos-0-0 pos-0-0)
  S:(x-succ pos-0-0 pos-0-0)
  S:(x-succ pos-0-0 pos-0-0)
  S:(x-succ pos-0-0 pos-0-0)
  S:(x-succ pos-0-0 pos-0-0)
  S:(x-succ pos-0-0 pos-0-0)
  S:(x-succ pos-0-0 pos-0-0)
  S:(x-succ pos-0-0 pos-0-0)
  S:(x-succ pos-0-0 pos-0-0)
  S:(x-succ pos-0-0 pos-0-0)
  S:(x-succ pos-0-0 pos-0-0)
  S:(x-succ pos-0-0 pos-0-0)
  S:(x-succ pos-0-0 pos-0-0)
  S:(x-succ pos-0-0 pos-0-0)
  S:(x-succ pos-0-0 pos-0-0)
  S:(x-succ pos-0-0 pos-0-0)
  S:(x-succ pos-0-0 pos-0-0)
  S:(x-succ pos-0-0 pos-0-0)
  S:(x-succ pos-0-0 pos-0-0)
  S:(x-succ pos-0-0 pos-0-0)
  S:(x-succ pos-0-0 pos-0-0)
  S:(x-succ pos-0-0 pos-0-0)
  S:(x-succ pos-0-0 pos-0-0)
  S:(x-succ pos-0-0 pos-0-0)
  S:(x-succ pos-0-0 pos-0-0)
  S:(x-succ pos-0-0 pos-0-0)
  S:(x-succ pos-0-0 pos-0-0)
  S:(x-succ pos-0-0 pos-0-0)
  S:(x-succ pos-0-0 pos-0-0)
  S:(x-succ pos-0-0 pos-0-0)
  S:(x-succ pos-0-0 pos-0-0)
  S:(x-succ pos-0-0 pos-0-0)
  S:(x-succ pos-0-0 pos-0-0)
  S:(x-succ pos-0-0 pos-0-0)
  S:(x-succ pos-0-0 pos-0-0)
  S:(x-succ pos-0-0 pos-0-0)
  S:(x-succ pos-0-0 pos-0-0)
  S:(x-succ pos-0-0 pos-0-0)
  S:(x-succ pos-0-0 pos-0-0)
  S:(x-succ pos-0-0 pos-0-0)
  S:(x-succ pos-0-0 pos-0-0)
  S:(x-succ pos-0-0 pos-0-0)
  S:(x-succ pos-0-0 pos-0-0)
  S:(x-succ pos-0-0 pos-0-0)
  S:(x-succ pos-0-0 pos-0-0)
  S:(x-succ pos-0-0 pos-0-0)
  S:(x-succ pos-0-0 pos-0-0)
  S:(x-succ pos-0-0 pos-0-0)
  S:(x-succ pos-0-0 pos-0-0)
  S:(x-succ pos-0-0 pos-0-0)
  S:(x-succ pos-0-0 pos-0-0)
  S:(x-succ pos-0-0 pos-0-0)
  S:(x-succ pos-0-0 pos-0-0)
  S:(x-succ pos-0-0 pos-0-0)
  S:(x-succ pos-0-0 pos-0-0)
  S:(x-succ pos-0-0 pos-0-0)
  S:(x-succ pos-0-0 pos-0-0)
  S:(x-succ pos-0-0 pos-0-0)
  S:(x-succ pos-0-0 pos-0-0)
  S:(x-succ pos-0-0 pos-0-0)
  S:(x-succ pos-0-0 pos-0-0)
  S:(x-succ pos-0-0 pos-0-0)
  S:(x-succ pos-0-0 pos-0-0)
  S:(x-succ pos-0-0 pos-0-0)
  S:(x-succ pos-0-0 pos-0-0)
  S:(x-succ pos-0-0 pos-0-0)
  S:(x-succ pos-0-0 pos-0-0)
  S:(x-succ pos-0-0 pos-0-0)
  S:(x-succ pos-0-0 pos-0-0)
  S:(x-succ pos-0-0 pos-0-0)
  S:(x-succ pos-0-0 pos-0-0)
  S:(x-succ pos-0-0 pos-0-0)
  S:(x-succ pos-0-0 pos-0-0)
  S:(x-succ pos-0-0 pos-0-0)
  S:(x-succ pos-0-0 pos-0-0)
  S:(x-succ pos-0-0 pos-0-0)
  S:(x-succ pos-0-0 pos-0-0)
  S:(x-succ pos-0-0 pos-0-0)
  S:(x-succ pos-0-0 pos-0-0)
  S:(x-succ pos-0-0 pos-0-0)
  S:(x-succ pos-0-0 pos-0-0)
  S:(x-succ pos-0-0 pos-0-0)
  S:(x-succ pos-0-0 pos-0-0)
  S:(x-succ pos-0-0 pos-0-0)
  S:(x-succ pos-0-0 pos-0-0)
  S:(x-succ pos-0-0 pos-0-0)
  S:(x-succ pos-0-0 pos-0-0)
  S:(x-succ pos-0-0 pos-0-0)
  S:(x-succ pos-0-0 pos-0-0)
  S:(x-succ pos-0-0 pos-0-0)
  S:(x-succ pos-0-0 pos-0-0)
  S:(x-succ pos-0-0 pos-0-0)
  S:(x-succ pos-0-0 pos-0-0)
  S:(x-succ pos-0-0 pos-0-0)
  S:(x-succ pos-0-0 pos-0-0)
  S:(x-succ pos-0-0 pos-0-0)
  S:(x-succ pos-0-0 pos-0-0)
  S:(x-succ pos-0-0 pos-0-0)
  S:(x-succ pos-0-0 pos-0-0)
  S:(x-succ pos-0-0 pos-0-0)
  S:(x-succ pos-0-0 pos-0-0)
  S:(x-succ pos-0-0 pos-0-0)
  S:(x-succ pos-0-0 pos-0-0)
  S:(x-succ pos-0-0 pos-0-0)
  S:(x-succ pos-0-0 pos-0-0)
  S:(x-succ pos-0-0 pos-0-0)
  S:(x-succ pos-0-0 pos-0-0)
  S:(x-succ pos-0-0 pos-0-0)
  S:(x-succ pos-0-0 pos-0-0)
  S:(x-succ pos-0-0 pos-0-0)
  S:(x-succ pos-0-0 pos-0-0)
  S:(x-succ pos-0-0 pos-0-0)
  S:(x-succ pos-0-0 pos-0-0)
  S:(x-succ pos-0-0 pos-0-0)
  S:(x-succ pos-0-0 pos-0-0)
  S:(x-succ pos-0-0 pos-0-0)
  S:(x-succ pos-0-0 pos-0-0)
  S:(x-succ pos-0-0 pos-0-0)
  S:(x-succ pos-0-0 pos-0-0)
  S:(x-succ pos-0-0 pos-0-0)
  S:(x-succ pos-0-0 pos-0-0)
  S:(x-succ pos-0-0 pos-0-0)
  S:(x-succ pos-0-0 pos-0-0)
  S:(x-succ pos-0-0 pos-0-0)
  S:(x-succ pos-0-0 pos-0-0)
  S:(x-succ pos-0-0 pos-0-0)
  S:(x-succ pos-0-0 pos-0-0)
  S:(x-succ pos-0-0 pos-0-0)
  S:(x-succ pos-0-0 pos-0-0)
  S:(x-succ pos-0-0 pos-0-0)
  S:(x-succ pos-0-0 pos-0-0)
  S:(x-succ pos-0-0 pos-0-0)
  S:(x-succ pos-0-0 pos-0-0)
  S:(x-succ pos-0-0 pos-0-0)
  S:(x-succ pos-0-0 pos-0-0)
  S:(x-succ pos-0-0 pos-0-0)
  S:(x-succ pos-0-0 pos-0-0)
  S:(x-succ pos-0-0 pos-0-0)
  S:(x-succ pos-0-0 pos-0-0)
  S:(x-succ pos-0-0 pos-0-0)
  S:(x-succ pos-0-0 pos-0-0)
  S:(x-succ pos-0-0 pos-0-0)
  S:(x-succ pos-0-0 pos-0-0)
  S:(x-succ pos-0-0 pos-0-0)
  S:(x-succ pos-0-0 pos-0-0)
  S:(x-succ pos-0-0 pos-0-0)
  S:(x-succ pos-0-0 pos-0-0)
  S:(x-succ pos-0-0 pos-0-0)
  S:(x-succ pos-0-0 pos-0-0)
  S:(x-succ pos-0-0 pos-0-0)
  S:(x-succ pos-0-0 pos-0-0)
  S:(x-succ pos-0-0 pos-0-0)
  S:(x-succ pos-0-0 pos-0-0)
  S:(x-succ pos-0-0 pos-0-0)
  S:(x-succ pos-0-0 pos-0-0)
  S:(x-succ pos-0-0 pos-0-0)
  S:(x-succ pos-0-0 pos-0-0)
  S:(x-succ pos-0-0 pos-0-0)
  S:(x-succ pos-0-0 pos-0-0)
  S:(x-succ pos-0-0 pos-0-0)
  S:(x-succ pos-0-0 pos-0-0)
  S:(x-succ pos-0-0 pos-0-0)
  S:(x-succ pos-0-0 pos-0-0)
  S:(x-succ pos-0-0 pos-0-0)
  S:(x-succ pos-0-0 pos-0-0)
  S:(x-succ pos-0-0 pos-0-0)
  S:(x-succ pos-0-0 pos-0-0)
  S:(x-succ pos-0-0 pos-0-0)
  S:(x-succ pos-0-0 pos-0-0)
  S:(x-succ pos-0-0 pos-0-0)
  S:(x-succ pos-0-0 pos-0-0)
  S:(x-succ pos-0-0 pos-0-0)
  S:(x-succ pos-0-0 pos-0-0)
  S:(x-succ pos-0-0 pos-0-0)
  S:(x-succ pos-0-0 pos-0-0)
  S:(x-succ pos-0-0 pos-0-0)
  S:(x-succ pos-0-0 pos-0-0)
  S:(x-succ pos-0-0 pos-0-0)
  S:(x-succ pos-0-0 pos-0-0)
  S:(x-succ pos-0-0 pos-0-0)
  S:(x-succ pos-0-0 pos-0-0)
  S:(x-succ pos-0-0 pos-0-0)
  S:(x-succ pos-0-0 pos-0-0)
  S:(x-succ pos-0-0 pos-0-0)
  S:(x-succ pos-0-0 pos-0-0)
  S:(x-succ pos-0-0 pos-0-0)
  S:(x-succ pos-0-0 pos-0-0)
  S:(x-succ pos-0-0 pos-0-0)
  S:(x-succ pos-0-0 pos-0-0)
  S:(x-succ pos-0-0 pos-0-0)
  S:(x-succ pos-0-0 pos-0-0)
  S:(x-succ pos-0-0 pos-0-0)
  S:(x-succ pos-0-0 pos-0-0)
  S:(x-succ pos-0-0 pos-0-0)
  S:(x-succ pos-0-0 pos-0-0)
  S:(x-succ pos-0-0 pos-0-0)
  S:(x-succ pos-0-0 pos-0-0)
  S:(x-succ pos-0-0 pos-0-0)
  S:(x-succ pos-0-0 pos-0-0)
  S:(x-succ pos-0-0 pos-0-0)
  S:(x-succ pos-0-0 pos-0-0)
  S:(x-succ pos-0-0 pos-0-0)
  S:(x-succ pos-0-0 pos-0-0)
  S:(x-succ pos-0-0 pos-0-0)
  S:(x-succ pos-0-0 pos-0-0)
  S:(x-succ pos-0-0 pos-0-0)
  S:(x-succ pos-0-0 pos-0-0)
  S:(x-succ pos-0-0 pos-0-0)
  S:(x-succ pos-0-0 pos-0-0)
  S:(x-succ pos-0-0 pos-0-0)
  S:(x-succ pos-0-0 pos-0-0)
  S:(x-succ pos-0-0 pos-0-0)
  S:(x-succ pos-0-0 pos-0-0)
  S:(x-succ pos-0-0 pos-0-0)
  S:(x-succ pos-0-0 pos-0-0)
  S:(x-succ pos-0-0 pos-0-0)
  S:(x-succ pos-0-0 pos-0-0)
  S:(x-succ pos-0-0 pos-0-0)
  S:(x-succ pos-0-0 pos-0-0)
  S:(x-succ pos-0-0 pos-0-0)
  S:(x-succ pos-0-0 pos-0-0)
  S:(x-succ pos-0-0 pos-0-0)
  S:(x-succ pos-0-0 pos-0-0)
  S:(x-succ pos-0-0 pos-0-0)
  S:(x-succ pos-0-0 pos-0-0)
  S:(x-succ pos-0-0 pos-0-0)
  S:(x-succ pos-0-0 pos-0-0)
  S:(x-succ pos-0-0 pos-0-0)
  S:(x-succ pos-0-0 pos-0-0)
  S:(x-succ pos-0-0 pos-0-0)
  S:(x-succ pos-0-0 pos-0-0)
  S:(x-succ pos-0-0 pos-0-0)
  S:(x-succ pos-0-0 pos-0-0)
  S:(x-succ pos-0-0 pos-0-0)
  S:(x-succ pos-0-0 pos-0-0)
  S:(x-succ pos-0-0 pos-0-0)
  S:(x-succ pos-0-0 pos-0-0)
  S:(x-succ pos-0-0 pos-0-0)
  S:(x-succ pos-0-0 pos-0-0)
  S:(x-succ pos-0-0 pos-0-0)
  S:(x-succ pos-0-0 pos-0-0)
  S:(x-succ pos-0-0 pos-0-0)
  S:(x-succ pos-0-0 pos-0-0)
  S:(x-succ pos-0-0 pos-0-0)
  S:(x-succ pos-0-0 pos-0-0)
  S:(x-succ pos-0-0 pos-0-0)
  S:(x-succ pos-0-0 pos-0-0)
  S:(x-succ pos-0-0 pos-0-0)
  S:(x-succ pos-0-0 pos-0-0)
  S:(x-succ pos-0-0 pos-0-0)
  S:(x-succ pos-0-0 pos-0-0)
  S:(x-succ pos-0-0 pos-0-0)
  S:(x-succ pos-0-0 pos-0-0)
  S:(x-succ pos-0-0 pos-0-0)
  S:(x-succ pos-0-0 pos-0-0)
  S:(x-succ pos-0-0 pos-0-0)
  S:(x-succ pos-0-0 pos-0-0)
  S:(x-succ pos-0-0 pos-0-0)
  S:(x-succ pos-0-0 pos-0-0)
  S:(x-succ pos-0-0 pos-0-0)
  S:(x-succ pos-0-0 pos-0-0)
  S:(x-succ pos-0-0 pos-0-0)
  S:(x-succ pos-0-0 pos-0-0)
  S:(x-succ pos-0-0 pos-0-0)
  S:(x-succ pos-0-0 pos-0-0)
  S:(x-succ pos-0-0 pos-0-0)
  S:(x-succ pos-0-0 pos-0-0)
  S:(x-succ pos-0-0 pos-0-0)
  S:(x-succ pos-0-0 pos-0-0)
  S:(x-succ pos-0-0 pos-0-0)
  S:(x-succ pos-0-0 pos-0-0)
  S:(x-succ pos-0-0 pos-0-0)
  S:(x-succ pos-0-0 pos-0-0)
  S:(x-succ pos-0-0 pos-0-0)
  S:(x-succ pos-0-0 pos-0-0)
  S:(x-succ pos-0-0 pos-0-0)
  S:(x-succ pos-0-0 pos-0-0)
  S:(x-succ pos-0-0 pos-0-0)
  S:(x-succ pos-0-0 pos-0-0)
  S:(x-succ pos-0-0 pos-0-0)
  S:(x-succ pos-0-0 pos-0-0)
  S:(x-succ pos-0-0 pos-0-0)
  S:(x-succ pos-0-0 pos-0-0)
  S:(x-succ pos-0-0 pos-0-0)
  S:(x-succ pos-0-0 pos-0-0)
  S:(x-succ pos-0-0 pos-0-0)
  S:(x-succ pos-0-0 pos-0-0)
  S:(x-succ pos-0-0 pos-0-0)
  S:(x-succ pos-0-0 pos-0-0)
  S:(x-succ pos-0-0 pos-0-0)
  S:(x-succ pos-0-0 pos-0-0)
  S:(x-succ pos-0-0 pos-0-0)
  S:(x-succ pos-0-0 pos-0-0)
  S:(x-succ pos-0-0 pos-0-0)
  S:(x-succ pos-0-0 pos-0-0)
  S:(x-succ pos-0-0 pos-0-0)
  S:(y-succ pos-0-0 pos-0-0)
  S:(y-succ pos-0-0 pos-0-0)
  S:(y-succ pos-0-0 pos-0-0)
  S:(y-succ pos-0-0 pos-0-0)
  S:(y-succ pos-0-0 pos-0-0)
  S:(y-succ pos-0-0 pos-0-0)
  S:(y-succ pos-0-0 pos-0-0)
  S:(y-succ pos-0-0 pos-0-0)
  S:(y-succ pos-0-0 pos-0-0)
  S:(y-succ pos-0-0 pos-0-0)
  S:(y-succ pos-0-0 pos-0-0)
  S:(y-succ pos-0-0 pos-0-0)
  S:(y-succ pos-0-0 pos-0-0)
  S:(y-succ pos-0-0 pos-0-0)
  S:(y-succ pos-0-0 pos-0-0)
  S:(y-succ pos-0-0 pos-0-0)
  S:(y-succ pos-0-0 pos-0-0)
  S:(y-succ pos-0-0 pos-0-0)
  S:(y-succ pos-0-0 pos-0-0)
  S:(y-succ pos-0-0 pos-0-0)
  S:(y-succ pos-0-0 pos-0-0)
  S:(y-succ pos-0-0 pos-0-0)
  S:(y-succ pos-0-0 pos-0-0)
  S:(y-succ pos-0-0 pos-0-0)
  S:(y-succ pos-0-0 pos-0-0)
  S:(y-succ pos-0-0 pos-0-0)
  S:(y-succ pos-0-0 pos-0-0)
  S:(y-succ pos-0-0 pos-0-0)
  S:(y-succ pos-0-0 pos-0-0)
  S:(y-succ pos-0-0 pos-0-0)
  S:(y-succ pos-0-0 pos-0-0)
  S:(y-succ pos-0-0 pos-0-0)
  S:(y-succ pos-0-0 pos-0-0)
  S:(y-succ pos-0-0 pos-0-0)
  S:(y-succ pos-0-0 pos-0-0)
  S:(y-succ pos-0-0 pos-0-0)
  S:(y-succ pos-0-0 pos-0-0)
  S:(y-succ pos-0-0 pos-0-0)
  S:(y-succ pos-0-0 pos-0-0)
  S:(y-succ pos-0-0 pos-0-0)
  S:(y-succ pos-0-0 pos-0-0)
  S:(y-succ pos-0-0 pos-0-0)
  S:(y-succ pos-0-0 pos-0-0)
  S:(y-succ pos-0-0 pos-0-0)
  S:(y-succ pos-0-0 pos-0-0)
  S:(y-succ pos-0-0 pos-0-0)
  S:(y-succ pos-0-0 pos-0-0)
  S:(y-succ pos-0-0 pos-0-0)
  S:(y-succ pos-0-0 pos-0-0)
  S:(y-succ pos-0-0 pos-0-0)
  S:(y-succ pos-0-0 pos-0-0)
  S:(y-succ pos-0-0 pos-0-0)
  S:(y-succ pos-0-0 pos-0-0)
  S:(y-succ pos-0-0 pos-0-0)
  S:(y-succ pos-0-0 pos-0-0)
  S:(y-succ pos-0-0 pos-0-0)
  S:(y-succ pos-0-0 pos-0-0)
  S:(y-succ pos-0-0 pos-0-0)
  S:(y-succ pos-0-0 pos-0-0)
  S:(y-succ pos-0-0 pos-0-0)
  S:(y-succ pos-0-0 pos-0-0)
  S:(y-succ pos-0-0 pos-0-0)
  S:(y-succ pos-0-0 pos-0-0)
  S:(y-succ pos-0-0 pos-0-0)
  S:(y-succ pos-0-0 pos-0-0)
  S:(y-succ pos-0-0 pos-0-0)
  S:(y-succ pos-0-0 pos-0-0)
  S:(y-succ pos-0-0 pos-0-0)
  S:(y-succ pos-0-0 pos-0-0)
  S:(y-succ pos-0-0 pos-0-0)
  S:(y-succ pos-0-0 pos-0-0)
  S:(y-succ pos-0-0 pos-0-0)
  S:(y-succ pos-0-0 pos-0-0)
  S:(y-succ pos-0-0 pos-0-0)
  S:(y-succ pos-0-0 pos-0-0)
  S:(y-succ pos-0-0 pos-0-0)
  S:(y-succ pos-0-0 pos-0-0)
  S:(y-succ pos-0-0 pos-0-0)
  S:(y-succ pos-0-0 pos-0-0)
  S:(y-succ pos-0-0 pos-0-0)
  S:(y-succ pos-0-0 pos-0-0)
  S:(y-succ pos-0-0 pos-0-0)
  S:(y-succ pos-0-0 pos-0-0)
  S:(y-succ pos-0-0 pos-0-0)
  S:(y-succ pos-0-0 pos-0-0)
  S:(y-succ pos-0-0 pos-0-0)
  S:(y-succ pos-0-0 pos-0-0)
  S:(y-succ pos-0-0 pos-0-0)
  S:(y-succ pos-0-0 pos-0-0)
  S:(y-succ pos-0-0 pos-0-0)
  S:(y-succ pos-0-0 pos-0-0)
  S:(y-succ pos-0-0 pos-0-0)
  S:(y-succ pos-0-0 pos-0-0)
  S:(y-succ pos-0-0 pos-0-0)
  S:(y-succ pos-0-0 pos-0-0)
  S:(y-succ pos-0-0 pos-0-0)
  S:(y-succ pos-0-0 pos-0-0)
  S:(y-succ pos-0-0 pos-0-0)
  S:(y-succ pos-0-0 pos-0-0)
  S:(y-succ pos-0-0 pos-0-0)
  S:(y-succ pos-0-0 pos-0-0)
  S:(y-succ pos-0-0 pos-0-0)
  S:(y-succ pos-0-0 pos-0-0)
  S:(y-succ pos-0-0 pos-0-0)
  S:(y-succ pos-0-0 pos-0-0)
  S:(y-succ pos-0-0 pos-0-0)
  S:(y-succ pos-0-0 pos-0-0)
  S:(y-succ pos-0-0 pos-0-0)
  S:(y-succ pos-0-0 pos-0-0)
  S:(y-succ pos-0-0 pos-0-0)
  S:(y-succ pos-0-0 pos-0-0)
  S:(y-succ pos-0-0 pos-0-0)
  S:(y-succ pos-0-0 pos-0-0)
  S:(y-succ pos-0-0 pos-0-0)
  S:(y-succ pos-0-0 pos-0-0)
  S:(y-succ pos-0-0 pos-0-0)
  S:(y-succ pos-0-0 pos-0-0)
  S:(y-succ pos-0-0 pos-0-0)
  S:(y-succ pos-0-0 pos-0-0)
  S:(y-succ pos-0-0 pos-0-0)
  S:(y-succ pos-0-0 pos-0-0)
  S:(y-succ pos-0-0 pos-0-0)
  S:(y-succ pos-0-0 pos-0-0)
  S:(y-succ pos-0-0 pos-0-0)
  S:(y-succ pos-0-0 pos-0-0)
  S:(y-succ pos-0-0 pos-0-0)
  S:(y-succ pos-0-0 pos-0-0)
  S:(y-succ pos-0-0 pos-0-0)
  S:(y-succ pos-0-0 pos-0-0)
  S:(y-succ pos-0-0 pos-0-0)
  S:(y-succ pos-0-0 pos-0-0)
  S:(y-succ pos-0-0 pos-0-0)
  S:(y-succ pos-0-0 pos-0-0)
  S:(y-succ pos-0-0 pos-0-0)
  S:(y-succ pos-0-0 pos-0-0)
  S:(y-succ pos-0-0 pos-0-0)
  S:(y-succ pos-0-0 pos-0-0)
  S:(y-succ pos-0-0 pos-0-0)
  S:(y-succ pos-0-0 pos-0-0)
  S:(y-succ pos-0-0 pos-0-0)
  S:(y-succ pos-0-0 pos-0-0)
  S:(y-succ pos-0-0 pos-0-0)
  S:(y-succ pos-0-0 pos-0-0)
  S:(y-succ pos-0-0 pos-0-0)
  S:(y-succ pos-0-0 pos-0-0)
  S:(y-succ pos-0-0 pos-0-0)
  S:(y-succ pos-0-0 pos-0-0)
  S:(y-succ pos-0-0 pos-0-0)
  S:(y-succ pos-0-0 pos-0-0)
  S:(y-succ pos-0-0 pos-0-0)
  S:(y-succ pos-0-0 pos-0-0)
  S:(y-succ pos-0-0 pos-0-0)
  S:(y-succ pos-0-0 pos-0-0)
  S:(y-succ pos-0-0 pos-0-0)
  S:(y-succ pos-0-0 pos-0-0)
  S:(y-succ pos-0-0 pos-0-0)
  S:(y-succ pos-0-0 pos-0-0)
  S:(y-succ pos-0-0 pos-0-0)
  S:(y-succ pos-0-0 pos-0-0)
  S:(y-succ pos-0-0 pos-0-0)
  S:(y-succ pos-0-0 pos-0-0)
  S:(y-succ pos-0-0 pos-0-0)
  S:(y-succ pos-0-0 pos-0-0)
  S:(y-succ pos-0-0 pos-0-0)
  S:(y-succ pos-0-0 pos-0-0)
  S:(y-succ pos-0-0 pos-0-0)
  S:(y-succ pos-0-0 pos-0-0)
  S:(y-succ pos-0-0 pos-0-0)
  S:(y-succ pos-0-0 pos-0-0)
  S:(y-succ pos-0-0 pos-0-0)
  S:(y-succ pos-0-0 pos-0-0)
  S:(y-succ pos-0-0 pos-0-0)
  S:(y-succ pos-0-0 pos-0-0)
  S:(y-succ pos-0-0 pos-0-0)
  S:(y-succ pos-0-0 pos-0-0)
  S:(y-succ pos-0-0 pos-0-0)
  S:(y-succ pos-0-0 pos-0-0)
  S:(y-succ pos-0-0 pos-0-0)
  S:(y-succ pos-0-0 pos-0-0)
  S:(y-succ pos-0-0 pos-0-0)
  S:(y-succ pos-0-0 pos-0-0)
  S:(y-succ pos-0-0 pos-0-0)
  S:(y-succ pos-0-0 pos-0-0)
  S:(y-succ pos-0-0 pos-0-0)
  S:(y-succ pos-0-0 pos-0-0)
  S:(y-succ pos-0-0 pos-0-0)
  S:(y-succ pos-0-0 pos-0-0)
  S:(y-succ pos-0-0 pos-0-0)
  S:(y-succ pos-0-0 pos-0-0)
  S:(y-succ pos-0-0 pos-0-0)
  S:(y-succ pos-0-0 pos-0-0)
  S:(y-succ pos-0-0 pos-0-0)
  S:(y-succ pos-0-0 pos-0-0)
  S:(y-succ pos-0-0 pos-0-0)
  S:(y-succ pos-0-0 pos-0-0)
  S:(y-succ pos-0-0 pos-0-0)
  S:(y-succ pos-0-0 pos-0-0)
  S:(y-succ pos-0-0 pos-0-0)
  S:(y-succ pos-0-0 pos-0-0)
  S:(y-succ pos-0-0 pos-0-0)
  S:(y-succ pos-0-0 pos-0-0)
  S:(y-succ pos-0-0 pos-0-0)
  S:(y-succ pos-0-0 pos-0-0)
  S:(y-succ pos-0-0 pos-0-0)
  S:(y-succ pos-0-0 pos-0-0)
  S:(y-succ pos-0-0 pos-0-0)
  S:(y-succ pos-0-0 pos-0-0)
  S:(y-succ pos-0-0 pos-0-0)
  S:(y-succ pos-0-0 pos-0-0)
  S:(y-succ pos-0-0 pos-0-0)
  S:(y-succ pos-0-0 pos-0-0)
  S:(y-succ pos-0-0 pos-0-0)
  S:(y-succ pos-0-0 pos-0-0)
  S:(y-succ pos-0-0 pos-0-0)
  S:(y-succ pos-0-0 pos-0-0)
  S:(y-succ pos-0-0 pos-0-0)
  S:(y-succ pos-0-0 pos-0-0)
  S:(y-succ pos-0-0 pos-0-0)
  S:(y-succ pos-0-0 pos-0-0)
  S:(y-succ pos-0-0 pos-0-0)
  S:(y-succ pos-0-0 pos-0-0)
  S:(y-succ pos-0-0 pos-0-0)
  S:(y-succ pos-0-0 pos-0-0)
  S:(y-succ pos-0-0 pos-0-0)
  S:(y-succ pos-0-0 pos-0-0)
  S:(y-succ pos-0-0 pos-0-0)
  S:(y-succ pos-0-0 pos-0-0)
  S:(y-succ pos-0-0 pos-0-0)
  S:(y-succ pos-0-0 pos-0-0)
  S:(y-succ pos-0-0 pos-0-0)
  S:(y-succ pos-0-0 pos-0-0)
  S:(y-succ pos-0-0 pos-0-0)
  S:(y-succ pos-0-0 pos-0-0)
  S:(y-succ pos-0-0 pos-0-0)
  S:(y-succ pos-0-0 pos-0-0)
  S:(y-succ pos-0-0 pos-0-0)
  S:(y-succ pos-0-0 pos-0-0)
  S:(y-succ pos-0-0 pos-0-0)
  S:(y-succ pos-0-0 pos-0-0)
  S:(y-succ pos-0-0 pos-0-0)
  S:(y-succ pos-0-0 pos-0-0)
  S:(y-succ pos-0-0 pos-0-0)
  S:(y-succ pos-0-0 pos-0-0)
  S:(y-succ pos-0-0 pos-0-0)
  S:(y-succ pos-0-0 pos-0-0)
  S:(y-succ pos-0-0 pos-0-0)
  S:(y-succ pos-0-0 pos-0-0)
  S:(y-succ pos-0-0 pos-0-0)
  S:(y-succ pos-0-0 pos-0-0)
  S:(y-succ pos-0-0 pos-0-0)
  S:(y-succ pos-0-0 pos-0-0)
  S:(y-succ pos-0-0 pos-0-0)
  S:(y-succ pos-0-0 pos-0-0)
  S:(y-succ pos-0-0 pos-0-0)
  S:(y-succ pos-0-0 pos-0-0)
  S:(y-succ pos-0-0 pos-0-0)
  S:(y-succ pos-0-0 pos-0-0)
  S:(y-succ pos-0-0 pos-0-0)
  S:(y-succ pos-0-0 pos-0-0)
  S:(y-succ pos-0-0 pos-0-0)
  S:(y-succ pos-0-0 pos-0-0)
  S:(y-succ pos-0-0 pos-0-0)
  S:(y-succ pos-0-0 pos-0-0)
  S:(y-succ pos-0-0 pos-0-0)
  S:(y-succ pos-0-0 pos-0-0)
  S:(y-succ pos-0-0 pos-0-0)
  S:(y-succ pos-0-0 pos-0-0)
  S:(y-succ pos-0-0 pos-0-0)
  S:(y-succ pos-0-0 pos-0-0)
  S:(y-succ pos-0-0 pos-0-0)
  S:(y-succ pos-0-0 pos-0-0)
  S:(y-succ pos-0-0 pos-0-0)
  S:(y-succ pos-0-0 pos-0-0)
  S:(y-succ pos-0-0 pos-0-0)
  S:(y-succ pos-0-0 pos-0-0)
  S:(y-succ pos-0-0 pos-0-0)
  S:(y-succ pos-0-0 pos-0-0)
  S:(y-succ pos-0-0 pos-0-0)
  S:(y-succ pos-0-0 pos-0-0)
  S:(y-succ pos-0-0 pos-0-0)
  S:(y-succ pos-0-0 pos-0-0)
  S:(y-succ pos-0-0 pos-0-0)
  S:(y-succ pos-0-0 pos-0-0)
  S:(y-succ pos-0-0 pos-0-0)
  S:(y-succ pos-0-0 pos-0-0)
  S:(y-succ pos-0-0 pos-0-0)
  S:(y-succ pos-0-0 pos-0-0)
  S:(y-succ pos-0-0 pos-0-0)
  S:(y-succ pos-0-0 pos-0-0)
  S:(y-succ pos-0-0 pos-0-0)
  S:(y-succ pos-0-0 pos-0-0)
  S:(y-succ pos-0-0 pos-0-0)
  S:(y-succ pos-0-0 pos-0-0)
  S:(y-succ pos-0-0 pos-0-0)
  S:(y-succ pos-0-0 pos-0-0)
  S:(y-succ pos-0-0 pos-0-0)
  S:(y-succ pos-0-0 pos-0-0)
  S:(y-succ pos-0-0 pos-0-0)
  S:(y-succ pos-0-0 pos-0-0)
  S:(y-succ pos-0-0 pos-0-0)
  S:(y-succ pos-0-0 pos-0-0)
  S:(y-succ pos-0-0 pos-0-0)
  S:(y-succ pos-0-0 pos-0-0)
  S:(y-succ pos-0-0 pos-0-0)
  S:(y-succ pos-0-0 pos-0-0)
  S:(y-succ pos-0-0 pos-0-0)
  S:(y-succ pos-0-0 pos-0-0)
  S:(y-succ pos-0-0 pos-0-0)
  S:(y-succ pos-0-0 pos-0-0)
  S:(y-succ pos-0-0 pos-0-0)
  S:(y-succ pos-0-0 pos-0-0)
  S:(y-succ pos-0-0 pos-0-0)
  S:(y-succ pos-0-0 pos-0-0)
  S:(y-succ pos-0-0 pos-0-0)
  S:(y-succ pos-0-0 pos-0-0)
  S:(y-succ pos-0-0 pos-0-0)
  S:(y-succ pos-0-0 pos-0-0)
  S:(y-succ pos-0-0 pos-0-0)
  S:(y-succ pos-0-0 pos-0-0)
  S:(y-succ pos-0-0 pos-0-0)
  S:(y-succ pos-0-0 pos-0-0)
  S:(y-succ pos-0-0 pos-0-0)
  S:(y-succ pos-0-0 pos-0-0)
  S:(y-succ pos-0-0 pos-0-0)
  S:(y-succ pos-0-0 pos-0-0)
  S:(y-succ pos-0-0 pos-0-0)
  S:(y-succ pos-0-0 pos-0-0)
  S:(y-succ pos-0-0 pos-0-0)
  S:(y-succ pos-0-0 pos-0-0)
  S:(y-succ pos-0-0 pos-0-0)
  S:(y-succ pos-0-0 pos-0-0)
  S:(y-succ pos-0-0 pos-0-0)
  S:(y-succ pos-0-0 pos-0-0)
  S:(y-succ pos-0-0 pos-0-0)
  S:(y-succ pos-0-0 pos-0-0)
  S:(y-succ pos-0-0 pos-0-0)
  S:(y-succ pos-0-0 pos-0-0)
  S:(y-succ pos-0-0 pos-0-0)
  S:(y-succ pos-0-0 pos-0-0)
  S:(y-succ pos-0-0 pos-0-0)
  S:(y-succ pos-0-0 pos-0-0)
  S:(y-succ pos-0-0 pos-0-0)
  S:(y-succ pos-0-0 pos-0-0)
  S:(y-succ pos-0-0 pos-0-0)
  S:(y-succ pos-0-0 pos-0-0)
  S:(y-succ pos-0-0 pos-0-0)
  S:(y-succ pos-0-0 pos-0-0)
  S:(y-succ pos-0-0 pos-0-0)
  S:(y-succ pos-0-0 pos-0-0)
  S:(y-succ pos-0-0 pos-0-0)
  S:(y-succ pos-0-0 pos-0-0)
  S:(y-succ pos-0-0 pos-0-0)
  S:(y-succ pos-0-0 pos-0-0)
  S:(y-succ pos-0-0 pos-0-0)
  S:(y-succ pos-0-0 pos-0-0)
  S:(y-succ pos-0-0 pos-0-0)
  S:(y-succ pos-0-0 pos-0-0)
  S:(y-succ pos-0-0 pos-0-0)
  S:(y-succ pos-0-0 pos-0-0)
  S:(y-succ pos-0-0 pos-0-0)
  S:(y-succ pos-0-0 pos-0-0)
  S:(y-succ pos-0-0 pos-0-0)
  S:(y-succ pos-0-0 pos-0-0)
  S:(y-succ pos-0-0 pos-0-0)
  S:(y-succ pos-0-0 pos-0-0)
  S:(y-succ pos-0-0 pos-0-0)
  S:(y-succ pos-0-0 pos-0-0)
  S:(y-succ pos-0-0 pos-0-0)
  S:(y-succ pos-0-0 pos-0-0)
  S:(y-succ pos-0-0 pos-0-0)
  S:(y-succ pos-0-0 pos-0-0)
  S:(y-succ pos-0-0 pos-0-0)
  S:(y-succ pos-0-0 pos-0-0)
  S:(y-succ pos-0-0 pos-0-0)
  S:(y-succ pos-0-0 pos-0-0)
  S:(y-succ pos-0-0 pos-0-0)
  S:(y-succ pos-0-0 pos-0-0)
  S:(y-succ pos-0-0 pos-0-0)
  S:(y-succ pos-0-0 pos-0-0)
  S:(y-succ pos-0-0 pos-0-0)
  S:(y-succ pos-0-0 pos-0-0)
  S:(y-succ pos-0-0 pos-0-0)
  S:(y-succ pos-0-0 pos-0-0)
  S:(y-succ pos-0-0 pos-0-0)
  S:(y-succ pos-0-0 pos-0-0)
  S:(y-succ pos-0-0 pos-0-0)
  S:(y-succ pos-0-0 pos-0-0)
  S:(y-succ pos-0-0 pos-0-0)
  S:(y-succ pos-0-0 pos-0-0)
  S:(y-succ pos-0-0 pos-0-0)
  S:(y-succ pos-0-0 pos-0-0)
  S:(y-succ pos-0-0 pos-0-0)
  S:(y-succ pos-0-0 pos-0-0)
  S:(y-succ pos-0-0 pos-0-0)
  S:(y-succ pos-0-0 pos-0-0)
  S:(y-succ pos-0-0 pos-0-0)
  S:(y-succ pos-0-0 pos-0-0)
  S:(y-succ pos-0-0 pos-0-0)
  S:(y-succ pos-0-0 pos-0-0)
  S:(y-succ pos-0-0 pos-0-0)
  S:(y-succ pos-0-0 pos-0-0)
  S:(y-succ pos-0-0 pos-0-0)
  S:(y-succ pos-0-0 pos-0-0)
  S:(y-succ pos-0-0 pos-0-0)
  S:(y-succ pos-0-0 pos-0-0)
  S:(y-succ pos-0-0 pos-0-0)
  S:(y-succ pos-0-0 pos-0-0)
  S:(y-succ pos-0-0 pos-0-0)
  S:(y-succ pos-0-0 pos-0-0)
  S:(y-succ pos-0-0 pos-0-0)
  S:(y-succ pos-0-0 pos-0-0)
  S:(y-succ pos-0-0 pos-0-0)
  S:(y-succ pos-0-0 pos-0-0)
  S:(y-succ pos-0-0 pos-0-0)
  S:(y-succ pos-0-0 pos-0-0)
  S:(y-succ pos-0-0 pos-0-0)
  S:(y-succ pos-0-0 pos-0-0)
  S:(y-succ pos-0-0 pos-0-0)
  S:(y-succ pos-0-0 pos-0-0)
  S:(y-succ pos-0-0 pos-0-0)
  S:(y-succ pos-0-0 pos-0-0)
  S:(y-succ pos-0-0 pos-0-0)
  S:(y-succ pos-0-0 pos-0-0)
  S:(y-succ pos-0-0 pos-0-0)
  S:(y-succ pos-0-0 pos-0-0)
  S:(y-succ pos-0-0 pos-0-0)
  S:(y-succ pos-0-0 pos-0-0)
  S:(y-succ pos-0-0 pos-0-0)
  S:(y-succ pos-0-0 pos-0-0)
  S:(y-succ pos-0-0 pos-0-0)
  S:(y-succ pos-0-0 pos-0-0)
  S:(y-succ pos-0-0 pos-0-0)
  S:(y-succ pos-0-0 pos-0-0)
  S:(y-succ pos-0-0 pos-0-0)
  S:(y-succ pos-0-0 pos-0-0)
  S:(y-succ pos-0-0 pos-0-0)
  S:(y-succ pos-0-0 pos-0-0)
  S:(y-succ pos-0-0 pos-0-0)
  S:(y-succ pos-0-0 pos-0-0)
  S:(y-succ pos-0-0 pos-0-0)
  S:(y-succ pos-0-0 pos-0-0)
  S:(y-succ pos-0-0 pos-0-0)
  S:(y-succ pos-0-0 pos-0-0)
  S:(y-succ pos-0-0 pos-0-0)
  S:(y-succ pos-0-0 pos-0-0)
  S:(y-succ pos-0-0 pos-0-0)
  S:(y-succ pos-0-0 pos-0-0)
  S:(y-succ pos-0-0 pos-0-0)
  S:(y-succ pos-0-0 pos-0-0)
  S:(y-succ pos-0-0 pos-0-0)
  S:(y-succ pos-0-0 pos-0-0)
  S:(y-succ pos-0-0 pos-0-0)
  S:(y-succ pos-0-0 pos-0-0)
  S:(y-succ pos-0-0 pos-0-0)
  S:(y-succ pos-0-0 pos-0-0)
  S:(y-succ pos-0-0 pos-0-0)
  S:(y-succ pos-0-0 pos-0-0)
  S:(y-succ pos-0-0 pos-0-0)
  S:(y-succ pos-0-0 pos-0-0)
  S:(y-succ pos-0-0 pos-0-0)
  S:(y-succ pos-0-0 pos-0-0)
  S:(y-succ pos-0-0 pos-0-0)
  (free pos-0-0)
  (free pos-0-0)
  (free pos-0-0)
  (free pos-0-0)
  (free pos-0-0)
  (free pos-0-0)
  (free pos-0-0)
  (free pos-0-0)
  (free pos-0-0)
  (free pos-0-0)
  (free pos-0-0)
  (free pos-0-0)
  (free pos-0-0)
  (free pos-0-0)
  (free pos-0-0)
  (free pos-0-0)
  (free pos-0-0)
  (free pos-0-0)
  (free pos-0-0)
  (free pos-0-0)
  (free pos-0-0)
  (free pos-0-0)
  (free pos-0-0)
  (free pos-0-0)
  (free pos-0-0)
  (free pos-0-0)
  (free pos-0-0)
  (free pos-0-0)
  (free pos-0-0)
  (free pos-0-0)
  (free pos-0-0)
  (free pos-0-0)
  (free pos-0-0)
  (free pos-0-0)
  (free pos-0-0)
  (free pos-0-0)
  (free pos-0-0)
  (free pos-0-0)
  (free pos-0-0)
  (free pos-0-0)
  (free pos-0-0)
  (free pos-0-0)
  (free pos-0-0)
  (free pos-0-0)
  (free pos-0-0)
  (free pos-0-0)
  (free pos-0-0)
  (free pos-0-0)
  (free pos-0-0)
  (free pos-0-0)
  (free pos-0-0)
  (free pos-0-0)
  (free pos-0-0)
  (free pos-0-0)
  (free pos-0-0)
  (free pos-0-0)
  (free pos-0-0)
  (free pos-0-0)
  (free pos-0-0)
  (free pos-0-0)
  (free pos-0-0)
  (free pos-0-0)
  (free pos-0-0)
  (free pos-0-0)
  (free pos-0-0)
  (free pos-0-0)
  (free pos-0-0)
  (free pos-0-0)
  (free pos-0-0)
  (free pos-0-0)
  (free pos-0-0)
  (free pos-0-0)
  (free pos-0-0)
  (free pos-0-0)
  (free pos-0-0)
  (free pos-0-0)
  (free pos-0-0)
  (free pos-0-0)
  (free pos-0-0)
  (free pos-0-0)
  (free pos-0-0)
  (free pos-0-0)
  (free pos-0-0)
  (free pos-0-0)
  (free pos-0-0)
  (free pos-0-0)
  (free pos-0-0)
  (free pos-0-0)
  (free pos-0-0)
  (free pos-0-0)
  (free pos-0-0)
  (free pos-0-0)
  (free pos-0-0)
  (free pos-0-0)
  (free pos-0-0)
  (free pos-0-0)
  (free pos-0-0)
  (free pos-0-0)
  (free pos-0-0)
  (free pos-0-0)
  (free pos-0-0)
  (free pos-0-0)
  (free pos-0-0)
  (free pos-0-0)
  (free pos-0-0)
  (free pos-0-0)
  (free pos-0-0)
  (free pos-0-0)
  (free pos-0-0)
  (free pos-0-0)
  (free pos-0-0)
  (free pos-0-0)
  (free pos-0-0)
  (free pos-0-0)
  (free pos-0-0)
  (free pos-0-0)
  (free pos-0-0)
  (free pos-0-0)
  (free pos-0-0)
  (free pos-0-0)
  (free pos-0-0)
  (free pos-0-0)
  (free pos-0-0)
  (free pos-0-0)
  (free pos-0-0)
  (free pos-0-0)
  (free pos-0-0)
  (free pos-0-0)
  (free pos-0-0)
  (free pos-0-0)
  (free pos-0-0)
  (free pos-0-0)
  (free pos-0-0)
  (free pos-0-0)
  (free pos-0-0)
  (free pos-0-0)
  (free pos-0-0)
  (free pos-0-0)
  (free pos-0-0)
  (free pos-0-0)
  (free pos-0-0)
  (free pos-0-0)
  (free pos-0-0)
  (free pos-0-0)
  (free pos-0-0)
  (free pos-0-0)
  (free pos-0-0)
  (free pos-0-0)
  (free pos-0-0)
  (free pos-0-0)
  (free pos-0-0)
  (free pos-0-0)
  (free pos-0-0)
  (free pos-0-0)
  (free pos-0-0)
  (free pos-0-0)
  (free pos-0-0)
  (free pos-0-0)
  (free pos-0-0)
  (free pos-0-0)
  (free pos-0-0)
  (free pos-0-0)
  (free pos-0-0)
  (free pos-0-0)
  (free pos-0-0)
  (free pos-0-0)
  (free pos-0-0)
  (free pos-0-0)
  (free pos-0-0)
  (free pos-0-0)
  (free pos-0-0)
  (free pos-0-0)
  (free pos-0-0)
  (free pos-0-0)
  (free pos-0-0)
  (free pos-0-0)
  (free pos-0-0)
  (free pos-0-0)
  (free pos-0-0)
  (free pos-0-0)
  (free pos-0-0)
  (free pos-0-0)
  (free pos-0-0)
  (free pos-0-0)
  (free pos-0-0)
  (free pos-0-0)
  (free pos-0-0)
  (free pos-0-0)
  (free pos-0-0)
  (free pos-0-0)
  (free pos-0-0)
  (free pos-0-0)
  (free pos-0-0)
  (free pos-0-0)
  (free pos-0-0)
  (free pos-0-0)
  (free pos-0-0)
  (free pos-0-0)
  (free pos-0-0)
  (free pos-0-0)
  (free pos-0-0)
  (free pos-0-0)
  (free pos-0-0)
  (free pos-0-0)
  (free pos-0-0)
  (free pos-0-0)
  (free pos-0-0)
  (free pos-0-0)
  (free pos-0-0)
  (free pos-0-0)
  (free pos-0-0)
  (free pos-0-0)
  (free pos-0-0)
  (free pos-0-0)
  (free pos-0-0)
  (free pos-0-0)
  (free pos-0-0)
  (free pos-0-0)
  (free pos-0-0)
  (free pos-0-0)
  (free pos-0-0)
  (free pos-0-0)
  (free pos-0-0)
  (free pos-0-0)
  (free pos-0-0)
  (free pos-0-0)
  (free pos-0-0)
  (free pos-0-0)
  (free pos-0-0)
  (free pos-0-0)
  (free pos-0-0)
  (free pos-0-0)
  (free pos-0-0)
  (free pos-0-0)
  (free pos-0-0)
  (free pos-0-0)
  (free pos-0-0)
  (free pos-0-0)
  (free pos-0-0)
  (free pos-0-0)
  (free pos-0-0)
  (free pos-0-0)
  (free pos-0-0)
  (free pos-0-0)
  (free pos-0-0)
  (free pos-0-0)
  (free pos-0-0)
  (free pos-0-0)
  (free pos-0-0)
  (free pos-0-0)
  (free pos-0-0)
  (free pos-0-0)
  (free pos-0-0)
  (free pos-0-0)
  (free pos-0-0)
  (free pos-0-0)
  (free pos-0-0)
  (free pos-0-0)
  (free pos-0-0)
  (free pos-0-0)
  (free pos-0-0)
  (free pos-0-0)
  (free pos-0-0)
  (free pos-0-0)
  (free pos-0-0)
  (free pos-0-0)
  (free pos-0-0)
  (free pos-0-0)
  (free pos-0-0)
  (free pos-0-0)
  (free pos-0-0)
  (free pos-0-0)
  (free pos-0-0)
  (free pos-0-0)
  (free pos-0-0)
  (free pos-0-0)
  (free pos-0-0)
  (free pos-0-0)
  (free pos-0-0)
  (free pos-0-0)
  (free pos-0-0)
  (free pos-0-0)
  (free pos-0-0)
  (free pos-0-0)
  (free pos-0-0)
  (free pos-0-0)
  (free pos-0-0)
  (free pos-0-0)
  (free pos-0-0)
  (free pos-0-0)
  (free pos-0-0)
  (free pos-0-0)
  (free pos-0-0)
  (free pos-0-0)
  (free pos-0-0)
  (free pos-0-0)
  (free pos-0-0)
  (free pos-0-0)
  (free pos-0-0)
  (free pos-0-0)
  (free pos-0-0)
  (free pos-0-0)
  (free pos-0-0)
  (free pos-0-0)
  (free pos-0-0)
  (free pos-0-0)
  (free pos-0-0)
  (free pos-0-0)
  (free pos-0-0)
  (free pos-0-0)
  (free pos-0-0)
  (free pos-0-0)
  (free pos-0-0)
  (free pos-0-0)
  (free pos-0-0)
  (free pos-0-0)
  (free pos-0-0)
  (free pos-0-0)
  (free pos-0-0)
  (free pos-0-0)
  (free pos-0-0)
  (free pos-0-0)
  (free pos-0-0)
  (free pos-0-0)
  (free pos-0-0)
  (free pos-0-0)
  (free pos-0-0)
  (free pos-0-0)
  (free pos-0-0)
  (free pos-0-0)
  (free pos-0-0)
  (free pos-0-0)
  (free pos-0-0)
  (free pos-0-0)
  (free pos-0-0)
  (free pos-0-0)
  (free pos-0-0)
  (free pos-0-0)
  (free pos-0-0)
  (free pos-0-0)
  (free pos-0-0)
  (free pos-0-0)
  (free pos-0-0)
  (free pos-0-0)
  (free pos-0-0)
  (free pos-0-0)
  (free pos-0-0)
  (free pos-0-0)
  (free pos-0-0)
  (free pos-0-0)
  (free pos-0-0)
  (free pos-0-0)
  (free pos-0-0)
  (free pos-0-0)
  (free pos-0-0)
  (free pos-0-0)
  (free pos-0-0)
  (free pos-0-0)
  (free pos-0-0)
  (free pos-0-0)
  (free pos-0-0)
  (free pos-0-0)
  (free pos-0-0)
  (free pos-0-0)
  (free pos-0-0)
  (free pos-0-0)
  (free pos-0-0)
  (free pos-0-0)
  (free pos-0-0)
  (free pos-0-0)
  (free pos-0-0)
  (free pos-0-0)
  (free pos-0-0)
  (free pos-0-0)
  (free pos-0-0)
  (free pos-0-0)
  (free pos-0-0)
  (free pos-0-0)
  (free pos-0-0)
  (free pos-0-0)
  (free pos-0-0)
  (free pos-0-0)
  (free pos-0-0)
  (free pos-0-0)
  (free pos-0-0)
  (free pos-0-0)
  (free pos-0-0)
  (free pos-0-0)
  (free pos-0-0)
  (free pos-0-0)
  (free pos-0-0)
  (free pos-0-0)
  (free pos-0-0)
  (free pos-0-0)
  (free pos-0-0)
  (free pos-0-0)
  (free pos-0-0)
  (free pos-0-0)
  (free pos-0-0)
  (free pos-0-0)
  (free pos-0-0)
  (free pos-0-0)
  (free pos-0-0)
  (free pos-0-0)
  (free pos-0-0)
  (free pos-0-0)
  (free pos-0-0)
  (free pos-0-0)
  (free pos-0-0)
  (free pos-0-0)
  (free pos-0-0)
  (free pos-0-0)
  (free pos-0-0)
  (free pos-0-0)
  (free pos-0-0)
  (free pos-0-0)
  (free pos-0-0)
  (free pos-0-0)
  (free pos-0-0)
  (free pos-0-0)
  (free pos-0-0)
  (free pos-0-0)
  (free pos-0-0)
  (free pos-0-0)
  (free pos-0-0)
  (free pos-0-0)
  (free pos-0-0)
  (free pos-0-0)
  (free pos-0-0)
  (free pos-0-0)
  (free pos-0-0)
  (free pos-0-0)
  (free pos-0-0)
  (free pos-0-0)
  (free pos-0-0)
  (free pos-0-0)
  (free pos-0-0)
  (free pos-0-0)
  (free pos-0-0)
  (free pos-0-0)
  (free pos-0-0)
  (free pos-0-0)
  (free pos-0-0)
  (free pos-0-0)
  (free pos-0-0)
  (free pos-0-0)
  (free pos-0-0)
  (free pos-0-0)
  (free pos-0-0)
  (free pos-0-0)
  (free pos-0-0)
  (free pos-0-0)
  (free pos-0-0)
  (free pos-0-0)
  (free pos-0-0)
  (free pos-0-0)
  (free pos-0-0)
  (free pos-0-0)
  (free pos-0-0)
  (free pos-0-0)
  (free pos-0-0)
  (free pos-0-0)
  (free pos-0-0)
  (free pos-0-0)
  (free pos-0-0)
  (free pos-0-0)
  (free pos-0-0)
  (free pos-0-0)
  (free pos-0-0)
  (free pos-0-0)
  (free pos-0-0)
  (free pos-0-0)
  (free pos-0-0)
  (free pos-0-0)
  (free pos-0-0)
  (free pos-0-0)
  (free pos-0-0)
  (free pos-0-0)
  (free pos-0-0)
  (free pos-0-0)
  (free pos-0-0)
  (occupied pos-0-0)
  (occupied pos-0-0)
  (occupied pos-0-0)
Init[0]:
Goal: (and (RW:free pos-0-0) (RW:free pos-0-0) (RW:free pos-0-0))
Metric: 0
