Domain: transport
Problem: transport-three-cities-sequential-3nodes-1000size-2degree-100mindistance-2trucks-4packages-2008seed
Require: 200ff
Type[7]:
    [0]: object, parent: -1
    [1]: location, parent: 0
    [2]: locatable, parent: 0
    [3]: capacity-number, parent: 0
    [4]: pnum, parent: 0
    [5]: vehicle, parent: 2
    [6]: package, parent: 2
Obj-by-Type:
    [0]: 0 1 2 3 4 5 6 7 8 9 10 11 12 13 14 15 16 17 18 19 20 21
    [1]: 0 1 2 3 4 5 6 7 8
    [2]: 17 18 19 20 21
    [3]: 12 13 14 15 16
    [4]: 9 10 11
    [5]: 17 18
    [6]: 19 20 21
Obj[22]:
    [0]: city-1-loc-1, type: 1, is-constant: 0, is-private: 0, owner: -1, is-agent: 0
    [1]: city-2-loc-1, type: 1, is-constant: 0, is-private: 0, owner: -1, is-agent: 0
    [2]: city-3-loc-1, type: 1, is-constant: 0, is-private: 0, owner: -1, is-agent: 0
    [3]: city-1-loc-2, type: 1, is-constant: 0, is-private: 0, owner: -1, is-agent: 0
    [4]: city-2-loc-2, type: 1, is-constant: 0, is-private: 0, owner: -1, is-agent: 0
    [5]: city-3-loc-2, type: 1, is-constant: 0, is-private: 0, owner: -1, is-agent: 0
    [6]: city-1-loc-3, type: 1, is-constant: 0, is-private: 0, owner: -1, is-agent: 0
    [7]: city-2-loc-3, type: 1, is-constant: 0, is-private: 0, owner: -1, is-agent: 0
    [8]: city-3-loc-3, type: 1, is-constant: 0, is-private: 0, owner: -1, is-agent: 0
    [9]: pnum1, type: 4, is-constant: 0, is-private: 0, owner: -1, is-agent: 0
    [10]: pnum2, type: 4, is-constant: 0, is-private: 0, owner: -1, is-agent: 0
    [11]: pnum0, type: 4, is-constant: 0, is-private: 0, owner: -1, is-agent: 0
    [12]: capacity-0, type: 3, is-constant: 0, is-private: 0, owner: -1, is-agent: 0
    [13]: capacity-1, type: 3, is-constant: 0, is-private: 0, owner: -1, is-agent: 0
    [14]: capacity-2, type: 3, is-constant: 0, is-private: 0, owner: -1, is-agent: 0
    [15]: capacity-3, type: 3, is-constant: 0, is-private: 0, owner: -1, is-agent: 0
    [16]: capacity-4, type: 3, is-constant: 0, is-private: 0, owner: -1, is-agent: 0
    [17]: truck-1, type: 5, is-constant: 0, is-private: 0, owner: -1, is-agent: 0
    [18]: truck-2, type: 5, is-constant: 0, is-private: 0, owner: -1, is-agent: 0
    [19]: package-bag1, type: 6, is-constant: 0, is-private: 0, owner: -1, is-agent: 0
    [20]: package-bag2, type: 6, is-constant: 0, is-private: 0, owner: -1, is-agent: 0
    [21]: package-bag3, type: 6, is-constant: 0, is-private: 0, owner: -1, is-agent: 0
Predicate[9]:
    =: 0 0 :: is-private: 0, owner-param: -1, read: 0, write: 0
    road: 1 1 :: is-private: 0, owner-param: -1, read: 1, write: 0
    capacity: 5 3 :: is-private: 0, owner-param: -1, read: 1, write: 1
    capacity-predecessor: 3 3 :: is-private: 0, owner-param: -1, read: 1, write: 0
    at-vehicle: 5 1 :: is-private: 0, owner-param: -1, read: 1, write: 1
    package-less: 4 4 :: is-private: 0, owner-param: -1, read: 1, write: 0
    count-package: 6 0 4 :: is-private: 0, owner-param: -1, read: 1, write: 1
    package-lte-sum: 4 4 4 :: is-private: 0, owner-param: -1, read: 1, write: 0
    package-bag-size: 6 4 :: is-private: 0, owner-param: -1, read: 1, write: 0
Function[2]:
    road-length: 1 1 :: is-private: 0, owner-param: -1, read: 0, write: 0
    total-cost: :: is-private: 0, owner-param: -1, read: 0, write: 0
Action[3]:
    drive: ?v:5 ?l1:1 ?l2:1
        pre: (and (RW:at-vehicle ?v ?l1) (R:road ?l1 ?l2))
        eff: (and (N:RW:at-vehicle ?v ?l1) (RW:at-vehicle ?v ?l2))
    pick-up: ?v:5 ?l:1 ?p:6 ?s1:3 ?s2:3 ?n1:4 ?n0:4 ?n2:4 ?n3:4 ?p-size:4
        pre: (and (RW:count-package ?p ?l ?n1) (R:package-less ?n0 ?n1) (RW:count-package ?p ?v ?n2) (R:package-less ?n2 ?n3) (RW:at-vehicle ?v ?l) (R:capacity-predecessor ?s1 ?s2) (RW:capacity ?v ?s2) (R:package-lte-sum ?n1 ?n2 ?p-size) (R:package-bag-size ?p ?p-size))
        eff: (and (RW:count-package ?p ?l ?n0) (N:RW:count-package ?p ?l ?n1) (RW:count-package ?p ?v ?n3) (N:RW:count-package ?p ?v ?n2) (RW:capacity ?v ?s1) (N:RW:capacity ?v ?s2))
    drop: ?v:5 ?l:1 ?p:6 ?s1:3 ?s2:3 ?n1:4 ?n0:4 ?n2:4 ?n3:4 ?p-size:4
        pre: (and (RW:count-package ?p ?v ?n1) (R:package-less ?n0 ?n1) (RW:count-package ?p ?l ?n2) (R:package-less ?n2 ?n3) (RW:at-vehicle ?v ?l) (R:capacity-predecessor ?s1 ?s2) (RW:capacity ?v ?s1) (R:package-lte-sum ?n1 ?n2 ?p-size) (R:package-bag-size ?p ?p-size))
        eff: (and (RW:count-package ?p ?v ?n0) (N:RW:count-package ?p ?v ?n1) (RW:count-package ?p ?l ?n3) (N:RW:count-package ?p ?l ?n2) (RW:capacity ?v ?s2) (N:RW:capacity ?v ?s1))
Init[75]:
  S:(road city-1-loc-1 city-1-loc-3)
  S:(capacity-predecessor capacity-1 capacity-2)
  S:(road city-3-loc-1 city-3-loc-3)
  S:(road city-1-loc-3 city-1-loc-1)
  S:(capacity-predecessor capacity-0 capacity-1)
  S:(road city-2-loc-3 city-2-loc-1)
  S:(capacity-predecessor capacity-2 capacity-3)
  S:(capacity-predecessor capacity-3 capacity-4)
  S:(road city-2-loc-1 city-2-loc-3)
  S:(road city-2-loc-3 city-2-loc-2)
  S:(road city-1-loc-3 city-1-loc-2)
  S:(road city-3-loc-1 city-3-loc-2)
  S:(road city-3-loc-1 city-1-loc-1)
  (at-vehicle truck-2 city-3-loc-1)
  S:(road city-2-loc-2 city-2-loc-1)
  S:(road city-3-loc-3 city-3-loc-1)
  S:(road city-2-loc-2 city-2-loc-3)
  S:(road city-3-loc-2 city-3-loc-1)
  S:(road city-2-loc-3 city-3-loc-2)
  (capacity truck-2 capacity-3)
  (at-vehicle truck-1 city-1-loc-3)
  S:(road city-1-loc-1 city-3-loc-1)
  S:(road city-3-loc-2 city-2-loc-3)
  S:(road city-1-loc-1 city-2-loc-3)
  S:(road city-2-loc-3 city-1-loc-1)
  S:(road city-2-loc-1 city-2-loc-2)
  S:(road city-1-loc-2 city-1-loc-3)
  (capacity truck-1 capacity-3)
  S:(package-less pnum1 pnum2)
  (count-package package-bag1 city-3-loc-3 pnum0)
  (count-package package-bag1 city-1-loc-2 pnum1)
  (count-package package-bag2 city-3-loc-1 pnum1)
  (count-package package-bag3 city-1-loc-2 pnum1)
  S:(package-less pnum0 pnum1)
  (count-package package-bag1 truck-1 pnum0)
  (count-package package-bag1 truck-2 pnum0)
  (count-package package-bag1 city-1-loc-1 pnum0)
  (count-package package-bag1 city-2-loc-1 pnum0)
  (count-package package-bag1 city-3-loc-1 pnum0)
  (count-package package-bag1 city-2-loc-2 pnum0)
  (count-package package-bag1 city-3-loc-2 pnum0)
  (count-package package-bag1 city-1-loc-3 pnum0)
  (count-package package-bag1 city-2-loc-3 pnum0)
  (count-package package-bag2 truck-1 pnum0)
  (count-package package-bag2 truck-2 pnum0)
  (count-package package-bag2 city-1-loc-1 pnum0)
  (count-package package-bag2 city-2-loc-1 pnum0)
  (count-package package-bag2 city-1-loc-2 pnum0)
  (count-package package-bag2 city-2-loc-2 pnum0)
  (count-package package-bag2 city-3-loc-2 pnum0)
  (count-package package-bag2 city-1-loc-3 pnum0)
  (count-package package-bag2 city-2-loc-3 pnum0)
  (count-package package-bag2 city-3-loc-3 pnum0)
  (count-package package-bag3 truck-1 pnum0)
  (count-package package-bag3 truck-2 pnum0)
  (count-package package-bag3 city-1-loc-1 pnum0)
  (count-package package-bag3 city-2-loc-1 pnum0)
  (count-package package-bag3 city-3-loc-1 pnum0)
  (count-package package-bag3 city-2-loc-2 pnum0)
  (count-package package-bag3 city-3-loc-2 pnum0)
  (count-package package-bag3 city-1-loc-3 pnum0)
  (count-package package-bag3 city-2-loc-3 pnum0)
  (count-package package-bag3 city-3-loc-3 pnum0)
  S:(package-bag-size package-bag1 pnum2)
  S:(package-bag-size package-bag2 pnum1)
  S:(package-bag-size package-bag3 pnum1)
  S:(package-lte-sum pnum0 pnum0 pnum2)
  S:(package-lte-sum pnum0 pnum1 pnum2)
  S:(package-lte-sum pnum0 pnum2 pnum2)
  S:(package-lte-sum pnum1 pnum0 pnum2)
  S:(package-lte-sum pnum1 pnum1 pnum2)
  S:(package-lte-sum pnum2 pnum0 pnum2)
  S:(package-lte-sum pnum0 pnum0 pnum1)
  S:(package-lte-sum pnum0 pnum1 pnum1)
  S:(package-lte-sum pnum1 pnum0 pnum1)
Init[0]:
Goal: (and (RW:count-package package-bag1 city-1-loc-3 pnum2) (RW:count-package package-bag2 city-1-loc-1 pnum1) (RW:count-package package-bag3 city-2-loc-2 pnum1))
Metric: 0
