Reduced 23 -> 13
Domain: document
Problem: solv-problem-1
Require: ff
Type[3]:
    [0]: object, parent: -1
    [1]: document, parent: 0
    [2]: location, parent: 0
Obj-by-Type:
    [0]: 0 1 2 3 4 5 6 7 8 9 10 11 12
    [1]: 1 2 3 4 5 6 7
    [2]: 0 8 9 10 11 12
Obj[13]:
    [0]: office, type: 2, is-constant: 1, is-private: 0, owner: -1, is-agent: 0
    [1]: fuel1, type: 1, is-constant: 0, is-private: 0, owner: -1, is-agent: 0
    [2]: fuel2, type: 1, is-constant: 0, is-private: 0, owner: -1, is-agent: 0
    [3]: document2, type: 1, is-constant: 0, is-private: 0, owner: -1, is-agent: 0
    [4]: document3, type: 1, is-constant: 0, is-private: 0, owner: -1, is-agent: 0
    [5]: document4, type: 1, is-constant: 0, is-private: 0, owner: -1, is-agent: 0
    [6]: document7, type: 1, is-constant: 0, is-private: 0, owner: -1, is-agent: 0
    [7]: document8, type: 1, is-constant: 0, is-private: 0, owner: -1, is-agent: 0
    [8]: office1, type: 2, is-constant: 0, is-private: 0, owner: -1, is-agent: 0
    [9]: office2, type: 2, is-constant: 0, is-private: 0, owner: -1, is-agent: 0
    [10]: office3, type: 2, is-constant: 0, is-private: 0, owner: -1, is-agent: 0
    [11]: office4, type: 2, is-constant: 0, is-private: 0, owner: -1, is-agent: 0
    [12]: office6, type: 2, is-constant: 0, is-private: 0, owner: -1, is-agent: 0
Predicate[5]:
    =: 0 0 :: is-private: 0, owner-param: -1, read: 0, write: 0
    track: 2 2 :: is-private: 0, owner-param: -1, read: 1, write: 0
    at: 1 2 :: is-private: 0, owner-param: -1, read: 1, write: 1
    in-train: 1 :: is-private: 0, owner-param: -1, read: 1, write: 1
    train-at: 2 :: is-private: 0, owner-param: -1, read: 1, write: 1
Function[0]:
Action[3]:
    drive: ?l1:2 ?l2:2 ?g:1
        pre: (and (RW:train-at ?l1) (R:track ?l1 ?l2) (RW:in-train ?g))
        eff: (and (RW:train-at ?l2))
    pickup-documents: ?l:2 ?d:1
        pre: (and (RW:train-at ?l) (RW:at ?d ?l))
        eff: (and (RW:in-train ?d))
    deposit-documents: ?l:2 ?d:1
        pre: (and (RW:train-at ?l) (RW:in-train ?d))
        eff: (and (RW:at ?d ?l))
Init[48]:
  (train-at office1)
  (in-train fuel1)
  (in-train fuel2)
  (at fuel2 office3)
  (at document2 office3)
  (at document3 office4)
  (at document4 office4)
  (at document3 office4)
  (at fuel1 office4)
  (at document7 office)
  (at document8 office)
  S:(track office1 office1)
  S:(track office1 office2)
  S:(track office2 office)
  S:(track office2 office3)
  S:(track office3 office2)
  S:(track office3 office1)
  S:(track office3 office4)
  S:(track office4 office)
  S:(track office4 office3)
  S:(track office4 office)
  S:(track office office)
  S:(track office office2)
  S:(track office office)
  S:(track office office2)
  S:(track office office6)
  S:(track office6 office4)
  S:(track office6 office6)
  S:(track office6 office)
  S:(track office6 office3)
  S:(track office6 office)
  S:(track office6 office2)
  S:(track office2 office4)
  S:(track office2 office)
  S:(track office office)
  S:(track office office)
  S:(track office office6)
  S:(track office6 office)
  S:(track office6 office6)
  S:(track office6 office3)
  S:(track office3 office)
  S:(track office3 office2)
  S:(track office3 office1)
  S:(track office3 office)
  S:(track office office)
  S:(track office office2)
  S:(track office office1)
  S:(track office1 office)
Init[0]:
Goal: (and (RW:at document3 office1) (RW:at fuel1 office1))
Metric: 0
