Reduced 45 -> 45
Domain: tpplike-metric
Problem: tpp-problem-m6-g3-c0.5-s1026
Require: ff
Type[9]:
    [0]: object, parent: -1
    [1]: domain, parent: 0
    [2]: moneylevel, parent: 1
    [3]: place, parent: 1
    [4]: depot, parent: 3
    [5]: market, parent: 3
    [6]: locatable, parent: 1
    [7]: truck, parent: 6
    [8]: goods, parent: 6
Obj-by-Type:
    [0]: 0 1 2 3 4 5 6 7 8 9 10 11 12 13 14 15 16 17 18 19 20 21 22 23 24 25 26 27 28 29 30 31 32 33 34 35 36 37 38 39 40 41 42 43 44
    [1]: 0 1 2 3 4 5 6 7 8 9 10 11 12 13 14 15 16 17 18 19 20 21 22 23 24 25 26 27 28 29 30 31 32 33 34 35 36 37 38 39 40 41 42 43 44
    [2]: 11 12 13 14 15 16 17 18 19 20 21 22 23 24 25 26 27 28 29 30 31 32 33 34 35 36 37 38 39 40 41 42 43 44
    [3]: 0 1 2 3 4 5 6
    [4]: 6
    [5]: 0 1 2 3 4 5
    [6]: 7 8 9 10
    [7]: 7
    [8]: 8 9 10
Obj[45]:
    [0]: market1, type: 5, is-constant: 0, is-private: 0, owner: -1, is-agent: 0
    [1]: market2, type: 5, is-constant: 0, is-private: 0, owner: -1, is-agent: 0
    [2]: market3, type: 5, is-constant: 0, is-private: 0, owner: -1, is-agent: 0
    [3]: market4, type: 5, is-constant: 0, is-private: 0, owner: -1, is-agent: 0
    [4]: market5, type: 5, is-constant: 0, is-private: 0, owner: -1, is-agent: 0
    [5]: market6, type: 5, is-constant: 0, is-private: 0, owner: -1, is-agent: 0
    [6]: depot0, type: 4, is-constant: 0, is-private: 0, owner: -1, is-agent: 0
    [7]: truck0, type: 7, is-constant: 0, is-private: 0, owner: -1, is-agent: 0
    [8]: goods0, type: 8, is-constant: 0, is-private: 0, owner: -1, is-agent: 0
    [9]: goods1, type: 8, is-constant: 0, is-private: 0, owner: -1, is-agent: 0
    [10]: goods2, type: 8, is-constant: 0, is-private: 0, owner: -1, is-agent: 0
    [11]: level33, type: 2, is-constant: 0, is-private: 0, owner: -1, is-agent: 0
    [12]: level32, type: 2, is-constant: 0, is-private: 0, owner: -1, is-agent: 0
    [13]: level31, type: 2, is-constant: 0, is-private: 0, owner: -1, is-agent: 0
    [14]: level30, type: 2, is-constant: 0, is-private: 0, owner: -1, is-agent: 0
    [15]: level29, type: 2, is-constant: 0, is-private: 0, owner: -1, is-agent: 0
    [16]: level28, type: 2, is-constant: 0, is-private: 0, owner: -1, is-agent: 0
    [17]: level27, type: 2, is-constant: 0, is-private: 0, owner: -1, is-agent: 0
    [18]: level26, type: 2, is-constant: 0, is-private: 0, owner: -1, is-agent: 0
    [19]: level25, type: 2, is-constant: 0, is-private: 0, owner: -1, is-agent: 0
    [20]: level24, type: 2, is-constant: 0, is-private: 0, owner: -1, is-agent: 0
    [21]: level23, type: 2, is-constant: 0, is-private: 0, owner: -1, is-agent: 0
    [22]: level22, type: 2, is-constant: 0, is-private: 0, owner: -1, is-agent: 0
    [23]: level21, type: 2, is-constant: 0, is-private: 0, owner: -1, is-agent: 0
    [24]: level20, type: 2, is-constant: 0, is-private: 0, owner: -1, is-agent: 0
    [25]: level19, type: 2, is-constant: 0, is-private: 0, owner: -1, is-agent: 0
    [26]: level18, type: 2, is-constant: 0, is-private: 0, owner: -1, is-agent: 0
    [27]: level17, type: 2, is-constant: 0, is-private: 0, owner: -1, is-agent: 0
    [28]: level16, type: 2, is-constant: 0, is-private: 0, owner: -1, is-agent: 0
    [29]: level15, type: 2, is-constant: 0, is-private: 0, owner: -1, is-agent: 0
    [30]: level14, type: 2, is-constant: 0, is-private: 0, owner: -1, is-agent: 0
    [31]: level13, type: 2, is-constant: 0, is-private: 0, owner: -1, is-agent: 0
    [32]: level12, type: 2, is-constant: 0, is-private: 0, owner: -1, is-agent: 0
    [33]: level11, type: 2, is-constant: 0, is-private: 0, owner: -1, is-agent: 0
    [34]: level10, type: 2, is-constant: 0, is-private: 0, owner: -1, is-agent: 0
    [35]: level9, type: 2, is-constant: 0, is-private: 0, owner: -1, is-agent: 0
    [36]: level8, type: 2, is-constant: 0, is-private: 0, owner: -1, is-agent: 0
    [37]: level7, type: 2, is-constant: 0, is-private: 0, owner: -1, is-agent: 0
    [38]: level6, type: 2, is-constant: 0, is-private: 0, owner: -1, is-agent: 0
    [39]: level5, type: 2, is-constant: 0, is-private: 0, owner: -1, is-agent: 0
    [40]: level4, type: 2, is-constant: 0, is-private: 0, owner: -1, is-agent: 0
    [41]: level3, type: 2, is-constant: 0, is-private: 0, owner: -1, is-agent: 0
    [42]: level2, type: 2, is-constant: 0, is-private: 0, owner: -1, is-agent: 0
    [43]: level1, type: 2, is-constant: 0, is-private: 0, owner: -1, is-agent: 0
    [44]: level0, type: 2, is-constant: 0, is-private: 0, owner: -1, is-agent: 0
Predicate[11]:
    =: 0 0 :: is-private: 0, owner-param: -1, read: 0, write: 0
    at: 7 3 :: is-private: 0, owner-param: -1, read: 1, write: 1
    on-sale: 8 5 :: is-private: 0, owner-param: -1, read: 1, write: 1
    available: 8 5 :: is-private: 0, owner-param: -1, read: 1, write: 1
    loaded: 8 7 :: is-private: 0, owner-param: -1, read: 1, write: 1
    connected: 3 3 :: is-private: 0, owner-param: -1, read: 1, write: 0
    stored: 8 :: is-private: 0, owner-param: -1, read: 0, write: 1
    drive-cost: 3 3 2 :: is-private: 0, owner-param: -1, read: 1, write: 0
    price: 8 5 2 :: is-private: 0, owner-param: -1, read: 1, write: 0
    money: 2 :: is-private: 0, owner-param: -1, read: 1, write: 1
    sum: 2 2 2 :: is-private: 0, owner-param: -1, read: 1, write: 0
Function[0]:
Action[4]:
    drive: ?t:7 ?from:3 ?to:3 ?moneypre:2 ?moneydelta:2 ?moneypost:2
        pre: (and (RW:at ?t ?from) (R:connected ?from ?to) (RW:money ?moneypre) (R:drive-cost ?from ?to ?moneydelta) (R:sum ?moneypost ?moneydelta ?moneypre))
        eff: (and (N:RW:at ?t ?from) (N:RW:money ?moneypre) (RW:at ?t ?to) (RW:money ?moneypost))
    buy: ?t:7 ?g:8 ?m:5 ?moneypre:2 ?moneydelta:2 ?moneypost:2
        pre: (and (RW:on-sale ?g ?m) (RW:money ?moneypre) (R:price ?g ?m ?moneydelta) (R:sum ?moneypost ?moneydelta ?moneypre))
        eff: (and (N:RW:on-sale ?g ?m) (N:RW:money ?moneypre) (RW:available ?g ?m) (RW:money ?moneypost))
    load: ?g:8 ?t:7 ?m:5
        pre: (and (RW:available ?g ?m) (RW:at ?t ?m))
        eff: (and (RW:loaded ?g ?t) (N:RW:available ?g ?m))
    unload: ?t:7 ?g:8 ?d:4
        pre: (and (RW:loaded ?g ?t) (RW:at ?t ?d))
        eff: (and (W:stored ?g) (N:RW:loaded ?g ?t))
Init[637]:
  S:(sum level0 level0 level0)
  S:(sum level0 level1 level1)
  S:(sum level0 level2 level2)
  S:(sum level0 level3 level3)
  S:(sum level0 level4 level4)
  S:(sum level0 level5 level5)
  S:(sum level0 level6 level6)
  S:(sum level0 level7 level7)
  S:(sum level0 level8 level8)
  S:(sum level0 level9 level9)
  S:(sum level0 level10 level10)
  S:(sum level0 level11 level11)
  S:(sum level0 level12 level12)
  S:(sum level0 level13 level13)
  S:(sum level0 level14 level14)
  S:(sum level0 level15 level15)
  S:(sum level0 level16 level16)
  S:(sum level0 level17 level17)
  S:(sum level0 level18 level18)
  S:(sum level0 level19 level19)
  S:(sum level0 level20 level20)
  S:(sum level0 level21 level21)
  S:(sum level0 level22 level22)
  S:(sum level0 level23 level23)
  S:(sum level0 level24 level24)
  S:(sum level0 level25 level25)
  S:(sum level0 level26 level26)
  S:(sum level0 level27 level27)
  S:(sum level0 level28 level28)
  S:(sum level0 level29 level29)
  S:(sum level0 level30 level30)
  S:(sum level0 level31 level31)
  S:(sum level0 level32 level32)
  S:(sum level0 level33 level33)
  S:(sum level1 level0 level1)
  S:(sum level1 level1 level2)
  S:(sum level1 level2 level3)
  S:(sum level1 level3 level4)
  S:(sum level1 level4 level5)
  S:(sum level1 level5 level6)
  S:(sum level1 level6 level7)
  S:(sum level1 level7 level8)
  S:(sum level1 level8 level9)
  S:(sum level1 level9 level10)
  S:(sum level1 level10 level11)
  S:(sum level1 level11 level12)
  S:(sum level1 level12 level13)
  S:(sum level1 level13 level14)
  S:(sum level1 level14 level15)
  S:(sum level1 level15 level16)
  S:(sum level1 level16 level17)
  S:(sum level1 level17 level18)
  S:(sum level1 level18 level19)
  S:(sum level1 level19 level20)
  S:(sum level1 level20 level21)
  S:(sum level1 level21 level22)
  S:(sum level1 level22 level23)
  S:(sum level1 level23 level24)
  S:(sum level1 level24 level25)
  S:(sum level1 level25 level26)
  S:(sum level1 level26 level27)
  S:(sum level1 level27 level28)
  S:(sum level1 level28 level29)
  S:(sum level1 level29 level30)
  S:(sum level1 level30 level31)
  S:(sum level1 level31 level32)
  S:(sum level1 level32 level33)
  S:(sum level2 level0 level2)
  S:(sum level2 level1 level3)
  S:(sum level2 level2 level4)
  S:(sum level2 level3 level5)
  S:(sum level2 level4 level6)
  S:(sum level2 level5 level7)
  S:(sum level2 level6 level8)
  S:(sum level2 level7 level9)
  S:(sum level2 level8 level10)
  S:(sum level2 level9 level11)
  S:(sum level2 level10 level12)
  S:(sum level2 level11 level13)
  S:(sum level2 level12 level14)
  S:(sum level2 level13 level15)
  S:(sum level2 level14 level16)
  S:(sum level2 level15 level17)
  S:(sum level2 level16 level18)
  S:(sum level2 level17 level19)
  S:(sum level2 level18 level20)
  S:(sum level2 level19 level21)
  S:(sum level2 level20 level22)
  S:(sum level2 level21 level23)
  S:(sum level2 level22 level24)
  S:(sum level2 level23 level25)
  S:(sum level2 level24 level26)
  S:(sum level2 level25 level27)
  S:(sum level2 level26 level28)
  S:(sum level2 level27 level29)
  S:(sum level2 level28 level30)
  S:(sum level2 level29 level31)
  S:(sum level2 level30 level32)
  S:(sum level2 level31 level33)
  S:(sum level3 level0 level3)
  S:(sum level3 level1 level4)
  S:(sum level3 level2 level5)
  S:(sum level3 level3 level6)
  S:(sum level3 level4 level7)
  S:(sum level3 level5 level8)
  S:(sum level3 level6 level9)
  S:(sum level3 level7 level10)
  S:(sum level3 level8 level11)
  S:(sum level3 level9 level12)
  S:(sum level3 level10 level13)
  S:(sum level3 level11 level14)
  S:(sum level3 level12 level15)
  S:(sum level3 level13 level16)
  S:(sum level3 level14 level17)
  S:(sum level3 level15 level18)
  S:(sum level3 level16 level19)
  S:(sum level3 level17 level20)
  S:(sum level3 level18 level21)
  S:(sum level3 level19 level22)
  S:(sum level3 level20 level23)
  S:(sum level3 level21 level24)
  S:(sum level3 level22 level25)
  S:(sum level3 level23 level26)
  S:(sum level3 level24 level27)
  S:(sum level3 level25 level28)
  S:(sum level3 level26 level29)
  S:(sum level3 level27 level30)
  S:(sum level3 level28 level31)
  S:(sum level3 level29 level32)
  S:(sum level3 level30 level33)
  S:(sum level4 level0 level4)
  S:(sum level4 level1 level5)
  S:(sum level4 level2 level6)
  S:(sum level4 level3 level7)
  S:(sum level4 level4 level8)
  S:(sum level4 level5 level9)
  S:(sum level4 level6 level10)
  S:(sum level4 level7 level11)
  S:(sum level4 level8 level12)
  S:(sum level4 level9 level13)
  S:(sum level4 level10 level14)
  S:(sum level4 level11 level15)
  S:(sum level4 level12 level16)
  S:(sum level4 level13 level17)
  S:(sum level4 level14 level18)
  S:(sum level4 level15 level19)
  S:(sum level4 level16 level20)
  S:(sum level4 level17 level21)
  S:(sum level4 level18 level22)
  S:(sum level4 level19 level23)
  S:(sum level4 level20 level24)
  S:(sum level4 level21 level25)
  S:(sum level4 level22 level26)
  S:(sum level4 level23 level27)
  S:(sum level4 level24 level28)
  S:(sum level4 level25 level29)
  S:(sum level4 level26 level30)
  S:(sum level4 level27 level31)
  S:(sum level4 level28 level32)
  S:(sum level4 level29 level33)
  S:(sum level5 level0 level5)
  S:(sum level5 level1 level6)
  S:(sum level5 level2 level7)
  S:(sum level5 level3 level8)
  S:(sum level5 level4 level9)
  S:(sum level5 level5 level10)
  S:(sum level5 level6 level11)
  S:(sum level5 level7 level12)
  S:(sum level5 level8 level13)
  S:(sum level5 level9 level14)
  S:(sum level5 level10 level15)
  S:(sum level5 level11 level16)
  S:(sum level5 level12 level17)
  S:(sum level5 level13 level18)
  S:(sum level5 level14 level19)
  S:(sum level5 level15 level20)
  S:(sum level5 level16 level21)
  S:(sum level5 level17 level22)
  S:(sum level5 level18 level23)
  S:(sum level5 level19 level24)
  S:(sum level5 level20 level25)
  S:(sum level5 level21 level26)
  S:(sum level5 level22 level27)
  S:(sum level5 level23 level28)
  S:(sum level5 level24 level29)
  S:(sum level5 level25 level30)
  S:(sum level5 level26 level31)
  S:(sum level5 level27 level32)
  S:(sum level5 level28 level33)
  S:(sum level6 level0 level6)
  S:(sum level6 level1 level7)
  S:(sum level6 level2 level8)
  S:(sum level6 level3 level9)
  S:(sum level6 level4 level10)
  S:(sum level6 level5 level11)
  S:(sum level6 level6 level12)
  S:(sum level6 level7 level13)
  S:(sum level6 level8 level14)
  S:(sum level6 level9 level15)
  S:(sum level6 level10 level16)
  S:(sum level6 level11 level17)
  S:(sum level6 level12 level18)
  S:(sum level6 level13 level19)
  S:(sum level6 level14 level20)
  S:(sum level6 level15 level21)
  S:(sum level6 level16 level22)
  S:(sum level6 level17 level23)
  S:(sum level6 level18 level24)
  S:(sum level6 level19 level25)
  S:(sum level6 level20 level26)
  S:(sum level6 level21 level27)
  S:(sum level6 level22 level28)
  S:(sum level6 level23 level29)
  S:(sum level6 level24 level30)
  S:(sum level6 level25 level31)
  S:(sum level6 level26 level32)
  S:(sum level6 level27 level33)
  S:(sum level7 level0 level7)
  S:(sum level7 level1 level8)
  S:(sum level7 level2 level9)
  S:(sum level7 level3 level10)
  S:(sum level7 level4 level11)
  S:(sum level7 level5 level12)
  S:(sum level7 level6 level13)
  S:(sum level7 level7 level14)
  S:(sum level7 level8 level15)
  S:(sum level7 level9 level16)
  S:(sum level7 level10 level17)
  S:(sum level7 level11 level18)
  S:(sum level7 level12 level19)
  S:(sum level7 level13 level20)
  S:(sum level7 level14 level21)
  S:(sum level7 level15 level22)
  S:(sum level7 level16 level23)
  S:(sum level7 level17 level24)
  S:(sum level7 level18 level25)
  S:(sum level7 level19 level26)
  S:(sum level7 level20 level27)
  S:(sum level7 level21 level28)
  S:(sum level7 level22 level29)
  S:(sum level7 level23 level30)
  S:(sum level7 level24 level31)
  S:(sum level7 level25 level32)
  S:(sum level7 level26 level33)
  S:(sum level8 level0 level8)
  S:(sum level8 level1 level9)
  S:(sum level8 level2 level10)
  S:(sum level8 level3 level11)
  S:(sum level8 level4 level12)
  S:(sum level8 level5 level13)
  S:(sum level8 level6 level14)
  S:(sum level8 level7 level15)
  S:(sum level8 level8 level16)
  S:(sum level8 level9 level17)
  S:(sum level8 level10 level18)
  S:(sum level8 level11 level19)
  S:(sum level8 level12 level20)
  S:(sum level8 level13 level21)
  S:(sum level8 level14 level22)
  S:(sum level8 level15 level23)
  S:(sum level8 level16 level24)
  S:(sum level8 level17 level25)
  S:(sum level8 level18 level26)
  S:(sum level8 level19 level27)
  S:(sum level8 level20 level28)
  S:(sum level8 level21 level29)
  S:(sum level8 level22 level30)
  S:(sum level8 level23 level31)
  S:(sum level8 level24 level32)
  S:(sum level8 level25 level33)
  S:(sum level9 level0 level9)
  S:(sum level9 level1 level10)
  S:(sum level9 level2 level11)
  S:(sum level9 level3 level12)
  S:(sum level9 level4 level13)
  S:(sum level9 level5 level14)
  S:(sum level9 level6 level15)
  S:(sum level9 level7 level16)
  S:(sum level9 level8 level17)
  S:(sum level9 level9 level18)
  S:(sum level9 level10 level19)
  S:(sum level9 level11 level20)
  S:(sum level9 level12 level21)
  S:(sum level9 level13 level22)
  S:(sum level9 level14 level23)
  S:(sum level9 level15 level24)
  S:(sum level9 level16 level25)
  S:(sum level9 level17 level26)
  S:(sum level9 level18 level27)
  S:(sum level9 level19 level28)
  S:(sum level9 level20 level29)
  S:(sum level9 level21 level30)
  S:(sum level9 level22 level31)
  S:(sum level9 level23 level32)
  S:(sum level9 level24 level33)
  S:(sum level10 level0 level10)
  S:(sum level10 level1 level11)
  S:(sum level10 level2 level12)
  S:(sum level10 level3 level13)
  S:(sum level10 level4 level14)
  S:(sum level10 level5 level15)
  S:(sum level10 level6 level16)
  S:(sum level10 level7 level17)
  S:(sum level10 level8 level18)
  S:(sum level10 level9 level19)
  S:(sum level10 level10 level20)
  S:(sum level10 level11 level21)
  S:(sum level10 level12 level22)
  S:(sum level10 level13 level23)
  S:(sum level10 level14 level24)
  S:(sum level10 level15 level25)
  S:(sum level10 level16 level26)
  S:(sum level10 level17 level27)
  S:(sum level10 level18 level28)
  S:(sum level10 level19 level29)
  S:(sum level10 level20 level30)
  S:(sum level10 level21 level31)
  S:(sum level10 level22 level32)
  S:(sum level10 level23 level33)
  S:(sum level11 level0 level11)
  S:(sum level11 level1 level12)
  S:(sum level11 level2 level13)
  S:(sum level11 level3 level14)
  S:(sum level11 level4 level15)
  S:(sum level11 level5 level16)
  S:(sum level11 level6 level17)
  S:(sum level11 level7 level18)
  S:(sum level11 level8 level19)
  S:(sum level11 level9 level20)
  S:(sum level11 level10 level21)
  S:(sum level11 level11 level22)
  S:(sum level11 level12 level23)
  S:(sum level11 level13 level24)
  S:(sum level11 level14 level25)
  S:(sum level11 level15 level26)
  S:(sum level11 level16 level27)
  S:(sum level11 level17 level28)
  S:(sum level11 level18 level29)
  S:(sum level11 level19 level30)
  S:(sum level11 level20 level31)
  S:(sum level11 level21 level32)
  S:(sum level11 level22 level33)
  S:(sum level12 level0 level12)
  S:(sum level12 level1 level13)
  S:(sum level12 level2 level14)
  S:(sum level12 level3 level15)
  S:(sum level12 level4 level16)
  S:(sum level12 level5 level17)
  S:(sum level12 level6 level18)
  S:(sum level12 level7 level19)
  S:(sum level12 level8 level20)
  S:(sum level12 level9 level21)
  S:(sum level12 level10 level22)
  S:(sum level12 level11 level23)
  S:(sum level12 level12 level24)
  S:(sum level12 level13 level25)
  S:(sum level12 level14 level26)
  S:(sum level12 level15 level27)
  S:(sum level12 level16 level28)
  S:(sum level12 level17 level29)
  S:(sum level12 level18 level30)
  S:(sum level12 level19 level31)
  S:(sum level12 level20 level32)
  S:(sum level12 level21 level33)
  S:(sum level13 level0 level13)
  S:(sum level13 level1 level14)
  S:(sum level13 level2 level15)
  S:(sum level13 level3 level16)
  S:(sum level13 level4 level17)
  S:(sum level13 level5 level18)
  S:(sum level13 level6 level19)
  S:(sum level13 level7 level20)
  S:(sum level13 level8 level21)
  S:(sum level13 level9 level22)
  S:(sum level13 level10 level23)
  S:(sum level13 level11 level24)
  S:(sum level13 level12 level25)
  S:(sum level13 level13 level26)
  S:(sum level13 level14 level27)
  S:(sum level13 level15 level28)
  S:(sum level13 level16 level29)
  S:(sum level13 level17 level30)
  S:(sum level13 level18 level31)
  S:(sum level13 level19 level32)
  S:(sum level13 level20 level33)
  S:(sum level14 level0 level14)
  S:(sum level14 level1 level15)
  S:(sum level14 level2 level16)
  S:(sum level14 level3 level17)
  S:(sum level14 level4 level18)
  S:(sum level14 level5 level19)
  S:(sum level14 level6 level20)
  S:(sum level14 level7 level21)
  S:(sum level14 level8 level22)
  S:(sum level14 level9 level23)
  S:(sum level14 level10 level24)
  S:(sum level14 level11 level25)
  S:(sum level14 level12 level26)
  S:(sum level14 level13 level27)
  S:(sum level14 level14 level28)
  S:(sum level14 level15 level29)
  S:(sum level14 level16 level30)
  S:(sum level14 level17 level31)
  S:(sum level14 level18 level32)
  S:(sum level14 level19 level33)
  S:(sum level15 level0 level15)
  S:(sum level15 level1 level16)
  S:(sum level15 level2 level17)
  S:(sum level15 level3 level18)
  S:(sum level15 level4 level19)
  S:(sum level15 level5 level20)
  S:(sum level15 level6 level21)
  S:(sum level15 level7 level22)
  S:(sum level15 level8 level23)
  S:(sum level15 level9 level24)
  S:(sum level15 level10 level25)
  S:(sum level15 level11 level26)
  S:(sum level15 level12 level27)
  S:(sum level15 level13 level28)
  S:(sum level15 level14 level29)
  S:(sum level15 level15 level30)
  S:(sum level15 level16 level31)
  S:(sum level15 level17 level32)
  S:(sum level15 level18 level33)
  S:(sum level16 level0 level16)
  S:(sum level16 level1 level17)
  S:(sum level16 level2 level18)
  S:(sum level16 level3 level19)
  S:(sum level16 level4 level20)
  S:(sum level16 level5 level21)
  S:(sum level16 level6 level22)
  S:(sum level16 level7 level23)
  S:(sum level16 level8 level24)
  S:(sum level16 level9 level25)
  S:(sum level16 level10 level26)
  S:(sum level16 level11 level27)
  S:(sum level16 level12 level28)
  S:(sum level16 level13 level29)
  S:(sum level16 level14 level30)
  S:(sum level16 level15 level31)
  S:(sum level16 level16 level32)
  S:(sum level16 level17 level33)
  S:(sum level17 level0 level17)
  S:(sum level17 level1 level18)
  S:(sum level17 level2 level19)
  S:(sum level17 level3 level20)
  S:(sum level17 level4 level21)
  S:(sum level17 level5 level22)
  S:(sum level17 level6 level23)
  S:(sum level17 level7 level24)
  S:(sum level17 level8 level25)
  S:(sum level17 level9 level26)
  S:(sum level17 level10 level27)
  S:(sum level17 level11 level28)
  S:(sum level17 level12 level29)
  S:(sum level17 level13 level30)
  S:(sum level17 level14 level31)
  S:(sum level17 level15 level32)
  S:(sum level17 level16 level33)
  S:(sum level18 level0 level18)
  S:(sum level18 level1 level19)
  S:(sum level18 level2 level20)
  S:(sum level18 level3 level21)
  S:(sum level18 level4 level22)
  S:(sum level18 level5 level23)
  S:(sum level18 level6 level24)
  S:(sum level18 level7 level25)
  S:(sum level18 level8 level26)
  S:(sum level18 level9 level27)
  S:(sum level18 level10 level28)
  S:(sum level18 level11 level29)
  S:(sum level18 level12 level30)
  S:(sum level18 level13 level31)
  S:(sum level18 level14 level32)
  S:(sum level18 level15 level33)
  S:(sum level19 level0 level19)
  S:(sum level19 level1 level20)
  S:(sum level19 level2 level21)
  S:(sum level19 level3 level22)
  S:(sum level19 level4 level23)
  S:(sum level19 level5 level24)
  S:(sum level19 level6 level25)
  S:(sum level19 level7 level26)
  S:(sum level19 level8 level27)
  S:(sum level19 level9 level28)
  S:(sum level19 level10 level29)
  S:(sum level19 level11 level30)
  S:(sum level19 level12 level31)
  S:(sum level19 level13 level32)
  S:(sum level19 level14 level33)
  S:(sum level20 level0 level20)
  S:(sum level20 level1 level21)
  S:(sum level20 level2 level22)
  S:(sum level20 level3 level23)
  S:(sum level20 level4 level24)
  S:(sum level20 level5 level25)
  S:(sum level20 level6 level26)
  S:(sum level20 level7 level27)
  S:(sum level20 level8 level28)
  S:(sum level20 level9 level29)
  S:(sum level20 level10 level30)
  S:(sum level20 level11 level31)
  S:(sum level20 level12 level32)
  S:(sum level20 level13 level33)
  S:(sum level21 level0 level21)
  S:(sum level21 level1 level22)
  S:(sum level21 level2 level23)
  S:(sum level21 level3 level24)
  S:(sum level21 level4 level25)
  S:(sum level21 level5 level26)
  S:(sum level21 level6 level27)
  S:(sum level21 level7 level28)
  S:(sum level21 level8 level29)
  S:(sum level21 level9 level30)
  S:(sum level21 level10 level31)
  S:(sum level21 level11 level32)
  S:(sum level21 level12 level33)
  S:(sum level22 level0 level22)
  S:(sum level22 level1 level23)
  S:(sum level22 level2 level24)
  S:(sum level22 level3 level25)
  S:(sum level22 level4 level26)
  S:(sum level22 level5 level27)
  S:(sum level22 level6 level28)
  S:(sum level22 level7 level29)
  S:(sum level22 level8 level30)
  S:(sum level22 level9 level31)
  S:(sum level22 level10 level32)
  S:(sum level22 level11 level33)
  S:(sum level23 level0 level23)
  S:(sum level23 level1 level24)
  S:(sum level23 level2 level25)
  S:(sum level23 level3 level26)
  S:(sum level23 level4 level27)
  S:(sum level23 level5 level28)
  S:(sum level23 level6 level29)
  S:(sum level23 level7 level30)
  S:(sum level23 level8 level31)
  S:(sum level23 level9 level32)
  S:(sum level23 level10 level33)
  S:(sum level24 level0 level24)
  S:(sum level24 level1 level25)
  S:(sum level24 level2 level26)
  S:(sum level24 level3 level27)
  S:(sum level24 level4 level28)
  S:(sum level24 level5 level29)
  S:(sum level24 level6 level30)
  S:(sum level24 level7 level31)
  S:(sum level24 level8 level32)
  S:(sum level24 level9 level33)
  S:(sum level25 level0 level25)
  S:(sum level25 level1 level26)
  S:(sum level25 level2 level27)
  S:(sum level25 level3 level28)
  S:(sum level25 level4 level29)
  S:(sum level25 level5 level30)
  S:(sum level25 level6 level31)
  S:(sum level25 level7 level32)
  S:(sum level25 level8 level33)
  S:(sum level26 level0 level26)
  S:(sum level26 level1 level27)
  S:(sum level26 level2 level28)
  S:(sum level26 level3 level29)
  S:(sum level26 level4 level30)
  S:(sum level26 level5 level31)
  S:(sum level26 level6 level32)
  S:(sum level26 level7 level33)
  S:(sum level27 level0 level27)
  S:(sum level27 level1 level28)
  S:(sum level27 level2 level29)
  S:(sum level27 level3 level30)
  S:(sum level27 level4 level31)
  S:(sum level27 level5 level32)
  S:(sum level27 level6 level33)
  S:(sum level28 level0 level28)
  S:(sum level28 level1 level29)
  S:(sum level28 level2 level30)
  S:(sum level28 level3 level31)
  S:(sum level28 level4 level32)
  S:(sum level28 level5 level33)
  S:(sum level29 level0 level29)
  S:(sum level29 level1 level30)
  S:(sum level29 level2 level31)
  S:(sum level29 level3 level32)
  S:(sum level29 level4 level33)
  S:(sum level30 level0 level30)
  S:(sum level30 level1 level31)
  S:(sum level30 level2 level32)
  S:(sum level30 level3 level33)
  S:(sum level31 level0 level31)
  S:(sum level31 level1 level32)
  S:(sum level31 level2 level33)
  S:(sum level32 level0 level32)
  S:(sum level32 level1 level33)
  S:(sum level33 level0 level33)
  S:(price goods0 market4 level18)
  (on-sale goods0 market4)
  S:(price goods0 market5 level9)
  (on-sale goods0 market5)
  S:(price goods0 market6 level8)
  (on-sale goods0 market6)
  S:(price goods1 market1 level5)
  (on-sale goods1 market1)
  S:(price goods2 market3 level6)
  (on-sale goods2 market3)
  S:(price goods2 market6 level18)
  (on-sale goods2 market6)
  S:(drive-cost depot0 market3 level2)
  S:(connected depot0 market3)
  S:(drive-cost depot0 market4 level4)
  S:(connected depot0 market4)
  S:(drive-cost depot0 market5 level18)
  S:(connected depot0 market5)
  S:(drive-cost depot0 market6 level9)
  S:(connected depot0 market6)
  S:(drive-cost market1 market4 level14)
  S:(connected market1 market4)
  S:(drive-cost market1 market6 level17)
  S:(connected market1 market6)
  S:(drive-cost market2 market3 level2)
  S:(connected market2 market3)
  S:(drive-cost market3 depot0 level2)
  S:(connected market3 depot0)
  S:(drive-cost market3 market2 level2)
  S:(connected market3 market2)
  S:(drive-cost market4 depot0 level4)
  S:(connected market4 depot0)
  S:(drive-cost market4 market1 level14)
  S:(connected market4 market1)
  S:(drive-cost market5 depot0 level18)
  S:(connected market5 depot0)
  S:(drive-cost market6 depot0 level9)
  S:(connected market6 depot0)
  S:(drive-cost market6 market1 level17)
  S:(connected market6 market1)
  (at truck0 depot0)
  (money level33)
Init[0]:
Goal: (and (W:stored goods0) (W:stored goods1) (W:stored goods2))
Metric: 0
