< {capacity V0:vehicle C1:capacity-number}:=1
, {at-vehicle V0:vehicle C1:location}:=1
, {count-package V0:package V1:object C2:pnum}:=1
, {count-package V0:package V1:locatable C2:pnum}:=1
, {capacity V0:vehicle C4:capacity-number, count-package V1:package V2:capacity-number V3:pnum}:=1
, {capacity V0:vehicle C4:capacity-number, count-package V1:package V2:pnum V3:pnum}:=1
, {capacity V0:vehicle C4:capacity-number, count-package V1:package V2:package V3:pnum}:=1
>
Goal aware:
< {count-package package-bag1 city-loc-3 C0:pnum}:=1
, {count-package package-bag2 city-loc-13 C0:pnum}:=1
, {count-package package-bag2 city-loc-14 C0:pnum}:=1
, {count-package package-bag2 city-loc-32 C0:pnum}:=1
, {count-package package-bag3 city-loc-37 C0:pnum}:=1
, {count-package package-bag4 city-loc-34 C0:pnum}:=1
, {count-package package-bag5 city-loc-18 C0:pnum}:=1
, {count-package package-bag5 city-loc-43 C0:pnum}:=1
, {count-package package-bag6 city-loc-2 C0:pnum}:=1
, {count-package package-bag7 city-loc-27 C0:pnum}:=1
, {count-package package-bag8 city-loc-13 C0:pnum}:=1
, {count-package package-bag9 city-loc-39 C0:pnum}:=1
, {count-package package-bag10 city-loc-40 C0:pnum}:=1
, {count-package package-bag11 city-loc-6 C0:pnum}:=1
, {count-package package-bag12 city-loc-16 C0:pnum}:=1
, {count-package package-bag13 city-loc-42 C0:pnum}:=1
, {count-package package-bag14 city-loc-15 C0:pnum}:=1
, {count-package package-bag15 city-loc-44 C0:pnum}:=1
, {count-package package-bag16 city-loc-41 C0:pnum}:=1
, {count-package package-bag17 city-loc-17 C0:pnum}:=1
, {count-package package-bag18 city-loc-23 C0:pnum}:=1
>
