Monotonicity invariants:
< {shaker-level V0:shaker C1:level}
, {count-hand V0:hand V1:object C2:hnum}
, {count-shot-goal V0:shot V1:object C2:snum}
, {unshaked V0:shaker, shaked V0:shaker, empty-shaker V0:shaker}
, {unshaked V0:shaker, shaked V0:shaker, empty-shaker V1:shaker}
, {unshaked V0:shaker, shaked V0:shaker, empty-shaker C1:shaker}
, {unshaked V0:shaker, shaked V1:shaker, empty-shaker V0:shaker}
, {unshaked V0:shaker, shaked C1:shaker, empty-shaker V0:shaker}
, {unshaked V0:shaker, shaked V1:shaker, empty-shaker V1:shaker}
, {unshaked V0:shaker, shaked C1:shaker, empty-shaker C2:shaker}
, {unshaked C0:shaker, shaked C1:shaker, empty-shaker C2:shaker}
, {unshaked C1:shaker, shaked V0:shaker, empty-shaker V0:shaker}
, {unshaked C1:shaker, shaked V0:shaker, empty-shaker C2:shaker}
, {unshaked C1:shaker, shaked C2:shaker, empty-shaker V0:shaker}
>
FD Mutex Groups:
< {shaker-level shaker1 C0:level}:=1
, {count-hand hand-bag1 V0:object C1:hnum}:=1
, {count-shot-goal shot-bag1 V0:object C1:snum}:=1
, {unshaked shaker1, shaked shaker1, empty-shaker shaker1}:=1
>
