Collapsing type 5:square with 6 objects
Reduced 10 -> 5
Domain: wumpus-adl
Problem: wumpus-adl-1
Require: ff
Type[6]:
    [0]: object, parent: -1
    [1]: agent, parent: 0
    [2]: wumpus, parent: 0
    [3]: gold, parent: 0
    [4]: arrow, parent: 0
    [5]: square, parent: 0
Obj-by-Type:
    [0]: 0 1 2 3 4
    [1]: 3
    [2]: 4
    [3]: 1
    [4]: 2
    [5]: 0
Obj[5]:
    [0]: s-1-1, type: 5, is-constant: 0, is-private: 0, owner: -1, is-agent: 0
    [1]: gold-1, type: 3, is-constant: 0, is-private: 0, owner: -1, is-agent: 0
    [2]: arrow-1, type: 4, is-constant: 0, is-private: 0, owner: -1, is-agent: 0
    [3]: agent-1, type: 1, is-constant: 0, is-private: 0, owner: -1, is-agent: 0
    [4]: wumpus-1, type: 2, is-constant: 0, is-private: 0, owner: -1, is-agent: 0
Predicate[6]:
    =: 0 0 :: is-private: 0, owner-param: -1, read: 0, write: 0
    at: 0 0 :: is-private: 0, owner-param: -1, read: 1, write: 1
    adj: 0 0 :: is-private: 0, owner-param: -1, read: 1, write: 0
    pit: 0 :: is-private: 0, owner-param: -1, read: 1, write: 0
    have: 0 0 :: is-private: 0, owner-param: -1, read: 1, write: 1
    alive: 0 :: is-private: 0, owner-param: -1, read: 1, write: 1
Function[0]:
Action[3]:
    move: ?who:1 ?from:5 ?to:5
        pre: (and (RW:alive ?who) (RW:at ?who ?from) (R:adj ?from ?to))
        eff: (and (RW:at ?who ?to) (when (R:pit ?to) (N:RW:alive ?who)) (when (and (RW:at wumpus-1 ?to) (RW:alive wumpus-1)) (N:RW:alive ?who)))
    take: ?who:1 ?where:5 ?what:0
        pre: (and (RW:alive ?who) (RW:at ?who ?where) (RW:at ?what ?where))
        eff: (and (RW:have ?who ?what))
    shoot: ?who:1 ?where:5 ?with-arrow:4 ?victim:2 ?where-victim:5
        pre: (and (RW:alive ?who) (RW:have ?who ?with-arrow) (RW:at ?who ?where) (RW:alive ?victim) (RW:at ?victim ?where-victim) (R:adj ?where ?where-victim))
        eff: (and (N:RW:alive ?victim) (N:RW:have ?who ?with-arrow))
Init[21]:
  S:(adj s-1-1 s-1-1)
  S:(adj s-1-1 s-1-1)
  S:(adj s-1-1 s-1-1)
  S:(adj s-1-1 s-1-1)
  S:(adj s-1-1 s-1-1)
  S:(adj s-1-1 s-1-1)
  S:(adj s-1-1 s-1-1)
  S:(adj s-1-1 s-1-1)
  S:(adj s-1-1 s-1-1)
  S:(adj s-1-1 s-1-1)
  S:(adj s-1-1 s-1-1)
  S:(adj s-1-1 s-1-1)
  S:(adj s-1-1 s-1-1)
  S:(adj s-1-1 s-1-1)
  S:(pit s-1-1)
  (at gold-1 s-1-1)
  (at agent-1 s-1-1)
  (alive agent-1)
  (have agent-1 arrow-1)
  (at wumpus-1 s-1-1)
  (alive wumpus-1)
Init[0]:
Goal: (and (RW:have agent-1 gold-1) (RW:at agent-1 s-1-1) (RW:alive agent-1))
Metric: 0
