begin_version
3
end_version
begin_metric
1
end_metric
9
begin_variable
var0
-1
2
NOT-white r1 c1
white r1 c1
end_variable
begin_variable
var1
-1
2
NOT-white r1 c2
white r1 c2
end_variable
begin_variable
var2
-1
2
NOT-white r1 c3
white r1 c3
end_variable
begin_variable
var3
-1
2
NOT-white r2 c1
white r2 c1
end_variable
begin_variable
var4
-1
2
NOT-white r2 c2
white r2 c2
end_variable
begin_variable
var5
-1
2
NOT-white r2 c3
white r2 c3
end_variable
begin_variable
var6
-1
2
NOT-white r3 c1
white r3 c1
end_variable
begin_variable
var7
-1
2
NOT-white r3 c2
white r3 c2
end_variable
begin_variable
var8
-1
2
NOT-white r3 c3
white r3 c3
end_variable
0
begin_state
0
0
0
1
0
0
0
0
0
end_state
begin_goal
9
0 1
1 1
2 1
3 1
4 1
5 1
6 1
7 1
8 1
end_goal
48
begin_operator
flip_column c1
0
3
0 0 0 1
0 3 0 1
0 6 0 1
1
end_operator
begin_operator
flip_column c1
0
3
0 0 0 1
0 3 0 1
0 6 1 0
1
end_operator
begin_operator
flip_column c1
0
3
0 0 0 1
0 3 1 0
0 6 0 1
1
end_operator
begin_operator
flip_column c1
0
3
0 0 0 1
0 3 1 0
0 6 1 0
1
end_operator
begin_operator
flip_column c1
0
3
0 0 1 0
0 3 0 1
0 6 0 1
1
end_operator
begin_operator
flip_column c1
0
3
0 0 1 0
0 3 0 1
0 6 1 0
1
end_operator
begin_operator
flip_column c1
0
3
0 0 1 0
0 3 1 0
0 6 0 1
1
end_operator
begin_operator
flip_column c1
0
3
0 0 1 0
0 3 1 0
0 6 1 0
1
end_operator
begin_operator
flip_column c2
0
3
0 1 0 1
0 4 0 1
0 7 0 1
1
end_operator
begin_operator
flip_column c2
0
3
0 1 0 1
0 4 0 1
0 7 1 0
1
end_operator
begin_operator
flip_column c2
0
3
0 1 0 1
0 4 1 0
0 7 0 1
1
end_operator
begin_operator
flip_column c2
0
3
0 1 0 1
0 4 1 0
0 7 1 0
1
end_operator
begin_operator
flip_column c2
0
3
0 1 1 0
0 4 0 1
0 7 0 1
1
end_operator
begin_operator
flip_column c2
0
3
0 1 1 0
0 4 0 1
0 7 1 0
1
end_operator
begin_operator
flip_column c2
0
3
0 1 1 0
0 4 1 0
0 7 0 1
1
end_operator
begin_operator
flip_column c2
0
3
0 1 1 0
0 4 1 0
0 7 1 0
1
end_operator
begin_operator
flip_column c3
0
3
0 2 0 1
0 5 0 1
0 8 0 1
1
end_operator
begin_operator
flip_column c3
0
3
0 2 0 1
0 5 0 1
0 8 1 0
1
end_operator
begin_operator
flip_column c3
0
3
0 2 0 1
0 5 1 0
0 8 0 1
1
end_operator
begin_operator
flip_column c3
0
3
0 2 0 1
0 5 1 0
0 8 1 0
1
end_operator
begin_operator
flip_column c3
0
3
0 2 1 0
0 5 0 1
0 8 0 1
1
end_operator
begin_operator
flip_column c3
0
3
0 2 1 0
0 5 0 1
0 8 1 0
1
end_operator
begin_operator
flip_column c3
0
3
0 2 1 0
0 5 1 0
0 8 0 1
1
end_operator
begin_operator
flip_column c3
0
3
0 2 1 0
0 5 1 0
0 8 1 0
1
end_operator
begin_operator
flip_row r1
0
3
0 0 0 1
0 1 0 1
0 2 0 1
1
end_operator
begin_operator
flip_row r1
0
3
0 0 0 1
0 1 0 1
0 2 1 0
1
end_operator
begin_operator
flip_row r1
0
3
0 0 0 1
0 1 1 0
0 2 0 1
1
end_operator
begin_operator
flip_row r1
0
3
0 0 0 1
0 1 1 0
0 2 1 0
1
end_operator
begin_operator
flip_row r1
0
3
0 0 1 0
0 1 0 1
0 2 0 1
1
end_operator
begin_operator
flip_row r1
0
3
0 0 1 0
0 1 0 1
0 2 1 0
1
end_operator
begin_operator
flip_row r1
0
3
0 0 1 0
0 1 1 0
0 2 0 1
1
end_operator
begin_operator
flip_row r1
0
3
0 0 1 0
0 1 1 0
0 2 1 0
1
end_operator
begin_operator
flip_row r2
0
3
0 3 0 1
0 4 0 1
0 5 0 1
1
end_operator
begin_operator
flip_row r2
0
3
0 3 0 1
0 4 0 1
0 5 1 0
1
end_operator
begin_operator
flip_row r2
0
3
0 3 0 1
0 4 1 0
0 5 0 1
1
end_operator
begin_operator
flip_row r2
0
3
0 3 0 1
0 4 1 0
0 5 1 0
1
end_operator
begin_operator
flip_row r2
0
3
0 3 1 0
0 4 0 1
0 5 0 1
1
end_operator
begin_operator
flip_row r2
0
3
0 3 1 0
0 4 0 1
0 5 1 0
1
end_operator
begin_operator
flip_row r2
0
3
0 3 1 0
0 4 1 0
0 5 0 1
1
end_operator
begin_operator
flip_row r2
0
3
0 3 1 0
0 4 1 0
0 5 1 0
1
end_operator
begin_operator
flip_row r3
0
3
0 6 0 1
0 7 0 1
0 8 0 1
1
end_operator
begin_operator
flip_row r3
0
3
0 6 0 1
0 7 0 1
0 8 1 0
1
end_operator
begin_operator
flip_row r3
0
3
0 6 0 1
0 7 1 0
0 8 0 1
1
end_operator
begin_operator
flip_row r3
0
3
0 6 0 1
0 7 1 0
0 8 1 0
1
end_operator
begin_operator
flip_row r3
0
3
0 6 1 0
0 7 0 1
0 8 0 1
1
end_operator
begin_operator
flip_row r3
0
3
0 6 1 0
0 7 0 1
0 8 1 0
1
end_operator
begin_operator
flip_row r3
0
3
0 6 1 0
0 7 1 0
0 8 0 1
1
end_operator
begin_operator
flip_row r3
0
3
0 6 1 0
0 7 1 0
0 8 1 0
1
end_operator
0
