Maximal 9:
 (NOT-white r1 c1) (white r1 c1):=1:fam:G
 (NOT-white r1 c2) (white r1 c2):=1:fam:G
 (NOT-white r1 c3) (white r1 c3):=1:fam:G
 (NOT-white r2 c1) (white r2 c1):=1:fam:G
 (NOT-white r2 c2) (white r2 c2):=1:fam:G
 (NOT-white r2 c3) (white r2 c3):=1:fam:G
 (NOT-white r3 c1) (white r3 c1):=1:fam:G
 (NOT-white r3 c2) (white r3 c2):=1:fam:G
 (NOT-white r3 c3) (white r3 c3):=1:fam:G


Mutex Group Cover Number: 9
