begin_version
3
end_version
begin_metric
1
end_metric
13
begin_variable
var0
-1
2
cleavable e-coli-exosome
none-of-those
end_variable
begin_variable
var1
-1
2
cleavable insulin-gene
none-of-those
end_variable
begin_variable
var2
-1
2
cleavable junk-exosome
none-of-those
end_variable
begin_variable
var3
-1
2
cleaved e-coli-exosome
none-of-those
end_variable
begin_variable
var4
-1
2
cleaved insulin-gene
none-of-those
end_variable
begin_variable
var5
-1
2
cleaved junk-exosome
none-of-those
end_variable
begin_variable
var6
-1
2
connected-cdna-mrna insulin-gene
none-of-those
end_variable
begin_variable
var7
-1
2
contains e-coli-exosome e-coli
none-of-those
end_variable
begin_variable
var8
-1
2
contains insulin-gene e-coli-exosome
none-of-those
end_variable
begin_variable
var9
-1
2
double-strand insulin-gene
none-of-those
end_variable
begin_variable
var10
-1
2
hair-pin insulin-gene
none-of-those
end_variable
begin_variable
var11
-1
2
pure e-coli
none-of-those
end_variable
begin_variable
var12
-1
2
single-strand insulin-gene
none-of-those
end_variable
0
begin_state
0
1
0
1
1
1
1
1
1
1
1
1
1
end_state
begin_goal
3
7 0
8 0
11 0
end_goal
17
begin_operator
cleave e-coli-exosome
0
2
0 0 0 1
0 3 -1 0
1
end_operator
begin_operator
cleave insulin-gene
0
2
0 1 0 1
0 4 -1 0
1
end_operator
begin_operator
cleave junk-exosome
0
2
0 2 0 1
0 5 -1 0
1
end_operator
begin_operator
digest insulin-gene
0
2
0 9 -1 0
0 10 0 1
1
end_operator
begin_operator
ligate e-coli-exosome insulin-gene
0
3
0 1 -1 0
0 3 0 1
0 4 0 1
1
end_operator
begin_operator
ligate e-coli-exosome junk-exosome
0
3
0 2 -1 0
0 3 0 1
0 5 0 1
1
end_operator
begin_operator
ligate insulin-gene e-coli-exosome
0
4
0 0 -1 0
0 3 0 1
0 4 0 1
0 8 -1 0
1
end_operator
begin_operator
ligate insulin-gene junk-exosome
0
3
0 2 -1 0
0 4 0 1
0 5 0 1
1
end_operator
begin_operator
ligate junk-exosome e-coli-exosome
0
3
0 0 -1 0
0 3 0 1
0 5 0 1
1
end_operator
begin_operator
ligate junk-exosome insulin-gene
0
3
0 1 -1 0
0 4 0 1
0 5 0 1
1
end_operator
begin_operator
ligate linker insulin-gene
1
9 0
1
0 1 -1 0
1
end_operator
begin_operator
polymerize insulin-gene
0
2
0 10 -1 0
0 12 0 1
1
end_operator
begin_operator
reverse-transcribe insulin-gene
0
1
0 6 -1 0
1
end_operator
begin_operator
screen e-coli e-coli-exosome antibiotic-1
1
7 0
1
0 11 -1 0
1
end_operator
begin_operator
separate insulin-gene
0
2
0 6 0 1
0 12 -1 0
1
end_operator
begin_operator
transform e-coli-exosome e-coli
0
2
0 0 0 1
0 7 -1 0
1
end_operator
begin_operator
transform junk-exosome junk
0
1
0 2 0 1
1
end_operator
0
